02.11.2018 10:00:00||AKTİFBANK|10.40.25.134|||110000438458|93
02.11.2018 10:00:00||AKTİFBANK|10.40.24.134|||110000438458|93
02.11.2018 10:00:00||AKTİFBANK|10.40.24.135|||110000438458|103
02.11.2018 10:00:00||AKTİFBANK|10.40.25.137|||110000438458|58
02.11.2018 10:00:00||AKTİFBANK|10.40.25.172|||110000438458|88
02.11.2018 10:00:00||AKTİFBANK|10.40.24.172|||110000438458|96
02.11.2018 10:00:00||AKTİFBANK|10.40.25.173|||110000438458|97
02.11.2018 10:00:00||AKTİFBANK|10.40.25.171|||110000438458|12
02.11.2018 10:00:00||AKTİFBANK|10.40.25.174|||110000438458|53
02.11.2018 10:00:00||AKTİFBANK|10.40.24.173|||110000438458|95
02.11.2018 10:00:00||AKTİFBANK|10.40.25.135|||110000438458|102
02.11.2018 10:00:00||AKTİFBANK|10.40.24.137|||110000438458|58
02.11.2018 10:00:00||AKTİFBANK|10.40.24.171|||110000438458|11
02.11.2018 10:00:00||AKTİFBANK|10.40.24.174|||110000438458|60
02.11.2018 10:00:00||AKTİFBANK|10.40.25.139|||110000438458|70
02.11.2018 10:00:00||AKTİFBANK|10.40.25.139|||110000438458|80
02.11.2018 10:00:00||AKTİFBANK|10.40.25.150|||110000438458|538
02.11.2018 10:00:00||AKTİFBANK|10.40.25.129|||110000438458|90
02.11.2018 10:00:00||AKTİFBANK|10.40.25.129|||110000438458|140
02.11.2018 10:00:00||AKTİFBANK|10.40.25.130|||110000438458|70
02.11.2018 10:00:00||AKTİFBANK|10.40.25.130|||110000438458|130
02.11.2018 10:00:00||AKTİFBANK|10.40.25.130|||110000438458|100
02.11.2018 10:00:00||AKTİFBANK|10.40.25.131|||110000438458|48
02.11.2018 10:00:00||AKTİFBANK|10.40.25.143|||110000438458|60
02.11.2018 10:00:00||AKTİFBANK|10.40.25.143|||110000438458|245
02.11.2018 10:00:00||AKTİFBANK|10.40.25.143|||110000438458|260
02.11.2018 10:00:00||AKTİFBANK|10.40.25.158|||110000438458|103
02.11.2018 10:00:00||AKTİFBANK|10.40.25.160|||110000438458|110
02.11.2018 10:00:00||AKTİFBANK|10.40.25.162|||110000438458|30
02.11.2018 10:00:00||AKTİFBANK|10.40.25.162|||110000438458|40
02.11.2018 10:00:00||AKTİFBANK|10.40.24.140|||110000438458|162
02.11.2018 10:00:00||AKTİFBANK|10.40.24.140|||110000438458|80
02.11.2018 10:00:00||AKTİFBANK|10.40.24.140|||110000438458|40
02.11.2018 10:00:00||AKTİFBANK|10.40.24.140|||110000438458|30
02.11.2018 10:00:00||AKTİFBANK|10.40.24.140|||110000438458|30
02.11.2018 10:00:00||AKTİFBANK|10.40.24.140|||110000438458|30
02.11.2018 10:00:00||AKTİFBANK|10.40.24.149|||110000438458|80
02.11.2018 10:00:00||AKTİFBANK|10.40.24.149|||110000438458|120
02.11.2018 10:00:00||AKTİFBANK|10.40.24.149|||110000438458|98
02.11.2018 10:00:00||AKTİFBANK|10.40.24.149|||110000438458|75
02.11.2018 10:00:00||AKTİFBANK|10.40.24.149|||110000438458|57
02.11.2018 10:00:00||AKTİFBANK|10.40.24.149|||110000438458|140
02.11.2018 10:00:00||AKTİFBANK|10.40.24.149|||110000438458|92
02.11.2018 10:00:00||AKTİFBANK|10.40.24.149|||110000438458|90
02.11.2018 10:00:00||AKTİFBANK|10.40.24.149|||110000438458|97
02.11.2018 10:00:00||AKTİFBANK|10.40.24.149|||110000438458|80
02.11.2018 10:00:00||AKTİFBANK|10.40.24.133|||110000438458|148
02.11.2018 10:00:00||AKTİFBANK|10.40.24.133|||110000438458|122
02.11.2018 10:00:00||AKTİFBANK|10.40.24.133|||110000438458|83
02.11.2018 10:00:00||AKTİFBANK|10.40.24.138|||110000438458|115
02.11.2018 10:00:00||AKTİFBANK|10.40.24.138|||110000438458|140
02.11.2018 10:00:00||AKTİFBANK|10.40.24.138|||110000438458|110
02.11.2018 10:00:00||AKTİFBANK|10.40.24.138|||110000438458|33
02.11.2018 10:00:00||AKTİFBANK|10.40.24.138|||110000438458|50
02.11.2018 10:00:00||AKTİFBANK|10.40.24.139|||110000438458|160
02.11.2018 10:00:00||AKTİFBANK|10.40.24.139|||110000438458|90
02.11.2018 10:00:00||AKTİFBANK|10.40.24.139|||110000438458|122
02.11.2018 10:00:00||AKTİFBANK|10.40.24.141|||110000438458|200
02.11.2018 10:00:00||AKTİFBANK|10.40.24.141|||110000438458|102
02.11.2018 10:00:00||AKTİFBANK|10.40.24.141|||110000438458|100
02.11.2018 10:00:00||AKTİFBANK|10.40.24.141|||110000438458|70
02.11.2018 10:00:00||AKTİFBANK|10.40.24.141|||110000438458|80
02.11.2018 10:00:00||AKTİFBANK|10.40.25.152|||110000438458|110
02.11.2018 10:00:00||AKTİFBANK|10.40.25.152|||110000438458|50
02.11.2018 10:00:00||AKTİFBANK|10.40.25.152|||110000438458|140
02.11.2018 10:00:00||AKTİFBANK|10.40.25.152|||110000438458|70
02.11.2018 10:00:00||AKTİFBANK|10.40.25.152|||110000438458|90
02.11.2018 10:00:00||AKTİFBANK|10.40.25.152|||110000438458|160
02.11.2018 10:00:00||AKTİFBANK|10.40.25.152|||110000438458|50
02.11.2018 10:00:00||AKTİFBANK|10.40.25.152|||110000438458|90
02.11.2018 10:00:00||AKTİFBANK|10.40.25.152|||110000438458|30
02.11.2018 10:00:00||AKTİFBANK|10.40.25.152|||110000438458|80
02.11.2018 10:00:00||AKTİFBANK|10.40.25.152|||110000438458|30
02.11.2018 10:00:00||AKTİFBANK|10.40.24.150|||110000438458|575
02.11.2018 10:00:00||AKTİFBANK|10.40.24.151|||110000438458|530
02.11.2018 10:00:00||AKTİFBANK|10.40.24.151|||110000438458|530
02.11.2018 10:00:00||AKTİFBANK|10.40.24.128|||110000438458|60
02.11.2018 10:00:00||AKTİFBANK|10.40.24.128|||110000438458|70
02.11.2018 10:00:00||AKTİFBANK|10.40.24.128|||110000438458|100
02.11.2018 10:00:00||AKTİFBANK|10.40.24.128|||110000438458|40
02.11.2018 10:00:00||AKTİFBANK|10.40.24.128|||110000438458|70
02.11.2018 10:00:00||AKTİFBANK|10.40.24.128|||110000438458|70
02.11.2018 10:00:00||AKTİFBANK|10.40.24.129|||110000438458|100
02.11.2018 10:00:00||AKTİFBANK|10.40.24.129|||110000438458|70
02.11.2018 10:00:00||AKTİFBANK|10.40.24.129|||110000438458|110
02.11.2018 10:00:00||AKTİFBANK|10.40.24.129|||110000438458|120
02.11.2018 10:00:00||AKTİFBANK|10.40.24.129|||110000438458|40
02.11.2018 10:00:00||AKTİFBANK|10.40.24.129|||110000438458|70
02.11.2018 10:00:00||AKTİFBANK|10.40.24.129|||110000438458|70
02.11.2018 10:00:00||AKTİFBANK|10.40.24.129|||110000438458|90
02.11.2018 10:00:00||AKTİFBANK|10.40.24.129|||110000438458|80
02.11.2018 10:00:00||AKTİFBANK|10.40.24.129|||110000438458|140
02.11.2018 10:00:00||AKTİFBANK|10.40.24.130|||110000438458|47
02.11.2018 10:00:00||AKTİFBANK|10.40.24.130|||110000438458|40
02.11.2018 10:00:00||AKTİFBANK|10.40.24.130|||110000438458|68
02.11.2018 10:00:00||AKTİFBANK|10.40.24.130|||110000438458|38
02.11.2018 10:00:00||AKTİFBANK|10.40.24.130|||110000438458|63
02.11.2018 10:00:00||AKTİFBANK|10.40.24.130|||110000438458|78
02.11.2018 10:00:00||AKTİFBANK|10.40.24.130|||110000438458|83
02.11.2018 10:00:00||AKTİFBANK|10.40.24.130|||110000438458|37
02.11.2018 10:00:00||AKTİFBANK|10.40.24.130|||110000438458|130
02.11.2018 10:00:00||AKTİFBANK|10.40.24.130|||110000438458|110
02.11.2018 10:00:00||AKTİFBANK|10.40.24.131|||110000438458|92
02.11.2018 10:00:00||AKTİFBANK|10.40.24.131|||110000438458|90
02.11.2018 10:00:00||AKTİFBANK|10.40.24.131|||110000438458|113
02.11.2018 10:00:00||AKTİFBANK|10.40.24.131|||110000438458|110
02.11.2018 10:00:00||AKTİFBANK|10.40.24.131|||110000438458|32
02.11.2018 10:00:00||AKTİFBANK|10.40.24.131|||110000438458|160
02.11.2018 10:00:00||AKTİFBANK|10.40.24.131|||110000438458|60
02.11.2018 10:00:00||AKTİFBANK|10.40.24.131|||110000438458|110
02.11.2018 10:00:00||AKTİFBANK|10.40.24.132|||110000438458|37
02.11.2018 10:00:00||AKTİFBANK|10.40.24.132|||110000438458|88
02.11.2018 10:00:00||AKTİFBANK|10.40.24.132|||110000438458|55
02.11.2018 10:00:00||AKTİFBANK|10.40.24.132|||110000438458|193
02.11.2018 10:00:00||AKTİFBANK|10.40.24.132|||110000438458|67
02.11.2018 10:00:00||AKTİFBANK|10.40.24.143|||110000438458|68
02.11.2018 10:00:00||AKTİFBANK|10.40.24.143|||110000438458|268
02.11.2018 10:00:00||AKTİFBANK|10.40.24.143|||110000438458|298
02.11.2018 10:00:00||AKTİFBANK|10.40.24.143|||110000438458|212
02.11.2018 10:00:00||AKTİFBANK|10.40.24.144|||110000438458|70
02.11.2018 10:00:00||AKTİFBANK|10.40.24.144|||110000438458|110
02.11.2018 10:00:00||AKTİFBANK|10.40.24.144|||110000438458|130
02.11.2018 10:00:00||AKTİFBANK|10.40.24.148|||110000438458|70
02.11.2018 10:00:00||AKTİFBANK|10.40.24.148|||110000438458|170
02.11.2018 10:00:00||AKTİFBANK|10.40.24.148|||110000438458|90
02.11.2018 10:00:00||AKTİFBANK|10.40.24.148|||110000438458|110
02.11.2018 10:00:00||AKTİFBANK|10.40.24.148|||110000438458|80
02.11.2018 10:00:00||AKTİFBANK|10.40.24.148|||110000438458|90
02.11.2018 10:00:00||AKTİFBANK|10.40.24.148|||110000438458|90
02.11.2018 10:00:00||AKTİFBANK|10.40.24.148|||110000438458|100
02.11.2018 10:00:00||AKTİFBANK|10.40.24.148|||110000438458|90
02.11.2018 10:00:00||AKTİFBANK|10.40.24.148|||110000438458|60
02.11.2018 10:00:00||AKTİFBANK|10.40.24.148|||110000438458|30
02.11.2018 10:00:00||AKTİFBANK|10.40.24.148|||110000438458|80
02.11.2018 10:00:00||AKTİFBANK|10.40.24.153|||110000438458|10
02.11.2018 10:00:00||AKTİFBANK|10.40.24.153|||110000438458|90
02.11.2018 10:00:00||AKTİFBANK|10.40.24.153|||110000438458|70
02.11.2018 10:00:00||AKTİFBANK|10.40.24.153|||110000438458|80
02.11.2018 10:00:00||AKTİFBANK|10.40.24.157|||110000438458|30
02.11.2018 10:00:00||AKTİFBANK|10.40.24.157|||110000438458|70
02.11.2018 10:00:00||AKTİFBANK|10.40.24.157|||110000438458|70
02.11.2018 10:00:00||AKTİFBANK|10.40.24.157|||110000438458|40
02.11.2018 10:00:00||AKTİFBANK|10.40.24.157|||110000438458|80
02.11.2018 10:00:00||AKTİFBANK|10.40.24.157|||110000438458|40
02.11.2018 10:00:00||AKTİFBANK|10.40.24.158|||110000438458|80
02.11.2018 10:00:00||AKTİFBANK|10.40.24.158|||110000438458|110
02.11.2018 10:00:00||AKTİFBANK|10.40.24.159|||110000438458|133
02.11.2018 10:00:00||AKTİFBANK|10.40.24.159|||110000438458|55
02.11.2018 10:00:00||AKTİFBANK|10.40.24.159|||110000438458|183
02.11.2018 10:00:00||AKTİFBANK|10.40.24.160|||110000438458|50
02.11.2018 10:00:00||AKTİFBANK|10.40.24.160|||110000438458|90
02.11.2018 10:00:00||AKTİFBANK|10.40.24.160|||110000438458|102
02.11.2018 10:00:00||AKTİFBANK|10.40.24.161|||110000438458|200
02.11.2018 10:00:00||AKTİFBANK|10.40.24.161|||110000438458|80
02.11.2018 10:00:00||AKTİFBANK|10.40.24.161|||110000438458|40
02.11.2018 10:00:00||AKTİFBANK|10.40.24.161|||110000438458|30
02.11.2018 10:00:00||AKTİFBANK|10.40.24.161|||110000438458|30
02.11.2018 10:00:00||AKTİFBANK|10.40.24.161|||110000438458|20
02.11.2018 10:00:00||AKTİFBANK|10.40.24.161|||110000438458|90
02.11.2018 10:00:00||AKTİFBANK|10.40.24.145|||110000438458|30
02.11.2018 10:00:00||AKTİFBANK|10.40.24.145|||110000438458|70
02.11.2018 10:00:00||AKTİFBANK|10.40.24.145|||110000438458|50
02.11.2018 10:00:00||AKTİFBANK|10.40.24.147|||110000438458|90
02.11.2018 10:00:00||AKTİFBANK|10.40.24.162|||110000438458|40
02.11.2018 10:00:00||AKTİFBANK|10.40.24.162|||110000438458|40
02.11.2018 10:00:00||AKTİFBANK|10.40.24.162|||110000438458|123
02.11.2018 10:00:00||AKTİFBANK|10.40.24.162|||110000438458|10
02.11.2018 10:00:00||AKTİFBANK|10.40.24.162|||110000438458|50
02.11.2018 10:00:00||AKTİFBANK|10.40.24.163|||110000438458|30
02.11.2018 10:00:00||AKTİFBANK|10.40.24.163|||110000438458|70
02.11.2018 10:00:00||AKTİFBANK|10.40.24.164|||110000438458|58
02.11.2018 10:00:00||AKTİFBANK|10.40.24.164|||110000438458|330
02.11.2018 10:00:00||AKTİFBANK|10.40.24.164|||110000438458|213
02.11.2018 10:00:00||AKTİFBANK|10.40.24.165|||110000438458|78
02.11.2018 10:00:00||AKTİFBANK|10.40.24.165|||110000438458|80
02.11.2018 10:00:00||AKTİFBANK|10.40.24.165|||110000438458|52
02.11.2018 10:00:00||AKTİFBANK|10.40.24.165|||110000438458|125
02.11.2018 10:00:00||AKTİFBANK|10.40.24.166|||110000438458|80
02.11.2018 10:00:00||AKTİFBANK|10.40.24.166|||110000438458|90
02.11.2018 10:00:00||AKTİFBANK|10.40.24.166|||110000438458|10
02.11.2018 10:00:00||AKTİFBANK|10.40.25.168|||110000438458|90
02.11.2018 10:00:00||AKTİFBANK|10.40.25.168|||110000438458|70
02.11.2018 10:00:00||AKTİFBANK|10.40.25.168|||110000438458|50
02.11.2018 10:00:00||AKTİFBANK|10.40.25.168|||110000438458|40
02.11.2018 10:00:00||AKTİFBANK|10.40.25.168|||110000438458|60
02.11.2018 10:00:00||AKTİFBANK|10.40.24.168|||110000438458|90
02.11.2018 10:00:00||AKTİFBANK|10.40.24.168|||110000438458|80
02.11.2018 10:00:00||AKTİFBANK|10.40.24.168|||110000438458|70
02.11.2018 10:00:00||AKTİFBANK|10.40.24.168|||110000438458|70
02.11.2018 10:00:00||AKTİFBANK|10.40.24.168|||110000438458|30
02.11.2018 10:00:00||AKTİFBANK|10.40.24.154|||110000438458|70
02.11.2018 10:00:00||AKTİFBANK|10.40.24.154|||110000438458|20
02.11.2018 10:00:00||AKTİFBANK|10.40.24.154|||110000438458|10
02.11.2018 10:00:00||AKTİFBANK|10.40.24.154|||110000438458|10
02.11.2018 10:00:00||AKTİFBANK|10.40.24.154|||110000438458|10
02.11.2018 10:00:00||AKTİFBANK|10.40.24.154|||110000438458|10
02.11.2018 10:00:00||AKTİFBANK|10.40.24.155|||110000438458|53
02.11.2018 10:00:00||AKTİFBANK|10.40.24.155|||110000438458|102
02.11.2018 10:00:00||AKTİFBANK|10.40.24.155|||110000438458|130
02.11.2018 10:00:00||AKTİFBANK|10.40.24.155|||110000438458|80
02.11.2018 10:00:00||AKTİFBANK|10.40.24.155|||110000438458|113
02.11.2018 10:00:00||AKTİFBANK|10.40.24.155|||110000438458|100
02.11.2018 10:00:00||AKTİFBANK|10.40.25.169|||110000438458|88
02.11.2018 10:00:00||AKTİFBANK|10.40.25.169|||110000438458|103
02.11.2018 10:00:00||AKTİFBANK|10.40.25.169|||110000438458|72
02.11.2018 10:00:00||AKTİFBANK|10.40.25.169|||110000438458|82
02.11.2018 10:00:00||AKTİFBANK|10.40.24.169|||110000438458|68
02.11.2018 10:00:00||AKTİFBANK|10.40.24.169|||110000438458|88
02.11.2018 10:00:00||AKTİFBANK|10.40.24.169|||110000438458|80
02.11.2018 10:00:00||AKTİFBANK|10.40.24.169|||110000438458|80
02.11.2018 10:00:00||AKTİFBANK|10.40.25.170|||110000438458|30
02.11.2018 10:00:00||AKTİFBANK|10.40.25.170|||110000438458|30
02.11.2018 10:00:00||AKTİFBANK|10.40.25.170|||110000438458|200
02.11.2018 10:00:00||AKTİFBANK|10.40.25.170|||110000438458|100
02.11.2018 10:00:00||AKTİFBANK|10.40.25.170|||110000438458|80
02.11.2018 10:00:00||AKTİFBANK|10.40.25.170|||110000438458|120
02.11.2018 10:00:00||AKTİFBANK|10.40.24.170|||110000438458|60
02.11.2018 10:00:00||AKTİFBANK|10.40.24.170|||110000438458|60
02.11.2018 10:00:00||AKTİFBANK|10.40.24.170|||110000438458|340
02.11.2018 10:00:00||AKTİFBANK|10.40.24.170|||110000438458|80
02.11.2018 10:00:00||AKTİFBANK|10.40.24.170|||110000438458|108
02.11.2018 10:00:00||AKTİFBANK|10.40.24.170|||110000438458|77
02.11.2018 10:00:00||AKTİFBANK|10.40.25.178|||110000438458|590
02.11.2018 10:00:00||AKTİFBANK|10.40.25.178|||110000438458|560
02.11.2018 10:00:00||AKTİFBANK|10.40.25.178|||110000438458|550
02.11.2018 10:00:00||AKTİFBANK|10.40.24.178|||110000438458|578
02.11.2018 10:00:00||AKTİFBANK|10.40.24.178|||110000438458|562
02.11.2018 10:00:00||AKTİFBANK|10.40.24.178|||110000438458|558
02.11.2018 10:00:00||AKTİFBANK|10.40.25.179|||110000438458|397
02.11.2018 10:00:00||AKTİFBANK|10.40.25.179|||110000438458|363
02.11.2018 10:00:00||AKTİFBANK|10.40.25.179|||110000438458|365
02.11.2018 10:00:00||AKTİFBANK|10.40.24.179|||110000438458|320
02.11.2018 10:00:00||AKTİFBANK|10.40.24.179|||110000438458|330
02.11.2018 10:00:00||AKTİFBANK|10.40.24.179|||110000438458|320
02.11.2018 10:00:00||AKTİFBANK|10.40.24.142|||110000438458|40
02.11.2018 10:00:00||AKTİFBANK|10.40.24.156|||110000438458|50
02.11.2018 10:00:00||AKTİFBANK|10.40.24.156|||110000438458|50
02.11.2018 10:00:00||AKTİFBANK|10.40.25.186|||110000438458|90
02.11.2018 10:00:00||AKTİFBANK|10.40.25.186|||110000438458|20
02.11.2018 10:00:00||AKTİFBANK|10.40.25.186|||110000438458|70
02.11.2018 10:00:00||AKTİFBANK|10.40.24.186|||110000438458|90
02.11.2018 10:00:00||AKTİFBANK|10.40.24.186|||110000438458|30
02.11.2018 10:00:00||AKTİFBANK|10.40.24.186|||110000438458|60
02.11.2018 10:00:00||AKTİFBANK|10.40.24.186|||110000438458|40
02.11.2018 10:00:00||AKTİFBANK|10.40.24.152|||110000438458|10
02.11.2018 10:00:00||AKTİFBANK|10.40.24.152|||110000438458|50
02.11.2018 10:00:00||AKTİFBANK|10.40.24.152|||110000438458|103
02.11.2018 10:00:00||AKTİFBANK|10.40.24.152|||110000438458|118
02.11.2018 10:00:00||AKTİFBANK|10.40.24.152|||110000438458|103
02.11.2018 10:00:00||AKTİFBANK|10.40.24.152|||110000438458|105
02.11.2018 10:00:00||AKTİFBANK|10.40.24.152|||110000438458|288
02.11.2018 10:00:00||AKTİFBANK|10.40.24.152|||110000438458|75
02.11.2018 10:00:00||AKTİFBANK|10.40.24.152|||110000438458|90
02.11.2018 10:00:00||AKTİFBANK|10.40.24.152|||110000438458|30
02.11.2018 10:00:00||AKTİFBANK|10.40.24.152|||110000438458|70
02.11.2018 10:00:00||AKTİFBANK|10.40.24.152|||110000438458|30
02.11.2018 10:00:00||AKTİFBANK|10.40.25.140|||110000438458|30
02.11.2018 10:00:00||AKTİFBANK|10.40.24.141|||110000438458|50
02.11.2018 10:00:00||AKTİFBANK|10.40.25.133|||110000438458|90
02.11.2018 10:00:00||AKTİFBANK|10.40.25.133|||110000438458|150
02.11.2018 10:00:00||AKTİFBANK|10.40.25.138|||110000438458|130
02.11.2018 10:00:00||AKTİFBANK|10.40.25.138|||110000438458|75
02.11.2018 10:00:00||AKTİFBANK|10.40.25.139|||110000438458|100
02.11.2018 10:00:00||AKTİFBANK|10.40.25.138|||110000438458|12
02.11.2018 10:00:00||AKTİFBANK|10.40.24.149|||110000438458|110
02.11.2018 10:00:00||AKTİFBANK|10.40.24.150|||110000438458|563
02.11.2018 10:00:00||AKTİFBANK|10.40.25.149|||110000438458|105
02.11.2018 10:00:00||AKTİFBANK|10.40.25.149|||110000438458|90
02.11.2018 10:00:00||AKTİFBANK|10.40.25.149|||110000438458|92
02.11.2018 10:00:00||AKTİFBANK|10.40.24.151|||110000438458|500
02.11.2018 10:00:00||AKTİFBANK|10.40.25.153|||110000438458|80
02.11.2018 10:00:00||AKTİFBANK|10.40.24.149|||110000438458|88
02.11.2018 10:00:00||AKTİFBANK|10.40.24.149|||110000438458|90
02.11.2018 10:00:00||AKTİFBANK|10.40.25.149|||110000438458|77
02.11.2018 10:00:00||AKTİFBANK|10.40.25.149|||110000438458|73
02.11.2018 10:00:00||AKTİFBANK|10.40.25.149|||110000438458|133
02.11.2018 10:00:00||AKTİFBANK|10.40.24.145|||110000438458|70
02.11.2018 10:00:00||AKTİFBANK|10.40.24.149|||110000438458|160
02.11.2018 10:00:00||AKTİFBANK|10.40.25.153|||110000438458|60
02.11.2018 10:00:00||AKTİFBANK|10.40.24.150|||110000438458|563
02.11.2018 10:00:00||AKTİFBANK|10.40.24.162|||110000438458|210
02.11.2018 10:00:00||AKTİFBANK|10.40.24.162|||110000438458|30
02.11.2018 10:00:00||AKTİFBANK|10.40.24.162|||110000438458|42
02.11.2018 10:00:00||AKTİFBANK|10.40.24.133|||110000438458|88
02.11.2018 10:00:00||AKTİFBANK|10.40.24.138|||110000438458|115
02.11.2018 10:00:00||AKTİFBANK|10.40.24.139|||110000438458|30
02.11.2018 10:00:00||AKTİFBANK|10.40.24.164|||110000438458|70
02.11.2018 10:00:00||AKTİFBANK|10.40.24.145|||110000438458|60
02.11.2018 10:00:00||AKTİFBANK|10.40.24.164|||110000438458|230
02.11.2018 10:00:00||AKTİFBANK|10.40.25.133|||110000438458|70
02.11.2018 10:00:00||AKTİFBANK|10.40.24.145|||110000438458|90
02.11.2018 10:00:00||AKTİFBANK|10.40.25.151|||110000438458|525
02.11.2018 10:00:00||AKTİFBANK|10.40.24.158|||110000438458|80
02.11.2018 10:00:00||AKTİFBANK|10.40.25.138|||110000438458|80
02.11.2018 10:00:00||AKTİFBANK|10.40.25.139|||110000438458|10
02.11.2018 10:00:00||AKTİFBANK|10.40.25.140|||110000438458|30
02.11.2018 10:00:00||AKTİFBANK|10.40.25.151|||110000438458|530
02.11.2018 10:00:00||AKTİFBANK|10.40.25.141|||110000438458|100
02.11.2018 10:00:00||AKTİFBANK|10.40.25.141|||110000438458|100
02.11.2018 10:00:00||AKTİFBANK|10.40.25.142|||110000438458|75
02.11.2018 10:00:00||AKTİFBANK|10.40.25.140|||110000438458|82
02.11.2018 10:00:00||AKTİFBANK|10.40.25.140|||110000438458|70
02.11.2018 10:00:00||AKTİFBANK|10.40.25.151|||110000438458|517
02.11.2018 10:00:00||AKTİFBANK|10.40.25.141|||110000438458|100
02.11.2018 10:00:00||AKTİFBANK|10.40.25.141|||110000438458|80
02.11.2018 10:00:00||AKTİFBANK|10.40.25.149|||110000438458|70
02.11.2018 10:00:00||AKTİFBANK|10.40.25.149|||110000438458|93
02.11.2018 10:00:00||AKTİFBANK|10.40.25.149|||110000438458|95
02.11.2018 10:00:00||AKTİFBANK|10.40.25.149|||110000438458|107
02.11.2018 10:00:00||AKTİFBANK|10.40.25.141|||110000438458|100
02.11.2018 10:00:00||AKTİFBANK|10.40.25.138|||110000438458|80
02.11.2018 10:00:00||AKTİFBANK|10.40.25.138|||110000438458|30
02.11.2018 10:00:00||AKTİFBANK|10.40.25.149|||110000438458|78
02.11.2018 10:00:00||AKTİFBANK|10.40.25.149|||110000438458|70
02.11.2018 10:00:00||AKTİFBANK|10.40.25.149|||110000438458|30
02.11.2018 10:00:00||AKTİFBANK|10.40.25.133|||110000438458|110
02.11.2018 10:00:00||AKTİFBANK|10.40.25.150|||110000438458|555
02.11.2018 10:00:00||AKTİFBANK|10.40.25.139|||110000438458|170
02.11.2018 10:00:00||AKTİFBANK|10.40.25.139|||110000438458|40
02.11.2018 10:00:00||AKTİFBANK|10.40.25.140|||110000438458|30
02.11.2018 10:00:00||AKTİFBANK|10.40.25.141|||110000438458|40
02.11.2018 10:00:00||AKTİFBANK|10.40.25.142|||110000438458|40
02.11.2018 10:00:00||AKTİFBANK|10.40.25.149|||110000438458|110
02.11.2018 10:00:00||AKTİFBANK|10.40.24.139|||110000438458|60
02.11.2018 10:00:00||AKTİFBANK|10.40.25.153|||110000438458|10
02.11.2018 10:00:00||AKTİFBANK|10.40.25.150|||110000438458|580
02.11.2018 10:00:00||AKTİFBANK|10.40.25.153|||110000438458|70
02.11.2018 10:00:00||AKTİFBANK|10.40.25.163|||110000438458|50
02.11.2018 10:00:00||AKTİFBANK|10.40.24.141|||110000438458|67
02.11.2018 10:00:00||AKTİFBANK|10.40.25.133|||110000438458|280
02.11.2018 10:00:00||AKTİFBANK|10.40.25.128|||110000438458|70
02.11.2018 10:00:00||AKTİFBANK|10.40.25.128|||110000438458|90
02.11.2018 10:00:00||AKTİFBANK|10.40.25.128|||110000438458|90
02.11.2018 10:00:00||AKTİFBANK|10.40.25.128|||110000438458|40
02.11.2018 10:00:00||AKTİFBANK|10.40.25.128|||110000438458|50
02.11.2018 10:00:00||AKTİFBANK|10.40.25.129|||110000438458|82
02.11.2018 10:00:00||AKTİFBANK|10.40.25.129|||110000438458|75
02.11.2018 10:00:00||AKTİFBANK|10.40.25.129|||110000438458|137
02.11.2018 10:00:00||AKTİFBANK|10.40.25.129|||110000438458|100
02.11.2018 10:00:00||AKTİFBANK|10.40.25.129|||110000438458|93
02.11.2018 10:00:00||AKTİFBANK|10.40.25.130|||110000438458|70
02.11.2018 10:00:00||AKTİFBANK|10.40.25.130|||110000438458|50
02.11.2018 10:00:00||AKTİFBANK|10.40.25.130|||110000438458|80
02.11.2018 10:00:00||AKTİFBANK|10.40.25.130|||110000438458|40
02.11.2018 10:00:00||AKTİFBANK|10.40.25.130|||110000438458|60
02.11.2018 10:00:00||AKTİFBANK|10.40.25.130|||110000438458|100
02.11.2018 10:00:00||AKTİFBANK|10.40.25.130|||110000438458|90
02.11.2018 10:00:00||AKTİFBANK|10.40.25.131|||110000438458|20
02.11.2018 10:00:00||AKTİFBANK|10.40.25.131|||110000438458|78
02.11.2018 10:00:00||AKTİFBANK|10.40.25.131|||110000438458|100
02.11.2018 10:00:00||AKTİFBANK|10.40.25.131|||110000438458|105
02.11.2018 10:00:00||AKTİFBANK|10.40.25.131|||110000438458|88
02.11.2018 10:00:00||AKTİFBANK|10.40.25.131|||110000438458|83
02.11.2018 10:00:00||AKTİFBANK|10.40.25.131|||110000438458|22
02.11.2018 10:00:00||AKTİFBANK|10.40.25.131|||110000438458|117
02.11.2018 10:00:00||AKTİFBANK|10.40.25.132|||110000438458|65
02.11.2018 10:00:00||AKTİFBANK|10.40.25.132|||110000438458|75
02.11.2018 10:00:00||AKTİFBANK|10.40.25.132|||110000438458|13
02.11.2018 10:00:00||AKTİFBANK|10.40.25.132|||110000438458|83
02.11.2018 10:00:00||AKTİFBANK|10.40.25.132|||110000438458|50
02.11.2018 10:00:00||AKTİFBANK|10.40.25.143|||110000438458|313
02.11.2018 10:00:00||AKTİFBANK|10.40.25.144|||110000438458|80
02.11.2018 10:00:00||AKTİFBANK|10.40.25.144|||110000438458|50
02.11.2018 10:00:00||AKTİFBANK|10.40.25.144|||110000438458|20
02.11.2018 10:00:00||AKTİFBANK|10.40.25.154|||110000438458|10
02.11.2018 10:00:00||AKTİFBANK|10.40.25.154|||110000438458|10
02.11.2018 10:00:00||AKTİFBANK|10.40.25.154|||110000438458|10
02.11.2018 10:00:00||AKTİFBANK|10.40.25.157|||110000438458|70
02.11.2018 10:00:00||AKTİFBANK|10.40.25.157|||110000438458|70
02.11.2018 10:00:00||AKTİFBANK|10.40.25.157|||110000438458|68
02.11.2018 10:00:00||AKTİFBANK|10.40.25.157|||110000438458|85
02.11.2018 10:00:00||AKTİFBANK|10.40.25.157|||110000438458|45
02.11.2018 10:00:00||AKTİFBANK|10.40.25.159|||110000438458|60
02.11.2018 10:00:00||AKTİFBANK|10.40.25.159|||110000438458|10
02.11.2018 10:00:00||AKTİFBANK|10.40.25.159|||110000438458|90
02.11.2018 10:00:00||AKTİFBANK|10.40.25.158|||110000438458|112
02.11.2018 10:00:00||AKTİFBANK|10.40.25.158|||110000438458|38
02.11.2018 10:00:00||AKTİFBANK|10.40.25.158|||110000438458|67
02.11.2018 10:00:00||AKTİFBANK|10.40.25.158|||110000438458|50
02.11.2018 10:00:00||AKTİFBANK|10.40.25.160|||110000438458|90
02.11.2018 10:00:00||AKTİFBANK|10.40.25.161|||110000438458|80
02.11.2018 10:00:00||AKTİFBANK|10.40.25.161|||110000438458|70
02.11.2018 10:00:00||AKTİFBANK|10.40.25.161|||110000438458|50
02.11.2018 10:00:00||AKTİFBANK|10.40.25.145|||110000438458|90
02.11.2018 10:00:00||AKTİFBANK|10.40.25.145|||110000438458|60
02.11.2018 10:00:00||AKTİFBANK|10.40.25.145|||110000438458|60
02.11.2018 10:00:00||AKTİFBANK|10.40.25.145|||110000438458|30
02.11.2018 10:00:00||AKTİFBANK|10.40.25.145|||110000438458|50
02.11.2018 10:00:00||AKTİFBANK|10.40.25.147|||110000438458|90
02.11.2018 10:00:00||AKTİFBANK|10.40.25.162|||110000438458|30
02.11.2018 10:00:00||AKTİFBANK|10.40.25.162|||110000438458|30
02.11.2018 10:00:00||AKTİFBANK|10.40.25.162|||110000438458|60
02.11.2018 10:00:00||AKTİFBANK|10.40.25.164|||110000438458|60
02.11.2018 10:00:00||AKTİFBANK|10.40.25.164|||110000438458|280
02.11.2018 10:00:00||AKTİFBANK|10.40.25.164|||110000438458|50
02.11.2018 10:00:00||AKTİFBANK|10.40.25.164|||110000438458|260
02.11.2018 10:00:00||AKTİFBANK|10.40.25.164|||110000438458|270
02.11.2018 10:00:00||AKTİFBANK|10.40.25.165|||110000438458|110
02.11.2018 10:00:00||AKTİFBANK|10.40.25.165|||110000438458|70
02.11.2018 10:00:00||AKTİFBANK|10.40.25.165|||110000438458|80
02.11.2018 10:00:00||AKTİFBANK|10.40.25.165|||110000438458|103
02.11.2018 10:00:00||AKTİFBANK|10.40.25.166|||110000438458|90
02.11.2018 10:00:00||AKTİFBANK|10.40.25.166|||110000438458|10
02.11.2018 10:00:00||AKTİFBANK|10.40.25.166|||110000438458|10
02.11.2018 10:00:00||AKTİFBANK|10.40.25.166|||110000438458|40
02.11.2018 10:00:00||AKTİFBANK|10.40.25.148|||110000438458|130
02.11.2018 10:00:00||AKTİFBANK|10.40.25.148|||110000438458|50
02.11.2018 10:00:00||AKTİFBANK|10.40.25.148|||110000438458|100
02.11.2018 10:00:00||AKTİFBANK|10.40.25.148|||110000438458|130
02.11.2018 10:00:00||AKTİFBANK|10.40.25.148|||110000438458|90
02.11.2018 10:00:00||AKTİFBANK|10.40.25.148|||110000438458|80
02.11.2018 10:00:00||AKTİFBANK|10.40.25.148|||110000438458|70
02.11.2018 10:00:00||AKTİFBANK|10.40.25.148|||110000438458|50
02.11.2018 10:00:00||AKTİFBANK|10.40.25.148|||110000438458|80
02.11.2018 10:00:00||AKTİFBANK|10.40.25.148|||110000438458|40
02.11.2018 10:00:00||AKTİFBANK|10.40.25.148|||110000438458|100
02.11.2018 10:00:00||AKTİFBANK|10.40.25.148|||110000438458|60
02.11.2018 10:00:00||AKTİFBANK|10.40.25.155|||110000438458|70
02.11.2018 10:00:00||AKTİFBANK|10.40.25.155|||110000438458|90
02.11.2018 10:00:00||AKTİFBANK|10.40.25.155|||110000438458|110
02.11.2018 10:00:00||AKTİFBANK|10.40.25.155|||110000438458|120
02.11.2018 10:00:00||AKTİFBANK|10.40.25.155|||110000438458|110
02.11.2018 10:00:00||AKTİFBANK|10.40.25.156|||110000438458|20
02.11.2018 10:00:00||AKTİFBANK|10.40.25.156|||110000438458|22
02.11.2018 10:00:00||BARİKAT İNTERNET GÜVENLİĞİ|10.40.24.201|||110000479736|140
02.11.2018 10:00:00||BARİKAT İNTERNET GÜVENLİĞİ|10.40.24.201|||110000479736|100
02.11.2018 10:00:00||BARİKAT İNTERNET GÜVENLİĞİ|10.40.25.201|||110000479736|113
02.11.2018 10:00:00||BARİKAT İNTERNET GÜVENLİĞİ|10.40.25.201|||110000479736|100
02.11.2018 10:00:00||BOYNER|10.40.26.100|||101367941673|56
02.11.2018 10:00:00||BOYNER|10.40.26.101|||101367941673|166
02.11.2018 10:00:00||BOYNER|10.40.27.100|||101367941673|52
02.11.2018 10:00:00||BOYNER|10.40.27.101|||101367941673|165
02.11.2018 10:00:00||BOYNER|10.40.27.94|||101367941673|210
02.11.2018 10:00:00||BOYNER|10.40.27.94|||101367941673|90
02.11.2018 10:00:00||BOYNER|10.40.27.94|||101367941673|90
02.11.2018 10:00:00||BOYNER|10.40.27.94|||101367941673|100
02.11.2018 10:00:00||BOYNER|10.40.26.94|||101367941673|90
02.11.2018 10:00:00||BOYNER|10.40.26.94|||101367941673|80
02.11.2018 10:00:00||BOYNER|10.40.26.94|||101367941673|80
02.11.2018 10:00:00||BOYNER|10.40.27.95|||101367941673|125
02.11.2018 10:00:00||BOYNER|10.40.27.95|||101367941673|123
02.11.2018 10:00:00||BOYNER|10.40.27.95|||101367941673|230
02.11.2018 10:00:00||BOYNER|10.40.26.95|||101367941673|123
02.11.2018 10:00:00||BOYNER|10.40.26.95|||101367941673|195
02.11.2018 10:00:00||BOYNER|10.40.26.95|||101367941673|135
02.11.2018 10:00:00||BOYNER|10.40.27.96|||101367941673|60
02.11.2018 10:00:00||BOYNER|10.40.27.96|||101367941673|50
02.11.2018 10:00:00||BOYNER|10.40.27.96|||101367941673|50
02.11.2018 10:00:00||BOYNER|10.40.27.96|||101367941673|40
02.11.2018 10:00:00||BOYNER|10.40.27.96|||101367941673|40
02.11.2018 10:00:00||BOYNER|10.40.27.96|||101367941673|148
02.11.2018 10:00:00||BOYNER|10.40.27.96|||101367941673|152
02.11.2018 10:00:00||BOYNER|10.40.27.96|||101367941673|173
02.11.2018 10:00:00||BOYNER|10.40.27.96|||101367941673|167
02.11.2018 10:00:00||BOYNER|10.40.26.96|||101367941673|30
02.11.2018 10:00:00||BOYNER|10.40.26.96|||101367941673|40
02.11.2018 10:00:00||BOYNER|10.40.26.96|||101367941673|30
02.11.2018 10:00:00||BOYNER|10.40.26.96|||101367941673|40
02.11.2018 10:00:00||BOYNER|10.40.26.96|||101367941673|40
02.11.2018 10:00:00||BOYNER|10.40.26.96|||101367941673|50
02.11.2018 10:00:00||BOYNER|10.40.26.96|||101367941673|190
02.11.2018 10:00:00||BOYNER|10.40.26.96|||101367941673|198
02.11.2018 10:00:00||BOYNER|10.40.26.96|||101367941673|167
02.11.2018 10:00:00||BOYNER|10.40.26.96|||101367941673|177
02.11.2018 10:00:00||BOYNER|10.40.27.97|||101367941673|60
02.11.2018 10:00:00||BOYNER|10.40.27.97|||101367941673|655
02.11.2018 10:00:00||BOYNER|10.40.27.97|||101367941673|662
02.11.2018 10:00:00||BOYNER|10.40.27.97|||101367941673|695
02.11.2018 10:00:00||BOYNER|10.40.27.97|||101367941673|42
02.11.2018 10:00:00||BOYNER|10.40.27.97|||101367941673|30
02.11.2018 10:00:00||BOYNER|10.40.27.97|||101367941673|52
02.11.2018 10:00:00||BOYNER|10.40.27.97|||101367941673|30
02.11.2018 10:00:00||BOYNER|10.40.27.97|||101367941673|178
02.11.2018 10:00:00||BOYNER|10.40.27.97|||101367941673|175
02.11.2018 10:00:00||BOYNER|10.40.27.97|||101367941673|182
02.11.2018 10:00:00||BOYNER|10.40.27.97|||101367941673|193
02.11.2018 10:00:00||BOYNER|10.40.26.97|||101367941673|30
02.11.2018 10:00:00||BOYNER|10.40.26.97|||101367941673|662
02.11.2018 10:00:00||BOYNER|10.40.26.97|||101367941673|650
02.11.2018 10:00:00||BOYNER|10.40.26.97|||101367941673|655
02.11.2018 10:00:00||BOYNER|10.40.26.97|||101367941673|32
02.11.2018 10:00:00||BOYNER|10.40.26.97|||101367941673|40
02.11.2018 10:00:00||BOYNER|10.40.26.97|||101367941673|50
02.11.2018 10:00:00||BOYNER|10.40.26.97|||101367941673|60
02.11.2018 10:00:00||BOYNER|10.40.26.97|||101367941673|30
02.11.2018 10:00:00||BOYNER|10.40.26.97|||101367941673|163
02.11.2018 10:00:00||BOYNER|10.40.26.97|||101367941673|183
02.11.2018 10:00:00||BOYNER|10.40.26.97|||101367941673|168
02.11.2018 10:00:00||BOYNER|10.40.26.97|||101367941673|157
02.11.2018 10:00:00||BOYNER|10.40.27.99|||101367941673|123
02.11.2018 10:00:00||BOYNER|10.40.27.99|||101367941673|97
02.11.2018 10:00:00||BOYNER|10.40.27.99|||101367941673|75
02.11.2018 10:00:00||BOYNER|10.40.26.99|||101367941673|10
02.11.2018 10:00:00||BOYNER|10.40.26.99|||101367941673|105
02.11.2018 10:00:00||BOYNER|10.40.26.99|||101367941673|88
02.11.2018 10:00:00||BOYNER|10.40.26.99|||101367941673|72
02.11.2018 10:00:00||ÇALIK HOLDİNG|10.40.24.118|||110000438407|38
02.11.2018 10:00:00||ÇALIK HOLDİNG|10.40.25.118|||110000438407|269
02.11.2018 10:00:00||ÇALIK HOLDİNG|10.40.25.99|||110000438407|140
02.11.2018 10:00:00||ÇALIK HOLDİNG|10.40.25.101|||110000438407|50
02.11.2018 10:00:00||ÇALIK HOLDİNG|10.40.25.101|||110000438407|110
02.11.2018 10:00:00||ÇALIK HOLDİNG|10.40.25.101|||110000438407|30
02.11.2018 10:00:00||ÇALIK HOLDİNG|10.40.25.101|||110000438407|10
02.11.2018 10:00:00||ÇALIK HOLDİNG|10.40.25.101|||110000438407|90
02.11.2018 10:00:00||ÇALIK HOLDİNG|10.40.25.101|||110000438407|30
02.11.2018 10:00:00||ÇALIK HOLDİNG|10.40.25.101|||110000438407|40
02.11.2018 10:00:00||ÇALIK HOLDİNG|10.40.25.101|||110000438407|40
02.11.2018 10:00:00||ÇALIK HOLDİNG|10.40.25.101|||110000438407|90
02.11.2018 10:00:00||ÇALIK HOLDİNG|10.40.25.101|||110000438407|90
02.11.2018 10:00:00||ÇALIK HOLDİNG|10.40.25.101|||110000438407|90
02.11.2018 10:00:00||ÇALIK HOLDİNG|10.40.25.94|||110000438407|180
02.11.2018 10:00:00||ÇALIK HOLDİNG|10.40.25.94|||110000438407|180
02.11.2018 10:00:00||ÇALIK HOLDİNG|10.40.25.94|||110000438407|170
02.11.2018 10:00:00||ÇALIK HOLDİNG|10.40.25.94|||110000438407|180
02.11.2018 10:00:00||ÇALIK HOLDİNG|10.40.24.94|||110000438407|195
02.11.2018 10:00:00||ÇALIK HOLDİNG|10.40.24.94|||110000438407|188
02.11.2018 10:00:00||ÇALIK HOLDİNG|10.40.24.94|||110000438407|192
02.11.2018 10:00:00||ÇALIK HOLDİNG|10.40.25.95|||110000438407|20
02.11.2018 10:00:00||ÇALIK HOLDİNG|10.40.25.95|||110000438407|347
02.11.2018 10:00:00||ÇALIK HOLDİNG|10.40.25.95|||110000438407|358
02.11.2018 10:00:00||ÇALIK HOLDİNG|10.40.25.95|||110000438407|40
02.11.2018 10:00:00||ÇALIK HOLDİNG|10.40.24.95|||110000438407|102
02.11.2018 10:00:00||ÇALIK HOLDİNG|10.40.24.95|||110000438407|97
02.11.2018 10:00:00||ÇALIK HOLDİNG|10.40.24.95|||110000438407|393
02.11.2018 10:00:00||ÇALIK HOLDİNG|10.40.24.95|||110000438407|403
02.11.2018 10:00:00||ÇALIK HOLDİNG|10.40.25.96|||110000438407|90
02.11.2018 10:00:00||ÇALIK HOLDİNG|10.40.25.96|||110000438407|100
02.11.2018 10:00:00||ÇALIK HOLDİNG|10.40.25.96|||110000438407|100
02.11.2018 10:00:00||ÇALIK HOLDİNG|10.40.25.96|||110000438407|257
02.11.2018 10:00:00||ÇALIK HOLDİNG|10.40.25.96|||110000438407|262
02.11.2018 10:00:00||ÇALIK HOLDİNG|10.40.25.96|||110000438407|100
02.11.2018 10:00:00||ÇALIK HOLDİNG|10.40.25.96|||110000438407|90
02.11.2018 10:00:00||ÇALIK HOLDİNG|10.40.25.96|||110000438407|93
02.11.2018 10:00:00||ÇALIK HOLDİNG|10.40.25.97|||110000438407|90
02.11.2018 10:00:00||ÇALIK HOLDİNG|10.40.25.97|||110000438407|80
02.11.2018 10:00:00||ÇALIK HOLDİNG|10.40.25.97|||110000438407|310
02.11.2018 10:00:00||ÇALIK HOLDİNG|10.40.25.98|||110000438407|53
02.11.2018 10:00:00||ÇALIK HOLDİNG|10.40.25.98|||110000438407|167
02.11.2018 10:00:00||ÇALIK HOLDİNG|10.40.25.98|||110000438407|158
02.11.2018 10:00:00||ÇALIK HOLDİNG|10.40.25.98|||110000438407|170
02.11.2018 10:00:00||ÇALIK HOLDİNG|10.40.25.98|||110000438407|172
02.11.2018 10:00:00||ÇALIK HOLDİNG|10.40.25.98|||110000438407|60
02.11.2018 10:00:00||ÇALIK HOLDİNG|10.40.25.98|||110000438407|210
02.11.2018 10:00:00||ÇALIK HOLDİNG|10.40.25.98|||110000438407|178
02.11.2018 10:00:00||ÇALIK HOLDİNG|10.40.25.98|||110000438407|170
02.11.2018 10:00:00||ÇALIK HOLDİNG|10.40.25.98|||110000438407|210
02.11.2018 10:00:00||ÇALIK HOLDİNG|10.40.25.98|||110000438407|75
02.11.2018 10:00:00||ÇALIK HOLDİNG|10.40.25.98|||110000438407|302
02.11.2018 10:00:00||ÇALIK HOLDİNG|10.40.24.98|||110000438407|90
02.11.2018 10:00:00||ÇALIK HOLDİNG|10.40.24.98|||110000438407|158
02.11.2018 10:00:00||ÇALIK HOLDİNG|10.40.24.98|||110000438407|200
02.11.2018 10:00:00||ÇALIK HOLDİNG|10.40.24.98|||110000438407|202
02.11.2018 10:00:00||ÇALIK HOLDİNG|10.40.24.98|||110000438407|162
02.11.2018 10:00:00||ÇALIK HOLDİNG|10.40.24.98|||110000438407|30
02.11.2018 10:00:00||ÇALIK HOLDİNG|10.40.24.98|||110000438407|165
02.11.2018 10:00:00||ÇALIK HOLDİNG|10.40.24.98|||110000438407|182
02.11.2018 10:00:00||ÇALIK HOLDİNG|10.40.24.98|||110000438407|168
02.11.2018 10:00:00||ÇALIK HOLDİNG|10.40.24.98|||110000438407|172
02.11.2018 10:00:00||ÇALIK HOLDİNG|10.40.24.98|||110000438407|20
02.11.2018 10:00:00||ÇALIK HOLDİNG|10.40.24.98|||110000438407|277
02.11.2018 10:00:00||ÇALIK HOLDİNG|10.40.25.100|||110000438407|37
02.11.2018 10:00:00||ÇALIK HOLDİNG|10.40.25.100|||110000438407|40
02.11.2018 10:00:00||ÇALIK HOLDİNG|10.40.24.101|||110000438407|60
02.11.2018 10:00:00||ÇALIK HOLDİNG|10.40.24.101|||110000438407|110
02.11.2018 10:00:00||ÇALIK HOLDİNG|10.40.24.101|||110000438407|20
02.11.2018 10:00:00||ÇALIK HOLDİNG|10.40.24.101|||110000438407|20
02.11.2018 10:00:00||ÇALIK HOLDİNG|10.40.24.101|||110000438407|40
02.11.2018 10:00:00||ÇALIK HOLDİNG|10.40.24.101|||110000438407|87
02.11.2018 10:00:00||ÇALIK HOLDİNG|10.40.24.101|||110000438407|30
02.11.2018 10:00:00||ÇALIK HOLDİNG|10.40.24.101|||110000438407|10
02.11.2018 10:00:00||ÇALIK HOLDİNG|10.40.24.101|||110000438407|20
02.11.2018 10:00:00||ÇALIK HOLDİNG|10.40.24.101|||110000438407|50
02.11.2018 10:00:00||ÇALIK HOLDİNG|10.40.24.101|||110000438407|30
02.11.2018 10:00:00||ÇALIK HOLDİNG|10.40.24.101|||110000438407|80
02.11.2018 10:00:00||ÇALIK HOLDİNG|10.40.24.101|||110000438407|80
02.11.2018 10:00:00||ÇALIK HOLDİNG|10.40.24.101|||110000438407|90
02.11.2018 10:00:00||ÇALIK HOLDİNG|10.40.25.102|||110000438407|100
02.11.2018 10:00:00||ÇALIK HOLDİNG|10.40.25.102|||110000438407|90
02.11.2018 10:00:00||ÇALIK HOLDİNG|10.40.25.102|||110000438407|150
02.11.2018 10:00:00||ÇALIK HOLDİNG|10.40.24.102|||110000438407|100
02.11.2018 10:00:00||ÇALIK HOLDİNG|10.40.24.102|||110000438407|90
02.11.2018 10:00:00||ÇALIK HOLDİNG|10.40.24.102|||110000438407|140
02.11.2018 10:00:00||ÇALIK HOLDİNG|10.40.25.103|||110000438407|90
02.11.2018 10:00:00||ÇALIK HOLDİNG|10.40.25.103|||110000438407|80
02.11.2018 10:00:00||ÇALIK HOLDİNG|10.40.25.103|||110000438407|10
02.11.2018 10:00:00||ÇALIK HOLDİNG|10.40.25.115|||110000438407|83
02.11.2018 10:00:00||ÇALIK HOLDİNG|10.40.24.103|||110000438407|100
02.11.2018 10:00:00||ÇALIK HOLDİNG|10.40.24.103|||110000438407|80
02.11.2018 10:00:00||ÇALIK HOLDİNG|10.40.24.103|||110000438407|80
02.11.2018 10:00:00||ÇALIK HOLDİNG|10.40.24.103|||110000438407|20
02.11.2018 10:00:00||ÇALIK HOLDİNG|10.40.24.103|||110000438407|10
02.11.2018 10:00:00||ÇALIK HOLDİNG|10.40.25.113|||110000438407|228
02.11.2018 10:00:00||ÇALIK HOLDİNG|10.40.25.113|||110000438407|242
02.11.2018 10:00:00||ÇALIK HOLDİNG|10.40.25.113|||110000438407|197
02.11.2018 10:00:00||ÇALIK HOLDİNG|10.40.25.113|||110000438407|205
02.11.2018 10:00:00||ÇALIK HOLDİNG|10.40.24.113|||110000438407|230
02.11.2018 10:00:00||ÇALIK HOLDİNG|10.40.24.113|||110000438407|223
02.11.2018 10:00:00||ÇALIK HOLDİNG|10.40.24.113|||110000438407|195
02.11.2018 10:00:00||ÇALIK HOLDİNG|10.40.24.113|||110000438407|170
02.11.2018 10:00:00||ÇALIK HOLDİNG|10.40.25.114|||110000438407|183
02.11.2018 10:00:00||ÇALIK HOLDİNG|10.40.25.114|||110000438407|455
02.11.2018 10:00:00||ÇALIK HOLDİNG|10.40.25.114|||110000438407|40
02.11.2018 10:00:00||ÇALIK HOLDİNG|10.40.24.114|||110000438407|20
02.11.2018 10:00:00||ÇALIK HOLDİNG|10.40.24.114|||110000438407|40
02.11.2018 10:00:00||ÇALIK HOLDİNG|10.40.24.114|||110000438407|167
02.11.2018 10:00:00||ÇALIK HOLDİNG|10.40.24.114|||110000438407|417
02.11.2018 10:00:00||ÇALIK HOLDİNG|10.40.24.115|||110000438407|170
02.11.2018 10:00:00||ÇALIK HOLDİNG|10.40.24.115|||110000438407|80
02.11.2018 10:00:00||ÇALIK HOLDİNG|10.40.24.115|||110000438407|90
02.11.2018 10:00:00||ÇALIK HOLDİNG|10.40.24.115|||110000438407|80
02.11.2018 10:00:00||ÇALIK HOLDİNG|10.40.24.115|||110000438407|90
02.11.2018 10:00:00||ÇALIK HOLDİNG|10.40.24.115|||110000438407|70
02.11.2018 10:00:00||ÇALIK HOLDİNG|10.40.25.116|||110000438407|102
02.11.2018 10:00:00||ÇALIK HOLDİNG|10.40.25.116|||110000438407|102
02.11.2018 10:00:00||ÇALIK HOLDİNG|10.40.25.116|||110000438407|293
02.11.2018 10:00:00||ÇALIK HOLDİNG|10.40.24.116|||110000438407|280
02.11.2018 10:00:00||ÇALIK HOLDİNG|10.40.24.116|||110000438407|100
02.11.2018 10:00:00||ÇALIK HOLDİNG|10.40.24.116|||110000438407|100
02.11.2018 10:00:00||ÇALIK HOLDİNG|10.40.25.117|||110000438407|250
02.11.2018 10:00:00||ÇALIK HOLDİNG|10.40.25.117|||110000438407|30
02.11.2018 10:00:00||ÇALIK HOLDİNG|10.40.25.117|||110000438407|25
02.11.2018 10:00:00||ÇALIK HOLDİNG|10.40.25.119|||110000438407|30
02.11.2018 10:00:00||ÇALIK HOLDİNG|10.40.25.119|||110000438407|30
02.11.2018 10:00:00||ÇALIK HOLDİNG|10.40.24.119|||110000438407|150
02.11.2018 10:00:00||ÇALIK HOLDİNG|10.40.24.119|||110000438407|30
02.11.2018 10:00:00||ÇALIK HOLDİNG|10.40.24.119|||110000438407|50
02.11.2018 10:00:00||ÇALIK HOLDİNG|10.40.25.120|||110000438407|108
02.11.2018 10:00:00||ÇALIK HOLDİNG|10.40.25.120|||110000438407|50
02.11.2018 10:00:00||ÇALIK HOLDİNG|10.40.25.120|||110000438407|20
02.11.2018 10:00:00||ÇALIK HOLDİNG|10.40.25.120|||110000438407|20
02.11.2018 10:00:00||ÇALIK HOLDİNG|10.40.25.120|||110000438407|30
02.11.2018 10:00:00||ÇALIK HOLDİNG|10.40.25.120|||110000438407|90
02.11.2018 10:00:00||ÇALIK HOLDİNG|10.40.25.120|||110000438407|90
02.11.2018 10:00:00||ÇALIK HOLDİNG|10.40.24.120|||110000438407|20
02.11.2018 10:00:00||ÇALIK HOLDİNG|10.40.24.120|||110000438407|30
02.11.2018 10:00:00||ÇALIK HOLDİNG|10.40.24.120|||110000438407|110
02.11.2018 10:00:00||ÇALIK HOLDİNG|10.40.24.120|||110000438407|100
02.11.2018 10:00:00||ÇALIK HOLDİNG|10.40.24.120|||110000438407|40
02.11.2018 10:00:00||ÇALIK HOLDİNG|10.40.24.120|||110000438407|80
02.11.2018 10:00:00||ÇALIK HOLDİNG|10.40.24.120|||110000438407|80
02.11.2018 10:00:00||ÇALIK HOLDİNG|10.40.24.120|||110000438407|70
02.11.2018 10:00:00||ÇALIK HOLDİNG|10.40.25.121|||110000438407|90
02.11.2018 10:00:00||ÇALIK HOLDİNG|10.40.25.121|||110000438407|100
02.11.2018 10:00:00||ÇALIK HOLDİNG|10.40.25.121|||110000438407|150
02.11.2018 10:00:00||ÇALIK HOLDİNG|10.40.24.121|||110000438407|100
02.11.2018 10:00:00||ÇALIK HOLDİNG|10.40.24.121|||110000438407|100
02.11.2018 10:00:00||ÇALIK HOLDİNG|10.40.24.121|||110000438407|140
02.11.2018 10:00:00||ÇALIK HOLDİNG|10.40.25.122|||110000438407|90
02.11.2018 10:00:00||ÇALIK HOLDİNG|10.40.25.122|||110000438407|80
02.11.2018 10:00:00||ÇALIK HOLDİNG|10.40.25.122|||110000438407|80
02.11.2018 10:00:00||ÇALIK HOLDİNG|10.40.25.122|||110000438407|30
02.11.2018 10:00:00||ÇALIK HOLDİNG|10.40.25.122|||110000438407|10
02.11.2018 10:00:00||ÇALIK HOLDİNG|10.40.24.122|||110000438407|90
02.11.2018 10:00:00||ÇALIK HOLDİNG|10.40.24.122|||110000438407|80
02.11.2018 10:00:00||ÇALIK HOLDİNG|10.40.24.122|||110000438407|90
02.11.2018 10:00:00||ÇALIK HOLDİNG|10.40.24.117|||110000438407|200
02.11.2018 10:00:00||ÇALIK HOLDİNG|10.40.24.117|||110000438407|30
02.11.2018 10:00:00||ÇALIK HOLDİNG|10.40.24.117|||110000438407|30
02.11.2018 10:00:00||ÇALIK HOLDİNG|10.40.24.97|||110000438407|100
02.11.2018 10:00:00||ÇALIK HOLDİNG|10.40.24.97|||110000438407|90
02.11.2018 10:00:00||ÇALIK HOLDİNG|10.40.24.97|||110000438407|80
02.11.2018 10:00:00||ÇALIK HOLDİNG|10.40.24.97|||110000438407|90
02.11.2018 10:00:00||ÇALIK HOLDİNG|10.40.24.97|||110000438407|317
02.11.2018 10:00:00||ÇALIK HOLDİNG|10.40.24.100|||110000438407|30
02.11.2018 10:00:00||ÇALIK HOLDİNG|10.40.24.100|||110000438407|40
02.11.2018 10:00:00||ÇALIK HOLDİNG|10.40.25.103|||110000438407|90
02.11.2018 10:00:00||ÇALIK HOLDİNG|10.40.25.115|||110000438407|162
02.11.2018 10:00:00||ÇALIK HOLDİNG|10.40.25.115|||110000438407|70
02.11.2018 10:00:00||ÇALIK HOLDİNG|10.40.25.120|||110000438407|20
02.11.2018 10:00:00||ÇALIK HOLDİNG|10.40.25.120|||110000438407|60
02.11.2018 10:00:00||ÇALIK HOLDİNG|10.40.25.120|||110000438407|90
02.11.2018 10:00:00||ÇALIK HOLDİNG|10.40.25.97|||110000438407|80
02.11.2018 10:00:00||ÇALIK HOLDİNG|10.40.25.96|||110000438407|70
02.11.2018 10:00:00||ÇALIK HOLDİNG|10.40.25.96|||110000438407|90
02.11.2018 10:00:00||ÇALIK HOLDİNG|10.40.25.96|||110000438407|123
02.11.2018 10:00:00||ÇALIK HOLDİNG|10.40.25.96|||110000438407|90
02.11.2018 10:00:00||ÇALIK HOLDİNG|10.40.25.95|||110000438407|93
02.11.2018 10:00:00||ÇALIK HOLDİNG|10.40.25.95|||110000438407|60
02.11.2018 10:00:00||ÇALIK HOLDİNG|10.40.24.94|||110000438407|192
02.11.2018 10:00:00||ÇALIK HOLDİNG|10.40.25.97|||110000438407|110
02.11.2018 10:00:00||ÇALIK HOLDİNG|10.40.25.115|||110000438407|82
02.11.2018 10:00:00||ÇALIK HOLDİNG|10.40.25.115|||110000438407|68
02.11.2018 10:00:00||ÇALIK HOLDİNG|10.40.25.115|||110000438407|63
02.11.2018 10:00:00||ÇALIK HOLDİNG|10.40.24.95|||110000438407|50
02.11.2018 10:00:00||ÇALIK HOLDİNG|10.40.25.120|||110000438407|40
02.11.2018 10:00:00||ÇALIK HOLDİNG|10.40.25.96|||110000438407|90
02.11.2018 10:00:00||ÇALIK HOLDİNG|10.40.25.96|||110000438407|100
02.11.2018 10:00:00||FIBABANKA|10.40.26.54|||101571767266|315
02.11.2018 10:00:00||FIBABANKA|10.40.26.55|||101571767266|115
02.11.2018 10:00:00||FIBABANKA|10.40.25.56|||101571767266|197
02.11.2018 10:00:00||FIBABANKA|10.40.27.54|||101571767266|311
02.11.2018 10:00:00||FIBABANKA|10.40.27.55|||101571767266|102
02.11.2018 10:00:00||FIBABANKA|10.40.24.55|||101571767266|111
02.11.2018 10:00:00||FIBABANKA|10.40.25.54|||101571767266|329
02.11.2018 10:00:00||FIBABANKA|10.40.24.54|||101571767266|315
02.11.2018 10:00:00||FIBABANKA|10.40.25.55|||101571767266|112
02.11.2018 10:00:00||FIBABANKA|10.40.24.56|||101571767266|198
02.11.2018 10:00:00||FIBABANKA|10.40.26.57|||101571767266|90
02.11.2018 10:00:00||FIBABANKA|10.40.26.57|||101571767266|87
02.11.2018 10:00:00||FIBABANKA|10.40.26.57|||101571767266|80
02.11.2018 10:00:00||FIBABANKA|10.40.26.57|||101571767266|70
02.11.2018 10:00:00||FIBABANKA|10.40.26.57|||101571767266|68
02.11.2018 10:00:00||FIBABANKA|10.40.27.72|||101571767266|40
02.11.2018 10:00:00||FIBABANKA|10.40.27.72|||101571767266|50
02.11.2018 10:00:00||FIBABANKA|10.40.27.72|||101571767266|40
02.11.2018 10:00:00||FIBABANKA|10.40.27.72|||101571767266|140
02.11.2018 10:00:00||FIBABANKA|10.40.27.72|||101571767266|60
02.11.2018 10:00:00||FIBABANKA|10.40.26.72|||101571767266|30
02.11.2018 10:00:00||FIBABANKA|10.40.26.72|||101571767266|140
02.11.2018 10:00:00||FIBABANKA|10.40.26.72|||101571767266|70
02.11.2018 10:00:00||FIBABANKA|10.40.26.72|||101571767266|32
02.11.2018 10:00:00||FIBABANKA|10.40.27.73|||101571767266|30
02.11.2018 10:00:00||FIBABANKA|10.40.27.73|||101571767266|100
02.11.2018 10:00:00||FIBABANKA|10.40.27.73|||101571767266|40
02.11.2018 10:00:00||FIBABANKA|10.40.27.73|||101571767266|43
02.11.2018 10:00:00||FIBABANKA|10.40.27.73|||101571767266|360
02.11.2018 10:00:00||FIBABANKA|10.40.26.73|||101571767266|40
02.11.2018 10:00:00||FIBABANKA|10.40.26.73|||101571767266|70
02.11.2018 10:00:00||FIBABANKA|10.40.26.73|||101571767266|32
02.11.2018 10:00:00||FIBABANKA|10.40.26.73|||101571767266|10
02.11.2018 10:00:00||FIBABANKA|10.40.27.74|||101571767266|83
02.11.2018 10:00:00||FIBABANKA|10.40.27.74|||101571767266|182
02.11.2018 10:00:00||FIBABANKA|10.40.27.74|||101571767266|173
02.11.2018 10:00:00||FIBABANKA|10.40.26.74|||101571767266|82
02.11.2018 10:00:00||FIBABANKA|10.40.26.74|||101571767266|208
02.11.2018 10:00:00||FIBABANKA|10.40.26.74|||101571767266|188
02.11.2018 10:00:00||FIBABANKA|10.40.26.74|||101571767266|188
02.11.2018 10:00:00||FIBABANKA|10.40.27.75|||101571767266|10
02.11.2018 10:00:00||FIBABANKA|10.40.27.75|||101571767266|10
02.11.2018 10:00:00||FIBABANKA|10.40.27.75|||101571767266|60
02.11.2018 10:00:00||FIBABANKA|10.40.26.75|||101571767266|10
02.11.2018 10:00:00||FIBABANKA|10.40.27.76|||101571767266|90
02.11.2018 10:00:00||FIBABANKA|10.40.26.76|||101571767266|100
02.11.2018 10:00:00||FIBABANKA|10.40.26.79|||101571767266|10
02.11.2018 10:00:00||FIBABANKA|10.40.27.79|||101571767266|10
02.11.2018 10:00:00||FIBABANKA|10.40.27.79|||101571767266|10
02.11.2018 10:00:00||FIBABANKA|10.40.26.79|||101571767266|10
02.11.2018 10:00:00||FIBABANKA|10.40.27.77|||101571767266|53
02.11.2018 10:00:00||FIBABANKA|10.40.27.77|||101571767266|38
02.11.2018 10:00:00||FIBABANKA|10.40.27.77|||101571767266|160
02.11.2018 10:00:00||FIBABANKA|10.40.26.77|||101571767266|42
02.11.2018 10:00:00||FIBABANKA|10.40.26.77|||101571767266|50
02.11.2018 10:00:00||FIBABANKA|10.40.26.77|||101571767266|203
02.11.2018 10:00:00||FIBABANKA|10.40.26.77|||101571767266|213
02.11.2018 10:00:00||FIBABANKA|10.40.26.77|||101571767266|73
02.11.2018 10:00:00||FIBABANKA|10.40.26.77|||101571767266|123
02.11.2018 10:00:00||FIBABANKA|10.40.26.77|||101571767266|185
02.11.2018 10:00:00||FIBABANKA|10.40.26.77|||101571767266|183
02.11.2018 10:00:00||FIBABANKA|10.40.27.77|||101571767266|53
02.11.2018 10:00:00||FIBABANKA|10.40.27.77|||101571767266|33
02.11.2018 10:00:00||FIBABANKA|10.40.27.77|||101571767266|162
02.11.2018 10:00:00||FIBABANKA|10.40.27.57|||101571767266|80
02.11.2018 10:00:00||FIBABANKA|10.40.26.60|||101571767266|220
02.11.2018 10:00:00||FIBABANKA|10.40.25.74|||101571767266|230
02.11.2018 10:00:00||FIBABANKA|10.40.24.75|||101571767266|198
02.11.2018 10:00:00||FIBABANKA|10.40.24.75|||101571767266|143
02.11.2018 10:00:00||FIBABANKA|10.40.24.53|||101571767266|173
02.11.2018 10:00:00||FIBABANKA|10.40.24.53|||101571767266|182
02.11.2018 10:00:00||FIBABANKA|10.40.25.52|||101571767266|10
02.11.2018 10:00:00||FIBABANKA|10.40.25.52|||101571767266|50
02.11.2018 10:00:00||FIBABANKA|10.40.25.52|||101571767266|77
02.11.2018 10:00:00||FIBABANKA|10.40.25.53|||101571767266|173
02.11.2018 10:00:00||FIBABANKA|10.40.25.53|||101571767266|153
02.11.2018 10:00:00||FIBABANKA|10.40.27.51|||101571767266|30
02.11.2018 10:00:00||FIBABANKA|10.40.27.51|||101571767266|20
02.11.2018 10:00:00||FIBABANKA|10.40.27.51|||101571767266|100
02.11.2018 10:00:00||FIBABANKA|10.40.27.51|||101571767266|140
02.11.2018 10:00:00||FIBABANKA|10.40.27.51|||101571767266|70
02.11.2018 10:00:00||FIBABANKA|10.40.27.51|||101571767266|40
02.11.2018 10:00:00||FIBABANKA|10.40.27.51|||101571767266|40
02.11.2018 10:00:00||FIBABANKA|10.40.26.51|||101571767266|10
02.11.2018 10:00:00||FIBABANKA|10.40.26.51|||101571767266|110
02.11.2018 10:00:00||FIBABANKA|10.40.26.51|||101571767266|130
02.11.2018 10:00:00||FIBABANKA|10.40.26.51|||101571767266|30
02.11.2018 10:00:00||FIBABANKA|10.40.26.51|||101571767266|30
02.11.2018 10:00:00||FIBABANKA|10.40.24.74|||101571767266|33
02.11.2018 10:00:00||FIBABANKA|10.40.25.76|||101571767266|60
02.11.2018 10:00:00||FIBABANKA|10.40.25.76|||101571767266|40
02.11.2018 10:00:00||FIBABANKA|10.40.25.76|||101571767266|10
02.11.2018 10:00:00||FIBABANKA|10.40.25.52|||101571767266|42
02.11.2018 10:00:00||FIBABANKA|10.40.25.52|||101571767266|30
02.11.2018 10:00:00||FIBABANKA|10.40.25.51|||101571767266|20
02.11.2018 10:00:00||FIBABANKA|10.40.24.52|||101571767266|32
02.11.2018 10:00:00||FIBABANKA|10.40.25.51|||101571767266|140
02.11.2018 10:00:00||FIBABANKA|10.40.24.51|||101571767266|30
02.11.2018 10:00:00||FIBABANKA|10.40.25.57|||101571767266|90
02.11.2018 10:00:00||FIBABANKA|10.40.25.57|||101571767266|90
02.11.2018 10:00:00||FIBABANKA|10.40.25.57|||101571767266|90
02.11.2018 10:00:00||FIBABANKA|10.40.25.57|||101571767266|52
02.11.2018 10:00:00||FIBABANKA|10.40.25.57|||101571767266|102
02.11.2018 10:00:00||FIBABANKA|10.40.25.57|||101571767266|80
02.11.2018 10:00:00||FIBABANKA|10.40.24.57|||101571767266|90
02.11.2018 10:00:00||FIBABANKA|10.40.24.57|||101571767266|80
02.11.2018 10:00:00||FIBABANKA|10.40.24.57|||101571767266|80
02.11.2018 10:00:00||FIBABANKA|10.40.24.57|||101571767266|72
02.11.2018 10:00:00||FIBABANKA|10.40.26.51|||101571767266|20
02.11.2018 10:00:00||FIBABANKA|10.40.27.52|||101571767266|50
02.11.2018 10:00:00||FIBABANKA|10.40.27.52|||101571767266|60
02.11.2018 10:00:00||FIBABANKA|10.40.27.52|||101571767266|70
02.11.2018 10:00:00||FIBABANKA|10.40.27.53|||101571767266|60
02.11.2018 10:00:00||FIBABANKA|10.40.26.53|||101571767266|72
02.11.2018 10:00:00||FIBABANKA|10.40.26.53|||101571767266|62
02.11.2018 10:00:00||FIBABANKA|10.40.27.57|||101571767266|80
02.11.2018 10:00:00||FIBABANKA|10.40.27.53|||101571767266|70
02.11.2018 10:00:00||FIBABANKA|10.40.27.53|||101571767266|183
02.11.2018 10:00:00||FIBABANKA|10.40.27.53|||101571767266|182
02.11.2018 10:00:00||FIBABANKA|10.40.27.57|||101571767266|85
02.11.2018 10:00:00||FIBABANKA|10.40.27.57|||101571767266|80
02.11.2018 10:00:00||FIBABANKA|10.40.26.60|||101571767266|113
02.11.2018 10:00:00||FIBABANKA|10.40.26.60|||101571767266|150
02.11.2018 10:00:00||FIBABANKA|10.40.26.60|||101571767266|27
02.11.2018 10:00:00||FIBABANKA|10.40.27.60|||101571767266|50
02.11.2018 10:00:00||FIBABANKA|10.40.27.60|||101571767266|220
02.11.2018 10:00:00||FIBABANKA|10.40.27.60|||101571767266|240
02.11.2018 10:00:00||FIBABANKA|10.40.27.60|||101571767266|47
02.11.2018 10:00:00||FIBABANKA|10.40.27.60|||101571767266|162
02.11.2018 10:00:00||FIBABANKA|10.40.27.60|||101571767266|10
02.11.2018 10:00:00||FIBABANKA|10.40.27.60|||101571767266|100
02.11.2018 10:00:00||FIBABANKA|10.40.27.60|||101571767266|110
02.11.2018 10:00:00||FIBABANKA|10.40.26.60|||101571767266|10
02.11.2018 10:00:00||FIBABANKA|10.40.26.60|||101571767266|110
02.11.2018 10:00:00||FIBABANKA|10.40.26.60|||101571767266|120
02.11.2018 10:00:00||FIBABANKA|10.40.26.60|||101571767266|233
02.11.2018 10:00:00||FIBABANKA|10.40.27.73|||101571767266|10
02.11.2018 10:00:00||FIBABANKA|10.40.27.74|||101571767266|177
02.11.2018 10:00:00||FIBABANKA|10.40.25.57|||101571767266|90
02.11.2018 10:00:00||FIBABANKA|10.40.27.60|||101571767266|50
02.11.2018 10:00:00||FIBABANKA|10.40.25.53|||101571767266|48
02.11.2018 10:00:00||FIBABANKA|10.40.25.51|||101571767266|110
02.11.2018 10:00:00||FIBABANKA|10.40.24.51|||101571767266|20
02.11.2018 10:00:00||FIBABANKA|10.40.24.51|||101571767266|70
02.11.2018 10:00:00||FIBABANKA|10.40.24.51|||101571767266|100
02.11.2018 10:00:00||FIBABANKA|10.40.24.52|||101571767266|40
02.11.2018 10:00:00||FIBABANKA|10.40.24.52|||101571767266|10
02.11.2018 10:00:00||FIBABANKA|10.40.25.51|||101571767266|40
02.11.2018 10:00:00||FIBABANKA|10.40.25.51|||101571767266|40
02.11.2018 10:00:00||FIBABANKA|10.40.25.51|||101571767266|72
02.11.2018 10:00:00||FIBABANKA|10.40.26.51|||101571767266|70
02.11.2018 10:00:00||FIBABANKA|10.40.26.52|||101571767266|30
02.11.2018 10:00:00||FIBABANKA|10.40.26.52|||101571767266|90
02.11.2018 10:00:00||FIBABANKA|10.40.26.52|||101571767266|30
02.11.2018 10:00:00||FIBABANKA|10.40.27.60|||101571767266|97
02.11.2018 10:00:00||FIBABANKA|10.40.26.73|||101571767266|40
02.11.2018 10:00:00||FIBABANKA|10.40.26.53|||101571767266|43
02.11.2018 10:00:00||FIBABANKA|10.40.26.53|||101571767266|178
02.11.2018 10:00:00||FIBABANKA|10.40.25.57|||101571767266|80
02.11.2018 10:00:00||FIBABANKA|10.40.25.76|||101571767266|10
02.11.2018 10:00:00||FIBABANKA|10.40.26.53|||101571767266|170
02.11.2018 10:00:00||FIBABANKA|10.40.27.57|||101571767266|80
02.11.2018 10:00:00||FIBABANKA|10.40.26.60|||101571767266|10
02.11.2018 10:00:00||FIBABANKA|10.40.24.57|||101571767266|100
02.11.2018 10:00:00||FIBABANKA|10.40.24.57|||101571767266|70
02.11.2018 10:00:00||FIBABANKA|10.40.24.57|||101571767266|93
02.11.2018 10:00:00||FIBABANKA|10.40.25.53|||101571767266|30
02.11.2018 10:00:00||FIBABANKA|10.40.24.51|||101571767266|140
02.11.2018 10:00:00||FIBABANKA|10.40.24.51|||101571767266|30
02.11.2018 10:00:00||FIBABANKA|10.40.24.57|||101571767266|70
02.11.2018 10:00:00||FIBABANKA|10.40.25.59|||101571767266|70
02.11.2018 10:00:00||FIBABANKA|10.40.25.59|||101571767266|90
02.11.2018 10:00:00||FIBABANKA|10.40.25.59|||101571767266|90
02.11.2018 10:00:00||FIBABANKA|10.40.25.59|||101571767266|40
02.11.2018 10:00:00||FIBABANKA|10.40.25.59|||101571767266|120
02.11.2018 10:00:00||FIBABANKA|10.40.25.59|||101571767266|60
02.11.2018 10:00:00||FIBABANKA|10.40.25.59|||101571767266|50
02.11.2018 10:00:00||FIBABANKA|10.40.25.59|||101571767266|140
02.11.2018 10:00:00||FIBABANKA|10.40.25.59|||101571767266|50
02.11.2018 10:00:00||FIBABANKA|10.40.24.59|||101571767266|70
02.11.2018 10:00:00||FIBABANKA|10.40.24.59|||101571767266|125
02.11.2018 10:00:00||FIBABANKA|10.40.24.59|||101571767266|80
02.11.2018 10:00:00||FIBABANKA|10.40.24.59|||101571767266|75
02.11.2018 10:00:00||FIBABANKA|10.40.24.59|||101571767266|68
02.11.2018 10:00:00||FIBABANKA|10.40.24.59|||101571767266|130
02.11.2018 10:00:00||FIBABANKA|10.40.24.59|||101571767266|70
02.11.2018 10:00:00||FIBABANKA|10.40.24.59|||101571767266|60
02.11.2018 10:00:00||FIBABANKA|10.40.24.59|||101571767266|142
02.11.2018 10:00:00||FIBABANKA|10.40.24.59|||101571767266|62
02.11.2018 10:00:00||FIBABANKA|10.40.25.60|||101571767266|100
02.11.2018 10:00:00||FIBABANKA|10.40.25.60|||101571767266|37
02.11.2018 10:00:00||FIBABANKA|10.40.25.60|||101571767266|108
02.11.2018 10:00:00||FIBABANKA|10.40.25.60|||101571767266|40
02.11.2018 10:00:00||FIBABANKA|10.40.24.60|||101571767266|110
02.11.2018 10:00:00||FIBABANKA|10.40.24.60|||101571767266|60
02.11.2018 10:00:00||FIBABANKA|10.40.24.60|||101571767266|40
02.11.2018 10:00:00||FIBABANKA|10.40.24.60|||101571767266|100
02.11.2018 10:00:00||FIBABANKA|10.40.24.60|||101571767266|50
02.11.2018 10:00:00||FIBABANKA|10.40.25.72|||101571767266|70
02.11.2018 10:00:00||FIBABANKA|10.40.25.72|||101571767266|40
02.11.2018 10:00:00||FIBABANKA|10.40.25.72|||101571767266|30
02.11.2018 10:00:00||FIBABANKA|10.40.24.72|||101571767266|140
02.11.2018 10:00:00||FIBABANKA|10.40.24.72|||101571767266|78
02.11.2018 10:00:00||FIBABANKA|10.40.24.72|||101571767266|30
02.11.2018 10:00:00||FIBABANKA|10.40.24.72|||101571767266|40
02.11.2018 10:00:00||FIBABANKA|10.40.25.74|||101571767266|30
02.11.2018 10:00:00||FIBABANKA|10.40.25.75|||101571767266|35
02.11.2018 10:00:00||FIBABANKA|10.40.25.75|||101571767266|92
02.11.2018 10:00:00||FIBABANKA|10.40.25.75|||101571767266|143
02.11.2018 10:00:00||FIBABANKA|10.40.25.75|||101571767266|175
02.11.2018 10:00:00||FIBABANKA|10.40.25.75|||101571767266|177
02.11.2018 10:00:00||FIBABANKA|10.40.25.75|||101571767266|202
02.11.2018 10:00:00||FIBABANKA|10.40.24.75|||101571767266|47
02.11.2018 10:00:00||FIBABANKA|10.40.24.75|||101571767266|50
02.11.2018 10:00:00||FIBABANKA|10.40.24.75|||101571767266|107
02.11.2018 10:00:00||FIBABANKA|10.40.24.75|||101571767266|167
02.11.2018 10:00:00||FIBABANKA|10.40.24.75|||101571767266|155
02.11.2018 10:00:00||FIBABANKA|10.40.24.76|||101571767266|42
02.11.2018 10:00:00||FIBABANKA|10.40.24.76|||101571767266|67
02.11.2018 10:00:00||FIBABANKA|10.40.24.76|||101571767266|20
02.11.2018 10:00:00||FIBABANKA|10.40.24.76|||101571767266|40
02.11.2018 10:00:00||FIBABANKA|10.40.24.76|||101571767266|10
02.11.2018 10:00:00||FIBABANKA|10.40.25.77|||101571767266|63
02.11.2018 10:00:00||FIBABANKA|10.40.25.77|||101571767266|40
02.11.2018 10:00:00||FIBABANKA|10.40.24.77|||101571767266|50
02.11.2018 10:00:00||FIBABANKA|10.40.24.77|||101571767266|35
02.11.2018 10:00:00||FIBABANKA|10.40.24.53|||101571767266|30
02.11.2018 10:00:00||FIBABANKA|10.40.24.53|||101571767266|58
02.11.2018 10:00:00||HAVAŞ|10.40.25.45|||110000479675|97
02.11.2018 10:00:00||HAVAŞ|10.40.25.45|||110000479675|90
02.11.2018 10:00:00||HAVAŞ|10.40.25.46|||110000479675|10
02.11.2018 10:00:00||HAVAŞ|10.40.25.46|||110000479675|10
02.11.2018 10:00:00||HAVAŞ|10.40.25.46|||110000479675|20
02.11.2018 10:00:00||HAVAŞ|10.40.25.46|||110000479675|20
02.11.2018 10:00:00||HAVAŞ|10.40.25.46|||110000479675|50
02.11.2018 10:00:00||HAVAŞ|10.40.25.46|||110000479675|100
02.11.2018 10:00:00||HAVAŞ|10.40.25.46|||110000479675|67
02.11.2018 10:00:00||HAVAŞ|10.40.25.46|||110000479675|80
02.11.2018 10:00:00||HAVAŞ|10.40.25.46|||110000479675|70
02.11.2018 10:00:00||HAVAŞ|10.40.24.46|||110000479675|20
02.11.2018 10:00:00||HAVAŞ|10.40.24.46|||110000479675|20
02.11.2018 10:00:00||HAVAŞ|10.40.24.46|||110000479675|10
02.11.2018 10:00:00||HAVAŞ|10.40.24.46|||110000479675|10
02.11.2018 10:00:00||HAVAŞ|10.40.24.46|||110000479675|10
02.11.2018 10:00:00||HAVAŞ|10.40.24.46|||110000479675|60
02.11.2018 10:00:00||HAVAŞ|10.40.24.46|||110000479675|110
02.11.2018 10:00:00||HAVAŞ|10.40.24.47|||110000479675|30
02.11.2018 10:00:00||HAVAŞ|10.40.24.47|||110000479675|220
02.11.2018 10:00:00||HAVAŞ|10.40.24.47|||110000479675|60
02.11.2018 10:00:00||HAVAŞ|10.40.24.47|||110000479675|57
02.11.2018 10:00:00||HAVAŞ|10.40.24.47|||110000479675|155
02.11.2018 10:00:00||HAVAŞ|10.40.24.47|||110000479675|100
02.11.2018 10:00:00||HAVAŞ|10.40.24.47|||110000479675|100
02.11.2018 10:00:00||HAVAŞ|10.40.25.45|||110000479675|62
02.11.2018 10:00:00||HAVAŞ|10.40.25.47|||110000479675|220
02.11.2018 10:00:00||HAVAŞ|10.40.25.47|||110000479675|53
02.11.2018 10:00:00||HAVAŞ|10.40.25.47|||110000479675|87
02.11.2018 10:00:00||HAVAŞ|10.40.25.47|||110000479675|88
02.11.2018 10:00:00||HAVAŞ|10.40.25.47|||110000479675|90
02.11.2018 10:00:00||HAVAŞ|10.40.25.47|||110000479675|112
02.11.2018 10:00:00||HAVAŞ|10.40.25.47|||110000479675|180
02.11.2018 10:00:00||HAVAŞ|10.40.24.48|||110000479675|742
02.11.2018 10:00:00||HAVAŞ|10.40.25.48|||110000479675|738
02.11.2018 10:00:00||HAVAŞ|10.40.24.46|||110000479675|80
02.11.2018 10:00:00||HAVAŞ|10.40.24.47|||110000479675|30
02.11.2018 10:00:00||HAVAŞ|10.40.24.47|||110000479675|92
02.11.2018 10:00:00||HAVAŞ|10.40.24.47|||110000479675|90
02.11.2018 10:00:00||HAVAŞ|10.40.25.46|||110000479675|10
02.11.2018 10:00:00||HAVAŞ|10.40.25.46|||110000479675|60
02.11.2018 10:00:00||HAVAŞ|10.40.24.48|||110000479675|752
02.11.2018 10:00:00||HAVAŞ|10.40.24.46|||110000479675|60
02.11.2018 10:00:00||HAVAŞ|10.40.24.46|||110000479675|70
02.11.2018 10:00:00||HAVAŞ|10.40.24.47|||110000479675|17
02.11.2018 10:00:00||HAVAŞ|10.40.25.45|||110000479675|95
02.11.2018 10:00:00||HAVAŞ|10.40.24.45|||110000479675|50
02.11.2018 10:00:00||HAVAŞ|10.40.24.45|||110000479675|170
02.11.2018 10:00:00||HAVAŞ|10.40.24.45|||110000479675|100
02.11.2018 10:00:00||HAVAŞ|10.40.25.47|||110000479675|70
02.11.2018 10:00:00||HAVAŞ|10.40.25.47|||110000479675|90
02.11.2018 10:00:00||HAVAŞ|10.40.25.47|||110000479675|90
02.11.2018 10:00:00||HAVAŞ|10.40.25.47|||110000479675|90
02.11.2018 10:00:00||HAVAŞ|10.40.24.46|||110000479675|10
02.11.2018 10:00:00||HAVAŞ|10.40.24.48|||110000479675|742
02.11.2018 10:00:00||HAVAŞ|10.40.24.45|||110000479675|70
02.11.2018 10:00:00||HAVAŞ|10.40.25.47|||110000479675|70
02.11.2018 10:00:00||HAVAŞ|10.40.25.48|||110000479675|740
02.11.2018 10:00:00||HAVAŞ|10.40.25.48|||110000479675|755
02.11.2018 10:00:00||MARS CINEMA|10.40.25.204|||110000472614|110
02.11.2018 10:00:00||MARS CINEMA|10.40.25.204|||110000472614|100
02.11.2018 10:00:00||MARS CINEMA|10.40.24.203|||110000472614|80
02.11.2018 10:00:00||MARS CINEMA|10.40.24.203|||110000472614|92
02.11.2018 10:00:00||MARS CINEMA|10.40.24.203|||110000472614|133
02.11.2018 10:00:00||MARS CINEMA|10.40.24.203|||110000472614|60
02.11.2018 10:00:00||MARS CINEMA|10.40.24.203|||110000472614|140
02.11.2018 10:00:00||MARS CINEMA|10.40.24.203|||110000472614|152
02.11.2018 10:00:00||MARS CINEMA|10.40.24.203|||110000472614|100
02.11.2018 10:00:00||MARS CINEMA|10.40.24.203|||110000472614|182
02.11.2018 10:00:00||MARS CINEMA|10.40.24.204|||110000472614|112
02.11.2018 10:00:00||MARS CINEMA|10.40.24.204|||110000472614|90
02.11.2018 10:00:00||MARS CINEMA|10.40.24.204|||110000472614|90
02.11.2018 10:00:00||MARS CINEMA|10.40.24.204|||110000472614|20
02.11.2018 10:00:00||MARS CINEMA|10.40.24.204|||110000472614|10
02.11.2018 10:00:00||MARS CINEMA|10.40.24.204|||110000472614|90
02.11.2018 10:00:00||MARS CINEMA|10.40.24.204|||110000472614|120
02.11.2018 10:00:00||MARS CINEMA|10.40.24.204|||110000472614|92
02.11.2018 10:00:00||MARS CINEMA|10.40.24.204|||110000472614|110
02.11.2018 10:00:00||MARS CINEMA|10.40.24.204|||110000472614|80
02.11.2018 10:00:00||MARS CINEMA|10.40.25.206|||110000472614|122
02.11.2018 10:00:00||MARS CINEMA|10.40.25.206|||110000472614|40
02.11.2018 10:00:00||MARS CINEMA|10.40.25.206|||110000472614|40
02.11.2018 10:00:00||MARS CINEMA|10.40.25.206|||110000472614|40
02.11.2018 10:00:00||MARS CINEMA|10.40.25.206|||110000472614|20
02.11.2018 10:00:00||MARS CINEMA|10.40.25.206|||110000472614|20
02.11.2018 10:00:00||MARS CINEMA|10.40.25.206|||110000472614|30
02.11.2018 10:00:00||MARS CINEMA|10.40.25.206|||110000472614|60
02.11.2018 10:00:00||MARS CINEMA|10.40.25.206|||110000472614|40
02.11.2018 10:00:00||MARS CINEMA|10.40.25.206|||110000472614|88
02.11.2018 10:00:00||MARS CINEMA|10.40.25.206|||110000472614|90
02.11.2018 10:00:00||MARS CINEMA|10.40.24.206|||110000472614|153
02.11.2018 10:00:00||MARS CINEMA|10.40.24.206|||110000472614|40
02.11.2018 10:00:00||MARS CINEMA|10.40.24.206|||110000472614|40
02.11.2018 10:00:00||MARS CINEMA|10.40.24.206|||110000472614|45
02.11.2018 10:00:00||MARS CINEMA|10.40.24.206|||110000472614|30
02.11.2018 10:00:00||MARS CINEMA|10.40.24.206|||110000472614|30
02.11.2018 10:00:00||MARS CINEMA|10.40.24.206|||110000472614|202
02.11.2018 10:00:00||MARS CINEMA|10.40.24.206|||110000472614|160
02.11.2018 10:00:00||MARS CINEMA|10.40.24.206|||110000472614|20
02.11.2018 10:00:00||MARS CINEMA|10.40.24.206|||110000472614|80
02.11.2018 10:00:00||MARS CINEMA|10.40.24.206|||110000472614|78
02.11.2018 10:00:00||MARS CINEMA|10.40.24.204|||110000472614|62
02.11.2018 10:00:00||MARS CINEMA|10.40.24.203|||110000472614|103
02.11.2018 10:00:00||MARS CINEMA|10.40.24.204|||110000472614|20
02.11.2018 10:00:00||MARS CINEMA|10.40.24.204|||110000472614|93
02.11.2018 10:00:00||MARS CINEMA|10.40.24.203|||110000472614|88
02.11.2018 10:00:00||MARS CINEMA|10.40.24.203|||110000472614|158
02.11.2018 10:00:00||MARS CINEMA|10.40.24.203|||110000472614|100
02.11.2018 10:00:00||MARS CINEMA|10.40.24.204|||110000472614|40
02.11.2018 10:00:00||MARS CINEMA|10.40.24.203|||110000472614|80
02.11.2018 10:00:00||MARS CINEMA|10.40.25.203|||110000472614|155
02.11.2018 10:00:00||MARS CINEMA|10.40.25.203|||110000472614|97
02.11.2018 10:00:00||MARS CINEMA|10.40.25.203|||110000472614|180
02.11.2018 10:00:00||MARS CINEMA|10.40.25.203|||110000472614|98
02.11.2018 10:00:00||MARS CINEMA|10.40.25.203|||110000472614|80
02.11.2018 10:00:00||MARS CINEMA|10.40.25.203|||110000472614|110
02.11.2018 10:00:00||MARS CINEMA|10.40.25.203|||110000472614|80
02.11.2018 10:00:00||MARS CINEMA|10.40.25.203|||110000472614|150
02.11.2018 10:00:00||MARS CINEMA|10.40.25.203|||110000472614|90
02.11.2018 10:00:00||MARS CINEMA|10.40.25.203|||110000472614|113
02.11.2018 10:00:00||MARS CINEMA|10.40.25.203|||110000472614|92
02.11.2018 10:00:00||MARS CINEMA|10.40.25.203|||110000472614|63
02.11.2018 10:00:00||MARS CINEMA|10.40.25.203|||110000472614|190
02.11.2018 10:00:00||MARS CINEMA|10.40.25.204|||110000472614|110
02.11.2018 10:00:00||MARS CINEMA|10.40.25.204|||110000472614|70
02.11.2018 10:00:00||MARS CINEMA|10.40.25.204|||110000472614|80
02.11.2018 10:00:00||MARS CINEMA|10.40.25.204|||110000472614|100
02.11.2018 10:00:00||MARS CINEMA|10.40.25.204|||110000472614|20
02.11.2018 10:00:00||MARS CINEMA|10.40.25.204|||110000472614|20
02.11.2018 10:00:00||MARS CINEMA|10.40.25.204|||110000472614|30
02.11.2018 10:00:00||MARS CINEMA|10.40.25.204|||110000472614|40
02.11.2018 10:00:00||MARS CINEMA|10.40.25.204|||110000472614|90
02.11.2018 10:00:00||MARS CINEMA|10.40.25.204|||110000472614|120
02.11.2018 10:00:00||MARS CINEMA|10.40.25.204|||110000472614|80
02.11.2018 10:00:00||MARS CINEMA|10.40.25.204|||110000472614|80
02.11.2018 10:00:00||PEGASUS|10.40.27.84|||110000423831|216
02.11.2018 10:00:00||PEGASUS|10.40.26.84|||110000423831|221
02.11.2018 10:00:00||PEGASUS|10.40.26.66|||110000423831|93
02.11.2018 10:00:00||PEGASUS|10.40.27.66|||110000423831|112
02.11.2018 10:00:00||PEGASUS|10.40.27.85|||110000423831|116
02.11.2018 10:00:00||PEGASUS|10.40.26.85|||110000423831|121
02.11.2018 10:00:00||PEGASUS|10.40.26.64|||110000423831|80
02.11.2018 10:00:00||PEGASUS|10.40.26.64|||110000423831|80
02.11.2018 10:00:00||PEGASUS|10.40.26.82|||110000423831|210
02.11.2018 10:00:00||PEGASUS|10.40.26.82|||110000423831|107
02.11.2018 10:00:00||PEGASUS|10.40.26.82|||110000423831|118
02.11.2018 10:00:00||PEGASUS|10.40.26.82|||110000423831|153
02.11.2018 10:00:00||PEGASUS|10.40.26.82|||110000423831|142
02.11.2018 10:00:00||PEGASUS|10.40.26.82|||110000423831|152
02.11.2018 10:00:00||PEGASUS|10.40.26.82|||110000423831|188
02.11.2018 10:00:00||PEGASUS|10.40.26.82|||110000423831|35
02.11.2018 10:00:00||PEGASUS|10.40.26.82|||110000423831|48
02.11.2018 10:00:00||PEGASUS|10.40.26.82|||110000423831|20
02.11.2018 10:00:00||PEGASUS|10.40.26.82|||110000423831|68
02.11.2018 10:00:00||PEGASUS|10.40.26.82|||110000423831|50
02.11.2018 10:00:00||PEGASUS|10.40.26.82|||110000423831|47
02.11.2018 10:00:00||PEGASUS|10.40.27.83|||110000423831|585
02.11.2018 10:00:00||PEGASUS|10.40.27.83|||110000423831|70
02.11.2018 10:00:00||PEGASUS|10.40.27.83|||110000423831|580
02.11.2018 10:00:00||PEGASUS|10.40.27.83|||110000423831|567
02.11.2018 10:00:00||PEGASUS|10.40.27.83|||110000423831|72
02.11.2018 10:00:00||PEGASUS|10.40.26.83|||110000423831|510
02.11.2018 10:00:00||PEGASUS|10.40.26.83|||110000423831|50
02.11.2018 10:00:00||PEGASUS|10.40.26.83|||110000423831|400
02.11.2018 10:00:00||PEGASUS|10.40.26.83|||110000423831|515
02.11.2018 10:00:00||PEGASUS|10.40.26.83|||110000423831|513
02.11.2018 10:00:00||PEGASUS|10.40.26.86|||110000423831|360
02.11.2018 10:00:00||PEGASUS|10.40.26.86|||110000423831|138
02.11.2018 10:00:00||PEGASUS|10.40.26.86|||110000423831|350
02.11.2018 10:00:00||PEGASUS|10.40.26.86|||110000423831|50
02.11.2018 10:00:00||PEGASUS|10.40.26.86|||110000423831|30
02.11.2018 10:00:00||PEGASUS|10.40.26.86|||110000423831|350
02.11.2018 10:00:00||PEGASUS|10.40.26.86|||110000423831|40
02.11.2018 10:00:00||PEGASUS|10.40.27.87|||110000423831|90
02.11.2018 10:00:00||PEGASUS|10.40.27.87|||110000423831|90
02.11.2018 10:00:00||PEGASUS|10.40.27.87|||110000423831|90
02.11.2018 10:00:00||PEGASUS|10.40.27.87|||110000423831|20
02.11.2018 10:00:00||PEGASUS|10.40.26.87|||110000423831|90
02.11.2018 10:00:00||PEGASUS|10.40.26.87|||110000423831|90
02.11.2018 10:00:00||PEGASUS|10.40.26.87|||110000423831|90
02.11.2018 10:00:00||PEGASUS|10.40.26.87|||110000423831|60
02.11.2018 10:00:00||PEGASUS|10.40.26.87|||110000423831|20
02.11.2018 10:00:00||PEGASUS|10.40.26.81|||110000423831|400
02.11.2018 10:00:00||PEGASUS|10.40.26.81|||110000423831|420
02.11.2018 10:00:00||PEGASUS|10.40.26.81|||110000423831|410
02.11.2018 10:00:00||PEGASUS|10.40.27.82|||110000423831|220
02.11.2018 10:00:00||PEGASUS|10.40.27.82|||110000423831|30
02.11.2018 10:00:00||PEGASUS|10.40.27.82|||110000423831|103
02.11.2018 10:00:00||PEGASUS|10.40.27.82|||110000423831|80
02.11.2018 10:00:00||PEGASUS|10.40.27.82|||110000423831|155
02.11.2018 10:00:00||PEGASUS|10.40.27.82|||110000423831|130
02.11.2018 10:00:00||PEGASUS|10.40.27.82|||110000423831|177
02.11.2018 10:00:00||PEGASUS|10.40.27.82|||110000423831|125
02.11.2018 10:00:00||PEGASUS|10.40.27.82|||110000423831|60
02.11.2018 10:00:00||PEGASUS|10.40.27.82|||110000423831|80
02.11.2018 10:00:00||PEGASUS|10.40.27.82|||110000423831|50
02.11.2018 10:00:00||PEGASUS|10.40.27.82|||110000423831|33
02.11.2018 10:00:00||PEGASUS|10.40.27.82|||110000423831|40
02.11.2018 10:00:00||PEGASUS|10.40.27.67|||110000423831|50
02.11.2018 10:00:00||PEGASUS|10.40.27.67|||110000423831|70
02.11.2018 10:00:00||PEGASUS|10.40.27.67|||110000423831|130
02.11.2018 10:00:00||PEGASUS|10.40.27.67|||110000423831|10
02.11.2018 10:00:00||PEGASUS|10.40.27.67|||110000423831|340
02.11.2018 10:00:00||PEGASUS|10.40.27.82|||110000423831|77
02.11.2018 10:00:00||PEGASUS|10.40.27.86|||110000423831|170
02.11.2018 10:00:00||PEGASUS|10.40.27.86|||110000423831|70
02.11.2018 10:00:00||PEGASUS|10.40.27.86|||110000423831|20
02.11.2018 10:00:00||PEGASUS|10.40.27.86|||110000423831|350
02.11.2018 10:00:00||PEGASUS|10.40.27.67|||110000423831|340
02.11.2018 10:00:00||PEGASUS|10.40.27.67|||110000423831|40
02.11.2018 10:00:00||PEGASUS|10.40.26.62|||110000423831|10
02.11.2018 10:00:00||PEGASUS|10.40.26.62|||110000423831|190
02.11.2018 10:00:00||PEGASUS|10.40.26.63|||110000423831|70
02.11.2018 10:00:00||PEGASUS|10.40.26.63|||110000423831|30
02.11.2018 10:00:00||PEGASUS|10.40.26.63|||110000423831|60
02.11.2018 10:00:00||PEGASUS|10.40.26.63|||110000423831|30
02.11.2018 10:00:00||PEGASUS|10.40.26.63|||110000423831|230
02.11.2018 10:00:00||PEGASUS|10.40.26.63|||110000423831|140
02.11.2018 10:00:00||PEGASUS|10.40.26.63|||110000423831|110
02.11.2018 10:00:00||PEGASUS|10.40.26.63|||110000423831|60
02.11.2018 10:00:00||PEGASUS|10.40.26.67|||110000423831|170
02.11.2018 10:00:00||PEGASUS|10.40.27.68|||110000423831|90
02.11.2018 10:00:00||PEGASUS|10.40.27.68|||110000423831|90
02.11.2018 10:00:00||PEGASUS|10.40.27.68|||110000423831|90
02.11.2018 10:00:00||PEGASUS|10.40.27.68|||110000423831|50
02.11.2018 10:00:00||PEGASUS|10.40.26.68|||110000423831|90
02.11.2018 10:00:00||PEGASUS|10.40.26.68|||110000423831|90
02.11.2018 10:00:00||PEGASUS|10.40.26.68|||110000423831|50
02.11.2018 10:00:00||PEGASUS|10.40.27.67|||110000423831|360
02.11.2018 10:00:00||PEGASUS|10.40.27.63|||110000423831|80
02.11.2018 10:00:00||PEGASUS|10.40.26.63|||110000423831|110
02.11.2018 10:00:00||PEGASUS|10.40.26.63|||110000423831|110
02.11.2018 10:00:00||PEGASUS|10.40.26.63|||110000423831|90
02.11.2018 10:00:00||PEGASUS|10.40.26.63|||110000423831|60
02.11.2018 10:00:00||PEGASUS|10.40.26.67|||110000423831|30
02.11.2018 10:00:00||PEGASUS|10.40.26.67|||110000423831|340
02.11.2018 10:00:00||PEGASUS|10.40.26.67|||110000423831|62
02.11.2018 10:00:00||PEGASUS|10.40.26.67|||110000423831|40
02.11.2018 10:00:00||PEGASUS|10.40.26.67|||110000423831|70
02.11.2018 10:00:00||PEGASUS|10.40.26.68|||110000423831|100
02.11.2018 10:00:00||PEGASUS|10.40.27.64|||110000423831|300
02.11.2018 10:00:00||PEGASUS|10.40.27.64|||110000423831|272
02.11.2018 10:00:00||PEGASUS|10.40.27.64|||110000423831|307
02.11.2018 10:00:00||PEGASUS|10.40.27.64|||110000423831|280
02.11.2018 10:00:00||PEGASUS|10.40.27.64|||110000423831|273
02.11.2018 10:00:00||PEGASUS|10.40.27.63|||110000423831|90
02.11.2018 10:00:00||PEGASUS|10.40.26.63|||110000423831|130
02.11.2018 10:00:00||PEGASUS|10.40.26.63|||110000423831|60
02.11.2018 10:00:00||PEGASUS|10.40.26.63|||110000423831|80
02.11.2018 10:00:00||PEGASUS|10.40.26.67|||110000423831|340
02.11.2018 10:00:00||PEGASUS|10.40.27.63|||110000423831|50
02.11.2018 10:00:00||PEGASUS|10.40.27.63|||110000423831|60
02.11.2018 10:00:00||PEGASUS|10.40.26.62|||110000423831|90
02.11.2018 10:00:00||PEGASUS|10.40.26.63|||110000423831|50
02.11.2018 10:00:00||PEGASUS|10.40.26.63|||110000423831|100
02.11.2018 10:00:00||PEGASUS|10.40.26.63|||110000423831|40
02.11.2018 10:00:00||PEGASUS|10.40.26.63|||110000423831|70
02.11.2018 10:00:00||PEGASUS|10.40.26.67|||110000423831|340
02.11.2018 10:00:00||PEGASUS|10.40.27.64|||110000423831|288
02.11.2018 10:00:00||PEGASUS|10.40.27.64|||110000423831|272
02.11.2018 10:00:00||PEGASUS|10.40.27.64|||110000423831|265
02.11.2018 10:00:00||PEGASUS|10.40.27.64|||110000423831|327
02.11.2018 10:00:00||PEGASUS|10.40.27.64|||110000423831|327
02.11.2018 10:00:00||PEGASUS|10.40.27.63|||110000423831|77
02.11.2018 10:00:00||PEGASUS|10.40.27.63|||110000423831|80
02.11.2018 10:00:00||PEGASUS|10.40.27.63|||110000423831|70
02.11.2018 10:00:00||PEGASUS|10.40.27.63|||110000423831|92
02.11.2018 10:00:00||PEGASUS|10.40.27.63|||110000423831|152
02.11.2018 10:00:00||PEGASUS|10.40.27.63|||110000423831|223
02.11.2018 10:00:00||PEGASUS|10.40.27.63|||110000423831|58
02.11.2018 10:00:00||PEGASUS|10.40.27.81|||110000423831|460
02.11.2018 10:00:00||PEGASUS|10.40.27.81|||110000423831|430
02.11.2018 10:00:00||PEGASUS|10.40.27.81|||110000423831|450
02.11.2018 10:00:00||PEGASUS|10.40.27.86|||110000423831|340
02.11.2018 10:00:00||PEGASUS|10.40.27.86|||110000423831|40
02.11.2018 10:00:00||PEGASUS|10.40.27.63|||110000423831|40
02.11.2018 10:00:00||PEGASUS|10.40.27.86|||110000423831|340
02.11.2018 10:00:00||PEGASUS|10.40.27.63|||110000423831|50
02.11.2018 10:00:00||PEGASUS|10.40.27.63|||110000423831|60
02.11.2018 10:00:00||PEGASUS|10.40.27.64|||110000423831|80
02.11.2018 10:00:00||PEGASUS|10.40.27.64|||110000423831|70
02.11.2018 10:00:00||PEGASUS|10.40.27.63|||110000423831|60
02.11.2018 10:00:00||PEGASUS|10.40.27.63|||110000423831|70
02.11.2018 10:00:00||PEGASUS|10.40.27.63|||110000423831|90
02.11.2018 10:00:00||PEGASUS|10.40.26.63|||110000423831|110
02.11.2018 10:00:00||PEGASUS|10.40.27.64|||110000423831|272
02.11.2018 10:00:00||PEGASUS|10.40.27.64|||110000423831|262
02.11.2018 10:00:00||PEGASUS|10.40.27.63|||110000423831|90
02.11.2018 10:00:00||PEGASUS|10.40.27.63|||110000423831|67
02.11.2018 10:00:00||PETKIM|10.40.25.87|||110000437354|142
02.11.2018 10:00:00||PWC|10.40.24.66|||110000433262|60
02.11.2018 10:00:00||PWC|10.40.24.66|||110000433262|30
02.11.2018 10:00:00||PWC|10.40.24.66|||110000433262|30
02.11.2018 10:00:00||PWC|10.40.24.68|||110000433262|102
02.11.2018 10:00:00||PWC|10.40.24.68|||110000433262|167
02.11.2018 10:00:00||PWC|10.40.24.68|||110000433262|417
02.11.2018 10:00:00||PWC|10.40.24.68|||110000433262|75
02.11.2018 10:00:00||PWC|10.40.24.68|||110000433262|70
02.11.2018 10:00:00||PWC|10.40.24.66|||110000433262|90
02.11.2018 10:00:00||PWC|10.40.24.66|||110000433262|10
02.11.2018 10:00:00||PWC|10.40.24.66|||110000433262|30
02.11.2018 10:00:00||PWC|10.40.24.66|||110000433262|210
02.11.2018 10:00:00||PWC|10.40.24.66|||110000433262|210
02.11.2018 10:00:00||PWC|10.40.24.68|||110000433262|157
02.11.2018 10:00:00||PWC|10.40.24.66|||110000433262|50
02.11.2018 10:00:00||PWC|10.40.24.66|||110000433262|440
02.11.2018 10:00:00||PWC|10.40.24.66|||110000433262|50
02.11.2018 10:00:00||PWC|10.40.25.67|||110000433262|80
02.11.2018 10:00:00||PWC|10.40.25.67|||110000433262|90
02.11.2018 10:00:00||PWC|10.40.25.67|||110000433262|320
02.11.2018 10:00:00||PWC|10.40.25.67|||110000433262|250
02.11.2018 10:00:00||PWC|10.40.25.67|||110000433262|240
02.11.2018 10:00:00||PWC|10.40.25.67|||110000433262|250
02.11.2018 10:00:00||PWC|10.40.25.67|||110000433262|50
02.11.2018 10:00:00||PWC|10.40.25.67|||110000433262|30
02.11.2018 10:00:00||PWC|10.40.25.67|||110000433262|120
02.11.2018 10:00:00||PWC|10.40.24.67|||110000433262|10
02.11.2018 10:00:00||PWC|10.40.24.67|||110000433262|10
02.11.2018 10:00:00||PWC|10.40.24.67|||110000433262|370
02.11.2018 10:00:00||PWC|10.40.24.67|||110000433262|30
02.11.2018 10:00:00||PWC|10.40.24.67|||110000433262|70
02.11.2018 10:00:00||PWC|10.40.24.67|||110000433262|120
02.11.2018 10:00:00||PWC|10.40.25.68|||110000433262|135
02.11.2018 10:00:00||PWC|10.40.25.68|||110000433262|210
02.11.2018 10:00:00||PWC|10.40.25.68|||110000433262|68
02.11.2018 10:00:00||PWC|10.40.25.68|||110000433262|80
02.11.2018 10:00:00||PWC|10.40.25.68|||110000433262|147
02.11.2018 10:00:00||VSMART BİLGİ TEKNOLOJİLERİ|10.40.25.62|||110000474326|40
02.11.2018 10:00:00||VSMART BİLGİ TEKNOLOJİLERİ|10.40.25.62|||110000474326|10
02.11.2018 10:00:00||VSMART BİLGİ TEKNOLOJİLERİ|10.40.25.62|||110000474326|10
02.11.2018 10:00:00||VSMART BİLGİ TEKNOLOJİLERİ|10.40.25.62|||110000474326|82
02.11.2018 10:00:00||VSMART BİLGİ TEKNOLOJİLERİ|10.40.25.62|||110000474326|95
02.11.2018 10:00:00||VSMART BİLGİ TEKNOLOJİLERİ|10.40.25.62|||110000474326|108
02.11.2018 10:00:00||VSMART BİLGİ TEKNOLOJİLERİ|10.40.24.62|||110000474326|43
02.11.2018 10:00:00||VSMART BİLGİ TEKNOLOJİLERİ|10.40.24.62|||110000474326|70
02.11.2018 10:00:00||VSMART BİLGİ TEKNOLOJİLERİ|10.40.24.62|||110000474326|42
02.11.2018 10:00:00||VSMART BİLGİ TEKNOLOJİLERİ|10.40.24.62|||110000474326|10
02.11.2018 10:00:00||VSMART BİLGİ TEKNOLOJİLERİ|10.40.25.62|||110000474326|70
02.11.2018 10:00:00||VSMART BİLGİ TEKNOLOJİLERİ|10.40.24.62|||110000474326|48
02.11.2018 10:00:00||VSMART BİLGİ TEKNOLOJİLERİ|10.40.24.62|||110000474326|30
02.11.2018 10:00:00||VSMART BİLGİ TEKNOLOJİLERİ|10.40.24.62|||110000474326|10
