06.11.2018 06:00:00||AKTİFBANK|10.40.25.134|||110000438458|93
06.11.2018 06:00:00||AKTİFBANK|10.40.24.134|||110000438458|94
06.11.2018 06:00:00||AKTİFBANK|10.40.24.135|||110000438458|99
06.11.2018 06:00:00||AKTİFBANK|10.40.25.137|||110000438458|57
06.11.2018 06:00:00||AKTİFBANK|10.40.25.172|||110000438458|88
06.11.2018 06:00:00||AKTİFBANK|10.40.24.172|||110000438458|96
06.11.2018 06:00:00||AKTİFBANK|10.40.25.173|||110000438458|98
06.11.2018 06:00:00||AKTİFBANK|10.40.25.171|||110000438458|12
06.11.2018 06:00:00||AKTİFBANK|10.40.25.174|||110000438458|53
06.11.2018 06:00:00||AKTİFBANK|10.40.24.173|||110000438458|93
06.11.2018 06:00:00||AKTİFBANK|10.40.25.135|||110000438458|96
06.11.2018 06:00:00||AKTİFBANK|10.40.24.137|||110000438458|57
06.11.2018 06:00:00||AKTİFBANK|10.40.24.171|||110000438458|11
06.11.2018 06:00:00||AKTİFBANK|10.40.24.174|||110000438458|60
06.11.2018 06:00:00||AKTİFBANK|10.40.25.140|||110000438458|30
06.11.2018 06:00:00||AKTİFBANK|10.40.24.141|||110000438458|50
06.11.2018 06:00:00||AKTİFBANK|10.40.25.133|||110000438458|90
06.11.2018 06:00:00||AKTİFBANK|10.40.25.133|||110000438458|150
06.11.2018 06:00:00||AKTİFBANK|10.40.25.138|||110000438458|130
06.11.2018 06:00:00||AKTİFBANK|10.40.25.138|||110000438458|73
06.11.2018 06:00:00||AKTİFBANK|10.40.25.139|||110000438458|100
06.11.2018 06:00:00||AKTİFBANK|10.40.25.138|||110000438458|10
06.11.2018 06:00:00||AKTİFBANK|10.40.24.149|||110000438458|110
06.11.2018 06:00:00||AKTİFBANK|10.40.24.150|||110000438458|533
06.11.2018 06:00:00||AKTİFBANK|10.40.25.149|||110000438458|100
06.11.2018 06:00:00||AKTİFBANK|10.40.25.149|||110000438458|90
06.11.2018 06:00:00||AKTİFBANK|10.40.25.149|||110000438458|90
06.11.2018 06:00:00||AKTİFBANK|10.40.24.151|||110000438458|500
06.11.2018 06:00:00||AKTİFBANK|10.40.25.153|||110000438458|80
06.11.2018 06:00:00||AKTİFBANK|10.40.24.149|||110000438458|87
06.11.2018 06:00:00||AKTİFBANK|10.40.24.149|||110000438458|90
06.11.2018 06:00:00||AKTİFBANK|10.40.25.149|||110000438458|68
06.11.2018 06:00:00||AKTİFBANK|10.40.25.149|||110000438458|70
06.11.2018 06:00:00||AKTİFBANK|10.40.25.149|||110000438458|130
06.11.2018 06:00:00||AKTİFBANK|10.40.24.145|||110000438458|70
06.11.2018 06:00:00||AKTİFBANK|10.40.24.149|||110000438458|160
06.11.2018 06:00:00||AKTİFBANK|10.40.25.153|||110000438458|60
06.11.2018 06:00:00||AKTİFBANK|10.40.24.150|||110000438458|533
06.11.2018 06:00:00||AKTİFBANK|10.40.24.162|||110000438458|210
06.11.2018 06:00:00||AKTİFBANK|10.40.24.162|||110000438458|30
06.11.2018 06:00:00||AKTİFBANK|10.40.24.162|||110000438458|40
06.11.2018 06:00:00||AKTİFBANK|10.40.24.133|||110000438458|72
06.11.2018 06:00:00||AKTİFBANK|10.40.24.138|||110000438458|120
06.11.2018 06:00:00||AKTİFBANK|10.40.24.139|||110000438458|30
06.11.2018 06:00:00||AKTİFBANK|10.40.24.164|||110000438458|70
06.11.2018 06:00:00||AKTİFBANK|10.40.24.145|||110000438458|60
06.11.2018 06:00:00||AKTİFBANK|10.40.24.164|||110000438458|230
06.11.2018 06:00:00||AKTİFBANK|10.40.25.133|||110000438458|70
06.11.2018 06:00:00||AKTİFBANK|10.40.24.145|||110000438458|90
06.11.2018 06:00:00||AKTİFBANK|10.40.25.151|||110000438458|515
06.11.2018 06:00:00||AKTİFBANK|10.40.24.158|||110000438458|83
06.11.2018 06:00:00||AKTİFBANK|10.40.25.138|||110000438458|80
06.11.2018 06:00:00||AKTİFBANK|10.40.25.139|||110000438458|10
06.11.2018 06:00:00||AKTİFBANK|10.40.25.140|||110000438458|30
06.11.2018 06:00:00||AKTİFBANK|10.40.25.151|||110000438458|505
06.11.2018 06:00:00||AKTİFBANK|10.40.25.141|||110000438458|100
06.11.2018 06:00:00||AKTİFBANK|10.40.25.141|||110000438458|100
06.11.2018 06:00:00||AKTİFBANK|10.40.25.142|||110000438458|72
06.11.2018 06:00:00||AKTİFBANK|10.40.25.140|||110000438458|80
06.11.2018 06:00:00||AKTİFBANK|10.40.25.140|||110000438458|70
06.11.2018 06:00:00||AKTİFBANK|10.40.25.151|||110000438458|503
06.11.2018 06:00:00||AKTİFBANK|10.40.25.141|||110000438458|100
06.11.2018 06:00:00||AKTİFBANK|10.40.25.141|||110000438458|80
06.11.2018 06:00:00||AKTİFBANK|10.40.25.149|||110000438458|70
06.11.2018 06:00:00||AKTİFBANK|10.40.25.149|||110000438458|90
06.11.2018 06:00:00||AKTİFBANK|10.40.25.149|||110000438458|90
06.11.2018 06:00:00||AKTİFBANK|10.40.25.149|||110000438458|100
06.11.2018 06:00:00||AKTİFBANK|10.40.25.141|||110000438458|100
06.11.2018 06:00:00||AKTİFBANK|10.40.25.138|||110000438458|92
06.11.2018 06:00:00||AKTİFBANK|10.40.25.138|||110000438458|30
06.11.2018 06:00:00||AKTİFBANK|10.40.25.149|||110000438458|72
06.11.2018 06:00:00||AKTİFBANK|10.40.25.149|||110000438458|70
06.11.2018 06:00:00||AKTİFBANK|10.40.25.149|||110000438458|28
06.11.2018 06:00:00||AKTİFBANK|10.40.25.133|||110000438458|110
06.11.2018 06:00:00||AKTİFBANK|10.40.25.150|||110000438458|528
06.11.2018 06:00:00||AKTİFBANK|10.40.25.139|||110000438458|170
06.11.2018 06:00:00||AKTİFBANK|10.40.25.139|||110000438458|40
06.11.2018 06:00:00||AKTİFBANK|10.40.25.140|||110000438458|30
06.11.2018 06:00:00||AKTİFBANK|10.40.25.141|||110000438458|40
06.11.2018 06:00:00||AKTİFBANK|10.40.25.142|||110000438458|40
06.11.2018 06:00:00||AKTİFBANK|10.40.25.149|||110000438458|110
06.11.2018 06:00:00||AKTİFBANK|10.40.24.139|||110000438458|65
06.11.2018 06:00:00||AKTİFBANK|10.40.25.153|||110000438458|10
06.11.2018 06:00:00||AKTİFBANK|10.40.25.150|||110000438458|535
06.11.2018 06:00:00||AKTİFBANK|10.40.25.153|||110000438458|70
06.11.2018 06:00:00||AKTİFBANK|10.40.25.163|||110000438458|50
06.11.2018 06:00:00||AKTİFBANK|10.40.24.141|||110000438458|67
06.11.2018 06:00:00||AKTİFBANK|10.40.25.133|||110000438458|280
06.11.2018 06:00:00||AKTİFBANK|10.40.25.128|||110000438458|70
06.11.2018 06:00:00||AKTİFBANK|10.40.25.128|||110000438458|90
06.11.2018 06:00:00||AKTİFBANK|10.40.25.128|||110000438458|90
06.11.2018 06:00:00||AKTİFBANK|10.40.25.128|||110000438458|40
06.11.2018 06:00:00||AKTİFBANK|10.40.25.128|||110000438458|70
06.11.2018 06:00:00||AKTİFBANK|10.40.25.129|||110000438458|83
06.11.2018 06:00:00||AKTİFBANK|10.40.25.129|||110000438458|63
06.11.2018 06:00:00||AKTİFBANK|10.40.25.129|||110000438458|140
06.11.2018 06:00:00||AKTİFBANK|10.40.25.129|||110000438458|100
06.11.2018 06:00:00||AKTİFBANK|10.40.25.129|||110000438458|47
06.11.2018 06:00:00||AKTİFBANK|10.40.25.129|||110000438458|90
06.11.2018 06:00:00||AKTİFBANK|10.40.25.129|||110000438458|93
06.11.2018 06:00:00||AKTİFBANK|10.40.25.130|||110000438458|70
06.11.2018 06:00:00||AKTİFBANK|10.40.25.130|||110000438458|50
06.11.2018 06:00:00||AKTİFBANK|10.40.25.130|||110000438458|80
06.11.2018 06:00:00||AKTİFBANK|10.40.25.130|||110000438458|40
06.11.2018 06:00:00||AKTİFBANK|10.40.25.130|||110000438458|60
06.11.2018 06:00:00||AKTİFBANK|10.40.25.130|||110000438458|100
06.11.2018 06:00:00||AKTİFBANK|10.40.25.130|||110000438458|90
06.11.2018 06:00:00||AKTİFBANK|10.40.25.131|||110000438458|20
06.11.2018 06:00:00||AKTİFBANK|10.40.25.131|||110000438458|73
06.11.2018 06:00:00||AKTİFBANK|10.40.25.131|||110000438458|100
06.11.2018 06:00:00||AKTİFBANK|10.40.25.131|||110000438458|103
06.11.2018 06:00:00||AKTİFBANK|10.40.25.131|||110000438458|82
06.11.2018 06:00:00||AKTİFBANK|10.40.25.131|||110000438458|80
06.11.2018 06:00:00||AKTİFBANK|10.40.25.131|||110000438458|20
06.11.2018 06:00:00||AKTİFBANK|10.40.25.131|||110000438458|120
06.11.2018 06:00:00||AKTİFBANK|10.40.25.132|||110000438458|60
06.11.2018 06:00:00||AKTİFBANK|10.40.25.132|||110000438458|60
06.11.2018 06:00:00||AKTİFBANK|10.40.25.132|||110000438458|70
06.11.2018 06:00:00||AKTİFBANK|10.40.25.132|||110000438458|108
06.11.2018 06:00:00||AKTİFBANK|10.40.25.132|||110000438458|40
06.11.2018 06:00:00||AKTİFBANK|10.40.25.143|||110000438458|323
06.11.2018 06:00:00||AKTİFBANK|10.40.25.144|||110000438458|80
06.11.2018 06:00:00||AKTİFBANK|10.40.25.144|||110000438458|50
06.11.2018 06:00:00||AKTİFBANK|10.40.25.144|||110000438458|20
06.11.2018 06:00:00||AKTİFBANK|10.40.25.154|||110000438458|10
06.11.2018 06:00:00||AKTİFBANK|10.40.25.154|||110000438458|10
06.11.2018 06:00:00||AKTİFBANK|10.40.25.154|||110000438458|10
06.11.2018 06:00:00||AKTİFBANK|10.40.25.157|||110000438458|50
06.11.2018 06:00:00||AKTİFBANK|10.40.25.157|||110000438458|72
06.11.2018 06:00:00||AKTİFBANK|10.40.25.157|||110000438458|70
06.11.2018 06:00:00||AKTİFBANK|10.40.25.157|||110000438458|80
06.11.2018 06:00:00||AKTİFBANK|10.40.25.157|||110000438458|42
06.11.2018 06:00:00||AKTİFBANK|10.40.25.159|||110000438458|60
06.11.2018 06:00:00||AKTİFBANK|10.40.25.159|||110000438458|10
06.11.2018 06:00:00||AKTİFBANK|10.40.25.159|||110000438458|90
06.11.2018 06:00:00||AKTİFBANK|10.40.25.158|||110000438458|55
06.11.2018 06:00:00||AKTİFBANK|10.40.25.158|||110000438458|55
06.11.2018 06:00:00||AKTİFBANK|10.40.25.158|||110000438458|50
06.11.2018 06:00:00||AKTİFBANK|10.40.25.160|||110000438458|92
06.11.2018 06:00:00||AKTİFBANK|10.40.25.161|||110000438458|80
06.11.2018 06:00:00||AKTİFBANK|10.40.25.161|||110000438458|70
06.11.2018 06:00:00||AKTİFBANK|10.40.25.161|||110000438458|55
06.11.2018 06:00:00||AKTİFBANK|10.40.25.145|||110000438458|90
06.11.2018 06:00:00||AKTİFBANK|10.40.25.145|||110000438458|60
06.11.2018 06:00:00||AKTİFBANK|10.40.25.145|||110000438458|60
06.11.2018 06:00:00||AKTİFBANK|10.40.25.145|||110000438458|30
06.11.2018 06:00:00||AKTİFBANK|10.40.25.145|||110000438458|50
06.11.2018 06:00:00||AKTİFBANK|10.40.25.147|||110000438458|90
06.11.2018 06:00:00||AKTİFBANK|10.40.25.162|||110000438458|30
06.11.2018 06:00:00||AKTİFBANK|10.40.25.162|||110000438458|30
06.11.2018 06:00:00||AKTİFBANK|10.40.25.162|||110000438458|60
06.11.2018 06:00:00||AKTİFBANK|10.40.25.164|||110000438458|60
06.11.2018 06:00:00||AKTİFBANK|10.40.25.164|||110000438458|280
06.11.2018 06:00:00||AKTİFBANK|10.40.25.164|||110000438458|50
06.11.2018 06:00:00||AKTİFBANK|10.40.25.164|||110000438458|260
06.11.2018 06:00:00||AKTİFBANK|10.40.25.164|||110000438458|270
06.11.2018 06:00:00||AKTİFBANK|10.40.25.165|||110000438458|110
06.11.2018 06:00:00||AKTİFBANK|10.40.25.165|||110000438458|70
06.11.2018 06:00:00||AKTİFBANK|10.40.25.165|||110000438458|80
06.11.2018 06:00:00||AKTİFBANK|10.40.25.165|||110000438458|100
06.11.2018 06:00:00||AKTİFBANK|10.40.25.166|||110000438458|90
06.11.2018 06:00:00||AKTİFBANK|10.40.25.166|||110000438458|10
06.11.2018 06:00:00||AKTİFBANK|10.40.25.166|||110000438458|10
06.11.2018 06:00:00||AKTİFBANK|10.40.25.166|||110000438458|40
06.11.2018 06:00:00||AKTİFBANK|10.40.25.148|||110000438458|130
06.11.2018 06:00:00||AKTİFBANK|10.40.25.148|||110000438458|50
06.11.2018 06:00:00||AKTİFBANK|10.40.25.148|||110000438458|100
06.11.2018 06:00:00||AKTİFBANK|10.40.25.148|||110000438458|130
06.11.2018 06:00:00||AKTİFBANK|10.40.25.148|||110000438458|90
06.11.2018 06:00:00||AKTİFBANK|10.40.25.148|||110000438458|80
06.11.2018 06:00:00||AKTİFBANK|10.40.25.148|||110000438458|70
06.11.2018 06:00:00||AKTİFBANK|10.40.25.148|||110000438458|50
06.11.2018 06:00:00||AKTİFBANK|10.40.25.148|||110000438458|80
06.11.2018 06:00:00||AKTİFBANK|10.40.25.148|||110000438458|40
06.11.2018 06:00:00||AKTİFBANK|10.40.25.148|||110000438458|100
06.11.2018 06:00:00||AKTİFBANK|10.40.25.148|||110000438458|60
06.11.2018 06:00:00||AKTİFBANK|10.40.25.155|||110000438458|70
06.11.2018 06:00:00||AKTİFBANK|10.40.25.155|||110000438458|90
06.11.2018 06:00:00||AKTİFBANK|10.40.25.155|||110000438458|110
06.11.2018 06:00:00||AKTİFBANK|10.40.25.155|||110000438458|120
06.11.2018 06:00:00||AKTİFBANK|10.40.25.155|||110000438458|110
06.11.2018 06:00:00||AKTİFBANK|10.40.25.156|||110000438458|20
06.11.2018 06:00:00||AKTİFBANK|10.40.25.156|||110000438458|27
06.11.2018 06:00:00||AKTİFBANK|10.40.25.139|||110000438458|70
06.11.2018 06:00:00||AKTİFBANK|10.40.25.139|||110000438458|80
06.11.2018 06:00:00||AKTİFBANK|10.40.25.150|||110000438458|502
06.11.2018 06:00:00||AKTİFBANK|10.40.25.129|||110000438458|60
06.11.2018 06:00:00||AKTİFBANK|10.40.25.129|||110000438458|83
06.11.2018 06:00:00||AKTİFBANK|10.40.25.129|||110000438458|140
06.11.2018 06:00:00||AKTİFBANK|10.40.25.130|||110000438458|70
06.11.2018 06:00:00||AKTİFBANK|10.40.25.130|||110000438458|130
06.11.2018 06:00:00||AKTİFBANK|10.40.25.130|||110000438458|100
06.11.2018 06:00:00||AKTİFBANK|10.40.25.131|||110000438458|45
06.11.2018 06:00:00||AKTİFBANK|10.40.25.143|||110000438458|60
06.11.2018 06:00:00||AKTİFBANK|10.40.25.143|||110000438458|243
06.11.2018 06:00:00||AKTİFBANK|10.40.25.143|||110000438458|268
06.11.2018 06:00:00||AKTİFBANK|10.40.25.158|||110000438458|100
06.11.2018 06:00:00||AKTİFBANK|10.40.25.160|||110000438458|110
06.11.2018 06:00:00||AKTİFBANK|10.40.25.162|||110000438458|30
06.11.2018 06:00:00||AKTİFBANK|10.40.25.162|||110000438458|40
06.11.2018 06:00:00||AKTİFBANK|10.40.24.140|||110000438458|162
06.11.2018 06:00:00||AKTİFBANK|10.40.24.140|||110000438458|80
06.11.2018 06:00:00||AKTİFBANK|10.40.24.140|||110000438458|40
06.11.2018 06:00:00||AKTİFBANK|10.40.24.140|||110000438458|30
06.11.2018 06:00:00||AKTİFBANK|10.40.24.140|||110000438458|30
06.11.2018 06:00:00||AKTİFBANK|10.40.24.140|||110000438458|27
06.11.2018 06:00:00||AKTİFBANK|10.40.24.149|||110000438458|80
06.11.2018 06:00:00||AKTİFBANK|10.40.24.149|||110000438458|120
06.11.2018 06:00:00||AKTİFBANK|10.40.24.149|||110000438458|90
06.11.2018 06:00:00||AKTİFBANK|10.40.24.149|||110000438458|60
06.11.2018 06:00:00||AKTİFBANK|10.40.24.149|||110000438458|50
06.11.2018 06:00:00||AKTİFBANK|10.40.24.149|||110000438458|140
06.11.2018 06:00:00||AKTİFBANK|10.40.24.149|||110000438458|90
06.11.2018 06:00:00||AKTİFBANK|10.40.24.149|||110000438458|90
06.11.2018 06:00:00||AKTİFBANK|10.40.24.149|||110000438458|90
06.11.2018 06:00:00||AKTİFBANK|10.40.24.149|||110000438458|80
06.11.2018 06:00:00||AKTİFBANK|10.40.24.133|||110000438458|155
06.11.2018 06:00:00||AKTİFBANK|10.40.24.133|||110000438458|120
06.11.2018 06:00:00||AKTİFBANK|10.40.24.133|||110000438458|88
06.11.2018 06:00:00||AKTİFBANK|10.40.24.138|||110000438458|112
06.11.2018 06:00:00||AKTİFBANK|10.40.24.138|||110000438458|135
06.11.2018 06:00:00||AKTİFBANK|10.40.24.138|||110000438458|110
06.11.2018 06:00:00||AKTİFBANK|10.40.24.138|||110000438458|32
06.11.2018 06:00:00||AKTİFBANK|10.40.24.138|||110000438458|50
06.11.2018 06:00:00||AKTİFBANK|10.40.24.139|||110000438458|160
06.11.2018 06:00:00||AKTİFBANK|10.40.24.139|||110000438458|90
06.11.2018 06:00:00||AKTİFBANK|10.40.24.139|||110000438458|122
06.11.2018 06:00:00||AKTİFBANK|10.40.24.141|||110000438458|200
06.11.2018 06:00:00||AKTİFBANK|10.40.24.141|||110000438458|102
06.11.2018 06:00:00||AKTİFBANK|10.40.24.141|||110000438458|100
06.11.2018 06:00:00||AKTİFBANK|10.40.24.141|||110000438458|68
06.11.2018 06:00:00||AKTİFBANK|10.40.24.141|||110000438458|80
06.11.2018 06:00:00||AKTİFBANK|10.40.25.152|||110000438458|110
06.11.2018 06:00:00||AKTİFBANK|10.40.25.152|||110000438458|50
06.11.2018 06:00:00||AKTİFBANK|10.40.25.152|||110000438458|140
06.11.2018 06:00:00||AKTİFBANK|10.40.25.152|||110000438458|70
06.11.2018 06:00:00||AKTİFBANK|10.40.25.152|||110000438458|90
06.11.2018 06:00:00||AKTİFBANK|10.40.25.152|||110000438458|160
06.11.2018 06:00:00||AKTİFBANK|10.40.25.152|||110000438458|50
06.11.2018 06:00:00||AKTİFBANK|10.40.25.152|||110000438458|90
06.11.2018 06:00:00||AKTİFBANK|10.40.25.152|||110000438458|30
06.11.2018 06:00:00||AKTİFBANK|10.40.25.152|||110000438458|80
06.11.2018 06:00:00||AKTİFBANK|10.40.25.152|||110000438458|30
06.11.2018 06:00:00||AKTİFBANK|10.40.24.150|||110000438458|547
06.11.2018 06:00:00||AKTİFBANK|10.40.24.151|||110000438458|530
06.11.2018 06:00:00||AKTİFBANK|10.40.24.151|||110000438458|530
06.11.2018 06:00:00||AKTİFBANK|10.40.24.128|||110000438458|60
06.11.2018 06:00:00||AKTİFBANK|10.40.24.128|||110000438458|70
06.11.2018 06:00:00||AKTİFBANK|10.40.24.128|||110000438458|100
06.11.2018 06:00:00||AKTİFBANK|10.40.24.128|||110000438458|40
06.11.2018 06:00:00||AKTİFBANK|10.40.24.128|||110000438458|70
06.11.2018 06:00:00||AKTİFBANK|10.40.24.128|||110000438458|50
06.11.2018 06:00:00||AKTİFBANK|10.40.24.129|||110000438458|100
06.11.2018 06:00:00||AKTİFBANK|10.40.24.129|||110000438458|70
06.11.2018 06:00:00||AKTİFBANK|10.40.24.129|||110000438458|110
06.11.2018 06:00:00||AKTİFBANK|10.40.24.129|||110000438458|120
06.11.2018 06:00:00||AKTİFBANK|10.40.24.129|||110000438458|40
06.11.2018 06:00:00||AKTİFBANK|10.40.24.129|||110000438458|70
06.11.2018 06:00:00||AKTİFBANK|10.40.24.129|||110000438458|70
06.11.2018 06:00:00||AKTİFBANK|10.40.24.129|||110000438458|90
06.11.2018 06:00:00||AKTİFBANK|10.40.24.129|||110000438458|80
06.11.2018 06:00:00||AKTİFBANK|10.40.24.129|||110000438458|140
06.11.2018 06:00:00||AKTİFBANK|10.40.24.130|||110000438458|42
06.11.2018 06:00:00||AKTİFBANK|10.40.24.130|||110000438458|40
06.11.2018 06:00:00||AKTİFBANK|10.40.24.130|||110000438458|65
06.11.2018 06:00:00||AKTİFBANK|10.40.24.130|||110000438458|38
06.11.2018 06:00:00||AKTİFBANK|10.40.24.130|||110000438458|60
06.11.2018 06:00:00||AKTİFBANK|10.40.24.130|||110000438458|72
06.11.2018 06:00:00||AKTİFBANK|10.40.24.130|||110000438458|87
06.11.2018 06:00:00||AKTİFBANK|10.40.24.130|||110000438458|38
06.11.2018 06:00:00||AKTİFBANK|10.40.24.130|||110000438458|130
06.11.2018 06:00:00||AKTİFBANK|10.40.24.130|||110000438458|110
06.11.2018 06:00:00||AKTİFBANK|10.40.24.131|||110000438458|82
06.11.2018 06:00:00||AKTİFBANK|10.40.24.131|||110000438458|90
06.11.2018 06:00:00||AKTİFBANK|10.40.24.131|||110000438458|110
06.11.2018 06:00:00||AKTİFBANK|10.40.24.131|||110000438458|108
06.11.2018 06:00:00||AKTİFBANK|10.40.24.131|||110000438458|22
06.11.2018 06:00:00||AKTİFBANK|10.40.24.131|||110000438458|160
06.11.2018 06:00:00||AKTİFBANK|10.40.24.131|||110000438458|60
06.11.2018 06:00:00||AKTİFBANK|10.40.24.131|||110000438458|110
06.11.2018 06:00:00||AKTİFBANK|10.40.24.132|||110000438458|30
06.11.2018 06:00:00||AKTİFBANK|10.40.24.132|||110000438458|78
06.11.2018 06:00:00||AKTİFBANK|10.40.24.132|||110000438458|53
06.11.2018 06:00:00||AKTİFBANK|10.40.24.132|||110000438458|183
06.11.2018 06:00:00||AKTİFBANK|10.40.24.132|||110000438458|72
06.11.2018 06:00:00||AKTİFBANK|10.40.24.143|||110000438458|70
06.11.2018 06:00:00||AKTİFBANK|10.40.24.143|||110000438458|270
06.11.2018 06:00:00||AKTİFBANK|10.40.24.143|||110000438458|273
06.11.2018 06:00:00||AKTİFBANK|10.40.24.143|||110000438458|222
06.11.2018 06:00:00||AKTİFBANK|10.40.24.144|||110000438458|70
06.11.2018 06:00:00||AKTİFBANK|10.40.24.144|||110000438458|110
06.11.2018 06:00:00||AKTİFBANK|10.40.24.144|||110000438458|130
06.11.2018 06:00:00||AKTİFBANK|10.40.24.148|||110000438458|70
06.11.2018 06:00:00||AKTİFBANK|10.40.24.148|||110000438458|170
06.11.2018 06:00:00||AKTİFBANK|10.40.24.148|||110000438458|90
06.11.2018 06:00:00||AKTİFBANK|10.40.24.148|||110000438458|110
06.11.2018 06:00:00||AKTİFBANK|10.40.24.148|||110000438458|80
06.11.2018 06:00:00||AKTİFBANK|10.40.24.148|||110000438458|90
06.11.2018 06:00:00||AKTİFBANK|10.40.24.148|||110000438458|90
06.11.2018 06:00:00||AKTİFBANK|10.40.24.148|||110000438458|100
06.11.2018 06:00:00||AKTİFBANK|10.40.24.148|||110000438458|90
06.11.2018 06:00:00||AKTİFBANK|10.40.24.148|||110000438458|60
06.11.2018 06:00:00||AKTİFBANK|10.40.24.148|||110000438458|30
06.11.2018 06:00:00||AKTİFBANK|10.40.24.148|||110000438458|80
06.11.2018 06:00:00||AKTİFBANK|10.40.24.153|||110000438458|10
06.11.2018 06:00:00||AKTİFBANK|10.40.24.153|||110000438458|90
06.11.2018 06:00:00||AKTİFBANK|10.40.24.153|||110000438458|70
06.11.2018 06:00:00||AKTİFBANK|10.40.24.153|||110000438458|80
06.11.2018 06:00:00||AKTİFBANK|10.40.24.157|||110000438458|30
06.11.2018 06:00:00||AKTİFBANK|10.40.24.157|||110000438458|70
06.11.2018 06:00:00||AKTİFBANK|10.40.24.157|||110000438458|70
06.11.2018 06:00:00||AKTİFBANK|10.40.24.157|||110000438458|40
06.11.2018 06:00:00||AKTİFBANK|10.40.24.157|||110000438458|80
06.11.2018 06:00:00||AKTİFBANK|10.40.24.157|||110000438458|40
06.11.2018 06:00:00||AKTİFBANK|10.40.24.158|||110000438458|82
06.11.2018 06:00:00||AKTİFBANK|10.40.24.158|||110000438458|110
06.11.2018 06:00:00||AKTİFBANK|10.40.24.159|||110000438458|130
06.11.2018 06:00:00||AKTİFBANK|10.40.24.159|||110000438458|50
06.11.2018 06:00:00||AKTİFBANK|10.40.24.159|||110000438458|183
06.11.2018 06:00:00||AKTİFBANK|10.40.24.160|||110000438458|50
06.11.2018 06:00:00||AKTİFBANK|10.40.24.160|||110000438458|90
06.11.2018 06:00:00||AKTİFBANK|10.40.24.160|||110000438458|103
06.11.2018 06:00:00||AKTİFBANK|10.40.24.161|||110000438458|203
06.11.2018 06:00:00||AKTİFBANK|10.40.24.161|||110000438458|80
06.11.2018 06:00:00||AKTİFBANK|10.40.24.161|||110000438458|40
06.11.2018 06:00:00||AKTİFBANK|10.40.24.161|||110000438458|30
06.11.2018 06:00:00||AKTİFBANK|10.40.24.161|||110000438458|30
06.11.2018 06:00:00||AKTİFBANK|10.40.24.161|||110000438458|20
06.11.2018 06:00:00||AKTİFBANK|10.40.24.161|||110000438458|90
06.11.2018 06:00:00||AKTİFBANK|10.40.24.145|||110000438458|30
06.11.2018 06:00:00||AKTİFBANK|10.40.24.145|||110000438458|70
06.11.2018 06:00:00||AKTİFBANK|10.40.24.145|||110000438458|50
06.11.2018 06:00:00||AKTİFBANK|10.40.24.147|||110000438458|90
06.11.2018 06:00:00||AKTİFBANK|10.40.24.162|||110000438458|40
06.11.2018 06:00:00||AKTİFBANK|10.40.24.162|||110000438458|40
06.11.2018 06:00:00||AKTİFBANK|10.40.24.162|||110000438458|118
06.11.2018 06:00:00||AKTİFBANK|10.40.24.162|||110000438458|10
06.11.2018 06:00:00||AKTİFBANK|10.40.24.162|||110000438458|53
06.11.2018 06:00:00||AKTİFBANK|10.40.24.163|||110000438458|30
06.11.2018 06:00:00||AKTİFBANK|10.40.24.163|||110000438458|70
06.11.2018 06:00:00||AKTİFBANK|10.40.24.164|||110000438458|55
06.11.2018 06:00:00||AKTİFBANK|10.40.24.164|||110000438458|332
06.11.2018 06:00:00||AKTİFBANK|10.40.24.164|||110000438458|212
06.11.2018 06:00:00||AKTİFBANK|10.40.24.165|||110000438458|73
06.11.2018 06:00:00||AKTİFBANK|10.40.24.165|||110000438458|80
06.11.2018 06:00:00||AKTİFBANK|10.40.24.165|||110000438458|50
06.11.2018 06:00:00||AKTİFBANK|10.40.24.165|||110000438458|123
06.11.2018 06:00:00||AKTİFBANK|10.40.24.166|||110000438458|80
06.11.2018 06:00:00||AKTİFBANK|10.40.24.166|||110000438458|90
06.11.2018 06:00:00||AKTİFBANK|10.40.24.166|||110000438458|10
06.11.2018 06:00:00||AKTİFBANK|10.40.25.168|||110000438458|90
06.11.2018 06:00:00||AKTİFBANK|10.40.25.168|||110000438458|70
06.11.2018 06:00:00||AKTİFBANK|10.40.25.168|||110000438458|50
06.11.2018 06:00:00||AKTİFBANK|10.40.25.168|||110000438458|40
06.11.2018 06:00:00||AKTİFBANK|10.40.25.168|||110000438458|60
06.11.2018 06:00:00||AKTİFBANK|10.40.24.168|||110000438458|90
06.11.2018 06:00:00||AKTİFBANK|10.40.24.168|||110000438458|80
06.11.2018 06:00:00||AKTİFBANK|10.40.24.168|||110000438458|70
06.11.2018 06:00:00||AKTİFBANK|10.40.24.168|||110000438458|70
06.11.2018 06:00:00||AKTİFBANK|10.40.24.168|||110000438458|30
06.11.2018 06:00:00||AKTİFBANK|10.40.24.154|||110000438458|70
06.11.2018 06:00:00||AKTİFBANK|10.40.24.154|||110000438458|20
06.11.2018 06:00:00||AKTİFBANK|10.40.24.154|||110000438458|10
06.11.2018 06:00:00||AKTİFBANK|10.40.24.154|||110000438458|10
06.11.2018 06:00:00||AKTİFBANK|10.40.24.154|||110000438458|10
06.11.2018 06:00:00||AKTİFBANK|10.40.24.154|||110000438458|10
06.11.2018 06:00:00||AKTİFBANK|10.40.24.155|||110000438458|60
06.11.2018 06:00:00||AKTİFBANK|10.40.24.155|||110000438458|102
06.11.2018 06:00:00||AKTİFBANK|10.40.24.155|||110000438458|130
06.11.2018 06:00:00||AKTİFBANK|10.40.24.155|||110000438458|80
06.11.2018 06:00:00||AKTİFBANK|10.40.24.155|||110000438458|110
06.11.2018 06:00:00||AKTİFBANK|10.40.24.155|||110000438458|100
06.11.2018 06:00:00||AKTİFBANK|10.40.25.169|||110000438458|87
06.11.2018 06:00:00||AKTİFBANK|10.40.25.169|||110000438458|90
06.11.2018 06:00:00||AKTİFBANK|10.40.25.169|||110000438458|72
06.11.2018 06:00:00||AKTİFBANK|10.40.25.169|||110000438458|82
06.11.2018 06:00:00||AKTİFBANK|10.40.24.169|||110000438458|78
06.11.2018 06:00:00||AKTİFBANK|10.40.24.169|||110000438458|82
06.11.2018 06:00:00||AKTİFBANK|10.40.24.169|||110000438458|62
06.11.2018 06:00:00||AKTİFBANK|10.40.24.169|||110000438458|80
06.11.2018 06:00:00||AKTİFBANK|10.40.25.170|||110000438458|30
06.11.2018 06:00:00||AKTİFBANK|10.40.25.170|||110000438458|30
06.11.2018 06:00:00||AKTİFBANK|10.40.25.170|||110000438458|200
06.11.2018 06:00:00||AKTİFBANK|10.40.25.170|||110000438458|100
06.11.2018 06:00:00||AKTİFBANK|10.40.25.170|||110000438458|80
06.11.2018 06:00:00||AKTİFBANK|10.40.25.170|||110000438458|120
06.11.2018 06:00:00||AKTİFBANK|10.40.24.170|||110000438458|60
06.11.2018 06:00:00||AKTİFBANK|10.40.24.170|||110000438458|60
06.11.2018 06:00:00||AKTİFBANK|10.40.24.170|||110000438458|322
06.11.2018 06:00:00||AKTİFBANK|10.40.24.170|||110000438458|232
06.11.2018 06:00:00||AKTİFBANK|10.40.24.170|||110000438458|80
06.11.2018 06:00:00||AKTİFBANK|10.40.24.170|||110000438458|102
06.11.2018 06:00:00||AKTİFBANK|10.40.24.170|||110000438458|75
06.11.2018 06:00:00||AKTİFBANK|10.40.25.178|||110000438458|590
06.11.2018 06:00:00||AKTİFBANK|10.40.25.178|||110000438458|560
06.11.2018 06:00:00||AKTİFBANK|10.40.25.178|||110000438458|550
06.11.2018 06:00:00||AKTİFBANK|10.40.24.178|||110000438458|562
06.11.2018 06:00:00||AKTİFBANK|10.40.24.178|||110000438458|540
06.11.2018 06:00:00||AKTİFBANK|10.40.24.178|||110000438458|542
06.11.2018 06:00:00||AKTİFBANK|10.40.25.179|||110000438458|400
06.11.2018 06:00:00||AKTİFBANK|10.40.25.179|||110000438458|380
06.11.2018 06:00:00||AKTİFBANK|10.40.25.179|||110000438458|370
06.11.2018 06:00:00||AKTİFBANK|10.40.24.179|||110000438458|320
06.11.2018 06:00:00||AKTİFBANK|10.40.24.179|||110000438458|330
06.11.2018 06:00:00||AKTİFBANK|10.40.24.179|||110000438458|320
06.11.2018 06:00:00||AKTİFBANK|10.40.24.142|||110000438458|40
06.11.2018 06:00:00||AKTİFBANK|10.40.24.156|||110000438458|50
06.11.2018 06:00:00||AKTİFBANK|10.40.24.156|||110000438458|50
06.11.2018 06:00:00||AKTİFBANK|10.40.25.186|||110000438458|90
06.11.2018 06:00:00||AKTİFBANK|10.40.25.186|||110000438458|20
06.11.2018 06:00:00||AKTİFBANK|10.40.25.186|||110000438458|70
06.11.2018 06:00:00||AKTİFBANK|10.40.24.186|||110000438458|90
06.11.2018 06:00:00||AKTİFBANK|10.40.24.186|||110000438458|30
06.11.2018 06:00:00||AKTİFBANK|10.40.24.186|||110000438458|60
06.11.2018 06:00:00||AKTİFBANK|10.40.24.186|||110000438458|40
06.11.2018 06:00:00||AKTİFBANK|10.40.24.152|||110000438458|10
06.11.2018 06:00:00||AKTİFBANK|10.40.24.152|||110000438458|50
06.11.2018 06:00:00||AKTİFBANK|10.40.24.152|||110000438458|90
06.11.2018 06:00:00||AKTİFBANK|10.40.24.152|||110000438458|105
06.11.2018 06:00:00||AKTİFBANK|10.40.24.152|||110000438458|100
06.11.2018 06:00:00||AKTİFBANK|10.40.24.152|||110000438458|102
06.11.2018 06:00:00||AKTİFBANK|10.40.24.152|||110000438458|337
06.11.2018 06:00:00||AKTİFBANK|10.40.24.152|||110000438458|73
06.11.2018 06:00:00||AKTİFBANK|10.40.24.152|||110000438458|92
06.11.2018 06:00:00||AKTİFBANK|10.40.24.152|||110000438458|30
06.11.2018 06:00:00||AKTİFBANK|10.40.24.152|||110000438458|73
06.11.2018 06:00:00||AKTİFBANK|10.40.24.152|||110000438458|30
06.11.2018 06:00:00||BARİKAT İNTERNET GÜVENLİĞİ|10.40.25.201|||110000479736|118
06.11.2018 06:00:00||BARİKAT İNTERNET GÜVENLİĞİ|10.40.25.201|||110000479736|100
06.11.2018 06:00:00||BARİKAT İNTERNET GÜVENLİĞİ|10.40.24.201|||110000479736|140
06.11.2018 06:00:00||BARİKAT İNTERNET GÜVENLİĞİ|10.40.24.201|||110000479736|100
06.11.2018 06:00:00||BOYNER|10.40.26.100|||101367941673|58
06.11.2018 06:00:00||BOYNER|10.40.26.101|||101367941673|166
06.11.2018 06:00:00||BOYNER|10.40.27.100|||101367941673|53
06.11.2018 06:00:00||BOYNER|10.40.27.101|||101367941673|165
06.11.2018 06:00:00||BOYNER|10.40.27.94|||101367941673|210
06.11.2018 06:00:00||BOYNER|10.40.27.94|||101367941673|90
06.11.2018 06:00:00||BOYNER|10.40.27.94|||101367941673|90
06.11.2018 06:00:00||BOYNER|10.40.27.94|||101367941673|100
06.11.2018 06:00:00||BOYNER|10.40.26.94|||101367941673|90
06.11.2018 06:00:00||BOYNER|10.40.26.94|||101367941673|80
06.11.2018 06:00:00||BOYNER|10.40.26.94|||101367941673|80
06.11.2018 06:00:00||BOYNER|10.40.27.95|||101367941673|132
06.11.2018 06:00:00||BOYNER|10.40.27.95|||101367941673|130
06.11.2018 06:00:00||BOYNER|10.40.27.95|||101367941673|237
06.11.2018 06:00:00||BOYNER|10.40.26.95|||101367941673|130
06.11.2018 06:00:00||BOYNER|10.40.26.95|||101367941673|200
06.11.2018 06:00:00||BOYNER|10.40.26.95|||101367941673|137
06.11.2018 06:00:00||BOYNER|10.40.27.96|||101367941673|60
06.11.2018 06:00:00||BOYNER|10.40.27.96|||101367941673|50
06.11.2018 06:00:00||BOYNER|10.40.27.96|||101367941673|50
06.11.2018 06:00:00||BOYNER|10.40.27.96|||101367941673|40
06.11.2018 06:00:00||BOYNER|10.40.27.96|||101367941673|40
06.11.2018 06:00:00||BOYNER|10.40.27.96|||101367941673|152
06.11.2018 06:00:00||BOYNER|10.40.27.96|||101367941673|150
06.11.2018 06:00:00||BOYNER|10.40.27.96|||101367941673|175
06.11.2018 06:00:00||BOYNER|10.40.27.96|||101367941673|163
06.11.2018 06:00:00||BOYNER|10.40.26.96|||101367941673|30
06.11.2018 06:00:00||BOYNER|10.40.26.96|||101367941673|40
06.11.2018 06:00:00||BOYNER|10.40.26.96|||101367941673|30
06.11.2018 06:00:00||BOYNER|10.40.26.96|||101367941673|40
06.11.2018 06:00:00||BOYNER|10.40.26.96|||101367941673|40
06.11.2018 06:00:00||BOYNER|10.40.26.96|||101367941673|50
06.11.2018 06:00:00||BOYNER|10.40.26.96|||101367941673|188
06.11.2018 06:00:00||BOYNER|10.40.26.96|||101367941673|205
06.11.2018 06:00:00||BOYNER|10.40.26.96|||101367941673|162
06.11.2018 06:00:00||BOYNER|10.40.26.96|||101367941673|178
06.11.2018 06:00:00||BOYNER|10.40.27.97|||101367941673|60
06.11.2018 06:00:00||BOYNER|10.40.27.97|||101367941673|648
06.11.2018 06:00:00||BOYNER|10.40.27.97|||101367941673|648
06.11.2018 06:00:00||BOYNER|10.40.27.97|||101367941673|682
06.11.2018 06:00:00||BOYNER|10.40.27.97|||101367941673|40
06.11.2018 06:00:00||BOYNER|10.40.27.97|||101367941673|32
06.11.2018 06:00:00||BOYNER|10.40.27.97|||101367941673|50
06.11.2018 06:00:00||BOYNER|10.40.27.97|||101367941673|30
06.11.2018 06:00:00||BOYNER|10.40.27.97|||101367941673|178
06.11.2018 06:00:00||BOYNER|10.40.27.97|||101367941673|177
06.11.2018 06:00:00||BOYNER|10.40.27.97|||101367941673|190
06.11.2018 06:00:00||BOYNER|10.40.27.97|||101367941673|195
06.11.2018 06:00:00||BOYNER|10.40.26.97|||101367941673|30
06.11.2018 06:00:00||BOYNER|10.40.26.97|||101367941673|650
06.11.2018 06:00:00||BOYNER|10.40.26.97|||101367941673|650
06.11.2018 06:00:00||BOYNER|10.40.26.97|||101367941673|660
06.11.2018 06:00:00||BOYNER|10.40.26.97|||101367941673|40
06.11.2018 06:00:00||BOYNER|10.40.26.97|||101367941673|40
06.11.2018 06:00:00||BOYNER|10.40.26.97|||101367941673|50
06.11.2018 06:00:00||BOYNER|10.40.26.97|||101367941673|60
06.11.2018 06:00:00||BOYNER|10.40.26.97|||101367941673|30
06.11.2018 06:00:00||BOYNER|10.40.26.97|||101367941673|160
06.11.2018 06:00:00||BOYNER|10.40.26.97|||101367941673|170
06.11.2018 06:00:00||BOYNER|10.40.26.97|||101367941673|160
06.11.2018 06:00:00||BOYNER|10.40.26.97|||101367941673|150
06.11.2018 06:00:00||BOYNER|10.40.27.99|||101367941673|127
06.11.2018 06:00:00||BOYNER|10.40.27.99|||101367941673|82
06.11.2018 06:00:00||BOYNER|10.40.27.99|||101367941673|78
06.11.2018 06:00:00||BOYNER|10.40.26.99|||101367941673|10
06.11.2018 06:00:00||BOYNER|10.40.26.99|||101367941673|110
06.11.2018 06:00:00||BOYNER|10.40.26.99|||101367941673|97
06.11.2018 06:00:00||BOYNER|10.40.26.99|||101367941673|72
06.11.2018 06:00:00||ÇALIK HOLDİNG|10.40.24.118|||110000438407|38
06.11.2018 06:00:00||ÇALIK HOLDİNG|10.40.25.118|||110000438407|268
06.11.2018 06:00:00||ÇALIK HOLDİNG|10.40.25.99|||110000438407|134
06.11.2018 06:00:00||ÇALIK HOLDİNG|10.40.25.103|||110000438407|90
06.11.2018 06:00:00||ÇALIK HOLDİNG|10.40.25.115|||110000438407|178
06.11.2018 06:00:00||ÇALIK HOLDİNG|10.40.25.115|||110000438407|70
06.11.2018 06:00:00||ÇALIK HOLDİNG|10.40.25.120|||110000438407|20
06.11.2018 06:00:00||ÇALIK HOLDİNG|10.40.25.120|||110000438407|60
06.11.2018 06:00:00||ÇALIK HOLDİNG|10.40.25.120|||110000438407|90
06.11.2018 06:00:00||ÇALIK HOLDİNG|10.40.25.97|||110000438407|80
06.11.2018 06:00:00||ÇALIK HOLDİNG|10.40.25.96|||110000438407|70
06.11.2018 06:00:00||ÇALIK HOLDİNG|10.40.25.96|||110000438407|90
06.11.2018 06:00:00||ÇALIK HOLDİNG|10.40.25.96|||110000438407|120
06.11.2018 06:00:00||ÇALIK HOLDİNG|10.40.25.96|||110000438407|90
06.11.2018 06:00:00||ÇALIK HOLDİNG|10.40.25.95|||110000438407|95
06.11.2018 06:00:00||ÇALIK HOLDİNG|10.40.25.95|||110000438407|53
06.11.2018 06:00:00||ÇALIK HOLDİNG|10.40.24.94|||110000438407|182
06.11.2018 06:00:00||ÇALIK HOLDİNG|10.40.25.97|||110000438407|110
06.11.2018 06:00:00||ÇALIK HOLDİNG|10.40.25.115|||110000438407|80
06.11.2018 06:00:00||ÇALIK HOLDİNG|10.40.25.115|||110000438407|67
06.11.2018 06:00:00||ÇALIK HOLDİNG|10.40.25.115|||110000438407|60
06.11.2018 06:00:00||ÇALIK HOLDİNG|10.40.24.95|||110000438407|50
06.11.2018 06:00:00||ÇALIK HOLDİNG|10.40.25.120|||110000438407|40
06.11.2018 06:00:00||ÇALIK HOLDİNG|10.40.25.96|||110000438407|90
06.11.2018 06:00:00||ÇALIK HOLDİNG|10.40.25.96|||110000438407|100
06.11.2018 06:00:00||ÇALIK HOLDİNG|10.40.25.101|||110000438407|50
06.11.2018 06:00:00||ÇALIK HOLDİNG|10.40.25.101|||110000438407|110
06.11.2018 06:00:00||ÇALIK HOLDİNG|10.40.25.101|||110000438407|30
06.11.2018 06:00:00||ÇALIK HOLDİNG|10.40.25.101|||110000438407|10
06.11.2018 06:00:00||ÇALIK HOLDİNG|10.40.25.101|||110000438407|90
06.11.2018 06:00:00||ÇALIK HOLDİNG|10.40.25.101|||110000438407|30
06.11.2018 06:00:00||ÇALIK HOLDİNG|10.40.25.101|||110000438407|40
06.11.2018 06:00:00||ÇALIK HOLDİNG|10.40.25.101|||110000438407|40
06.11.2018 06:00:00||ÇALIK HOLDİNG|10.40.25.101|||110000438407|90
06.11.2018 06:00:00||ÇALIK HOLDİNG|10.40.25.101|||110000438407|90
06.11.2018 06:00:00||ÇALIK HOLDİNG|10.40.25.101|||110000438407|90
06.11.2018 06:00:00||ÇALIK HOLDİNG|10.40.25.94|||110000438407|180
06.11.2018 06:00:00||ÇALIK HOLDİNG|10.40.25.94|||110000438407|180
06.11.2018 06:00:00||ÇALIK HOLDİNG|10.40.25.94|||110000438407|170
06.11.2018 06:00:00||ÇALIK HOLDİNG|10.40.25.94|||110000438407|180
06.11.2018 06:00:00||ÇALIK HOLDİNG|10.40.24.94|||110000438407|195
06.11.2018 06:00:00||ÇALIK HOLDİNG|10.40.24.94|||110000438407|188
06.11.2018 06:00:00||ÇALIK HOLDİNG|10.40.24.94|||110000438407|200
06.11.2018 06:00:00||ÇALIK HOLDİNG|10.40.25.95|||110000438407|20
06.11.2018 06:00:00||ÇALIK HOLDİNG|10.40.25.95|||110000438407|350
06.11.2018 06:00:00||ÇALIK HOLDİNG|10.40.25.95|||110000438407|362
06.11.2018 06:00:00||ÇALIK HOLDİNG|10.40.25.95|||110000438407|40
06.11.2018 06:00:00||ÇALIK HOLDİNG|10.40.24.95|||110000438407|102
06.11.2018 06:00:00||ÇALIK HOLDİNG|10.40.24.95|||110000438407|87
06.11.2018 06:00:00||ÇALIK HOLDİNG|10.40.24.95|||110000438407|400
06.11.2018 06:00:00||ÇALIK HOLDİNG|10.40.24.95|||110000438407|388
06.11.2018 06:00:00||ÇALIK HOLDİNG|10.40.25.96|||110000438407|90
06.11.2018 06:00:00||ÇALIK HOLDİNG|10.40.25.96|||110000438407|98
06.11.2018 06:00:00||ÇALIK HOLDİNG|10.40.25.96|||110000438407|100
06.11.2018 06:00:00||ÇALIK HOLDİNG|10.40.25.96|||110000438407|258
06.11.2018 06:00:00||ÇALIK HOLDİNG|10.40.25.96|||110000438407|262
06.11.2018 06:00:00||ÇALIK HOLDİNG|10.40.25.96|||110000438407|100
06.11.2018 06:00:00||ÇALIK HOLDİNG|10.40.25.96|||110000438407|90
06.11.2018 06:00:00||ÇALIK HOLDİNG|10.40.25.96|||110000438407|90
06.11.2018 06:00:00||ÇALIK HOLDİNG|10.40.25.97|||110000438407|90
06.11.2018 06:00:00||ÇALIK HOLDİNG|10.40.25.97|||110000438407|80
06.11.2018 06:00:00||ÇALIK HOLDİNG|10.40.25.97|||110000438407|310
06.11.2018 06:00:00||ÇALIK HOLDİNG|10.40.25.98|||110000438407|50
06.11.2018 06:00:00||ÇALIK HOLDİNG|10.40.25.98|||110000438407|170
06.11.2018 06:00:00||ÇALIK HOLDİNG|10.40.25.98|||110000438407|160
06.11.2018 06:00:00||ÇALIK HOLDİNG|10.40.25.98|||110000438407|170
06.11.2018 06:00:00||ÇALIK HOLDİNG|10.40.25.98|||110000438407|170
06.11.2018 06:00:00||ÇALIK HOLDİNG|10.40.25.98|||110000438407|60
06.11.2018 06:00:00||ÇALIK HOLDİNG|10.40.25.98|||110000438407|210
06.11.2018 06:00:00||ÇALIK HOLDİNG|10.40.25.98|||110000438407|180
06.11.2018 06:00:00||ÇALIK HOLDİNG|10.40.25.98|||110000438407|170
06.11.2018 06:00:00||ÇALIK HOLDİNG|10.40.25.98|||110000438407|210
06.11.2018 06:00:00||ÇALIK HOLDİNG|10.40.25.98|||110000438407|70
06.11.2018 06:00:00||ÇALIK HOLDİNG|10.40.25.98|||110000438407|320
06.11.2018 06:00:00||ÇALIK HOLDİNG|10.40.24.98|||110000438407|90
06.11.2018 06:00:00||ÇALIK HOLDİNG|10.40.24.98|||110000438407|155
06.11.2018 06:00:00||ÇALIK HOLDİNG|10.40.24.98|||110000438407|200
06.11.2018 06:00:00||ÇALIK HOLDİNG|10.40.24.98|||110000438407|200
06.11.2018 06:00:00||ÇALIK HOLDİNG|10.40.24.98|||110000438407|160
06.11.2018 06:00:00||ÇALIK HOLDİNG|10.40.24.98|||110000438407|30
06.11.2018 06:00:00||ÇALIK HOLDİNG|10.40.24.98|||110000438407|163
06.11.2018 06:00:00||ÇALIK HOLDİNG|10.40.24.98|||110000438407|180
06.11.2018 06:00:00||ÇALIK HOLDİNG|10.40.24.98|||110000438407|170
06.11.2018 06:00:00||ÇALIK HOLDİNG|10.40.24.98|||110000438407|170
06.11.2018 06:00:00||ÇALIK HOLDİNG|10.40.24.98|||110000438407|20
06.11.2018 06:00:00||ÇALIK HOLDİNG|10.40.24.98|||110000438407|273
06.11.2018 06:00:00||ÇALIK HOLDİNG|10.40.25.100|||110000438407|30
06.11.2018 06:00:00||ÇALIK HOLDİNG|10.40.25.100|||110000438407|40
06.11.2018 06:00:00||ÇALIK HOLDİNG|10.40.24.101|||110000438407|60
06.11.2018 06:00:00||ÇALIK HOLDİNG|10.40.24.101|||110000438407|110
06.11.2018 06:00:00||ÇALIK HOLDİNG|10.40.24.101|||110000438407|20
06.11.2018 06:00:00||ÇALIK HOLDİNG|10.40.24.101|||110000438407|20
06.11.2018 06:00:00||ÇALIK HOLDİNG|10.40.24.101|||110000438407|43
06.11.2018 06:00:00||ÇALIK HOLDİNG|10.40.24.101|||110000438407|83
06.11.2018 06:00:00||ÇALIK HOLDİNG|10.40.24.101|||110000438407|30
06.11.2018 06:00:00||ÇALIK HOLDİNG|10.40.24.101|||110000438407|10
06.11.2018 06:00:00||ÇALIK HOLDİNG|10.40.24.101|||110000438407|20
06.11.2018 06:00:00||ÇALIK HOLDİNG|10.40.24.101|||110000438407|50
06.11.2018 06:00:00||ÇALIK HOLDİNG|10.40.24.101|||110000438407|30
06.11.2018 06:00:00||ÇALIK HOLDİNG|10.40.24.101|||110000438407|80
06.11.2018 06:00:00||ÇALIK HOLDİNG|10.40.24.101|||110000438407|80
06.11.2018 06:00:00||ÇALIK HOLDİNG|10.40.24.101|||110000438407|90
06.11.2018 06:00:00||ÇALIK HOLDİNG|10.40.25.102|||110000438407|100
06.11.2018 06:00:00||ÇALIK HOLDİNG|10.40.25.102|||110000438407|90
06.11.2018 06:00:00||ÇALIK HOLDİNG|10.40.25.102|||110000438407|150
06.11.2018 06:00:00||ÇALIK HOLDİNG|10.40.24.102|||110000438407|100
06.11.2018 06:00:00||ÇALIK HOLDİNG|10.40.24.102|||110000438407|90
06.11.2018 06:00:00||ÇALIK HOLDİNG|10.40.24.102|||110000438407|140
06.11.2018 06:00:00||ÇALIK HOLDİNG|10.40.25.103|||110000438407|90
06.11.2018 06:00:00||ÇALIK HOLDİNG|10.40.25.103|||110000438407|80
06.11.2018 06:00:00||ÇALIK HOLDİNG|10.40.25.103|||110000438407|10
06.11.2018 06:00:00||ÇALIK HOLDİNG|10.40.25.115|||110000438407|83
06.11.2018 06:00:00||ÇALIK HOLDİNG|10.40.24.103|||110000438407|100
06.11.2018 06:00:00||ÇALIK HOLDİNG|10.40.24.103|||110000438407|80
06.11.2018 06:00:00||ÇALIK HOLDİNG|10.40.24.103|||110000438407|80
06.11.2018 06:00:00||ÇALIK HOLDİNG|10.40.24.103|||110000438407|20
06.11.2018 06:00:00||ÇALIK HOLDİNG|10.40.24.103|||110000438407|10
06.11.2018 06:00:00||ÇALIK HOLDİNG|10.40.25.113|||110000438407|218
06.11.2018 06:00:00||ÇALIK HOLDİNG|10.40.25.113|||110000438407|225
06.11.2018 06:00:00||ÇALIK HOLDİNG|10.40.25.113|||110000438407|188
06.11.2018 06:00:00||ÇALIK HOLDİNG|10.40.25.113|||110000438407|197
06.11.2018 06:00:00||ÇALIK HOLDİNG|10.40.24.113|||110000438407|222
06.11.2018 06:00:00||ÇALIK HOLDİNG|10.40.24.113|||110000438407|220
06.11.2018 06:00:00||ÇALIK HOLDİNG|10.40.24.113|||110000438407|187
06.11.2018 06:00:00||ÇALIK HOLDİNG|10.40.24.113|||110000438407|153
06.11.2018 06:00:00||ÇALIK HOLDİNG|10.40.25.114|||110000438407|167
06.11.2018 06:00:00||ÇALIK HOLDİNG|10.40.25.114|||110000438407|432
06.11.2018 06:00:00||ÇALIK HOLDİNG|10.40.25.114|||110000438407|40
06.11.2018 06:00:00||ÇALIK HOLDİNG|10.40.24.114|||110000438407|20
06.11.2018 06:00:00||ÇALIK HOLDİNG|10.40.24.114|||110000438407|40
06.11.2018 06:00:00||ÇALIK HOLDİNG|10.40.24.114|||110000438407|150
06.11.2018 06:00:00||ÇALIK HOLDİNG|10.40.24.114|||110000438407|372
06.11.2018 06:00:00||ÇALIK HOLDİNG|10.40.24.115|||110000438407|170
06.11.2018 06:00:00||ÇALIK HOLDİNG|10.40.24.115|||110000438407|80
06.11.2018 06:00:00||ÇALIK HOLDİNG|10.40.24.115|||110000438407|90
06.11.2018 06:00:00||ÇALIK HOLDİNG|10.40.24.115|||110000438407|80
06.11.2018 06:00:00||ÇALIK HOLDİNG|10.40.24.115|||110000438407|90
06.11.2018 06:00:00||ÇALIK HOLDİNG|10.40.24.115|||110000438407|70
06.11.2018 06:00:00||ÇALIK HOLDİNG|10.40.25.116|||110000438407|105
06.11.2018 06:00:00||ÇALIK HOLDİNG|10.40.25.116|||110000438407|98
06.11.2018 06:00:00||ÇALIK HOLDİNG|10.40.25.116|||110000438407|283
06.11.2018 06:00:00||ÇALIK HOLDİNG|10.40.24.116|||110000438407|280
06.11.2018 06:00:00||ÇALIK HOLDİNG|10.40.24.116|||110000438407|100
06.11.2018 06:00:00||ÇALIK HOLDİNG|10.40.24.116|||110000438407|100
06.11.2018 06:00:00||ÇALIK HOLDİNG|10.40.25.117|||110000438407|250
06.11.2018 06:00:00||ÇALIK HOLDİNG|10.40.25.117|||110000438407|30
06.11.2018 06:00:00||ÇALIK HOLDİNG|10.40.25.117|||110000438407|28
06.11.2018 06:00:00||ÇALIK HOLDİNG|10.40.25.119|||110000438407|30
06.11.2018 06:00:00||ÇALIK HOLDİNG|10.40.25.119|||110000438407|30
06.11.2018 06:00:00||ÇALIK HOLDİNG|10.40.24.119|||110000438407|150
06.11.2018 06:00:00||ÇALIK HOLDİNG|10.40.24.119|||110000438407|30
06.11.2018 06:00:00||ÇALIK HOLDİNG|10.40.24.119|||110000438407|50
06.11.2018 06:00:00||ÇALIK HOLDİNG|10.40.25.120|||110000438407|105
06.11.2018 06:00:00||ÇALIK HOLDİNG|10.40.25.120|||110000438407|50
06.11.2018 06:00:00||ÇALIK HOLDİNG|10.40.25.120|||110000438407|20
06.11.2018 06:00:00||ÇALIK HOLDİNG|10.40.25.120|||110000438407|22
06.11.2018 06:00:00||ÇALIK HOLDİNG|10.40.25.120|||110000438407|30
06.11.2018 06:00:00||ÇALIK HOLDİNG|10.40.25.120|||110000438407|90
06.11.2018 06:00:00||ÇALIK HOLDİNG|10.40.25.120|||110000438407|90
06.11.2018 06:00:00||ÇALIK HOLDİNG|10.40.24.120|||110000438407|20
06.11.2018 06:00:00||ÇALIK HOLDİNG|10.40.24.120|||110000438407|30
06.11.2018 06:00:00||ÇALIK HOLDİNG|10.40.24.120|||110000438407|110
06.11.2018 06:00:00||ÇALIK HOLDİNG|10.40.24.120|||110000438407|100
06.11.2018 06:00:00||ÇALIK HOLDİNG|10.40.24.120|||110000438407|40
06.11.2018 06:00:00||ÇALIK HOLDİNG|10.40.24.120|||110000438407|80
06.11.2018 06:00:00||ÇALIK HOLDİNG|10.40.24.120|||110000438407|80
06.11.2018 06:00:00||ÇALIK HOLDİNG|10.40.24.120|||110000438407|70
06.11.2018 06:00:00||ÇALIK HOLDİNG|10.40.25.121|||110000438407|90
06.11.2018 06:00:00||ÇALIK HOLDİNG|10.40.25.121|||110000438407|100
06.11.2018 06:00:00||ÇALIK HOLDİNG|10.40.25.121|||110000438407|150
06.11.2018 06:00:00||ÇALIK HOLDİNG|10.40.24.121|||110000438407|100
06.11.2018 06:00:00||ÇALIK HOLDİNG|10.40.24.121|||110000438407|100
06.11.2018 06:00:00||ÇALIK HOLDİNG|10.40.24.121|||110000438407|140
06.11.2018 06:00:00||ÇALIK HOLDİNG|10.40.25.122|||110000438407|90
06.11.2018 06:00:00||ÇALIK HOLDİNG|10.40.25.122|||110000438407|80
06.11.2018 06:00:00||ÇALIK HOLDİNG|10.40.25.122|||110000438407|80
06.11.2018 06:00:00||ÇALIK HOLDİNG|10.40.25.122|||110000438407|30
06.11.2018 06:00:00||ÇALIK HOLDİNG|10.40.25.122|||110000438407|10
06.11.2018 06:00:00||ÇALIK HOLDİNG|10.40.24.122|||110000438407|90
06.11.2018 06:00:00||ÇALIK HOLDİNG|10.40.24.122|||110000438407|80
06.11.2018 06:00:00||ÇALIK HOLDİNG|10.40.24.122|||110000438407|90
06.11.2018 06:00:00||ÇALIK HOLDİNG|10.40.24.117|||110000438407|200
06.11.2018 06:00:00||ÇALIK HOLDİNG|10.40.24.117|||110000438407|30
06.11.2018 06:00:00||ÇALIK HOLDİNG|10.40.24.117|||110000438407|30
06.11.2018 06:00:00||ÇALIK HOLDİNG|10.40.24.97|||110000438407|102
06.11.2018 06:00:00||ÇALIK HOLDİNG|10.40.24.97|||110000438407|90
06.11.2018 06:00:00||ÇALIK HOLDİNG|10.40.24.97|||110000438407|80
06.11.2018 06:00:00||ÇALIK HOLDİNG|10.40.24.97|||110000438407|90
06.11.2018 06:00:00||ÇALIK HOLDİNG|10.40.24.97|||110000438407|302
06.11.2018 06:00:00||ÇALIK HOLDİNG|10.40.24.100|||110000438407|30
06.11.2018 06:00:00||ÇALIK HOLDİNG|10.40.24.100|||110000438407|40
06.11.2018 06:00:00||FIBABANKA|10.40.26.54|||101571767266|315
06.11.2018 06:00:00||FIBABANKA|10.40.26.55|||101571767266|110
06.11.2018 06:00:00||FIBABANKA|10.40.25.56|||101571767266|197
06.11.2018 06:00:00||FIBABANKA|10.40.27.54|||101571767266|309
06.11.2018 06:00:00||FIBABANKA|10.40.27.55|||101571767266|102
06.11.2018 06:00:00||FIBABANKA|10.40.24.55|||101571767266|111
06.11.2018 06:00:00||FIBABANKA|10.40.25.54|||101571767266|332
06.11.2018 06:00:00||FIBABANKA|10.40.24.54|||101571767266|318
06.11.2018 06:00:00||FIBABANKA|10.40.25.55|||101571767266|113
06.11.2018 06:00:00||FIBABANKA|10.40.24.56|||101571767266|195
06.11.2018 06:00:00||FIBABANKA|10.40.25.51|||101571767266|20
06.11.2018 06:00:00||FIBABANKA|10.40.24.52|||101571767266|32
06.11.2018 06:00:00||FIBABANKA|10.40.25.51|||101571767266|140
06.11.2018 06:00:00||FIBABANKA|10.40.24.51|||101571767266|30
06.11.2018 06:00:00||FIBABANKA|10.40.25.57|||101571767266|90
06.11.2018 06:00:00||FIBABANKA|10.40.25.57|||101571767266|90
06.11.2018 06:00:00||FIBABANKA|10.40.25.57|||101571767266|90
06.11.2018 06:00:00||FIBABANKA|10.40.25.57|||101571767266|78
06.11.2018 06:00:00||FIBABANKA|10.40.25.57|||101571767266|100
06.11.2018 06:00:00||FIBABANKA|10.40.25.57|||101571767266|78
06.11.2018 06:00:00||FIBABANKA|10.40.24.57|||101571767266|90
06.11.2018 06:00:00||FIBABANKA|10.40.24.57|||101571767266|80
06.11.2018 06:00:00||FIBABANKA|10.40.24.57|||101571767266|80
06.11.2018 06:00:00||FIBABANKA|10.40.24.57|||101571767266|70
06.11.2018 06:00:00||FIBABANKA|10.40.26.51|||101571767266|20
06.11.2018 06:00:00||FIBABANKA|10.40.27.52|||101571767266|50
06.11.2018 06:00:00||FIBABANKA|10.40.27.52|||101571767266|60
06.11.2018 06:00:00||FIBABANKA|10.40.27.52|||101571767266|70
06.11.2018 06:00:00||FIBABANKA|10.40.27.53|||101571767266|60
06.11.2018 06:00:00||FIBABANKA|10.40.26.53|||101571767266|70
06.11.2018 06:00:00||FIBABANKA|10.40.26.53|||101571767266|63
06.11.2018 06:00:00||FIBABANKA|10.40.27.57|||101571767266|80
06.11.2018 06:00:00||FIBABANKA|10.40.27.53|||101571767266|70
06.11.2018 06:00:00||FIBABANKA|10.40.27.53|||101571767266|170
06.11.2018 06:00:00||FIBABANKA|10.40.27.53|||101571767266|165
06.11.2018 06:00:00||FIBABANKA|10.40.27.57|||101571767266|82
06.11.2018 06:00:00||FIBABANKA|10.40.27.57|||101571767266|80
06.11.2018 06:00:00||FIBABANKA|10.40.26.60|||101571767266|112
06.11.2018 06:00:00||FIBABANKA|10.40.26.60|||101571767266|143
06.11.2018 06:00:00||FIBABANKA|10.40.26.60|||101571767266|25
06.11.2018 06:00:00||FIBABANKA|10.40.27.60|||101571767266|50
06.11.2018 06:00:00||FIBABANKA|10.40.27.60|||101571767266|213
06.11.2018 06:00:00||FIBABANKA|10.40.27.60|||101571767266|240
06.11.2018 06:00:00||FIBABANKA|10.40.27.60|||101571767266|50
06.11.2018 06:00:00||FIBABANKA|10.40.27.60|||101571767266|160
06.11.2018 06:00:00||FIBABANKA|10.40.27.60|||101571767266|10
06.11.2018 06:00:00||FIBABANKA|10.40.27.60|||101571767266|100
06.11.2018 06:00:00||FIBABANKA|10.40.27.60|||101571767266|112
06.11.2018 06:00:00||FIBABANKA|10.40.26.60|||101571767266|10
06.11.2018 06:00:00||FIBABANKA|10.40.26.60|||101571767266|113
06.11.2018 06:00:00||FIBABANKA|10.40.26.60|||101571767266|120
06.11.2018 06:00:00||FIBABANKA|10.40.26.60|||101571767266|228
06.11.2018 06:00:00||FIBABANKA|10.40.27.73|||101571767266|10
06.11.2018 06:00:00||FIBABANKA|10.40.27.74|||101571767266|172
06.11.2018 06:00:00||FIBABANKA|10.40.25.57|||101571767266|90
06.11.2018 06:00:00||FIBABANKA|10.40.27.60|||101571767266|50
06.11.2018 06:00:00||FIBABANKA|10.40.25.53|||101571767266|52
06.11.2018 06:00:00||FIBABANKA|10.40.25.51|||101571767266|110
06.11.2018 06:00:00||FIBABANKA|10.40.24.51|||101571767266|20
06.11.2018 06:00:00||FIBABANKA|10.40.24.51|||101571767266|70
06.11.2018 06:00:00||FIBABANKA|10.40.24.51|||101571767266|100
06.11.2018 06:00:00||FIBABANKA|10.40.24.52|||101571767266|40
06.11.2018 06:00:00||FIBABANKA|10.40.24.52|||101571767266|10
06.11.2018 06:00:00||FIBABANKA|10.40.25.51|||101571767266|40
06.11.2018 06:00:00||FIBABANKA|10.40.25.51|||101571767266|40
06.11.2018 06:00:00||FIBABANKA|10.40.25.51|||101571767266|72
06.11.2018 06:00:00||FIBABANKA|10.40.26.51|||101571767266|72
06.11.2018 06:00:00||FIBABANKA|10.40.26.52|||101571767266|30
06.11.2018 06:00:00||FIBABANKA|10.40.26.52|||101571767266|90
06.11.2018 06:00:00||FIBABANKA|10.40.26.52|||101571767266|30
06.11.2018 06:00:00||FIBABANKA|10.40.27.60|||101571767266|90
06.11.2018 06:00:00||FIBABANKA|10.40.26.73|||101571767266|40
06.11.2018 06:00:00||FIBABANKA|10.40.26.53|||101571767266|42
06.11.2018 06:00:00||FIBABANKA|10.40.26.53|||101571767266|167
06.11.2018 06:00:00||FIBABANKA|10.40.25.57|||101571767266|83
06.11.2018 06:00:00||FIBABANKA|10.40.25.76|||101571767266|10
06.11.2018 06:00:00||FIBABANKA|10.40.26.53|||101571767266|148
06.11.2018 06:00:00||FIBABANKA|10.40.27.57|||101571767266|80
06.11.2018 06:00:00||FIBABANKA|10.40.26.60|||101571767266|10
06.11.2018 06:00:00||FIBABANKA|10.40.24.57|||101571767266|95
06.11.2018 06:00:00||FIBABANKA|10.40.24.57|||101571767266|68
06.11.2018 06:00:00||FIBABANKA|10.40.24.57|||101571767266|92
06.11.2018 06:00:00||FIBABANKA|10.40.25.53|||101571767266|33
06.11.2018 06:00:00||FIBABANKA|10.40.24.51|||101571767266|140
06.11.2018 06:00:00||FIBABANKA|10.40.24.51|||101571767266|30
06.11.2018 06:00:00||FIBABANKA|10.40.24.57|||101571767266|70
06.11.2018 06:00:00||FIBABANKA|10.40.25.59|||101571767266|70
06.11.2018 06:00:00||FIBABANKA|10.40.25.59|||101571767266|90
06.11.2018 06:00:00||FIBABANKA|10.40.25.59|||101571767266|90
06.11.2018 06:00:00||FIBABANKA|10.40.25.59|||101571767266|40
06.11.2018 06:00:00||FIBABANKA|10.40.25.59|||101571767266|120
06.11.2018 06:00:00||FIBABANKA|10.40.25.59|||101571767266|60
06.11.2018 06:00:00||FIBABANKA|10.40.25.59|||101571767266|50
06.11.2018 06:00:00||FIBABANKA|10.40.25.59|||101571767266|140
06.11.2018 06:00:00||FIBABANKA|10.40.25.59|||101571767266|50
06.11.2018 06:00:00||FIBABANKA|10.40.24.59|||101571767266|70
06.11.2018 06:00:00||FIBABANKA|10.40.24.59|||101571767266|122
06.11.2018 06:00:00||FIBABANKA|10.40.24.59|||101571767266|80
06.11.2018 06:00:00||FIBABANKA|10.40.24.59|||101571767266|57
06.11.2018 06:00:00||FIBABANKA|10.40.24.59|||101571767266|50
06.11.2018 06:00:00||FIBABANKA|10.40.24.59|||101571767266|130
06.11.2018 06:00:00||FIBABANKA|10.40.24.59|||101571767266|70
06.11.2018 06:00:00||FIBABANKA|10.40.24.59|||101571767266|60
06.11.2018 06:00:00||FIBABANKA|10.40.24.59|||101571767266|142
06.11.2018 06:00:00||FIBABANKA|10.40.24.59|||101571767266|60
06.11.2018 06:00:00||FIBABANKA|10.40.25.60|||101571767266|100
06.11.2018 06:00:00||FIBABANKA|10.40.25.60|||101571767266|30
06.11.2018 06:00:00||FIBABANKA|10.40.25.60|||101571767266|110
06.11.2018 06:00:00||FIBABANKA|10.40.25.60|||101571767266|40
06.11.2018 06:00:00||FIBABANKA|10.40.24.60|||101571767266|110
06.11.2018 06:00:00||FIBABANKA|10.40.24.60|||101571767266|50
06.11.2018 06:00:00||FIBABANKA|10.40.24.60|||101571767266|40
06.11.2018 06:00:00||FIBABANKA|10.40.24.60|||101571767266|100
06.11.2018 06:00:00||FIBABANKA|10.40.24.60|||101571767266|50
06.11.2018 06:00:00||FIBABANKA|10.40.25.72|||101571767266|70
06.11.2018 06:00:00||FIBABANKA|10.40.25.72|||101571767266|40
06.11.2018 06:00:00||FIBABANKA|10.40.25.72|||101571767266|30
06.11.2018 06:00:00||FIBABANKA|10.40.24.72|||101571767266|140
06.11.2018 06:00:00||FIBABANKA|10.40.24.72|||101571767266|77
06.11.2018 06:00:00||FIBABANKA|10.40.24.72|||101571767266|30
06.11.2018 06:00:00||FIBABANKA|10.40.24.72|||101571767266|40
06.11.2018 06:00:00||FIBABANKA|10.40.25.74|||101571767266|30
06.11.2018 06:00:00||FIBABANKA|10.40.25.75|||101571767266|40
06.11.2018 06:00:00||FIBABANKA|10.40.25.75|||101571767266|85
06.11.2018 06:00:00||FIBABANKA|10.40.25.75|||101571767266|132
06.11.2018 06:00:00||FIBABANKA|10.40.25.75|||101571767266|163
06.11.2018 06:00:00||FIBABANKA|10.40.25.75|||101571767266|175
06.11.2018 06:00:00||FIBABANKA|10.40.25.75|||101571767266|207
06.11.2018 06:00:00||FIBABANKA|10.40.24.75|||101571767266|50
06.11.2018 06:00:00||FIBABANKA|10.40.24.75|||101571767266|43
06.11.2018 06:00:00||FIBABANKA|10.40.24.75|||101571767266|108
06.11.2018 06:00:00||FIBABANKA|10.40.24.75|||101571767266|160
06.11.2018 06:00:00||FIBABANKA|10.40.24.75|||101571767266|150
06.11.2018 06:00:00||FIBABANKA|10.40.24.76|||101571767266|43
06.11.2018 06:00:00||FIBABANKA|10.40.24.76|||101571767266|70
06.11.2018 06:00:00||FIBABANKA|10.40.24.76|||101571767266|20
06.11.2018 06:00:00||FIBABANKA|10.40.24.76|||101571767266|40
06.11.2018 06:00:00||FIBABANKA|10.40.24.76|||101571767266|10
06.11.2018 06:00:00||FIBABANKA|10.40.25.77|||101571767266|63
06.11.2018 06:00:00||FIBABANKA|10.40.25.77|||101571767266|42
06.11.2018 06:00:00||FIBABANKA|10.40.24.77|||101571767266|40
06.11.2018 06:00:00||FIBABANKA|10.40.24.77|||101571767266|40
06.11.2018 06:00:00||FIBABANKA|10.40.24.53|||101571767266|30
06.11.2018 06:00:00||FIBABANKA|10.40.24.53|||101571767266|60
06.11.2018 06:00:00||FIBABANKA|10.40.26.57|||101571767266|90
06.11.2018 06:00:00||FIBABANKA|10.40.26.57|||101571767266|85
06.11.2018 06:00:00||FIBABANKA|10.40.26.57|||101571767266|80
06.11.2018 06:00:00||FIBABANKA|10.40.26.57|||101571767266|68
06.11.2018 06:00:00||FIBABANKA|10.40.26.57|||101571767266|68
06.11.2018 06:00:00||FIBABANKA|10.40.27.72|||101571767266|40
06.11.2018 06:00:00||FIBABANKA|10.40.27.72|||101571767266|50
06.11.2018 06:00:00||FIBABANKA|10.40.27.72|||101571767266|40
06.11.2018 06:00:00||FIBABANKA|10.40.27.72|||101571767266|140
06.11.2018 06:00:00||FIBABANKA|10.40.27.72|||101571767266|60
06.11.2018 06:00:00||FIBABANKA|10.40.26.72|||101571767266|30
06.11.2018 06:00:00||FIBABANKA|10.40.26.72|||101571767266|140
06.11.2018 06:00:00||FIBABANKA|10.40.26.72|||101571767266|70
06.11.2018 06:00:00||FIBABANKA|10.40.26.72|||101571767266|30
06.11.2018 06:00:00||FIBABANKA|10.40.27.73|||101571767266|30
06.11.2018 06:00:00||FIBABANKA|10.40.27.73|||101571767266|100
06.11.2018 06:00:00||FIBABANKA|10.40.27.73|||101571767266|20
06.11.2018 06:00:00||FIBABANKA|10.40.27.73|||101571767266|40
06.11.2018 06:00:00||FIBABANKA|10.40.27.73|||101571767266|42
06.11.2018 06:00:00||FIBABANKA|10.40.27.73|||101571767266|353
06.11.2018 06:00:00||FIBABANKA|10.40.26.73|||101571767266|40
06.11.2018 06:00:00||FIBABANKA|10.40.26.73|||101571767266|70
06.11.2018 06:00:00||FIBABANKA|10.40.26.73|||101571767266|30
06.11.2018 06:00:00||FIBABANKA|10.40.26.73|||101571767266|8
06.11.2018 06:00:00||FIBABANKA|10.40.27.74|||101571767266|75
06.11.2018 06:00:00||FIBABANKA|10.40.27.74|||101571767266|160
06.11.2018 06:00:00||FIBABANKA|10.40.27.74|||101571767266|167
06.11.2018 06:00:00||FIBABANKA|10.40.26.74|||101571767266|70
06.11.2018 06:00:00||FIBABANKA|10.40.26.74|||101571767266|197
06.11.2018 06:00:00||FIBABANKA|10.40.26.74|||101571767266|190
06.11.2018 06:00:00||FIBABANKA|10.40.26.74|||101571767266|183
06.11.2018 06:00:00||FIBABANKA|10.40.27.75|||101571767266|10
06.11.2018 06:00:00||FIBABANKA|10.40.27.75|||101571767266|10
06.11.2018 06:00:00||FIBABANKA|10.40.27.75|||101571767266|60
06.11.2018 06:00:00||FIBABANKA|10.40.26.75|||101571767266|10
06.11.2018 06:00:00||FIBABANKA|10.40.27.76|||101571767266|90
06.11.2018 06:00:00||FIBABANKA|10.40.26.76|||101571767266|100
06.11.2018 06:00:00||FIBABANKA|10.40.26.79|||101571767266|10
06.11.2018 06:00:00||FIBABANKA|10.40.27.79|||101571767266|10
06.11.2018 06:00:00||FIBABANKA|10.40.27.79|||101571767266|10
06.11.2018 06:00:00||FIBABANKA|10.40.26.79|||101571767266|10
06.11.2018 06:00:00||FIBABANKA|10.40.27.77|||101571767266|53
06.11.2018 06:00:00||FIBABANKA|10.40.27.77|||101571767266|45
06.11.2018 06:00:00||FIBABANKA|10.40.27.77|||101571767266|153
06.11.2018 06:00:00||FIBABANKA|10.40.26.77|||101571767266|47
06.11.2018 06:00:00||FIBABANKA|10.40.26.77|||101571767266|50
06.11.2018 06:00:00||FIBABANKA|10.40.26.77|||101571767266|177
06.11.2018 06:00:00||FIBABANKA|10.40.26.77|||101571767266|205
06.11.2018 06:00:00||FIBABANKA|10.40.26.77|||101571767266|73
06.11.2018 06:00:00||FIBABANKA|10.40.26.77|||101571767266|95
06.11.2018 06:00:00||FIBABANKA|10.40.26.77|||101571767266|175
06.11.2018 06:00:00||FIBABANKA|10.40.26.77|||101571767266|177
06.11.2018 06:00:00||FIBABANKA|10.40.27.77|||101571767266|55
06.11.2018 06:00:00||FIBABANKA|10.40.27.77|||101571767266|38
06.11.2018 06:00:00||FIBABANKA|10.40.27.77|||101571767266|155
06.11.2018 06:00:00||FIBABANKA|10.40.27.57|||101571767266|78
06.11.2018 06:00:00||FIBABANKA|10.40.26.60|||101571767266|222
06.11.2018 06:00:00||FIBABANKA|10.40.25.74|||101571767266|230
06.11.2018 06:00:00||FIBABANKA|10.40.24.75|||101571767266|182
06.11.2018 06:00:00||FIBABANKA|10.40.24.75|||101571767266|140
06.11.2018 06:00:00||FIBABANKA|10.40.24.53|||101571767266|165
06.11.2018 06:00:00||FIBABANKA|10.40.24.53|||101571767266|178
06.11.2018 06:00:00||FIBABANKA|10.40.25.52|||101571767266|10
06.11.2018 06:00:00||FIBABANKA|10.40.25.52|||101571767266|50
06.11.2018 06:00:00||FIBABANKA|10.40.25.52|||101571767266|70
06.11.2018 06:00:00||FIBABANKA|10.40.25.53|||101571767266|160
06.11.2018 06:00:00||FIBABANKA|10.40.25.53|||101571767266|155
06.11.2018 06:00:00||FIBABANKA|10.40.27.51|||101571767266|30
06.11.2018 06:00:00||FIBABANKA|10.40.27.51|||101571767266|20
06.11.2018 06:00:00||FIBABANKA|10.40.27.51|||101571767266|102
06.11.2018 06:00:00||FIBABANKA|10.40.27.51|||101571767266|140
06.11.2018 06:00:00||FIBABANKA|10.40.27.51|||101571767266|70
06.11.2018 06:00:00||FIBABANKA|10.40.27.51|||101571767266|40
06.11.2018 06:00:00||FIBABANKA|10.40.27.51|||101571767266|40
06.11.2018 06:00:00||FIBABANKA|10.40.26.51|||101571767266|10
06.11.2018 06:00:00||FIBABANKA|10.40.26.51|||101571767266|110
06.11.2018 06:00:00||FIBABANKA|10.40.26.51|||101571767266|130
06.11.2018 06:00:00||FIBABANKA|10.40.26.51|||101571767266|30
06.11.2018 06:00:00||FIBABANKA|10.40.26.51|||101571767266|30
06.11.2018 06:00:00||FIBABANKA|10.40.24.74|||101571767266|32
06.11.2018 06:00:00||FIBABANKA|10.40.25.76|||101571767266|60
06.11.2018 06:00:00||FIBABANKA|10.40.25.76|||101571767266|40
06.11.2018 06:00:00||FIBABANKA|10.40.25.76|||101571767266|10
06.11.2018 06:00:00||FIBABANKA|10.40.25.52|||101571767266|40
06.11.2018 06:00:00||FIBABANKA|10.40.25.52|||101571767266|30
06.11.2018 06:00:00||HAVAŞ|10.40.25.45|||110000479675|62
06.11.2018 06:00:00||HAVAŞ|10.40.25.47|||110000479675|222
06.11.2018 06:00:00||HAVAŞ|10.40.25.47|||110000479675|55
06.11.2018 06:00:00||HAVAŞ|10.40.25.47|||110000479675|88
06.11.2018 06:00:00||HAVAŞ|10.40.25.47|||110000479675|90
06.11.2018 06:00:00||HAVAŞ|10.40.25.47|||110000479675|90
06.11.2018 06:00:00||HAVAŞ|10.40.25.47|||110000479675|145
06.11.2018 06:00:00||HAVAŞ|10.40.25.47|||110000479675|180
06.11.2018 06:00:00||HAVAŞ|10.40.24.48|||110000479675|745
06.11.2018 06:00:00||HAVAŞ|10.40.25.48|||110000479675|755
06.11.2018 06:00:00||HAVAŞ|10.40.24.46|||110000479675|80
06.11.2018 06:00:00||HAVAŞ|10.40.24.47|||110000479675|30
06.11.2018 06:00:00||HAVAŞ|10.40.24.47|||110000479675|90
06.11.2018 06:00:00||HAVAŞ|10.40.24.47|||110000479675|90
06.11.2018 06:00:00||HAVAŞ|10.40.25.46|||110000479675|10
06.11.2018 06:00:00||HAVAŞ|10.40.25.46|||110000479675|60
06.11.2018 06:00:00||HAVAŞ|10.40.24.48|||110000479675|753
06.11.2018 06:00:00||HAVAŞ|10.40.24.46|||110000479675|60
06.11.2018 06:00:00||HAVAŞ|10.40.24.46|||110000479675|70
06.11.2018 06:00:00||HAVAŞ|10.40.24.47|||110000479675|10
06.11.2018 06:00:00||HAVAŞ|10.40.25.45|||110000479675|95
06.11.2018 06:00:00||HAVAŞ|10.40.24.45|||110000479675|50
06.11.2018 06:00:00||HAVAŞ|10.40.24.45|||110000479675|170
06.11.2018 06:00:00||HAVAŞ|10.40.24.45|||110000479675|100
06.11.2018 06:00:00||HAVAŞ|10.40.25.47|||110000479675|70
06.11.2018 06:00:00||HAVAŞ|10.40.25.47|||110000479675|90
06.11.2018 06:00:00||HAVAŞ|10.40.25.47|||110000479675|90
06.11.2018 06:00:00||HAVAŞ|10.40.25.47|||110000479675|90
06.11.2018 06:00:00||HAVAŞ|10.40.24.46|||110000479675|10
06.11.2018 06:00:00||HAVAŞ|10.40.24.48|||110000479675|755
06.11.2018 06:00:00||HAVAŞ|10.40.24.45|||110000479675|70
06.11.2018 06:00:00||HAVAŞ|10.40.25.47|||110000479675|70
06.11.2018 06:00:00||HAVAŞ|10.40.25.48|||110000479675|745
06.11.2018 06:00:00||HAVAŞ|10.40.25.48|||110000479675|787
06.11.2018 06:00:00||HAVAŞ|10.40.25.45|||110000479675|113
06.11.2018 06:00:00||HAVAŞ|10.40.25.45|||110000479675|90
06.11.2018 06:00:00||HAVAŞ|10.40.25.46|||110000479675|10
06.11.2018 06:00:00||HAVAŞ|10.40.25.46|||110000479675|10
06.11.2018 06:00:00||HAVAŞ|10.40.25.46|||110000479675|20
06.11.2018 06:00:00||HAVAŞ|10.40.25.46|||110000479675|20
06.11.2018 06:00:00||HAVAŞ|10.40.25.46|||110000479675|52
06.11.2018 06:00:00||HAVAŞ|10.40.25.46|||110000479675|100
06.11.2018 06:00:00||HAVAŞ|10.40.25.46|||110000479675|70
06.11.2018 06:00:00||HAVAŞ|10.40.25.46|||110000479675|80
06.11.2018 06:00:00||HAVAŞ|10.40.25.46|||110000479675|70
06.11.2018 06:00:00||HAVAŞ|10.40.24.46|||110000479675|20
06.11.2018 06:00:00||HAVAŞ|10.40.24.46|||110000479675|20
06.11.2018 06:00:00||HAVAŞ|10.40.24.46|||110000479675|2
06.11.2018 06:00:00||HAVAŞ|10.40.24.46|||110000479675|10
06.11.2018 06:00:00||HAVAŞ|10.40.24.46|||110000479675|10
06.11.2018 06:00:00||HAVAŞ|10.40.24.46|||110000479675|10
06.11.2018 06:00:00||HAVAŞ|10.40.24.46|||110000479675|60
06.11.2018 06:00:00||HAVAŞ|10.40.24.46|||110000479675|110
06.11.2018 06:00:00||HAVAŞ|10.40.24.47|||110000479675|30
06.11.2018 06:00:00||HAVAŞ|10.40.24.47|||110000479675|217
06.11.2018 06:00:00||HAVAŞ|10.40.24.47|||110000479675|60
06.11.2018 06:00:00||HAVAŞ|10.40.24.47|||110000479675|55
06.11.2018 06:00:00||HAVAŞ|10.40.24.47|||110000479675|153
06.11.2018 06:00:00||HAVAŞ|10.40.24.47|||110000479675|95
06.11.2018 06:00:00||HAVAŞ|10.40.24.47|||110000479675|100
06.11.2018 06:00:00||MARS CINEMA|10.40.24.204|||110000472614|60
06.11.2018 06:00:00||MARS CINEMA|10.40.24.203|||110000472614|100
06.11.2018 06:00:00||MARS CINEMA|10.40.24.204|||110000472614|20
06.11.2018 06:00:00||MARS CINEMA|10.40.24.204|||110000472614|100
06.11.2018 06:00:00||MARS CINEMA|10.40.24.203|||110000472614|80
06.11.2018 06:00:00||MARS CINEMA|10.40.24.203|||110000472614|158
06.11.2018 06:00:00||MARS CINEMA|10.40.24.203|||110000472614|102
06.11.2018 06:00:00||MARS CINEMA|10.40.24.204|||110000472614|40
06.11.2018 06:00:00||MARS CINEMA|10.40.24.203|||110000472614|82
06.11.2018 06:00:00||MARS CINEMA|10.40.25.203|||110000472614|158
06.11.2018 06:00:00||MARS CINEMA|10.40.25.203|||110000472614|87
06.11.2018 06:00:00||MARS CINEMA|10.40.25.203|||110000472614|182
06.11.2018 06:00:00||MARS CINEMA|10.40.25.203|||110000472614|90
06.11.2018 06:00:00||MARS CINEMA|10.40.25.203|||110000472614|80
06.11.2018 06:00:00||MARS CINEMA|10.40.25.203|||110000472614|110
06.11.2018 06:00:00||MARS CINEMA|10.40.25.203|||110000472614|80
06.11.2018 06:00:00||MARS CINEMA|10.40.25.203|||110000472614|150
06.11.2018 06:00:00||MARS CINEMA|10.40.25.203|||110000472614|93
06.11.2018 06:00:00||MARS CINEMA|10.40.25.203|||110000472614|110
06.11.2018 06:00:00||MARS CINEMA|10.40.25.203|||110000472614|93
06.11.2018 06:00:00||MARS CINEMA|10.40.25.203|||110000472614|63
06.11.2018 06:00:00||MARS CINEMA|10.40.25.203|||110000472614|188
06.11.2018 06:00:00||MARS CINEMA|10.40.25.204|||110000472614|110
06.11.2018 06:00:00||MARS CINEMA|10.40.25.204|||110000472614|70
06.11.2018 06:00:00||MARS CINEMA|10.40.25.204|||110000472614|80
06.11.2018 06:00:00||MARS CINEMA|10.40.25.204|||110000472614|100
06.11.2018 06:00:00||MARS CINEMA|10.40.25.204|||110000472614|20
06.11.2018 06:00:00||MARS CINEMA|10.40.25.204|||110000472614|20
06.11.2018 06:00:00||MARS CINEMA|10.40.25.204|||110000472614|30
06.11.2018 06:00:00||MARS CINEMA|10.40.25.204|||110000472614|40
06.11.2018 06:00:00||MARS CINEMA|10.40.25.204|||110000472614|90
06.11.2018 06:00:00||MARS CINEMA|10.40.25.204|||110000472614|120
06.11.2018 06:00:00||MARS CINEMA|10.40.25.204|||110000472614|80
06.11.2018 06:00:00||MARS CINEMA|10.40.25.204|||110000472614|80
06.11.2018 06:00:00||MARS CINEMA|10.40.25.204|||110000472614|110
06.11.2018 06:00:00||MARS CINEMA|10.40.25.204|||110000472614|100
06.11.2018 06:00:00||MARS CINEMA|10.40.24.203|||110000472614|73
06.11.2018 06:00:00||MARS CINEMA|10.40.24.203|||110000472614|90
06.11.2018 06:00:00||MARS CINEMA|10.40.24.203|||110000472614|147
06.11.2018 06:00:00||MARS CINEMA|10.40.24.203|||110000472614|70
06.11.2018 06:00:00||MARS CINEMA|10.40.24.203|||110000472614|140
06.11.2018 06:00:00||MARS CINEMA|10.40.24.203|||110000472614|155
06.11.2018 06:00:00||MARS CINEMA|10.40.24.203|||110000472614|100
06.11.2018 06:00:00||MARS CINEMA|10.40.24.203|||110000472614|182
06.11.2018 06:00:00||MARS CINEMA|10.40.24.204|||110000472614|110
06.11.2018 06:00:00||MARS CINEMA|10.40.24.204|||110000472614|90
06.11.2018 06:00:00||MARS CINEMA|10.40.24.204|||110000472614|90
06.11.2018 06:00:00||MARS CINEMA|10.40.24.204|||110000472614|20
06.11.2018 06:00:00||MARS CINEMA|10.40.24.204|||110000472614|10
06.11.2018 06:00:00||MARS CINEMA|10.40.24.204|||110000472614|90
06.11.2018 06:00:00||MARS CINEMA|10.40.24.204|||110000472614|120
06.11.2018 06:00:00||MARS CINEMA|10.40.24.204|||110000472614|90
06.11.2018 06:00:00||MARS CINEMA|10.40.24.204|||110000472614|110
06.11.2018 06:00:00||MARS CINEMA|10.40.24.204|||110000472614|80
06.11.2018 06:00:00||MARS CINEMA|10.40.25.206|||110000472614|120
06.11.2018 06:00:00||MARS CINEMA|10.40.25.206|||110000472614|40
06.11.2018 06:00:00||MARS CINEMA|10.40.25.206|||110000472614|40
06.11.2018 06:00:00||MARS CINEMA|10.40.25.206|||110000472614|40
06.11.2018 06:00:00||MARS CINEMA|10.40.25.206|||110000472614|20
06.11.2018 06:00:00||MARS CINEMA|10.40.25.206|||110000472614|20
06.11.2018 06:00:00||MARS CINEMA|10.40.25.206|||110000472614|30
06.11.2018 06:00:00||MARS CINEMA|10.40.25.206|||110000472614|60
06.11.2018 06:00:00||MARS CINEMA|10.40.25.206|||110000472614|40
06.11.2018 06:00:00||MARS CINEMA|10.40.25.206|||110000472614|80
06.11.2018 06:00:00||MARS CINEMA|10.40.25.206|||110000472614|90
06.11.2018 06:00:00||MARS CINEMA|10.40.24.206|||110000472614|150
06.11.2018 06:00:00||MARS CINEMA|10.40.24.206|||110000472614|40
06.11.2018 06:00:00||MARS CINEMA|10.40.24.206|||110000472614|40
06.11.2018 06:00:00||MARS CINEMA|10.40.24.206|||110000472614|40
06.11.2018 06:00:00||MARS CINEMA|10.40.24.206|||110000472614|30
06.11.2018 06:00:00||MARS CINEMA|10.40.24.206|||110000472614|30
06.11.2018 06:00:00||MARS CINEMA|10.40.24.206|||110000472614|193
06.11.2018 06:00:00||MARS CINEMA|10.40.24.206|||110000472614|160
06.11.2018 06:00:00||MARS CINEMA|10.40.24.206|||110000472614|20
06.11.2018 06:00:00||MARS CINEMA|10.40.24.206|||110000472614|80
06.11.2018 06:00:00||MARS CINEMA|10.40.24.206|||110000472614|78
06.11.2018 06:00:00||PEGASUS|10.40.27.84|||110000423831|216
06.11.2018 06:00:00||PEGASUS|10.40.26.84|||110000423831|217
06.11.2018 06:00:00||PEGASUS|10.40.26.66|||110000423831|93
06.11.2018 06:00:00||PEGASUS|10.40.27.66|||110000423831|112
06.11.2018 06:00:00||PEGASUS|10.40.27.85|||110000423831|117
06.11.2018 06:00:00||PEGASUS|10.40.26.85|||110000423831|121
06.11.2018 06:00:00||PEGASUS|10.40.27.67|||110000423831|335
06.11.2018 06:00:00||PEGASUS|10.40.27.67|||110000423831|40
06.11.2018 06:00:00||PEGASUS|10.40.26.62|||110000423831|10
06.11.2018 06:00:00||PEGASUS|10.40.26.62|||110000423831|190
06.11.2018 06:00:00||PEGASUS|10.40.26.63|||110000423831|70
06.11.2018 06:00:00||PEGASUS|10.40.26.63|||110000423831|30
06.11.2018 06:00:00||PEGASUS|10.40.26.63|||110000423831|60
06.11.2018 06:00:00||PEGASUS|10.40.26.63|||110000423831|30
06.11.2018 06:00:00||PEGASUS|10.40.26.63|||110000423831|230
06.11.2018 06:00:00||PEGASUS|10.40.26.63|||110000423831|140
06.11.2018 06:00:00||PEGASUS|10.40.26.63|||110000423831|110
06.11.2018 06:00:00||PEGASUS|10.40.26.63|||110000423831|60
06.11.2018 06:00:00||PEGASUS|10.40.26.67|||110000423831|170
06.11.2018 06:00:00||PEGASUS|10.40.27.68|||110000423831|90
06.11.2018 06:00:00||PEGASUS|10.40.27.68|||110000423831|82
06.11.2018 06:00:00||PEGASUS|10.40.27.68|||110000423831|90
06.11.2018 06:00:00||PEGASUS|10.40.27.68|||110000423831|52
06.11.2018 06:00:00||PEGASUS|10.40.26.68|||110000423831|90
06.11.2018 06:00:00||PEGASUS|10.40.26.68|||110000423831|90
06.11.2018 06:00:00||PEGASUS|10.40.26.68|||110000423831|50
06.11.2018 06:00:00||PEGASUS|10.40.27.67|||110000423831|360
06.11.2018 06:00:00||PEGASUS|10.40.27.63|||110000423831|80
06.11.2018 06:00:00||PEGASUS|10.40.26.63|||110000423831|110
06.11.2018 06:00:00||PEGASUS|10.40.26.63|||110000423831|110
06.11.2018 06:00:00||PEGASUS|10.40.26.63|||110000423831|90
06.11.2018 06:00:00||PEGASUS|10.40.26.63|||110000423831|60
06.11.2018 06:00:00||PEGASUS|10.40.26.67|||110000423831|30
06.11.2018 06:00:00||PEGASUS|10.40.26.67|||110000423831|340
06.11.2018 06:00:00||PEGASUS|10.40.26.67|||110000423831|60
06.11.2018 06:00:00||PEGASUS|10.40.26.67|||110000423831|40
06.11.2018 06:00:00||PEGASUS|10.40.26.67|||110000423831|70
06.11.2018 06:00:00||PEGASUS|10.40.26.68|||110000423831|100
06.11.2018 06:00:00||PEGASUS|10.40.27.64|||110000423831|293
06.11.2018 06:00:00||PEGASUS|10.40.27.64|||110000423831|260
06.11.2018 06:00:00||PEGASUS|10.40.27.64|||110000423831|292
06.11.2018 06:00:00||PEGASUS|10.40.27.64|||110000423831|267
06.11.2018 06:00:00||PEGASUS|10.40.27.64|||110000423831|278
06.11.2018 06:00:00||PEGASUS|10.40.27.63|||110000423831|90
06.11.2018 06:00:00||PEGASUS|10.40.26.63|||110000423831|130
06.11.2018 06:00:00||PEGASUS|10.40.26.63|||110000423831|60
06.11.2018 06:00:00||PEGASUS|10.40.26.63|||110000423831|80
06.11.2018 06:00:00||PEGASUS|10.40.26.67|||110000423831|340
06.11.2018 06:00:00||PEGASUS|10.40.27.63|||110000423831|52
06.11.2018 06:00:00||PEGASUS|10.40.27.63|||110000423831|60
06.11.2018 06:00:00||PEGASUS|10.40.26.62|||110000423831|90
06.11.2018 06:00:00||PEGASUS|10.40.26.63|||110000423831|50
06.11.2018 06:00:00||PEGASUS|10.40.26.63|||110000423831|100
06.11.2018 06:00:00||PEGASUS|10.40.26.63|||110000423831|40
06.11.2018 06:00:00||PEGASUS|10.40.26.63|||110000423831|70
06.11.2018 06:00:00||PEGASUS|10.40.26.67|||110000423831|340
06.11.2018 06:00:00||PEGASUS|10.40.27.64|||110000423831|275
06.11.2018 06:00:00||PEGASUS|10.40.27.64|||110000423831|277
06.11.2018 06:00:00||PEGASUS|10.40.27.64|||110000423831|262
06.11.2018 06:00:00||PEGASUS|10.40.27.64|||110000423831|298
06.11.2018 06:00:00||PEGASUS|10.40.27.64|||110000423831|307
06.11.2018 06:00:00||PEGASUS|10.40.27.63|||110000423831|73
06.11.2018 06:00:00||PEGASUS|10.40.27.63|||110000423831|80
06.11.2018 06:00:00||PEGASUS|10.40.27.63|||110000423831|70
06.11.2018 06:00:00||PEGASUS|10.40.27.63|||110000423831|160
06.11.2018 06:00:00||PEGASUS|10.40.27.63|||110000423831|227
06.11.2018 06:00:00||PEGASUS|10.40.27.63|||110000423831|57
06.11.2018 06:00:00||PEGASUS|10.40.27.81|||110000423831|460
06.11.2018 06:00:00||PEGASUS|10.40.27.81|||110000423831|430
06.11.2018 06:00:00||PEGASUS|10.40.27.81|||110000423831|450
06.11.2018 06:00:00||PEGASUS|10.40.27.86|||110000423831|340
06.11.2018 06:00:00||PEGASUS|10.40.27.86|||110000423831|40
06.11.2018 06:00:00||PEGASUS|10.40.27.63|||110000423831|40
06.11.2018 06:00:00||PEGASUS|10.40.27.86|||110000423831|340
06.11.2018 06:00:00||PEGASUS|10.40.27.63|||110000423831|50
06.11.2018 06:00:00||PEGASUS|10.40.27.63|||110000423831|60
06.11.2018 06:00:00||PEGASUS|10.40.27.64|||110000423831|80
06.11.2018 06:00:00||PEGASUS|10.40.27.64|||110000423831|70
06.11.2018 06:00:00||PEGASUS|10.40.27.63|||110000423831|60
06.11.2018 06:00:00||PEGASUS|10.40.27.63|||110000423831|70
06.11.2018 06:00:00||PEGASUS|10.40.27.63|||110000423831|90
06.11.2018 06:00:00||PEGASUS|10.40.26.63|||110000423831|110
06.11.2018 06:00:00||PEGASUS|10.40.27.64|||110000423831|273
06.11.2018 06:00:00||PEGASUS|10.40.27.64|||110000423831|262
06.11.2018 06:00:00||PEGASUS|10.40.27.63|||110000423831|75
06.11.2018 06:00:00||PEGASUS|10.40.27.63|||110000423831|67
06.11.2018 06:00:00||PEGASUS|10.40.26.64|||110000423831|80
06.11.2018 06:00:00||PEGASUS|10.40.26.64|||110000423831|80
06.11.2018 06:00:00||PEGASUS|10.40.26.82|||110000423831|210
06.11.2018 06:00:00||PEGASUS|10.40.26.82|||110000423831|110
06.11.2018 06:00:00||PEGASUS|10.40.26.82|||110000423831|122
06.11.2018 06:00:00||PEGASUS|10.40.26.82|||110000423831|152
06.11.2018 06:00:00||PEGASUS|10.40.26.82|||110000423831|142
06.11.2018 06:00:00||PEGASUS|10.40.26.82|||110000423831|137
06.11.2018 06:00:00||PEGASUS|10.40.26.82|||110000423831|180
06.11.2018 06:00:00||PEGASUS|10.40.26.82|||110000423831|35
06.11.2018 06:00:00||PEGASUS|10.40.26.82|||110000423831|48
06.11.2018 06:00:00||PEGASUS|10.40.26.82|||110000423831|20
06.11.2018 06:00:00||PEGASUS|10.40.26.82|||110000423831|62
06.11.2018 06:00:00||PEGASUS|10.40.26.82|||110000423831|50
06.11.2018 06:00:00||PEGASUS|10.40.26.82|||110000423831|38
06.11.2018 06:00:00||PEGASUS|10.40.27.83|||110000423831|573
06.11.2018 06:00:00||PEGASUS|10.40.27.83|||110000423831|70
06.11.2018 06:00:00||PEGASUS|10.40.27.83|||110000423831|562
06.11.2018 06:00:00||PEGASUS|10.40.27.83|||110000423831|553
06.11.2018 06:00:00||PEGASUS|10.40.27.83|||110000423831|70
06.11.2018 06:00:00||PEGASUS|10.40.26.83|||110000423831|505
06.11.2018 06:00:00||PEGASUS|10.40.26.83|||110000423831|50
06.11.2018 06:00:00||PEGASUS|10.40.26.83|||110000423831|400
06.11.2018 06:00:00||PEGASUS|10.40.26.83|||110000423831|500
06.11.2018 06:00:00||PEGASUS|10.40.26.83|||110000423831|507
06.11.2018 06:00:00||PEGASUS|10.40.26.86|||110000423831|360
06.11.2018 06:00:00||PEGASUS|10.40.26.86|||110000423831|135
06.11.2018 06:00:00||PEGASUS|10.40.26.86|||110000423831|350
06.11.2018 06:00:00||PEGASUS|10.40.26.86|||110000423831|50
06.11.2018 06:00:00||PEGASUS|10.40.26.86|||110000423831|30
06.11.2018 06:00:00||PEGASUS|10.40.26.86|||110000423831|350
06.11.2018 06:00:00||PEGASUS|10.40.26.86|||110000423831|40
06.11.2018 06:00:00||PEGASUS|10.40.27.87|||110000423831|90
06.11.2018 06:00:00||PEGASUS|10.40.27.87|||110000423831|88
06.11.2018 06:00:00||PEGASUS|10.40.27.87|||110000423831|90
06.11.2018 06:00:00||PEGASUS|10.40.27.87|||110000423831|20
06.11.2018 06:00:00||PEGASUS|10.40.26.87|||110000423831|90
06.11.2018 06:00:00||PEGASUS|10.40.26.87|||110000423831|90
06.11.2018 06:00:00||PEGASUS|10.40.26.87|||110000423831|90
06.11.2018 06:00:00||PEGASUS|10.40.26.87|||110000423831|60
06.11.2018 06:00:00||PEGASUS|10.40.26.87|||110000423831|20
06.11.2018 06:00:00||PEGASUS|10.40.26.81|||110000423831|400
06.11.2018 06:00:00||PEGASUS|10.40.26.81|||110000423831|420
06.11.2018 06:00:00||PEGASUS|10.40.26.81|||110000423831|410
06.11.2018 06:00:00||PEGASUS|10.40.27.82|||110000423831|220
06.11.2018 06:00:00||PEGASUS|10.40.27.82|||110000423831|30
06.11.2018 06:00:00||PEGASUS|10.40.27.82|||110000423831|110
06.11.2018 06:00:00||PEGASUS|10.40.27.82|||110000423831|80
06.11.2018 06:00:00||PEGASUS|10.40.27.82|||110000423831|150
06.11.2018 06:00:00||PEGASUS|10.40.27.82|||110000423831|118
06.11.2018 06:00:00||PEGASUS|10.40.27.82|||110000423831|163
06.11.2018 06:00:00||PEGASUS|10.40.27.82|||110000423831|112
06.11.2018 06:00:00||PEGASUS|10.40.27.82|||110000423831|60
06.11.2018 06:00:00||PEGASUS|10.40.27.82|||110000423831|82
06.11.2018 06:00:00||PEGASUS|10.40.27.82|||110000423831|50
06.11.2018 06:00:00||PEGASUS|10.40.27.82|||110000423831|33
06.11.2018 06:00:00||PEGASUS|10.40.27.82|||110000423831|40
06.11.2018 06:00:00||PEGASUS|10.40.27.67|||110000423831|50
06.11.2018 06:00:00||PEGASUS|10.40.27.67|||110000423831|70
06.11.2018 06:00:00||PEGASUS|10.40.27.67|||110000423831|132
06.11.2018 06:00:00||PEGASUS|10.40.27.67|||110000423831|10
06.11.2018 06:00:00||PEGASUS|10.40.27.67|||110000423831|340
06.11.2018 06:00:00||PEGASUS|10.40.27.82|||110000423831|73
06.11.2018 06:00:00||PEGASUS|10.40.27.86|||110000423831|170
06.11.2018 06:00:00||PEGASUS|10.40.27.86|||110000423831|70
06.11.2018 06:00:00||PEGASUS|10.40.27.86|||110000423831|20
06.11.2018 06:00:00||PEGASUS|10.40.27.86|||110000423831|350
06.11.2018 06:00:00||PETKIM|10.40.25.87|||110000437354|142
06.11.2018 06:00:00||PWC|10.40.24.66|||110000433262|90
06.11.2018 06:00:00||PWC|10.40.24.66|||110000433262|10
06.11.2018 06:00:00||PWC|10.40.24.66|||110000433262|30
06.11.2018 06:00:00||PWC|10.40.24.66|||110000433262|210
06.11.2018 06:00:00||PWC|10.40.24.66|||110000433262|210
06.11.2018 06:00:00||PWC|10.40.24.68|||110000433262|153
06.11.2018 06:00:00||PWC|10.40.24.66|||110000433262|50
06.11.2018 06:00:00||PWC|10.40.24.66|||110000433262|440
06.11.2018 06:00:00||PWC|10.40.24.66|||110000433262|50
06.11.2018 06:00:00||PWC|10.40.25.67|||110000433262|80
06.11.2018 06:00:00||PWC|10.40.25.67|||110000433262|90
06.11.2018 06:00:00||PWC|10.40.25.67|||110000433262|320
06.11.2018 06:00:00||PWC|10.40.25.67|||110000433262|250
06.11.2018 06:00:00||PWC|10.40.25.67|||110000433262|240
06.11.2018 06:00:00||PWC|10.40.25.67|||110000433262|250
06.11.2018 06:00:00||PWC|10.40.25.67|||110000433262|50
06.11.2018 06:00:00||PWC|10.40.25.67|||110000433262|30
06.11.2018 06:00:00||PWC|10.40.25.67|||110000433262|120
06.11.2018 06:00:00||PWC|10.40.24.67|||110000433262|10
06.11.2018 06:00:00||PWC|10.40.24.67|||110000433262|10
06.11.2018 06:00:00||PWC|10.40.24.67|||110000433262|370
06.11.2018 06:00:00||PWC|10.40.24.67|||110000433262|30
06.11.2018 06:00:00||PWC|10.40.24.67|||110000433262|70
06.11.2018 06:00:00||PWC|10.40.24.67|||110000433262|120
06.11.2018 06:00:00||PWC|10.40.25.68|||110000433262|107
06.11.2018 06:00:00||PWC|10.40.25.68|||110000433262|192
06.11.2018 06:00:00||PWC|10.40.25.68|||110000433262|70
06.11.2018 06:00:00||PWC|10.40.25.68|||110000433262|78
06.11.2018 06:00:00||PWC|10.40.25.68|||110000433262|148
06.11.2018 06:00:00||PWC|10.40.24.66|||110000433262|60
06.11.2018 06:00:00||PWC|10.40.24.66|||110000433262|30
06.11.2018 06:00:00||PWC|10.40.24.66|||110000433262|30
06.11.2018 06:00:00||PWC|10.40.24.68|||110000433262|93
06.11.2018 06:00:00||PWC|10.40.24.68|||110000433262|140
06.11.2018 06:00:00||PWC|10.40.24.68|||110000433262|385
06.11.2018 06:00:00||PWC|10.40.24.68|||110000433262|78
06.11.2018 06:00:00||PWC|10.40.24.68|||110000433262|68
06.11.2018 06:00:00||VSMART BİLGİ TEKNOLOJİLERİ|10.40.25.62|||110000474326|10
06.11.2018 06:00:00||VSMART BİLGİ TEKNOLOJİLERİ|10.40.25.62|||110000474326|10
06.11.2018 06:00:00||VSMART BİLGİ TEKNOLOJİLERİ|10.40.25.62|||110000474326|80
06.11.2018 06:00:00||VSMART BİLGİ TEKNOLOJİLERİ|10.40.25.62|||110000474326|90
06.11.2018 06:00:00||VSMART BİLGİ TEKNOLOJİLERİ|10.40.25.62|||110000474326|103
06.11.2018 06:00:00||VSMART BİLGİ TEKNOLOJİLERİ|10.40.24.62|||110000474326|42
06.11.2018 06:00:00||VSMART BİLGİ TEKNOLOJİLERİ|10.40.24.62|||110000474326|67
06.11.2018 06:00:00||VSMART BİLGİ TEKNOLOJİLERİ|10.40.24.62|||110000474326|38
06.11.2018 06:00:00||VSMART BİLGİ TEKNOLOJİLERİ|10.40.24.62|||110000474326|10
06.11.2018 06:00:00||VSMART BİLGİ TEKNOLOJİLERİ|10.40.25.62|||110000474326|70
06.11.2018 06:00:00||VSMART BİLGİ TEKNOLOJİLERİ|10.40.24.62|||110000474326|42
06.11.2018 06:00:00||VSMART BİLGİ TEKNOLOJİLERİ|10.40.24.62|||110000474326|10
