19.10.2018 11:00:00||AKTİFBANK|10.40.25.174|||110000438458|53
19.10.2018 11:00:00||AKTİFBANK|10.40.25.134|||110000438458|93
19.10.2018 11:00:00||AKTİFBANK|10.40.25.135|||110000438458|104
19.10.2018 11:00:00||AKTİFBANK|10.40.24.135|||110000438458|105
19.10.2018 11:00:00||AKTİFBANK|10.40.24.137|||110000438458|58
19.10.2018 11:00:00||AKTİFBANK|10.40.24.171|||110000438458|11
19.10.2018 11:00:00||AKTİFBANK|10.40.25.172|||110000438458|88
19.10.2018 11:00:00||AKTİFBANK|10.40.24.173|||110000438458|102
19.10.2018 11:00:00||AKTİFBANK|10.40.24.174|||110000438458|60
19.10.2018 11:00:00||AKTİFBANK|10.40.24.172|||110000438458|97
19.10.2018 11:00:00||AKTİFBANK|10.40.24.134|||110000438458|93
19.10.2018 11:00:00||AKTİFBANK|10.40.25.137|||110000438458|58
19.10.2018 11:00:00||AKTİFBANK|10.40.25.171|||110000438458|12
19.10.2018 11:00:00||AKTİFBANK|10.40.24.158|||110000438458|82
19.10.2018 11:00:00||AKTİFBANK|10.40.24.164|||110000438458|67
19.10.2018 11:00:00||AKTİFBANK|10.40.25.138|||110000438458|83
19.10.2018 11:00:00||AKTİFBANK|10.40.25.139|||110000438458|10
19.10.2018 11:00:00||AKTİFBANK|10.40.25.140|||110000438458|30
19.10.2018 11:00:00||AKTİFBANK|10.40.25.151|||110000438458|520
19.10.2018 11:00:00||AKTİFBANK|10.40.25.141|||110000438458|100
19.10.2018 11:00:00||AKTİFBANK|10.40.25.141|||110000438458|95
19.10.2018 11:00:00||AKTİFBANK|10.40.25.142|||110000438458|78
19.10.2018 11:00:00||AKTİFBANK|10.40.25.133|||110000438458|110
19.10.2018 11:00:00||AKTİFBANK|10.40.25.149|||110000438458|100
19.10.2018 11:00:00||AKTİFBANK|10.40.25.149|||110000438458|92
19.10.2018 11:00:00||AKTİFBANK|10.40.25.149|||110000438458|93
19.10.2018 11:00:00||AKTİFBANK|10.40.25.140|||110000438458|30
19.10.2018 11:00:00||AKTİFBANK|10.40.25.150|||110000438458|557
19.10.2018 11:00:00||AKTİFBANK|10.40.25.139|||110000438458|170
19.10.2018 11:00:00||AKTİFBANK|10.40.25.139|||110000438458|40
19.10.2018 11:00:00||AKTİFBANK|10.40.25.140|||110000438458|80
19.10.2018 11:00:00||AKTİFBANK|10.40.25.140|||110000438458|70
19.10.2018 11:00:00||AKTİFBANK|10.40.25.140|||110000438458|30
19.10.2018 11:00:00||AKTİFBANK|10.40.25.151|||110000438458|533
19.10.2018 11:00:00||AKTİFBANK|10.40.25.151|||110000438458|512
19.10.2018 11:00:00||AKTİFBANK|10.40.25.141|||110000438458|40
19.10.2018 11:00:00||AKTİFBANK|10.40.25.141|||110000438458|100
19.10.2018 11:00:00||AKTİFBANK|10.40.25.141|||110000438458|80
19.10.2018 11:00:00||AKTİFBANK|10.40.25.142|||110000438458|37
19.10.2018 11:00:00||AKTİFBANK|10.40.25.149|||110000438458|70
19.10.2018 11:00:00||AKTİFBANK|10.40.25.149|||110000438458|110
19.10.2018 11:00:00||AKTİFBANK|10.40.25.149|||110000438458|90
19.10.2018 11:00:00||AKTİFBANK|10.40.25.149|||110000438458|98
19.10.2018 11:00:00||AKTİFBANK|10.40.25.149|||110000438458|108
19.10.2018 11:00:00||AKTİFBANK|10.40.24.139|||110000438458|60
19.10.2018 11:00:00||AKTİFBANK|10.40.25.153|||110000438458|10
19.10.2018 11:00:00||AKTİFBANK|10.40.25.150|||110000438458|575
19.10.2018 11:00:00||AKTİFBANK|10.40.25.153|||110000438458|70
19.10.2018 11:00:00||AKTİFBANK|10.40.25.163|||110000438458|50
19.10.2018 11:00:00||AKTİFBANK|10.40.24.141|||110000438458|73
19.10.2018 11:00:00||AKTİFBANK|10.40.24.151|||110000438458|530
19.10.2018 11:00:00||AKTİFBANK|10.40.25.153|||110000438458|80
19.10.2018 11:00:00||AKTİFBANK|10.40.24.149|||110000438458|93
19.10.2018 11:00:00||AKTİFBANK|10.40.24.141|||110000438458|50
19.10.2018 11:00:00||AKTİFBANK|10.40.25.133|||110000438458|280
19.10.2018 11:00:00||AKTİFBANK|10.40.25.133|||110000438458|90
19.10.2018 11:00:00||AKTİFBANK|10.40.24.149|||110000438458|92
19.10.2018 11:00:00||AKTİFBANK|10.40.24.162|||110000438458|213
19.10.2018 11:00:00||AKTİFBANK|10.40.24.162|||110000438458|30
19.10.2018 11:00:00||AKTİFBANK|10.40.24.162|||110000438458|40
19.10.2018 11:00:00||AKTİFBANK|10.40.25.133|||110000438458|150
19.10.2018 11:00:00||AKTİFBANK|10.40.25.138|||110000438458|130
19.10.2018 11:00:00||AKTİFBANK|10.40.25.149|||110000438458|85
19.10.2018 11:00:00||AKTİFBANK|10.40.25.149|||110000438458|70
19.10.2018 11:00:00||AKTİFBANK|10.40.25.149|||110000438458|37
19.10.2018 11:00:00||AKTİFBANK|10.40.25.149|||110000438458|80
19.10.2018 11:00:00||AKTİFBANK|10.40.25.149|||110000438458|72
19.10.2018 11:00:00||AKTİFBANK|10.40.25.141|||110000438458|100
19.10.2018 11:00:00||AKTİFBANK|10.40.25.149|||110000438458|130
19.10.2018 11:00:00||AKTİFBANK|10.40.25.138|||110000438458|92
19.10.2018 11:00:00||AKTİFBANK|10.40.25.138|||110000438458|77
19.10.2018 11:00:00||AKTİFBANK|10.40.25.139|||110000438458|100
19.10.2018 11:00:00||AKTİFBANK|10.40.24.145|||110000438458|70
19.10.2018 11:00:00||AKTİFBANK|10.40.24.149|||110000438458|160
19.10.2018 11:00:00||AKTİFBANK|10.40.25.138|||110000438458|30
19.10.2018 11:00:00||AKTİFBANK|10.40.25.138|||110000438458|10
19.10.2018 11:00:00||AKTİFBANK|10.40.25.153|||110000438458|60
19.10.2018 11:00:00||AKTİFBANK|10.40.24.150|||110000438458|552
19.10.2018 11:00:00||AKTİFBANK|10.40.25.128|||110000438458|70
19.10.2018 11:00:00||AKTİFBANK|10.40.25.128|||110000438458|90
19.10.2018 11:00:00||AKTİFBANK|10.40.25.128|||110000438458|90
19.10.2018 11:00:00||AKTİFBANK|10.40.25.128|||110000438458|40
19.10.2018 11:00:00||AKTİFBANK|10.40.25.128|||110000438458|65
19.10.2018 11:00:00||AKTİFBANK|10.40.25.129|||110000438458|80
19.10.2018 11:00:00||AKTİFBANK|10.40.25.129|||110000438458|78
19.10.2018 11:00:00||AKTİFBANK|10.40.25.129|||110000438458|130
19.10.2018 11:00:00||AKTİFBANK|10.40.25.129|||110000438458|100
19.10.2018 11:00:00||AKTİFBANK|10.40.25.129|||110000438458|47
19.10.2018 11:00:00||AKTİFBANK|10.40.25.129|||110000438458|97
19.10.2018 11:00:00||AKTİFBANK|10.40.25.129|||110000438458|95
19.10.2018 11:00:00||AKTİFBANK|10.40.25.130|||110000438458|68
19.10.2018 11:00:00||AKTİFBANK|10.40.25.130|||110000438458|58
19.10.2018 11:00:00||AKTİFBANK|10.40.25.130|||110000438458|72
19.10.2018 11:00:00||AKTİFBANK|10.40.25.130|||110000438458|32
19.10.2018 11:00:00||AKTİFBANK|10.40.25.130|||110000438458|60
19.10.2018 11:00:00||AKTİFBANK|10.40.25.130|||110000438458|100
19.10.2018 11:00:00||AKTİFBANK|10.40.25.130|||110000438458|85
19.10.2018 11:00:00||AKTİFBANK|10.40.25.131|||110000438458|20
19.10.2018 11:00:00||AKTİFBANK|10.40.25.131|||110000438458|82
19.10.2018 11:00:00||AKTİFBANK|10.40.25.131|||110000438458|102
19.10.2018 11:00:00||AKTİFBANK|10.40.25.131|||110000438458|108
19.10.2018 11:00:00||AKTİFBANK|10.40.25.131|||110000438458|90
19.10.2018 11:00:00||AKTİFBANK|10.40.25.131|||110000438458|80
19.10.2018 11:00:00||AKTİFBANK|10.40.25.131|||110000438458|20
19.10.2018 11:00:00||AKTİFBANK|10.40.25.131|||110000438458|120
19.10.2018 11:00:00||AKTİFBANK|10.40.25.132|||110000438458|62
19.10.2018 11:00:00||AKTİFBANK|10.40.25.132|||110000438458|77
19.10.2018 11:00:00||AKTİFBANK|10.40.25.132|||110000438458|80
19.10.2018 11:00:00||AKTİFBANK|10.40.25.132|||110000438458|225
19.10.2018 11:00:00||AKTİFBANK|10.40.25.132|||110000438458|60
19.10.2018 11:00:00||AKTİFBANK|10.40.25.143|||110000438458|300
19.10.2018 11:00:00||AKTİFBANK|10.40.25.144|||110000438458|80
19.10.2018 11:00:00||AKTİFBANK|10.40.25.144|||110000438458|50
19.10.2018 11:00:00||AKTİFBANK|10.40.25.144|||110000438458|20
19.10.2018 11:00:00||AKTİFBANK|10.40.25.154|||110000438458|10
19.10.2018 11:00:00||AKTİFBANK|10.40.25.154|||110000438458|10
19.10.2018 11:00:00||AKTİFBANK|10.40.25.154|||110000438458|10
19.10.2018 11:00:00||AKTİFBANK|10.40.25.157|||110000438458|72
19.10.2018 11:00:00||AKTİFBANK|10.40.25.157|||110000438458|70
19.10.2018 11:00:00||AKTİFBANK|10.40.25.157|||110000438458|70
19.10.2018 11:00:00||AKTİFBANK|10.40.25.157|||110000438458|87
19.10.2018 11:00:00||AKTİFBANK|10.40.25.157|||110000438458|48
19.10.2018 11:00:00||AKTİFBANK|10.40.25.159|||110000438458|60
19.10.2018 11:00:00||AKTİFBANK|10.40.25.159|||110000438458|10
19.10.2018 11:00:00||AKTİFBANK|10.40.25.159|||110000438458|90
19.10.2018 11:00:00||AKTİFBANK|10.40.25.158|||110000438458|55
19.10.2018 11:00:00||AKTİFBANK|10.40.25.158|||110000438458|38
19.10.2018 11:00:00||AKTİFBANK|10.40.25.158|||110000438458|43
19.10.2018 11:00:00||AKTİFBANK|10.40.25.158|||110000438458|50
19.10.2018 11:00:00||AKTİFBANK|10.40.25.160|||110000438458|90
19.10.2018 11:00:00||AKTİFBANK|10.40.25.161|||110000438458|80
19.10.2018 11:00:00||AKTİFBANK|10.40.25.161|||110000438458|70
19.10.2018 11:00:00||AKTİFBANK|10.40.25.161|||110000438458|40
19.10.2018 11:00:00||AKTİFBANK|10.40.25.161|||110000438458|30
19.10.2018 11:00:00||AKTİFBANK|10.40.25.161|||110000438458|20
19.10.2018 11:00:00||AKTİFBANK|10.40.25.161|||110000438458|50
19.10.2018 11:00:00||AKTİFBANK|10.40.25.145|||110000438458|90
19.10.2018 11:00:00||AKTİFBANK|10.40.25.145|||110000438458|60
19.10.2018 11:00:00||AKTİFBANK|10.40.25.145|||110000438458|60
19.10.2018 11:00:00||AKTİFBANK|10.40.25.145|||110000438458|30
19.10.2018 11:00:00||AKTİFBANK|10.40.25.145|||110000438458|50
19.10.2018 11:00:00||AKTİFBANK|10.40.25.147|||110000438458|90
19.10.2018 11:00:00||AKTİFBANK|10.40.25.162|||110000438458|30
19.10.2018 11:00:00||AKTİFBANK|10.40.25.162|||110000438458|30
19.10.2018 11:00:00||AKTİFBANK|10.40.25.162|||110000438458|60
19.10.2018 11:00:00||AKTİFBANK|10.40.25.164|||110000438458|60
19.10.2018 11:00:00||AKTİFBANK|10.40.25.164|||110000438458|280
19.10.2018 11:00:00||AKTİFBANK|10.40.25.164|||110000438458|50
19.10.2018 11:00:00||AKTİFBANK|10.40.25.164|||110000438458|260
19.10.2018 11:00:00||AKTİFBANK|10.40.25.164|||110000438458|270
19.10.2018 11:00:00||AKTİFBANK|10.40.25.165|||110000438458|110
19.10.2018 11:00:00||AKTİFBANK|10.40.25.165|||110000438458|70
19.10.2018 11:00:00||AKTİFBANK|10.40.25.165|||110000438458|80
19.10.2018 11:00:00||AKTİFBANK|10.40.25.165|||110000438458|103
19.10.2018 11:00:00||AKTİFBANK|10.40.25.166|||110000438458|90
19.10.2018 11:00:00||AKTİFBANK|10.40.25.166|||110000438458|10
19.10.2018 11:00:00||AKTİFBANK|10.40.25.166|||110000438458|10
19.10.2018 11:00:00||AKTİFBANK|10.40.25.166|||110000438458|10
19.10.2018 11:00:00||AKTİFBANK|10.40.25.166|||110000438458|40
19.10.2018 11:00:00||AKTİFBANK|10.40.25.148|||110000438458|130
19.10.2018 11:00:00||AKTİFBANK|10.40.25.148|||110000438458|50
19.10.2018 11:00:00||AKTİFBANK|10.40.25.148|||110000438458|100
19.10.2018 11:00:00||AKTİFBANK|10.40.25.148|||110000438458|130
19.10.2018 11:00:00||AKTİFBANK|10.40.25.148|||110000438458|90
19.10.2018 11:00:00||AKTİFBANK|10.40.25.148|||110000438458|80
19.10.2018 11:00:00||AKTİFBANK|10.40.25.148|||110000438458|70
19.10.2018 11:00:00||AKTİFBANK|10.40.25.148|||110000438458|50
19.10.2018 11:00:00||AKTİFBANK|10.40.25.148|||110000438458|80
19.10.2018 11:00:00||AKTİFBANK|10.40.25.148|||110000438458|40
19.10.2018 11:00:00||AKTİFBANK|10.40.25.148|||110000438458|100
19.10.2018 11:00:00||AKTİFBANK|10.40.25.148|||110000438458|60
19.10.2018 11:00:00||AKTİFBANK|10.40.25.155|||110000438458|70
19.10.2018 11:00:00||AKTİFBANK|10.40.25.155|||110000438458|90
19.10.2018 11:00:00||AKTİFBANK|10.40.25.155|||110000438458|110
19.10.2018 11:00:00||AKTİFBANK|10.40.25.155|||110000438458|120
19.10.2018 11:00:00||AKTİFBANK|10.40.25.155|||110000438458|110
19.10.2018 11:00:00||AKTİFBANK|10.40.25.156|||110000438458|20
19.10.2018 11:00:00||AKTİFBANK|10.40.25.156|||110000438458|30
19.10.2018 11:00:00||AKTİFBANK|10.40.25.139|||110000438458|70
19.10.2018 11:00:00||AKTİFBANK|10.40.25.139|||110000438458|80
19.10.2018 11:00:00||AKTİFBANK|10.40.25.150|||110000438458|525
19.10.2018 11:00:00||AKTİFBANK|10.40.25.129|||110000438458|62
19.10.2018 11:00:00||AKTİFBANK|10.40.25.129|||110000438458|88
19.10.2018 11:00:00||AKTİFBANK|10.40.25.129|||110000438458|140
19.10.2018 11:00:00||AKTİFBANK|10.40.25.130|||110000438458|63
19.10.2018 11:00:00||AKTİFBANK|10.40.25.130|||110000438458|128
19.10.2018 11:00:00||AKTİFBANK|10.40.25.130|||110000438458|100
19.10.2018 11:00:00||AKTİFBANK|10.40.25.131|||110000438458|43
19.10.2018 11:00:00||AKTİFBANK|10.40.25.143|||110000438458|60
19.10.2018 11:00:00||AKTİFBANK|10.40.25.143|||110000438458|258
19.10.2018 11:00:00||AKTİFBANK|10.40.25.143|||110000438458|248
19.10.2018 11:00:00||AKTİFBANK|10.40.25.158|||110000438458|102
19.10.2018 11:00:00||AKTİFBANK|10.40.25.160|||110000438458|112
19.10.2018 11:00:00||AKTİFBANK|10.40.25.162|||110000438458|32
19.10.2018 11:00:00||AKTİFBANK|10.40.25.162|||110000438458|40
19.10.2018 11:00:00||AKTİFBANK|10.40.24.140|||110000438458|160
19.10.2018 11:00:00||AKTİFBANK|10.40.24.140|||110000438458|80
19.10.2018 11:00:00||AKTİFBANK|10.40.24.140|||110000438458|40
19.10.2018 11:00:00||AKTİFBANK|10.40.24.140|||110000438458|30
19.10.2018 11:00:00||AKTİFBANK|10.40.24.140|||110000438458|30
19.10.2018 11:00:00||AKTİFBANK|10.40.24.140|||110000438458|28
19.10.2018 11:00:00||AKTİFBANK|10.40.24.149|||110000438458|80
19.10.2018 11:00:00||AKTİFBANK|10.40.24.149|||110000438458|120
19.10.2018 11:00:00||AKTİFBANK|10.40.24.149|||110000438458|93
19.10.2018 11:00:00||AKTİFBANK|10.40.24.149|||110000438458|72
19.10.2018 11:00:00||AKTİFBANK|10.40.24.149|||110000438458|57
19.10.2018 11:00:00||AKTİFBANK|10.40.24.149|||110000438458|140
19.10.2018 11:00:00||AKTİFBANK|10.40.24.149|||110000438458|90
19.10.2018 11:00:00||AKTİFBANK|10.40.24.149|||110000438458|88
19.10.2018 11:00:00||AKTİFBANK|10.40.24.149|||110000438458|95
19.10.2018 11:00:00||AKTİFBANK|10.40.24.149|||110000438458|80
19.10.2018 11:00:00||AKTİFBANK|10.40.24.133|||110000438458|145
19.10.2018 11:00:00||AKTİFBANK|10.40.24.133|||110000438458|278
19.10.2018 11:00:00||AKTİFBANK|10.40.24.133|||110000438458|123
19.10.2018 11:00:00||AKTİFBANK|10.40.24.133|||110000438458|90
19.10.2018 11:00:00||AKTİFBANK|10.40.24.138|||110000438458|112
19.10.2018 11:00:00||AKTİFBANK|10.40.24.138|||110000438458|140
19.10.2018 11:00:00||AKTİFBANK|10.40.24.138|||110000438458|120
19.10.2018 11:00:00||AKTİFBANK|10.40.24.138|||110000438458|32
19.10.2018 11:00:00||AKTİFBANK|10.40.24.138|||110000438458|50
19.10.2018 11:00:00||AKTİFBANK|10.40.24.139|||110000438458|160
19.10.2018 11:00:00||AKTİFBANK|10.40.24.139|||110000438458|90
19.10.2018 11:00:00||AKTİFBANK|10.40.24.139|||110000438458|120
19.10.2018 11:00:00||AKTİFBANK|10.40.24.141|||110000438458|203
19.10.2018 11:00:00||AKTİFBANK|10.40.24.141|||110000438458|100
19.10.2018 11:00:00||AKTİFBANK|10.40.24.141|||110000438458|100
19.10.2018 11:00:00||AKTİFBANK|10.40.24.141|||110000438458|67
19.10.2018 11:00:00||AKTİFBANK|10.40.24.141|||110000438458|80
19.10.2018 11:00:00||AKTİFBANK|10.40.25.152|||110000438458|123
19.10.2018 11:00:00||AKTİFBANK|10.40.25.152|||110000438458|42
19.10.2018 11:00:00||AKTİFBANK|10.40.25.152|||110000438458|110
19.10.2018 11:00:00||AKTİFBANK|10.40.25.152|||110000438458|75
19.10.2018 11:00:00||AKTİFBANK|10.40.25.152|||110000438458|90
19.10.2018 11:00:00||AKTİFBANK|10.40.25.152|||110000438458|48
19.10.2018 11:00:00||AKTİFBANK|10.40.25.152|||110000438458|55
19.10.2018 11:00:00||AKTİFBANK|10.40.25.152|||110000438458|90
19.10.2018 11:00:00||AKTİFBANK|10.40.25.152|||110000438458|30
19.10.2018 11:00:00||AKTİFBANK|10.40.25.152|||110000438458|82
19.10.2018 11:00:00||AKTİFBANK|10.40.25.152|||110000438458|30
19.10.2018 11:00:00||AKTİFBANK|10.40.24.150|||110000438458|572
19.10.2018 11:00:00||AKTİFBANK|10.40.24.151|||110000438458|525
19.10.2018 11:00:00||AKTİFBANK|10.40.24.151|||110000438458|538
19.10.2018 11:00:00||AKTİFBANK|10.40.24.128|||110000438458|60
19.10.2018 11:00:00||AKTİFBANK|10.40.24.128|||110000438458|70
19.10.2018 11:00:00||AKTİFBANK|10.40.24.128|||110000438458|100
19.10.2018 11:00:00||AKTİFBANK|10.40.24.128|||110000438458|40
19.10.2018 11:00:00||AKTİFBANK|10.40.24.128|||110000438458|70
19.10.2018 11:00:00||AKTİFBANK|10.40.24.128|||110000438458|48
19.10.2018 11:00:00||AKTİFBANK|10.40.24.129|||110000438458|100
19.10.2018 11:00:00||AKTİFBANK|10.40.24.129|||110000438458|70
19.10.2018 11:00:00||AKTİFBANK|10.40.24.129|||110000438458|110
19.10.2018 11:00:00||AKTİFBANK|10.40.24.129|||110000438458|120
19.10.2018 11:00:00||AKTİFBANK|10.40.24.129|||110000438458|40
19.10.2018 11:00:00||AKTİFBANK|10.40.24.129|||110000438458|70
19.10.2018 11:00:00||AKTİFBANK|10.40.24.129|||110000438458|70
19.10.2018 11:00:00||AKTİFBANK|10.40.24.129|||110000438458|90
19.10.2018 11:00:00||AKTİFBANK|10.40.24.129|||110000438458|80
19.10.2018 11:00:00||AKTİFBANK|10.40.24.129|||110000438458|140
19.10.2018 11:00:00||AKTİFBANK|10.40.24.130|||110000438458|43
19.10.2018 11:00:00||AKTİFBANK|10.40.24.130|||110000438458|37
19.10.2018 11:00:00||AKTİFBANK|10.40.24.130|||110000438458|68
19.10.2018 11:00:00||AKTİFBANK|10.40.24.130|||110000438458|42
19.10.2018 11:00:00||AKTİFBANK|10.40.24.130|||110000438458|60
19.10.2018 11:00:00||AKTİFBANK|10.40.24.130|||110000438458|73
19.10.2018 11:00:00||AKTİFBANK|10.40.24.130|||110000438458|87
19.10.2018 11:00:00||AKTİFBANK|10.40.24.130|||110000438458|38
19.10.2018 11:00:00||AKTİFBANK|10.40.24.130|||110000438458|130
19.10.2018 11:00:00||AKTİFBANK|10.40.24.130|||110000438458|110
19.10.2018 11:00:00||AKTİFBANK|10.40.24.131|||110000438458|88
19.10.2018 11:00:00||AKTİFBANK|10.40.24.131|||110000438458|90
19.10.2018 11:00:00||AKTİFBANK|10.40.24.131|||110000438458|110
19.10.2018 11:00:00||AKTİFBANK|10.40.24.131|||110000438458|108
19.10.2018 11:00:00||AKTİFBANK|10.40.24.131|||110000438458|27
19.10.2018 11:00:00||AKTİFBANK|10.40.24.131|||110000438458|160
19.10.2018 11:00:00||AKTİFBANK|10.40.24.131|||110000438458|60
19.10.2018 11:00:00||AKTİFBANK|10.40.24.131|||110000438458|112
19.10.2018 11:00:00||AKTİFBANK|10.40.24.132|||110000438458|35
19.10.2018 11:00:00||AKTİFBANK|10.40.24.132|||110000438458|97
19.10.2018 11:00:00||AKTİFBANK|10.40.24.132|||110000438458|53
19.10.2018 11:00:00||AKTİFBANK|10.40.24.132|||110000438458|253
19.10.2018 11:00:00||AKTİFBANK|10.40.24.132|||110000438458|70
19.10.2018 11:00:00||AKTİFBANK|10.40.24.143|||110000438458|65
19.10.2018 11:00:00||AKTİFBANK|10.40.24.143|||110000438458|265
19.10.2018 11:00:00||AKTİFBANK|10.40.24.143|||110000438458|342
19.10.2018 11:00:00||AKTİFBANK|10.40.24.143|||110000438458|200
19.10.2018 11:00:00||AKTİFBANK|10.40.24.144|||110000438458|72
19.10.2018 11:00:00||AKTİFBANK|10.40.24.144|||110000438458|110
19.10.2018 11:00:00||AKTİFBANK|10.40.24.144|||110000438458|130
19.10.2018 11:00:00||AKTİFBANK|10.40.24.148|||110000438458|67
19.10.2018 11:00:00||AKTİFBANK|10.40.24.148|||110000438458|170
19.10.2018 11:00:00||AKTİFBANK|10.40.24.148|||110000438458|82
19.10.2018 11:00:00||AKTİFBANK|10.40.24.148|||110000438458|110
19.10.2018 11:00:00||AKTİFBANK|10.40.24.148|||110000438458|80
19.10.2018 11:00:00||AKTİFBANK|10.40.24.148|||110000438458|85
19.10.2018 11:00:00||AKTİFBANK|10.40.24.148|||110000438458|90
19.10.2018 11:00:00||AKTİFBANK|10.40.24.148|||110000438458|103
19.10.2018 11:00:00||AKTİFBANK|10.40.24.148|||110000438458|78
19.10.2018 11:00:00||AKTİFBANK|10.40.24.148|||110000438458|70
19.10.2018 11:00:00||AKTİFBANK|10.40.24.148|||110000438458|35
19.10.2018 11:00:00||AKTİFBANK|10.40.24.148|||110000438458|72
19.10.2018 11:00:00||AKTİFBANK|10.40.24.153|||110000438458|10
19.10.2018 11:00:00||AKTİFBANK|10.40.24.153|||110000438458|93
19.10.2018 11:00:00||AKTİFBANK|10.40.24.153|||110000438458|73
19.10.2018 11:00:00||AKTİFBANK|10.40.24.153|||110000438458|80
19.10.2018 11:00:00||AKTİFBANK|10.40.24.157|||110000438458|30
19.10.2018 11:00:00||AKTİFBANK|10.40.24.157|||110000438458|73
19.10.2018 11:00:00||AKTİFBANK|10.40.24.157|||110000438458|70
19.10.2018 11:00:00||AKTİFBANK|10.40.24.157|||110000438458|40
19.10.2018 11:00:00||AKTİFBANK|10.40.24.157|||110000438458|83
19.10.2018 11:00:00||AKTİFBANK|10.40.24.157|||110000438458|57
19.10.2018 11:00:00||AKTİFBANK|10.40.24.158|||110000438458|80
19.10.2018 11:00:00||AKTİFBANK|10.40.24.158|||110000438458|110
19.10.2018 11:00:00||AKTİFBANK|10.40.24.159|||110000438458|133
19.10.2018 11:00:00||AKTİFBANK|10.40.24.159|||110000438458|52
19.10.2018 11:00:00||AKTİFBANK|10.40.24.159|||110000438458|180
19.10.2018 11:00:00||AKTİFBANK|10.40.24.160|||110000438458|50
19.10.2018 11:00:00||AKTİFBANK|10.40.24.160|||110000438458|90
19.10.2018 11:00:00||AKTİFBANK|10.40.24.160|||110000438458|100
19.10.2018 11:00:00||AKTİFBANK|10.40.24.161|||110000438458|200
19.10.2018 11:00:00||AKTİFBANK|10.40.24.161|||110000438458|80
19.10.2018 11:00:00||AKTİFBANK|10.40.24.161|||110000438458|40
19.10.2018 11:00:00||AKTİFBANK|10.40.24.161|||110000438458|30
19.10.2018 11:00:00||AKTİFBANK|10.40.24.161|||110000438458|30
19.10.2018 11:00:00||AKTİFBANK|10.40.24.161|||110000438458|20
19.10.2018 11:00:00||AKTİFBANK|10.40.24.161|||110000438458|90
19.10.2018 11:00:00||AKTİFBANK|10.40.24.145|||110000438458|30
19.10.2018 11:00:00||AKTİFBANK|10.40.24.145|||110000438458|70
19.10.2018 11:00:00||AKTİFBANK|10.40.24.145|||110000438458|60
19.10.2018 11:00:00||AKTİFBANK|10.40.24.147|||110000438458|90
19.10.2018 11:00:00||AKTİFBANK|10.40.24.162|||110000438458|40
19.10.2018 11:00:00||AKTİFBANK|10.40.24.162|||110000438458|40
19.10.2018 11:00:00||AKTİFBANK|10.40.24.162|||110000438458|122
19.10.2018 11:00:00||AKTİFBANK|10.40.24.162|||110000438458|10
19.10.2018 11:00:00||AKTİFBANK|10.40.24.162|||110000438458|47
19.10.2018 11:00:00||AKTİFBANK|10.40.24.163|||110000438458|32
19.10.2018 11:00:00||AKTİFBANK|10.40.24.163|||110000438458|75
19.10.2018 11:00:00||AKTİFBANK|10.40.24.164|||110000438458|57
19.10.2018 11:00:00||AKTİFBANK|10.40.24.164|||110000438458|330
19.10.2018 11:00:00||AKTİFBANK|10.40.24.164|||110000438458|218
19.10.2018 11:00:00||AKTİFBANK|10.40.24.165|||110000438458|73
19.10.2018 11:00:00||AKTİFBANK|10.40.24.165|||110000438458|80
19.10.2018 11:00:00||AKTİFBANK|10.40.24.165|||110000438458|53
19.10.2018 11:00:00||AKTİFBANK|10.40.24.165|||110000438458|125
19.10.2018 11:00:00||AKTİFBANK|10.40.24.166|||110000438458|80
19.10.2018 11:00:00||AKTİFBANK|10.40.24.166|||110000438458|90
19.10.2018 11:00:00||AKTİFBANK|10.40.24.166|||110000438458|10
19.10.2018 11:00:00||AKTİFBANK|10.40.25.168|||110000438458|90
19.10.2018 11:00:00||AKTİFBANK|10.40.25.168|||110000438458|70
19.10.2018 11:00:00||AKTİFBANK|10.40.25.168|||110000438458|50
19.10.2018 11:00:00||AKTİFBANK|10.40.25.168|||110000438458|40
19.10.2018 11:00:00||AKTİFBANK|10.40.25.168|||110000438458|60
19.10.2018 11:00:00||AKTİFBANK|10.40.24.168|||110000438458|90
19.10.2018 11:00:00||AKTİFBANK|10.40.24.168|||110000438458|80
19.10.2018 11:00:00||AKTİFBANK|10.40.24.168|||110000438458|70
19.10.2018 11:00:00||AKTİFBANK|10.40.24.168|||110000438458|70
19.10.2018 11:00:00||AKTİFBANK|10.40.24.168|||110000438458|30
19.10.2018 11:00:00||AKTİFBANK|10.40.24.154|||110000438458|70
19.10.2018 11:00:00||AKTİFBANK|10.40.24.154|||110000438458|20
19.10.2018 11:00:00||AKTİFBANK|10.40.24.154|||110000438458|10
19.10.2018 11:00:00||AKTİFBANK|10.40.24.154|||110000438458|10
19.10.2018 11:00:00||AKTİFBANK|10.40.24.154|||110000438458|10
19.10.2018 11:00:00||AKTİFBANK|10.40.24.154|||110000438458|10
19.10.2018 11:00:00||AKTİFBANK|10.40.24.155|||110000438458|60
19.10.2018 11:00:00||AKTİFBANK|10.40.24.155|||110000438458|100
19.10.2018 11:00:00||AKTİFBANK|10.40.24.155|||110000438458|132
19.10.2018 11:00:00||AKTİFBANK|10.40.24.155|||110000438458|80
19.10.2018 11:00:00||AKTİFBANK|10.40.24.155|||110000438458|113
19.10.2018 11:00:00||AKTİFBANK|10.40.24.155|||110000438458|100
19.10.2018 11:00:00||AKTİFBANK|10.40.25.169|||110000438458|93
19.10.2018 11:00:00||AKTİFBANK|10.40.25.169|||110000438458|103
19.10.2018 11:00:00||AKTİFBANK|10.40.25.169|||110000438458|70
19.10.2018 11:00:00||AKTİFBANK|10.40.25.169|||110000438458|75
19.10.2018 11:00:00||AKTİFBANK|10.40.24.169|||110000438458|78
19.10.2018 11:00:00||AKTİFBANK|10.40.24.169|||110000438458|90
19.10.2018 11:00:00||AKTİFBANK|10.40.24.169|||110000438458|77
19.10.2018 11:00:00||AKTİFBANK|10.40.24.169|||110000438458|80
19.10.2018 11:00:00||AKTİFBANK|10.40.25.170|||110000438458|30
19.10.2018 11:00:00||AKTİFBANK|10.40.25.170|||110000438458|30
19.10.2018 11:00:00||AKTİFBANK|10.40.25.170|||110000438458|200
19.10.2018 11:00:00||AKTİFBANK|10.40.25.170|||110000438458|100
19.10.2018 11:00:00||AKTİFBANK|10.40.25.170|||110000438458|80
19.10.2018 11:00:00||AKTİFBANK|10.40.25.170|||110000438458|120
19.10.2018 11:00:00||AKTİFBANK|10.40.24.170|||110000438458|60
19.10.2018 11:00:00||AKTİFBANK|10.40.24.170|||110000438458|60
19.10.2018 11:00:00||AKTİFBANK|10.40.24.170|||110000438458|293
19.10.2018 11:00:00||AKTİFBANK|10.40.24.170|||110000438458|27
19.10.2018 11:00:00||AKTİFBANK|10.40.24.170|||110000438458|80
19.10.2018 11:00:00||AKTİFBANK|10.40.24.170|||110000438458|115
19.10.2018 11:00:00||AKTİFBANK|10.40.24.170|||110000438458|80
19.10.2018 11:00:00||AKTİFBANK|10.40.25.178|||110000438458|590
19.10.2018 11:00:00||AKTİFBANK|10.40.25.178|||110000438458|560
19.10.2018 11:00:00||AKTİFBANK|10.40.25.178|||110000438458|550
19.10.2018 11:00:00||AKTİFBANK|10.40.24.178|||110000438458|572
19.10.2018 11:00:00||AKTİFBANK|10.40.24.178|||110000438458|555
19.10.2018 11:00:00||AKTİFBANK|10.40.24.178|||110000438458|557
19.10.2018 11:00:00||AKTİFBANK|10.40.25.179|||110000438458|413
19.10.2018 11:00:00||AKTİFBANK|10.40.25.179|||110000438458|377
19.10.2018 11:00:00||AKTİFBANK|10.40.25.179|||110000438458|373
19.10.2018 11:00:00||AKTİFBANK|10.40.24.179|||110000438458|345
19.10.2018 11:00:00||AKTİFBANK|10.40.24.179|||110000438458|338
19.10.2018 11:00:00||AKTİFBANK|10.40.24.179|||110000438458|338
19.10.2018 11:00:00||AKTİFBANK|10.40.24.142|||110000438458|40
19.10.2018 11:00:00||AKTİFBANK|10.40.24.156|||110000438458|50
19.10.2018 11:00:00||AKTİFBANK|10.40.24.156|||110000438458|50
19.10.2018 11:00:00||AKTİFBANK|10.40.25.186|||110000438458|90
19.10.2018 11:00:00||AKTİFBANK|10.40.25.186|||110000438458|20
19.10.2018 11:00:00||AKTİFBANK|10.40.25.186|||110000438458|70
19.10.2018 11:00:00||AKTİFBANK|10.40.24.186|||110000438458|90
19.10.2018 11:00:00||AKTİFBANK|10.40.24.186|||110000438458|30
19.10.2018 11:00:00||AKTİFBANK|10.40.24.186|||110000438458|58
19.10.2018 11:00:00||AKTİFBANK|10.40.24.186|||110000438458|40
19.10.2018 11:00:00||AKTİFBANK|10.40.24.152|||110000438458|10
19.10.2018 11:00:00||AKTİFBANK|10.40.24.152|||110000438458|50
19.10.2018 11:00:00||AKTİFBANK|10.40.24.152|||110000438458|115
19.10.2018 11:00:00||AKTİFBANK|10.40.24.152|||110000438458|107
19.10.2018 11:00:00||AKTİFBANK|10.40.24.152|||110000438458|100
19.10.2018 11:00:00||AKTİFBANK|10.40.24.152|||110000438458|105
19.10.2018 11:00:00||AKTİFBANK|10.40.24.152|||110000438458|367
19.10.2018 11:00:00||AKTİFBANK|10.40.24.152|||110000438458|78
19.10.2018 11:00:00||AKTİFBANK|10.40.24.152|||110000438458|93
19.10.2018 11:00:00||AKTİFBANK|10.40.24.152|||110000438458|30
19.10.2018 11:00:00||AKTİFBANK|10.40.24.152|||110000438458|70
19.10.2018 11:00:00||AKTİFBANK|10.40.24.152|||110000438458|30
19.10.2018 11:00:00||AKTİFBANK|10.40.24.133|||110000438458|88
19.10.2018 11:00:00||AKTİFBANK|10.40.24.138|||110000438458|122
19.10.2018 11:00:00||AKTİFBANK|10.40.24.139|||110000438458|30
19.10.2018 11:00:00||AKTİFBANK|10.40.24.149|||110000438458|110
19.10.2018 11:00:00||AKTİFBANK|10.40.24.150|||110000438458|555
19.10.2018 11:00:00||AKTİFBANK|10.40.24.145|||110000438458|60
19.10.2018 11:00:00||AKTİFBANK|10.40.24.164|||110000438458|232
19.10.2018 11:00:00||AKTİFBANK|10.40.25.133|||110000438458|70
19.10.2018 11:00:00||AKTİFBANK|10.40.24.145|||110000438458|90
19.10.2018 11:00:00||BARİKAT İNTERNET GÜVENLİĞİ|10.40.25.201|||110000479736|117
19.10.2018 11:00:00||BARİKAT İNTERNET GÜVENLİĞİ|10.40.25.201|||110000479736|100
19.10.2018 11:00:00||BARİKAT İNTERNET GÜVENLİĞİ|10.40.24.201|||110000479736|130
19.10.2018 11:00:00||BARİKAT İNTERNET GÜVENLİĞİ|10.40.24.201|||110000479736|90
19.10.2018 11:00:00||BOYNER|10.40.27.100|||101367941673|51
19.10.2018 11:00:00||BOYNER|10.40.27.101|||101367941673|165
19.10.2018 11:00:00||BOYNER|10.40.26.101|||101367941673|164
19.10.2018 11:00:00||BOYNER|10.40.26.100|||101367941673|56
19.10.2018 11:00:00||BOYNER|10.40.27.94|||101367941673|210
19.10.2018 11:00:00||BOYNER|10.40.27.94|||101367941673|90
19.10.2018 11:00:00||BOYNER|10.40.27.94|||101367941673|90
19.10.2018 11:00:00||BOYNER|10.40.27.94|||101367941673|100
19.10.2018 11:00:00||BOYNER|10.40.26.94|||101367941673|90
19.10.2018 11:00:00||BOYNER|10.40.26.94|||101367941673|80
19.10.2018 11:00:00||BOYNER|10.40.26.94|||101367941673|80
19.10.2018 11:00:00||BOYNER|10.40.27.95|||101367941673|128
19.10.2018 11:00:00||BOYNER|10.40.27.95|||101367941673|128
19.10.2018 11:00:00||BOYNER|10.40.27.95|||101367941673|233
19.10.2018 11:00:00||BOYNER|10.40.26.95|||101367941673|118
19.10.2018 11:00:00||BOYNER|10.40.26.95|||101367941673|192
19.10.2018 11:00:00||BOYNER|10.40.26.95|||101367941673|138
19.10.2018 11:00:00||BOYNER|10.40.27.96|||101367941673|60
19.10.2018 11:00:00||BOYNER|10.40.27.96|||101367941673|50
19.10.2018 11:00:00||BOYNER|10.40.27.96|||101367941673|50
19.10.2018 11:00:00||BOYNER|10.40.27.96|||101367941673|40
19.10.2018 11:00:00||BOYNER|10.40.27.96|||101367941673|30
19.10.2018 11:00:00||BOYNER|10.40.27.96|||101367941673|145
19.10.2018 11:00:00||BOYNER|10.40.27.96|||101367941673|150
19.10.2018 11:00:00||BOYNER|10.40.27.96|||101367941673|175
19.10.2018 11:00:00||BOYNER|10.40.27.96|||101367941673|165
19.10.2018 11:00:00||BOYNER|10.40.26.96|||101367941673|30
19.10.2018 11:00:00||BOYNER|10.40.26.96|||101367941673|40
19.10.2018 11:00:00||BOYNER|10.40.26.96|||101367941673|30
19.10.2018 11:00:00||BOYNER|10.40.26.96|||101367941673|40
19.10.2018 11:00:00||BOYNER|10.40.26.96|||101367941673|40
19.10.2018 11:00:00||BOYNER|10.40.26.96|||101367941673|50
19.10.2018 11:00:00||BOYNER|10.40.26.96|||101367941673|183
19.10.2018 11:00:00||BOYNER|10.40.26.96|||101367941673|200
19.10.2018 11:00:00||BOYNER|10.40.26.96|||101367941673|163
19.10.2018 11:00:00||BOYNER|10.40.26.96|||101367941673|178
19.10.2018 11:00:00||BOYNER|10.40.27.97|||101367941673|60
19.10.2018 11:00:00||BOYNER|10.40.27.97|||101367941673|648
19.10.2018 11:00:00||BOYNER|10.40.27.97|||101367941673|650
19.10.2018 11:00:00||BOYNER|10.40.27.97|||101367941673|688
19.10.2018 11:00:00||BOYNER|10.40.27.97|||101367941673|40
19.10.2018 11:00:00||BOYNER|10.40.27.97|||101367941673|30
19.10.2018 11:00:00||BOYNER|10.40.27.97|||101367941673|50
19.10.2018 11:00:00||BOYNER|10.40.27.97|||101367941673|30
19.10.2018 11:00:00||BOYNER|10.40.27.97|||101367941673|175
19.10.2018 11:00:00||BOYNER|10.40.27.97|||101367941673|172
19.10.2018 11:00:00||BOYNER|10.40.27.97|||101367941673|185
19.10.2018 11:00:00||BOYNER|10.40.27.97|||101367941673|192
19.10.2018 11:00:00||BOYNER|10.40.26.97|||101367941673|30
19.10.2018 11:00:00||BOYNER|10.40.26.97|||101367941673|645
19.10.2018 11:00:00||BOYNER|10.40.26.97|||101367941673|647
19.10.2018 11:00:00||BOYNER|10.40.26.97|||101367941673|648
19.10.2018 11:00:00||BOYNER|10.40.26.97|||101367941673|32
19.10.2018 11:00:00||BOYNER|10.40.26.97|||101367941673|40
19.10.2018 11:00:00||BOYNER|10.40.26.97|||101367941673|50
19.10.2018 11:00:00||BOYNER|10.40.26.97|||101367941673|60
19.10.2018 11:00:00||BOYNER|10.40.26.97|||101367941673|30
19.10.2018 11:00:00||BOYNER|10.40.26.97|||101367941673|160
19.10.2018 11:00:00||BOYNER|10.40.26.97|||101367941673|170
19.10.2018 11:00:00||BOYNER|10.40.26.97|||101367941673|165
19.10.2018 11:00:00||BOYNER|10.40.26.97|||101367941673|150
19.10.2018 11:00:00||BOYNER|10.40.27.99|||101367941673|132
19.10.2018 11:00:00||BOYNER|10.40.27.99|||101367941673|90
19.10.2018 11:00:00||BOYNER|10.40.27.99|||101367941673|80
19.10.2018 11:00:00||BOYNER|10.40.26.99|||101367941673|12
19.10.2018 11:00:00||BOYNER|10.40.26.99|||101367941673|115
19.10.2018 11:00:00||BOYNER|10.40.26.99|||101367941673|122
19.10.2018 11:00:00||BOYNER|10.40.26.99|||101367941673|72
19.10.2018 11:00:00||ÇALIK HOLDİNG|10.40.25.99|||110000438407|140
19.10.2018 11:00:00||ÇALIK HOLDİNG|10.40.25.118|||110000438407|160
19.10.2018 11:00:00||ÇALIK HOLDİNG|10.40.24.118|||110000438407|43
19.10.2018 11:00:00||ÇALIK HOLDİNG|10.40.25.120|||110000438407|90
19.10.2018 11:00:00||ÇALIK HOLDİNG|10.40.24.95|||110000438407|50
19.10.2018 11:00:00||ÇALIK HOLDİNG|10.40.25.97|||110000438407|80
19.10.2018 11:00:00||ÇALIK HOLDİNG|10.40.25.103|||110000438407|90
19.10.2018 11:00:00||ÇALIK HOLDİNG|10.40.25.120|||110000438407|40
19.10.2018 11:00:00||ÇALIK HOLDİNG|10.40.25.96|||110000438407|70
19.10.2018 11:00:00||ÇALIK HOLDİNG|10.40.25.96|||110000438407|90
19.10.2018 11:00:00||ÇALIK HOLDİNG|10.40.25.96|||110000438407|122
19.10.2018 11:00:00||ÇALIK HOLDİNG|10.40.25.96|||110000438407|90
19.10.2018 11:00:00||ÇALIK HOLDİNG|10.40.25.115|||110000438407|175
19.10.2018 11:00:00||ÇALIK HOLDİNG|10.40.25.115|||110000438407|77
19.10.2018 11:00:00||ÇALIK HOLDİNG|10.40.25.95|||110000438407|98
19.10.2018 11:00:00||ÇALIK HOLDİNG|10.40.25.96|||110000438407|90
19.10.2018 11:00:00||ÇALIK HOLDİNG|10.40.25.96|||110000438407|100
19.10.2018 11:00:00||ÇALIK HOLDİNG|10.40.25.120|||110000438407|20
19.10.2018 11:00:00||ÇALIK HOLDİNG|10.40.25.95|||110000438407|60
19.10.2018 11:00:00||ÇALIK HOLDİNG|10.40.24.94|||110000438407|190
19.10.2018 11:00:00||ÇALIK HOLDİNG|10.40.25.97|||110000438407|100
19.10.2018 11:00:00||ÇALIK HOLDİNG|10.40.25.120|||110000438407|60
19.10.2018 11:00:00||ÇALIK HOLDİNG|10.40.25.115|||110000438407|88
19.10.2018 11:00:00||ÇALIK HOLDİNG|10.40.25.115|||110000438407|72
19.10.2018 11:00:00||ÇALIK HOLDİNG|10.40.25.115|||110000438407|70
19.10.2018 11:00:00||ÇALIK HOLDİNG|10.40.25.101|||110000438407|50
19.10.2018 11:00:00||ÇALIK HOLDİNG|10.40.25.101|||110000438407|110
19.10.2018 11:00:00||ÇALIK HOLDİNG|10.40.25.101|||110000438407|30
19.10.2018 11:00:00||ÇALIK HOLDİNG|10.40.25.101|||110000438407|10
19.10.2018 11:00:00||ÇALIK HOLDİNG|10.40.25.101|||110000438407|90
19.10.2018 11:00:00||ÇALIK HOLDİNG|10.40.25.101|||110000438407|30
19.10.2018 11:00:00||ÇALIK HOLDİNG|10.40.25.101|||110000438407|40
19.10.2018 11:00:00||ÇALIK HOLDİNG|10.40.25.101|||110000438407|40
19.10.2018 11:00:00||ÇALIK HOLDİNG|10.40.25.101|||110000438407|90
19.10.2018 11:00:00||ÇALIK HOLDİNG|10.40.25.101|||110000438407|90
19.10.2018 11:00:00||ÇALIK HOLDİNG|10.40.25.101|||110000438407|90
19.10.2018 11:00:00||ÇALIK HOLDİNG|10.40.25.94|||110000438407|180
19.10.2018 11:00:00||ÇALIK HOLDİNG|10.40.25.94|||110000438407|180
19.10.2018 11:00:00||ÇALIK HOLDİNG|10.40.25.94|||110000438407|170
19.10.2018 11:00:00||ÇALIK HOLDİNG|10.40.25.94|||110000438407|180
19.10.2018 11:00:00||ÇALIK HOLDİNG|10.40.24.94|||110000438407|208
19.10.2018 11:00:00||ÇALIK HOLDİNG|10.40.24.94|||110000438407|195
19.10.2018 11:00:00||ÇALIK HOLDİNG|10.40.24.94|||110000438407|197
19.10.2018 11:00:00||ÇALIK HOLDİNG|10.40.25.95|||110000438407|20
19.10.2018 11:00:00||ÇALIK HOLDİNG|10.40.25.95|||110000438407|348
19.10.2018 11:00:00||ÇALIK HOLDİNG|10.40.25.95|||110000438407|365
19.10.2018 11:00:00||ÇALIK HOLDİNG|10.40.25.95|||110000438407|40
19.10.2018 11:00:00||ÇALIK HOLDİNG|10.40.24.95|||110000438407|102
19.10.2018 11:00:00||ÇALIK HOLDİNG|10.40.24.95|||110000438407|100
19.10.2018 11:00:00||ÇALIK HOLDİNG|10.40.24.95|||110000438407|388
19.10.2018 11:00:00||ÇALIK HOLDİNG|10.40.24.95|||110000438407|402
19.10.2018 11:00:00||ÇALIK HOLDİNG|10.40.25.96|||110000438407|90
19.10.2018 11:00:00||ÇALIK HOLDİNG|10.40.25.96|||110000438407|100
19.10.2018 11:00:00||ÇALIK HOLDİNG|10.40.25.96|||110000438407|100
19.10.2018 11:00:00||ÇALIK HOLDİNG|10.40.25.96|||110000438407|260
19.10.2018 11:00:00||ÇALIK HOLDİNG|10.40.25.96|||110000438407|267
19.10.2018 11:00:00||ÇALIK HOLDİNG|10.40.25.96|||110000438407|100
19.10.2018 11:00:00||ÇALIK HOLDİNG|10.40.25.96|||110000438407|90
19.10.2018 11:00:00||ÇALIK HOLDİNG|10.40.25.96|||110000438407|97
19.10.2018 11:00:00||ÇALIK HOLDİNG|10.40.25.97|||110000438407|90
19.10.2018 11:00:00||ÇALIK HOLDİNG|10.40.25.97|||110000438407|80
19.10.2018 11:00:00||ÇALIK HOLDİNG|10.40.25.97|||110000438407|307
19.10.2018 11:00:00||ÇALIK HOLDİNG|10.40.25.98|||110000438407|60
19.10.2018 11:00:00||ÇALIK HOLDİNG|10.40.25.98|||110000438407|165
19.10.2018 11:00:00||ÇALIK HOLDİNG|10.40.25.98|||110000438407|160
19.10.2018 11:00:00||ÇALIK HOLDİNG|10.40.25.98|||110000438407|168
19.10.2018 11:00:00||ÇALIK HOLDİNG|10.40.25.98|||110000438407|168
19.10.2018 11:00:00||ÇALIK HOLDİNG|10.40.25.98|||110000438407|62
19.10.2018 11:00:00||ÇALIK HOLDİNG|10.40.25.98|||110000438407|210
19.10.2018 11:00:00||ÇALIK HOLDİNG|10.40.25.98|||110000438407|178
19.10.2018 11:00:00||ÇALIK HOLDİNG|10.40.25.98|||110000438407|170
19.10.2018 11:00:00||ÇALIK HOLDİNG|10.40.25.98|||110000438407|212
19.10.2018 11:00:00||ÇALIK HOLDİNG|10.40.25.98|||110000438407|80
19.10.2018 11:00:00||ÇALIK HOLDİNG|10.40.25.98|||110000438407|345
19.10.2018 11:00:00||ÇALIK HOLDİNG|10.40.24.98|||110000438407|100
19.10.2018 11:00:00||ÇALIK HOLDİNG|10.40.24.98|||110000438407|155
19.10.2018 11:00:00||ÇALIK HOLDİNG|10.40.24.98|||110000438407|200
19.10.2018 11:00:00||ÇALIK HOLDİNG|10.40.24.98|||110000438407|200
19.10.2018 11:00:00||ÇALIK HOLDİNG|10.40.24.98|||110000438407|160
19.10.2018 11:00:00||ÇALIK HOLDİNG|10.40.24.98|||110000438407|30
19.10.2018 11:00:00||ÇALIK HOLDİNG|10.40.24.98|||110000438407|167
19.10.2018 11:00:00||ÇALIK HOLDİNG|10.40.24.98|||110000438407|180
19.10.2018 11:00:00||ÇALIK HOLDİNG|10.40.24.98|||110000438407|170
19.10.2018 11:00:00||ÇALIK HOLDİNG|10.40.24.98|||110000438407|170
19.10.2018 11:00:00||ÇALIK HOLDİNG|10.40.24.98|||110000438407|20
19.10.2018 11:00:00||ÇALIK HOLDİNG|10.40.24.98|||110000438407|315
19.10.2018 11:00:00||ÇALIK HOLDİNG|10.40.25.100|||110000438407|33
19.10.2018 11:00:00||ÇALIK HOLDİNG|10.40.25.100|||110000438407|40
19.10.2018 11:00:00||ÇALIK HOLDİNG|10.40.24.101|||110000438407|60
19.10.2018 11:00:00||ÇALIK HOLDİNG|10.40.24.101|||110000438407|110
19.10.2018 11:00:00||ÇALIK HOLDİNG|10.40.24.101|||110000438407|20
19.10.2018 11:00:00||ÇALIK HOLDİNG|10.40.24.101|||110000438407|20
19.10.2018 11:00:00||ÇALIK HOLDİNG|10.40.24.101|||110000438407|40
19.10.2018 11:00:00||ÇALIK HOLDİNG|10.40.24.101|||110000438407|83
19.10.2018 11:00:00||ÇALIK HOLDİNG|10.40.24.101|||110000438407|30
19.10.2018 11:00:00||ÇALIK HOLDİNG|10.40.24.101|||110000438407|10
19.10.2018 11:00:00||ÇALIK HOLDİNG|10.40.24.101|||110000438407|20
19.10.2018 11:00:00||ÇALIK HOLDİNG|10.40.24.101|||110000438407|50
19.10.2018 11:00:00||ÇALIK HOLDİNG|10.40.24.101|||110000438407|30
19.10.2018 11:00:00||ÇALIK HOLDİNG|10.40.24.101|||110000438407|80
19.10.2018 11:00:00||ÇALIK HOLDİNG|10.40.24.101|||110000438407|80
19.10.2018 11:00:00||ÇALIK HOLDİNG|10.40.24.101|||110000438407|90
19.10.2018 11:00:00||ÇALIK HOLDİNG|10.40.25.102|||110000438407|100
19.10.2018 11:00:00||ÇALIK HOLDİNG|10.40.25.102|||110000438407|90
19.10.2018 11:00:00||ÇALIK HOLDİNG|10.40.25.102|||110000438407|150
19.10.2018 11:00:00||ÇALIK HOLDİNG|10.40.24.102|||110000438407|100
19.10.2018 11:00:00||ÇALIK HOLDİNG|10.40.24.102|||110000438407|90
19.10.2018 11:00:00||ÇALIK HOLDİNG|10.40.24.102|||110000438407|140
19.10.2018 11:00:00||ÇALIK HOLDİNG|10.40.25.103|||110000438407|90
19.10.2018 11:00:00||ÇALIK HOLDİNG|10.40.25.103|||110000438407|80
19.10.2018 11:00:00||ÇALIK HOLDİNG|10.40.25.103|||110000438407|10
19.10.2018 11:00:00||ÇALIK HOLDİNG|10.40.25.115|||110000438407|90
19.10.2018 11:00:00||ÇALIK HOLDİNG|10.40.24.103|||110000438407|100
19.10.2018 11:00:00||ÇALIK HOLDİNG|10.40.24.103|||110000438407|80
19.10.2018 11:00:00||ÇALIK HOLDİNG|10.40.24.103|||110000438407|80
19.10.2018 11:00:00||ÇALIK HOLDİNG|10.40.24.103|||110000438407|20
19.10.2018 11:00:00||ÇALIK HOLDİNG|10.40.24.103|||110000438407|10
19.10.2018 11:00:00||ÇALIK HOLDİNG|10.40.25.113|||110000438407|240
19.10.2018 11:00:00||ÇALIK HOLDİNG|10.40.25.113|||110000438407|253
19.10.2018 11:00:00||ÇALIK HOLDİNG|10.40.25.113|||110000438407|200
19.10.2018 11:00:00||ÇALIK HOLDİNG|10.40.25.113|||110000438407|215
19.10.2018 11:00:00||ÇALIK HOLDİNG|10.40.24.113|||110000438407|238
19.10.2018 11:00:00||ÇALIK HOLDİNG|10.40.24.113|||110000438407|233
19.10.2018 11:00:00||ÇALIK HOLDİNG|10.40.24.113|||110000438407|200
19.10.2018 11:00:00||ÇALIK HOLDİNG|10.40.24.113|||110000438407|165
19.10.2018 11:00:00||ÇALIK HOLDİNG|10.40.25.114|||110000438407|187
19.10.2018 11:00:00||ÇALIK HOLDİNG|10.40.25.114|||110000438407|443
19.10.2018 11:00:00||ÇALIK HOLDİNG|10.40.25.114|||110000438407|40
19.10.2018 11:00:00||ÇALIK HOLDİNG|10.40.24.114|||110000438407|20
19.10.2018 11:00:00||ÇALIK HOLDİNG|10.40.24.114|||110000438407|40
19.10.2018 11:00:00||ÇALIK HOLDİNG|10.40.24.114|||110000438407|178
19.10.2018 11:00:00||ÇALIK HOLDİNG|10.40.24.114|||110000438407|400
19.10.2018 11:00:00||ÇALIK HOLDİNG|10.40.24.115|||110000438407|167
19.10.2018 11:00:00||ÇALIK HOLDİNG|10.40.24.115|||110000438407|87
19.10.2018 11:00:00||ÇALIK HOLDİNG|10.40.24.115|||110000438407|90
19.10.2018 11:00:00||ÇALIK HOLDİNG|10.40.24.115|||110000438407|72
19.10.2018 11:00:00||ÇALIK HOLDİNG|10.40.24.115|||110000438407|92
19.10.2018 11:00:00||ÇALIK HOLDİNG|10.40.24.115|||110000438407|72
19.10.2018 11:00:00||ÇALIK HOLDİNG|10.40.25.116|||110000438407|102
19.10.2018 11:00:00||ÇALIK HOLDİNG|10.40.25.116|||110000438407|103
19.10.2018 11:00:00||ÇALIK HOLDİNG|10.40.25.116|||110000438407|303
19.10.2018 11:00:00||ÇALIK HOLDİNG|10.40.24.116|||110000438407|288
19.10.2018 11:00:00||ÇALIK HOLDİNG|10.40.24.116|||110000438407|102
19.10.2018 11:00:00||ÇALIK HOLDİNG|10.40.24.116|||110000438407|100
19.10.2018 11:00:00||ÇALIK HOLDİNG|10.40.25.117|||110000438407|252
19.10.2018 11:00:00||ÇALIK HOLDİNG|10.40.25.117|||110000438407|30
19.10.2018 11:00:00||ÇALIK HOLDİNG|10.40.25.117|||110000438407|28
19.10.2018 11:00:00||ÇALIK HOLDİNG|10.40.25.119|||110000438407|30
19.10.2018 11:00:00||ÇALIK HOLDİNG|10.40.25.119|||110000438407|30
19.10.2018 11:00:00||ÇALIK HOLDİNG|10.40.24.119|||110000438407|150
19.10.2018 11:00:00||ÇALIK HOLDİNG|10.40.24.119|||110000438407|30
19.10.2018 11:00:00||ÇALIK HOLDİNG|10.40.24.119|||110000438407|50
19.10.2018 11:00:00||ÇALIK HOLDİNG|10.40.25.120|||110000438407|108
19.10.2018 11:00:00||ÇALIK HOLDİNG|10.40.25.120|||110000438407|50
19.10.2018 11:00:00||ÇALIK HOLDİNG|10.40.25.120|||110000438407|20
19.10.2018 11:00:00||ÇALIK HOLDİNG|10.40.25.120|||110000438407|20
19.10.2018 11:00:00||ÇALIK HOLDİNG|10.40.25.120|||110000438407|30
19.10.2018 11:00:00||ÇALIK HOLDİNG|10.40.25.120|||110000438407|90
19.10.2018 11:00:00||ÇALIK HOLDİNG|10.40.25.120|||110000438407|90
19.10.2018 11:00:00||ÇALIK HOLDİNG|10.40.24.120|||110000438407|20
19.10.2018 11:00:00||ÇALIK HOLDİNG|10.40.24.120|||110000438407|33
19.10.2018 11:00:00||ÇALIK HOLDİNG|10.40.24.120|||110000438407|110
19.10.2018 11:00:00||ÇALIK HOLDİNG|10.40.24.120|||110000438407|100
19.10.2018 11:00:00||ÇALIK HOLDİNG|10.40.24.120|||110000438407|40
19.10.2018 11:00:00||ÇALIK HOLDİNG|10.40.24.120|||110000438407|80
19.10.2018 11:00:00||ÇALIK HOLDİNG|10.40.24.120|||110000438407|80
19.10.2018 11:00:00||ÇALIK HOLDİNG|10.40.24.120|||110000438407|70
19.10.2018 11:00:00||ÇALIK HOLDİNG|10.40.25.121|||110000438407|90
19.10.2018 11:00:00||ÇALIK HOLDİNG|10.40.25.121|||110000438407|100
19.10.2018 11:00:00||ÇALIK HOLDİNG|10.40.25.121|||110000438407|150
19.10.2018 11:00:00||ÇALIK HOLDİNG|10.40.24.121|||110000438407|100
19.10.2018 11:00:00||ÇALIK HOLDİNG|10.40.24.121|||110000438407|100
19.10.2018 11:00:00||ÇALIK HOLDİNG|10.40.24.121|||110000438407|140
19.10.2018 11:00:00||ÇALIK HOLDİNG|10.40.25.122|||110000438407|90
19.10.2018 11:00:00||ÇALIK HOLDİNG|10.40.25.122|||110000438407|82
19.10.2018 11:00:00||ÇALIK HOLDİNG|10.40.25.122|||110000438407|80
19.10.2018 11:00:00||ÇALIK HOLDİNG|10.40.25.122|||110000438407|30
19.10.2018 11:00:00||ÇALIK HOLDİNG|10.40.25.122|||110000438407|10
19.10.2018 11:00:00||ÇALIK HOLDİNG|10.40.24.122|||110000438407|90
19.10.2018 11:00:00||ÇALIK HOLDİNG|10.40.24.122|||110000438407|80
19.10.2018 11:00:00||ÇALIK HOLDİNG|10.40.24.122|||110000438407|88
19.10.2018 11:00:00||ÇALIK HOLDİNG|10.40.24.117|||110000438407|208
19.10.2018 11:00:00||ÇALIK HOLDİNG|10.40.24.117|||110000438407|30
19.10.2018 11:00:00||ÇALIK HOLDİNG|10.40.24.117|||110000438407|30
19.10.2018 11:00:00||ÇALIK HOLDİNG|10.40.24.97|||110000438407|97
19.10.2018 11:00:00||ÇALIK HOLDİNG|10.40.24.97|||110000438407|90
19.10.2018 11:00:00||ÇALIK HOLDİNG|10.40.24.97|||110000438407|80
19.10.2018 11:00:00||ÇALIK HOLDİNG|10.40.24.97|||110000438407|90
19.10.2018 11:00:00||ÇALIK HOLDİNG|10.40.24.97|||110000438407|325
19.10.2018 11:00:00||ÇALIK HOLDİNG|10.40.24.100|||110000438407|30
19.10.2018 11:00:00||ÇALIK HOLDİNG|10.40.24.100|||110000438407|40
19.10.2018 11:00:00||FIBABANKA|10.40.25.54|||101571767266|330
19.10.2018 11:00:00||FIBABANKA|10.40.27.54|||101571767266|307
19.10.2018 11:00:00||FIBABANKA|10.40.27.55|||101571767266|107
19.10.2018 11:00:00||FIBABANKA|10.40.24.54|||101571767266|316
19.10.2018 11:00:00||FIBABANKA|10.40.25.55|||101571767266|111
19.10.2018 11:00:00||FIBABANKA|10.40.24.55|||101571767266|111
19.10.2018 11:00:00||FIBABANKA|10.40.24.56|||101571767266|203
19.10.2018 11:00:00||FIBABANKA|10.40.25.56|||101571767266|204
19.10.2018 11:00:00||FIBABANKA|10.40.26.55|||101571767266|106
19.10.2018 11:00:00||FIBABANKA|10.40.26.54|||101571767266|317
19.10.2018 11:00:00||FIBABANKA|10.40.25.57|||101571767266|90
19.10.2018 11:00:00||FIBABANKA|10.40.25.57|||101571767266|90
19.10.2018 11:00:00||FIBABANKA|10.40.25.57|||101571767266|90
19.10.2018 11:00:00||FIBABANKA|10.40.26.51|||101571767266|20
19.10.2018 11:00:00||FIBABANKA|10.40.27.52|||101571767266|50
19.10.2018 11:00:00||FIBABANKA|10.40.27.52|||101571767266|60
19.10.2018 11:00:00||FIBABANKA|10.40.27.52|||101571767266|70
19.10.2018 11:00:00||FIBABANKA|10.40.27.73|||101571767266|10
19.10.2018 11:00:00||FIBABANKA|10.40.27.74|||101571767266|175
19.10.2018 11:00:00||FIBABANKA|10.40.25.53|||101571767266|32
19.10.2018 11:00:00||FIBABANKA|10.40.25.53|||101571767266|52
19.10.2018 11:00:00||FIBABANKA|10.40.27.53|||101571767266|53
19.10.2018 11:00:00||FIBABANKA|10.40.26.53|||101571767266|62
19.10.2018 11:00:00||FIBABANKA|10.40.25.51|||101571767266|20
19.10.2018 11:00:00||FIBABANKA|10.40.25.51|||101571767266|110
19.10.2018 11:00:00||FIBABANKA|10.40.24.51|||101571767266|20
19.10.2018 11:00:00||FIBABANKA|10.40.24.51|||101571767266|70
19.10.2018 11:00:00||FIBABANKA|10.40.24.51|||101571767266|100
19.10.2018 11:00:00||FIBABANKA|10.40.24.51|||101571767266|140
19.10.2018 11:00:00||FIBABANKA|10.40.24.51|||101571767266|30
19.10.2018 11:00:00||FIBABANKA|10.40.24.57|||101571767266|90
19.10.2018 11:00:00||FIBABANKA|10.40.24.57|||101571767266|80
19.10.2018 11:00:00||FIBABANKA|10.40.24.57|||101571767266|80
19.10.2018 11:00:00||FIBABANKA|10.40.24.52|||101571767266|40
19.10.2018 11:00:00||FIBABANKA|10.40.24.52|||101571767266|10
19.10.2018 11:00:00||FIBABANKA|10.40.26.73|||101571767266|40
19.10.2018 11:00:00||FIBABANKA|10.40.27.53|||101571767266|67
19.10.2018 11:00:00||FIBABANKA|10.40.26.51|||101571767266|70
19.10.2018 11:00:00||FIBABANKA|10.40.26.52|||101571767266|30
19.10.2018 11:00:00||FIBABANKA|10.40.26.52|||101571767266|90
19.10.2018 11:00:00||FIBABANKA|10.40.26.52|||101571767266|30
19.10.2018 11:00:00||FIBABANKA|10.40.25.51|||101571767266|140
19.10.2018 11:00:00||FIBABANKA|10.40.25.51|||101571767266|40
19.10.2018 11:00:00||FIBABANKA|10.40.25.51|||101571767266|40
19.10.2018 11:00:00||FIBABANKA|10.40.25.51|||101571767266|70
19.10.2018 11:00:00||FIBABANKA|10.40.24.51|||101571767266|30
19.10.2018 11:00:00||FIBABANKA|10.40.24.58|||101571767266|10
19.10.2018 11:00:00||FIBABANKA|10.40.24.58|||101571767266|10
19.10.2018 11:00:00||FIBABANKA|10.40.25.59|||101571767266|70
19.10.2018 11:00:00||FIBABANKA|10.40.25.59|||101571767266|97
19.10.2018 11:00:00||FIBABANKA|10.40.25.59|||101571767266|100
19.10.2018 11:00:00||FIBABANKA|10.40.25.59|||101571767266|40
19.10.2018 11:00:00||FIBABANKA|10.40.25.59|||101571767266|125
19.10.2018 11:00:00||FIBABANKA|10.40.25.59|||101571767266|70
19.10.2018 11:00:00||FIBABANKA|10.40.25.59|||101571767266|58
19.10.2018 11:00:00||FIBABANKA|10.40.25.59|||101571767266|160
19.10.2018 11:00:00||FIBABANKA|10.40.25.59|||101571767266|57
19.10.2018 11:00:00||FIBABANKA|10.40.24.59|||101571767266|70
19.10.2018 11:00:00||FIBABANKA|10.40.24.59|||101571767266|122
19.10.2018 11:00:00||FIBABANKA|10.40.24.59|||101571767266|80
19.10.2018 11:00:00||FIBABANKA|10.40.24.59|||101571767266|50
19.10.2018 11:00:00||FIBABANKA|10.40.24.59|||101571767266|130
19.10.2018 11:00:00||FIBABANKA|10.40.24.59|||101571767266|70
19.10.2018 11:00:00||FIBABANKA|10.40.24.59|||101571767266|60
19.10.2018 11:00:00||FIBABANKA|10.40.24.59|||101571767266|150
19.10.2018 11:00:00||FIBABANKA|10.40.24.59|||101571767266|63
19.10.2018 11:00:00||FIBABANKA|10.40.25.60|||101571767266|110
19.10.2018 11:00:00||FIBABANKA|10.40.25.60|||101571767266|38
19.10.2018 11:00:00||FIBABANKA|10.40.25.60|||101571767266|110
19.10.2018 11:00:00||FIBABANKA|10.40.25.60|||101571767266|42
19.10.2018 11:00:00||FIBABANKA|10.40.24.60|||101571767266|120
19.10.2018 11:00:00||FIBABANKA|10.40.24.60|||101571767266|60
19.10.2018 11:00:00||FIBABANKA|10.40.24.60|||101571767266|40
19.10.2018 11:00:00||FIBABANKA|10.40.24.60|||101571767266|103
19.10.2018 11:00:00||FIBABANKA|10.40.24.60|||101571767266|50
19.10.2018 11:00:00||FIBABANKA|10.40.25.72|||101571767266|70
19.10.2018 11:00:00||FIBABANKA|10.40.25.72|||101571767266|40
19.10.2018 11:00:00||FIBABANKA|10.40.25.72|||101571767266|30
19.10.2018 11:00:00||FIBABANKA|10.40.24.72|||101571767266|140
19.10.2018 11:00:00||FIBABANKA|10.40.24.72|||101571767266|78
19.10.2018 11:00:00||FIBABANKA|10.40.24.72|||101571767266|30
19.10.2018 11:00:00||FIBABANKA|10.40.24.72|||101571767266|40
19.10.2018 11:00:00||FIBABANKA|10.40.25.74|||101571767266|30
19.10.2018 11:00:00||FIBABANKA|10.40.25.75|||101571767266|37
19.10.2018 11:00:00||FIBABANKA|10.40.25.75|||101571767266|88
19.10.2018 11:00:00||FIBABANKA|10.40.25.75|||101571767266|133
19.10.2018 11:00:00||FIBABANKA|10.40.25.75|||101571767266|178
19.10.2018 11:00:00||FIBABANKA|10.40.25.75|||101571767266|193
19.10.2018 11:00:00||FIBABANKA|10.40.25.75|||101571767266|210
19.10.2018 11:00:00||FIBABANKA|10.40.24.75|||101571767266|48
19.10.2018 11:00:00||FIBABANKA|10.40.24.75|||101571767266|50
19.10.2018 11:00:00||FIBABANKA|10.40.24.75|||101571767266|178
19.10.2018 11:00:00||FIBABANKA|10.40.24.75|||101571767266|158
19.10.2018 11:00:00||FIBABANKA|10.40.24.76|||101571767266|40
19.10.2018 11:00:00||FIBABANKA|10.40.24.76|||101571767266|68
19.10.2018 11:00:00||FIBABANKA|10.40.24.76|||101571767266|10
19.10.2018 11:00:00||FIBABANKA|10.40.24.53|||101571767266|30
19.10.2018 11:00:00||FIBABANKA|10.40.24.53|||101571767266|60
19.10.2018 11:00:00||FIBABANKA|10.40.26.57|||101571767266|92
19.10.2018 11:00:00||FIBABANKA|10.40.26.57|||101571767266|85
19.10.2018 11:00:00||FIBABANKA|10.40.26.57|||101571767266|80
19.10.2018 11:00:00||FIBABANKA|10.40.27.72|||101571767266|40
19.10.2018 11:00:00||FIBABANKA|10.40.27.72|||101571767266|50
19.10.2018 11:00:00||FIBABANKA|10.40.27.72|||101571767266|35
19.10.2018 11:00:00||FIBABANKA|10.40.27.72|||101571767266|140
19.10.2018 11:00:00||FIBABANKA|10.40.27.72|||101571767266|60
19.10.2018 11:00:00||FIBABANKA|10.40.26.72|||101571767266|30
19.10.2018 11:00:00||FIBABANKA|10.40.26.72|||101571767266|140
19.10.2018 11:00:00||FIBABANKA|10.40.26.72|||101571767266|70
19.10.2018 11:00:00||FIBABANKA|10.40.26.72|||101571767266|30
19.10.2018 11:00:00||FIBABANKA|10.40.27.73|||101571767266|30
19.10.2018 11:00:00||FIBABANKA|10.40.27.73|||101571767266|100
19.10.2018 11:00:00||FIBABANKA|10.40.27.73|||101571767266|40
19.10.2018 11:00:00||FIBABANKA|10.40.27.73|||101571767266|45
19.10.2018 11:00:00||FIBABANKA|10.40.27.73|||101571767266|262
19.10.2018 11:00:00||FIBABANKA|10.40.26.73|||101571767266|40
19.10.2018 11:00:00||FIBABANKA|10.40.26.73|||101571767266|70
19.10.2018 11:00:00||FIBABANKA|10.40.26.73|||101571767266|30
19.10.2018 11:00:00||FIBABANKA|10.40.26.73|||101571767266|7
19.10.2018 11:00:00||FIBABANKA|10.40.27.74|||101571767266|83
19.10.2018 11:00:00||FIBABANKA|10.40.27.74|||101571767266|172
19.10.2018 11:00:00||FIBABANKA|10.40.27.74|||101571767266|178
19.10.2018 11:00:00||FIBABANKA|10.40.26.74|||101571767266|78
19.10.2018 11:00:00||FIBABANKA|10.40.26.74|||101571767266|192
19.10.2018 11:00:00||FIBABANKA|10.40.26.74|||101571767266|193
19.10.2018 11:00:00||FIBABANKA|10.40.26.74|||101571767266|172
19.10.2018 11:00:00||FIBABANKA|10.40.27.75|||101571767266|10
19.10.2018 11:00:00||FIBABANKA|10.40.27.75|||101571767266|10
19.10.2018 11:00:00||FIBABANKA|10.40.26.79|||101571767266|10
19.10.2018 11:00:00||FIBABANKA|10.40.27.79|||101571767266|10
19.10.2018 11:00:00||FIBABANKA|10.40.27.79|||101571767266|10
19.10.2018 11:00:00||FIBABANKA|10.40.26.79|||101571767266|10
19.10.2018 11:00:00||FIBABANKA|10.40.27.77|||101571767266|158
19.10.2018 11:00:00||FIBABANKA|10.40.26.77|||101571767266|183
19.10.2018 11:00:00||FIBABANKA|10.40.27.77|||101571767266|158
19.10.2018 11:00:00||FIBABANKA|10.40.25.74|||101571767266|228
19.10.2018 11:00:00||FIBABANKA|10.40.24.75|||101571767266|183
19.10.2018 11:00:00||FIBABANKA|10.40.24.53|||101571767266|178
19.10.2018 11:00:00||FIBABANKA|10.40.24.53|||101571767266|182
19.10.2018 11:00:00||FIBABANKA|10.40.25.52|||101571767266|10
19.10.2018 11:00:00||FIBABANKA|10.40.25.52|||101571767266|50
19.10.2018 11:00:00||FIBABANKA|10.40.25.52|||101571767266|60
19.10.2018 11:00:00||FIBABANKA|10.40.25.53|||101571767266|168
19.10.2018 11:00:00||FIBABANKA|10.40.25.53|||101571767266|148
19.10.2018 11:00:00||FIBABANKA|10.40.27.51|||101571767266|30
19.10.2018 11:00:00||FIBABANKA|10.40.27.51|||101571767266|20
19.10.2018 11:00:00||FIBABANKA|10.40.27.51|||101571767266|103
19.10.2018 11:00:00||FIBABANKA|10.40.27.51|||101571767266|140
19.10.2018 11:00:00||FIBABANKA|10.40.27.51|||101571767266|70
19.10.2018 11:00:00||FIBABANKA|10.40.27.51|||101571767266|40
19.10.2018 11:00:00||FIBABANKA|10.40.27.51|||101571767266|40
19.10.2018 11:00:00||FIBABANKA|10.40.26.51|||101571767266|10
19.10.2018 11:00:00||FIBABANKA|10.40.26.51|||101571767266|110
19.10.2018 11:00:00||FIBABANKA|10.40.26.51|||101571767266|130
19.10.2018 11:00:00||FIBABANKA|10.40.26.51|||101571767266|30
19.10.2018 11:00:00||FIBABANKA|10.40.26.51|||101571767266|30
19.10.2018 11:00:00||FIBABANKA|10.40.24.74|||101571767266|30
19.10.2018 11:00:00||FIBABANKA|10.40.25.76|||101571767266|60
19.10.2018 11:00:00||FIBABANKA|10.40.25.76|||101571767266|40
19.10.2018 11:00:00||FIBABANKA|10.40.25.76|||101571767266|10
19.10.2018 11:00:00||FIBABANKA|10.40.26.53|||101571767266|47
19.10.2018 11:00:00||FIBABANKA|10.40.26.53|||101571767266|180
19.10.2018 11:00:00||FIBABANKA|10.40.25.76|||101571767266|10
19.10.2018 11:00:00||FIBABANKA|10.40.27.53|||101571767266|175
19.10.2018 11:00:00||FIBABANKA|10.40.27.53|||101571767266|178
19.10.2018 11:00:00||FIBABANKA|10.40.26.53|||101571767266|162
19.10.2018 11:00:00||FIBABANKA|10.40.27.57|||101571767266|80
19.10.2018 11:00:00||FIBABANKA|10.40.27.57|||101571767266|80
19.10.2018 11:00:00||FIBABANKA|10.40.27.57|||101571767266|80
19.10.2018 11:00:00||HAVAŞ|10.40.24.48|||110000479675|753
19.10.2018 11:00:00||HAVAŞ|10.40.24.48|||110000479675|745
19.10.2018 11:00:00||HAVAŞ|10.40.25.48|||110000479675|752
19.10.2018 11:00:00||HAVAŞ|10.40.24.45|||110000479675|70
19.10.2018 11:00:00||HAVAŞ|10.40.25.45|||110000479675|68
19.10.2018 11:00:00||HAVAŞ|10.40.25.47|||110000479675|70
19.10.2018 11:00:00||HAVAŞ|10.40.24.46|||110000479675|80
19.10.2018 11:00:00||HAVAŞ|10.40.24.47|||110000479675|30
19.10.2018 11:00:00||HAVAŞ|10.40.24.47|||110000479675|90
19.10.2018 11:00:00||HAVAŞ|10.40.24.47|||110000479675|90
19.10.2018 11:00:00||HAVAŞ|10.40.25.46|||110000479675|10
19.10.2018 11:00:00||HAVAŞ|10.40.25.46|||110000479675|60
19.10.2018 11:00:00||HAVAŞ|10.40.24.48|||110000479675|753
19.10.2018 11:00:00||HAVAŞ|10.40.24.46|||110000479675|60
19.10.2018 11:00:00||HAVAŞ|10.40.24.46|||110000479675|72
19.10.2018 11:00:00||HAVAŞ|10.40.24.47|||110000479675|10
19.10.2018 11:00:00||HAVAŞ|10.40.25.48|||110000479675|752
19.10.2018 11:00:00||HAVAŞ|10.40.25.48|||110000479675|785
19.10.2018 11:00:00||HAVAŞ|10.40.25.45|||110000479675|98
19.10.2018 11:00:00||HAVAŞ|10.40.24.45|||110000479675|50
19.10.2018 11:00:00||HAVAŞ|10.40.24.45|||110000479675|170
19.10.2018 11:00:00||HAVAŞ|10.40.24.45|||110000479675|100
19.10.2018 11:00:00||HAVAŞ|10.40.25.47|||110000479675|70
19.10.2018 11:00:00||HAVAŞ|10.40.25.47|||110000479675|225
19.10.2018 11:00:00||HAVAŞ|10.40.25.47|||110000479675|53
19.10.2018 11:00:00||HAVAŞ|10.40.25.47|||110000479675|88
19.10.2018 11:00:00||HAVAŞ|10.40.25.47|||110000479675|88
19.10.2018 11:00:00||HAVAŞ|10.40.25.47|||110000479675|90
19.10.2018 11:00:00||HAVAŞ|10.40.25.47|||110000479675|132
19.10.2018 11:00:00||HAVAŞ|10.40.25.47|||110000479675|173
19.10.2018 11:00:00||HAVAŞ|10.40.25.47|||110000479675|90
19.10.2018 11:00:00||HAVAŞ|10.40.25.47|||110000479675|90
19.10.2018 11:00:00||HAVAŞ|10.40.25.47|||110000479675|90
19.10.2018 11:00:00||HAVAŞ|10.40.25.45|||110000479675|107
19.10.2018 11:00:00||HAVAŞ|10.40.25.45|||110000479675|87
19.10.2018 11:00:00||HAVAŞ|10.40.25.46|||110000479675|10
19.10.2018 11:00:00||HAVAŞ|10.40.25.46|||110000479675|10
19.10.2018 11:00:00||HAVAŞ|10.40.25.46|||110000479675|20
19.10.2018 11:00:00||HAVAŞ|10.40.25.46|||110000479675|20
19.10.2018 11:00:00||HAVAŞ|10.40.25.46|||110000479675|50
19.10.2018 11:00:00||HAVAŞ|10.40.25.46|||110000479675|100
19.10.2018 11:00:00||HAVAŞ|10.40.25.46|||110000479675|63
19.10.2018 11:00:00||HAVAŞ|10.40.25.46|||110000479675|72
19.10.2018 11:00:00||HAVAŞ|10.40.25.46|||110000479675|70
19.10.2018 11:00:00||HAVAŞ|10.40.24.46|||110000479675|20
19.10.2018 11:00:00||HAVAŞ|10.40.24.46|||110000479675|20
19.10.2018 11:00:00||HAVAŞ|10.40.24.46|||110000479675|2
19.10.2018 11:00:00||HAVAŞ|10.40.24.46|||110000479675|10
19.10.2018 11:00:00||HAVAŞ|10.40.24.46|||110000479675|10
19.10.2018 11:00:00||HAVAŞ|10.40.24.46|||110000479675|10
19.10.2018 11:00:00||HAVAŞ|10.40.24.46|||110000479675|60
19.10.2018 11:00:00||HAVAŞ|10.40.24.46|||110000479675|110
19.10.2018 11:00:00||HAVAŞ|10.40.24.47|||110000479675|30
19.10.2018 11:00:00||HAVAŞ|10.40.24.47|||110000479675|213
19.10.2018 11:00:00||HAVAŞ|10.40.24.47|||110000479675|60
19.10.2018 11:00:00||HAVAŞ|10.40.24.47|||110000479675|58
19.10.2018 11:00:00||HAVAŞ|10.40.24.47|||110000479675|152
19.10.2018 11:00:00||HAVAŞ|10.40.24.47|||110000479675|100
19.10.2018 11:00:00||HAVAŞ|10.40.24.47|||110000479675|100
19.10.2018 11:00:00||HAVAŞ|10.40.24.46|||110000479675|10
19.10.2018 11:00:00||MARS CINEMA|10.40.24.203|||110000472614|80
19.10.2018 11:00:00||MARS CINEMA|10.40.24.203|||110000472614|163
19.10.2018 11:00:00||MARS CINEMA|10.40.24.203|||110000472614|80
19.10.2018 11:00:00||MARS CINEMA|10.40.24.204|||110000472614|63
19.10.2018 11:00:00||MARS CINEMA|10.40.24.203|||110000472614|107
19.10.2018 11:00:00||MARS CINEMA|10.40.24.204|||110000472614|20
19.10.2018 11:00:00||MARS CINEMA|10.40.24.204|||110000472614|93
19.10.2018 11:00:00||MARS CINEMA|10.40.25.203|||110000472614|158
19.10.2018 11:00:00||MARS CINEMA|10.40.25.203|||110000472614|82
19.10.2018 11:00:00||MARS CINEMA|10.40.25.203|||110000472614|185
19.10.2018 11:00:00||MARS CINEMA|10.40.25.203|||110000472614|97
19.10.2018 11:00:00||MARS CINEMA|10.40.25.203|||110000472614|85
19.10.2018 11:00:00||MARS CINEMA|10.40.25.203|||110000472614|110
19.10.2018 11:00:00||MARS CINEMA|10.40.25.203|||110000472614|77
19.10.2018 11:00:00||MARS CINEMA|10.40.25.203|||110000472614|153
19.10.2018 11:00:00||MARS CINEMA|10.40.25.203|||110000472614|90
19.10.2018 11:00:00||MARS CINEMA|10.40.25.203|||110000472614|112
19.10.2018 11:00:00||MARS CINEMA|10.40.25.203|||110000472614|95
19.10.2018 11:00:00||MARS CINEMA|10.40.25.203|||110000472614|67
19.10.2018 11:00:00||MARS CINEMA|10.40.25.203|||110000472614|188
19.10.2018 11:00:00||MARS CINEMA|10.40.25.204|||110000472614|110
19.10.2018 11:00:00||MARS CINEMA|10.40.25.204|||110000472614|70
19.10.2018 11:00:00||MARS CINEMA|10.40.25.204|||110000472614|80
19.10.2018 11:00:00||MARS CINEMA|10.40.25.204|||110000472614|100
19.10.2018 11:00:00||MARS CINEMA|10.40.25.204|||110000472614|20
19.10.2018 11:00:00||MARS CINEMA|10.40.25.204|||110000472614|20
19.10.2018 11:00:00||MARS CINEMA|10.40.25.204|||110000472614|30
19.10.2018 11:00:00||MARS CINEMA|10.40.25.204|||110000472614|40
19.10.2018 11:00:00||MARS CINEMA|10.40.25.204|||110000472614|90
19.10.2018 11:00:00||MARS CINEMA|10.40.25.204|||110000472614|120
19.10.2018 11:00:00||MARS CINEMA|10.40.25.204|||110000472614|80
19.10.2018 11:00:00||MARS CINEMA|10.40.25.204|||110000472614|80
19.10.2018 11:00:00||MARS CINEMA|10.40.25.204|||110000472614|110
19.10.2018 11:00:00||MARS CINEMA|10.40.25.204|||110000472614|100
19.10.2018 11:00:00||MARS CINEMA|10.40.24.203|||110000472614|80
19.10.2018 11:00:00||MARS CINEMA|10.40.24.203|||110000472614|93
19.10.2018 11:00:00||MARS CINEMA|10.40.24.203|||110000472614|145
19.10.2018 11:00:00||MARS CINEMA|10.40.24.203|||110000472614|60
19.10.2018 11:00:00||MARS CINEMA|10.40.24.203|||110000472614|140
19.10.2018 11:00:00||MARS CINEMA|10.40.24.203|||110000472614|153
19.10.2018 11:00:00||MARS CINEMA|10.40.24.203|||110000472614|100
19.10.2018 11:00:00||MARS CINEMA|10.40.24.203|||110000472614|182
19.10.2018 11:00:00||MARS CINEMA|10.40.24.204|||110000472614|110
19.10.2018 11:00:00||MARS CINEMA|10.40.24.204|||110000472614|92
19.10.2018 11:00:00||MARS CINEMA|10.40.24.204|||110000472614|93
19.10.2018 11:00:00||MARS CINEMA|10.40.24.204|||110000472614|20
19.10.2018 11:00:00||MARS CINEMA|10.40.24.204|||110000472614|10
19.10.2018 11:00:00||MARS CINEMA|10.40.24.204|||110000472614|90
19.10.2018 11:00:00||MARS CINEMA|10.40.24.204|||110000472614|120
19.10.2018 11:00:00||MARS CINEMA|10.40.24.204|||110000472614|90
19.10.2018 11:00:00||MARS CINEMA|10.40.24.204|||110000472614|105
19.10.2018 11:00:00||MARS CINEMA|10.40.24.204|||110000472614|82
19.10.2018 11:00:00||MARS CINEMA|10.40.25.206|||110000472614|122
19.10.2018 11:00:00||MARS CINEMA|10.40.25.206|||110000472614|40
19.10.2018 11:00:00||MARS CINEMA|10.40.25.206|||110000472614|40
19.10.2018 11:00:00||MARS CINEMA|10.40.25.206|||110000472614|40
19.10.2018 11:00:00||MARS CINEMA|10.40.25.206|||110000472614|20
19.10.2018 11:00:00||MARS CINEMA|10.40.25.206|||110000472614|20
19.10.2018 11:00:00||MARS CINEMA|10.40.25.206|||110000472614|30
19.10.2018 11:00:00||MARS CINEMA|10.40.25.206|||110000472614|60
19.10.2018 11:00:00||MARS CINEMA|10.40.25.206|||110000472614|40
19.10.2018 11:00:00||MARS CINEMA|10.40.25.206|||110000472614|90
19.10.2018 11:00:00||MARS CINEMA|10.40.25.206|||110000472614|90
19.10.2018 11:00:00||MARS CINEMA|10.40.24.206|||110000472614|157
19.10.2018 11:00:00||MARS CINEMA|10.40.24.206|||110000472614|40
19.10.2018 11:00:00||MARS CINEMA|10.40.24.206|||110000472614|40
19.10.2018 11:00:00||MARS CINEMA|10.40.24.206|||110000472614|48
19.10.2018 11:00:00||MARS CINEMA|10.40.24.206|||110000472614|30
19.10.2018 11:00:00||MARS CINEMA|10.40.24.206|||110000472614|30
19.10.2018 11:00:00||MARS CINEMA|10.40.24.206|||110000472614|207
19.10.2018 11:00:00||MARS CINEMA|10.40.24.206|||110000472614|160
19.10.2018 11:00:00||MARS CINEMA|10.40.24.206|||110000472614|20
19.10.2018 11:00:00||MARS CINEMA|10.40.24.206|||110000472614|83
19.10.2018 11:00:00||MARS CINEMA|10.40.24.206|||110000472614|78
19.10.2018 11:00:00||MARS CINEMA|10.40.24.203|||110000472614|100
19.10.2018 11:00:00||MARS CINEMA|10.40.24.204|||110000472614|40
19.10.2018 11:00:00||PEGASUS|10.40.27.66|||110000423831|113
19.10.2018 11:00:00||PEGASUS|10.40.26.66|||110000423831|94
19.10.2018 11:00:00||PEGASUS|10.40.26.84|||110000423831|220
19.10.2018 11:00:00||PEGASUS|10.40.27.85|||110000423831|116
19.10.2018 11:00:00||PEGASUS|10.40.26.85|||110000423831|120
19.10.2018 11:00:00||PEGASUS|10.40.27.64|||110000423831|70
19.10.2018 11:00:00||PEGASUS|10.40.27.64|||110000423831|70
19.10.2018 11:00:00||PEGASUS|10.40.27.63|||110000423831|60
19.10.2018 11:00:00||PEGASUS|10.40.27.63|||110000423831|90
19.10.2018 11:00:00||PEGASUS|10.40.27.63|||110000423831|90
19.10.2018 11:00:00||PEGASUS|10.40.26.63|||110000423831|110
19.10.2018 11:00:00||PEGASUS|10.40.27.67|||110000423831|360
19.10.2018 11:00:00||PEGASUS|10.40.27.64|||110000423831|278
19.10.2018 11:00:00||PEGASUS|10.40.27.64|||110000423831|260
19.10.2018 11:00:00||PEGASUS|10.40.27.63|||110000423831|85
19.10.2018 11:00:00||PEGASUS|10.40.27.63|||110000423831|67
19.10.2018 11:00:00||PEGASUS|10.40.27.63|||110000423831|80
19.10.2018 11:00:00||PEGASUS|10.40.26.63|||110000423831|110
19.10.2018 11:00:00||PEGASUS|10.40.26.63|||110000423831|110
19.10.2018 11:00:00||PEGASUS|10.40.27.81|||110000423831|463
19.10.2018 11:00:00||PEGASUS|10.40.27.81|||110000423831|432
19.10.2018 11:00:00||PEGASUS|10.40.26.63|||110000423831|90
19.10.2018 11:00:00||PEGASUS|10.40.26.63|||110000423831|60
19.10.2018 11:00:00||PEGASUS|10.40.26.67|||110000423831|30
19.10.2018 11:00:00||PEGASUS|10.40.26.67|||110000423831|340
19.10.2018 11:00:00||PEGASUS|10.40.26.67|||110000423831|60
19.10.2018 11:00:00||PEGASUS|10.40.26.67|||110000423831|40
19.10.2018 11:00:00||PEGASUS|10.40.26.67|||110000423831|70
19.10.2018 11:00:00||PEGASUS|10.40.26.68|||110000423831|100
19.10.2018 11:00:00||PEGASUS|10.40.27.64|||110000423831|290
19.10.2018 11:00:00||PEGASUS|10.40.27.64|||110000423831|260
19.10.2018 11:00:00||PEGASUS|10.40.27.64|||110000423831|307
19.10.2018 11:00:00||PEGASUS|10.40.27.64|||110000423831|267
19.10.2018 11:00:00||PEGASUS|10.40.27.64|||110000423831|277
19.10.2018 11:00:00||PEGASUS|10.40.27.86|||110000423831|340
19.10.2018 11:00:00||PEGASUS|10.40.27.63|||110000423831|90
19.10.2018 11:00:00||PEGASUS|10.40.26.63|||110000423831|130
19.10.2018 11:00:00||PEGASUS|10.40.26.63|||110000423831|60
19.10.2018 11:00:00||PEGASUS|10.40.26.63|||110000423831|80
19.10.2018 11:00:00||PEGASUS|10.40.26.67|||110000423831|340
19.10.2018 11:00:00||PEGASUS|10.40.27.63|||110000423831|50
19.10.2018 11:00:00||PEGASUS|10.40.27.63|||110000423831|60
19.10.2018 11:00:00||PEGASUS|10.40.27.81|||110000423831|438
19.10.2018 11:00:00||PEGASUS|10.40.26.62|||110000423831|90
19.10.2018 11:00:00||PEGASUS|10.40.26.63|||110000423831|50
19.10.2018 11:00:00||PEGASUS|10.40.26.63|||110000423831|100
19.10.2018 11:00:00||PEGASUS|10.40.26.63|||110000423831|40
19.10.2018 11:00:00||PEGASUS|10.40.26.63|||110000423831|70
19.10.2018 11:00:00||PEGASUS|10.40.26.67|||110000423831|342
19.10.2018 11:00:00||PEGASUS|10.40.27.64|||110000423831|282
19.10.2018 11:00:00||PEGASUS|10.40.27.64|||110000423831|272
19.10.2018 11:00:00||PEGASUS|10.40.27.64|||110000423831|262
19.10.2018 11:00:00||PEGASUS|10.40.27.64|||110000423831|290
19.10.2018 11:00:00||PEGASUS|10.40.27.64|||110000423831|337
19.10.2018 11:00:00||PEGASUS|10.40.27.86|||110000423831|40
19.10.2018 11:00:00||PEGASUS|10.40.27.63|||110000423831|72
19.10.2018 11:00:00||PEGASUS|10.40.27.63|||110000423831|80
19.10.2018 11:00:00||PEGASUS|10.40.27.63|||110000423831|80
19.10.2018 11:00:00||PEGASUS|10.40.27.63|||110000423831|92
19.10.2018 11:00:00||PEGASUS|10.40.27.63|||110000423831|152
19.10.2018 11:00:00||PEGASUS|10.40.27.63|||110000423831|223
19.10.2018 11:00:00||PEGASUS|10.40.27.63|||110000423831|53
19.10.2018 11:00:00||PEGASUS|10.40.26.64|||110000423831|80
19.10.2018 11:00:00||PEGASUS|10.40.26.64|||110000423831|80
19.10.2018 11:00:00||PEGASUS|10.40.26.82|||110000423831|210
19.10.2018 11:00:00||PEGASUS|10.40.26.82|||110000423831|110
19.10.2018 11:00:00||PEGASUS|10.40.26.82|||110000423831|80
19.10.2018 11:00:00||PEGASUS|10.40.26.82|||110000423831|150
19.10.2018 11:00:00||PEGASUS|10.40.26.82|||110000423831|140
19.10.2018 11:00:00||PEGASUS|10.40.26.82|||110000423831|140
19.10.2018 11:00:00||PEGASUS|10.40.26.82|||110000423831|180
19.10.2018 11:00:00||PEGASUS|10.40.26.82|||110000423831|30
19.10.2018 11:00:00||PEGASUS|10.40.26.82|||110000423831|40
19.10.2018 11:00:00||PEGASUS|10.40.26.82|||110000423831|20
19.10.2018 11:00:00||PEGASUS|10.40.26.82|||110000423831|70
19.10.2018 11:00:00||PEGASUS|10.40.26.82|||110000423831|50
19.10.2018 11:00:00||PEGASUS|10.40.26.82|||110000423831|40
19.10.2018 11:00:00||PEGASUS|10.40.27.83|||110000423831|575
19.10.2018 11:00:00||PEGASUS|10.40.27.83|||110000423831|70
19.10.2018 11:00:00||PEGASUS|10.40.27.83|||110000423831|565
19.10.2018 11:00:00||PEGASUS|10.40.27.83|||110000423831|557
19.10.2018 11:00:00||PEGASUS|10.40.27.83|||110000423831|73
19.10.2018 11:00:00||PEGASUS|10.40.26.83|||110000423831|510
19.10.2018 11:00:00||PEGASUS|10.40.26.83|||110000423831|50
19.10.2018 11:00:00||PEGASUS|10.40.26.83|||110000423831|400
19.10.2018 11:00:00||PEGASUS|10.40.26.83|||110000423831|503
19.10.2018 11:00:00||PEGASUS|10.40.26.83|||110000423831|517
19.10.2018 11:00:00||PEGASUS|10.40.26.86|||110000423831|360
19.10.2018 11:00:00||PEGASUS|10.40.26.86|||110000423831|137
19.10.2018 11:00:00||PEGASUS|10.40.26.86|||110000423831|350
19.10.2018 11:00:00||PEGASUS|10.40.26.86|||110000423831|50
19.10.2018 11:00:00||PEGASUS|10.40.26.86|||110000423831|30
19.10.2018 11:00:00||PEGASUS|10.40.26.86|||110000423831|350
19.10.2018 11:00:00||PEGASUS|10.40.26.86|||110000423831|40
19.10.2018 11:00:00||PEGASUS|10.40.27.87|||110000423831|90
19.10.2018 11:00:00||PEGASUS|10.40.27.87|||110000423831|90
19.10.2018 11:00:00||PEGASUS|10.40.27.87|||110000423831|90
19.10.2018 11:00:00||PEGASUS|10.40.27.87|||110000423831|20
19.10.2018 11:00:00||PEGASUS|10.40.26.87|||110000423831|90
19.10.2018 11:00:00||PEGASUS|10.40.26.87|||110000423831|90
19.10.2018 11:00:00||PEGASUS|10.40.26.87|||110000423831|90
19.10.2018 11:00:00||PEGASUS|10.40.26.87|||110000423831|60
19.10.2018 11:00:00||PEGASUS|10.40.26.87|||110000423831|20
19.10.2018 11:00:00||PEGASUS|10.40.26.81|||110000423831|408
19.10.2018 11:00:00||PEGASUS|10.40.26.81|||110000423831|418
19.10.2018 11:00:00||PEGASUS|10.40.26.81|||110000423831|432
19.10.2018 11:00:00||PEGASUS|10.40.27.82|||110000423831|220
19.10.2018 11:00:00||PEGASUS|10.40.27.82|||110000423831|30
19.10.2018 11:00:00||PEGASUS|10.40.27.82|||110000423831|110
19.10.2018 11:00:00||PEGASUS|10.40.27.82|||110000423831|80
19.10.2018 11:00:00||PEGASUS|10.40.27.82|||110000423831|158
19.10.2018 11:00:00||PEGASUS|10.40.27.82|||110000423831|123
19.10.2018 11:00:00||PEGASUS|10.40.27.82|||110000423831|170
19.10.2018 11:00:00||PEGASUS|10.40.27.82|||110000423831|120
19.10.2018 11:00:00||PEGASUS|10.40.27.82|||110000423831|60
19.10.2018 11:00:00||PEGASUS|10.40.27.82|||110000423831|80
19.10.2018 11:00:00||PEGASUS|10.40.27.82|||110000423831|50
19.10.2018 11:00:00||PEGASUS|10.40.27.82|||110000423831|35
19.10.2018 11:00:00||PEGASUS|10.40.27.82|||110000423831|40
19.10.2018 11:00:00||PEGASUS|10.40.27.67|||110000423831|50
19.10.2018 11:00:00||PEGASUS|10.40.27.67|||110000423831|70
19.10.2018 11:00:00||PEGASUS|10.40.27.67|||110000423831|130
19.10.2018 11:00:00||PEGASUS|10.40.27.67|||110000423831|10
19.10.2018 11:00:00||PEGASUS|10.40.27.67|||110000423831|340
19.10.2018 11:00:00||PEGASUS|10.40.27.82|||110000423831|77
19.10.2018 11:00:00||PEGASUS|10.40.27.86|||110000423831|170
19.10.2018 11:00:00||PEGASUS|10.40.27.86|||110000423831|70
19.10.2018 11:00:00||PEGASUS|10.40.27.86|||110000423831|20
19.10.2018 11:00:00||PEGASUS|10.40.27.86|||110000423831|350
19.10.2018 11:00:00||PEGASUS|10.40.27.67|||110000423831|340
19.10.2018 11:00:00||PEGASUS|10.40.27.67|||110000423831|40
19.10.2018 11:00:00||PEGASUS|10.40.26.62|||110000423831|10
19.10.2018 11:00:00||PEGASUS|10.40.26.62|||110000423831|192
19.10.2018 11:00:00||PEGASUS|10.40.26.63|||110000423831|70
19.10.2018 11:00:00||PEGASUS|10.40.26.63|||110000423831|30
19.10.2018 11:00:00||PEGASUS|10.40.26.63|||110000423831|60
19.10.2018 11:00:00||PEGASUS|10.40.26.63|||110000423831|30
19.10.2018 11:00:00||PEGASUS|10.40.26.63|||110000423831|230
19.10.2018 11:00:00||PEGASUS|10.40.26.63|||110000423831|140
19.10.2018 11:00:00||PEGASUS|10.40.26.63|||110000423831|110
19.10.2018 11:00:00||PEGASUS|10.40.26.63|||110000423831|60
19.10.2018 11:00:00||PEGASUS|10.40.26.67|||110000423831|170
19.10.2018 11:00:00||PEGASUS|10.40.27.68|||110000423831|90
19.10.2018 11:00:00||PEGASUS|10.40.27.68|||110000423831|88
19.10.2018 11:00:00||PEGASUS|10.40.27.68|||110000423831|90
19.10.2018 11:00:00||PEGASUS|10.40.27.68|||110000423831|50
19.10.2018 11:00:00||PEGASUS|10.40.26.68|||110000423831|90
19.10.2018 11:00:00||PEGASUS|10.40.26.68|||110000423831|90
19.10.2018 11:00:00||PEGASUS|10.40.26.68|||110000423831|50
19.10.2018 11:00:00||PEGASUS|10.40.27.63|||110000423831|72
19.10.2018 11:00:00||PEGASUS|10.40.27.86|||110000423831|340
19.10.2018 11:00:00||PEGASUS|10.40.27.63|||110000423831|50
19.10.2018 11:00:00||PEGASUS|10.40.27.63|||110000423831|60
19.10.2018 11:00:00||PWC|10.40.24.66|||110000433262|90
19.10.2018 11:00:00||PWC|10.40.24.66|||110000433262|10
19.10.2018 11:00:00||PWC|10.40.24.66|||110000433262|30
19.10.2018 11:00:00||PWC|10.40.24.66|||110000433262|57
19.10.2018 11:00:00||PWC|10.40.24.66|||110000433262|452
19.10.2018 11:00:00||PWC|10.40.24.68|||110000433262|158
19.10.2018 11:00:00||PWC|10.40.24.66|||110000433262|50
19.10.2018 11:00:00||PWC|10.40.24.66|||110000433262|212
19.10.2018 11:00:00||PWC|10.40.24.66|||110000433262|210
19.10.2018 11:00:00||PWC|10.40.25.67|||110000433262|80
19.10.2018 11:00:00||PWC|10.40.25.67|||110000433262|90
19.10.2018 11:00:00||PWC|10.40.25.67|||110000433262|320
19.10.2018 11:00:00||PWC|10.40.25.67|||110000433262|250
19.10.2018 11:00:00||PWC|10.40.25.67|||110000433262|240
19.10.2018 11:00:00||PWC|10.40.25.67|||110000433262|250
19.10.2018 11:00:00||PWC|10.40.25.67|||110000433262|50
19.10.2018 11:00:00||PWC|10.40.25.67|||110000433262|30
19.10.2018 11:00:00||PWC|10.40.25.67|||110000433262|120
19.10.2018 11:00:00||PWC|10.40.24.67|||110000433262|10
19.10.2018 11:00:00||PWC|10.40.24.67|||110000433262|10
19.10.2018 11:00:00||PWC|10.40.24.67|||110000433262|388
19.10.2018 11:00:00||PWC|10.40.24.67|||110000433262|30
19.10.2018 11:00:00||PWC|10.40.24.67|||110000433262|70
19.10.2018 11:00:00||PWC|10.40.24.67|||110000433262|120
19.10.2018 11:00:00||PWC|10.40.25.68|||110000433262|127
19.10.2018 11:00:00||PWC|10.40.25.68|||110000433262|203
19.10.2018 11:00:00||PWC|10.40.25.68|||110000433262|72
19.10.2018 11:00:00||PWC|10.40.25.68|||110000433262|78
19.10.2018 11:00:00||PWC|10.40.25.68|||110000433262|148
19.10.2018 11:00:00||PWC|10.40.24.66|||110000433262|60
19.10.2018 11:00:00||PWC|10.40.24.66|||110000433262|30
19.10.2018 11:00:00||PWC|10.40.24.66|||110000433262|30
19.10.2018 11:00:00||PWC|10.40.24.68|||110000433262|105
19.10.2018 11:00:00||PWC|10.40.24.68|||110000433262|150
19.10.2018 11:00:00||PWC|10.40.24.68|||110000433262|408
19.10.2018 11:00:00||PWC|10.40.24.68|||110000433262|73
19.10.2018 11:00:00||PWC|10.40.24.68|||110000433262|68
19.10.2018 11:00:00||VSMART BİLGİ TEKNOLOJİLERİ|10.40.24.62|||110000474326|40
19.10.2018 11:00:00||VSMART BİLGİ TEKNOLOJİLERİ|10.40.24.62|||110000474326|68
19.10.2018 11:00:00||VSMART BİLGİ TEKNOLOJİLERİ|10.40.24.62|||110000474326|28
19.10.2018 11:00:00||VSMART BİLGİ TEKNOLOJİLERİ|10.40.25.62|||110000474326|70
19.10.2018 11:00:00||VSMART BİLGİ TEKNOLOJİLERİ|10.40.24.62|||110000474326|40
19.10.2018 11:00:00||VSMART BİLGİ TEKNOLOJİLERİ|10.40.24.62|||110000474326|30
19.10.2018 11:00:00||VSMART BİLGİ TEKNOLOJİLERİ|10.40.24.62|||110000474326|10
19.10.2018 11:00:00||VSMART BİLGİ TEKNOLOJİLERİ|10.40.25.62|||110000474326|38
19.10.2018 11:00:00||VSMART BİLGİ TEKNOLOJİLERİ|10.40.25.62|||110000474326|10
19.10.2018 11:00:00||VSMART BİLGİ TEKNOLOJİLERİ|10.40.25.62|||110000474326|10
19.10.2018 11:00:00||VSMART BİLGİ TEKNOLOJİLERİ|10.40.25.62|||110000474326|80
19.10.2018 11:00:00||VSMART BİLGİ TEKNOLOJİLERİ|10.40.25.62|||110000474326|85
19.10.2018 11:00:00||VSMART BİLGİ TEKNOLOJİLERİ|10.40.25.62|||110000474326|103
19.10.2018 11:00:00||VSMART BİLGİ TEKNOLOJİLERİ|10.40.24.62|||110000474326|10
