17.10.2018 10:00:00||AKTİFBANK|10.40.25.174|||110000438458|53
17.10.2018 10:00:00||AKTİFBANK|10.40.25.134|||110000438458|93
17.10.2018 10:00:00||AKTİFBANK|10.40.25.135|||110000438458|104
17.10.2018 10:00:00||AKTİFBANK|10.40.24.135|||110000438458|105
17.10.2018 10:00:00||AKTİFBANK|10.40.24.137|||110000438458|58
17.10.2018 10:00:00||AKTİFBANK|10.40.24.171|||110000438458|11
17.10.2018 10:00:00||AKTİFBANK|10.40.25.172|||110000438458|88
17.10.2018 10:00:00||AKTİFBANK|10.40.24.173|||110000438458|95
17.10.2018 10:00:00||AKTİFBANK|10.40.24.174|||110000438458|60
17.10.2018 10:00:00||AKTİFBANK|10.40.24.172|||110000438458|95
17.10.2018 10:00:00||AKTİFBANK|10.40.24.134|||110000438458|92
17.10.2018 10:00:00||AKTİFBANK|10.40.25.137|||110000438458|57
17.10.2018 10:00:00||AKTİFBANK|10.40.25.171|||110000438458|12
17.10.2018 10:00:00||AKTİFBANK|10.40.24.158|||110000438458|80
17.10.2018 10:00:00||AKTİFBANK|10.40.24.164|||110000438458|63
17.10.2018 10:00:00||AKTİFBANK|10.40.25.138|||110000438458|80
17.10.2018 10:00:00||AKTİFBANK|10.40.25.139|||110000438458|10
17.10.2018 10:00:00||AKTİFBANK|10.40.25.140|||110000438458|30
17.10.2018 10:00:00||AKTİFBANK|10.40.25.151|||110000438458|513
17.10.2018 10:00:00||AKTİFBANK|10.40.25.141|||110000438458|100
17.10.2018 10:00:00||AKTİFBANK|10.40.25.141|||110000438458|80
17.10.2018 10:00:00||AKTİFBANK|10.40.25.142|||110000438458|75
17.10.2018 10:00:00||AKTİFBANK|10.40.25.133|||110000438458|110
17.10.2018 10:00:00||AKTİFBANK|10.40.25.149|||110000438458|103
17.10.2018 10:00:00||AKTİFBANK|10.40.25.149|||110000438458|90
17.10.2018 10:00:00||AKTİFBANK|10.40.25.149|||110000438458|92
17.10.2018 10:00:00||AKTİFBANK|10.40.25.140|||110000438458|30
17.10.2018 10:00:00||AKTİFBANK|10.40.25.150|||110000438458|540
17.10.2018 10:00:00||AKTİFBANK|10.40.25.139|||110000438458|170
17.10.2018 10:00:00||AKTİFBANK|10.40.25.139|||110000438458|40
17.10.2018 10:00:00||AKTİFBANK|10.40.25.140|||110000438458|80
17.10.2018 10:00:00||AKTİFBANK|10.40.25.140|||110000438458|70
17.10.2018 10:00:00||AKTİFBANK|10.40.25.140|||110000438458|30
17.10.2018 10:00:00||AKTİFBANK|10.40.25.151|||110000438458|528
17.10.2018 10:00:00||AKTİFBANK|10.40.25.151|||110000438458|517
17.10.2018 10:00:00||AKTİFBANK|10.40.25.141|||110000438458|40
17.10.2018 10:00:00||AKTİFBANK|10.40.25.141|||110000438458|100
17.10.2018 10:00:00||AKTİFBANK|10.40.25.141|||110000438458|70
17.10.2018 10:00:00||AKTİFBANK|10.40.25.142|||110000438458|33
17.10.2018 10:00:00||AKTİFBANK|10.40.25.149|||110000438458|70
17.10.2018 10:00:00||AKTİFBANK|10.40.25.149|||110000438458|110
17.10.2018 10:00:00||AKTİFBANK|10.40.25.149|||110000438458|90
17.10.2018 10:00:00||AKTİFBANK|10.40.25.149|||110000438458|98
17.10.2018 10:00:00||AKTİFBANK|10.40.25.149|||110000438458|103
17.10.2018 10:00:00||AKTİFBANK|10.40.24.139|||110000438458|63
17.10.2018 10:00:00||AKTİFBANK|10.40.25.153|||110000438458|10
17.10.2018 10:00:00||AKTİFBANK|10.40.25.150|||110000438458|562
17.10.2018 10:00:00||AKTİFBANK|10.40.25.153|||110000438458|70
17.10.2018 10:00:00||AKTİFBANK|10.40.25.163|||110000438458|50
17.10.2018 10:00:00||AKTİFBANK|10.40.24.141|||110000438458|75
17.10.2018 10:00:00||AKTİFBANK|10.40.24.151|||110000438458|528
17.10.2018 10:00:00||AKTİFBANK|10.40.25.153|||110000438458|80
17.10.2018 10:00:00||AKTİFBANK|10.40.24.149|||110000438458|93
17.10.2018 10:00:00||AKTİFBANK|10.40.24.141|||110000438458|50
17.10.2018 10:00:00||AKTİFBANK|10.40.25.133|||110000438458|280
17.10.2018 10:00:00||AKTİFBANK|10.40.25.133|||110000438458|90
17.10.2018 10:00:00||AKTİFBANK|10.40.24.149|||110000438458|88
17.10.2018 10:00:00||AKTİFBANK|10.40.24.162|||110000438458|213
17.10.2018 10:00:00||AKTİFBANK|10.40.24.162|||110000438458|30
17.10.2018 10:00:00||AKTİFBANK|10.40.24.162|||110000438458|40
17.10.2018 10:00:00||AKTİFBANK|10.40.25.133|||110000438458|150
17.10.2018 10:00:00||AKTİFBANK|10.40.25.138|||110000438458|130
17.10.2018 10:00:00||AKTİFBANK|10.40.25.149|||110000438458|85
17.10.2018 10:00:00||AKTİFBANK|10.40.25.149|||110000438458|72
17.10.2018 10:00:00||AKTİFBANK|10.40.25.149|||110000438458|30
17.10.2018 10:00:00||AKTİFBANK|10.40.25.149|||110000438458|72
17.10.2018 10:00:00||AKTİFBANK|10.40.25.149|||110000438458|70
17.10.2018 10:00:00||AKTİFBANK|10.40.25.141|||110000438458|100
17.10.2018 10:00:00||AKTİFBANK|10.40.25.149|||110000438458|130
17.10.2018 10:00:00||AKTİFBANK|10.40.25.138|||110000438458|90
17.10.2018 10:00:00||AKTİFBANK|10.40.25.138|||110000438458|72
17.10.2018 10:00:00||AKTİFBANK|10.40.25.139|||110000438458|100
17.10.2018 10:00:00||AKTİFBANK|10.40.24.145|||110000438458|70
17.10.2018 10:00:00||AKTİFBANK|10.40.24.149|||110000438458|160
17.10.2018 10:00:00||AKTİFBANK|10.40.25.138|||110000438458|30
17.10.2018 10:00:00||AKTİFBANK|10.40.25.138|||110000438458|10
17.10.2018 10:00:00||AKTİFBANK|10.40.25.153|||110000438458|60
17.10.2018 10:00:00||AKTİFBANK|10.40.24.150|||110000438458|547
17.10.2018 10:00:00||AKTİFBANK|10.40.25.128|||110000438458|70
17.10.2018 10:00:00||AKTİFBANK|10.40.25.128|||110000438458|90
17.10.2018 10:00:00||AKTİFBANK|10.40.25.128|||110000438458|90
17.10.2018 10:00:00||AKTİFBANK|10.40.25.128|||110000438458|40
17.10.2018 10:00:00||AKTİFBANK|10.40.25.128|||110000438458|70
17.10.2018 10:00:00||AKTİFBANK|10.40.25.129|||110000438458|82
17.10.2018 10:00:00||AKTİFBANK|10.40.25.129|||110000438458|77
17.10.2018 10:00:00||AKTİFBANK|10.40.25.129|||110000438458|130
17.10.2018 10:00:00||AKTİFBANK|10.40.25.129|||110000438458|100
17.10.2018 10:00:00||AKTİFBANK|10.40.25.129|||110000438458|48
17.10.2018 10:00:00||AKTİFBANK|10.40.25.129|||110000438458|92
17.10.2018 10:00:00||AKTİFBANK|10.40.25.129|||110000438458|93
17.10.2018 10:00:00||AKTİFBANK|10.40.25.130|||110000438458|62
17.10.2018 10:00:00||AKTİFBANK|10.40.25.130|||110000438458|50
17.10.2018 10:00:00||AKTİFBANK|10.40.25.130|||110000438458|73
17.10.2018 10:00:00||AKTİFBANK|10.40.25.130|||110000438458|33
17.10.2018 10:00:00||AKTİFBANK|10.40.25.130|||110000438458|60
17.10.2018 10:00:00||AKTİFBANK|10.40.25.130|||110000438458|100
17.10.2018 10:00:00||AKTİFBANK|10.40.25.130|||110000438458|83
17.10.2018 10:00:00||AKTİFBANK|10.40.25.131|||110000438458|20
17.10.2018 10:00:00||AKTİFBANK|10.40.25.131|||110000438458|75
17.10.2018 10:00:00||AKTİFBANK|10.40.25.131|||110000438458|100
17.10.2018 10:00:00||AKTİFBANK|10.40.25.131|||110000438458|103
17.10.2018 10:00:00||AKTİFBANK|10.40.25.131|||110000438458|83
17.10.2018 10:00:00||AKTİFBANK|10.40.25.131|||110000438458|80
17.10.2018 10:00:00||AKTİFBANK|10.40.25.131|||110000438458|20
17.10.2018 10:00:00||AKTİFBANK|10.40.25.131|||110000438458|120
17.10.2018 10:00:00||AKTİFBANK|10.40.25.132|||110000438458|63
17.10.2018 10:00:00||AKTİFBANK|10.40.25.132|||110000438458|72
17.10.2018 10:00:00||AKTİFBANK|10.40.25.132|||110000438458|80
17.10.2018 10:00:00||AKTİFBANK|10.40.25.132|||110000438458|225
17.10.2018 10:00:00||AKTİFBANK|10.40.25.132|||110000438458|58
17.10.2018 10:00:00||AKTİFBANK|10.40.25.143|||110000438458|310
17.10.2018 10:00:00||AKTİFBANK|10.40.25.144|||110000438458|80
17.10.2018 10:00:00||AKTİFBANK|10.40.25.144|||110000438458|50
17.10.2018 10:00:00||AKTİFBANK|10.40.25.144|||110000438458|20
17.10.2018 10:00:00||AKTİFBANK|10.40.25.154|||110000438458|10
17.10.2018 10:00:00||AKTİFBANK|10.40.25.154|||110000438458|10
17.10.2018 10:00:00||AKTİFBANK|10.40.25.154|||110000438458|10
17.10.2018 10:00:00||AKTİFBANK|10.40.25.157|||110000438458|70
17.10.2018 10:00:00||AKTİFBANK|10.40.25.157|||110000438458|70
17.10.2018 10:00:00||AKTİFBANK|10.40.25.157|||110000438458|70
17.10.2018 10:00:00||AKTİFBANK|10.40.25.157|||110000438458|83
17.10.2018 10:00:00||AKTİFBANK|10.40.25.157|||110000438458|45
17.10.2018 10:00:00||AKTİFBANK|10.40.25.159|||110000438458|60
17.10.2018 10:00:00||AKTİFBANK|10.40.25.159|||110000438458|10
17.10.2018 10:00:00||AKTİFBANK|10.40.25.159|||110000438458|90
17.10.2018 10:00:00||AKTİFBANK|10.40.25.158|||110000438458|77
17.10.2018 10:00:00||AKTİFBANK|10.40.25.158|||110000438458|47
17.10.2018 10:00:00||AKTİFBANK|10.40.25.158|||110000438458|108
17.10.2018 10:00:00||AKTİFBANK|10.40.25.158|||110000438458|52
17.10.2018 10:00:00||AKTİFBANK|10.40.25.160|||110000438458|90
17.10.2018 10:00:00||AKTİFBANK|10.40.25.161|||110000438458|80
17.10.2018 10:00:00||AKTİFBANK|10.40.25.161|||110000438458|70
17.10.2018 10:00:00||AKTİFBANK|10.40.25.161|||110000438458|40
17.10.2018 10:00:00||AKTİFBANK|10.40.25.161|||110000438458|30
17.10.2018 10:00:00||AKTİFBANK|10.40.25.161|||110000438458|20
17.10.2018 10:00:00||AKTİFBANK|10.40.25.161|||110000438458|52
17.10.2018 10:00:00||AKTİFBANK|10.40.25.145|||110000438458|90
17.10.2018 10:00:00||AKTİFBANK|10.40.25.145|||110000438458|60
17.10.2018 10:00:00||AKTİFBANK|10.40.25.145|||110000438458|60
17.10.2018 10:00:00||AKTİFBANK|10.40.25.145|||110000438458|30
17.10.2018 10:00:00||AKTİFBANK|10.40.25.145|||110000438458|50
17.10.2018 10:00:00||AKTİFBANK|10.40.25.147|||110000438458|90
17.10.2018 10:00:00||AKTİFBANK|10.40.25.162|||110000438458|30
17.10.2018 10:00:00||AKTİFBANK|10.40.25.162|||110000438458|30
17.10.2018 10:00:00||AKTİFBANK|10.40.25.162|||110000438458|60
17.10.2018 10:00:00||AKTİFBANK|10.40.25.164|||110000438458|60
17.10.2018 10:00:00||AKTİFBANK|10.40.25.164|||110000438458|280
17.10.2018 10:00:00||AKTİFBANK|10.40.25.164|||110000438458|50
17.10.2018 10:00:00||AKTİFBANK|10.40.25.164|||110000438458|260
17.10.2018 10:00:00||AKTİFBANK|10.40.25.164|||110000438458|270
17.10.2018 10:00:00||AKTİFBANK|10.40.25.165|||110000438458|110
17.10.2018 10:00:00||AKTİFBANK|10.40.25.165|||110000438458|70
17.10.2018 10:00:00||AKTİFBANK|10.40.25.165|||110000438458|80
17.10.2018 10:00:00||AKTİFBANK|10.40.25.165|||110000438458|103
17.10.2018 10:00:00||AKTİFBANK|10.40.25.166|||110000438458|90
17.10.2018 10:00:00||AKTİFBANK|10.40.25.166|||110000438458|10
17.10.2018 10:00:00||AKTİFBANK|10.40.25.166|||110000438458|10
17.10.2018 10:00:00||AKTİFBANK|10.40.25.166|||110000438458|10
17.10.2018 10:00:00||AKTİFBANK|10.40.25.166|||110000438458|40
17.10.2018 10:00:00||AKTİFBANK|10.40.25.148|||110000438458|130
17.10.2018 10:00:00||AKTİFBANK|10.40.25.148|||110000438458|50
17.10.2018 10:00:00||AKTİFBANK|10.40.25.148|||110000438458|100
17.10.2018 10:00:00||AKTİFBANK|10.40.25.148|||110000438458|130
17.10.2018 10:00:00||AKTİFBANK|10.40.25.148|||110000438458|90
17.10.2018 10:00:00||AKTİFBANK|10.40.25.148|||110000438458|80
17.10.2018 10:00:00||AKTİFBANK|10.40.25.148|||110000438458|70
17.10.2018 10:00:00||AKTİFBANK|10.40.25.148|||110000438458|50
17.10.2018 10:00:00||AKTİFBANK|10.40.25.148|||110000438458|80
17.10.2018 10:00:00||AKTİFBANK|10.40.25.148|||110000438458|40
17.10.2018 10:00:00||AKTİFBANK|10.40.25.148|||110000438458|100
17.10.2018 10:00:00||AKTİFBANK|10.40.25.148|||110000438458|60
17.10.2018 10:00:00||AKTİFBANK|10.40.25.155|||110000438458|70
17.10.2018 10:00:00||AKTİFBANK|10.40.25.155|||110000438458|90
17.10.2018 10:00:00||AKTİFBANK|10.40.25.155|||110000438458|110
17.10.2018 10:00:00||AKTİFBANK|10.40.25.155|||110000438458|120
17.10.2018 10:00:00||AKTİFBANK|10.40.25.155|||110000438458|110
17.10.2018 10:00:00||AKTİFBANK|10.40.25.156|||110000438458|20
17.10.2018 10:00:00||AKTİFBANK|10.40.25.156|||110000438458|28
17.10.2018 10:00:00||AKTİFBANK|10.40.25.139|||110000438458|70
17.10.2018 10:00:00||AKTİFBANK|10.40.25.139|||110000438458|80
17.10.2018 10:00:00||AKTİFBANK|10.40.25.150|||110000438458|523
17.10.2018 10:00:00||AKTİFBANK|10.40.25.129|||110000438458|63
17.10.2018 10:00:00||AKTİFBANK|10.40.25.129|||110000438458|88
17.10.2018 10:00:00||AKTİFBANK|10.40.25.129|||110000438458|140
17.10.2018 10:00:00||AKTİFBANK|10.40.25.130|||110000438458|67
17.10.2018 10:00:00||AKTİFBANK|10.40.25.130|||110000438458|122
17.10.2018 10:00:00||AKTİFBANK|10.40.25.130|||110000438458|100
17.10.2018 10:00:00||AKTİFBANK|10.40.25.131|||110000438458|40
17.10.2018 10:00:00||AKTİFBANK|10.40.25.143|||110000438458|60
17.10.2018 10:00:00||AKTİFBANK|10.40.25.143|||110000438458|245
17.10.2018 10:00:00||AKTİFBANK|10.40.25.143|||110000438458|258
17.10.2018 10:00:00||AKTİFBANK|10.40.25.158|||110000438458|102
17.10.2018 10:00:00||AKTİFBANK|10.40.25.160|||110000438458|112
17.10.2018 10:00:00||AKTİFBANK|10.40.25.162|||110000438458|30
17.10.2018 10:00:00||AKTİFBANK|10.40.25.162|||110000438458|40
17.10.2018 10:00:00||AKTİFBANK|10.40.24.140|||110000438458|160
17.10.2018 10:00:00||AKTİFBANK|10.40.24.140|||110000438458|80
17.10.2018 10:00:00||AKTİFBANK|10.40.24.140|||110000438458|40
17.10.2018 10:00:00||AKTİFBANK|10.40.24.140|||110000438458|30
17.10.2018 10:00:00||AKTİFBANK|10.40.24.140|||110000438458|28
17.10.2018 10:00:00||AKTİFBANK|10.40.24.140|||110000438458|30
17.10.2018 10:00:00||AKTİFBANK|10.40.24.149|||110000438458|80
17.10.2018 10:00:00||AKTİFBANK|10.40.24.149|||110000438458|120
17.10.2018 10:00:00||AKTİFBANK|10.40.24.149|||110000438458|93
17.10.2018 10:00:00||AKTİFBANK|10.40.24.149|||110000438458|73
17.10.2018 10:00:00||AKTİFBANK|10.40.24.149|||110000438458|52
17.10.2018 10:00:00||AKTİFBANK|10.40.24.149|||110000438458|140
17.10.2018 10:00:00||AKTİFBANK|10.40.24.149|||110000438458|90
17.10.2018 10:00:00||AKTİFBANK|10.40.24.149|||110000438458|90
17.10.2018 10:00:00||AKTİFBANK|10.40.24.149|||110000438458|100
17.10.2018 10:00:00||AKTİFBANK|10.40.24.149|||110000438458|80
17.10.2018 10:00:00||AKTİFBANK|10.40.24.133|||110000438458|140
17.10.2018 10:00:00||AKTİFBANK|10.40.24.133|||110000438458|282
17.10.2018 10:00:00||AKTİFBANK|10.40.24.133|||110000438458|125
17.10.2018 10:00:00||AKTİFBANK|10.40.24.133|||110000438458|90
17.10.2018 10:00:00||AKTİFBANK|10.40.24.138|||110000438458|117
17.10.2018 10:00:00||AKTİFBANK|10.40.24.138|||110000438458|138
17.10.2018 10:00:00||AKTİFBANK|10.40.24.138|||110000438458|115
17.10.2018 10:00:00||AKTİFBANK|10.40.24.138|||110000438458|30
17.10.2018 10:00:00||AKTİFBANK|10.40.24.138|||110000438458|50
17.10.2018 10:00:00||AKTİFBANK|10.40.24.139|||110000438458|160
17.10.2018 10:00:00||AKTİFBANK|10.40.24.139|||110000438458|90
17.10.2018 10:00:00||AKTİFBANK|10.40.24.139|||110000438458|122
17.10.2018 10:00:00||AKTİFBANK|10.40.24.141|||110000438458|200
17.10.2018 10:00:00||AKTİFBANK|10.40.24.141|||110000438458|100
17.10.2018 10:00:00||AKTİFBANK|10.40.24.141|||110000438458|100
17.10.2018 10:00:00||AKTİFBANK|10.40.24.141|||110000438458|52
17.10.2018 10:00:00||AKTİFBANK|10.40.24.141|||110000438458|80
17.10.2018 10:00:00||AKTİFBANK|10.40.25.152|||110000438458|118
17.10.2018 10:00:00||AKTİFBANK|10.40.25.152|||110000438458|48
17.10.2018 10:00:00||AKTİFBANK|10.40.25.152|||110000438458|122
17.10.2018 10:00:00||AKTİFBANK|10.40.25.152|||110000438458|75
17.10.2018 10:00:00||AKTİFBANK|10.40.25.152|||110000438458|93
17.10.2018 10:00:00||AKTİFBANK|10.40.25.152|||110000438458|22
17.10.2018 10:00:00||AKTİFBANK|10.40.25.152|||110000438458|57
17.10.2018 10:00:00||AKTİFBANK|10.40.25.152|||110000438458|90
17.10.2018 10:00:00||AKTİFBANK|10.40.25.152|||110000438458|30
17.10.2018 10:00:00||AKTİFBANK|10.40.25.152|||110000438458|80
17.10.2018 10:00:00||AKTİFBANK|10.40.25.152|||110000438458|30
17.10.2018 10:00:00||AKTİFBANK|10.40.24.150|||110000438458|565
17.10.2018 10:00:00||AKTİFBANK|10.40.24.151|||110000438458|527
17.10.2018 10:00:00||AKTİFBANK|10.40.24.151|||110000438458|532
17.10.2018 10:00:00||AKTİFBANK|10.40.24.128|||110000438458|60
17.10.2018 10:00:00||AKTİFBANK|10.40.24.128|||110000438458|70
17.10.2018 10:00:00||AKTİFBANK|10.40.24.128|||110000438458|98
17.10.2018 10:00:00||AKTİFBANK|10.40.24.128|||110000438458|40
17.10.2018 10:00:00||AKTİFBANK|10.40.24.128|||110000438458|70
17.10.2018 10:00:00||AKTİFBANK|10.40.24.128|||110000438458|45
17.10.2018 10:00:00||AKTİFBANK|10.40.24.129|||110000438458|100
17.10.2018 10:00:00||AKTİFBANK|10.40.24.129|||110000438458|70
17.10.2018 10:00:00||AKTİFBANK|10.40.24.129|||110000438458|110
17.10.2018 10:00:00||AKTİFBANK|10.40.24.129|||110000438458|120
17.10.2018 10:00:00||AKTİFBANK|10.40.24.129|||110000438458|40
17.10.2018 10:00:00||AKTİFBANK|10.40.24.129|||110000438458|70
17.10.2018 10:00:00||AKTİFBANK|10.40.24.129|||110000438458|70
17.10.2018 10:00:00||AKTİFBANK|10.40.24.129|||110000438458|90
17.10.2018 10:00:00||AKTİFBANK|10.40.24.129|||110000438458|80
17.10.2018 10:00:00||AKTİFBANK|10.40.24.129|||110000438458|140
17.10.2018 10:00:00||AKTİFBANK|10.40.24.130|||110000438458|50
17.10.2018 10:00:00||AKTİFBANK|10.40.24.130|||110000438458|40
17.10.2018 10:00:00||AKTİFBANK|10.40.24.130|||110000438458|70
17.10.2018 10:00:00||AKTİFBANK|10.40.24.130|||110000438458|40
17.10.2018 10:00:00||AKTİFBANK|10.40.24.130|||110000438458|60
17.10.2018 10:00:00||AKTİFBANK|10.40.24.130|||110000438458|73
17.10.2018 10:00:00||AKTİFBANK|10.40.24.130|||110000438458|85
17.10.2018 10:00:00||AKTİFBANK|10.40.24.130|||110000438458|33
17.10.2018 10:00:00||AKTİFBANK|10.40.24.130|||110000438458|130
17.10.2018 10:00:00||AKTİFBANK|10.40.24.130|||110000438458|110
17.10.2018 10:00:00||AKTİFBANK|10.40.24.131|||110000438458|87
17.10.2018 10:00:00||AKTİFBANK|10.40.24.131|||110000438458|90
17.10.2018 10:00:00||AKTİFBANK|10.40.24.131|||110000438458|110
17.10.2018 10:00:00||AKTİFBANK|10.40.24.131|||110000438458|112
17.10.2018 10:00:00||AKTİFBANK|10.40.24.131|||110000438458|23
17.10.2018 10:00:00||AKTİFBANK|10.40.24.131|||110000438458|160
17.10.2018 10:00:00||AKTİFBANK|10.40.24.131|||110000438458|60
17.10.2018 10:00:00||AKTİFBANK|10.40.24.131|||110000438458|110
17.10.2018 10:00:00||AKTİFBANK|10.40.24.132|||110000438458|33
17.10.2018 10:00:00||AKTİFBANK|10.40.24.132|||110000438458|92
17.10.2018 10:00:00||AKTİFBANK|10.40.24.132|||110000438458|53
17.10.2018 10:00:00||AKTİFBANK|10.40.24.132|||110000438458|255
17.10.2018 10:00:00||AKTİFBANK|10.40.24.132|||110000438458|65
17.10.2018 10:00:00||AKTİFBANK|10.40.24.143|||110000438458|62
17.10.2018 10:00:00||AKTİFBANK|10.40.24.143|||110000438458|270
17.10.2018 10:00:00||AKTİFBANK|10.40.24.143|||110000438458|310
17.10.2018 10:00:00||AKTİFBANK|10.40.24.143|||110000438458|210
17.10.2018 10:00:00||AKTİFBANK|10.40.24.144|||110000438458|70
17.10.2018 10:00:00||AKTİFBANK|10.40.24.144|||110000438458|108
17.10.2018 10:00:00||AKTİFBANK|10.40.24.144|||110000438458|130
17.10.2018 10:00:00||AKTİFBANK|10.40.24.148|||110000438458|60
17.10.2018 10:00:00||AKTİFBANK|10.40.24.148|||110000438458|170
17.10.2018 10:00:00||AKTİFBANK|10.40.24.148|||110000438458|80
17.10.2018 10:00:00||AKTİFBANK|10.40.24.148|||110000438458|110
17.10.2018 10:00:00||AKTİFBANK|10.40.24.148|||110000438458|80
17.10.2018 10:00:00||AKTİFBANK|10.40.24.148|||110000438458|82
17.10.2018 10:00:00||AKTİFBANK|10.40.24.148|||110000438458|93
17.10.2018 10:00:00||AKTİFBANK|10.40.24.148|||110000438458|100
17.10.2018 10:00:00||AKTİFBANK|10.40.24.148|||110000438458|87
17.10.2018 10:00:00||AKTİFBANK|10.40.24.148|||110000438458|68
17.10.2018 10:00:00||AKTİFBANK|10.40.24.148|||110000438458|32
17.10.2018 10:00:00||AKTİFBANK|10.40.24.148|||110000438458|73
17.10.2018 10:00:00||AKTİFBANK|10.40.24.153|||110000438458|10
17.10.2018 10:00:00||AKTİFBANK|10.40.24.153|||110000438458|93
17.10.2018 10:00:00||AKTİFBANK|10.40.24.153|||110000438458|73
17.10.2018 10:00:00||AKTİFBANK|10.40.24.153|||110000438458|75
17.10.2018 10:00:00||AKTİFBANK|10.40.24.157|||110000438458|30
17.10.2018 10:00:00||AKTİFBANK|10.40.24.157|||110000438458|78
17.10.2018 10:00:00||AKTİFBANK|10.40.24.157|||110000438458|70
17.10.2018 10:00:00||AKTİFBANK|10.40.24.157|||110000438458|47
17.10.2018 10:00:00||AKTİFBANK|10.40.24.157|||110000438458|82
17.10.2018 10:00:00||AKTİFBANK|10.40.24.157|||110000438458|47
17.10.2018 10:00:00||AKTİFBANK|10.40.24.158|||110000438458|80
17.10.2018 10:00:00||AKTİFBANK|10.40.24.158|||110000438458|110
17.10.2018 10:00:00||AKTİFBANK|10.40.24.159|||110000438458|132
17.10.2018 10:00:00||AKTİFBANK|10.40.24.159|||110000438458|53
17.10.2018 10:00:00||AKTİFBANK|10.40.24.159|||110000438458|183
17.10.2018 10:00:00||AKTİFBANK|10.40.24.160|||110000438458|50
17.10.2018 10:00:00||AKTİFBANK|10.40.24.160|||110000438458|90
17.10.2018 10:00:00||AKTİFBANK|10.40.24.160|||110000438458|105
17.10.2018 10:00:00||AKTİFBANK|10.40.24.161|||110000438458|202
17.10.2018 10:00:00||AKTİFBANK|10.40.24.161|||110000438458|80
17.10.2018 10:00:00||AKTİFBANK|10.40.24.161|||110000438458|40
17.10.2018 10:00:00||AKTİFBANK|10.40.24.161|||110000438458|30
17.10.2018 10:00:00||AKTİFBANK|10.40.24.161|||110000438458|30
17.10.2018 10:00:00||AKTİFBANK|10.40.24.161|||110000438458|20
17.10.2018 10:00:00||AKTİFBANK|10.40.24.161|||110000438458|90
17.10.2018 10:00:00||AKTİFBANK|10.40.24.145|||110000438458|30
17.10.2018 10:00:00||AKTİFBANK|10.40.24.145|||110000438458|70
17.10.2018 10:00:00||AKTİFBANK|10.40.24.145|||110000438458|60
17.10.2018 10:00:00||AKTİFBANK|10.40.24.147|||110000438458|90
17.10.2018 10:00:00||AKTİFBANK|10.40.24.162|||110000438458|40
17.10.2018 10:00:00||AKTİFBANK|10.40.24.162|||110000438458|40
17.10.2018 10:00:00||AKTİFBANK|10.40.24.162|||110000438458|120
17.10.2018 10:00:00||AKTİFBANK|10.40.24.162|||110000438458|10
17.10.2018 10:00:00||AKTİFBANK|10.40.24.162|||110000438458|48
17.10.2018 10:00:00||AKTİFBANK|10.40.24.163|||110000438458|30
17.10.2018 10:00:00||AKTİFBANK|10.40.24.163|||110000438458|80
17.10.2018 10:00:00||AKTİFBANK|10.40.24.164|||110000438458|60
17.10.2018 10:00:00||AKTİFBANK|10.40.24.164|||110000438458|330
17.10.2018 10:00:00||AKTİFBANK|10.40.24.164|||110000438458|220
17.10.2018 10:00:00||AKTİFBANK|10.40.24.165|||110000438458|77
17.10.2018 10:00:00||AKTİFBANK|10.40.24.165|||110000438458|80
17.10.2018 10:00:00||AKTİFBANK|10.40.24.165|||110000438458|50
17.10.2018 10:00:00||AKTİFBANK|10.40.24.165|||110000438458|127
17.10.2018 10:00:00||AKTİFBANK|10.40.24.166|||110000438458|80
17.10.2018 10:00:00||AKTİFBANK|10.40.24.166|||110000438458|90
17.10.2018 10:00:00||AKTİFBANK|10.40.24.166|||110000438458|10
17.10.2018 10:00:00||AKTİFBANK|10.40.25.168|||110000438458|90
17.10.2018 10:00:00||AKTİFBANK|10.40.25.168|||110000438458|70
17.10.2018 10:00:00||AKTİFBANK|10.40.25.168|||110000438458|50
17.10.2018 10:00:00||AKTİFBANK|10.40.25.168|||110000438458|40
17.10.2018 10:00:00||AKTİFBANK|10.40.25.168|||110000438458|60
17.10.2018 10:00:00||AKTİFBANK|10.40.24.168|||110000438458|90
17.10.2018 10:00:00||AKTİFBANK|10.40.24.168|||110000438458|80
17.10.2018 10:00:00||AKTİFBANK|10.40.24.168|||110000438458|70
17.10.2018 10:00:00||AKTİFBANK|10.40.24.168|||110000438458|70
17.10.2018 10:00:00||AKTİFBANK|10.40.24.168|||110000438458|30
17.10.2018 10:00:00||AKTİFBANK|10.40.24.154|||110000438458|70
17.10.2018 10:00:00||AKTİFBANK|10.40.24.154|||110000438458|20
17.10.2018 10:00:00||AKTİFBANK|10.40.24.154|||110000438458|10
17.10.2018 10:00:00||AKTİFBANK|10.40.24.154|||110000438458|10
17.10.2018 10:00:00||AKTİFBANK|10.40.24.154|||110000438458|10
17.10.2018 10:00:00||AKTİFBANK|10.40.24.154|||110000438458|10
17.10.2018 10:00:00||AKTİFBANK|10.40.24.155|||110000438458|90
17.10.2018 10:00:00||AKTİFBANK|10.40.24.155|||110000438458|100
17.10.2018 10:00:00||AKTİFBANK|10.40.24.155|||110000438458|130
17.10.2018 10:00:00||AKTİFBANK|10.40.24.155|||110000438458|80
17.10.2018 10:00:00||AKTİFBANK|10.40.24.155|||110000438458|113
17.10.2018 10:00:00||AKTİFBANK|10.40.24.155|||110000438458|102
17.10.2018 10:00:00||AKTİFBANK|10.40.25.169|||110000438458|87
17.10.2018 10:00:00||AKTİFBANK|10.40.25.169|||110000438458|100
17.10.2018 10:00:00||AKTİFBANK|10.40.25.169|||110000438458|72
17.10.2018 10:00:00||AKTİFBANK|10.40.25.169|||110000438458|92
17.10.2018 10:00:00||AKTİFBANK|10.40.24.169|||110000438458|75
17.10.2018 10:00:00||AKTİFBANK|10.40.24.169|||110000438458|95
17.10.2018 10:00:00||AKTİFBANK|10.40.24.169|||110000438458|70
17.10.2018 10:00:00||AKTİFBANK|10.40.24.169|||110000438458|80
17.10.2018 10:00:00||AKTİFBANK|10.40.25.170|||110000438458|30
17.10.2018 10:00:00||AKTİFBANK|10.40.25.170|||110000438458|30
17.10.2018 10:00:00||AKTİFBANK|10.40.25.170|||110000438458|200
17.10.2018 10:00:00||AKTİFBANK|10.40.25.170|||110000438458|100
17.10.2018 10:00:00||AKTİFBANK|10.40.25.170|||110000438458|80
17.10.2018 10:00:00||AKTİFBANK|10.40.25.170|||110000438458|120
17.10.2018 10:00:00||AKTİFBANK|10.40.24.170|||110000438458|60
17.10.2018 10:00:00||AKTİFBANK|10.40.24.170|||110000438458|60
17.10.2018 10:00:00||AKTİFBANK|10.40.24.170|||110000438458|357
17.10.2018 10:00:00||AKTİFBANK|10.40.24.170|||110000438458|80
17.10.2018 10:00:00||AKTİFBANK|10.40.24.170|||110000438458|105
17.10.2018 10:00:00||AKTİFBANK|10.40.24.170|||110000438458|80
17.10.2018 10:00:00||AKTİFBANK|10.40.25.178|||110000438458|590
17.10.2018 10:00:00||AKTİFBANK|10.40.25.178|||110000438458|560
17.10.2018 10:00:00||AKTİFBANK|10.40.25.178|||110000438458|550
17.10.2018 10:00:00||AKTİFBANK|10.40.24.178|||110000438458|567
17.10.2018 10:00:00||AKTİFBANK|10.40.24.178|||110000438458|553
17.10.2018 10:00:00||AKTİFBANK|10.40.24.178|||110000438458|543
17.10.2018 10:00:00||AKTİFBANK|10.40.25.179|||110000438458|397
17.10.2018 10:00:00||AKTİFBANK|10.40.25.179|||110000438458|358
17.10.2018 10:00:00||AKTİFBANK|10.40.25.179|||110000438458|350
17.10.2018 10:00:00||AKTİFBANK|10.40.24.179|||110000438458|327
17.10.2018 10:00:00||AKTİFBANK|10.40.24.179|||110000438458|318
17.10.2018 10:00:00||AKTİFBANK|10.40.24.179|||110000438458|322
17.10.2018 10:00:00||AKTİFBANK|10.40.24.142|||110000438458|40
17.10.2018 10:00:00||AKTİFBANK|10.40.24.156|||110000438458|50
17.10.2018 10:00:00||AKTİFBANK|10.40.24.156|||110000438458|50
17.10.2018 10:00:00||AKTİFBANK|10.40.25.186|||110000438458|90
17.10.2018 10:00:00||AKTİFBANK|10.40.25.186|||110000438458|20
17.10.2018 10:00:00||AKTİFBANK|10.40.25.186|||110000438458|70
17.10.2018 10:00:00||AKTİFBANK|10.40.24.186|||110000438458|90
17.10.2018 10:00:00||AKTİFBANK|10.40.24.186|||110000438458|30
17.10.2018 10:00:00||AKTİFBANK|10.40.24.186|||110000438458|57
17.10.2018 10:00:00||AKTİFBANK|10.40.24.186|||110000438458|40
17.10.2018 10:00:00||AKTİFBANK|10.40.24.152|||110000438458|10
17.10.2018 10:00:00||AKTİFBANK|10.40.24.152|||110000438458|48
17.10.2018 10:00:00||AKTİFBANK|10.40.24.152|||110000438458|105
17.10.2018 10:00:00||AKTİFBANK|10.40.24.152|||110000438458|103
17.10.2018 10:00:00||AKTİFBANK|10.40.24.152|||110000438458|95
17.10.2018 10:00:00||AKTİFBANK|10.40.24.152|||110000438458|102
17.10.2018 10:00:00||AKTİFBANK|10.40.24.152|||110000438458|358
17.10.2018 10:00:00||AKTİFBANK|10.40.24.152|||110000438458|77
17.10.2018 10:00:00||AKTİFBANK|10.40.24.152|||110000438458|90
17.10.2018 10:00:00||AKTİFBANK|10.40.24.152|||110000438458|30
17.10.2018 10:00:00||AKTİFBANK|10.40.24.152|||110000438458|70
17.10.2018 10:00:00||AKTİFBANK|10.40.24.152|||110000438458|30
17.10.2018 10:00:00||AKTİFBANK|10.40.24.133|||110000438458|88
17.10.2018 10:00:00||AKTİFBANK|10.40.24.138|||110000438458|120
17.10.2018 10:00:00||AKTİFBANK|10.40.24.139|||110000438458|30
17.10.2018 10:00:00||AKTİFBANK|10.40.24.149|||110000438458|110
17.10.2018 10:00:00||AKTİFBANK|10.40.24.150|||110000438458|553
17.10.2018 10:00:00||AKTİFBANK|10.40.24.145|||110000438458|60
17.10.2018 10:00:00||AKTİFBANK|10.40.24.164|||110000438458|223
17.10.2018 10:00:00||AKTİFBANK|10.40.25.133|||110000438458|70
17.10.2018 10:00:00||AKTİFBANK|10.40.24.145|||110000438458|90
17.10.2018 10:00:00||BARİKAT İNTERNET GÜVENLİĞİ|10.40.25.201|||110000479736|127
17.10.2018 10:00:00||BARİKAT İNTERNET GÜVENLİĞİ|10.40.25.201|||110000479736|102
17.10.2018 10:00:00||BARİKAT İNTERNET GÜVENLİĞİ|10.40.24.201|||110000479736|135
17.10.2018 10:00:00||BARİKAT İNTERNET GÜVENLİĞİ|10.40.24.201|||110000479736|93
17.10.2018 10:00:00||BOYNER|10.40.27.100|||101367941673|51
17.10.2018 10:00:00||BOYNER|10.40.27.101|||101367941673|165
17.10.2018 10:00:00||BOYNER|10.40.26.101|||101367941673|172
17.10.2018 10:00:00||BOYNER|10.40.26.100|||101367941673|56
17.10.2018 10:00:00||BOYNER|10.40.27.94|||101367941673|210
17.10.2018 10:00:00||BOYNER|10.40.27.94|||101367941673|90
17.10.2018 10:00:00||BOYNER|10.40.27.94|||101367941673|90
17.10.2018 10:00:00||BOYNER|10.40.27.94|||101367941673|100
17.10.2018 10:00:00||BOYNER|10.40.26.94|||101367941673|90
17.10.2018 10:00:00||BOYNER|10.40.26.94|||101367941673|80
17.10.2018 10:00:00||BOYNER|10.40.26.94|||101367941673|80
17.10.2018 10:00:00||BOYNER|10.40.27.95|||101367941673|133
17.10.2018 10:00:00||BOYNER|10.40.27.95|||101367941673|130
17.10.2018 10:00:00||BOYNER|10.40.27.95|||101367941673|232
17.10.2018 10:00:00||BOYNER|10.40.26.95|||101367941673|123
17.10.2018 10:00:00||BOYNER|10.40.26.95|||101367941673|197
17.10.2018 10:00:00||BOYNER|10.40.26.95|||101367941673|140
17.10.2018 10:00:00||BOYNER|10.40.27.96|||101367941673|60
17.10.2018 10:00:00||BOYNER|10.40.27.96|||101367941673|53
17.10.2018 10:00:00||BOYNER|10.40.27.96|||101367941673|50
17.10.2018 10:00:00||BOYNER|10.40.27.96|||101367941673|40
17.10.2018 10:00:00||BOYNER|10.40.27.96|||101367941673|37
17.10.2018 10:00:00||BOYNER|10.40.27.96|||101367941673|152
17.10.2018 10:00:00||BOYNER|10.40.27.96|||101367941673|153
17.10.2018 10:00:00||BOYNER|10.40.27.96|||101367941673|178
17.10.2018 10:00:00||BOYNER|10.40.27.96|||101367941673|167
17.10.2018 10:00:00||BOYNER|10.40.26.96|||101367941673|30
17.10.2018 10:00:00||BOYNER|10.40.26.96|||101367941673|43
17.10.2018 10:00:00||BOYNER|10.40.26.96|||101367941673|30
17.10.2018 10:00:00||BOYNER|10.40.26.96|||101367941673|40
17.10.2018 10:00:00||BOYNER|10.40.26.96|||101367941673|42
17.10.2018 10:00:00||BOYNER|10.40.26.96|||101367941673|50
17.10.2018 10:00:00||BOYNER|10.40.26.96|||101367941673|192
17.10.2018 10:00:00||BOYNER|10.40.26.96|||101367941673|200
17.10.2018 10:00:00||BOYNER|10.40.26.96|||101367941673|167
17.10.2018 10:00:00||BOYNER|10.40.26.96|||101367941673|178
17.10.2018 10:00:00||BOYNER|10.40.27.97|||101367941673|60
17.10.2018 10:00:00||BOYNER|10.40.27.97|||101367941673|648
17.10.2018 10:00:00||BOYNER|10.40.27.97|||101367941673|652
17.10.2018 10:00:00||BOYNER|10.40.27.97|||101367941673|685
17.10.2018 10:00:00||BOYNER|10.40.27.97|||101367941673|40
17.10.2018 10:00:00||BOYNER|10.40.27.97|||101367941673|32
17.10.2018 10:00:00||BOYNER|10.40.27.97|||101367941673|50
17.10.2018 10:00:00||BOYNER|10.40.27.97|||101367941673|30
17.10.2018 10:00:00||BOYNER|10.40.27.97|||101367941673|182
17.10.2018 10:00:00||BOYNER|10.40.27.97|||101367941673|172
17.10.2018 10:00:00||BOYNER|10.40.27.97|||101367941673|185
17.10.2018 10:00:00||BOYNER|10.40.27.97|||101367941673|192
17.10.2018 10:00:00||BOYNER|10.40.26.97|||101367941673|30
17.10.2018 10:00:00||BOYNER|10.40.26.97|||101367941673|648
17.10.2018 10:00:00||BOYNER|10.40.26.97|||101367941673|652
17.10.2018 10:00:00||BOYNER|10.40.26.97|||101367941673|653
17.10.2018 10:00:00||BOYNER|10.40.26.97|||101367941673|30
17.10.2018 10:00:00||BOYNER|10.40.26.97|||101367941673|40
17.10.2018 10:00:00||BOYNER|10.40.26.97|||101367941673|50
17.10.2018 10:00:00||BOYNER|10.40.26.97|||101367941673|60
17.10.2018 10:00:00||BOYNER|10.40.26.97|||101367941673|30
17.10.2018 10:00:00||BOYNER|10.40.26.97|||101367941673|160
17.10.2018 10:00:00||BOYNER|10.40.26.97|||101367941673|177
17.10.2018 10:00:00||BOYNER|10.40.26.97|||101367941673|168
17.10.2018 10:00:00||BOYNER|10.40.26.97|||101367941673|158
17.10.2018 10:00:00||BOYNER|10.40.27.99|||101367941673|142
17.10.2018 10:00:00||BOYNER|10.40.27.99|||101367941673|97
17.10.2018 10:00:00||BOYNER|10.40.27.99|||101367941673|75
17.10.2018 10:00:00||BOYNER|10.40.26.99|||101367941673|13
17.10.2018 10:00:00||BOYNER|10.40.26.99|||101367941673|120
17.10.2018 10:00:00||BOYNER|10.40.26.99|||101367941673|108
17.10.2018 10:00:00||BOYNER|10.40.26.99|||101367941673|72
17.10.2018 10:00:00||ÇALIK HOLDİNG|10.40.25.99|||110000438407|140
17.10.2018 10:00:00||ÇALIK HOLDİNG|10.40.25.118|||110000438407|159
17.10.2018 10:00:00||ÇALIK HOLDİNG|10.40.24.118|||110000438407|43
17.10.2018 10:00:00||ÇALIK HOLDİNG|10.40.25.120|||110000438407|90
17.10.2018 10:00:00||ÇALIK HOLDİNG|10.40.24.95|||110000438407|50
17.10.2018 10:00:00||ÇALIK HOLDİNG|10.40.25.97|||110000438407|80
17.10.2018 10:00:00||ÇALIK HOLDİNG|10.40.25.103|||110000438407|90
17.10.2018 10:00:00||ÇALIK HOLDİNG|10.40.25.120|||110000438407|47
17.10.2018 10:00:00||ÇALIK HOLDİNG|10.40.25.96|||110000438407|70
17.10.2018 10:00:00||ÇALIK HOLDİNG|10.40.25.96|||110000438407|90
17.10.2018 10:00:00||ÇALIK HOLDİNG|10.40.25.96|||110000438407|122
17.10.2018 10:00:00||ÇALIK HOLDİNG|10.40.25.96|||110000438407|90
17.10.2018 10:00:00||ÇALIK HOLDİNG|10.40.25.115|||110000438407|162
17.10.2018 10:00:00||ÇALIK HOLDİNG|10.40.25.115|||110000438407|70
17.10.2018 10:00:00||ÇALIK HOLDİNG|10.40.25.95|||110000438407|98
17.10.2018 10:00:00||ÇALIK HOLDİNG|10.40.25.96|||110000438407|90
17.10.2018 10:00:00||ÇALIK HOLDİNG|10.40.25.96|||110000438407|100
17.10.2018 10:00:00||ÇALIK HOLDİNG|10.40.25.120|||110000438407|20
17.10.2018 10:00:00||ÇALIK HOLDİNG|10.40.25.95|||110000438407|77
17.10.2018 10:00:00||ÇALIK HOLDİNG|10.40.24.94|||110000438407|213
17.10.2018 10:00:00||ÇALIK HOLDİNG|10.40.25.97|||110000438407|103
17.10.2018 10:00:00||ÇALIK HOLDİNG|10.40.25.120|||110000438407|60
17.10.2018 10:00:00||ÇALIK HOLDİNG|10.40.25.115|||110000438407|80
17.10.2018 10:00:00||ÇALIK HOLDİNG|10.40.25.115|||110000438407|65
17.10.2018 10:00:00||ÇALIK HOLDİNG|10.40.25.115|||110000438407|67
17.10.2018 10:00:00||ÇALIK HOLDİNG|10.40.25.101|||110000438407|50
17.10.2018 10:00:00||ÇALIK HOLDİNG|10.40.25.101|||110000438407|110
17.10.2018 10:00:00||ÇALIK HOLDİNG|10.40.25.101|||110000438407|30
17.10.2018 10:00:00||ÇALIK HOLDİNG|10.40.25.101|||110000438407|10
17.10.2018 10:00:00||ÇALIK HOLDİNG|10.40.25.101|||110000438407|82
17.10.2018 10:00:00||ÇALIK HOLDİNG|10.40.25.101|||110000438407|30
17.10.2018 10:00:00||ÇALIK HOLDİNG|10.40.25.101|||110000438407|40
17.10.2018 10:00:00||ÇALIK HOLDİNG|10.40.25.101|||110000438407|40
17.10.2018 10:00:00||ÇALIK HOLDİNG|10.40.25.101|||110000438407|90
17.10.2018 10:00:00||ÇALIK HOLDİNG|10.40.25.101|||110000438407|90
17.10.2018 10:00:00||ÇALIK HOLDİNG|10.40.25.101|||110000438407|90
17.10.2018 10:00:00||ÇALIK HOLDİNG|10.40.25.94|||110000438407|180
17.10.2018 10:00:00||ÇALIK HOLDİNG|10.40.25.94|||110000438407|180
17.10.2018 10:00:00||ÇALIK HOLDİNG|10.40.25.94|||110000438407|170
17.10.2018 10:00:00||ÇALIK HOLDİNG|10.40.25.94|||110000438407|180
17.10.2018 10:00:00||ÇALIK HOLDİNG|10.40.24.94|||110000438407|210
17.10.2018 10:00:00||ÇALIK HOLDİNG|10.40.24.94|||110000438407|190
17.10.2018 10:00:00||ÇALIK HOLDİNG|10.40.24.94|||110000438407|198
17.10.2018 10:00:00||ÇALIK HOLDİNG|10.40.25.95|||110000438407|20
17.10.2018 10:00:00||ÇALIK HOLDİNG|10.40.25.95|||110000438407|347
17.10.2018 10:00:00||ÇALIK HOLDİNG|10.40.25.95|||110000438407|377
17.10.2018 10:00:00||ÇALIK HOLDİNG|10.40.25.95|||110000438407|40
17.10.2018 10:00:00||ÇALIK HOLDİNG|10.40.24.95|||110000438407|102
17.10.2018 10:00:00||ÇALIK HOLDİNG|10.40.24.95|||110000438407|95
17.10.2018 10:00:00||ÇALIK HOLDİNG|10.40.24.95|||110000438407|397
17.10.2018 10:00:00||ÇALIK HOLDİNG|10.40.24.95|||110000438407|403
17.10.2018 10:00:00||ÇALIK HOLDİNG|10.40.25.96|||110000438407|90
17.10.2018 10:00:00||ÇALIK HOLDİNG|10.40.25.96|||110000438407|92
17.10.2018 10:00:00||ÇALIK HOLDİNG|10.40.25.96|||110000438407|100
17.10.2018 10:00:00||ÇALIK HOLDİNG|10.40.25.96|||110000438407|260
17.10.2018 10:00:00||ÇALIK HOLDİNG|10.40.25.96|||110000438407|260
17.10.2018 10:00:00||ÇALIK HOLDİNG|10.40.25.96|||110000438407|100
17.10.2018 10:00:00||ÇALIK HOLDİNG|10.40.25.96|||110000438407|90
17.10.2018 10:00:00||ÇALIK HOLDİNG|10.40.25.96|||110000438407|93
17.10.2018 10:00:00||ÇALIK HOLDİNG|10.40.25.97|||110000438407|88
17.10.2018 10:00:00||ÇALIK HOLDİNG|10.40.25.97|||110000438407|80
17.10.2018 10:00:00||ÇALIK HOLDİNG|10.40.25.97|||110000438407|302
17.10.2018 10:00:00||ÇALIK HOLDİNG|10.40.25.98|||110000438407|60
17.10.2018 10:00:00||ÇALIK HOLDİNG|10.40.25.98|||110000438407|163
17.10.2018 10:00:00||ÇALIK HOLDİNG|10.40.25.98|||110000438407|160
17.10.2018 10:00:00||ÇALIK HOLDİNG|10.40.25.98|||110000438407|168
17.10.2018 10:00:00||ÇALIK HOLDİNG|10.40.25.98|||110000438407|170
17.10.2018 10:00:00||ÇALIK HOLDİNG|10.40.25.98|||110000438407|65
17.10.2018 10:00:00||ÇALIK HOLDİNG|10.40.25.98|||110000438407|210
17.10.2018 10:00:00||ÇALIK HOLDİNG|10.40.25.98|||110000438407|180
17.10.2018 10:00:00||ÇALIK HOLDİNG|10.40.25.98|||110000438407|170
17.10.2018 10:00:00||ÇALIK HOLDİNG|10.40.25.98|||110000438407|213
17.10.2018 10:00:00||ÇALIK HOLDİNG|10.40.25.98|||110000438407|75
17.10.2018 10:00:00||ÇALIK HOLDİNG|10.40.25.98|||110000438407|300
17.10.2018 10:00:00||ÇALIK HOLDİNG|10.40.24.98|||110000438407|100
17.10.2018 10:00:00||ÇALIK HOLDİNG|10.40.24.98|||110000438407|157
17.10.2018 10:00:00||ÇALIK HOLDİNG|10.40.24.98|||110000438407|200
17.10.2018 10:00:00||ÇALIK HOLDİNG|10.40.24.98|||110000438407|200
17.10.2018 10:00:00||ÇALIK HOLDİNG|10.40.24.98|||110000438407|160
17.10.2018 10:00:00||ÇALIK HOLDİNG|10.40.24.98|||110000438407|32
17.10.2018 10:00:00||ÇALIK HOLDİNG|10.40.24.98|||110000438407|170
17.10.2018 10:00:00||ÇALIK HOLDİNG|10.40.24.98|||110000438407|180
17.10.2018 10:00:00||ÇALIK HOLDİNG|10.40.24.98|||110000438407|170
17.10.2018 10:00:00||ÇALIK HOLDİNG|10.40.24.98|||110000438407|173
17.10.2018 10:00:00||ÇALIK HOLDİNG|10.40.24.98|||110000438407|20
17.10.2018 10:00:00||ÇALIK HOLDİNG|10.40.24.98|||110000438407|273
17.10.2018 10:00:00||ÇALIK HOLDİNG|10.40.25.100|||110000438407|38
17.10.2018 10:00:00||ÇALIK HOLDİNG|10.40.25.100|||110000438407|40
17.10.2018 10:00:00||ÇALIK HOLDİNG|10.40.24.101|||110000438407|60
17.10.2018 10:00:00||ÇALIK HOLDİNG|10.40.24.101|||110000438407|110
17.10.2018 10:00:00||ÇALIK HOLDİNG|10.40.24.101|||110000438407|20
17.10.2018 10:00:00||ÇALIK HOLDİNG|10.40.24.101|||110000438407|20
17.10.2018 10:00:00||ÇALIK HOLDİNG|10.40.24.101|||110000438407|47
17.10.2018 10:00:00||ÇALIK HOLDİNG|10.40.24.101|||110000438407|90
17.10.2018 10:00:00||ÇALIK HOLDİNG|10.40.24.101|||110000438407|10
17.10.2018 10:00:00||ÇALIK HOLDİNG|10.40.24.101|||110000438407|20
17.10.2018 10:00:00||ÇALIK HOLDİNG|10.40.24.101|||110000438407|50
17.10.2018 10:00:00||ÇALIK HOLDİNG|10.40.24.101|||110000438407|30
17.10.2018 10:00:00||ÇALIK HOLDİNG|10.40.24.101|||110000438407|80
17.10.2018 10:00:00||ÇALIK HOLDİNG|10.40.24.101|||110000438407|80
17.10.2018 10:00:00||ÇALIK HOLDİNG|10.40.24.101|||110000438407|100
17.10.2018 10:00:00||ÇALIK HOLDİNG|10.40.25.102|||110000438407|100
17.10.2018 10:00:00||ÇALIK HOLDİNG|10.40.25.102|||110000438407|100
17.10.2018 10:00:00||ÇALIK HOLDİNG|10.40.25.102|||110000438407|150
17.10.2018 10:00:00||ÇALIK HOLDİNG|10.40.24.102|||110000438407|100
17.10.2018 10:00:00||ÇALIK HOLDİNG|10.40.24.102|||110000438407|100
17.10.2018 10:00:00||ÇALIK HOLDİNG|10.40.24.102|||110000438407|140
17.10.2018 10:00:00||ÇALIK HOLDİNG|10.40.25.103|||110000438407|90
17.10.2018 10:00:00||ÇALIK HOLDİNG|10.40.25.103|||110000438407|80
17.10.2018 10:00:00||ÇALIK HOLDİNG|10.40.25.103|||110000438407|20
17.10.2018 10:00:00||ÇALIK HOLDİNG|10.40.25.103|||110000438407|10
17.10.2018 10:00:00||ÇALIK HOLDİNG|10.40.25.115|||110000438407|80
17.10.2018 10:00:00||ÇALIK HOLDİNG|10.40.24.103|||110000438407|100
17.10.2018 10:00:00||ÇALIK HOLDİNG|10.40.24.103|||110000438407|80
17.10.2018 10:00:00||ÇALIK HOLDİNG|10.40.24.103|||110000438407|80
17.10.2018 10:00:00||ÇALIK HOLDİNG|10.40.24.103|||110000438407|10
17.10.2018 10:00:00||ÇALIK HOLDİNG|10.40.25.113|||110000438407|230
17.10.2018 10:00:00||ÇALIK HOLDİNG|10.40.25.113|||110000438407|243
17.10.2018 10:00:00||ÇALIK HOLDİNG|10.40.25.113|||110000438407|202
17.10.2018 10:00:00||ÇALIK HOLDİNG|10.40.25.113|||110000438407|212
17.10.2018 10:00:00||ÇALIK HOLDİNG|10.40.24.113|||110000438407|235
17.10.2018 10:00:00||ÇALIK HOLDİNG|10.40.24.113|||110000438407|235
17.10.2018 10:00:00||ÇALIK HOLDİNG|10.40.24.113|||110000438407|193
17.10.2018 10:00:00||ÇALIK HOLDİNG|10.40.24.113|||110000438407|162
17.10.2018 10:00:00||ÇALIK HOLDİNG|10.40.25.114|||110000438407|188
17.10.2018 10:00:00||ÇALIK HOLDİNG|10.40.25.114|||110000438407|423
17.10.2018 10:00:00||ÇALIK HOLDİNG|10.40.25.114|||110000438407|40
17.10.2018 10:00:00||ÇALIK HOLDİNG|10.40.24.114|||110000438407|20
17.10.2018 10:00:00||ÇALIK HOLDİNG|10.40.24.114|||110000438407|40
17.10.2018 10:00:00||ÇALIK HOLDİNG|10.40.24.114|||110000438407|173
17.10.2018 10:00:00||ÇALIK HOLDİNG|10.40.24.114|||110000438407|387
17.10.2018 10:00:00||ÇALIK HOLDİNG|10.40.24.115|||110000438407|152
17.10.2018 10:00:00||ÇALIK HOLDİNG|10.40.24.115|||110000438407|80
17.10.2018 10:00:00||ÇALIK HOLDİNG|10.40.24.115|||110000438407|88
17.10.2018 10:00:00||ÇALIK HOLDİNG|10.40.24.115|||110000438407|70
17.10.2018 10:00:00||ÇALIK HOLDİNG|10.40.24.115|||110000438407|83
17.10.2018 10:00:00||ÇALIK HOLDİNG|10.40.24.115|||110000438407|70
17.10.2018 10:00:00||ÇALIK HOLDİNG|10.40.25.116|||110000438407|102
17.10.2018 10:00:00||ÇALIK HOLDİNG|10.40.25.116|||110000438407|92
17.10.2018 10:00:00||ÇALIK HOLDİNG|10.40.25.116|||110000438407|295
17.10.2018 10:00:00||ÇALIK HOLDİNG|10.40.24.116|||110000438407|283
17.10.2018 10:00:00||ÇALIK HOLDİNG|10.40.24.116|||110000438407|93
17.10.2018 10:00:00||ÇALIK HOLDİNG|10.40.24.116|||110000438407|98
17.10.2018 10:00:00||ÇALIK HOLDİNG|10.40.25.117|||110000438407|240
17.10.2018 10:00:00||ÇALIK HOLDİNG|10.40.25.117|||110000438407|30
17.10.2018 10:00:00||ÇALIK HOLDİNG|10.40.25.117|||110000438407|25
17.10.2018 10:00:00||ÇALIK HOLDİNG|10.40.25.119|||110000438407|30
17.10.2018 10:00:00||ÇALIK HOLDİNG|10.40.25.119|||110000438407|30
17.10.2018 10:00:00||ÇALIK HOLDİNG|10.40.24.119|||110000438407|150
17.10.2018 10:00:00||ÇALIK HOLDİNG|10.40.24.119|||110000438407|30
17.10.2018 10:00:00||ÇALIK HOLDİNG|10.40.24.119|||110000438407|50
17.10.2018 10:00:00||ÇALIK HOLDİNG|10.40.25.120|||110000438407|107
17.10.2018 10:00:00||ÇALIK HOLDİNG|10.40.25.120|||110000438407|50
17.10.2018 10:00:00||ÇALIK HOLDİNG|10.40.25.120|||110000438407|20
17.10.2018 10:00:00||ÇALIK HOLDİNG|10.40.25.120|||110000438407|20
17.10.2018 10:00:00||ÇALIK HOLDİNG|10.40.25.120|||110000438407|30
17.10.2018 10:00:00||ÇALIK HOLDİNG|10.40.25.120|||110000438407|90
17.10.2018 10:00:00||ÇALIK HOLDİNG|10.40.25.120|||110000438407|90
17.10.2018 10:00:00||ÇALIK HOLDİNG|10.40.24.120|||110000438407|20
17.10.2018 10:00:00||ÇALIK HOLDİNG|10.40.24.120|||110000438407|30
17.10.2018 10:00:00||ÇALIK HOLDİNG|10.40.24.120|||110000438407|110
17.10.2018 10:00:00||ÇALIK HOLDİNG|10.40.24.120|||110000438407|100
17.10.2018 10:00:00||ÇALIK HOLDİNG|10.40.24.120|||110000438407|40
17.10.2018 10:00:00||ÇALIK HOLDİNG|10.40.24.120|||110000438407|80
17.10.2018 10:00:00||ÇALIK HOLDİNG|10.40.24.120|||110000438407|80
17.10.2018 10:00:00||ÇALIK HOLDİNG|10.40.24.120|||110000438407|70
17.10.2018 10:00:00||ÇALIK HOLDİNG|10.40.25.121|||110000438407|90
17.10.2018 10:00:00||ÇALIK HOLDİNG|10.40.25.121|||110000438407|100
17.10.2018 10:00:00||ÇALIK HOLDİNG|10.40.25.121|||110000438407|150
17.10.2018 10:00:00||ÇALIK HOLDİNG|10.40.24.121|||110000438407|100
17.10.2018 10:00:00||ÇALIK HOLDİNG|10.40.24.121|||110000438407|100
17.10.2018 10:00:00||ÇALIK HOLDİNG|10.40.24.121|||110000438407|140
17.10.2018 10:00:00||ÇALIK HOLDİNG|10.40.25.122|||110000438407|90
17.10.2018 10:00:00||ÇALIK HOLDİNG|10.40.25.122|||110000438407|82
17.10.2018 10:00:00||ÇALIK HOLDİNG|10.40.25.122|||110000438407|80
17.10.2018 10:00:00||ÇALIK HOLDİNG|10.40.25.122|||110000438407|30
17.10.2018 10:00:00||ÇALIK HOLDİNG|10.40.25.122|||110000438407|10
17.10.2018 10:00:00||ÇALIK HOLDİNG|10.40.24.122|||110000438407|90
17.10.2018 10:00:00||ÇALIK HOLDİNG|10.40.24.122|||110000438407|80
17.10.2018 10:00:00||ÇALIK HOLDİNG|10.40.24.122|||110000438407|88
17.10.2018 10:00:00||ÇALIK HOLDİNG|10.40.24.117|||110000438407|200
17.10.2018 10:00:00||ÇALIK HOLDİNG|10.40.24.117|||110000438407|30
17.10.2018 10:00:00||ÇALIK HOLDİNG|10.40.24.117|||110000438407|30
17.10.2018 10:00:00||ÇALIK HOLDİNG|10.40.24.97|||110000438407|100
17.10.2018 10:00:00||ÇALIK HOLDİNG|10.40.24.97|||110000438407|90
17.10.2018 10:00:00||ÇALIK HOLDİNG|10.40.24.97|||110000438407|80
17.10.2018 10:00:00||ÇALIK HOLDİNG|10.40.24.97|||110000438407|90
17.10.2018 10:00:00||ÇALIK HOLDİNG|10.40.24.97|||110000438407|318
17.10.2018 10:00:00||ÇALIK HOLDİNG|10.40.24.100|||110000438407|30
17.10.2018 10:00:00||ÇALIK HOLDİNG|10.40.24.100|||110000438407|40
17.10.2018 10:00:00||FIBABANKA|10.40.25.54|||101571767266|329
17.10.2018 10:00:00||FIBABANKA|10.40.27.54|||101571767266|310
17.10.2018 10:00:00||FIBABANKA|10.40.27.55|||101571767266|116
17.10.2018 10:00:00||FIBABANKA|10.40.24.54|||101571767266|315
17.10.2018 10:00:00||FIBABANKA|10.40.25.55|||101571767266|111
17.10.2018 10:00:00||FIBABANKA|10.40.24.55|||101571767266|110
17.10.2018 10:00:00||FIBABANKA|10.40.24.56|||101571767266|194
17.10.2018 10:00:00||FIBABANKA|10.40.25.56|||101571767266|197
17.10.2018 10:00:00||FIBABANKA|10.40.26.55|||101571767266|109
17.10.2018 10:00:00||FIBABANKA|10.40.26.54|||101571767266|317
17.10.2018 10:00:00||FIBABANKA|10.40.25.57|||101571767266|90
17.10.2018 10:00:00||FIBABANKA|10.40.25.57|||101571767266|90
17.10.2018 10:00:00||FIBABANKA|10.40.25.57|||101571767266|90
17.10.2018 10:00:00||FIBABANKA|10.40.26.51|||101571767266|20
17.10.2018 10:00:00||FIBABANKA|10.40.27.52|||101571767266|50
17.10.2018 10:00:00||FIBABANKA|10.40.27.52|||101571767266|60
17.10.2018 10:00:00||FIBABANKA|10.40.27.52|||101571767266|70
17.10.2018 10:00:00||FIBABANKA|10.40.27.74|||101571767266|175
17.10.2018 10:00:00||FIBABANKA|10.40.25.53|||101571767266|32
17.10.2018 10:00:00||FIBABANKA|10.40.25.53|||101571767266|50
17.10.2018 10:00:00||FIBABANKA|10.40.27.53|||101571767266|58
17.10.2018 10:00:00||FIBABANKA|10.40.26.53|||101571767266|60
17.10.2018 10:00:00||FIBABANKA|10.40.25.51|||101571767266|20
17.10.2018 10:00:00||FIBABANKA|10.40.25.51|||101571767266|110
17.10.2018 10:00:00||FIBABANKA|10.40.24.51|||101571767266|20
17.10.2018 10:00:00||FIBABANKA|10.40.24.51|||101571767266|70
17.10.2018 10:00:00||FIBABANKA|10.40.24.51|||101571767266|100
17.10.2018 10:00:00||FIBABANKA|10.40.24.51|||101571767266|140
17.10.2018 10:00:00||FIBABANKA|10.40.24.51|||101571767266|30
17.10.2018 10:00:00||FIBABANKA|10.40.24.57|||101571767266|90
17.10.2018 10:00:00||FIBABANKA|10.40.24.57|||101571767266|80
17.10.2018 10:00:00||FIBABANKA|10.40.24.57|||101571767266|80
17.10.2018 10:00:00||FIBABANKA|10.40.24.52|||101571767266|10
17.10.2018 10:00:00||FIBABANKA|10.40.26.73|||101571767266|40
17.10.2018 10:00:00||FIBABANKA|10.40.27.53|||101571767266|67
17.10.2018 10:00:00||FIBABANKA|10.40.26.51|||101571767266|70
17.10.2018 10:00:00||FIBABANKA|10.40.26.52|||101571767266|30
17.10.2018 10:00:00||FIBABANKA|10.40.26.52|||101571767266|90
17.10.2018 10:00:00||FIBABANKA|10.40.26.52|||101571767266|32
17.10.2018 10:00:00||FIBABANKA|10.40.25.51|||101571767266|140
17.10.2018 10:00:00||FIBABANKA|10.40.25.51|||101571767266|40
17.10.2018 10:00:00||FIBABANKA|10.40.25.51|||101571767266|40
17.10.2018 10:00:00||FIBABANKA|10.40.25.51|||101571767266|72
17.10.2018 10:00:00||FIBABANKA|10.40.24.51|||101571767266|30
17.10.2018 10:00:00||FIBABANKA|10.40.25.59|||101571767266|70
17.10.2018 10:00:00||FIBABANKA|10.40.25.59|||101571767266|90
17.10.2018 10:00:00||FIBABANKA|10.40.25.59|||101571767266|77
17.10.2018 10:00:00||FIBABANKA|10.40.25.59|||101571767266|40
17.10.2018 10:00:00||FIBABANKA|10.40.25.59|||101571767266|123
17.10.2018 10:00:00||FIBABANKA|10.40.25.59|||101571767266|70
17.10.2018 10:00:00||FIBABANKA|10.40.25.59|||101571767266|60
17.10.2018 10:00:00||FIBABANKA|10.40.25.59|||101571767266|157
17.10.2018 10:00:00||FIBABANKA|10.40.25.59|||101571767266|62
17.10.2018 10:00:00||FIBABANKA|10.40.24.59|||101571767266|70
17.10.2018 10:00:00||FIBABANKA|10.40.24.59|||101571767266|122
17.10.2018 10:00:00||FIBABANKA|10.40.24.59|||101571767266|67
17.10.2018 10:00:00||FIBABANKA|10.40.24.59|||101571767266|50
17.10.2018 10:00:00||FIBABANKA|10.40.24.59|||101571767266|130
17.10.2018 10:00:00||FIBABANKA|10.40.24.59|||101571767266|70
17.10.2018 10:00:00||FIBABANKA|10.40.24.59|||101571767266|60
17.10.2018 10:00:00||FIBABANKA|10.40.24.59|||101571767266|150
17.10.2018 10:00:00||FIBABANKA|10.40.24.59|||101571767266|63
17.10.2018 10:00:00||FIBABANKA|10.40.25.60|||101571767266|112
17.10.2018 10:00:00||FIBABANKA|10.40.25.60|||101571767266|32
17.10.2018 10:00:00||FIBABANKA|10.40.25.60|||101571767266|110
17.10.2018 10:00:00||FIBABANKA|10.40.25.60|||101571767266|42
17.10.2018 10:00:00||FIBABANKA|10.40.24.60|||101571767266|120
17.10.2018 10:00:00||FIBABANKA|10.40.24.60|||101571767266|55
17.10.2018 10:00:00||FIBABANKA|10.40.24.60|||101571767266|40
17.10.2018 10:00:00||FIBABANKA|10.40.24.60|||101571767266|102
17.10.2018 10:00:00||FIBABANKA|10.40.24.60|||101571767266|50
17.10.2018 10:00:00||FIBABANKA|10.40.25.72|||101571767266|70
17.10.2018 10:00:00||FIBABANKA|10.40.25.72|||101571767266|40
17.10.2018 10:00:00||FIBABANKA|10.40.25.72|||101571767266|30
17.10.2018 10:00:00||FIBABANKA|10.40.24.72|||101571767266|140
17.10.2018 10:00:00||FIBABANKA|10.40.24.72|||101571767266|77
17.10.2018 10:00:00||FIBABANKA|10.40.24.72|||101571767266|30
17.10.2018 10:00:00||FIBABANKA|10.40.24.72|||101571767266|40
17.10.2018 10:00:00||FIBABANKA|10.40.25.74|||101571767266|32
17.10.2018 10:00:00||FIBABANKA|10.40.25.75|||101571767266|35
17.10.2018 10:00:00||FIBABANKA|10.40.25.75|||101571767266|90
17.10.2018 10:00:00||FIBABANKA|10.40.25.75|||101571767266|142
17.10.2018 10:00:00||FIBABANKA|10.40.25.75|||101571767266|177
17.10.2018 10:00:00||FIBABANKA|10.40.25.75|||101571767266|190
17.10.2018 10:00:00||FIBABANKA|10.40.25.75|||101571767266|207
17.10.2018 10:00:00||FIBABANKA|10.40.24.75|||101571767266|45
17.10.2018 10:00:00||FIBABANKA|10.40.24.75|||101571767266|50
17.10.2018 10:00:00||FIBABANKA|10.40.24.75|||101571767266|175
17.10.2018 10:00:00||FIBABANKA|10.40.24.75|||101571767266|150
17.10.2018 10:00:00||FIBABANKA|10.40.24.76|||101571767266|40
17.10.2018 10:00:00||FIBABANKA|10.40.24.76|||101571767266|68
17.10.2018 10:00:00||FIBABANKA|10.40.24.76|||101571767266|10
17.10.2018 10:00:00||FIBABANKA|10.40.24.53|||101571767266|30
17.10.2018 10:00:00||FIBABANKA|10.40.24.53|||101571767266|60
17.10.2018 10:00:00||FIBABANKA|10.40.26.57|||101571767266|90
17.10.2018 10:00:00||FIBABANKA|10.40.26.57|||101571767266|87
17.10.2018 10:00:00||FIBABANKA|10.40.26.57|||101571767266|80
17.10.2018 10:00:00||FIBABANKA|10.40.27.72|||101571767266|40
17.10.2018 10:00:00||FIBABANKA|10.40.27.72|||101571767266|50
17.10.2018 10:00:00||FIBABANKA|10.40.27.72|||101571767266|32
17.10.2018 10:00:00||FIBABANKA|10.40.27.72|||101571767266|140
17.10.2018 10:00:00||FIBABANKA|10.40.27.72|||101571767266|60
17.10.2018 10:00:00||FIBABANKA|10.40.26.72|||101571767266|30
17.10.2018 10:00:00||FIBABANKA|10.40.26.72|||101571767266|140
17.10.2018 10:00:00||FIBABANKA|10.40.26.72|||101571767266|70
17.10.2018 10:00:00||FIBABANKA|10.40.26.72|||101571767266|30
17.10.2018 10:00:00||FIBABANKA|10.40.27.73|||101571767266|30
17.10.2018 10:00:00||FIBABANKA|10.40.27.73|||101571767266|100
17.10.2018 10:00:00||FIBABANKA|10.40.27.73|||101571767266|40
17.10.2018 10:00:00||FIBABANKA|10.40.27.73|||101571767266|40
17.10.2018 10:00:00||FIBABANKA|10.40.27.73|||101571767266|200
17.10.2018 10:00:00||FIBABANKA|10.40.26.73|||101571767266|40
17.10.2018 10:00:00||FIBABANKA|10.40.26.73|||101571767266|70
17.10.2018 10:00:00||FIBABANKA|10.40.26.73|||101571767266|30
17.10.2018 10:00:00||FIBABANKA|10.40.27.74|||101571767266|82
17.10.2018 10:00:00||FIBABANKA|10.40.27.74|||101571767266|167
17.10.2018 10:00:00||FIBABANKA|10.40.27.74|||101571767266|173
17.10.2018 10:00:00||FIBABANKA|10.40.26.74|||101571767266|77
17.10.2018 10:00:00||FIBABANKA|10.40.26.74|||101571767266|185
17.10.2018 10:00:00||FIBABANKA|10.40.26.74|||101571767266|183
17.10.2018 10:00:00||FIBABANKA|10.40.26.74|||101571767266|187
17.10.2018 10:00:00||FIBABANKA|10.40.27.75|||101571767266|10
17.10.2018 10:00:00||FIBABANKA|10.40.27.75|||101571767266|10
17.10.2018 10:00:00||FIBABANKA|10.40.26.79|||101571767266|10
17.10.2018 10:00:00||FIBABANKA|10.40.27.79|||101571767266|10
17.10.2018 10:00:00||FIBABANKA|10.40.27.79|||101571767266|10
17.10.2018 10:00:00||FIBABANKA|10.40.26.79|||101571767266|10
17.10.2018 10:00:00||FIBABANKA|10.40.27.77|||101571767266|160
17.10.2018 10:00:00||FIBABANKA|10.40.26.77|||101571767266|180
17.10.2018 10:00:00||FIBABANKA|10.40.27.77|||101571767266|158
17.10.2018 10:00:00||FIBABANKA|10.40.25.74|||101571767266|228
17.10.2018 10:00:00||FIBABANKA|10.40.24.75|||101571767266|178
17.10.2018 10:00:00||FIBABANKA|10.40.24.53|||101571767266|173
17.10.2018 10:00:00||FIBABANKA|10.40.24.53|||101571767266|180
17.10.2018 10:00:00||FIBABANKA|10.40.25.52|||101571767266|10
17.10.2018 10:00:00||FIBABANKA|10.40.25.52|||101571767266|60
17.10.2018 10:00:00||FIBABANKA|10.40.25.53|||101571767266|165
17.10.2018 10:00:00||FIBABANKA|10.40.25.53|||101571767266|155
17.10.2018 10:00:00||FIBABANKA|10.40.27.51|||101571767266|30
17.10.2018 10:00:00||FIBABANKA|10.40.27.51|||101571767266|20
17.10.2018 10:00:00||FIBABANKA|10.40.27.51|||101571767266|100
17.10.2018 10:00:00||FIBABANKA|10.40.27.51|||101571767266|140
17.10.2018 10:00:00||FIBABANKA|10.40.27.51|||101571767266|70
17.10.2018 10:00:00||FIBABANKA|10.40.27.51|||101571767266|40
17.10.2018 10:00:00||FIBABANKA|10.40.27.51|||101571767266|40
17.10.2018 10:00:00||FIBABANKA|10.40.26.51|||101571767266|10
17.10.2018 10:00:00||FIBABANKA|10.40.26.51|||101571767266|110
17.10.2018 10:00:00||FIBABANKA|10.40.26.51|||101571767266|130
17.10.2018 10:00:00||FIBABANKA|10.40.26.51|||101571767266|30
17.10.2018 10:00:00||FIBABANKA|10.40.26.51|||101571767266|30
17.10.2018 10:00:00||FIBABANKA|10.40.24.74|||101571767266|35
17.10.2018 10:00:00||FIBABANKA|10.40.25.76|||101571767266|60
17.10.2018 10:00:00||FIBABANKA|10.40.25.76|||101571767266|40
17.10.2018 10:00:00||FIBABANKA|10.40.25.76|||101571767266|10
17.10.2018 10:00:00||FIBABANKA|10.40.26.53|||101571767266|43
17.10.2018 10:00:00||FIBABANKA|10.40.26.53|||101571767266|167
17.10.2018 10:00:00||FIBABANKA|10.40.25.76|||101571767266|10
17.10.2018 10:00:00||FIBABANKA|10.40.27.53|||101571767266|165
17.10.2018 10:00:00||FIBABANKA|10.40.27.53|||101571767266|173
17.10.2018 10:00:00||FIBABANKA|10.40.26.53|||101571767266|165
17.10.2018 10:00:00||FIBABANKA|10.40.27.57|||101571767266|83
17.10.2018 10:00:00||FIBABANKA|10.40.27.57|||101571767266|80
17.10.2018 10:00:00||FIBABANKA|10.40.27.57|||101571767266|80
17.10.2018 10:00:00||HAVAŞ|10.40.24.48|||110000479675|765
17.10.2018 10:00:00||HAVAŞ|10.40.24.48|||110000479675|768
17.10.2018 10:00:00||HAVAŞ|10.40.25.48|||110000479675|762
17.10.2018 10:00:00||HAVAŞ|10.40.24.45|||110000479675|70
17.10.2018 10:00:00||HAVAŞ|10.40.25.45|||110000479675|65
17.10.2018 10:00:00||HAVAŞ|10.40.25.47|||110000479675|70
17.10.2018 10:00:00||HAVAŞ|10.40.24.46|||110000479675|80
17.10.2018 10:00:00||HAVAŞ|10.40.24.47|||110000479675|30
17.10.2018 10:00:00||HAVAŞ|10.40.24.47|||110000479675|93
17.10.2018 10:00:00||HAVAŞ|10.40.24.47|||110000479675|90
17.10.2018 10:00:00||HAVAŞ|10.40.25.46|||110000479675|10
17.10.2018 10:00:00||HAVAŞ|10.40.25.46|||110000479675|60
17.10.2018 10:00:00||HAVAŞ|10.40.24.48|||110000479675|765
17.10.2018 10:00:00||HAVAŞ|10.40.24.46|||110000479675|60
17.10.2018 10:00:00||HAVAŞ|10.40.24.46|||110000479675|70
17.10.2018 10:00:00||HAVAŞ|10.40.24.47|||110000479675|15
17.10.2018 10:00:00||HAVAŞ|10.40.25.48|||110000479675|760
17.10.2018 10:00:00||HAVAŞ|10.40.25.48|||110000479675|797
17.10.2018 10:00:00||HAVAŞ|10.40.25.45|||110000479675|98
17.10.2018 10:00:00||HAVAŞ|10.40.24.45|||110000479675|50
17.10.2018 10:00:00||HAVAŞ|10.40.24.45|||110000479675|170
17.10.2018 10:00:00||HAVAŞ|10.40.24.45|||110000479675|100
17.10.2018 10:00:00||HAVAŞ|10.40.25.47|||110000479675|70
17.10.2018 10:00:00||HAVAŞ|10.40.25.47|||110000479675|223
17.10.2018 10:00:00||HAVAŞ|10.40.25.47|||110000479675|58
17.10.2018 10:00:00||HAVAŞ|10.40.25.47|||110000479675|92
17.10.2018 10:00:00||HAVAŞ|10.40.25.47|||110000479675|93
17.10.2018 10:00:00||HAVAŞ|10.40.25.47|||110000479675|97
17.10.2018 10:00:00||HAVAŞ|10.40.25.47|||110000479675|167
17.10.2018 10:00:00||HAVAŞ|10.40.25.47|||110000479675|180
17.10.2018 10:00:00||HAVAŞ|10.40.25.47|||110000479675|90
17.10.2018 10:00:00||HAVAŞ|10.40.25.47|||110000479675|90
17.10.2018 10:00:00||HAVAŞ|10.40.25.47|||110000479675|90
17.10.2018 10:00:00||HAVAŞ|10.40.25.45|||110000479675|125
17.10.2018 10:00:00||HAVAŞ|10.40.25.45|||110000479675|92
17.10.2018 10:00:00||HAVAŞ|10.40.25.46|||110000479675|10
17.10.2018 10:00:00||HAVAŞ|10.40.25.46|||110000479675|10
17.10.2018 10:00:00||HAVAŞ|10.40.25.46|||110000479675|20
17.10.2018 10:00:00||HAVAŞ|10.40.25.46|||110000479675|20
17.10.2018 10:00:00||HAVAŞ|10.40.25.46|||110000479675|50
17.10.2018 10:00:00||HAVAŞ|10.40.25.46|||110000479675|100
17.10.2018 10:00:00||HAVAŞ|10.40.25.46|||110000479675|58
17.10.2018 10:00:00||HAVAŞ|10.40.25.46|||110000479675|77
17.10.2018 10:00:00||HAVAŞ|10.40.25.46|||110000479675|70
17.10.2018 10:00:00||HAVAŞ|10.40.24.46|||110000479675|20
17.10.2018 10:00:00||HAVAŞ|10.40.24.46|||110000479675|20
17.10.2018 10:00:00||HAVAŞ|10.40.24.46|||110000479675|10
17.10.2018 10:00:00||HAVAŞ|10.40.24.46|||110000479675|10
17.10.2018 10:00:00||HAVAŞ|10.40.24.46|||110000479675|10
17.10.2018 10:00:00||HAVAŞ|10.40.24.46|||110000479675|60
17.10.2018 10:00:00||HAVAŞ|10.40.24.46|||110000479675|110
17.10.2018 10:00:00||HAVAŞ|10.40.24.47|||110000479675|30
17.10.2018 10:00:00||HAVAŞ|10.40.24.47|||110000479675|222
17.10.2018 10:00:00||HAVAŞ|10.40.24.47|||110000479675|60
17.10.2018 10:00:00||HAVAŞ|10.40.24.47|||110000479675|58
17.10.2018 10:00:00||HAVAŞ|10.40.24.47|||110000479675|155
17.10.2018 10:00:00||HAVAŞ|10.40.24.47|||110000479675|100
17.10.2018 10:00:00||HAVAŞ|10.40.24.47|||110000479675|100
17.10.2018 10:00:00||HAVAŞ|10.40.24.46|||110000479675|10
17.10.2018 10:00:00||MARS CINEMA|10.40.24.203|||110000472614|83
17.10.2018 10:00:00||MARS CINEMA|10.40.24.203|||110000472614|160
17.10.2018 10:00:00||MARS CINEMA|10.40.24.203|||110000472614|80
17.10.2018 10:00:00||MARS CINEMA|10.40.24.204|||110000472614|65
17.10.2018 10:00:00||MARS CINEMA|10.40.24.203|||110000472614|102
17.10.2018 10:00:00||MARS CINEMA|10.40.24.204|||110000472614|20
17.10.2018 10:00:00||MARS CINEMA|10.40.24.204|||110000472614|87
17.10.2018 10:00:00||MARS CINEMA|10.40.25.203|||110000472614|153
17.10.2018 10:00:00||MARS CINEMA|10.40.25.203|||110000472614|93
17.10.2018 10:00:00||MARS CINEMA|10.40.25.203|||110000472614|178
17.10.2018 10:00:00||MARS CINEMA|10.40.25.203|||110000472614|93
17.10.2018 10:00:00||MARS CINEMA|10.40.25.203|||110000472614|80
17.10.2018 10:00:00||MARS CINEMA|10.40.25.203|||110000472614|110
17.10.2018 10:00:00||MARS CINEMA|10.40.25.203|||110000472614|87
17.10.2018 10:00:00||MARS CINEMA|10.40.25.203|||110000472614|152
17.10.2018 10:00:00||MARS CINEMA|10.40.25.203|||110000472614|92
17.10.2018 10:00:00||MARS CINEMA|10.40.25.203|||110000472614|110
17.10.2018 10:00:00||MARS CINEMA|10.40.25.203|||110000472614|95
17.10.2018 10:00:00||MARS CINEMA|10.40.25.203|||110000472614|60
17.10.2018 10:00:00||MARS CINEMA|10.40.25.203|||110000472614|185
17.10.2018 10:00:00||MARS CINEMA|10.40.25.204|||110000472614|110
17.10.2018 10:00:00||MARS CINEMA|10.40.25.204|||110000472614|70
17.10.2018 10:00:00||MARS CINEMA|10.40.25.204|||110000472614|80
17.10.2018 10:00:00||MARS CINEMA|10.40.25.204|||110000472614|100
17.10.2018 10:00:00||MARS CINEMA|10.40.25.204|||110000472614|20
17.10.2018 10:00:00||MARS CINEMA|10.40.25.204|||110000472614|20
17.10.2018 10:00:00||MARS CINEMA|10.40.25.204|||110000472614|30
17.10.2018 10:00:00||MARS CINEMA|10.40.25.204|||110000472614|40
17.10.2018 10:00:00||MARS CINEMA|10.40.25.204|||110000472614|90
17.10.2018 10:00:00||MARS CINEMA|10.40.25.204|||110000472614|120
17.10.2018 10:00:00||MARS CINEMA|10.40.25.204|||110000472614|80
17.10.2018 10:00:00||MARS CINEMA|10.40.25.204|||110000472614|80
17.10.2018 10:00:00||MARS CINEMA|10.40.25.204|||110000472614|110
17.10.2018 10:00:00||MARS CINEMA|10.40.25.204|||110000472614|100
17.10.2018 10:00:00||MARS CINEMA|10.40.24.203|||110000472614|80
17.10.2018 10:00:00||MARS CINEMA|10.40.24.203|||110000472614|95
17.10.2018 10:00:00||MARS CINEMA|10.40.24.203|||110000472614|140
17.10.2018 10:00:00||MARS CINEMA|10.40.24.203|||110000472614|75
17.10.2018 10:00:00||MARS CINEMA|10.40.24.203|||110000472614|140
17.10.2018 10:00:00||MARS CINEMA|10.40.24.203|||110000472614|157
17.10.2018 10:00:00||MARS CINEMA|10.40.24.203|||110000472614|100
17.10.2018 10:00:00||MARS CINEMA|10.40.24.203|||110000472614|185
17.10.2018 10:00:00||MARS CINEMA|10.40.24.204|||110000472614|112
17.10.2018 10:00:00||MARS CINEMA|10.40.24.204|||110000472614|92
17.10.2018 10:00:00||MARS CINEMA|10.40.24.204|||110000472614|92
17.10.2018 10:00:00||MARS CINEMA|10.40.24.204|||110000472614|20
17.10.2018 10:00:00||MARS CINEMA|10.40.24.204|||110000472614|10
17.10.2018 10:00:00||MARS CINEMA|10.40.24.204|||110000472614|92
17.10.2018 10:00:00||MARS CINEMA|10.40.24.204|||110000472614|118
17.10.2018 10:00:00||MARS CINEMA|10.40.24.204|||110000472614|93
17.10.2018 10:00:00||MARS CINEMA|10.40.24.204|||110000472614|108
17.10.2018 10:00:00||MARS CINEMA|10.40.24.204|||110000472614|80
17.10.2018 10:00:00||MARS CINEMA|10.40.25.206|||110000472614|120
17.10.2018 10:00:00||MARS CINEMA|10.40.25.206|||110000472614|40
17.10.2018 10:00:00||MARS CINEMA|10.40.25.206|||110000472614|40
17.10.2018 10:00:00||MARS CINEMA|10.40.25.206|||110000472614|40
17.10.2018 10:00:00||MARS CINEMA|10.40.25.206|||110000472614|20
17.10.2018 10:00:00||MARS CINEMA|10.40.25.206|||110000472614|20
17.10.2018 10:00:00||MARS CINEMA|10.40.25.206|||110000472614|30
17.10.2018 10:00:00||MARS CINEMA|10.40.25.206|||110000472614|60
17.10.2018 10:00:00||MARS CINEMA|10.40.25.206|||110000472614|40
17.10.2018 10:00:00||MARS CINEMA|10.40.25.206|||110000472614|88
17.10.2018 10:00:00||MARS CINEMA|10.40.25.206|||110000472614|83
17.10.2018 10:00:00||MARS CINEMA|10.40.24.206|||110000472614|152
17.10.2018 10:00:00||MARS CINEMA|10.40.24.206|||110000472614|40
17.10.2018 10:00:00||MARS CINEMA|10.40.24.206|||110000472614|40
17.10.2018 10:00:00||MARS CINEMA|10.40.24.206|||110000472614|47
17.10.2018 10:00:00||MARS CINEMA|10.40.24.206|||110000472614|30
17.10.2018 10:00:00||MARS CINEMA|10.40.24.206|||110000472614|30
17.10.2018 10:00:00||MARS CINEMA|10.40.24.206|||110000472614|212
17.10.2018 10:00:00||MARS CINEMA|10.40.24.206|||110000472614|160
17.10.2018 10:00:00||MARS CINEMA|10.40.24.206|||110000472614|20
17.10.2018 10:00:00||MARS CINEMA|10.40.24.206|||110000472614|80
17.10.2018 10:00:00||MARS CINEMA|10.40.24.206|||110000472614|73
17.10.2018 10:00:00||MARS CINEMA|10.40.24.203|||110000472614|100
17.10.2018 10:00:00||MARS CINEMA|10.40.24.204|||110000472614|40
17.10.2018 10:00:00||PEGASUS|10.40.27.66|||110000423831|113
17.10.2018 10:00:00||PEGASUS|10.40.26.66|||110000423831|94
17.10.2018 10:00:00||PEGASUS|10.40.26.84|||110000423831|219
17.10.2018 10:00:00||PEGASUS|10.40.27.85|||110000423831|116
17.10.2018 10:00:00||PEGASUS|10.40.26.85|||110000423831|120
17.10.2018 10:00:00||PEGASUS|10.40.27.64|||110000423831|72
17.10.2018 10:00:00||PEGASUS|10.40.27.64|||110000423831|70
17.10.2018 10:00:00||PEGASUS|10.40.27.63|||110000423831|60
17.10.2018 10:00:00||PEGASUS|10.40.27.63|||110000423831|70
17.10.2018 10:00:00||PEGASUS|10.40.27.63|||110000423831|90
17.10.2018 10:00:00||PEGASUS|10.40.26.63|||110000423831|120
17.10.2018 10:00:00||PEGASUS|10.40.27.67|||110000423831|360
17.10.2018 10:00:00||PEGASUS|10.40.27.64|||110000423831|263
17.10.2018 10:00:00||PEGASUS|10.40.27.64|||110000423831|268
17.10.2018 10:00:00||PEGASUS|10.40.27.63|||110000423831|97
17.10.2018 10:00:00||PEGASUS|10.40.27.63|||110000423831|67
17.10.2018 10:00:00||PEGASUS|10.40.27.63|||110000423831|80
17.10.2018 10:00:00||PEGASUS|10.40.26.63|||110000423831|110
17.10.2018 10:00:00||PEGASUS|10.40.26.63|||110000423831|103
17.10.2018 10:00:00||PEGASUS|10.40.27.81|||110000423831|463
17.10.2018 10:00:00||PEGASUS|10.40.27.81|||110000423831|425
17.10.2018 10:00:00||PEGASUS|10.40.26.63|||110000423831|90
17.10.2018 10:00:00||PEGASUS|10.40.26.63|||110000423831|43
17.10.2018 10:00:00||PEGASUS|10.40.26.67|||110000423831|30
17.10.2018 10:00:00||PEGASUS|10.40.26.67|||110000423831|340
17.10.2018 10:00:00||PEGASUS|10.40.26.67|||110000423831|60
17.10.2018 10:00:00||PEGASUS|10.40.26.67|||110000423831|40
17.10.2018 10:00:00||PEGASUS|10.40.26.67|||110000423831|70
17.10.2018 10:00:00||PEGASUS|10.40.26.68|||110000423831|100
17.10.2018 10:00:00||PEGASUS|10.40.27.64|||110000423831|285
17.10.2018 10:00:00||PEGASUS|10.40.27.64|||110000423831|265
17.10.2018 10:00:00||PEGASUS|10.40.27.64|||110000423831|292
17.10.2018 10:00:00||PEGASUS|10.40.27.64|||110000423831|273
17.10.2018 10:00:00||PEGASUS|10.40.27.64|||110000423831|270
17.10.2018 10:00:00||PEGASUS|10.40.27.86|||110000423831|340
17.10.2018 10:00:00||PEGASUS|10.40.27.63|||110000423831|90
17.10.2018 10:00:00||PEGASUS|10.40.26.63|||110000423831|130
17.10.2018 10:00:00||PEGASUS|10.40.26.63|||110000423831|60
17.10.2018 10:00:00||PEGASUS|10.40.26.63|||110000423831|95
17.10.2018 10:00:00||PEGASUS|10.40.26.67|||110000423831|340
17.10.2018 10:00:00||PEGASUS|10.40.27.63|||110000423831|50
17.10.2018 10:00:00||PEGASUS|10.40.27.63|||110000423831|60
17.10.2018 10:00:00||PEGASUS|10.40.27.81|||110000423831|437
17.10.2018 10:00:00||PEGASUS|10.40.26.62|||110000423831|90
17.10.2018 10:00:00||PEGASUS|10.40.26.63|||110000423831|50
17.10.2018 10:00:00||PEGASUS|10.40.26.63|||110000423831|93
17.10.2018 10:00:00||PEGASUS|10.40.26.63|||110000423831|40
17.10.2018 10:00:00||PEGASUS|10.40.26.63|||110000423831|70
17.10.2018 10:00:00||PEGASUS|10.40.26.67|||110000423831|345
17.10.2018 10:00:00||PEGASUS|10.40.27.64|||110000423831|283
17.10.2018 10:00:00||PEGASUS|10.40.27.64|||110000423831|268
17.10.2018 10:00:00||PEGASUS|10.40.27.64|||110000423831|260
17.10.2018 10:00:00||PEGASUS|10.40.27.64|||110000423831|328
17.10.2018 10:00:00||PEGASUS|10.40.27.64|||110000423831|323
17.10.2018 10:00:00||PEGASUS|10.40.27.86|||110000423831|40
17.10.2018 10:00:00||PEGASUS|10.40.27.63|||110000423831|77
17.10.2018 10:00:00||PEGASUS|10.40.27.63|||110000423831|80
17.10.2018 10:00:00||PEGASUS|10.40.27.63|||110000423831|80
17.10.2018 10:00:00||PEGASUS|10.40.27.63|||110000423831|107
17.10.2018 10:00:00||PEGASUS|10.40.27.63|||110000423831|128
17.10.2018 10:00:00||PEGASUS|10.40.27.63|||110000423831|223
17.10.2018 10:00:00||PEGASUS|10.40.27.63|||110000423831|57
17.10.2018 10:00:00||PEGASUS|10.40.26.64|||110000423831|80
17.10.2018 10:00:00||PEGASUS|10.40.26.64|||110000423831|80
17.10.2018 10:00:00||PEGASUS|10.40.26.82|||110000423831|210
17.10.2018 10:00:00||PEGASUS|10.40.26.82|||110000423831|110
17.10.2018 10:00:00||PEGASUS|10.40.26.82|||110000423831|80
17.10.2018 10:00:00||PEGASUS|10.40.26.82|||110000423831|150
17.10.2018 10:00:00||PEGASUS|10.40.26.82|||110000423831|140
17.10.2018 10:00:00||PEGASUS|10.40.26.82|||110000423831|140
17.10.2018 10:00:00||PEGASUS|10.40.26.82|||110000423831|180
17.10.2018 10:00:00||PEGASUS|10.40.26.82|||110000423831|30
17.10.2018 10:00:00||PEGASUS|10.40.26.82|||110000423831|40
17.10.2018 10:00:00||PEGASUS|10.40.26.82|||110000423831|20
17.10.2018 10:00:00||PEGASUS|10.40.26.82|||110000423831|70
17.10.2018 10:00:00||PEGASUS|10.40.26.82|||110000423831|50
17.10.2018 10:00:00||PEGASUS|10.40.26.82|||110000423831|40
17.10.2018 10:00:00||PEGASUS|10.40.27.83|||110000423831|577
17.10.2018 10:00:00||PEGASUS|10.40.27.83|||110000423831|70
17.10.2018 10:00:00||PEGASUS|10.40.27.83|||110000423831|563
17.10.2018 10:00:00||PEGASUS|10.40.27.83|||110000423831|560
17.10.2018 10:00:00||PEGASUS|10.40.27.83|||110000423831|73
17.10.2018 10:00:00||PEGASUS|10.40.26.83|||110000423831|507
17.10.2018 10:00:00||PEGASUS|10.40.26.83|||110000423831|50
17.10.2018 10:00:00||PEGASUS|10.40.26.83|||110000423831|402
17.10.2018 10:00:00||PEGASUS|10.40.26.83|||110000423831|503
17.10.2018 10:00:00||PEGASUS|10.40.26.83|||110000423831|507
17.10.2018 10:00:00||PEGASUS|10.40.26.86|||110000423831|360
17.10.2018 10:00:00||PEGASUS|10.40.26.86|||110000423831|138
17.10.2018 10:00:00||PEGASUS|10.40.26.86|||110000423831|350
17.10.2018 10:00:00||PEGASUS|10.40.26.86|||110000423831|50
17.10.2018 10:00:00||PEGASUS|10.40.26.86|||110000423831|30
17.10.2018 10:00:00||PEGASUS|10.40.26.86|||110000423831|350
17.10.2018 10:00:00||PEGASUS|10.40.26.86|||110000423831|40
17.10.2018 10:00:00||PEGASUS|10.40.27.87|||110000423831|90
17.10.2018 10:00:00||PEGASUS|10.40.27.87|||110000423831|88
17.10.2018 10:00:00||PEGASUS|10.40.27.87|||110000423831|90
17.10.2018 10:00:00||PEGASUS|10.40.27.87|||110000423831|20
17.10.2018 10:00:00||PEGASUS|10.40.26.87|||110000423831|90
17.10.2018 10:00:00||PEGASUS|10.40.26.87|||110000423831|90
17.10.2018 10:00:00||PEGASUS|10.40.26.87|||110000423831|90
17.10.2018 10:00:00||PEGASUS|10.40.26.87|||110000423831|60
17.10.2018 10:00:00||PEGASUS|10.40.26.87|||110000423831|20
17.10.2018 10:00:00||PEGASUS|10.40.26.81|||110000423831|408
17.10.2018 10:00:00||PEGASUS|10.40.26.81|||110000423831|417
17.10.2018 10:00:00||PEGASUS|10.40.26.81|||110000423831|423
17.10.2018 10:00:00||PEGASUS|10.40.27.82|||110000423831|220
17.10.2018 10:00:00||PEGASUS|10.40.27.82|||110000423831|30
17.10.2018 10:00:00||PEGASUS|10.40.27.82|||110000423831|110
17.10.2018 10:00:00||PEGASUS|10.40.27.82|||110000423831|80
17.10.2018 10:00:00||PEGASUS|10.40.27.82|||110000423831|160
17.10.2018 10:00:00||PEGASUS|10.40.27.82|||110000423831|120
17.10.2018 10:00:00||PEGASUS|10.40.27.82|||110000423831|173
17.10.2018 10:00:00||PEGASUS|10.40.27.82|||110000423831|130
17.10.2018 10:00:00||PEGASUS|10.40.27.82|||110000423831|60
17.10.2018 10:00:00||PEGASUS|10.40.27.82|||110000423831|82
17.10.2018 10:00:00||PEGASUS|10.40.27.82|||110000423831|50
17.10.2018 10:00:00||PEGASUS|10.40.27.82|||110000423831|35
17.10.2018 10:00:00||PEGASUS|10.40.27.82|||110000423831|40
17.10.2018 10:00:00||PEGASUS|10.40.27.67|||110000423831|50
17.10.2018 10:00:00||PEGASUS|10.40.27.67|||110000423831|70
17.10.2018 10:00:00||PEGASUS|10.40.27.67|||110000423831|130
17.10.2018 10:00:00||PEGASUS|10.40.27.67|||110000423831|10
17.10.2018 10:00:00||PEGASUS|10.40.27.67|||110000423831|340
17.10.2018 10:00:00||PEGASUS|10.40.27.82|||110000423831|73
17.10.2018 10:00:00||PEGASUS|10.40.27.86|||110000423831|170
17.10.2018 10:00:00||PEGASUS|10.40.27.86|||110000423831|70
17.10.2018 10:00:00||PEGASUS|10.40.27.86|||110000423831|20
17.10.2018 10:00:00||PEGASUS|10.40.27.86|||110000423831|350
17.10.2018 10:00:00||PEGASUS|10.40.27.67|||110000423831|340
17.10.2018 10:00:00||PEGASUS|10.40.27.67|||110000423831|40
17.10.2018 10:00:00||PEGASUS|10.40.26.62|||110000423831|10
17.10.2018 10:00:00||PEGASUS|10.40.26.62|||110000423831|190
17.10.2018 10:00:00||PEGASUS|10.40.26.63|||110000423831|70
17.10.2018 10:00:00||PEGASUS|10.40.26.63|||110000423831|30
17.10.2018 10:00:00||PEGASUS|10.40.26.63|||110000423831|60
17.10.2018 10:00:00||PEGASUS|10.40.26.63|||110000423831|20
17.10.2018 10:00:00||PEGASUS|10.40.26.63|||110000423831|230
17.10.2018 10:00:00||PEGASUS|10.40.26.63|||110000423831|140
17.10.2018 10:00:00||PEGASUS|10.40.26.63|||110000423831|108
17.10.2018 10:00:00||PEGASUS|10.40.26.63|||110000423831|60
17.10.2018 10:00:00||PEGASUS|10.40.26.67|||110000423831|168
17.10.2018 10:00:00||PEGASUS|10.40.27.68|||110000423831|90
17.10.2018 10:00:00||PEGASUS|10.40.27.68|||110000423831|87
17.10.2018 10:00:00||PEGASUS|10.40.27.68|||110000423831|90
17.10.2018 10:00:00||PEGASUS|10.40.27.68|||110000423831|50
17.10.2018 10:00:00||PEGASUS|10.40.26.68|||110000423831|90
17.10.2018 10:00:00||PEGASUS|10.40.26.68|||110000423831|90
17.10.2018 10:00:00||PEGASUS|10.40.26.68|||110000423831|50
17.10.2018 10:00:00||PEGASUS|10.40.27.63|||110000423831|40
17.10.2018 10:00:00||PEGASUS|10.40.27.86|||110000423831|340
17.10.2018 10:00:00||PEGASUS|10.40.27.63|||110000423831|50
17.10.2018 10:00:00||PEGASUS|10.40.27.63|||110000423831|60
17.10.2018 10:00:00||PWC|10.40.24.66|||110000433262|90
17.10.2018 10:00:00||PWC|10.40.24.66|||110000433262|10
17.10.2018 10:00:00||PWC|10.40.24.66|||110000433262|30
17.10.2018 10:00:00||PWC|10.40.24.66|||110000433262|50
17.10.2018 10:00:00||PWC|10.40.24.66|||110000433262|450
17.10.2018 10:00:00||PWC|10.40.24.68|||110000433262|163
17.10.2018 10:00:00||PWC|10.40.24.66|||110000433262|50
17.10.2018 10:00:00||PWC|10.40.24.66|||110000433262|210
17.10.2018 10:00:00||PWC|10.40.24.66|||110000433262|210
17.10.2018 10:00:00||PWC|10.40.25.67|||110000433262|80
17.10.2018 10:00:00||PWC|10.40.25.67|||110000433262|90
17.10.2018 10:00:00||PWC|10.40.25.67|||110000433262|320
17.10.2018 10:00:00||PWC|10.40.25.67|||110000433262|250
17.10.2018 10:00:00||PWC|10.40.25.67|||110000433262|240
17.10.2018 10:00:00||PWC|10.40.25.67|||110000433262|250
17.10.2018 10:00:00||PWC|10.40.25.67|||110000433262|50
17.10.2018 10:00:00||PWC|10.40.25.67|||110000433262|30
17.10.2018 10:00:00||PWC|10.40.25.67|||110000433262|120
17.10.2018 10:00:00||PWC|10.40.24.67|||110000433262|12
17.10.2018 10:00:00||PWC|10.40.24.67|||110000433262|10
17.10.2018 10:00:00||PWC|10.40.24.67|||110000433262|383
17.10.2018 10:00:00||PWC|10.40.24.67|||110000433262|30
17.10.2018 10:00:00||PWC|10.40.24.67|||110000433262|70
17.10.2018 10:00:00||PWC|10.40.24.67|||110000433262|115
17.10.2018 10:00:00||PWC|10.40.25.68|||110000433262|133
17.10.2018 10:00:00||PWC|10.40.25.68|||110000433262|193
17.10.2018 10:00:00||PWC|10.40.25.68|||110000433262|75
17.10.2018 10:00:00||PWC|10.40.25.68|||110000433262|80
17.10.2018 10:00:00||PWC|10.40.25.68|||110000433262|157
17.10.2018 10:00:00||PWC|10.40.24.66|||110000433262|60
17.10.2018 10:00:00||PWC|10.40.24.66|||110000433262|30
17.10.2018 10:00:00||PWC|10.40.24.66|||110000433262|30
17.10.2018 10:00:00||PWC|10.40.24.68|||110000433262|115
17.10.2018 10:00:00||PWC|10.40.24.68|||110000433262|140
17.10.2018 10:00:00||PWC|10.40.24.68|||110000433262|418
17.10.2018 10:00:00||PWC|10.40.24.68|||110000433262|75
17.10.2018 10:00:00||PWC|10.40.24.68|||110000433262|73
17.10.2018 10:00:00||VSMART BİLGİ TEKNOLOJİLERİ|10.40.24.62|||110000474326|42
17.10.2018 10:00:00||VSMART BİLGİ TEKNOLOJİLERİ|10.40.24.62|||110000474326|70
17.10.2018 10:00:00||VSMART BİLGİ TEKNOLOJİLERİ|10.40.24.62|||110000474326|53
17.10.2018 10:00:00||VSMART BİLGİ TEKNOLOJİLERİ|10.40.25.62|||110000474326|63
17.10.2018 10:00:00||VSMART BİLGİ TEKNOLOJİLERİ|10.40.24.62|||110000474326|40
17.10.2018 10:00:00||VSMART BİLGİ TEKNOLOJİLERİ|10.40.24.62|||110000474326|30
17.10.2018 10:00:00||VSMART BİLGİ TEKNOLOJİLERİ|10.40.24.62|||110000474326|10
17.10.2018 10:00:00||VSMART BİLGİ TEKNOLOJİLERİ|10.40.25.62|||110000474326|40
17.10.2018 10:00:00||VSMART BİLGİ TEKNOLOJİLERİ|10.40.25.62|||110000474326|10
17.10.2018 10:00:00||VSMART BİLGİ TEKNOLOJİLERİ|10.40.25.62|||110000474326|10
17.10.2018 10:00:00||VSMART BİLGİ TEKNOLOJİLERİ|10.40.25.62|||110000474326|82
17.10.2018 10:00:00||VSMART BİLGİ TEKNOLOJİLERİ|10.40.25.62|||110000474326|90
17.10.2018 10:00:00||VSMART BİLGİ TEKNOLOJİLERİ|10.40.25.62|||110000474326|105
17.10.2018 10:00:00||VSMART BİLGİ TEKNOLOJİLERİ|10.40.24.62|||110000474326|10
