03.11.2018 10:00:00||AKTİFBANK|10.40.25.134|||110000438458|93
03.11.2018 10:00:00||AKTİFBANK|10.40.24.134|||110000438458|95
03.11.2018 10:00:00||AKTİFBANK|10.40.24.135|||110000438458|102
03.11.2018 10:00:00||AKTİFBANK|10.40.25.137|||110000438458|57
03.11.2018 10:00:00||AKTİFBANK|10.40.25.172|||110000438458|88
03.11.2018 10:00:00||AKTİFBANK|10.40.24.172|||110000438458|98
03.11.2018 10:00:00||AKTİFBANK|10.40.25.173|||110000438458|95
03.11.2018 10:00:00||AKTİFBANK|10.40.25.171|||110000438458|12
03.11.2018 10:00:00||AKTİFBANK|10.40.25.174|||110000438458|53
03.11.2018 10:00:00||AKTİFBANK|10.40.24.173|||110000438458|92
03.11.2018 10:00:00||AKTİFBANK|10.40.25.135|||110000438458|99
03.11.2018 10:00:00||AKTİFBANK|10.40.24.137|||110000438458|57
03.11.2018 10:00:00||AKTİFBANK|10.40.24.171|||110000438458|11
03.11.2018 10:00:00||AKTİFBANK|10.40.24.174|||110000438458|60
03.11.2018 10:00:00||AKTİFBANK|10.40.25.139|||110000438458|70
03.11.2018 10:00:00||AKTİFBANK|10.40.25.139|||110000438458|80
03.11.2018 10:00:00||AKTİFBANK|10.40.25.150|||110000438458|517
03.11.2018 10:00:00||AKTİFBANK|10.40.25.129|||110000438458|60
03.11.2018 10:00:00||AKTİFBANK|10.40.25.129|||110000438458|87
03.11.2018 10:00:00||AKTİFBANK|10.40.25.129|||110000438458|140
03.11.2018 10:00:00||AKTİFBANK|10.40.25.130|||110000438458|70
03.11.2018 10:00:00||AKTİFBANK|10.40.25.130|||110000438458|130
03.11.2018 10:00:00||AKTİFBANK|10.40.25.130|||110000438458|100
03.11.2018 10:00:00||AKTİFBANK|10.40.25.131|||110000438458|50
03.11.2018 10:00:00||AKTİFBANK|10.40.25.143|||110000438458|60
03.11.2018 10:00:00||AKTİFBANK|10.40.25.143|||110000438458|245
03.11.2018 10:00:00||AKTİFBANK|10.40.25.143|||110000438458|267
03.11.2018 10:00:00||AKTİFBANK|10.40.25.158|||110000438458|102
03.11.2018 10:00:00||AKTİFBANK|10.40.25.160|||110000438458|110
03.11.2018 10:00:00||AKTİFBANK|10.40.25.162|||110000438458|30
03.11.2018 10:00:00||AKTİFBANK|10.40.25.162|||110000438458|40
03.11.2018 10:00:00||AKTİFBANK|10.40.24.140|||110000438458|160
03.11.2018 10:00:00||AKTİFBANK|10.40.24.140|||110000438458|80
03.11.2018 10:00:00||AKTİFBANK|10.40.24.140|||110000438458|40
03.11.2018 10:00:00||AKTİFBANK|10.40.24.140|||110000438458|30
03.11.2018 10:00:00||AKTİFBANK|10.40.24.140|||110000438458|30
03.11.2018 10:00:00||AKTİFBANK|10.40.24.140|||110000438458|27
03.11.2018 10:00:00||AKTİFBANK|10.40.24.149|||110000438458|80
03.11.2018 10:00:00||AKTİFBANK|10.40.24.149|||110000438458|120
03.11.2018 10:00:00||AKTİFBANK|10.40.24.149|||110000438458|90
03.11.2018 10:00:00||AKTİFBANK|10.40.24.149|||110000438458|63
03.11.2018 10:00:00||AKTİFBANK|10.40.24.149|||110000438458|50
03.11.2018 10:00:00||AKTİFBANK|10.40.24.149|||110000438458|140
03.11.2018 10:00:00||AKTİFBANK|10.40.24.149|||110000438458|90
03.11.2018 10:00:00||AKTİFBANK|10.40.24.149|||110000438458|90
03.11.2018 10:00:00||AKTİFBANK|10.40.24.149|||110000438458|90
03.11.2018 10:00:00||AKTİFBANK|10.40.24.149|||110000438458|80
03.11.2018 10:00:00||AKTİFBANK|10.40.24.133|||110000438458|145
03.11.2018 10:00:00||AKTİFBANK|10.40.24.133|||110000438458|120
03.11.2018 10:00:00||AKTİFBANK|10.40.24.133|||110000438458|85
03.11.2018 10:00:00||AKTİFBANK|10.40.24.138|||110000438458|115
03.11.2018 10:00:00||AKTİFBANK|10.40.24.138|||110000438458|138
03.11.2018 10:00:00||AKTİFBANK|10.40.24.138|||110000438458|112
03.11.2018 10:00:00||AKTİFBANK|10.40.24.138|||110000438458|32
03.11.2018 10:00:00||AKTİFBANK|10.40.24.138|||110000438458|50
03.11.2018 10:00:00||AKTİFBANK|10.40.24.139|||110000438458|160
03.11.2018 10:00:00||AKTİFBANK|10.40.24.139|||110000438458|90
03.11.2018 10:00:00||AKTİFBANK|10.40.24.139|||110000438458|120
03.11.2018 10:00:00||AKTİFBANK|10.40.24.141|||110000438458|200
03.11.2018 10:00:00||AKTİFBANK|10.40.24.141|||110000438458|100
03.11.2018 10:00:00||AKTİFBANK|10.40.24.141|||110000438458|100
03.11.2018 10:00:00||AKTİFBANK|10.40.24.141|||110000438458|68
03.11.2018 10:00:00||AKTİFBANK|10.40.24.141|||110000438458|80
03.11.2018 10:00:00||AKTİFBANK|10.40.25.152|||110000438458|110
03.11.2018 10:00:00||AKTİFBANK|10.40.25.152|||110000438458|50
03.11.2018 10:00:00||AKTİFBANK|10.40.25.152|||110000438458|140
03.11.2018 10:00:00||AKTİFBANK|10.40.25.152|||110000438458|70
03.11.2018 10:00:00||AKTİFBANK|10.40.25.152|||110000438458|90
03.11.2018 10:00:00||AKTİFBANK|10.40.25.152|||110000438458|160
03.11.2018 10:00:00||AKTİFBANK|10.40.25.152|||110000438458|50
03.11.2018 10:00:00||AKTİFBANK|10.40.25.152|||110000438458|90
03.11.2018 10:00:00||AKTİFBANK|10.40.25.152|||110000438458|30
03.11.2018 10:00:00||AKTİFBANK|10.40.25.152|||110000438458|80
03.11.2018 10:00:00||AKTİFBANK|10.40.25.152|||110000438458|30
03.11.2018 10:00:00||AKTİFBANK|10.40.24.150|||110000438458|555
03.11.2018 10:00:00||AKTİFBANK|10.40.24.151|||110000438458|530
03.11.2018 10:00:00||AKTİFBANK|10.40.24.151|||110000438458|530
03.11.2018 10:00:00||AKTİFBANK|10.40.24.128|||110000438458|60
03.11.2018 10:00:00||AKTİFBANK|10.40.24.128|||110000438458|70
03.11.2018 10:00:00||AKTİFBANK|10.40.24.128|||110000438458|100
03.11.2018 10:00:00||AKTİFBANK|10.40.24.128|||110000438458|40
03.11.2018 10:00:00||AKTİFBANK|10.40.24.128|||110000438458|70
03.11.2018 10:00:00||AKTİFBANK|10.40.24.128|||110000438458|50
03.11.2018 10:00:00||AKTİFBANK|10.40.24.129|||110000438458|100
03.11.2018 10:00:00||AKTİFBANK|10.40.24.129|||110000438458|70
03.11.2018 10:00:00||AKTİFBANK|10.40.24.129|||110000438458|110
03.11.2018 10:00:00||AKTİFBANK|10.40.24.129|||110000438458|120
03.11.2018 10:00:00||AKTİFBANK|10.40.24.129|||110000438458|40
03.11.2018 10:00:00||AKTİFBANK|10.40.24.129|||110000438458|70
03.11.2018 10:00:00||AKTİFBANK|10.40.24.129|||110000438458|70
03.11.2018 10:00:00||AKTİFBANK|10.40.24.129|||110000438458|90
03.11.2018 10:00:00||AKTİFBANK|10.40.24.129|||110000438458|80
03.11.2018 10:00:00||AKTİFBANK|10.40.24.129|||110000438458|140
03.11.2018 10:00:00||AKTİFBANK|10.40.24.130|||110000438458|45
03.11.2018 10:00:00||AKTİFBANK|10.40.24.130|||110000438458|40
03.11.2018 10:00:00||AKTİFBANK|10.40.24.130|||110000438458|65
03.11.2018 10:00:00||AKTİFBANK|10.40.24.130|||110000438458|40
03.11.2018 10:00:00||AKTİFBANK|10.40.24.130|||110000438458|60
03.11.2018 10:00:00||AKTİFBANK|10.40.24.130|||110000438458|75
03.11.2018 10:00:00||AKTİFBANK|10.40.24.130|||110000438458|85
03.11.2018 10:00:00||AKTİFBANK|10.40.24.130|||110000438458|40
03.11.2018 10:00:00||AKTİFBANK|10.40.24.130|||110000438458|130
03.11.2018 10:00:00||AKTİFBANK|10.40.24.130|||110000438458|110
03.11.2018 10:00:00||AKTİFBANK|10.40.24.131|||110000438458|87
03.11.2018 10:00:00||AKTİFBANK|10.40.24.131|||110000438458|90
03.11.2018 10:00:00||AKTİFBANK|10.40.24.131|||110000438458|112
03.11.2018 10:00:00||AKTİFBANK|10.40.24.131|||110000438458|112
03.11.2018 10:00:00||AKTİFBANK|10.40.24.131|||110000438458|25
03.11.2018 10:00:00||AKTİFBANK|10.40.24.131|||110000438458|160
03.11.2018 10:00:00||AKTİFBANK|10.40.24.131|||110000438458|60
03.11.2018 10:00:00||AKTİFBANK|10.40.24.131|||110000438458|110
03.11.2018 10:00:00||AKTİFBANK|10.40.24.132|||110000438458|37
03.11.2018 10:00:00||AKTİFBANK|10.40.24.132|||110000438458|78
03.11.2018 10:00:00||AKTİFBANK|10.40.24.132|||110000438458|52
03.11.2018 10:00:00||AKTİFBANK|10.40.24.132|||110000438458|197
03.11.2018 10:00:00||AKTİFBANK|10.40.24.132|||110000438458|62
03.11.2018 10:00:00||AKTİFBANK|10.40.24.143|||110000438458|70
03.11.2018 10:00:00||AKTİFBANK|10.40.24.143|||110000438458|270
03.11.2018 10:00:00||AKTİFBANK|10.40.24.143|||110000438458|290
03.11.2018 10:00:00||AKTİFBANK|10.40.24.143|||110000438458|215
03.11.2018 10:00:00||AKTİFBANK|10.40.24.144|||110000438458|70
03.11.2018 10:00:00||AKTİFBANK|10.40.24.144|||110000438458|108
03.11.2018 10:00:00||AKTİFBANK|10.40.24.144|||110000438458|130
03.11.2018 10:00:00||AKTİFBANK|10.40.24.148|||110000438458|70
03.11.2018 10:00:00||AKTİFBANK|10.40.24.148|||110000438458|170
03.11.2018 10:00:00||AKTİFBANK|10.40.24.148|||110000438458|90
03.11.2018 10:00:00||AKTİFBANK|10.40.24.148|||110000438458|110
03.11.2018 10:00:00||AKTİFBANK|10.40.24.148|||110000438458|80
03.11.2018 10:00:00||AKTİFBANK|10.40.24.148|||110000438458|90
03.11.2018 10:00:00||AKTİFBANK|10.40.24.148|||110000438458|90
03.11.2018 10:00:00||AKTİFBANK|10.40.24.148|||110000438458|100
03.11.2018 10:00:00||AKTİFBANK|10.40.24.148|||110000438458|90
03.11.2018 10:00:00||AKTİFBANK|10.40.24.148|||110000438458|60
03.11.2018 10:00:00||AKTİFBANK|10.40.24.148|||110000438458|30
03.11.2018 10:00:00||AKTİFBANK|10.40.24.148|||110000438458|80
03.11.2018 10:00:00||AKTİFBANK|10.40.24.153|||110000438458|10
03.11.2018 10:00:00||AKTİFBANK|10.40.24.153|||110000438458|90
03.11.2018 10:00:00||AKTİFBANK|10.40.24.153|||110000438458|70
03.11.2018 10:00:00||AKTİFBANK|10.40.24.153|||110000438458|80
03.11.2018 10:00:00||AKTİFBANK|10.40.24.157|||110000438458|30
03.11.2018 10:00:00||AKTİFBANK|10.40.24.157|||110000438458|70
03.11.2018 10:00:00||AKTİFBANK|10.40.24.157|||110000438458|70
03.11.2018 10:00:00||AKTİFBANK|10.40.24.157|||110000438458|40
03.11.2018 10:00:00||AKTİFBANK|10.40.24.157|||110000438458|80
03.11.2018 10:00:00||AKTİFBANK|10.40.24.157|||110000438458|40
03.11.2018 10:00:00||AKTİFBANK|10.40.24.158|||110000438458|80
03.11.2018 10:00:00||AKTİFBANK|10.40.24.158|||110000438458|112
03.11.2018 10:00:00||AKTİFBANK|10.40.24.159|||110000438458|132
03.11.2018 10:00:00||AKTİFBANK|10.40.24.159|||110000438458|55
03.11.2018 10:00:00||AKTİFBANK|10.40.24.159|||110000438458|182
03.11.2018 10:00:00||AKTİFBANK|10.40.24.160|||110000438458|50
03.11.2018 10:00:00||AKTİFBANK|10.40.24.160|||110000438458|92
03.11.2018 10:00:00||AKTİFBANK|10.40.24.160|||110000438458|103
03.11.2018 10:00:00||AKTİFBANK|10.40.24.161|||110000438458|202
03.11.2018 10:00:00||AKTİFBANK|10.40.24.161|||110000438458|80
03.11.2018 10:00:00||AKTİFBANK|10.40.24.161|||110000438458|40
03.11.2018 10:00:00||AKTİFBANK|10.40.24.161|||110000438458|30
03.11.2018 10:00:00||AKTİFBANK|10.40.24.161|||110000438458|30
03.11.2018 10:00:00||AKTİFBANK|10.40.24.161|||110000438458|20
03.11.2018 10:00:00||AKTİFBANK|10.40.24.161|||110000438458|90
03.11.2018 10:00:00||AKTİFBANK|10.40.24.145|||110000438458|30
03.11.2018 10:00:00||AKTİFBANK|10.40.24.145|||110000438458|70
03.11.2018 10:00:00||AKTİFBANK|10.40.24.145|||110000438458|50
03.11.2018 10:00:00||AKTİFBANK|10.40.24.147|||110000438458|90
03.11.2018 10:00:00||AKTİFBANK|10.40.24.162|||110000438458|40
03.11.2018 10:00:00||AKTİFBANK|10.40.24.162|||110000438458|40
03.11.2018 10:00:00||AKTİFBANK|10.40.24.162|||110000438458|102
03.11.2018 10:00:00||AKTİFBANK|10.40.24.162|||110000438458|10
03.11.2018 10:00:00||AKTİFBANK|10.40.24.162|||110000438458|50
03.11.2018 10:00:00||AKTİFBANK|10.40.24.163|||110000438458|30
03.11.2018 10:00:00||AKTİFBANK|10.40.24.163|||110000438458|70
03.11.2018 10:00:00||AKTİFBANK|10.40.24.164|||110000438458|53
03.11.2018 10:00:00||AKTİFBANK|10.40.24.164|||110000438458|330
03.11.2018 10:00:00||AKTİFBANK|10.40.24.164|||110000438458|213
03.11.2018 10:00:00||AKTİFBANK|10.40.24.165|||110000438458|77
03.11.2018 10:00:00||AKTİFBANK|10.40.24.165|||110000438458|80
03.11.2018 10:00:00||AKTİFBANK|10.40.24.165|||110000438458|52
03.11.2018 10:00:00||AKTİFBANK|10.40.24.165|||110000438458|122
03.11.2018 10:00:00||AKTİFBANK|10.40.24.166|||110000438458|80
03.11.2018 10:00:00||AKTİFBANK|10.40.24.166|||110000438458|90
03.11.2018 10:00:00||AKTİFBANK|10.40.24.166|||110000438458|10
03.11.2018 10:00:00||AKTİFBANK|10.40.25.168|||110000438458|90
03.11.2018 10:00:00||AKTİFBANK|10.40.25.168|||110000438458|70
03.11.2018 10:00:00||AKTİFBANK|10.40.25.168|||110000438458|50
03.11.2018 10:00:00||AKTİFBANK|10.40.25.168|||110000438458|40
03.11.2018 10:00:00||AKTİFBANK|10.40.25.168|||110000438458|60
03.11.2018 10:00:00||AKTİFBANK|10.40.24.168|||110000438458|90
03.11.2018 10:00:00||AKTİFBANK|10.40.24.168|||110000438458|80
03.11.2018 10:00:00||AKTİFBANK|10.40.24.168|||110000438458|70
03.11.2018 10:00:00||AKTİFBANK|10.40.24.168|||110000438458|70
03.11.2018 10:00:00||AKTİFBANK|10.40.24.168|||110000438458|30
03.11.2018 10:00:00||AKTİFBANK|10.40.24.154|||110000438458|70
03.11.2018 10:00:00||AKTİFBANK|10.40.24.154|||110000438458|20
03.11.2018 10:00:00||AKTİFBANK|10.40.24.154|||110000438458|10
03.11.2018 10:00:00||AKTİFBANK|10.40.24.154|||110000438458|10
03.11.2018 10:00:00||AKTİFBANK|10.40.24.154|||110000438458|10
03.11.2018 10:00:00||AKTİFBANK|10.40.24.154|||110000438458|10
03.11.2018 10:00:00||AKTİFBANK|10.40.24.155|||110000438458|58
03.11.2018 10:00:00||AKTİFBANK|10.40.24.155|||110000438458|100
03.11.2018 10:00:00||AKTİFBANK|10.40.24.155|||110000438458|130
03.11.2018 10:00:00||AKTİFBANK|10.40.24.155|||110000438458|80
03.11.2018 10:00:00||AKTİFBANK|10.40.24.155|||110000438458|112
03.11.2018 10:00:00||AKTİFBANK|10.40.24.155|||110000438458|100
03.11.2018 10:00:00||AKTİFBANK|10.40.25.169|||110000438458|85
03.11.2018 10:00:00||AKTİFBANK|10.40.25.169|||110000438458|90
03.11.2018 10:00:00||AKTİFBANK|10.40.25.169|||110000438458|70
03.11.2018 10:00:00||AKTİFBANK|10.40.25.169|||110000438458|83
03.11.2018 10:00:00||AKTİFBANK|10.40.24.169|||110000438458|80
03.11.2018 10:00:00||AKTİFBANK|10.40.24.169|||110000438458|93
03.11.2018 10:00:00||AKTİFBANK|10.40.24.169|||110000438458|82
03.11.2018 10:00:00||AKTİFBANK|10.40.24.169|||110000438458|80
03.11.2018 10:00:00||AKTİFBANK|10.40.25.170|||110000438458|30
03.11.2018 10:00:00||AKTİFBANK|10.40.25.170|||110000438458|30
03.11.2018 10:00:00||AKTİFBANK|10.40.25.170|||110000438458|200
03.11.2018 10:00:00||AKTİFBANK|10.40.25.170|||110000438458|100
03.11.2018 10:00:00||AKTİFBANK|10.40.25.170|||110000438458|80
03.11.2018 10:00:00||AKTİFBANK|10.40.25.170|||110000438458|120
03.11.2018 10:00:00||AKTİFBANK|10.40.24.170|||110000438458|60
03.11.2018 10:00:00||AKTİFBANK|10.40.24.170|||110000438458|60
03.11.2018 10:00:00||AKTİFBANK|10.40.24.170|||110000438458|327
03.11.2018 10:00:00||AKTİFBANK|10.40.24.170|||110000438458|45
03.11.2018 10:00:00||AKTİFBANK|10.40.24.170|||110000438458|83
03.11.2018 10:00:00||AKTİFBANK|10.40.24.170|||110000438458|108
03.11.2018 10:00:00||AKTİFBANK|10.40.24.170|||110000438458|85
03.11.2018 10:00:00||AKTİFBANK|10.40.25.178|||110000438458|590
03.11.2018 10:00:00||AKTİFBANK|10.40.25.178|||110000438458|560
03.11.2018 10:00:00||AKTİFBANK|10.40.25.178|||110000438458|550
03.11.2018 10:00:00||AKTİFBANK|10.40.24.178|||110000438458|557
03.11.2018 10:00:00||AKTİFBANK|10.40.24.178|||110000438458|550
03.11.2018 10:00:00||AKTİFBANK|10.40.24.178|||110000438458|557
03.11.2018 10:00:00||AKTİFBANK|10.40.25.179|||110000438458|398
03.11.2018 10:00:00||AKTİFBANK|10.40.25.179|||110000438458|372
03.11.2018 10:00:00||AKTİFBANK|10.40.25.179|||110000438458|375
03.11.2018 10:00:00||AKTİFBANK|10.40.24.179|||110000438458|320
03.11.2018 10:00:00||AKTİFBANK|10.40.24.179|||110000438458|330
03.11.2018 10:00:00||AKTİFBANK|10.40.24.179|||110000438458|320
03.11.2018 10:00:00||AKTİFBANK|10.40.24.142|||110000438458|40
03.11.2018 10:00:00||AKTİFBANK|10.40.24.156|||110000438458|50
03.11.2018 10:00:00||AKTİFBANK|10.40.24.156|||110000438458|50
03.11.2018 10:00:00||AKTİFBANK|10.40.25.186|||110000438458|90
03.11.2018 10:00:00||AKTİFBANK|10.40.25.186|||110000438458|20
03.11.2018 10:00:00||AKTİFBANK|10.40.25.186|||110000438458|70
03.11.2018 10:00:00||AKTİFBANK|10.40.24.186|||110000438458|92
03.11.2018 10:00:00||AKTİFBANK|10.40.24.186|||110000438458|30
03.11.2018 10:00:00||AKTİFBANK|10.40.24.186|||110000438458|60
03.11.2018 10:00:00||AKTİFBANK|10.40.24.186|||110000438458|40
03.11.2018 10:00:00||AKTİFBANK|10.40.24.152|||110000438458|10
03.11.2018 10:00:00||AKTİFBANK|10.40.24.152|||110000438458|50
03.11.2018 10:00:00||AKTİFBANK|10.40.24.152|||110000438458|100
03.11.2018 10:00:00||AKTİFBANK|10.40.24.152|||110000438458|118
03.11.2018 10:00:00||AKTİFBANK|10.40.24.152|||110000438458|102
03.11.2018 10:00:00||AKTİFBANK|10.40.24.152|||110000438458|107
03.11.2018 10:00:00||AKTİFBANK|10.40.24.152|||110000438458|328
03.11.2018 10:00:00||AKTİFBANK|10.40.24.152|||110000438458|72
03.11.2018 10:00:00||AKTİFBANK|10.40.24.152|||110000438458|93
03.11.2018 10:00:00||AKTİFBANK|10.40.24.152|||110000438458|30
03.11.2018 10:00:00||AKTİFBANK|10.40.24.152|||110000438458|72
03.11.2018 10:00:00||AKTİFBANK|10.40.24.152|||110000438458|30
03.11.2018 10:00:00||AKTİFBANK|10.40.25.140|||110000438458|30
03.11.2018 10:00:00||AKTİFBANK|10.40.24.141|||110000438458|50
03.11.2018 10:00:00||AKTİFBANK|10.40.25.133|||110000438458|90
03.11.2018 10:00:00||AKTİFBANK|10.40.25.133|||110000438458|150
03.11.2018 10:00:00||AKTİFBANK|10.40.25.138|||110000438458|130
03.11.2018 10:00:00||AKTİFBANK|10.40.25.138|||110000438458|70
03.11.2018 10:00:00||AKTİFBANK|10.40.25.139|||110000438458|100
03.11.2018 10:00:00||AKTİFBANK|10.40.25.138|||110000438458|13
03.11.2018 10:00:00||AKTİFBANK|10.40.24.149|||110000438458|110
03.11.2018 10:00:00||AKTİFBANK|10.40.24.150|||110000438458|542
03.11.2018 10:00:00||AKTİFBANK|10.40.25.149|||110000438458|103
03.11.2018 10:00:00||AKTİFBANK|10.40.25.149|||110000438458|90
03.11.2018 10:00:00||AKTİFBANK|10.40.25.149|||110000438458|90
03.11.2018 10:00:00||AKTİFBANK|10.40.24.151|||110000438458|500
03.11.2018 10:00:00||AKTİFBANK|10.40.25.153|||110000438458|80
03.11.2018 10:00:00||AKTİFBANK|10.40.24.149|||110000438458|88
03.11.2018 10:00:00||AKTİFBANK|10.40.24.149|||110000438458|90
03.11.2018 10:00:00||AKTİFBANK|10.40.25.149|||110000438458|70
03.11.2018 10:00:00||AKTİFBANK|10.40.25.149|||110000438458|70
03.11.2018 10:00:00||AKTİFBANK|10.40.25.149|||110000438458|130
03.11.2018 10:00:00||AKTİFBANK|10.40.24.145|||110000438458|70
03.11.2018 10:00:00||AKTİFBANK|10.40.24.149|||110000438458|160
03.11.2018 10:00:00||AKTİFBANK|10.40.25.153|||110000438458|60
03.11.2018 10:00:00||AKTİFBANK|10.40.24.150|||110000438458|555
03.11.2018 10:00:00||AKTİFBANK|10.40.24.162|||110000438458|213
03.11.2018 10:00:00||AKTİFBANK|10.40.24.162|||110000438458|30
03.11.2018 10:00:00||AKTİFBANK|10.40.24.162|||110000438458|40
03.11.2018 10:00:00||AKTİFBANK|10.40.24.133|||110000438458|87
03.11.2018 10:00:00||AKTİFBANK|10.40.24.138|||110000438458|122
03.11.2018 10:00:00||AKTİFBANK|10.40.24.139|||110000438458|30
03.11.2018 10:00:00||AKTİFBANK|10.40.24.164|||110000438458|70
03.11.2018 10:00:00||AKTİFBANK|10.40.24.145|||110000438458|60
03.11.2018 10:00:00||AKTİFBANK|10.40.24.164|||110000438458|228
03.11.2018 10:00:00||AKTİFBANK|10.40.25.133|||110000438458|70
03.11.2018 10:00:00||AKTİFBANK|10.40.24.145|||110000438458|90
03.11.2018 10:00:00||AKTİFBANK|10.40.25.151|||110000438458|510
03.11.2018 10:00:00||AKTİFBANK|10.40.24.158|||110000438458|82
03.11.2018 10:00:00||AKTİFBANK|10.40.25.138|||110000438458|80
03.11.2018 10:00:00||AKTİFBANK|10.40.25.139|||110000438458|10
03.11.2018 10:00:00||AKTİFBANK|10.40.25.140|||110000438458|30
03.11.2018 10:00:00||AKTİFBANK|10.40.25.151|||110000438458|515
03.11.2018 10:00:00||AKTİFBANK|10.40.25.141|||110000438458|100
03.11.2018 10:00:00||AKTİFBANK|10.40.25.141|||110000438458|100
03.11.2018 10:00:00||AKTİFBANK|10.40.25.142|||110000438458|75
03.11.2018 10:00:00||AKTİFBANK|10.40.25.140|||110000438458|80
03.11.2018 10:00:00||AKTİFBANK|10.40.25.140|||110000438458|70
03.11.2018 10:00:00||AKTİFBANK|10.40.25.151|||110000438458|508
03.11.2018 10:00:00||AKTİFBANK|10.40.25.141|||110000438458|100
03.11.2018 10:00:00||AKTİFBANK|10.40.25.141|||110000438458|80
03.11.2018 10:00:00||AKTİFBANK|10.40.25.149|||110000438458|70
03.11.2018 10:00:00||AKTİFBANK|10.40.25.149|||110000438458|90
03.11.2018 10:00:00||AKTİFBANK|10.40.25.149|||110000438458|92
03.11.2018 10:00:00||AKTİFBANK|10.40.25.149|||110000438458|103
03.11.2018 10:00:00||AKTİFBANK|10.40.25.141|||110000438458|100
03.11.2018 10:00:00||AKTİFBANK|10.40.25.138|||110000438458|93
03.11.2018 10:00:00||AKTİFBANK|10.40.25.138|||110000438458|30
03.11.2018 10:00:00||AKTİFBANK|10.40.25.149|||110000438458|72
03.11.2018 10:00:00||AKTİFBANK|10.40.25.149|||110000438458|70
03.11.2018 10:00:00||AKTİFBANK|10.40.25.149|||110000438458|28
03.11.2018 10:00:00||AKTİFBANK|10.40.25.133|||110000438458|110
03.11.2018 10:00:00||AKTİFBANK|10.40.25.150|||110000438458|538
03.11.2018 10:00:00||AKTİFBANK|10.40.25.139|||110000438458|170
03.11.2018 10:00:00||AKTİFBANK|10.40.25.139|||110000438458|40
03.11.2018 10:00:00||AKTİFBANK|10.40.25.140|||110000438458|30
03.11.2018 10:00:00||AKTİFBANK|10.40.25.141|||110000438458|40
03.11.2018 10:00:00||AKTİFBANK|10.40.25.142|||110000438458|40
03.11.2018 10:00:00||AKTİFBANK|10.40.25.149|||110000438458|110
03.11.2018 10:00:00||AKTİFBANK|10.40.24.139|||110000438458|60
03.11.2018 10:00:00||AKTİFBANK|10.40.25.153|||110000438458|10
03.11.2018 10:00:00||AKTİFBANK|10.40.25.150|||110000438458|550
03.11.2018 10:00:00||AKTİFBANK|10.40.25.153|||110000438458|70
03.11.2018 10:00:00||AKTİFBANK|10.40.25.163|||110000438458|50
03.11.2018 10:00:00||AKTİFBANK|10.40.24.141|||110000438458|70
03.11.2018 10:00:00||AKTİFBANK|10.40.25.133|||110000438458|280
03.11.2018 10:00:00||AKTİFBANK|10.40.25.128|||110000438458|70
03.11.2018 10:00:00||AKTİFBANK|10.40.25.128|||110000438458|90
03.11.2018 10:00:00||AKTİFBANK|10.40.25.128|||110000438458|90
03.11.2018 10:00:00||AKTİFBANK|10.40.25.128|||110000438458|40
03.11.2018 10:00:00||AKTİFBANK|10.40.25.128|||110000438458|67
03.11.2018 10:00:00||AKTİFBANK|10.40.25.129|||110000438458|80
03.11.2018 10:00:00||AKTİFBANK|10.40.25.129|||110000438458|70
03.11.2018 10:00:00||AKTİFBANK|10.40.25.129|||110000438458|137
03.11.2018 10:00:00||AKTİFBANK|10.40.25.129|||110000438458|100
03.11.2018 10:00:00||AKTİFBANK|10.40.25.129|||110000438458|42
03.11.2018 10:00:00||AKTİFBANK|10.40.25.129|||110000438458|97
03.11.2018 10:00:00||AKTİFBANK|10.40.25.129|||110000438458|95
03.11.2018 10:00:00||AKTİFBANK|10.40.25.130|||110000438458|70
03.11.2018 10:00:00||AKTİFBANK|10.40.25.130|||110000438458|50
03.11.2018 10:00:00||AKTİFBANK|10.40.25.130|||110000438458|80
03.11.2018 10:00:00||AKTİFBANK|10.40.25.130|||110000438458|40
03.11.2018 10:00:00||AKTİFBANK|10.40.25.130|||110000438458|60
03.11.2018 10:00:00||AKTİFBANK|10.40.25.130|||110000438458|100
03.11.2018 10:00:00||AKTİFBANK|10.40.25.130|||110000438458|90
03.11.2018 10:00:00||AKTİFBANK|10.40.25.131|||110000438458|20
03.11.2018 10:00:00||AKTİFBANK|10.40.25.131|||110000438458|77
03.11.2018 10:00:00||AKTİFBANK|10.40.25.131|||110000438458|102
03.11.2018 10:00:00||AKTİFBANK|10.40.25.131|||110000438458|105
03.11.2018 10:00:00||AKTİFBANK|10.40.25.131|||110000438458|83
03.11.2018 10:00:00||AKTİFBANK|10.40.25.131|||110000438458|80
03.11.2018 10:00:00||AKTİFBANK|10.40.25.131|||110000438458|22
03.11.2018 10:00:00||AKTİFBANK|10.40.25.131|||110000438458|120
03.11.2018 10:00:00||AKTİFBANK|10.40.25.132|||110000438458|67
03.11.2018 10:00:00||AKTİFBANK|10.40.25.132|||110000438458|65
03.11.2018 10:00:00||AKTİFBANK|10.40.25.132|||110000438458|13
03.11.2018 10:00:00||AKTİFBANK|10.40.25.132|||110000438458|112
03.11.2018 10:00:00||AKTİFBANK|10.40.25.132|||110000438458|42
03.11.2018 10:00:00||AKTİFBANK|10.40.25.143|||110000438458|317
03.11.2018 10:00:00||AKTİFBANK|10.40.25.144|||110000438458|80
03.11.2018 10:00:00||AKTİFBANK|10.40.25.144|||110000438458|50
03.11.2018 10:00:00||AKTİFBANK|10.40.25.144|||110000438458|20
03.11.2018 10:00:00||AKTİFBANK|10.40.25.154|||110000438458|10
03.11.2018 10:00:00||AKTİFBANK|10.40.25.154|||110000438458|10
03.11.2018 10:00:00||AKTİFBANK|10.40.25.154|||110000438458|10
03.11.2018 10:00:00||AKTİFBANK|10.40.25.157|||110000438458|72
03.11.2018 10:00:00||AKTİFBANK|10.40.25.157|||110000438458|70
03.11.2018 10:00:00||AKTİFBANK|10.40.25.157|||110000438458|70
03.11.2018 10:00:00||AKTİFBANK|10.40.25.157|||110000438458|82
03.11.2018 10:00:00||AKTİFBANK|10.40.25.157|||110000438458|40
03.11.2018 10:00:00||AKTİFBANK|10.40.25.159|||110000438458|60
03.11.2018 10:00:00||AKTİFBANK|10.40.25.159|||110000438458|10
03.11.2018 10:00:00||AKTİFBANK|10.40.25.159|||110000438458|90
03.11.2018 10:00:00||AKTİFBANK|10.40.25.158|||110000438458|73
03.11.2018 10:00:00||AKTİFBANK|10.40.25.158|||110000438458|93
03.11.2018 10:00:00||AKTİFBANK|10.40.25.158|||110000438458|43
03.11.2018 10:00:00||AKTİFBANK|10.40.25.158|||110000438458|50
03.11.2018 10:00:00||AKTİFBANK|10.40.25.160|||110000438458|90
03.11.2018 10:00:00||AKTİFBANK|10.40.25.161|||110000438458|80
03.11.2018 10:00:00||AKTİFBANK|10.40.25.161|||110000438458|70
03.11.2018 10:00:00||AKTİFBANK|10.40.25.161|||110000438458|50
03.11.2018 10:00:00||AKTİFBANK|10.40.25.145|||110000438458|90
03.11.2018 10:00:00||AKTİFBANK|10.40.25.145|||110000438458|60
03.11.2018 10:00:00||AKTİFBANK|10.40.25.145|||110000438458|60
03.11.2018 10:00:00||AKTİFBANK|10.40.25.145|||110000438458|30
03.11.2018 10:00:00||AKTİFBANK|10.40.25.145|||110000438458|50
03.11.2018 10:00:00||AKTİFBANK|10.40.25.147|||110000438458|90
03.11.2018 10:00:00||AKTİFBANK|10.40.25.162|||110000438458|30
03.11.2018 10:00:00||AKTİFBANK|10.40.25.162|||110000438458|30
03.11.2018 10:00:00||AKTİFBANK|10.40.25.162|||110000438458|60
03.11.2018 10:00:00||AKTİFBANK|10.40.25.164|||110000438458|60
03.11.2018 10:00:00||AKTİFBANK|10.40.25.164|||110000438458|280
03.11.2018 10:00:00||AKTİFBANK|10.40.25.164|||110000438458|50
03.11.2018 10:00:00||AKTİFBANK|10.40.25.164|||110000438458|260
03.11.2018 10:00:00||AKTİFBANK|10.40.25.164|||110000438458|270
03.11.2018 10:00:00||AKTİFBANK|10.40.25.165|||110000438458|110
03.11.2018 10:00:00||AKTİFBANK|10.40.25.165|||110000438458|70
03.11.2018 10:00:00||AKTİFBANK|10.40.25.165|||110000438458|80
03.11.2018 10:00:00||AKTİFBANK|10.40.25.165|||110000438458|102
03.11.2018 10:00:00||AKTİFBANK|10.40.25.166|||110000438458|90
03.11.2018 10:00:00||AKTİFBANK|10.40.25.166|||110000438458|10
03.11.2018 10:00:00||AKTİFBANK|10.40.25.166|||110000438458|10
03.11.2018 10:00:00||AKTİFBANK|10.40.25.166|||110000438458|40
03.11.2018 10:00:00||AKTİFBANK|10.40.25.148|||110000438458|130
03.11.2018 10:00:00||AKTİFBANK|10.40.25.148|||110000438458|50
03.11.2018 10:00:00||AKTİFBANK|10.40.25.148|||110000438458|100
03.11.2018 10:00:00||AKTİFBANK|10.40.25.148|||110000438458|130
03.11.2018 10:00:00||AKTİFBANK|10.40.25.148|||110000438458|90
03.11.2018 10:00:00||AKTİFBANK|10.40.25.148|||110000438458|80
03.11.2018 10:00:00||AKTİFBANK|10.40.25.148|||110000438458|70
03.11.2018 10:00:00||AKTİFBANK|10.40.25.148|||110000438458|50
03.11.2018 10:00:00||AKTİFBANK|10.40.25.148|||110000438458|80
03.11.2018 10:00:00||AKTİFBANK|10.40.25.148|||110000438458|40
03.11.2018 10:00:00||AKTİFBANK|10.40.25.148|||110000438458|100
03.11.2018 10:00:00||AKTİFBANK|10.40.25.148|||110000438458|60
03.11.2018 10:00:00||AKTİFBANK|10.40.25.155|||110000438458|70
03.11.2018 10:00:00||AKTİFBANK|10.40.25.155|||110000438458|90
03.11.2018 10:00:00||AKTİFBANK|10.40.25.155|||110000438458|110
03.11.2018 10:00:00||AKTİFBANK|10.40.25.155|||110000438458|120
03.11.2018 10:00:00||AKTİFBANK|10.40.25.155|||110000438458|110
03.11.2018 10:00:00||AKTİFBANK|10.40.25.156|||110000438458|20
03.11.2018 10:00:00||AKTİFBANK|10.40.25.156|||110000438458|23
03.11.2018 10:00:00||BARİKAT İNTERNET GÜVENLİĞİ|10.40.24.201|||110000479736|140
03.11.2018 10:00:00||BARİKAT İNTERNET GÜVENLİĞİ|10.40.24.201|||110000479736|100
03.11.2018 10:00:00||BARİKAT İNTERNET GÜVENLİĞİ|10.40.25.201|||110000479736|120
03.11.2018 10:00:00||BARİKAT İNTERNET GÜVENLİĞİ|10.40.25.201|||110000479736|100
03.11.2018 10:00:00||BOYNER|10.40.26.100|||101367941673|57
03.11.2018 10:00:00||BOYNER|10.40.26.101|||101367941673|166
03.11.2018 10:00:00||BOYNER|10.40.27.100|||101367941673|51
03.11.2018 10:00:00||BOYNER|10.40.27.101|||101367941673|165
03.11.2018 10:00:00||BOYNER|10.40.27.94|||101367941673|210
03.11.2018 10:00:00||BOYNER|10.40.27.94|||101367941673|90
03.11.2018 10:00:00||BOYNER|10.40.27.94|||101367941673|90
03.11.2018 10:00:00||BOYNER|10.40.27.94|||101367941673|100
03.11.2018 10:00:00||BOYNER|10.40.26.94|||101367941673|90
03.11.2018 10:00:00||BOYNER|10.40.26.94|||101367941673|80
03.11.2018 10:00:00||BOYNER|10.40.26.94|||101367941673|80
03.11.2018 10:00:00||BOYNER|10.40.27.95|||101367941673|133
03.11.2018 10:00:00||BOYNER|10.40.27.95|||101367941673|128
03.11.2018 10:00:00||BOYNER|10.40.27.95|||101367941673|235
03.11.2018 10:00:00||BOYNER|10.40.26.95|||101367941673|128
03.11.2018 10:00:00||BOYNER|10.40.26.95|||101367941673|197
03.11.2018 10:00:00||BOYNER|10.40.26.95|||101367941673|135
03.11.2018 10:00:00||BOYNER|10.40.27.96|||101367941673|60
03.11.2018 10:00:00||BOYNER|10.40.27.96|||101367941673|52
03.11.2018 10:00:00||BOYNER|10.40.27.96|||101367941673|50
03.11.2018 10:00:00||BOYNER|10.40.27.96|||101367941673|40
03.11.2018 10:00:00||BOYNER|10.40.27.96|||101367941673|40
03.11.2018 10:00:00||BOYNER|10.40.27.96|||101367941673|155
03.11.2018 10:00:00||BOYNER|10.40.27.96|||101367941673|153
03.11.2018 10:00:00||BOYNER|10.40.27.96|||101367941673|175
03.11.2018 10:00:00||BOYNER|10.40.27.96|||101367941673|170
03.11.2018 10:00:00||BOYNER|10.40.26.96|||101367941673|30
03.11.2018 10:00:00||BOYNER|10.40.26.96|||101367941673|38
03.11.2018 10:00:00||BOYNER|10.40.26.96|||101367941673|30
03.11.2018 10:00:00||BOYNER|10.40.26.96|||101367941673|40
03.11.2018 10:00:00||BOYNER|10.40.26.96|||101367941673|40
03.11.2018 10:00:00||BOYNER|10.40.26.96|||101367941673|50
03.11.2018 10:00:00||BOYNER|10.40.26.96|||101367941673|192
03.11.2018 10:00:00||BOYNER|10.40.26.96|||101367941673|205
03.11.2018 10:00:00||BOYNER|10.40.26.96|||101367941673|165
03.11.2018 10:00:00||BOYNER|10.40.26.96|||101367941673|175
03.11.2018 10:00:00||BOYNER|10.40.27.97|||101367941673|60
03.11.2018 10:00:00||BOYNER|10.40.27.97|||101367941673|658
03.11.2018 10:00:00||BOYNER|10.40.27.97|||101367941673|665
03.11.2018 10:00:00||BOYNER|10.40.27.97|||101367941673|697
03.11.2018 10:00:00||BOYNER|10.40.27.97|||101367941673|42
03.11.2018 10:00:00||BOYNER|10.40.27.97|||101367941673|30
03.11.2018 10:00:00||BOYNER|10.40.27.97|||101367941673|50
03.11.2018 10:00:00||BOYNER|10.40.27.97|||101367941673|30
03.11.2018 10:00:00||BOYNER|10.40.27.97|||101367941673|175
03.11.2018 10:00:00||BOYNER|10.40.27.97|||101367941673|183
03.11.2018 10:00:00||BOYNER|10.40.27.97|||101367941673|185
03.11.2018 10:00:00||BOYNER|10.40.27.97|||101367941673|198
03.11.2018 10:00:00||BOYNER|10.40.26.97|||101367941673|30
03.11.2018 10:00:00||BOYNER|10.40.26.97|||101367941673|655
03.11.2018 10:00:00||BOYNER|10.40.26.97|||101367941673|657
03.11.2018 10:00:00||BOYNER|10.40.26.97|||101367941673|657
03.11.2018 10:00:00||BOYNER|10.40.26.97|||101367941673|33
03.11.2018 10:00:00||BOYNER|10.40.26.97|||101367941673|40
03.11.2018 10:00:00||BOYNER|10.40.26.97|||101367941673|50
03.11.2018 10:00:00||BOYNER|10.40.26.97|||101367941673|60
03.11.2018 10:00:00||BOYNER|10.40.26.97|||101367941673|30
03.11.2018 10:00:00||BOYNER|10.40.26.97|||101367941673|168
03.11.2018 10:00:00||BOYNER|10.40.26.97|||101367941673|180
03.11.2018 10:00:00||BOYNER|10.40.26.97|||101367941673|172
03.11.2018 10:00:00||BOYNER|10.40.26.97|||101367941673|162
03.11.2018 10:00:00||BOYNER|10.40.27.99|||101367941673|125
03.11.2018 10:00:00||BOYNER|10.40.27.99|||101367941673|98
03.11.2018 10:00:00||BOYNER|10.40.27.99|||101367941673|78
03.11.2018 10:00:00||BOYNER|10.40.26.99|||101367941673|13
03.11.2018 10:00:00||BOYNER|10.40.26.99|||101367941673|107
03.11.2018 10:00:00||BOYNER|10.40.26.99|||101367941673|110
03.11.2018 10:00:00||BOYNER|10.40.26.99|||101367941673|72
03.11.2018 10:00:00||ÇALIK HOLDİNG|10.40.24.118|||110000438407|38
03.11.2018 10:00:00||ÇALIK HOLDİNG|10.40.25.118|||110000438407|269
03.11.2018 10:00:00||ÇALIK HOLDİNG|10.40.25.99|||110000438407|138
03.11.2018 10:00:00||ÇALIK HOLDİNG|10.40.25.101|||110000438407|50
03.11.2018 10:00:00||ÇALIK HOLDİNG|10.40.25.101|||110000438407|110
03.11.2018 10:00:00||ÇALIK HOLDİNG|10.40.25.101|||110000438407|30
03.11.2018 10:00:00||ÇALIK HOLDİNG|10.40.25.101|||110000438407|10
03.11.2018 10:00:00||ÇALIK HOLDİNG|10.40.25.101|||110000438407|90
03.11.2018 10:00:00||ÇALIK HOLDİNG|10.40.25.101|||110000438407|30
03.11.2018 10:00:00||ÇALIK HOLDİNG|10.40.25.101|||110000438407|40
03.11.2018 10:00:00||ÇALIK HOLDİNG|10.40.25.101|||110000438407|40
03.11.2018 10:00:00||ÇALIK HOLDİNG|10.40.25.101|||110000438407|90
03.11.2018 10:00:00||ÇALIK HOLDİNG|10.40.25.101|||110000438407|90
03.11.2018 10:00:00||ÇALIK HOLDİNG|10.40.25.101|||110000438407|90
03.11.2018 10:00:00||ÇALIK HOLDİNG|10.40.25.94|||110000438407|180
03.11.2018 10:00:00||ÇALIK HOLDİNG|10.40.25.94|||110000438407|180
03.11.2018 10:00:00||ÇALIK HOLDİNG|10.40.25.94|||110000438407|170
03.11.2018 10:00:00||ÇALIK HOLDİNG|10.40.25.94|||110000438407|180
03.11.2018 10:00:00||ÇALIK HOLDİNG|10.40.24.94|||110000438407|223
03.11.2018 10:00:00||ÇALIK HOLDİNG|10.40.24.94|||110000438407|190
03.11.2018 10:00:00||ÇALIK HOLDİNG|10.40.24.94|||110000438407|193
03.11.2018 10:00:00||ÇALIK HOLDİNG|10.40.25.95|||110000438407|20
03.11.2018 10:00:00||ÇALIK HOLDİNG|10.40.25.95|||110000438407|345
03.11.2018 10:00:00||ÇALIK HOLDİNG|10.40.25.95|||110000438407|352
03.11.2018 10:00:00||ÇALIK HOLDİNG|10.40.25.95|||110000438407|40
03.11.2018 10:00:00||ÇALIK HOLDİNG|10.40.24.95|||110000438407|100
03.11.2018 10:00:00||ÇALIK HOLDİNG|10.40.24.95|||110000438407|93
03.11.2018 10:00:00||ÇALIK HOLDİNG|10.40.24.95|||110000438407|385
03.11.2018 10:00:00||ÇALIK HOLDİNG|10.40.24.95|||110000438407|388
03.11.2018 10:00:00||ÇALIK HOLDİNG|10.40.25.96|||110000438407|90
03.11.2018 10:00:00||ÇALIK HOLDİNG|10.40.25.96|||110000438407|100
03.11.2018 10:00:00||ÇALIK HOLDİNG|10.40.25.96|||110000438407|100
03.11.2018 10:00:00||ÇALIK HOLDİNG|10.40.25.96|||110000438407|255
03.11.2018 10:00:00||ÇALIK HOLDİNG|10.40.25.96|||110000438407|265
03.11.2018 10:00:00||ÇALIK HOLDİNG|10.40.25.96|||110000438407|100
03.11.2018 10:00:00||ÇALIK HOLDİNG|10.40.25.96|||110000438407|90
03.11.2018 10:00:00||ÇALIK HOLDİNG|10.40.25.96|||110000438407|95
03.11.2018 10:00:00||ÇALIK HOLDİNG|10.40.25.97|||110000438407|90
03.11.2018 10:00:00||ÇALIK HOLDİNG|10.40.25.97|||110000438407|80
03.11.2018 10:00:00||ÇALIK HOLDİNG|10.40.25.97|||110000438407|310
03.11.2018 10:00:00||ÇALIK HOLDİNG|10.40.25.98|||110000438407|67
03.11.2018 10:00:00||ÇALIK HOLDİNG|10.40.25.98|||110000438407|168
03.11.2018 10:00:00||ÇALIK HOLDİNG|10.40.25.98|||110000438407|160
03.11.2018 10:00:00||ÇALIK HOLDİNG|10.40.25.98|||110000438407|170
03.11.2018 10:00:00||ÇALIK HOLDİNG|10.40.25.98|||110000438407|170
03.11.2018 10:00:00||ÇALIK HOLDİNG|10.40.25.98|||110000438407|70
03.11.2018 10:00:00||ÇALIK HOLDİNG|10.40.25.98|||110000438407|210
03.11.2018 10:00:00||ÇALIK HOLDİNG|10.40.25.98|||110000438407|180
03.11.2018 10:00:00||ÇALIK HOLDİNG|10.40.25.98|||110000438407|170
03.11.2018 10:00:00||ÇALIK HOLDİNG|10.40.25.98|||110000438407|212
03.11.2018 10:00:00||ÇALIK HOLDİNG|10.40.25.98|||110000438407|80
03.11.2018 10:00:00||ÇALIK HOLDİNG|10.40.25.98|||110000438407|303
03.11.2018 10:00:00||ÇALIK HOLDİNG|10.40.24.98|||110000438407|98
03.11.2018 10:00:00||ÇALIK HOLDİNG|10.40.24.98|||110000438407|160
03.11.2018 10:00:00||ÇALIK HOLDİNG|10.40.24.98|||110000438407|200
03.11.2018 10:00:00||ÇALIK HOLDİNG|10.40.24.98|||110000438407|200
03.11.2018 10:00:00||ÇALIK HOLDİNG|10.40.24.98|||110000438407|163
03.11.2018 10:00:00||ÇALIK HOLDİNG|10.40.24.98|||110000438407|30
03.11.2018 10:00:00||ÇALIK HOLDİNG|10.40.24.98|||110000438407|167
03.11.2018 10:00:00||ÇALIK HOLDİNG|10.40.24.98|||110000438407|180
03.11.2018 10:00:00||ÇALIK HOLDİNG|10.40.24.98|||110000438407|170
03.11.2018 10:00:00||ÇALIK HOLDİNG|10.40.24.98|||110000438407|173
03.11.2018 10:00:00||ÇALIK HOLDİNG|10.40.24.98|||110000438407|23
03.11.2018 10:00:00||ÇALIK HOLDİNG|10.40.24.98|||110000438407|275
03.11.2018 10:00:00||ÇALIK HOLDİNG|10.40.25.100|||110000438407|37
03.11.2018 10:00:00||ÇALIK HOLDİNG|10.40.25.100|||110000438407|40
03.11.2018 10:00:00||ÇALIK HOLDİNG|10.40.24.101|||110000438407|60
03.11.2018 10:00:00||ÇALIK HOLDİNG|10.40.24.101|||110000438407|110
03.11.2018 10:00:00||ÇALIK HOLDİNG|10.40.24.101|||110000438407|20
03.11.2018 10:00:00||ÇALIK HOLDİNG|10.40.24.101|||110000438407|20
03.11.2018 10:00:00||ÇALIK HOLDİNG|10.40.24.101|||110000438407|40
03.11.2018 10:00:00||ÇALIK HOLDİNG|10.40.24.101|||110000438407|82
03.11.2018 10:00:00||ÇALIK HOLDİNG|10.40.24.101|||110000438407|30
03.11.2018 10:00:00||ÇALIK HOLDİNG|10.40.24.101|||110000438407|10
03.11.2018 10:00:00||ÇALIK HOLDİNG|10.40.24.101|||110000438407|20
03.11.2018 10:00:00||ÇALIK HOLDİNG|10.40.24.101|||110000438407|50
03.11.2018 10:00:00||ÇALIK HOLDİNG|10.40.24.101|||110000438407|30
03.11.2018 10:00:00||ÇALIK HOLDİNG|10.40.24.101|||110000438407|80
03.11.2018 10:00:00||ÇALIK HOLDİNG|10.40.24.101|||110000438407|80
03.11.2018 10:00:00||ÇALIK HOLDİNG|10.40.24.101|||110000438407|90
03.11.2018 10:00:00||ÇALIK HOLDİNG|10.40.25.102|||110000438407|100
03.11.2018 10:00:00||ÇALIK HOLDİNG|10.40.25.102|||110000438407|90
03.11.2018 10:00:00||ÇALIK HOLDİNG|10.40.25.102|||110000438407|150
03.11.2018 10:00:00||ÇALIK HOLDİNG|10.40.24.102|||110000438407|100
03.11.2018 10:00:00||ÇALIK HOLDİNG|10.40.24.102|||110000438407|90
03.11.2018 10:00:00||ÇALIK HOLDİNG|10.40.24.102|||110000438407|140
03.11.2018 10:00:00||ÇALIK HOLDİNG|10.40.25.103|||110000438407|90
03.11.2018 10:00:00||ÇALIK HOLDİNG|10.40.25.103|||110000438407|80
03.11.2018 10:00:00||ÇALIK HOLDİNG|10.40.25.103|||110000438407|10
03.11.2018 10:00:00||ÇALIK HOLDİNG|10.40.25.115|||110000438407|85
03.11.2018 10:00:00||ÇALIK HOLDİNG|10.40.24.103|||110000438407|100
03.11.2018 10:00:00||ÇALIK HOLDİNG|10.40.24.103|||110000438407|80
03.11.2018 10:00:00||ÇALIK HOLDİNG|10.40.24.103|||110000438407|80
03.11.2018 10:00:00||ÇALIK HOLDİNG|10.40.24.103|||110000438407|20
03.11.2018 10:00:00||ÇALIK HOLDİNG|10.40.24.103|||110000438407|10
03.11.2018 10:00:00||ÇALIK HOLDİNG|10.40.25.113|||110000438407|227
03.11.2018 10:00:00||ÇALIK HOLDİNG|10.40.25.113|||110000438407|240
03.11.2018 10:00:00||ÇALIK HOLDİNG|10.40.25.113|||110000438407|192
03.11.2018 10:00:00||ÇALIK HOLDİNG|10.40.25.113|||110000438407|203
03.11.2018 10:00:00||ÇALIK HOLDİNG|10.40.24.113|||110000438407|237
03.11.2018 10:00:00||ÇALIK HOLDİNG|10.40.24.113|||110000438407|232
03.11.2018 10:00:00||ÇALIK HOLDİNG|10.40.24.113|||110000438407|190
03.11.2018 10:00:00||ÇALIK HOLDİNG|10.40.24.113|||110000438407|158
03.11.2018 10:00:00||ÇALIK HOLDİNG|10.40.25.114|||110000438407|192
03.11.2018 10:00:00||ÇALIK HOLDİNG|10.40.25.114|||110000438407|438
03.11.2018 10:00:00||ÇALIK HOLDİNG|10.40.25.114|||110000438407|40
03.11.2018 10:00:00||ÇALIK HOLDİNG|10.40.24.114|||110000438407|20
03.11.2018 10:00:00||ÇALIK HOLDİNG|10.40.24.114|||110000438407|40
03.11.2018 10:00:00||ÇALIK HOLDİNG|10.40.24.114|||110000438407|158
03.11.2018 10:00:00||ÇALIK HOLDİNG|10.40.24.114|||110000438407|397
03.11.2018 10:00:00||ÇALIK HOLDİNG|10.40.24.115|||110000438407|170
03.11.2018 10:00:00||ÇALIK HOLDİNG|10.40.24.115|||110000438407|80
03.11.2018 10:00:00||ÇALIK HOLDİNG|10.40.24.115|||110000438407|90
03.11.2018 10:00:00||ÇALIK HOLDİNG|10.40.24.115|||110000438407|80
03.11.2018 10:00:00||ÇALIK HOLDİNG|10.40.24.115|||110000438407|90
03.11.2018 10:00:00||ÇALIK HOLDİNG|10.40.24.115|||110000438407|70
03.11.2018 10:00:00||ÇALIK HOLDİNG|10.40.25.116|||110000438407|102
03.11.2018 10:00:00||ÇALIK HOLDİNG|10.40.25.116|||110000438407|100
03.11.2018 10:00:00||ÇALIK HOLDİNG|10.40.25.116|||110000438407|293
03.11.2018 10:00:00||ÇALIK HOLDİNG|10.40.24.116|||110000438407|280
03.11.2018 10:00:00||ÇALIK HOLDİNG|10.40.24.116|||110000438407|100
03.11.2018 10:00:00||ÇALIK HOLDİNG|10.40.24.116|||110000438407|100
03.11.2018 10:00:00||ÇALIK HOLDİNG|10.40.25.117|||110000438407|250
03.11.2018 10:00:00||ÇALIK HOLDİNG|10.40.25.117|||110000438407|30
03.11.2018 10:00:00||ÇALIK HOLDİNG|10.40.25.117|||110000438407|25
03.11.2018 10:00:00||ÇALIK HOLDİNG|10.40.25.119|||110000438407|30
03.11.2018 10:00:00||ÇALIK HOLDİNG|10.40.25.119|||110000438407|30
03.11.2018 10:00:00||ÇALIK HOLDİNG|10.40.24.119|||110000438407|150
03.11.2018 10:00:00||ÇALIK HOLDİNG|10.40.24.119|||110000438407|30
03.11.2018 10:00:00||ÇALIK HOLDİNG|10.40.24.119|||110000438407|50
03.11.2018 10:00:00||ÇALIK HOLDİNG|10.40.25.120|||110000438407|107
03.11.2018 10:00:00||ÇALIK HOLDİNG|10.40.25.120|||110000438407|50
03.11.2018 10:00:00||ÇALIK HOLDİNG|10.40.25.120|||110000438407|20
03.11.2018 10:00:00||ÇALIK HOLDİNG|10.40.25.120|||110000438407|20
03.11.2018 10:00:00||ÇALIK HOLDİNG|10.40.25.120|||110000438407|30
03.11.2018 10:00:00||ÇALIK HOLDİNG|10.40.25.120|||110000438407|90
03.11.2018 10:00:00||ÇALIK HOLDİNG|10.40.25.120|||110000438407|90
03.11.2018 10:00:00||ÇALIK HOLDİNG|10.40.24.120|||110000438407|20
03.11.2018 10:00:00||ÇALIK HOLDİNG|10.40.24.120|||110000438407|30
03.11.2018 10:00:00||ÇALIK HOLDİNG|10.40.24.120|||110000438407|110
03.11.2018 10:00:00||ÇALIK HOLDİNG|10.40.24.120|||110000438407|100
03.11.2018 10:00:00||ÇALIK HOLDİNG|10.40.24.120|||110000438407|40
03.11.2018 10:00:00||ÇALIK HOLDİNG|10.40.24.120|||110000438407|80
03.11.2018 10:00:00||ÇALIK HOLDİNG|10.40.24.120|||110000438407|80
03.11.2018 10:00:00||ÇALIK HOLDİNG|10.40.24.120|||110000438407|70
03.11.2018 10:00:00||ÇALIK HOLDİNG|10.40.25.121|||110000438407|90
03.11.2018 10:00:00||ÇALIK HOLDİNG|10.40.25.121|||110000438407|100
03.11.2018 10:00:00||ÇALIK HOLDİNG|10.40.25.121|||110000438407|150
03.11.2018 10:00:00||ÇALIK HOLDİNG|10.40.24.121|||110000438407|100
03.11.2018 10:00:00||ÇALIK HOLDİNG|10.40.24.121|||110000438407|100
03.11.2018 10:00:00||ÇALIK HOLDİNG|10.40.24.121|||110000438407|140
03.11.2018 10:00:00||ÇALIK HOLDİNG|10.40.25.122|||110000438407|90
03.11.2018 10:00:00||ÇALIK HOLDİNG|10.40.25.122|||110000438407|82
03.11.2018 10:00:00||ÇALIK HOLDİNG|10.40.25.122|||110000438407|80
03.11.2018 10:00:00||ÇALIK HOLDİNG|10.40.25.122|||110000438407|30
03.11.2018 10:00:00||ÇALIK HOLDİNG|10.40.25.122|||110000438407|10
03.11.2018 10:00:00||ÇALIK HOLDİNG|10.40.24.122|||110000438407|90
03.11.2018 10:00:00||ÇALIK HOLDİNG|10.40.24.122|||110000438407|80
03.11.2018 10:00:00||ÇALIK HOLDİNG|10.40.24.122|||110000438407|87
03.11.2018 10:00:00||ÇALIK HOLDİNG|10.40.24.117|||110000438407|200
03.11.2018 10:00:00||ÇALIK HOLDİNG|10.40.24.117|||110000438407|30
03.11.2018 10:00:00||ÇALIK HOLDİNG|10.40.24.117|||110000438407|30
03.11.2018 10:00:00||ÇALIK HOLDİNG|10.40.24.97|||110000438407|102
03.11.2018 10:00:00||ÇALIK HOLDİNG|10.40.24.97|||110000438407|90
03.11.2018 10:00:00||ÇALIK HOLDİNG|10.40.24.97|||110000438407|80
03.11.2018 10:00:00||ÇALIK HOLDİNG|10.40.24.97|||110000438407|90
03.11.2018 10:00:00||ÇALIK HOLDİNG|10.40.24.97|||110000438407|312
03.11.2018 10:00:00||ÇALIK HOLDİNG|10.40.24.100|||110000438407|30
03.11.2018 10:00:00||ÇALIK HOLDİNG|10.40.24.100|||110000438407|40
03.11.2018 10:00:00||ÇALIK HOLDİNG|10.40.25.103|||110000438407|90
03.11.2018 10:00:00||ÇALIK HOLDİNG|10.40.25.115|||110000438407|170
03.11.2018 10:00:00||ÇALIK HOLDİNG|10.40.25.115|||110000438407|70
03.11.2018 10:00:00||ÇALIK HOLDİNG|10.40.25.120|||110000438407|20
03.11.2018 10:00:00||ÇALIK HOLDİNG|10.40.25.120|||110000438407|60
03.11.2018 10:00:00||ÇALIK HOLDİNG|10.40.25.120|||110000438407|90
03.11.2018 10:00:00||ÇALIK HOLDİNG|10.40.25.97|||110000438407|80
03.11.2018 10:00:00||ÇALIK HOLDİNG|10.40.25.96|||110000438407|70
03.11.2018 10:00:00||ÇALIK HOLDİNG|10.40.25.96|||110000438407|90
03.11.2018 10:00:00||ÇALIK HOLDİNG|10.40.25.96|||110000438407|120
03.11.2018 10:00:00||ÇALIK HOLDİNG|10.40.25.96|||110000438407|90
03.11.2018 10:00:00||ÇALIK HOLDİNG|10.40.25.95|||110000438407|90
03.11.2018 10:00:00||ÇALIK HOLDİNG|10.40.25.95|||110000438407|55
03.11.2018 10:00:00||ÇALIK HOLDİNG|10.40.24.94|||110000438407|197
03.11.2018 10:00:00||ÇALIK HOLDİNG|10.40.25.97|||110000438407|110
03.11.2018 10:00:00||ÇALIK HOLDİNG|10.40.25.115|||110000438407|80
03.11.2018 10:00:00||ÇALIK HOLDİNG|10.40.25.115|||110000438407|70
03.11.2018 10:00:00||ÇALIK HOLDİNG|10.40.25.115|||110000438407|67
03.11.2018 10:00:00||ÇALIK HOLDİNG|10.40.24.95|||110000438407|50
03.11.2018 10:00:00||ÇALIK HOLDİNG|10.40.25.120|||110000438407|40
03.11.2018 10:00:00||ÇALIK HOLDİNG|10.40.25.96|||110000438407|90
03.11.2018 10:00:00||ÇALIK HOLDİNG|10.40.25.96|||110000438407|100
03.11.2018 10:00:00||FIBABANKA|10.40.26.54|||101571767266|315
03.11.2018 10:00:00||FIBABANKA|10.40.26.55|||101571767266|110
03.11.2018 10:00:00||FIBABANKA|10.40.25.56|||101571767266|197
03.11.2018 10:00:00||FIBABANKA|10.40.27.54|||101571767266|313
03.11.2018 10:00:00||FIBABANKA|10.40.27.55|||101571767266|102
03.11.2018 10:00:00||FIBABANKA|10.40.24.55|||101571767266|111
03.11.2018 10:00:00||FIBABANKA|10.40.25.54|||101571767266|332
03.11.2018 10:00:00||FIBABANKA|10.40.24.54|||101571767266|319
03.11.2018 10:00:00||FIBABANKA|10.40.25.55|||101571767266|113
03.11.2018 10:00:00||FIBABANKA|10.40.24.56|||101571767266|195
03.11.2018 10:00:00||FIBABANKA|10.40.26.57|||101571767266|90
03.11.2018 10:00:00||FIBABANKA|10.40.26.57|||101571767266|88
03.11.2018 10:00:00||FIBABANKA|10.40.26.57|||101571767266|80
03.11.2018 10:00:00||FIBABANKA|10.40.26.57|||101571767266|70
03.11.2018 10:00:00||FIBABANKA|10.40.26.57|||101571767266|70
03.11.2018 10:00:00||FIBABANKA|10.40.27.72|||101571767266|40
03.11.2018 10:00:00||FIBABANKA|10.40.27.72|||101571767266|50
03.11.2018 10:00:00||FIBABANKA|10.40.27.72|||101571767266|40
03.11.2018 10:00:00||FIBABANKA|10.40.27.72|||101571767266|140
03.11.2018 10:00:00||FIBABANKA|10.40.27.72|||101571767266|60
03.11.2018 10:00:00||FIBABANKA|10.40.26.72|||101571767266|30
03.11.2018 10:00:00||FIBABANKA|10.40.26.72|||101571767266|140
03.11.2018 10:00:00||FIBABANKA|10.40.26.72|||101571767266|70
03.11.2018 10:00:00||FIBABANKA|10.40.26.72|||101571767266|32
03.11.2018 10:00:00||FIBABANKA|10.40.27.73|||101571767266|32
03.11.2018 10:00:00||FIBABANKA|10.40.27.73|||101571767266|100
03.11.2018 10:00:00||FIBABANKA|10.40.27.73|||101571767266|20
03.11.2018 10:00:00||FIBABANKA|10.40.27.73|||101571767266|40
03.11.2018 10:00:00||FIBABANKA|10.40.27.73|||101571767266|40
03.11.2018 10:00:00||FIBABANKA|10.40.27.73|||101571767266|355
03.11.2018 10:00:00||FIBABANKA|10.40.26.73|||101571767266|40
03.11.2018 10:00:00||FIBABANKA|10.40.26.73|||101571767266|70
03.11.2018 10:00:00||FIBABANKA|10.40.26.73|||101571767266|32
03.11.2018 10:00:00||FIBABANKA|10.40.26.73|||101571767266|7
03.11.2018 10:00:00||FIBABANKA|10.40.27.74|||101571767266|77
03.11.2018 10:00:00||FIBABANKA|10.40.27.74|||101571767266|173
03.11.2018 10:00:00||FIBABANKA|10.40.27.74|||101571767266|170
03.11.2018 10:00:00||FIBABANKA|10.40.26.74|||101571767266|70
03.11.2018 10:00:00||FIBABANKA|10.40.26.74|||101571767266|195
03.11.2018 10:00:00||FIBABANKA|10.40.26.74|||101571767266|180
03.11.2018 10:00:00||FIBABANKA|10.40.26.74|||101571767266|178
03.11.2018 10:00:00||FIBABANKA|10.40.27.75|||101571767266|10
03.11.2018 10:00:00||FIBABANKA|10.40.27.75|||101571767266|10
03.11.2018 10:00:00||FIBABANKA|10.40.27.75|||101571767266|60
03.11.2018 10:00:00||FIBABANKA|10.40.26.75|||101571767266|10
03.11.2018 10:00:00||FIBABANKA|10.40.27.76|||101571767266|90
03.11.2018 10:00:00||FIBABANKA|10.40.26.76|||101571767266|100
03.11.2018 10:00:00||FIBABANKA|10.40.26.79|||101571767266|10
03.11.2018 10:00:00||FIBABANKA|10.40.27.79|||101571767266|10
03.11.2018 10:00:00||FIBABANKA|10.40.27.79|||101571767266|10
03.11.2018 10:00:00||FIBABANKA|10.40.26.79|||101571767266|10
03.11.2018 10:00:00||FIBABANKA|10.40.27.77|||101571767266|53
03.11.2018 10:00:00||FIBABANKA|10.40.27.77|||101571767266|32
03.11.2018 10:00:00||FIBABANKA|10.40.27.77|||101571767266|165
03.11.2018 10:00:00||FIBABANKA|10.40.26.77|||101571767266|45
03.11.2018 10:00:00||FIBABANKA|10.40.26.77|||101571767266|50
03.11.2018 10:00:00||FIBABANKA|10.40.26.77|||101571767266|172
03.11.2018 10:00:00||FIBABANKA|10.40.26.77|||101571767266|198
03.11.2018 10:00:00||FIBABANKA|10.40.26.77|||101571767266|65
03.11.2018 10:00:00||FIBABANKA|10.40.26.77|||101571767266|83
03.11.2018 10:00:00||FIBABANKA|10.40.26.77|||101571767266|178
03.11.2018 10:00:00||FIBABANKA|10.40.26.77|||101571767266|178
03.11.2018 10:00:00||FIBABANKA|10.40.27.77|||101571767266|58
03.11.2018 10:00:00||FIBABANKA|10.40.27.77|||101571767266|40
03.11.2018 10:00:00||FIBABANKA|10.40.27.77|||101571767266|158
03.11.2018 10:00:00||FIBABANKA|10.40.27.57|||101571767266|80
03.11.2018 10:00:00||FIBABANKA|10.40.26.60|||101571767266|220
03.11.2018 10:00:00||FIBABANKA|10.40.25.74|||101571767266|230
03.11.2018 10:00:00||FIBABANKA|10.40.24.75|||101571767266|173
03.11.2018 10:00:00||FIBABANKA|10.40.24.75|||101571767266|142
03.11.2018 10:00:00||FIBABANKA|10.40.24.53|||101571767266|167
03.11.2018 10:00:00||FIBABANKA|10.40.24.53|||101571767266|182
03.11.2018 10:00:00||FIBABANKA|10.40.25.52|||101571767266|10
03.11.2018 10:00:00||FIBABANKA|10.40.25.52|||101571767266|50
03.11.2018 10:00:00||FIBABANKA|10.40.25.52|||101571767266|80
03.11.2018 10:00:00||FIBABANKA|10.40.25.53|||101571767266|158
03.11.2018 10:00:00||FIBABANKA|10.40.25.53|||101571767266|142
03.11.2018 10:00:00||FIBABANKA|10.40.27.51|||101571767266|30
03.11.2018 10:00:00||FIBABANKA|10.40.27.51|||101571767266|20
03.11.2018 10:00:00||FIBABANKA|10.40.27.51|||101571767266|100
03.11.2018 10:00:00||FIBABANKA|10.40.27.51|||101571767266|140
03.11.2018 10:00:00||FIBABANKA|10.40.27.51|||101571767266|70
03.11.2018 10:00:00||FIBABANKA|10.40.27.51|||101571767266|40
03.11.2018 10:00:00||FIBABANKA|10.40.27.51|||101571767266|40
03.11.2018 10:00:00||FIBABANKA|10.40.26.51|||101571767266|10
03.11.2018 10:00:00||FIBABANKA|10.40.26.51|||101571767266|110
03.11.2018 10:00:00||FIBABANKA|10.40.26.51|||101571767266|130
03.11.2018 10:00:00||FIBABANKA|10.40.26.51|||101571767266|30
03.11.2018 10:00:00||FIBABANKA|10.40.26.51|||101571767266|30
03.11.2018 10:00:00||FIBABANKA|10.40.24.74|||101571767266|32
03.11.2018 10:00:00||FIBABANKA|10.40.25.76|||101571767266|60
03.11.2018 10:00:00||FIBABANKA|10.40.25.76|||101571767266|40
03.11.2018 10:00:00||FIBABANKA|10.40.25.76|||101571767266|10
03.11.2018 10:00:00||FIBABANKA|10.40.25.52|||101571767266|40
03.11.2018 10:00:00||FIBABANKA|10.40.25.52|||101571767266|30
03.11.2018 10:00:00||FIBABANKA|10.40.25.51|||101571767266|20
03.11.2018 10:00:00||FIBABANKA|10.40.24.52|||101571767266|40
03.11.2018 10:00:00||FIBABANKA|10.40.25.51|||101571767266|140
03.11.2018 10:00:00||FIBABANKA|10.40.24.51|||101571767266|32
03.11.2018 10:00:00||FIBABANKA|10.40.25.57|||101571767266|90
03.11.2018 10:00:00||FIBABANKA|10.40.25.57|||101571767266|90
03.11.2018 10:00:00||FIBABANKA|10.40.25.57|||101571767266|90
03.11.2018 10:00:00||FIBABANKA|10.40.25.57|||101571767266|82
03.11.2018 10:00:00||FIBABANKA|10.40.25.57|||101571767266|100
03.11.2018 10:00:00||FIBABANKA|10.40.25.57|||101571767266|80
03.11.2018 10:00:00||FIBABANKA|10.40.24.57|||101571767266|90
03.11.2018 10:00:00||FIBABANKA|10.40.24.57|||101571767266|80
03.11.2018 10:00:00||FIBABANKA|10.40.24.57|||101571767266|80
03.11.2018 10:00:00||FIBABANKA|10.40.24.57|||101571767266|70
03.11.2018 10:00:00||FIBABANKA|10.40.26.51|||101571767266|20
03.11.2018 10:00:00||FIBABANKA|10.40.27.52|||101571767266|50
03.11.2018 10:00:00||FIBABANKA|10.40.27.52|||101571767266|60
03.11.2018 10:00:00||FIBABANKA|10.40.27.52|||101571767266|70
03.11.2018 10:00:00||FIBABANKA|10.40.27.53|||101571767266|60
03.11.2018 10:00:00||FIBABANKA|10.40.26.53|||101571767266|72
03.11.2018 10:00:00||FIBABANKA|10.40.26.53|||101571767266|60
03.11.2018 10:00:00||FIBABANKA|10.40.27.57|||101571767266|80
03.11.2018 10:00:00||FIBABANKA|10.40.27.53|||101571767266|70
03.11.2018 10:00:00||FIBABANKA|10.40.27.53|||101571767266|165
03.11.2018 10:00:00||FIBABANKA|10.40.27.53|||101571767266|183
03.11.2018 10:00:00||FIBABANKA|10.40.27.57|||101571767266|85
03.11.2018 10:00:00||FIBABANKA|10.40.27.57|||101571767266|80
03.11.2018 10:00:00||FIBABANKA|10.40.26.60|||101571767266|112
03.11.2018 10:00:00||FIBABANKA|10.40.26.60|||101571767266|148
03.11.2018 10:00:00||FIBABANKA|10.40.26.60|||101571767266|30
03.11.2018 10:00:00||FIBABANKA|10.40.27.60|||101571767266|50
03.11.2018 10:00:00||FIBABANKA|10.40.27.60|||101571767266|217
03.11.2018 10:00:00||FIBABANKA|10.40.27.60|||101571767266|235
03.11.2018 10:00:00||FIBABANKA|10.40.27.60|||101571767266|52
03.11.2018 10:00:00||FIBABANKA|10.40.27.60|||101571767266|160
03.11.2018 10:00:00||FIBABANKA|10.40.27.60|||101571767266|10
03.11.2018 10:00:00||FIBABANKA|10.40.27.60|||101571767266|100
03.11.2018 10:00:00||FIBABANKA|10.40.27.60|||101571767266|115
03.11.2018 10:00:00||FIBABANKA|10.40.26.60|||101571767266|10
03.11.2018 10:00:00||FIBABANKA|10.40.26.60|||101571767266|112
03.11.2018 10:00:00||FIBABANKA|10.40.26.60|||101571767266|120
03.11.2018 10:00:00||FIBABANKA|10.40.26.60|||101571767266|230
03.11.2018 10:00:00||FIBABANKA|10.40.27.73|||101571767266|10
03.11.2018 10:00:00||FIBABANKA|10.40.27.74|||101571767266|177
03.11.2018 10:00:00||FIBABANKA|10.40.25.57|||101571767266|90
03.11.2018 10:00:00||FIBABANKA|10.40.27.60|||101571767266|50
03.11.2018 10:00:00||FIBABANKA|10.40.25.53|||101571767266|52
03.11.2018 10:00:00||FIBABANKA|10.40.25.51|||101571767266|110
03.11.2018 10:00:00||FIBABANKA|10.40.24.51|||101571767266|20
03.11.2018 10:00:00||FIBABANKA|10.40.24.51|||101571767266|70
03.11.2018 10:00:00||FIBABANKA|10.40.24.51|||101571767266|100
03.11.2018 10:00:00||FIBABANKA|10.40.24.52|||101571767266|40
03.11.2018 10:00:00||FIBABANKA|10.40.24.52|||101571767266|12
03.11.2018 10:00:00||FIBABANKA|10.40.25.51|||101571767266|40
03.11.2018 10:00:00||FIBABANKA|10.40.25.51|||101571767266|40
03.11.2018 10:00:00||FIBABANKA|10.40.25.51|||101571767266|70
03.11.2018 10:00:00||FIBABANKA|10.40.26.51|||101571767266|70
03.11.2018 10:00:00||FIBABANKA|10.40.26.52|||101571767266|30
03.11.2018 10:00:00||FIBABANKA|10.40.26.52|||101571767266|90
03.11.2018 10:00:00||FIBABANKA|10.40.26.52|||101571767266|30
03.11.2018 10:00:00||FIBABANKA|10.40.27.60|||101571767266|90
03.11.2018 10:00:00||FIBABANKA|10.40.26.73|||101571767266|40
03.11.2018 10:00:00||FIBABANKA|10.40.26.53|||101571767266|40
03.11.2018 10:00:00||FIBABANKA|10.40.26.53|||101571767266|160
03.11.2018 10:00:00||FIBABANKA|10.40.25.57|||101571767266|83
03.11.2018 10:00:00||FIBABANKA|10.40.25.76|||101571767266|10
03.11.2018 10:00:00||FIBABANKA|10.40.26.53|||101571767266|157
03.11.2018 10:00:00||FIBABANKA|10.40.27.57|||101571767266|80
03.11.2018 10:00:00||FIBABANKA|10.40.26.60|||101571767266|10
03.11.2018 10:00:00||FIBABANKA|10.40.24.57|||101571767266|100
03.11.2018 10:00:00||FIBABANKA|10.40.24.57|||101571767266|70
03.11.2018 10:00:00||FIBABANKA|10.40.24.57|||101571767266|70
03.11.2018 10:00:00||FIBABANKA|10.40.25.53|||101571767266|30
03.11.2018 10:00:00||FIBABANKA|10.40.24.51|||101571767266|140
03.11.2018 10:00:00||FIBABANKA|10.40.24.51|||101571767266|30
03.11.2018 10:00:00||FIBABANKA|10.40.24.57|||101571767266|70
03.11.2018 10:00:00||FIBABANKA|10.40.25.59|||101571767266|70
03.11.2018 10:00:00||FIBABANKA|10.40.25.59|||101571767266|90
03.11.2018 10:00:00||FIBABANKA|10.40.25.59|||101571767266|90
03.11.2018 10:00:00||FIBABANKA|10.40.25.59|||101571767266|40
03.11.2018 10:00:00||FIBABANKA|10.40.25.59|||101571767266|120
03.11.2018 10:00:00||FIBABANKA|10.40.25.59|||101571767266|60
03.11.2018 10:00:00||FIBABANKA|10.40.25.59|||101571767266|50
03.11.2018 10:00:00||FIBABANKA|10.40.25.59|||101571767266|140
03.11.2018 10:00:00||FIBABANKA|10.40.25.59|||101571767266|50
03.11.2018 10:00:00||FIBABANKA|10.40.24.59|||101571767266|70
03.11.2018 10:00:00||FIBABANKA|10.40.24.59|||101571767266|122
03.11.2018 10:00:00||FIBABANKA|10.40.24.59|||101571767266|80
03.11.2018 10:00:00||FIBABANKA|10.40.24.59|||101571767266|68
03.11.2018 10:00:00||FIBABANKA|10.40.24.59|||101571767266|50
03.11.2018 10:00:00||FIBABANKA|10.40.24.59|||101571767266|130
03.11.2018 10:00:00||FIBABANKA|10.40.24.59|||101571767266|70
03.11.2018 10:00:00||FIBABANKA|10.40.24.59|||101571767266|60
03.11.2018 10:00:00||FIBABANKA|10.40.24.59|||101571767266|140
03.11.2018 10:00:00||FIBABANKA|10.40.24.59|||101571767266|60
03.11.2018 10:00:00||FIBABANKA|10.40.25.60|||101571767266|100
03.11.2018 10:00:00||FIBABANKA|10.40.25.60|||101571767266|35
03.11.2018 10:00:00||FIBABANKA|10.40.25.60|||101571767266|110
03.11.2018 10:00:00||FIBABANKA|10.40.25.60|||101571767266|42
03.11.2018 10:00:00||FIBABANKA|10.40.24.60|||101571767266|110
03.11.2018 10:00:00||FIBABANKA|10.40.24.60|||101571767266|55
03.11.2018 10:00:00||FIBABANKA|10.40.24.60|||101571767266|40
03.11.2018 10:00:00||FIBABANKA|10.40.24.60|||101571767266|100
03.11.2018 10:00:00||FIBABANKA|10.40.24.60|||101571767266|50
03.11.2018 10:00:00||FIBABANKA|10.40.25.72|||101571767266|70
03.11.2018 10:00:00||FIBABANKA|10.40.25.72|||101571767266|40
03.11.2018 10:00:00||FIBABANKA|10.40.25.72|||101571767266|30
03.11.2018 10:00:00||FIBABANKA|10.40.24.72|||101571767266|140
03.11.2018 10:00:00||FIBABANKA|10.40.24.72|||101571767266|80
03.11.2018 10:00:00||FIBABANKA|10.40.24.72|||101571767266|30
03.11.2018 10:00:00||FIBABANKA|10.40.24.72|||101571767266|40
03.11.2018 10:00:00||FIBABANKA|10.40.25.74|||101571767266|30
03.11.2018 10:00:00||FIBABANKA|10.40.25.75|||101571767266|38
03.11.2018 10:00:00||FIBABANKA|10.40.25.75|||101571767266|80
03.11.2018 10:00:00||FIBABANKA|10.40.25.75|||101571767266|133
03.11.2018 10:00:00||FIBABANKA|10.40.25.75|||101571767266|178
03.11.2018 10:00:00||FIBABANKA|10.40.25.75|||101571767266|182
03.11.2018 10:00:00||FIBABANKA|10.40.25.75|||101571767266|200
03.11.2018 10:00:00||FIBABANKA|10.40.24.75|||101571767266|53
03.11.2018 10:00:00||FIBABANKA|10.40.24.75|||101571767266|50
03.11.2018 10:00:00||FIBABANKA|10.40.24.75|||101571767266|102
03.11.2018 10:00:00||FIBABANKA|10.40.24.75|||101571767266|165
03.11.2018 10:00:00||FIBABANKA|10.40.24.75|||101571767266|153
03.11.2018 10:00:00||FIBABANKA|10.40.24.76|||101571767266|42
03.11.2018 10:00:00||FIBABANKA|10.40.24.76|||101571767266|70
03.11.2018 10:00:00||FIBABANKA|10.40.24.76|||101571767266|20
03.11.2018 10:00:00||FIBABANKA|10.40.24.76|||101571767266|40
03.11.2018 10:00:00||FIBABANKA|10.40.24.76|||101571767266|10
03.11.2018 10:00:00||FIBABANKA|10.40.25.77|||101571767266|63
03.11.2018 10:00:00||FIBABANKA|10.40.25.77|||101571767266|43
03.11.2018 10:00:00||FIBABANKA|10.40.24.77|||101571767266|40
03.11.2018 10:00:00||FIBABANKA|10.40.24.77|||101571767266|40
03.11.2018 10:00:00||FIBABANKA|10.40.24.53|||101571767266|30
03.11.2018 10:00:00||FIBABANKA|10.40.24.53|||101571767266|60
03.11.2018 10:00:00||HAVAŞ|10.40.25.45|||110000479675|97
03.11.2018 10:00:00||HAVAŞ|10.40.25.45|||110000479675|85
03.11.2018 10:00:00||HAVAŞ|10.40.25.46|||110000479675|10
03.11.2018 10:00:00||HAVAŞ|10.40.25.46|||110000479675|10
03.11.2018 10:00:00||HAVAŞ|10.40.25.46|||110000479675|20
03.11.2018 10:00:00||HAVAŞ|10.40.25.46|||110000479675|20
03.11.2018 10:00:00||HAVAŞ|10.40.25.46|||110000479675|52
03.11.2018 10:00:00||HAVAŞ|10.40.25.46|||110000479675|100
03.11.2018 10:00:00||HAVAŞ|10.40.25.46|||110000479675|60
03.11.2018 10:00:00||HAVAŞ|10.40.25.46|||110000479675|80
03.11.2018 10:00:00||HAVAŞ|10.40.25.46|||110000479675|70
03.11.2018 10:00:00||HAVAŞ|10.40.24.46|||110000479675|20
03.11.2018 10:00:00||HAVAŞ|10.40.24.46|||110000479675|20
03.11.2018 10:00:00||HAVAŞ|10.40.24.46|||110000479675|2
03.11.2018 10:00:00||HAVAŞ|10.40.24.46|||110000479675|10
03.11.2018 10:00:00||HAVAŞ|10.40.24.46|||110000479675|10
03.11.2018 10:00:00||HAVAŞ|10.40.24.46|||110000479675|10
03.11.2018 10:00:00||HAVAŞ|10.40.24.46|||110000479675|60
03.11.2018 10:00:00||HAVAŞ|10.40.24.46|||110000479675|110
03.11.2018 10:00:00||HAVAŞ|10.40.24.47|||110000479675|30
03.11.2018 10:00:00||HAVAŞ|10.40.24.47|||110000479675|220
03.11.2018 10:00:00||HAVAŞ|10.40.24.47|||110000479675|60
03.11.2018 10:00:00||HAVAŞ|10.40.24.47|||110000479675|57
03.11.2018 10:00:00||HAVAŞ|10.40.24.47|||110000479675|155
03.11.2018 10:00:00||HAVAŞ|10.40.24.47|||110000479675|100
03.11.2018 10:00:00||HAVAŞ|10.40.24.47|||110000479675|100
03.11.2018 10:00:00||HAVAŞ|10.40.25.45|||110000479675|62
03.11.2018 10:00:00||HAVAŞ|10.40.25.47|||110000479675|220
03.11.2018 10:00:00||HAVAŞ|10.40.25.47|||110000479675|58
03.11.2018 10:00:00||HAVAŞ|10.40.25.47|||110000479675|87
03.11.2018 10:00:00||HAVAŞ|10.40.25.47|||110000479675|90
03.11.2018 10:00:00||HAVAŞ|10.40.25.47|||110000479675|90
03.11.2018 10:00:00||HAVAŞ|10.40.25.47|||110000479675|113
03.11.2018 10:00:00||HAVAŞ|10.40.25.47|||110000479675|180
03.11.2018 10:00:00||HAVAŞ|10.40.24.48|||110000479675|743
03.11.2018 10:00:00||HAVAŞ|10.40.25.48|||110000479675|733
03.11.2018 10:00:00||HAVAŞ|10.40.24.46|||110000479675|80
03.11.2018 10:00:00||HAVAŞ|10.40.24.47|||110000479675|30
03.11.2018 10:00:00||HAVAŞ|10.40.24.47|||110000479675|90
03.11.2018 10:00:00||HAVAŞ|10.40.24.47|||110000479675|90
03.11.2018 10:00:00||HAVAŞ|10.40.25.46|||110000479675|10
03.11.2018 10:00:00||HAVAŞ|10.40.25.46|||110000479675|60
03.11.2018 10:00:00||HAVAŞ|10.40.24.48|||110000479675|750
03.11.2018 10:00:00||HAVAŞ|10.40.24.46|||110000479675|60
03.11.2018 10:00:00||HAVAŞ|10.40.24.46|||110000479675|70
03.11.2018 10:00:00||HAVAŞ|10.40.24.47|||110000479675|13
03.11.2018 10:00:00||HAVAŞ|10.40.25.45|||110000479675|97
03.11.2018 10:00:00||HAVAŞ|10.40.24.45|||110000479675|50
03.11.2018 10:00:00||HAVAŞ|10.40.24.45|||110000479675|170
03.11.2018 10:00:00||HAVAŞ|10.40.24.45|||110000479675|100
03.11.2018 10:00:00||HAVAŞ|10.40.25.47|||110000479675|70
03.11.2018 10:00:00||HAVAŞ|10.40.25.47|||110000479675|90
03.11.2018 10:00:00||HAVAŞ|10.40.25.47|||110000479675|90
03.11.2018 10:00:00||HAVAŞ|10.40.25.47|||110000479675|93
03.11.2018 10:00:00||HAVAŞ|10.40.24.46|||110000479675|10
03.11.2018 10:00:00||HAVAŞ|10.40.24.48|||110000479675|733
03.11.2018 10:00:00||HAVAŞ|10.40.24.45|||110000479675|70
03.11.2018 10:00:00||HAVAŞ|10.40.25.47|||110000479675|70
03.11.2018 10:00:00||HAVAŞ|10.40.25.48|||110000479675|738
03.11.2018 10:00:00||HAVAŞ|10.40.25.48|||110000479675|740
03.11.2018 10:00:00||MARS CINEMA|10.40.25.204|||110000472614|110
03.11.2018 10:00:00||MARS CINEMA|10.40.25.204|||110000472614|100
03.11.2018 10:00:00||MARS CINEMA|10.40.24.203|||110000472614|80
03.11.2018 10:00:00||MARS CINEMA|10.40.24.203|||110000472614|90
03.11.2018 10:00:00||MARS CINEMA|10.40.24.203|||110000472614|143
03.11.2018 10:00:00||MARS CINEMA|10.40.24.203|||110000472614|73
03.11.2018 10:00:00||MARS CINEMA|10.40.24.203|||110000472614|142
03.11.2018 10:00:00||MARS CINEMA|10.40.24.203|||110000472614|155
03.11.2018 10:00:00||MARS CINEMA|10.40.24.203|||110000472614|110
03.11.2018 10:00:00||MARS CINEMA|10.40.24.203|||110000472614|207
03.11.2018 10:00:00||MARS CINEMA|10.40.24.204|||110000472614|110
03.11.2018 10:00:00||MARS CINEMA|10.40.24.204|||110000472614|98
03.11.2018 10:00:00||MARS CINEMA|10.40.24.204|||110000472614|90
03.11.2018 10:00:00||MARS CINEMA|10.40.24.204|||110000472614|20
03.11.2018 10:00:00||MARS CINEMA|10.40.24.204|||110000472614|10
03.11.2018 10:00:00||MARS CINEMA|10.40.24.204|||110000472614|90
03.11.2018 10:00:00||MARS CINEMA|10.40.24.204|||110000472614|120
03.11.2018 10:00:00||MARS CINEMA|10.40.24.204|||110000472614|92
03.11.2018 10:00:00||MARS CINEMA|10.40.24.204|||110000472614|108
03.11.2018 10:00:00||MARS CINEMA|10.40.24.204|||110000472614|80
03.11.2018 10:00:00||MARS CINEMA|10.40.25.206|||110000472614|122
03.11.2018 10:00:00||MARS CINEMA|10.40.25.206|||110000472614|40
03.11.2018 10:00:00||MARS CINEMA|10.40.25.206|||110000472614|40
03.11.2018 10:00:00||MARS CINEMA|10.40.25.206|||110000472614|40
03.11.2018 10:00:00||MARS CINEMA|10.40.25.206|||110000472614|20
03.11.2018 10:00:00||MARS CINEMA|10.40.25.206|||110000472614|20
03.11.2018 10:00:00||MARS CINEMA|10.40.25.206|||110000472614|30
03.11.2018 10:00:00||MARS CINEMA|10.40.25.206|||110000472614|60
03.11.2018 10:00:00||MARS CINEMA|10.40.25.206|||110000472614|40
03.11.2018 10:00:00||MARS CINEMA|10.40.25.206|||110000472614|90
03.11.2018 10:00:00||MARS CINEMA|10.40.25.206|||110000472614|90
03.11.2018 10:00:00||MARS CINEMA|10.40.24.206|||110000472614|152
03.11.2018 10:00:00||MARS CINEMA|10.40.24.206|||110000472614|40
03.11.2018 10:00:00||MARS CINEMA|10.40.24.206|||110000472614|40
03.11.2018 10:00:00||MARS CINEMA|10.40.24.206|||110000472614|40
03.11.2018 10:00:00||MARS CINEMA|10.40.24.206|||110000472614|30
03.11.2018 10:00:00||MARS CINEMA|10.40.24.206|||110000472614|30
03.11.2018 10:00:00||MARS CINEMA|10.40.24.206|||110000472614|200
03.11.2018 10:00:00||MARS CINEMA|10.40.24.206|||110000472614|160
03.11.2018 10:00:00||MARS CINEMA|10.40.24.206|||110000472614|20
03.11.2018 10:00:00||MARS CINEMA|10.40.24.206|||110000472614|80
03.11.2018 10:00:00||MARS CINEMA|10.40.24.206|||110000472614|78
03.11.2018 10:00:00||MARS CINEMA|10.40.24.204|||110000472614|65
03.11.2018 10:00:00||MARS CINEMA|10.40.24.203|||110000472614|108
03.11.2018 10:00:00||MARS CINEMA|10.40.24.204|||110000472614|20
03.11.2018 10:00:00||MARS CINEMA|10.40.24.204|||110000472614|88
03.11.2018 10:00:00||MARS CINEMA|10.40.24.203|||110000472614|83
03.11.2018 10:00:00||MARS CINEMA|10.40.24.203|||110000472614|163
03.11.2018 10:00:00||MARS CINEMA|10.40.24.203|||110000472614|118
03.11.2018 10:00:00||MARS CINEMA|10.40.24.204|||110000472614|40
03.11.2018 10:00:00||MARS CINEMA|10.40.24.203|||110000472614|98
03.11.2018 10:00:00||MARS CINEMA|10.40.25.203|||110000472614|153
03.11.2018 10:00:00||MARS CINEMA|10.40.25.203|||110000472614|95
03.11.2018 10:00:00||MARS CINEMA|10.40.25.203|||110000472614|187
03.11.2018 10:00:00||MARS CINEMA|10.40.25.203|||110000472614|98
03.11.2018 10:00:00||MARS CINEMA|10.40.25.203|||110000472614|80
03.11.2018 10:00:00||MARS CINEMA|10.40.25.203|||110000472614|112
03.11.2018 10:00:00||MARS CINEMA|10.40.25.203|||110000472614|83
03.11.2018 10:00:00||MARS CINEMA|10.40.25.203|||110000472614|150
03.11.2018 10:00:00||MARS CINEMA|10.40.25.203|||110000472614|100
03.11.2018 10:00:00||MARS CINEMA|10.40.25.203|||110000472614|110
03.11.2018 10:00:00||MARS CINEMA|10.40.25.203|||110000472614|112
03.11.2018 10:00:00||MARS CINEMA|10.40.25.203|||110000472614|70
03.11.2018 10:00:00||MARS CINEMA|10.40.25.203|||110000472614|208
03.11.2018 10:00:00||MARS CINEMA|10.40.25.204|||110000472614|110
03.11.2018 10:00:00||MARS CINEMA|10.40.25.204|||110000472614|70
03.11.2018 10:00:00||MARS CINEMA|10.40.25.204|||110000472614|80
03.11.2018 10:00:00||MARS CINEMA|10.40.25.204|||110000472614|100
03.11.2018 10:00:00||MARS CINEMA|10.40.25.204|||110000472614|20
03.11.2018 10:00:00||MARS CINEMA|10.40.25.204|||110000472614|20
03.11.2018 10:00:00||MARS CINEMA|10.40.25.204|||110000472614|30
03.11.2018 10:00:00||MARS CINEMA|10.40.25.204|||110000472614|40
03.11.2018 10:00:00||MARS CINEMA|10.40.25.204|||110000472614|90
03.11.2018 10:00:00||MARS CINEMA|10.40.25.204|||110000472614|120
03.11.2018 10:00:00||MARS CINEMA|10.40.25.204|||110000472614|80
03.11.2018 10:00:00||MARS CINEMA|10.40.25.204|||110000472614|80
03.11.2018 10:00:00||PEGASUS|10.40.27.84|||110000423831|216
03.11.2018 10:00:00||PEGASUS|10.40.26.84|||110000423831|220
03.11.2018 10:00:00||PEGASUS|10.40.26.66|||110000423831|93
03.11.2018 10:00:00||PEGASUS|10.40.27.66|||110000423831|113
03.11.2018 10:00:00||PEGASUS|10.40.27.85|||110000423831|116
03.11.2018 10:00:00||PEGASUS|10.40.26.85|||110000423831|121
03.11.2018 10:00:00||PEGASUS|10.40.26.64|||110000423831|80
03.11.2018 10:00:00||PEGASUS|10.40.26.64|||110000423831|80
03.11.2018 10:00:00||PEGASUS|10.40.26.82|||110000423831|210
03.11.2018 10:00:00||PEGASUS|10.40.26.82|||110000423831|110
03.11.2018 10:00:00||PEGASUS|10.40.26.82|||110000423831|117
03.11.2018 10:00:00||PEGASUS|10.40.26.82|||110000423831|153
03.11.2018 10:00:00||PEGASUS|10.40.26.82|||110000423831|143
03.11.2018 10:00:00||PEGASUS|10.40.26.82|||110000423831|142
03.11.2018 10:00:00||PEGASUS|10.40.26.82|||110000423831|188
03.11.2018 10:00:00||PEGASUS|10.40.26.82|||110000423831|30
03.11.2018 10:00:00||PEGASUS|10.40.26.82|||110000423831|50
03.11.2018 10:00:00||PEGASUS|10.40.26.82|||110000423831|20
03.11.2018 10:00:00||PEGASUS|10.40.26.82|||110000423831|63
03.11.2018 10:00:00||PEGASUS|10.40.26.82|||110000423831|50
03.11.2018 10:00:00||PEGASUS|10.40.26.82|||110000423831|37
03.11.2018 10:00:00||PEGASUS|10.40.27.83|||110000423831|587
03.11.2018 10:00:00||PEGASUS|10.40.27.83|||110000423831|70
03.11.2018 10:00:00||PEGASUS|10.40.27.83|||110000423831|570
03.11.2018 10:00:00||PEGASUS|10.40.27.83|||110000423831|568
03.11.2018 10:00:00||PEGASUS|10.40.27.83|||110000423831|70
03.11.2018 10:00:00||PEGASUS|10.40.26.83|||110000423831|513
03.11.2018 10:00:00||PEGASUS|10.40.26.83|||110000423831|50
03.11.2018 10:00:00||PEGASUS|10.40.26.83|||110000423831|400
03.11.2018 10:00:00||PEGASUS|10.40.26.83|||110000423831|510
03.11.2018 10:00:00||PEGASUS|10.40.26.83|||110000423831|513
03.11.2018 10:00:00||PEGASUS|10.40.26.86|||110000423831|360
03.11.2018 10:00:00||PEGASUS|10.40.26.86|||110000423831|138
03.11.2018 10:00:00||PEGASUS|10.40.26.86|||110000423831|350
03.11.2018 10:00:00||PEGASUS|10.40.26.86|||110000423831|50
03.11.2018 10:00:00||PEGASUS|10.40.26.86|||110000423831|30
03.11.2018 10:00:00||PEGASUS|10.40.26.86|||110000423831|350
03.11.2018 10:00:00||PEGASUS|10.40.26.86|||110000423831|40
03.11.2018 10:00:00||PEGASUS|10.40.27.87|||110000423831|90
03.11.2018 10:00:00||PEGASUS|10.40.27.87|||110000423831|88
03.11.2018 10:00:00||PEGASUS|10.40.27.87|||110000423831|90
03.11.2018 10:00:00||PEGASUS|10.40.27.87|||110000423831|20
03.11.2018 10:00:00||PEGASUS|10.40.26.87|||110000423831|90
03.11.2018 10:00:00||PEGASUS|10.40.26.87|||110000423831|90
03.11.2018 10:00:00||PEGASUS|10.40.26.87|||110000423831|90
03.11.2018 10:00:00||PEGASUS|10.40.26.87|||110000423831|60
03.11.2018 10:00:00||PEGASUS|10.40.26.87|||110000423831|20
03.11.2018 10:00:00||PEGASUS|10.40.26.81|||110000423831|400
03.11.2018 10:00:00||PEGASUS|10.40.26.81|||110000423831|420
03.11.2018 10:00:00||PEGASUS|10.40.26.81|||110000423831|410
03.11.2018 10:00:00||PEGASUS|10.40.27.82|||110000423831|220
03.11.2018 10:00:00||PEGASUS|10.40.27.82|||110000423831|30
03.11.2018 10:00:00||PEGASUS|10.40.27.82|||110000423831|110
03.11.2018 10:00:00||PEGASUS|10.40.27.82|||110000423831|80
03.11.2018 10:00:00||PEGASUS|10.40.27.82|||110000423831|155
03.11.2018 10:00:00||PEGASUS|10.40.27.82|||110000423831|122
03.11.2018 10:00:00||PEGASUS|10.40.27.82|||110000423831|170
03.11.2018 10:00:00||PEGASUS|10.40.27.82|||110000423831|115
03.11.2018 10:00:00||PEGASUS|10.40.27.82|||110000423831|60
03.11.2018 10:00:00||PEGASUS|10.40.27.82|||110000423831|82
03.11.2018 10:00:00||PEGASUS|10.40.27.82|||110000423831|50
03.11.2018 10:00:00||PEGASUS|10.40.27.82|||110000423831|33
03.11.2018 10:00:00||PEGASUS|10.40.27.82|||110000423831|40
03.11.2018 10:00:00||PEGASUS|10.40.27.67|||110000423831|50
03.11.2018 10:00:00||PEGASUS|10.40.27.67|||110000423831|70
03.11.2018 10:00:00||PEGASUS|10.40.27.67|||110000423831|130
03.11.2018 10:00:00||PEGASUS|10.40.27.67|||110000423831|10
03.11.2018 10:00:00||PEGASUS|10.40.27.67|||110000423831|340
03.11.2018 10:00:00||PEGASUS|10.40.27.82|||110000423831|65
03.11.2018 10:00:00||PEGASUS|10.40.27.86|||110000423831|170
03.11.2018 10:00:00||PEGASUS|10.40.27.86|||110000423831|70
03.11.2018 10:00:00||PEGASUS|10.40.27.86|||110000423831|20
03.11.2018 10:00:00||PEGASUS|10.40.27.86|||110000423831|350
03.11.2018 10:00:00||PEGASUS|10.40.27.67|||110000423831|340
03.11.2018 10:00:00||PEGASUS|10.40.27.67|||110000423831|40
03.11.2018 10:00:00||PEGASUS|10.40.26.62|||110000423831|10
03.11.2018 10:00:00||PEGASUS|10.40.26.62|||110000423831|190
03.11.2018 10:00:00||PEGASUS|10.40.26.63|||110000423831|70
03.11.2018 10:00:00||PEGASUS|10.40.26.63|||110000423831|30
03.11.2018 10:00:00||PEGASUS|10.40.26.63|||110000423831|60
03.11.2018 10:00:00||PEGASUS|10.40.26.63|||110000423831|30
03.11.2018 10:00:00||PEGASUS|10.40.26.63|||110000423831|230
03.11.2018 10:00:00||PEGASUS|10.40.26.63|||110000423831|140
03.11.2018 10:00:00||PEGASUS|10.40.26.63|||110000423831|110
03.11.2018 10:00:00||PEGASUS|10.40.26.63|||110000423831|60
03.11.2018 10:00:00||PEGASUS|10.40.26.67|||110000423831|170
03.11.2018 10:00:00||PEGASUS|10.40.27.68|||110000423831|90
03.11.2018 10:00:00||PEGASUS|10.40.27.68|||110000423831|88
03.11.2018 10:00:00||PEGASUS|10.40.27.68|||110000423831|90
03.11.2018 10:00:00||PEGASUS|10.40.27.68|||110000423831|50
03.11.2018 10:00:00||PEGASUS|10.40.26.68|||110000423831|90
03.11.2018 10:00:00||PEGASUS|10.40.26.68|||110000423831|90
03.11.2018 10:00:00||PEGASUS|10.40.26.68|||110000423831|50
03.11.2018 10:00:00||PEGASUS|10.40.27.67|||110000423831|360
03.11.2018 10:00:00||PEGASUS|10.40.27.63|||110000423831|80
03.11.2018 10:00:00||PEGASUS|10.40.26.63|||110000423831|110
03.11.2018 10:00:00||PEGASUS|10.40.26.63|||110000423831|110
03.11.2018 10:00:00||PEGASUS|10.40.26.63|||110000423831|90
03.11.2018 10:00:00||PEGASUS|10.40.26.63|||110000423831|60
03.11.2018 10:00:00||PEGASUS|10.40.26.67|||110000423831|30
03.11.2018 10:00:00||PEGASUS|10.40.26.67|||110000423831|340
03.11.2018 10:00:00||PEGASUS|10.40.26.67|||110000423831|60
03.11.2018 10:00:00||PEGASUS|10.40.26.67|||110000423831|40
03.11.2018 10:00:00||PEGASUS|10.40.26.67|||110000423831|70
03.11.2018 10:00:00||PEGASUS|10.40.26.68|||110000423831|100
03.11.2018 10:00:00||PEGASUS|10.40.27.64|||110000423831|297
03.11.2018 10:00:00||PEGASUS|10.40.27.64|||110000423831|263
03.11.2018 10:00:00||PEGASUS|10.40.27.64|||110000423831|293
03.11.2018 10:00:00||PEGASUS|10.40.27.64|||110000423831|267
03.11.2018 10:00:00||PEGASUS|10.40.27.64|||110000423831|270
03.11.2018 10:00:00||PEGASUS|10.40.27.63|||110000423831|90
03.11.2018 10:00:00||PEGASUS|10.40.26.63|||110000423831|130
03.11.2018 10:00:00||PEGASUS|10.40.26.63|||110000423831|60
03.11.2018 10:00:00||PEGASUS|10.40.26.63|||110000423831|80
03.11.2018 10:00:00||PEGASUS|10.40.26.67|||110000423831|340
03.11.2018 10:00:00||PEGASUS|10.40.27.63|||110000423831|50
03.11.2018 10:00:00||PEGASUS|10.40.27.63|||110000423831|60
03.11.2018 10:00:00||PEGASUS|10.40.26.62|||110000423831|90
03.11.2018 10:00:00||PEGASUS|10.40.26.63|||110000423831|50
03.11.2018 10:00:00||PEGASUS|10.40.26.63|||110000423831|100
03.11.2018 10:00:00||PEGASUS|10.40.26.63|||110000423831|40
03.11.2018 10:00:00||PEGASUS|10.40.26.63|||110000423831|70
03.11.2018 10:00:00||PEGASUS|10.40.26.67|||110000423831|340
03.11.2018 10:00:00||PEGASUS|10.40.27.64|||110000423831|277
03.11.2018 10:00:00||PEGASUS|10.40.27.64|||110000423831|275
03.11.2018 10:00:00||PEGASUS|10.40.27.64|||110000423831|262
03.11.2018 10:00:00||PEGASUS|10.40.27.64|||110000423831|330
03.11.2018 10:00:00||PEGASUS|10.40.27.64|||110000423831|323
03.11.2018 10:00:00||PEGASUS|10.40.27.63|||110000423831|72
03.11.2018 10:00:00||PEGASUS|10.40.27.63|||110000423831|80
03.11.2018 10:00:00||PEGASUS|10.40.27.63|||110000423831|70
03.11.2018 10:00:00||PEGASUS|10.40.27.63|||110000423831|155
03.11.2018 10:00:00||PEGASUS|10.40.27.63|||110000423831|227
03.11.2018 10:00:00||PEGASUS|10.40.27.63|||110000423831|55
03.11.2018 10:00:00||PEGASUS|10.40.27.81|||110000423831|460
03.11.2018 10:00:00||PEGASUS|10.40.27.81|||110000423831|430
03.11.2018 10:00:00||PEGASUS|10.40.27.81|||110000423831|450
03.11.2018 10:00:00||PEGASUS|10.40.27.86|||110000423831|340
03.11.2018 10:00:00||PEGASUS|10.40.27.86|||110000423831|40
03.11.2018 10:00:00||PEGASUS|10.40.27.63|||110000423831|40
03.11.2018 10:00:00||PEGASUS|10.40.27.86|||110000423831|340
03.11.2018 10:00:00||PEGASUS|10.40.27.63|||110000423831|50
03.11.2018 10:00:00||PEGASUS|10.40.27.63|||110000423831|60
03.11.2018 10:00:00||PEGASUS|10.40.27.64|||110000423831|80
03.11.2018 10:00:00||PEGASUS|10.40.27.64|||110000423831|70
03.11.2018 10:00:00||PEGASUS|10.40.27.63|||110000423831|60
03.11.2018 10:00:00||PEGASUS|10.40.27.63|||110000423831|70
03.11.2018 10:00:00||PEGASUS|10.40.27.63|||110000423831|90
03.11.2018 10:00:00||PEGASUS|10.40.26.63|||110000423831|110
03.11.2018 10:00:00||PEGASUS|10.40.27.64|||110000423831|282
03.11.2018 10:00:00||PEGASUS|10.40.27.64|||110000423831|263
03.11.2018 10:00:00||PEGASUS|10.40.27.63|||110000423831|72
03.11.2018 10:00:00||PEGASUS|10.40.27.63|||110000423831|62
03.11.2018 10:00:00||PETKIM|10.40.25.87|||110000437354|142
03.11.2018 10:00:00||PWC|10.40.24.66|||110000433262|60
03.11.2018 10:00:00||PWC|10.40.24.66|||110000433262|30
03.11.2018 10:00:00||PWC|10.40.24.66|||110000433262|30
03.11.2018 10:00:00||PWC|10.40.24.68|||110000433262|102
03.11.2018 10:00:00||PWC|10.40.24.68|||110000433262|132
03.11.2018 10:00:00||PWC|10.40.24.68|||110000433262|398
03.11.2018 10:00:00||PWC|10.40.24.68|||110000433262|78
03.11.2018 10:00:00||PWC|10.40.24.68|||110000433262|68
03.11.2018 10:00:00||PWC|10.40.24.66|||110000433262|90
03.11.2018 10:00:00||PWC|10.40.24.66|||110000433262|10
03.11.2018 10:00:00||PWC|10.40.24.66|||110000433262|30
03.11.2018 10:00:00||PWC|10.40.24.66|||110000433262|210
03.11.2018 10:00:00||PWC|10.40.24.66|||110000433262|210
03.11.2018 10:00:00||PWC|10.40.24.68|||110000433262|153
03.11.2018 10:00:00||PWC|10.40.24.66|||110000433262|50
03.11.2018 10:00:00||PWC|10.40.24.66|||110000433262|440
03.11.2018 10:00:00||PWC|10.40.24.66|||110000433262|50
03.11.2018 10:00:00||PWC|10.40.25.67|||110000433262|80
03.11.2018 10:00:00||PWC|10.40.25.67|||110000433262|90
03.11.2018 10:00:00||PWC|10.40.25.67|||110000433262|320
03.11.2018 10:00:00||PWC|10.40.25.67|||110000433262|250
03.11.2018 10:00:00||PWC|10.40.25.67|||110000433262|240
03.11.2018 10:00:00||PWC|10.40.25.67|||110000433262|250
03.11.2018 10:00:00||PWC|10.40.25.67|||110000433262|50
03.11.2018 10:00:00||PWC|10.40.25.67|||110000433262|30
03.11.2018 10:00:00||PWC|10.40.25.67|||110000433262|120
03.11.2018 10:00:00||PWC|10.40.24.67|||110000433262|10
03.11.2018 10:00:00||PWC|10.40.24.67|||110000433262|10
03.11.2018 10:00:00||PWC|10.40.24.67|||110000433262|370
03.11.2018 10:00:00||PWC|10.40.24.67|||110000433262|30
03.11.2018 10:00:00||PWC|10.40.24.67|||110000433262|70
03.11.2018 10:00:00||PWC|10.40.24.67|||110000433262|120
03.11.2018 10:00:00||PWC|10.40.25.68|||110000433262|102
03.11.2018 10:00:00||PWC|10.40.25.68|||110000433262|188
03.11.2018 10:00:00||PWC|10.40.25.68|||110000433262|70
03.11.2018 10:00:00||PWC|10.40.25.68|||110000433262|78
03.11.2018 10:00:00||PWC|10.40.25.68|||110000433262|148
03.11.2018 10:00:00||VSMART BİLGİ TEKNOLOJİLERİ|10.40.25.62|||110000474326|10
03.11.2018 10:00:00||VSMART BİLGİ TEKNOLOJİLERİ|10.40.25.62|||110000474326|10
03.11.2018 10:00:00||VSMART BİLGİ TEKNOLOJİLERİ|10.40.25.62|||110000474326|82
03.11.2018 10:00:00||VSMART BİLGİ TEKNOLOJİLERİ|10.40.25.62|||110000474326|93
03.11.2018 10:00:00||VSMART BİLGİ TEKNOLOJİLERİ|10.40.25.62|||110000474326|107
03.11.2018 10:00:00||VSMART BİLGİ TEKNOLOJİLERİ|10.40.24.62|||110000474326|47
03.11.2018 10:00:00||VSMART BİLGİ TEKNOLOJİLERİ|10.40.24.62|||110000474326|65
03.11.2018 10:00:00||VSMART BİLGİ TEKNOLOJİLERİ|10.40.24.62|||110000474326|42
03.11.2018 10:00:00||VSMART BİLGİ TEKNOLOJİLERİ|10.40.24.62|||110000474326|10
03.11.2018 10:00:00||VSMART BİLGİ TEKNOLOJİLERİ|10.40.25.62|||110000474326|70
03.11.2018 10:00:00||VSMART BİLGİ TEKNOLOJİLERİ|10.40.24.62|||110000474326|47
03.11.2018 10:00:00||VSMART BİLGİ TEKNOLOJİLERİ|10.40.24.62|||110000474326|10
