27.10.2018 15:00:00||AKTİFBANK|10.40.24.172|||110000438458|98
27.10.2018 15:00:00||AKTİFBANK|10.40.25.134|||110000438458|93
27.10.2018 15:00:00||AKTİFBANK|10.40.24.134|||110000438458|94
27.10.2018 15:00:00||AKTİFBANK|10.40.24.135|||110000438458|96
27.10.2018 15:00:00||AKTİFBANK|10.40.25.137|||110000438458|57
27.10.2018 15:00:00||AKTİFBANK|10.40.25.171|||110000438458|12
27.10.2018 15:00:00||AKTİFBANK|10.40.25.172|||110000438458|88
27.10.2018 15:00:00||AKTİFBANK|10.40.25.174|||110000438458|53
27.10.2018 15:00:00||AKTİFBANK|10.40.25.135|||110000438458|92
27.10.2018 15:00:00||AKTİFBANK|10.40.24.137|||110000438458|57
27.10.2018 15:00:00||AKTİFBANK|10.40.24.171|||110000438458|11
27.10.2018 15:00:00||AKTİFBANK|10.40.25.173|||110000438458|94
27.10.2018 15:00:00||AKTİFBANK|10.40.24.173|||110000438458|92
27.10.2018 15:00:00||AKTİFBANK|10.40.24.174|||110000438458|60
27.10.2018 15:00:00||AKTİFBANK|10.40.24.133|||110000438458|87
27.10.2018 15:00:00||AKTİFBANK|10.40.24.138|||110000438458|120
27.10.2018 15:00:00||AKTİFBANK|10.40.24.139|||110000438458|30
27.10.2018 15:00:00||AKTİFBANK|10.40.24.149|||110000438458|110
27.10.2018 15:00:00||AKTİFBANK|10.40.24.150|||110000438458|550
27.10.2018 15:00:00||AKTİFBANK|10.40.24.145|||110000438458|60
27.10.2018 15:00:00||AKTİFBANK|10.40.24.164|||110000438458|227
27.10.2018 15:00:00||AKTİFBANK|10.40.25.133|||110000438458|70
27.10.2018 15:00:00||AKTİFBANK|10.40.24.145|||110000438458|90
27.10.2018 15:00:00||AKTİFBANK|10.40.24.158|||110000438458|80
27.10.2018 15:00:00||AKTİFBANK|10.40.24.164|||110000438458|70
27.10.2018 15:00:00||AKTİFBANK|10.40.25.138|||110000438458|83
27.10.2018 15:00:00||AKTİFBANK|10.40.25.139|||110000438458|10
27.10.2018 15:00:00||AKTİFBANK|10.40.25.140|||110000438458|33
27.10.2018 15:00:00||AKTİFBANK|10.40.25.151|||110000438458|500
27.10.2018 15:00:00||AKTİFBANK|10.40.25.141|||110000438458|100
27.10.2018 15:00:00||AKTİFBANK|10.40.25.141|||110000438458|100
27.10.2018 15:00:00||AKTİFBANK|10.40.25.142|||110000438458|75
27.10.2018 15:00:00||AKTİFBANK|10.40.25.133|||110000438458|110
27.10.2018 15:00:00||AKTİFBANK|10.40.25.149|||110000438458|102
27.10.2018 15:00:00||AKTİFBANK|10.40.25.149|||110000438458|90
27.10.2018 15:00:00||AKTİFBANK|10.40.25.149|||110000438458|95
27.10.2018 15:00:00||AKTİFBANK|10.40.25.140|||110000438458|30
27.10.2018 15:00:00||AKTİFBANK|10.40.25.150|||110000438458|533
27.10.2018 15:00:00||AKTİFBANK|10.40.25.139|||110000438458|170
27.10.2018 15:00:00||AKTİFBANK|10.40.25.139|||110000438458|40
27.10.2018 15:00:00||AKTİFBANK|10.40.25.140|||110000438458|80
27.10.2018 15:00:00||AKTİFBANK|10.40.25.140|||110000438458|70
27.10.2018 15:00:00||AKTİFBANK|10.40.25.140|||110000438458|30
27.10.2018 15:00:00||AKTİFBANK|10.40.25.151|||110000438458|513
27.10.2018 15:00:00||AKTİFBANK|10.40.25.151|||110000438458|493
27.10.2018 15:00:00||AKTİFBANK|10.40.25.141|||110000438458|40
27.10.2018 15:00:00||AKTİFBANK|10.40.25.141|||110000438458|100
27.10.2018 15:00:00||AKTİFBANK|10.40.25.141|||110000438458|80
27.10.2018 15:00:00||AKTİFBANK|10.40.25.142|||110000438458|30
27.10.2018 15:00:00||AKTİFBANK|10.40.25.149|||110000438458|70
27.10.2018 15:00:00||AKTİFBANK|10.40.25.149|||110000438458|110
27.10.2018 15:00:00||AKTİFBANK|10.40.25.149|||110000438458|90
27.10.2018 15:00:00||AKTİFBANK|10.40.25.149|||110000438458|93
27.10.2018 15:00:00||AKTİFBANK|10.40.25.149|||110000438458|100
27.10.2018 15:00:00||AKTİFBANK|10.40.24.139|||110000438458|65
27.10.2018 15:00:00||AKTİFBANK|10.40.25.153|||110000438458|10
27.10.2018 15:00:00||AKTİFBANK|10.40.25.150|||110000438458|550
27.10.2018 15:00:00||AKTİFBANK|10.40.25.153|||110000438458|70
27.10.2018 15:00:00||AKTİFBANK|10.40.25.163|||110000438458|40
27.10.2018 15:00:00||AKTİFBANK|10.40.24.141|||110000438458|72
27.10.2018 15:00:00||AKTİFBANK|10.40.24.151|||110000438458|500
27.10.2018 15:00:00||AKTİFBANK|10.40.25.153|||110000438458|80
27.10.2018 15:00:00||AKTİFBANK|10.40.24.149|||110000438458|83
27.10.2018 15:00:00||AKTİFBANK|10.40.24.141|||110000438458|50
27.10.2018 15:00:00||AKTİFBANK|10.40.25.133|||110000438458|280
27.10.2018 15:00:00||AKTİFBANK|10.40.25.133|||110000438458|90
27.10.2018 15:00:00||AKTİFBANK|10.40.24.149|||110000438458|95
27.10.2018 15:00:00||AKTİFBANK|10.40.24.162|||110000438458|215
27.10.2018 15:00:00||AKTİFBANK|10.40.24.162|||110000438458|30
27.10.2018 15:00:00||AKTİFBANK|10.40.24.162|||110000438458|40
27.10.2018 15:00:00||AKTİFBANK|10.40.25.133|||110000438458|150
27.10.2018 15:00:00||AKTİFBANK|10.40.25.138|||110000438458|130
27.10.2018 15:00:00||AKTİFBANK|10.40.25.149|||110000438458|87
27.10.2018 15:00:00||AKTİFBANK|10.40.25.149|||110000438458|70
27.10.2018 15:00:00||AKTİFBANK|10.40.25.149|||110000438458|33
27.10.2018 15:00:00||AKTİFBANK|10.40.25.149|||110000438458|78
27.10.2018 15:00:00||AKTİFBANK|10.40.25.149|||110000438458|70
27.10.2018 15:00:00||AKTİFBANK|10.40.25.141|||110000438458|100
27.10.2018 15:00:00||AKTİFBANK|10.40.25.149|||110000438458|130
27.10.2018 15:00:00||AKTİFBANK|10.40.25.138|||110000438458|90
27.10.2018 15:00:00||AKTİFBANK|10.40.25.138|||110000438458|78
27.10.2018 15:00:00||AKTİFBANK|10.40.25.139|||110000438458|100
27.10.2018 15:00:00||AKTİFBANK|10.40.24.145|||110000438458|70
27.10.2018 15:00:00||AKTİFBANK|10.40.24.149|||110000438458|160
27.10.2018 15:00:00||AKTİFBANK|10.40.25.138|||110000438458|30
27.10.2018 15:00:00||AKTİFBANK|10.40.25.138|||110000438458|10
27.10.2018 15:00:00||AKTİFBANK|10.40.25.153|||110000438458|60
27.10.2018 15:00:00||AKTİFBANK|10.40.24.150|||110000438458|543
27.10.2018 15:00:00||AKTİFBANK|10.40.25.128|||110000438458|70
27.10.2018 15:00:00||AKTİFBANK|10.40.25.128|||110000438458|90
27.10.2018 15:00:00||AKTİFBANK|10.40.25.128|||110000438458|92
27.10.2018 15:00:00||AKTİFBANK|10.40.25.128|||110000438458|40
27.10.2018 15:00:00||AKTİFBANK|10.40.25.128|||110000438458|50
27.10.2018 15:00:00||AKTİFBANK|10.40.25.129|||110000438458|80
27.10.2018 15:00:00||AKTİFBANK|10.40.25.129|||110000438458|72
27.10.2018 15:00:00||AKTİFBANK|10.40.25.129|||110000438458|130
27.10.2018 15:00:00||AKTİFBANK|10.40.25.129|||110000438458|100
27.10.2018 15:00:00||AKTİFBANK|10.40.25.129|||110000438458|40
27.10.2018 15:00:00||AKTİFBANK|10.40.25.129|||110000438458|93
27.10.2018 15:00:00||AKTİFBANK|10.40.25.129|||110000438458|95
27.10.2018 15:00:00||AKTİFBANK|10.40.25.130|||110000438458|70
27.10.2018 15:00:00||AKTİFBANK|10.40.25.130|||110000438458|50
27.10.2018 15:00:00||AKTİFBANK|10.40.25.130|||110000438458|80
27.10.2018 15:00:00||AKTİFBANK|10.40.25.130|||110000438458|40
27.10.2018 15:00:00||AKTİFBANK|10.40.25.130|||110000438458|60
27.10.2018 15:00:00||AKTİFBANK|10.40.25.130|||110000438458|100
27.10.2018 15:00:00||AKTİFBANK|10.40.25.130|||110000438458|90
27.10.2018 15:00:00||AKTİFBANK|10.40.25.131|||110000438458|20
27.10.2018 15:00:00||AKTİFBANK|10.40.25.131|||110000438458|77
27.10.2018 15:00:00||AKTİFBANK|10.40.25.131|||110000438458|100
27.10.2018 15:00:00||AKTİFBANK|10.40.25.131|||110000438458|22
27.10.2018 15:00:00||AKTİFBANK|10.40.25.131|||110000438458|117
27.10.2018 15:00:00||AKTİFBANK|10.40.25.132|||110000438458|60
27.10.2018 15:00:00||AKTİFBANK|10.40.25.132|||110000438458|67
27.10.2018 15:00:00||AKTİFBANK|10.40.25.132|||110000438458|53
27.10.2018 15:00:00||AKTİFBANK|10.40.25.132|||110000438458|115
27.10.2018 15:00:00||AKTİFBANK|10.40.25.132|||110000438458|40
27.10.2018 15:00:00||AKTİFBANK|10.40.25.143|||110000438458|300
27.10.2018 15:00:00||AKTİFBANK|10.40.25.144|||110000438458|80
27.10.2018 15:00:00||AKTİFBANK|10.40.25.144|||110000438458|50
27.10.2018 15:00:00||AKTİFBANK|10.40.25.144|||110000438458|20
27.10.2018 15:00:00||AKTİFBANK|10.40.25.154|||110000438458|10
27.10.2018 15:00:00||AKTİFBANK|10.40.25.154|||110000438458|10
27.10.2018 15:00:00||AKTİFBANK|10.40.25.154|||110000438458|10
27.10.2018 15:00:00||AKTİFBANK|10.40.25.157|||110000438458|70
27.10.2018 15:00:00||AKTİFBANK|10.40.25.157|||110000438458|70
27.10.2018 15:00:00||AKTİFBANK|10.40.25.157|||110000438458|70
27.10.2018 15:00:00||AKTİFBANK|10.40.25.157|||110000438458|82
27.10.2018 15:00:00||AKTİFBANK|10.40.25.157|||110000438458|35
27.10.2018 15:00:00||AKTİFBANK|10.40.25.159|||110000438458|60
27.10.2018 15:00:00||AKTİFBANK|10.40.25.159|||110000438458|10
27.10.2018 15:00:00||AKTİFBANK|10.40.25.159|||110000438458|90
27.10.2018 15:00:00||AKTİFBANK|10.40.25.158|||110000438458|92
27.10.2018 15:00:00||AKTİFBANK|10.40.25.158|||110000438458|75
27.10.2018 15:00:00||AKTİFBANK|10.40.25.158|||110000438458|22
27.10.2018 15:00:00||AKTİFBANK|10.40.25.158|||110000438458|50
27.10.2018 15:00:00||AKTİFBANK|10.40.25.160|||110000438458|92
27.10.2018 15:00:00||AKTİFBANK|10.40.25.161|||110000438458|80
27.10.2018 15:00:00||AKTİFBANK|10.40.25.161|||110000438458|70
27.10.2018 15:00:00||AKTİFBANK|10.40.25.161|||110000438458|50
27.10.2018 15:00:00||AKTİFBANK|10.40.25.145|||110000438458|90
27.10.2018 15:00:00||AKTİFBANK|10.40.25.145|||110000438458|60
27.10.2018 15:00:00||AKTİFBANK|10.40.25.145|||110000438458|60
27.10.2018 15:00:00||AKTİFBANK|10.40.25.145|||110000438458|30
27.10.2018 15:00:00||AKTİFBANK|10.40.25.145|||110000438458|50
27.10.2018 15:00:00||AKTİFBANK|10.40.25.147|||110000438458|90
27.10.2018 15:00:00||AKTİFBANK|10.40.25.162|||110000438458|30
27.10.2018 15:00:00||AKTİFBANK|10.40.25.162|||110000438458|30
27.10.2018 15:00:00||AKTİFBANK|10.40.25.162|||110000438458|60
27.10.2018 15:00:00||AKTİFBANK|10.40.25.164|||110000438458|60
27.10.2018 15:00:00||AKTİFBANK|10.40.25.164|||110000438458|280
27.10.2018 15:00:00||AKTİFBANK|10.40.25.164|||110000438458|50
27.10.2018 15:00:00||AKTİFBANK|10.40.25.164|||110000438458|260
27.10.2018 15:00:00||AKTİFBANK|10.40.25.164|||110000438458|270
27.10.2018 15:00:00||AKTİFBANK|10.40.25.165|||110000438458|110
27.10.2018 15:00:00||AKTİFBANK|10.40.25.165|||110000438458|70
27.10.2018 15:00:00||AKTİFBANK|10.40.25.165|||110000438458|80
27.10.2018 15:00:00||AKTİFBANK|10.40.25.165|||110000438458|100
27.10.2018 15:00:00||AKTİFBANK|10.40.25.166|||110000438458|90
27.10.2018 15:00:00||AKTİFBANK|10.40.25.166|||110000438458|10
27.10.2018 15:00:00||AKTİFBANK|10.40.25.166|||110000438458|10
27.10.2018 15:00:00||AKTİFBANK|10.40.25.166|||110000438458|40
27.10.2018 15:00:00||AKTİFBANK|10.40.25.148|||110000438458|130
27.10.2018 15:00:00||AKTİFBANK|10.40.25.148|||110000438458|50
27.10.2018 15:00:00||AKTİFBANK|10.40.25.148|||110000438458|100
27.10.2018 15:00:00||AKTİFBANK|10.40.25.148|||110000438458|130
27.10.2018 15:00:00||AKTİFBANK|10.40.25.148|||110000438458|90
27.10.2018 15:00:00||AKTİFBANK|10.40.25.148|||110000438458|80
27.10.2018 15:00:00||AKTİFBANK|10.40.25.148|||110000438458|70
27.10.2018 15:00:00||AKTİFBANK|10.40.25.148|||110000438458|50
27.10.2018 15:00:00||AKTİFBANK|10.40.25.148|||110000438458|80
27.10.2018 15:00:00||AKTİFBANK|10.40.25.148|||110000438458|40
27.10.2018 15:00:00||AKTİFBANK|10.40.25.148|||110000438458|100
27.10.2018 15:00:00||AKTİFBANK|10.40.25.148|||110000438458|60
27.10.2018 15:00:00||AKTİFBANK|10.40.25.155|||110000438458|70
27.10.2018 15:00:00||AKTİFBANK|10.40.25.155|||110000438458|90
27.10.2018 15:00:00||AKTİFBANK|10.40.25.155|||110000438458|110
27.10.2018 15:00:00||AKTİFBANK|10.40.25.155|||110000438458|120
27.10.2018 15:00:00||AKTİFBANK|10.40.25.155|||110000438458|110
27.10.2018 15:00:00||AKTİFBANK|10.40.25.156|||110000438458|20
27.10.2018 15:00:00||AKTİFBANK|10.40.25.156|||110000438458|23
27.10.2018 15:00:00||AKTİFBANK|10.40.25.139|||110000438458|70
27.10.2018 15:00:00||AKTİFBANK|10.40.25.139|||110000438458|80
27.10.2018 15:00:00||AKTİFBANK|10.40.25.150|||110000438458|512
27.10.2018 15:00:00||AKTİFBANK|10.40.25.129|||110000438458|60
27.10.2018 15:00:00||AKTİFBANK|10.40.25.129|||110000438458|82
27.10.2018 15:00:00||AKTİFBANK|10.40.25.129|||110000438458|140
27.10.2018 15:00:00||AKTİFBANK|10.40.25.130|||110000438458|70
27.10.2018 15:00:00||AKTİFBANK|10.40.25.130|||110000438458|130
27.10.2018 15:00:00||AKTİFBANK|10.40.25.130|||110000438458|100
27.10.2018 15:00:00||AKTİFBANK|10.40.25.131|||110000438458|50
27.10.2018 15:00:00||AKTİFBANK|10.40.25.143|||110000438458|60
27.10.2018 15:00:00||AKTİFBANK|10.40.25.143|||110000438458|242
27.10.2018 15:00:00||AKTİFBANK|10.40.25.143|||110000438458|250
27.10.2018 15:00:00||AKTİFBANK|10.40.25.158|||110000438458|102
27.10.2018 15:00:00||AKTİFBANK|10.40.25.160|||110000438458|110
27.10.2018 15:00:00||AKTİFBANK|10.40.25.162|||110000438458|30
27.10.2018 15:00:00||AKTİFBANK|10.40.25.162|||110000438458|40
27.10.2018 15:00:00||AKTİFBANK|10.40.24.140|||110000438458|160
27.10.2018 15:00:00||AKTİFBANK|10.40.24.140|||110000438458|80
27.10.2018 15:00:00||AKTİFBANK|10.40.24.140|||110000438458|40
27.10.2018 15:00:00||AKTİFBANK|10.40.24.140|||110000438458|30
27.10.2018 15:00:00||AKTİFBANK|10.40.24.140|||110000438458|30
27.10.2018 15:00:00||AKTİFBANK|10.40.24.140|||110000438458|25
27.10.2018 15:00:00||AKTİFBANK|10.40.24.149|||110000438458|80
27.10.2018 15:00:00||AKTİFBANK|10.40.24.149|||110000438458|120
27.10.2018 15:00:00||AKTİFBANK|10.40.24.149|||110000438458|90
27.10.2018 15:00:00||AKTİFBANK|10.40.24.149|||110000438458|77
27.10.2018 15:00:00||AKTİFBANK|10.40.24.149|||110000438458|57
27.10.2018 15:00:00||AKTİFBANK|10.40.24.149|||110000438458|138
27.10.2018 15:00:00||AKTİFBANK|10.40.24.149|||110000438458|90
27.10.2018 15:00:00||AKTİFBANK|10.40.24.149|||110000438458|92
27.10.2018 15:00:00||AKTİFBANK|10.40.24.149|||110000438458|95
27.10.2018 15:00:00||AKTİFBANK|10.40.24.149|||110000438458|80
27.10.2018 15:00:00||AKTİFBANK|10.40.24.133|||110000438458|273
27.10.2018 15:00:00||AKTİFBANK|10.40.24.133|||110000438458|142
27.10.2018 15:00:00||AKTİFBANK|10.40.24.133|||110000438458|122
27.10.2018 15:00:00||AKTİFBANK|10.40.24.133|||110000438458|88
27.10.2018 15:00:00||AKTİFBANK|10.40.24.138|||110000438458|113
27.10.2018 15:00:00||AKTİFBANK|10.40.24.138|||110000438458|140
27.10.2018 15:00:00||AKTİFBANK|10.40.24.138|||110000438458|112
27.10.2018 15:00:00||AKTİFBANK|10.40.24.138|||110000438458|30
27.10.2018 15:00:00||AKTİFBANK|10.40.24.138|||110000438458|50
27.10.2018 15:00:00||AKTİFBANK|10.40.24.139|||110000438458|160
27.10.2018 15:00:00||AKTİFBANK|10.40.24.139|||110000438458|92
27.10.2018 15:00:00||AKTİFBANK|10.40.24.139|||110000438458|120
27.10.2018 15:00:00||AKTİFBANK|10.40.24.141|||110000438458|200
27.10.2018 15:00:00||AKTİFBANK|10.40.24.141|||110000438458|100
27.10.2018 15:00:00||AKTİFBANK|10.40.24.141|||110000438458|100
27.10.2018 15:00:00||AKTİFBANK|10.40.24.141|||110000438458|70
27.10.2018 15:00:00||AKTİFBANK|10.40.24.141|||110000438458|80
27.10.2018 15:00:00||AKTİFBANK|10.40.25.152|||110000438458|110
27.10.2018 15:00:00||AKTİFBANK|10.40.25.152|||110000438458|50
27.10.2018 15:00:00||AKTİFBANK|10.40.25.152|||110000438458|140
27.10.2018 15:00:00||AKTİFBANK|10.40.25.152|||110000438458|70
27.10.2018 15:00:00||AKTİFBANK|10.40.25.152|||110000438458|90
27.10.2018 15:00:00||AKTİFBANK|10.40.25.152|||110000438458|160
27.10.2018 15:00:00||AKTİFBANK|10.40.25.152|||110000438458|50
27.10.2018 15:00:00||AKTİFBANK|10.40.25.152|||110000438458|90
27.10.2018 15:00:00||AKTİFBANK|10.40.25.152|||110000438458|30
27.10.2018 15:00:00||AKTİFBANK|10.40.25.152|||110000438458|80
27.10.2018 15:00:00||AKTİFBANK|10.40.25.152|||110000438458|30
27.10.2018 15:00:00||AKTİFBANK|10.40.24.150|||110000438458|550
27.10.2018 15:00:00||AKTİFBANK|10.40.24.151|||110000438458|530
27.10.2018 15:00:00||AKTİFBANK|10.40.24.151|||110000438458|530
27.10.2018 15:00:00||AKTİFBANK|10.40.24.128|||110000438458|60
27.10.2018 15:00:00||AKTİFBANK|10.40.24.128|||110000438458|70
27.10.2018 15:00:00||AKTİFBANK|10.40.24.128|||110000438458|98
27.10.2018 15:00:00||AKTİFBANK|10.40.24.128|||110000438458|40
27.10.2018 15:00:00||AKTİFBANK|10.40.24.128|||110000438458|70
27.10.2018 15:00:00||AKTİFBANK|10.40.24.128|||110000438458|70
27.10.2018 15:00:00||AKTİFBANK|10.40.24.129|||110000438458|100
27.10.2018 15:00:00||AKTİFBANK|10.40.24.129|||110000438458|70
27.10.2018 15:00:00||AKTİFBANK|10.40.24.129|||110000438458|110
27.10.2018 15:00:00||AKTİFBANK|10.40.24.129|||110000438458|120
27.10.2018 15:00:00||AKTİFBANK|10.40.24.129|||110000438458|40
27.10.2018 15:00:00||AKTİFBANK|10.40.24.129|||110000438458|70
27.10.2018 15:00:00||AKTİFBANK|10.40.24.129|||110000438458|70
27.10.2018 15:00:00||AKTİFBANK|10.40.24.129|||110000438458|90
27.10.2018 15:00:00||AKTİFBANK|10.40.24.129|||110000438458|80
27.10.2018 15:00:00||AKTİFBANK|10.40.24.129|||110000438458|140
27.10.2018 15:00:00||AKTİFBANK|10.40.24.130|||110000438458|53
27.10.2018 15:00:00||AKTİFBANK|10.40.24.130|||110000438458|40
27.10.2018 15:00:00||AKTİFBANK|10.40.24.130|||110000438458|68
27.10.2018 15:00:00||AKTİFBANK|10.40.24.130|||110000438458|42
27.10.2018 15:00:00||AKTİFBANK|10.40.24.130|||110000438458|60
27.10.2018 15:00:00||AKTİFBANK|10.40.24.130|||110000438458|75
27.10.2018 15:00:00||AKTİFBANK|10.40.24.130|||110000438458|92
27.10.2018 15:00:00||AKTİFBANK|10.40.24.130|||110000438458|40
27.10.2018 15:00:00||AKTİFBANK|10.40.24.130|||110000438458|130
27.10.2018 15:00:00||AKTİFBANK|10.40.24.130|||110000438458|110
27.10.2018 15:00:00||AKTİFBANK|10.40.24.131|||110000438458|82
27.10.2018 15:00:00||AKTİFBANK|10.40.24.131|||110000438458|90
27.10.2018 15:00:00||AKTİFBANK|10.40.24.131|||110000438458|110
27.10.2018 15:00:00||AKTİFBANK|10.40.24.131|||110000438458|110
27.10.2018 15:00:00||AKTİFBANK|10.40.24.131|||110000438458|30
27.10.2018 15:00:00||AKTİFBANK|10.40.24.131|||110000438458|160
27.10.2018 15:00:00||AKTİFBANK|10.40.24.131|||110000438458|60
27.10.2018 15:00:00||AKTİFBANK|10.40.24.131|||110000438458|110
27.10.2018 15:00:00||AKTİFBANK|10.40.24.132|||110000438458|30
27.10.2018 15:00:00||AKTİFBANK|10.40.24.132|||110000438458|82
27.10.2018 15:00:00||AKTİFBANK|10.40.24.132|||110000438458|52
27.10.2018 15:00:00||AKTİFBANK|10.40.24.132|||110000438458|195
27.10.2018 15:00:00||AKTİFBANK|10.40.24.132|||110000438458|67
27.10.2018 15:00:00||AKTİFBANK|10.40.24.143|||110000438458|68
27.10.2018 15:00:00||AKTİFBANK|10.40.24.143|||110000438458|270
27.10.2018 15:00:00||AKTİFBANK|10.40.24.143|||110000438458|338
27.10.2018 15:00:00||AKTİFBANK|10.40.24.143|||110000438458|198
27.10.2018 15:00:00||AKTİFBANK|10.40.24.144|||110000438458|70
27.10.2018 15:00:00||AKTİFBANK|10.40.24.144|||110000438458|110
27.10.2018 15:00:00||AKTİFBANK|10.40.24.144|||110000438458|130
27.10.2018 15:00:00||AKTİFBANK|10.40.24.148|||110000438458|70
27.10.2018 15:00:00||AKTİFBANK|10.40.24.148|||110000438458|170
27.10.2018 15:00:00||AKTİFBANK|10.40.24.148|||110000438458|90
27.10.2018 15:00:00||AKTİFBANK|10.40.24.148|||110000438458|110
27.10.2018 15:00:00||AKTİFBANK|10.40.24.148|||110000438458|80
27.10.2018 15:00:00||AKTİFBANK|10.40.24.148|||110000438458|90
27.10.2018 15:00:00||AKTİFBANK|10.40.24.148|||110000438458|90
27.10.2018 15:00:00||AKTİFBANK|10.40.24.148|||110000438458|100
27.10.2018 15:00:00||AKTİFBANK|10.40.24.148|||110000438458|90
27.10.2018 15:00:00||AKTİFBANK|10.40.24.148|||110000438458|60
27.10.2018 15:00:00||AKTİFBANK|10.40.24.148|||110000438458|30
27.10.2018 15:00:00||AKTİFBANK|10.40.24.148|||110000438458|80
27.10.2018 15:00:00||AKTİFBANK|10.40.24.153|||110000438458|10
27.10.2018 15:00:00||AKTİFBANK|10.40.24.153|||110000438458|90
27.10.2018 15:00:00||AKTİFBANK|10.40.24.153|||110000438458|70
27.10.2018 15:00:00||AKTİFBANK|10.40.24.153|||110000438458|80
27.10.2018 15:00:00||AKTİFBANK|10.40.24.157|||110000438458|30
27.10.2018 15:00:00||AKTİFBANK|10.40.24.157|||110000438458|70
27.10.2018 15:00:00||AKTİFBANK|10.40.24.157|||110000438458|70
27.10.2018 15:00:00||AKTİFBANK|10.40.24.157|||110000438458|40
27.10.2018 15:00:00||AKTİFBANK|10.40.24.157|||110000438458|80
27.10.2018 15:00:00||AKTİFBANK|10.40.24.157|||110000438458|40
27.10.2018 15:00:00||AKTİFBANK|10.40.24.158|||110000438458|80
27.10.2018 15:00:00||AKTİFBANK|10.40.24.158|||110000438458|110
27.10.2018 15:00:00||AKTİFBANK|10.40.24.159|||110000438458|132
27.10.2018 15:00:00||AKTİFBANK|10.40.24.159|||110000438458|52
27.10.2018 15:00:00||AKTİFBANK|10.40.24.159|||110000438458|183
27.10.2018 15:00:00||AKTİFBANK|10.40.24.160|||110000438458|50
27.10.2018 15:00:00||AKTİFBANK|10.40.24.160|||110000438458|90
27.10.2018 15:00:00||AKTİFBANK|10.40.24.160|||110000438458|100
27.10.2018 15:00:00||AKTİFBANK|10.40.24.161|||110000438458|200
27.10.2018 15:00:00||AKTİFBANK|10.40.24.161|||110000438458|80
27.10.2018 15:00:00||AKTİFBANK|10.40.24.161|||110000438458|40
27.10.2018 15:00:00||AKTİFBANK|10.40.24.161|||110000438458|30
27.10.2018 15:00:00||AKTİFBANK|10.40.24.161|||110000438458|30
27.10.2018 15:00:00||AKTİFBANK|10.40.24.161|||110000438458|20
27.10.2018 15:00:00||AKTİFBANK|10.40.24.161|||110000438458|90
27.10.2018 15:00:00||AKTİFBANK|10.40.24.145|||110000438458|30
27.10.2018 15:00:00||AKTİFBANK|10.40.24.145|||110000438458|70
27.10.2018 15:00:00||AKTİFBANK|10.40.24.145|||110000438458|50
27.10.2018 15:00:00||AKTİFBANK|10.40.24.147|||110000438458|90
27.10.2018 15:00:00||AKTİFBANK|10.40.24.162|||110000438458|40
27.10.2018 15:00:00||AKTİFBANK|10.40.24.162|||110000438458|40
27.10.2018 15:00:00||AKTİFBANK|10.40.24.162|||110000438458|105
27.10.2018 15:00:00||AKTİFBANK|10.40.24.162|||110000438458|10
27.10.2018 15:00:00||AKTİFBANK|10.40.24.162|||110000438458|52
27.10.2018 15:00:00||AKTİFBANK|10.40.24.163|||110000438458|30
27.10.2018 15:00:00||AKTİFBANK|10.40.24.163|||110000438458|70
27.10.2018 15:00:00||AKTİFBANK|10.40.24.164|||110000438458|57
27.10.2018 15:00:00||AKTİFBANK|10.40.24.164|||110000438458|337
27.10.2018 15:00:00||AKTİFBANK|10.40.24.164|||110000438458|210
27.10.2018 15:00:00||AKTİFBANK|10.40.24.165|||110000438458|73
27.10.2018 15:00:00||AKTİFBANK|10.40.24.165|||110000438458|80
27.10.2018 15:00:00||AKTİFBANK|10.40.24.165|||110000438458|52
27.10.2018 15:00:00||AKTİFBANK|10.40.24.165|||110000438458|120
27.10.2018 15:00:00||AKTİFBANK|10.40.24.166|||110000438458|80
27.10.2018 15:00:00||AKTİFBANK|10.40.24.166|||110000438458|90
27.10.2018 15:00:00||AKTİFBANK|10.40.24.166|||110000438458|10
27.10.2018 15:00:00||AKTİFBANK|10.40.25.168|||110000438458|90
27.10.2018 15:00:00||AKTİFBANK|10.40.25.168|||110000438458|70
27.10.2018 15:00:00||AKTİFBANK|10.40.25.168|||110000438458|50
27.10.2018 15:00:00||AKTİFBANK|10.40.25.168|||110000438458|40
27.10.2018 15:00:00||AKTİFBANK|10.40.25.168|||110000438458|60
27.10.2018 15:00:00||AKTİFBANK|10.40.24.168|||110000438458|90
27.10.2018 15:00:00||AKTİFBANK|10.40.24.168|||110000438458|80
27.10.2018 15:00:00||AKTİFBANK|10.40.24.168|||110000438458|70
27.10.2018 15:00:00||AKTİFBANK|10.40.24.168|||110000438458|70
27.10.2018 15:00:00||AKTİFBANK|10.40.24.168|||110000438458|30
27.10.2018 15:00:00||AKTİFBANK|10.40.24.154|||110000438458|70
27.10.2018 15:00:00||AKTİFBANK|10.40.24.154|||110000438458|20
27.10.2018 15:00:00||AKTİFBANK|10.40.24.154|||110000438458|10
27.10.2018 15:00:00||AKTİFBANK|10.40.24.154|||110000438458|10
27.10.2018 15:00:00||AKTİFBANK|10.40.24.154|||110000438458|10
27.10.2018 15:00:00||AKTİFBANK|10.40.24.154|||110000438458|10
27.10.2018 15:00:00||AKTİFBANK|10.40.24.155|||110000438458|58
27.10.2018 15:00:00||AKTİFBANK|10.40.24.155|||110000438458|100
27.10.2018 15:00:00||AKTİFBANK|10.40.24.155|||110000438458|137
27.10.2018 15:00:00||AKTİFBANK|10.40.24.155|||110000438458|80
27.10.2018 15:00:00||AKTİFBANK|10.40.24.155|||110000438458|115
27.10.2018 15:00:00||AKTİFBANK|10.40.24.155|||110000438458|100
27.10.2018 15:00:00||AKTİFBANK|10.40.25.169|||110000438458|83
27.10.2018 15:00:00||AKTİFBANK|10.40.25.169|||110000438458|97
27.10.2018 15:00:00||AKTİFBANK|10.40.25.169|||110000438458|70
27.10.2018 15:00:00||AKTİFBANK|10.40.25.169|||110000438458|82
27.10.2018 15:00:00||AKTİFBANK|10.40.24.169|||110000438458|73
27.10.2018 15:00:00||AKTİFBANK|10.40.24.169|||110000438458|88
27.10.2018 15:00:00||AKTİFBANK|10.40.24.169|||110000438458|78
27.10.2018 15:00:00||AKTİFBANK|10.40.24.169|||110000438458|80
27.10.2018 15:00:00||AKTİFBANK|10.40.25.170|||110000438458|30
27.10.2018 15:00:00||AKTİFBANK|10.40.25.170|||110000438458|30
27.10.2018 15:00:00||AKTİFBANK|10.40.25.170|||110000438458|200
27.10.2018 15:00:00||AKTİFBANK|10.40.25.170|||110000438458|100
27.10.2018 15:00:00||AKTİFBANK|10.40.25.170|||110000438458|80
27.10.2018 15:00:00||AKTİFBANK|10.40.25.170|||110000438458|120
27.10.2018 15:00:00||AKTİFBANK|10.40.24.170|||110000438458|60
27.10.2018 15:00:00||AKTİFBANK|10.40.24.170|||110000438458|60
27.10.2018 15:00:00||AKTİFBANK|10.40.24.170|||110000438458|233
27.10.2018 15:00:00||AKTİFBANK|10.40.24.170|||110000438458|255
27.10.2018 15:00:00||AKTİFBANK|10.40.24.170|||110000438458|82
27.10.2018 15:00:00||AKTİFBANK|10.40.24.170|||110000438458|103
27.10.2018 15:00:00||AKTİFBANK|10.40.24.170|||110000438458|82
27.10.2018 15:00:00||AKTİFBANK|10.40.25.178|||110000438458|590
27.10.2018 15:00:00||AKTİFBANK|10.40.25.178|||110000438458|560
27.10.2018 15:00:00||AKTİFBANK|10.40.25.178|||110000438458|550
27.10.2018 15:00:00||AKTİFBANK|10.40.24.178|||110000438458|560
27.10.2018 15:00:00||AKTİFBANK|10.40.24.178|||110000438458|543
27.10.2018 15:00:00||AKTİFBANK|10.40.24.178|||110000438458|538
27.10.2018 15:00:00||AKTİFBANK|10.40.25.179|||110000438458|388
27.10.2018 15:00:00||AKTİFBANK|10.40.25.179|||110000438458|358
27.10.2018 15:00:00||AKTİFBANK|10.40.25.179|||110000438458|360
27.10.2018 15:00:00||AKTİFBANK|10.40.24.179|||110000438458|320
27.10.2018 15:00:00||AKTİFBANK|10.40.24.179|||110000438458|330
27.10.2018 15:00:00||AKTİFBANK|10.40.24.179|||110000438458|320
27.10.2018 15:00:00||AKTİFBANK|10.40.24.142|||110000438458|40
27.10.2018 15:00:00||AKTİFBANK|10.40.24.156|||110000438458|50
27.10.2018 15:00:00||AKTİFBANK|10.40.24.156|||110000438458|50
27.10.2018 15:00:00||AKTİFBANK|10.40.25.186|||110000438458|90
27.10.2018 15:00:00||AKTİFBANK|10.40.25.186|||110000438458|20
27.10.2018 15:00:00||AKTİFBANK|10.40.25.186|||110000438458|70
27.10.2018 15:00:00||AKTİFBANK|10.40.24.186|||110000438458|90
27.10.2018 15:00:00||AKTİFBANK|10.40.24.186|||110000438458|30
27.10.2018 15:00:00||AKTİFBANK|10.40.24.186|||110000438458|55
27.10.2018 15:00:00||AKTİFBANK|10.40.24.186|||110000438458|40
27.10.2018 15:00:00||AKTİFBANK|10.40.24.152|||110000438458|10
27.10.2018 15:00:00||AKTİFBANK|10.40.24.152|||110000438458|50
27.10.2018 15:00:00||AKTİFBANK|10.40.24.152|||110000438458|93
27.10.2018 15:00:00||AKTİFBANK|10.40.24.152|||110000438458|105
27.10.2018 15:00:00||AKTİFBANK|10.40.24.152|||110000438458|102
27.10.2018 15:00:00||AKTİFBANK|10.40.24.152|||110000438458|100
27.10.2018 15:00:00||AKTİFBANK|10.40.24.152|||110000438458|310
27.10.2018 15:00:00||AKTİFBANK|10.40.24.152|||110000438458|70
27.10.2018 15:00:00||AKTİFBANK|10.40.24.152|||110000438458|90
27.10.2018 15:00:00||AKTİFBANK|10.40.24.152|||110000438458|30
27.10.2018 15:00:00||AKTİFBANK|10.40.24.152|||110000438458|73
27.10.2018 15:00:00||AKTİFBANK|10.40.24.152|||110000438458|30
27.10.2018 15:00:00||BARİKAT İNTERNET GÜVENLİĞİ|10.40.25.201|||110000479736|120
27.10.2018 15:00:00||BARİKAT İNTERNET GÜVENLİĞİ|10.40.25.201|||110000479736|100
27.10.2018 15:00:00||BARİKAT İNTERNET GÜVENLİĞİ|10.40.24.201|||110000479736|140
27.10.2018 15:00:00||BARİKAT İNTERNET GÜVENLİĞİ|10.40.24.201|||110000479736|100
27.10.2018 15:00:00||BOYNER|10.40.26.100|||101367941673|55
27.10.2018 15:00:00||BOYNER|10.40.26.101|||101367941673|166
27.10.2018 15:00:00||BOYNER|10.40.27.100|||101367941673|52
27.10.2018 15:00:00||BOYNER|10.40.27.101|||101367941673|165
27.10.2018 15:00:00||BOYNER|10.40.27.94|||101367941673|210
27.10.2018 15:00:00||BOYNER|10.40.27.94|||101367941673|90
27.10.2018 15:00:00||BOYNER|10.40.27.94|||101367941673|90
27.10.2018 15:00:00||BOYNER|10.40.27.94|||101367941673|100
27.10.2018 15:00:00||BOYNER|10.40.26.94|||101367941673|90
27.10.2018 15:00:00||BOYNER|10.40.26.94|||101367941673|80
27.10.2018 15:00:00||BOYNER|10.40.26.94|||101367941673|80
27.10.2018 15:00:00||BOYNER|10.40.27.95|||101367941673|120
27.10.2018 15:00:00||BOYNER|10.40.27.95|||101367941673|128
27.10.2018 15:00:00||BOYNER|10.40.27.95|||101367941673|230
27.10.2018 15:00:00||BOYNER|10.40.26.95|||101367941673|105
27.10.2018 15:00:00||BOYNER|10.40.26.95|||101367941673|195
27.10.2018 15:00:00||BOYNER|10.40.26.95|||101367941673|133
27.10.2018 15:00:00||BOYNER|10.40.27.96|||101367941673|60
27.10.2018 15:00:00||BOYNER|10.40.27.96|||101367941673|50
27.10.2018 15:00:00||BOYNER|10.40.27.96|||101367941673|50
27.10.2018 15:00:00||BOYNER|10.40.27.96|||101367941673|40
27.10.2018 15:00:00||BOYNER|10.40.27.96|||101367941673|33
27.10.2018 15:00:00||BOYNER|10.40.27.96|||101367941673|152
27.10.2018 15:00:00||BOYNER|10.40.27.96|||101367941673|152
27.10.2018 15:00:00||BOYNER|10.40.27.96|||101367941673|172
27.10.2018 15:00:00||BOYNER|10.40.27.96|||101367941673|163
27.10.2018 15:00:00||BOYNER|10.40.26.96|||101367941673|30
27.10.2018 15:00:00||BOYNER|10.40.26.96|||101367941673|40
27.10.2018 15:00:00||BOYNER|10.40.26.96|||101367941673|30
27.10.2018 15:00:00||BOYNER|10.40.26.96|||101367941673|40
27.10.2018 15:00:00||BOYNER|10.40.26.96|||101367941673|40
27.10.2018 15:00:00||BOYNER|10.40.26.96|||101367941673|50
27.10.2018 15:00:00||BOYNER|10.40.26.96|||101367941673|190
27.10.2018 15:00:00||BOYNER|10.40.26.96|||101367941673|205
27.10.2018 15:00:00||BOYNER|10.40.26.96|||101367941673|160
27.10.2018 15:00:00||BOYNER|10.40.26.96|||101367941673|182
27.10.2018 15:00:00||BOYNER|10.40.27.97|||101367941673|60
27.10.2018 15:00:00||BOYNER|10.40.27.97|||101367941673|657
27.10.2018 15:00:00||BOYNER|10.40.27.97|||101367941673|665
27.10.2018 15:00:00||BOYNER|10.40.27.97|||101367941673|698
27.10.2018 15:00:00||BOYNER|10.40.27.97|||101367941673|40
27.10.2018 15:00:00||BOYNER|10.40.27.97|||101367941673|30
27.10.2018 15:00:00||BOYNER|10.40.27.97|||101367941673|50
27.10.2018 15:00:00||BOYNER|10.40.27.97|||101367941673|30
27.10.2018 15:00:00||BOYNER|10.40.27.97|||101367941673|172
27.10.2018 15:00:00||BOYNER|10.40.27.97|||101367941673|180
27.10.2018 15:00:00||BOYNER|10.40.27.97|||101367941673|180
27.10.2018 15:00:00||BOYNER|10.40.27.97|||101367941673|197
27.10.2018 15:00:00||BOYNER|10.40.26.97|||101367941673|30
27.10.2018 15:00:00||BOYNER|10.40.26.97|||101367941673|655
27.10.2018 15:00:00||BOYNER|10.40.26.97|||101367941673|655
27.10.2018 15:00:00||BOYNER|10.40.26.97|||101367941673|662
27.10.2018 15:00:00||BOYNER|10.40.26.97|||101367941673|30
27.10.2018 15:00:00||BOYNER|10.40.26.97|||101367941673|40
27.10.2018 15:00:00||BOYNER|10.40.26.97|||101367941673|50
27.10.2018 15:00:00||BOYNER|10.40.26.97|||101367941673|60
27.10.2018 15:00:00||BOYNER|10.40.26.97|||101367941673|30
27.10.2018 15:00:00||BOYNER|10.40.26.97|||101367941673|158
27.10.2018 15:00:00||BOYNER|10.40.26.97|||101367941673|175
27.10.2018 15:00:00||BOYNER|10.40.26.97|||101367941673|163
27.10.2018 15:00:00||BOYNER|10.40.26.97|||101367941673|152
27.10.2018 15:00:00||BOYNER|10.40.27.99|||101367941673|132
27.10.2018 15:00:00||BOYNER|10.40.27.99|||101367941673|82
27.10.2018 15:00:00||BOYNER|10.40.27.99|||101367941673|75
27.10.2018 15:00:00||BOYNER|10.40.26.99|||101367941673|12
27.10.2018 15:00:00||BOYNER|10.40.26.99|||101367941673|115
27.10.2018 15:00:00||BOYNER|10.40.26.99|||101367941673|102
27.10.2018 15:00:00||BOYNER|10.40.26.99|||101367941673|72
27.10.2018 15:00:00||ÇALIK HOLDİNG|10.40.24.118|||110000438407|43
27.10.2018 15:00:00||ÇALIK HOLDİNG|10.40.25.99|||110000438407|134
27.10.2018 15:00:00||ÇALIK HOLDİNG|10.40.25.118|||110000438407|161
27.10.2018 15:00:00||ÇALIK HOLDİNG|10.40.25.120|||110000438407|90
27.10.2018 15:00:00||ÇALIK HOLDİNG|10.40.24.95|||110000438407|50
27.10.2018 15:00:00||ÇALIK HOLDİNG|10.40.25.97|||110000438407|80
27.10.2018 15:00:00||ÇALIK HOLDİNG|10.40.25.103|||110000438407|90
27.10.2018 15:00:00||ÇALIK HOLDİNG|10.40.25.120|||110000438407|43
27.10.2018 15:00:00||ÇALIK HOLDİNG|10.40.25.96|||110000438407|70
27.10.2018 15:00:00||ÇALIK HOLDİNG|10.40.25.96|||110000438407|90
27.10.2018 15:00:00||ÇALIK HOLDİNG|10.40.25.96|||110000438407|120
27.10.2018 15:00:00||ÇALIK HOLDİNG|10.40.25.96|||110000438407|90
27.10.2018 15:00:00||ÇALIK HOLDİNG|10.40.25.115|||110000438407|160
27.10.2018 15:00:00||ÇALIK HOLDİNG|10.40.25.115|||110000438407|70
27.10.2018 15:00:00||ÇALIK HOLDİNG|10.40.25.95|||110000438407|98
27.10.2018 15:00:00||ÇALIK HOLDİNG|10.40.25.96|||110000438407|90
27.10.2018 15:00:00||ÇALIK HOLDİNG|10.40.25.96|||110000438407|100
27.10.2018 15:00:00||ÇALIK HOLDİNG|10.40.25.120|||110000438407|20
27.10.2018 15:00:00||ÇALIK HOLDİNG|10.40.25.95|||110000438407|53
27.10.2018 15:00:00||ÇALIK HOLDİNG|10.40.24.94|||110000438407|185
27.10.2018 15:00:00||ÇALIK HOLDİNG|10.40.25.97|||110000438407|102
27.10.2018 15:00:00||ÇALIK HOLDİNG|10.40.25.120|||110000438407|60
27.10.2018 15:00:00||ÇALIK HOLDİNG|10.40.25.115|||110000438407|80
27.10.2018 15:00:00||ÇALIK HOLDİNG|10.40.25.115|||110000438407|70
27.10.2018 15:00:00||ÇALIK HOLDİNG|10.40.25.115|||110000438407|60
27.10.2018 15:00:00||ÇALIK HOLDİNG|10.40.25.101|||110000438407|50
27.10.2018 15:00:00||ÇALIK HOLDİNG|10.40.25.101|||110000438407|110
27.10.2018 15:00:00||ÇALIK HOLDİNG|10.40.25.101|||110000438407|30
27.10.2018 15:00:00||ÇALIK HOLDİNG|10.40.25.101|||110000438407|10
27.10.2018 15:00:00||ÇALIK HOLDİNG|10.40.25.101|||110000438407|90
27.10.2018 15:00:00||ÇALIK HOLDİNG|10.40.25.101|||110000438407|30
27.10.2018 15:00:00||ÇALIK HOLDİNG|10.40.25.101|||110000438407|40
27.10.2018 15:00:00||ÇALIK HOLDİNG|10.40.25.101|||110000438407|40
27.10.2018 15:00:00||ÇALIK HOLDİNG|10.40.25.101|||110000438407|90
27.10.2018 15:00:00||ÇALIK HOLDİNG|10.40.25.101|||110000438407|90
27.10.2018 15:00:00||ÇALIK HOLDİNG|10.40.25.101|||110000438407|90
27.10.2018 15:00:00||ÇALIK HOLDİNG|10.40.25.94|||110000438407|180
27.10.2018 15:00:00||ÇALIK HOLDİNG|10.40.25.94|||110000438407|180
27.10.2018 15:00:00||ÇALIK HOLDİNG|10.40.25.94|||110000438407|170
27.10.2018 15:00:00||ÇALIK HOLDİNG|10.40.25.94|||110000438407|180
27.10.2018 15:00:00||ÇALIK HOLDİNG|10.40.24.94|||110000438407|195
27.10.2018 15:00:00||ÇALIK HOLDİNG|10.40.24.94|||110000438407|188
27.10.2018 15:00:00||ÇALIK HOLDİNG|10.40.24.94|||110000438407|197
27.10.2018 15:00:00||ÇALIK HOLDİNG|10.40.25.95|||110000438407|20
27.10.2018 15:00:00||ÇALIK HOLDİNG|10.40.25.95|||110000438407|338
27.10.2018 15:00:00||ÇALIK HOLDİNG|10.40.25.95|||110000438407|360
27.10.2018 15:00:00||ÇALIK HOLDİNG|10.40.25.95|||110000438407|40
27.10.2018 15:00:00||ÇALIK HOLDİNG|10.40.24.95|||110000438407|100
27.10.2018 15:00:00||ÇALIK HOLDİNG|10.40.24.95|||110000438407|88
27.10.2018 15:00:00||ÇALIK HOLDİNG|10.40.24.95|||110000438407|378
27.10.2018 15:00:00||ÇALIK HOLDİNG|10.40.24.95|||110000438407|400
27.10.2018 15:00:00||ÇALIK HOLDİNG|10.40.25.96|||110000438407|90
27.10.2018 15:00:00||ÇALIK HOLDİNG|10.40.25.96|||110000438407|100
27.10.2018 15:00:00||ÇALIK HOLDİNG|10.40.25.96|||110000438407|100
27.10.2018 15:00:00||ÇALIK HOLDİNG|10.40.25.96|||110000438407|253
27.10.2018 15:00:00||ÇALIK HOLDİNG|10.40.25.96|||110000438407|262
27.10.2018 15:00:00||ÇALIK HOLDİNG|10.40.25.96|||110000438407|100
27.10.2018 15:00:00||ÇALIK HOLDİNG|10.40.25.96|||110000438407|90
27.10.2018 15:00:00||ÇALIK HOLDİNG|10.40.25.96|||110000438407|93
27.10.2018 15:00:00||ÇALIK HOLDİNG|10.40.25.97|||110000438407|88
27.10.2018 15:00:00||ÇALIK HOLDİNG|10.40.25.97|||110000438407|80
27.10.2018 15:00:00||ÇALIK HOLDİNG|10.40.25.97|||110000438407|293
27.10.2018 15:00:00||ÇALIK HOLDİNG|10.40.25.98|||110000438407|55
27.10.2018 15:00:00||ÇALIK HOLDİNG|10.40.25.98|||110000438407|163
27.10.2018 15:00:00||ÇALIK HOLDİNG|10.40.25.98|||110000438407|158
27.10.2018 15:00:00||ÇALIK HOLDİNG|10.40.25.98|||110000438407|170
27.10.2018 15:00:00||ÇALIK HOLDİNG|10.40.25.98|||110000438407|170
27.10.2018 15:00:00||ÇALIK HOLDİNG|10.40.25.98|||110000438407|68
27.10.2018 15:00:00||ÇALIK HOLDİNG|10.40.25.98|||110000438407|210
27.10.2018 15:00:00||ÇALIK HOLDİNG|10.40.25.98|||110000438407|180
27.10.2018 15:00:00||ÇALIK HOLDİNG|10.40.25.98|||110000438407|170
27.10.2018 15:00:00||ÇALIK HOLDİNG|10.40.25.98|||110000438407|177
27.10.2018 15:00:00||ÇALIK HOLDİNG|10.40.25.98|||110000438407|70
27.10.2018 15:00:00||ÇALIK HOLDİNG|10.40.25.98|||110000438407|300
27.10.2018 15:00:00||ÇALIK HOLDİNG|10.40.24.98|||110000438407|92
27.10.2018 15:00:00||ÇALIK HOLDİNG|10.40.24.98|||110000438407|155
27.10.2018 15:00:00||ÇALIK HOLDİNG|10.40.24.98|||110000438407|200
27.10.2018 15:00:00||ÇALIK HOLDİNG|10.40.24.98|||110000438407|202
27.10.2018 15:00:00||ÇALIK HOLDİNG|10.40.24.98|||110000438407|160
27.10.2018 15:00:00||ÇALIK HOLDİNG|10.40.24.98|||110000438407|32
27.10.2018 15:00:00||ÇALIK HOLDİNG|10.40.24.98|||110000438407|162
27.10.2018 15:00:00||ÇALIK HOLDİNG|10.40.24.98|||110000438407|180
27.10.2018 15:00:00||ÇALIK HOLDİNG|10.40.24.98|||110000438407|170
27.10.2018 15:00:00||ÇALIK HOLDİNG|10.40.24.98|||110000438407|170
27.10.2018 15:00:00||ÇALIK HOLDİNG|10.40.24.98|||110000438407|20
27.10.2018 15:00:00||ÇALIK HOLDİNG|10.40.24.98|||110000438407|275
27.10.2018 15:00:00||ÇALIK HOLDİNG|10.40.25.100|||110000438407|40
27.10.2018 15:00:00||ÇALIK HOLDİNG|10.40.25.100|||110000438407|40
27.10.2018 15:00:00||ÇALIK HOLDİNG|10.40.24.101|||110000438407|60
27.10.2018 15:00:00||ÇALIK HOLDİNG|10.40.24.101|||110000438407|110
27.10.2018 15:00:00||ÇALIK HOLDİNG|10.40.24.101|||110000438407|20
27.10.2018 15:00:00||ÇALIK HOLDİNG|10.40.24.101|||110000438407|20
27.10.2018 15:00:00||ÇALIK HOLDİNG|10.40.24.101|||110000438407|42
27.10.2018 15:00:00||ÇALIK HOLDİNG|10.40.24.101|||110000438407|75
27.10.2018 15:00:00||ÇALIK HOLDİNG|10.40.24.101|||110000438407|30
27.10.2018 15:00:00||ÇALIK HOLDİNG|10.40.24.101|||110000438407|10
27.10.2018 15:00:00||ÇALIK HOLDİNG|10.40.24.101|||110000438407|20
27.10.2018 15:00:00||ÇALIK HOLDİNG|10.40.24.101|||110000438407|50
27.10.2018 15:00:00||ÇALIK HOLDİNG|10.40.24.101|||110000438407|30
27.10.2018 15:00:00||ÇALIK HOLDİNG|10.40.24.101|||110000438407|80
27.10.2018 15:00:00||ÇALIK HOLDİNG|10.40.24.101|||110000438407|80
27.10.2018 15:00:00||ÇALIK HOLDİNG|10.40.24.101|||110000438407|90
27.10.2018 15:00:00||ÇALIK HOLDİNG|10.40.25.102|||110000438407|100
27.10.2018 15:00:00||ÇALIK HOLDİNG|10.40.25.102|||110000438407|90
27.10.2018 15:00:00||ÇALIK HOLDİNG|10.40.25.102|||110000438407|150
27.10.2018 15:00:00||ÇALIK HOLDİNG|10.40.24.102|||110000438407|100
27.10.2018 15:00:00||ÇALIK HOLDİNG|10.40.24.102|||110000438407|90
27.10.2018 15:00:00||ÇALIK HOLDİNG|10.40.24.102|||110000438407|140
27.10.2018 15:00:00||ÇALIK HOLDİNG|10.40.25.103|||110000438407|90
27.10.2018 15:00:00||ÇALIK HOLDİNG|10.40.25.103|||110000438407|80
27.10.2018 15:00:00||ÇALIK HOLDİNG|10.40.25.103|||110000438407|10
27.10.2018 15:00:00||ÇALIK HOLDİNG|10.40.25.115|||110000438407|80
27.10.2018 15:00:00||ÇALIK HOLDİNG|10.40.24.103|||110000438407|97
27.10.2018 15:00:00||ÇALIK HOLDİNG|10.40.24.103|||110000438407|80
27.10.2018 15:00:00||ÇALIK HOLDİNG|10.40.24.103|||110000438407|80
27.10.2018 15:00:00||ÇALIK HOLDİNG|10.40.24.103|||110000438407|20
27.10.2018 15:00:00||ÇALIK HOLDİNG|10.40.24.103|||110000438407|10
27.10.2018 15:00:00||ÇALIK HOLDİNG|10.40.25.113|||110000438407|222
27.10.2018 15:00:00||ÇALIK HOLDİNG|10.40.25.113|||110000438407|240
27.10.2018 15:00:00||ÇALIK HOLDİNG|10.40.25.113|||110000438407|200
27.10.2018 15:00:00||ÇALIK HOLDİNG|10.40.25.113|||110000438407|208
27.10.2018 15:00:00||ÇALIK HOLDİNG|10.40.24.113|||110000438407|230
27.10.2018 15:00:00||ÇALIK HOLDİNG|10.40.24.113|||110000438407|227
27.10.2018 15:00:00||ÇALIK HOLDİNG|10.40.24.113|||110000438407|195
27.10.2018 15:00:00||ÇALIK HOLDİNG|10.40.24.113|||110000438407|155
27.10.2018 15:00:00||ÇALIK HOLDİNG|10.40.25.114|||110000438407|178
27.10.2018 15:00:00||ÇALIK HOLDİNG|10.40.25.114|||110000438407|425
27.10.2018 15:00:00||ÇALIK HOLDİNG|10.40.25.114|||110000438407|40
27.10.2018 15:00:00||ÇALIK HOLDİNG|10.40.24.114|||110000438407|20
27.10.2018 15:00:00||ÇALIK HOLDİNG|10.40.24.114|||110000438407|40
27.10.2018 15:00:00||ÇALIK HOLDİNG|10.40.24.114|||110000438407|160
27.10.2018 15:00:00||ÇALIK HOLDİNG|10.40.24.114|||110000438407|383
27.10.2018 15:00:00||ÇALIK HOLDİNG|10.40.24.115|||110000438407|170
27.10.2018 15:00:00||ÇALIK HOLDİNG|10.40.24.115|||110000438407|80
27.10.2018 15:00:00||ÇALIK HOLDİNG|10.40.24.115|||110000438407|90
27.10.2018 15:00:00||ÇALIK HOLDİNG|10.40.24.115|||110000438407|80
27.10.2018 15:00:00||ÇALIK HOLDİNG|10.40.24.115|||110000438407|90
27.10.2018 15:00:00||ÇALIK HOLDİNG|10.40.24.115|||110000438407|70
27.10.2018 15:00:00||ÇALIK HOLDİNG|10.40.25.116|||110000438407|98
27.10.2018 15:00:00||ÇALIK HOLDİNG|10.40.25.116|||110000438407|103
27.10.2018 15:00:00||ÇALIK HOLDİNG|10.40.25.116|||110000438407|277
27.10.2018 15:00:00||ÇALIK HOLDİNG|10.40.24.116|||110000438407|280
27.10.2018 15:00:00||ÇALIK HOLDİNG|10.40.24.116|||110000438407|100
27.10.2018 15:00:00||ÇALIK HOLDİNG|10.40.24.116|||110000438407|100
27.10.2018 15:00:00||ÇALIK HOLDİNG|10.40.25.117|||110000438407|250
27.10.2018 15:00:00||ÇALIK HOLDİNG|10.40.25.117|||110000438407|30
27.10.2018 15:00:00||ÇALIK HOLDİNG|10.40.25.117|||110000438407|27
27.10.2018 15:00:00||ÇALIK HOLDİNG|10.40.25.119|||110000438407|30
27.10.2018 15:00:00||ÇALIK HOLDİNG|10.40.25.119|||110000438407|30
27.10.2018 15:00:00||ÇALIK HOLDİNG|10.40.24.119|||110000438407|150
27.10.2018 15:00:00||ÇALIK HOLDİNG|10.40.24.119|||110000438407|30
27.10.2018 15:00:00||ÇALIK HOLDİNG|10.40.24.119|||110000438407|50
27.10.2018 15:00:00||ÇALIK HOLDİNG|10.40.25.120|||110000438407|108
27.10.2018 15:00:00||ÇALIK HOLDİNG|10.40.25.120|||110000438407|50
27.10.2018 15:00:00||ÇALIK HOLDİNG|10.40.25.120|||110000438407|20
27.10.2018 15:00:00||ÇALIK HOLDİNG|10.40.25.120|||110000438407|20
27.10.2018 15:00:00||ÇALIK HOLDİNG|10.40.25.120|||110000438407|30
27.10.2018 15:00:00||ÇALIK HOLDİNG|10.40.25.120|||110000438407|88
27.10.2018 15:00:00||ÇALIK HOLDİNG|10.40.25.120|||110000438407|90
27.10.2018 15:00:00||ÇALIK HOLDİNG|10.40.24.120|||110000438407|20
27.10.2018 15:00:00||ÇALIK HOLDİNG|10.40.24.120|||110000438407|30
27.10.2018 15:00:00||ÇALIK HOLDİNG|10.40.24.120|||110000438407|110
27.10.2018 15:00:00||ÇALIK HOLDİNG|10.40.24.120|||110000438407|100
27.10.2018 15:00:00||ÇALIK HOLDİNG|10.40.24.120|||110000438407|40
27.10.2018 15:00:00||ÇALIK HOLDİNG|10.40.24.120|||110000438407|80
27.10.2018 15:00:00||ÇALIK HOLDİNG|10.40.24.120|||110000438407|80
27.10.2018 15:00:00||ÇALIK HOLDİNG|10.40.24.120|||110000438407|70
27.10.2018 15:00:00||ÇALIK HOLDİNG|10.40.25.121|||110000438407|90
27.10.2018 15:00:00||ÇALIK HOLDİNG|10.40.25.121|||110000438407|100
27.10.2018 15:00:00||ÇALIK HOLDİNG|10.40.25.121|||110000438407|150
27.10.2018 15:00:00||ÇALIK HOLDİNG|10.40.24.121|||110000438407|100
27.10.2018 15:00:00||ÇALIK HOLDİNG|10.40.24.121|||110000438407|100
27.10.2018 15:00:00||ÇALIK HOLDİNG|10.40.24.121|||110000438407|140
27.10.2018 15:00:00||ÇALIK HOLDİNG|10.40.25.122|||110000438407|90
27.10.2018 15:00:00||ÇALIK HOLDİNG|10.40.25.122|||110000438407|80
27.10.2018 15:00:00||ÇALIK HOLDİNG|10.40.25.122|||110000438407|80
27.10.2018 15:00:00||ÇALIK HOLDİNG|10.40.25.122|||110000438407|30
27.10.2018 15:00:00||ÇALIK HOLDİNG|10.40.25.122|||110000438407|10
27.10.2018 15:00:00||ÇALIK HOLDİNG|10.40.24.122|||110000438407|90
27.10.2018 15:00:00||ÇALIK HOLDİNG|10.40.24.122|||110000438407|80
27.10.2018 15:00:00||ÇALIK HOLDİNG|10.40.24.122|||110000438407|90
27.10.2018 15:00:00||ÇALIK HOLDİNG|10.40.24.117|||110000438407|200
27.10.2018 15:00:00||ÇALIK HOLDİNG|10.40.24.117|||110000438407|30
27.10.2018 15:00:00||ÇALIK HOLDİNG|10.40.24.117|||110000438407|30
27.10.2018 15:00:00||ÇALIK HOLDİNG|10.40.24.97|||110000438407|103
27.10.2018 15:00:00||ÇALIK HOLDİNG|10.40.24.97|||110000438407|90
27.10.2018 15:00:00||ÇALIK HOLDİNG|10.40.24.97|||110000438407|80
27.10.2018 15:00:00||ÇALIK HOLDİNG|10.40.24.97|||110000438407|90
27.10.2018 15:00:00||ÇALIK HOLDİNG|10.40.24.97|||110000438407|308
27.10.2018 15:00:00||ÇALIK HOLDİNG|10.40.24.100|||110000438407|30
27.10.2018 15:00:00||ÇALIK HOLDİNG|10.40.24.100|||110000438407|40
27.10.2018 15:00:00||FIBABANKA|10.40.27.54|||101571767266|309
27.10.2018 15:00:00||FIBABANKA|10.40.26.54|||101571767266|317
27.10.2018 15:00:00||FIBABANKA|10.40.27.55|||101571767266|109
27.10.2018 15:00:00||FIBABANKA|10.40.26.55|||101571767266|107
27.10.2018 15:00:00||FIBABANKA|10.40.24.55|||101571767266|112
27.10.2018 15:00:00||FIBABANKA|10.40.25.56|||101571767266|197
27.10.2018 15:00:00||FIBABANKA|10.40.25.54|||101571767266|330
27.10.2018 15:00:00||FIBABANKA|10.40.24.54|||101571767266|315
27.10.2018 15:00:00||FIBABANKA|10.40.25.55|||101571767266|111
27.10.2018 15:00:00||FIBABANKA|10.40.24.56|||101571767266|195
27.10.2018 15:00:00||FIBABANKA|10.40.26.53|||101571767266|40
27.10.2018 15:00:00||FIBABANKA|10.40.26.53|||101571767266|152
27.10.2018 15:00:00||FIBABANKA|10.40.25.57|||101571767266|90
27.10.2018 15:00:00||FIBABANKA|10.40.27.60|||101571767266|50
27.10.2018 15:00:00||FIBABANKA|10.40.25.76|||101571767266|10
27.10.2018 15:00:00||FIBABANKA|10.40.27.53|||101571767266|148
27.10.2018 15:00:00||FIBABANKA|10.40.27.53|||101571767266|167
27.10.2018 15:00:00||FIBABANKA|10.40.26.53|||101571767266|157
27.10.2018 15:00:00||FIBABANKA|10.40.27.57|||101571767266|83
27.10.2018 15:00:00||FIBABANKA|10.40.27.57|||101571767266|80
27.10.2018 15:00:00||FIBABANKA|10.40.27.57|||101571767266|80
27.10.2018 15:00:00||FIBABANKA|10.40.26.60|||101571767266|10
27.10.2018 15:00:00||FIBABANKA|10.40.25.57|||101571767266|90
27.10.2018 15:00:00||FIBABANKA|10.40.25.57|||101571767266|90
27.10.2018 15:00:00||FIBABANKA|10.40.25.57|||101571767266|90
27.10.2018 15:00:00||FIBABANKA|10.40.25.57|||101571767266|90
27.10.2018 15:00:00||FIBABANKA|10.40.25.57|||101571767266|65
27.10.2018 15:00:00||FIBABANKA|10.40.25.57|||101571767266|100
27.10.2018 15:00:00||FIBABANKA|10.40.25.57|||101571767266|80
27.10.2018 15:00:00||FIBABANKA|10.40.24.57|||101571767266|97
27.10.2018 15:00:00||FIBABANKA|10.40.24.57|||101571767266|70
27.10.2018 15:00:00||FIBABANKA|10.40.24.57|||101571767266|83
27.10.2018 15:00:00||FIBABANKA|10.40.26.51|||101571767266|20
27.10.2018 15:00:00||FIBABANKA|10.40.27.52|||101571767266|50
27.10.2018 15:00:00||FIBABANKA|10.40.27.52|||101571767266|60
27.10.2018 15:00:00||FIBABANKA|10.40.27.52|||101571767266|70
27.10.2018 15:00:00||FIBABANKA|10.40.27.73|||101571767266|10
27.10.2018 15:00:00||FIBABANKA|10.40.27.74|||101571767266|172
27.10.2018 15:00:00||FIBABANKA|10.40.27.60|||101571767266|92
27.10.2018 15:00:00||FIBABANKA|10.40.26.60|||101571767266|110
27.10.2018 15:00:00||FIBABANKA|10.40.26.60|||101571767266|142
27.10.2018 15:00:00||FIBABANKA|10.40.26.60|||101571767266|27
27.10.2018 15:00:00||FIBABANKA|10.40.25.53|||101571767266|32
27.10.2018 15:00:00||FIBABANKA|10.40.25.53|||101571767266|50
27.10.2018 15:00:00||FIBABANKA|10.40.27.60|||101571767266|50
27.10.2018 15:00:00||FIBABANKA|10.40.27.60|||101571767266|210
27.10.2018 15:00:00||FIBABANKA|10.40.27.60|||101571767266|232
27.10.2018 15:00:00||FIBABANKA|10.40.27.60|||101571767266|48
27.10.2018 15:00:00||FIBABANKA|10.40.27.60|||101571767266|160
27.10.2018 15:00:00||FIBABANKA|10.40.27.60|||101571767266|10
27.10.2018 15:00:00||FIBABANKA|10.40.27.53|||101571767266|60
27.10.2018 15:00:00||FIBABANKA|10.40.26.53|||101571767266|70
27.10.2018 15:00:00||FIBABANKA|10.40.26.53|||101571767266|62
27.10.2018 15:00:00||FIBABANKA|10.40.27.57|||101571767266|80
27.10.2018 15:00:00||FIBABANKA|10.40.25.51|||101571767266|20
27.10.2018 15:00:00||FIBABANKA|10.40.25.51|||101571767266|110
27.10.2018 15:00:00||FIBABANKA|10.40.24.51|||101571767266|20
27.10.2018 15:00:00||FIBABANKA|10.40.24.51|||101571767266|70
27.10.2018 15:00:00||FIBABANKA|10.40.24.51|||101571767266|100
27.10.2018 15:00:00||FIBABANKA|10.40.24.51|||101571767266|140
27.10.2018 15:00:00||FIBABANKA|10.40.24.51|||101571767266|30
27.10.2018 15:00:00||FIBABANKA|10.40.24.57|||101571767266|70
27.10.2018 15:00:00||FIBABANKA|10.40.24.57|||101571767266|90
27.10.2018 15:00:00||FIBABANKA|10.40.24.57|||101571767266|80
27.10.2018 15:00:00||FIBABANKA|10.40.24.57|||101571767266|80
27.10.2018 15:00:00||FIBABANKA|10.40.24.57|||101571767266|70
27.10.2018 15:00:00||FIBABANKA|10.40.24.52|||101571767266|32
27.10.2018 15:00:00||FIBABANKA|10.40.24.52|||101571767266|40
27.10.2018 15:00:00||FIBABANKA|10.40.24.52|||101571767266|10
27.10.2018 15:00:00||FIBABANKA|10.40.26.73|||101571767266|40
27.10.2018 15:00:00||FIBABANKA|10.40.27.53|||101571767266|70
27.10.2018 15:00:00||FIBABANKA|10.40.26.51|||101571767266|70
27.10.2018 15:00:00||FIBABANKA|10.40.26.52|||101571767266|30
27.10.2018 15:00:00||FIBABANKA|10.40.26.52|||101571767266|90
27.10.2018 15:00:00||FIBABANKA|10.40.26.52|||101571767266|30
27.10.2018 15:00:00||FIBABANKA|10.40.26.60|||101571767266|10
27.10.2018 15:00:00||FIBABANKA|10.40.26.60|||101571767266|10
27.10.2018 15:00:00||FIBABANKA|10.40.26.60|||101571767266|10
27.10.2018 15:00:00||FIBABANKA|10.40.26.60|||101571767266|230
27.10.2018 15:00:00||FIBABANKA|10.40.25.51|||101571767266|140
27.10.2018 15:00:00||FIBABANKA|10.40.25.51|||101571767266|40
27.10.2018 15:00:00||FIBABANKA|10.40.25.51|||101571767266|40
27.10.2018 15:00:00||FIBABANKA|10.40.25.51|||101571767266|73
27.10.2018 15:00:00||FIBABANKA|10.40.24.51|||101571767266|30
27.10.2018 15:00:00||FIBABANKA|10.40.25.59|||101571767266|70
27.10.2018 15:00:00||FIBABANKA|10.40.25.59|||101571767266|90
27.10.2018 15:00:00||FIBABANKA|10.40.25.59|||101571767266|90
27.10.2018 15:00:00||FIBABANKA|10.40.25.59|||101571767266|40
27.10.2018 15:00:00||FIBABANKA|10.40.25.59|||101571767266|120
27.10.2018 15:00:00||FIBABANKA|10.40.25.59|||101571767266|60
27.10.2018 15:00:00||FIBABANKA|10.40.25.59|||101571767266|50
27.10.2018 15:00:00||FIBABANKA|10.40.25.59|||101571767266|140
27.10.2018 15:00:00||FIBABANKA|10.40.25.59|||101571767266|50
27.10.2018 15:00:00||FIBABANKA|10.40.24.59|||101571767266|70
27.10.2018 15:00:00||FIBABANKA|10.40.24.59|||101571767266|120
27.10.2018 15:00:00||FIBABANKA|10.40.24.59|||101571767266|70
27.10.2018 15:00:00||FIBABANKA|10.40.24.59|||101571767266|50
27.10.2018 15:00:00||FIBABANKA|10.40.24.59|||101571767266|130
27.10.2018 15:00:00||FIBABANKA|10.40.24.59|||101571767266|70
27.10.2018 15:00:00||FIBABANKA|10.40.24.59|||101571767266|60
27.10.2018 15:00:00||FIBABANKA|10.40.24.59|||101571767266|140
27.10.2018 15:00:00||FIBABANKA|10.40.24.59|||101571767266|60
27.10.2018 15:00:00||FIBABANKA|10.40.25.60|||101571767266|110
27.10.2018 15:00:00||FIBABANKA|10.40.25.60|||101571767266|30
27.10.2018 15:00:00||FIBABANKA|10.40.25.60|||101571767266|110
27.10.2018 15:00:00||FIBABANKA|10.40.25.60|||101571767266|50
27.10.2018 15:00:00||FIBABANKA|10.40.24.60|||101571767266|110
27.10.2018 15:00:00||FIBABANKA|10.40.24.60|||101571767266|48
27.10.2018 15:00:00||FIBABANKA|10.40.24.60|||101571767266|40
27.10.2018 15:00:00||FIBABANKA|10.40.24.60|||101571767266|100
27.10.2018 15:00:00||FIBABANKA|10.40.24.60|||101571767266|50
27.10.2018 15:00:00||FIBABANKA|10.40.25.72|||101571767266|70
27.10.2018 15:00:00||FIBABANKA|10.40.25.72|||101571767266|40
27.10.2018 15:00:00||FIBABANKA|10.40.25.72|||101571767266|30
27.10.2018 15:00:00||FIBABANKA|10.40.24.72|||101571767266|140
27.10.2018 15:00:00||FIBABANKA|10.40.24.72|||101571767266|78
27.10.2018 15:00:00||FIBABANKA|10.40.24.72|||101571767266|30
27.10.2018 15:00:00||FIBABANKA|10.40.24.72|||101571767266|40
27.10.2018 15:00:00||FIBABANKA|10.40.25.74|||101571767266|30
27.10.2018 15:00:00||FIBABANKA|10.40.25.75|||101571767266|38
27.10.2018 15:00:00||FIBABANKA|10.40.25.75|||101571767266|83
27.10.2018 15:00:00||FIBABANKA|10.40.25.75|||101571767266|132
27.10.2018 15:00:00||FIBABANKA|10.40.25.75|||101571767266|165
27.10.2018 15:00:00||FIBABANKA|10.40.25.75|||101571767266|183
27.10.2018 15:00:00||FIBABANKA|10.40.25.75|||101571767266|203
27.10.2018 15:00:00||FIBABANKA|10.40.24.75|||101571767266|50
27.10.2018 15:00:00||FIBABANKA|10.40.24.75|||101571767266|50
27.10.2018 15:00:00||FIBABANKA|10.40.24.75|||101571767266|107
27.10.2018 15:00:00||FIBABANKA|10.40.24.75|||101571767266|167
27.10.2018 15:00:00||FIBABANKA|10.40.24.75|||101571767266|150
27.10.2018 15:00:00||FIBABANKA|10.40.24.76|||101571767266|30
27.10.2018 15:00:00||FIBABANKA|10.40.24.76|||101571767266|70
27.10.2018 15:00:00||FIBABANKA|10.40.24.76|||101571767266|20
27.10.2018 15:00:00||FIBABANKA|10.40.24.76|||101571767266|40
27.10.2018 15:00:00||FIBABANKA|10.40.24.76|||101571767266|10
27.10.2018 15:00:00||FIBABANKA|10.40.25.77|||101571767266|50
27.10.2018 15:00:00||FIBABANKA|10.40.25.77|||101571767266|42
27.10.2018 15:00:00||FIBABANKA|10.40.24.77|||101571767266|40
27.10.2018 15:00:00||FIBABANKA|10.40.24.77|||101571767266|32
27.10.2018 15:00:00||FIBABANKA|10.40.24.53|||101571767266|30
27.10.2018 15:00:00||FIBABANKA|10.40.24.53|||101571767266|58
27.10.2018 15:00:00||FIBABANKA|10.40.26.57|||101571767266|90
27.10.2018 15:00:00||FIBABANKA|10.40.26.57|||101571767266|83
27.10.2018 15:00:00||FIBABANKA|10.40.26.57|||101571767266|80
27.10.2018 15:00:00||FIBABANKA|10.40.26.57|||101571767266|68
27.10.2018 15:00:00||FIBABANKA|10.40.26.57|||101571767266|70
27.10.2018 15:00:00||FIBABANKA|10.40.27.72|||101571767266|40
27.10.2018 15:00:00||FIBABANKA|10.40.27.72|||101571767266|50
27.10.2018 15:00:00||FIBABANKA|10.40.27.72|||101571767266|40
27.10.2018 15:00:00||FIBABANKA|10.40.27.72|||101571767266|140
27.10.2018 15:00:00||FIBABANKA|10.40.27.72|||101571767266|60
27.10.2018 15:00:00||FIBABANKA|10.40.26.72|||101571767266|30
27.10.2018 15:00:00||FIBABANKA|10.40.26.72|||101571767266|140
27.10.2018 15:00:00||FIBABANKA|10.40.26.72|||101571767266|70
27.10.2018 15:00:00||FIBABANKA|10.40.26.72|||101571767266|30
27.10.2018 15:00:00||FIBABANKA|10.40.27.73|||101571767266|30
27.10.2018 15:00:00||FIBABANKA|10.40.27.73|||101571767266|100
27.10.2018 15:00:00||FIBABANKA|10.40.27.73|||101571767266|40
27.10.2018 15:00:00||FIBABANKA|10.40.27.73|||101571767266|42
27.10.2018 15:00:00||FIBABANKA|10.40.27.73|||101571767266|353
27.10.2018 15:00:00||FIBABANKA|10.40.26.73|||101571767266|40
27.10.2018 15:00:00||FIBABANKA|10.40.26.73|||101571767266|70
27.10.2018 15:00:00||FIBABANKA|10.40.26.73|||101571767266|35
27.10.2018 15:00:00||FIBABANKA|10.40.26.73|||101571767266|10
27.10.2018 15:00:00||FIBABANKA|10.40.27.74|||101571767266|75
27.10.2018 15:00:00||FIBABANKA|10.40.27.74|||101571767266|162
27.10.2018 15:00:00||FIBABANKA|10.40.27.74|||101571767266|172
27.10.2018 15:00:00||FIBABANKA|10.40.26.74|||101571767266|70
27.10.2018 15:00:00||FIBABANKA|10.40.26.74|||101571767266|192
27.10.2018 15:00:00||FIBABANKA|10.40.26.74|||101571767266|185
27.10.2018 15:00:00||FIBABANKA|10.40.26.74|||101571767266|175
27.10.2018 15:00:00||FIBABANKA|10.40.27.75|||101571767266|10
27.10.2018 15:00:00||FIBABANKA|10.40.27.75|||101571767266|10
27.10.2018 15:00:00||FIBABANKA|10.40.27.75|||101571767266|60
27.10.2018 15:00:00||FIBABANKA|10.40.26.75|||101571767266|10
27.10.2018 15:00:00||FIBABANKA|10.40.27.76|||101571767266|90
27.10.2018 15:00:00||FIBABANKA|10.40.26.76|||101571767266|100
27.10.2018 15:00:00||FIBABANKA|10.40.26.79|||101571767266|10
27.10.2018 15:00:00||FIBABANKA|10.40.27.79|||101571767266|10
27.10.2018 15:00:00||FIBABANKA|10.40.27.79|||101571767266|10
27.10.2018 15:00:00||FIBABANKA|10.40.26.79|||101571767266|10
27.10.2018 15:00:00||FIBABANKA|10.40.27.77|||101571767266|52
27.10.2018 15:00:00||FIBABANKA|10.40.27.77|||101571767266|33
27.10.2018 15:00:00||FIBABANKA|10.40.27.77|||101571767266|168
27.10.2018 15:00:00||FIBABANKA|10.40.26.77|||101571767266|45
27.10.2018 15:00:00||FIBABANKA|10.40.26.77|||101571767266|50
27.10.2018 15:00:00||FIBABANKA|10.40.26.77|||101571767266|175
27.10.2018 15:00:00||FIBABANKA|10.40.26.77|||101571767266|197
27.10.2018 15:00:00||FIBABANKA|10.40.26.77|||101571767266|67
27.10.2018 15:00:00||FIBABANKA|10.40.26.77|||101571767266|90
27.10.2018 15:00:00||FIBABANKA|10.40.26.77|||101571767266|173
27.10.2018 15:00:00||FIBABANKA|10.40.26.77|||101571767266|182
27.10.2018 15:00:00||FIBABANKA|10.40.27.77|||101571767266|53
27.10.2018 15:00:00||FIBABANKA|10.40.27.77|||101571767266|35
27.10.2018 15:00:00||FIBABANKA|10.40.27.77|||101571767266|168
27.10.2018 15:00:00||FIBABANKA|10.40.27.57|||101571767266|75
27.10.2018 15:00:00||FIBABANKA|10.40.26.60|||101571767266|218
27.10.2018 15:00:00||FIBABANKA|10.40.25.74|||101571767266|230
27.10.2018 15:00:00||FIBABANKA|10.40.24.75|||101571767266|175
27.10.2018 15:00:00||FIBABANKA|10.40.24.75|||101571767266|150
27.10.2018 15:00:00||FIBABANKA|10.40.24.53|||101571767266|172
27.10.2018 15:00:00||FIBABANKA|10.40.24.53|||101571767266|170
27.10.2018 15:00:00||FIBABANKA|10.40.25.52|||101571767266|10
27.10.2018 15:00:00||FIBABANKA|10.40.25.52|||101571767266|50
27.10.2018 15:00:00||FIBABANKA|10.40.25.52|||101571767266|70
27.10.2018 15:00:00||FIBABANKA|10.40.25.53|||101571767266|160
27.10.2018 15:00:00||FIBABANKA|10.40.25.53|||101571767266|142
27.10.2018 15:00:00||FIBABANKA|10.40.27.51|||101571767266|30
27.10.2018 15:00:00||FIBABANKA|10.40.27.51|||101571767266|20
27.10.2018 15:00:00||FIBABANKA|10.40.27.51|||101571767266|100
27.10.2018 15:00:00||FIBABANKA|10.40.27.51|||101571767266|140
27.10.2018 15:00:00||FIBABANKA|10.40.27.51|||101571767266|70
27.10.2018 15:00:00||FIBABANKA|10.40.27.51|||101571767266|40
27.10.2018 15:00:00||FIBABANKA|10.40.27.51|||101571767266|40
27.10.2018 15:00:00||FIBABANKA|10.40.26.51|||101571767266|10
27.10.2018 15:00:00||FIBABANKA|10.40.26.51|||101571767266|110
27.10.2018 15:00:00||FIBABANKA|10.40.26.51|||101571767266|130
27.10.2018 15:00:00||FIBABANKA|10.40.26.51|||101571767266|30
27.10.2018 15:00:00||FIBABANKA|10.40.26.51|||101571767266|30
27.10.2018 15:00:00||FIBABANKA|10.40.24.74|||101571767266|30
27.10.2018 15:00:00||FIBABANKA|10.40.25.76|||101571767266|60
27.10.2018 15:00:00||FIBABANKA|10.40.25.76|||101571767266|40
27.10.2018 15:00:00||FIBABANKA|10.40.25.76|||101571767266|10
27.10.2018 15:00:00||FIBABANKA|10.40.25.52|||101571767266|40
27.10.2018 15:00:00||FIBABANKA|10.40.25.52|||101571767266|30
27.10.2018 15:00:00||HAVAŞ|10.40.24.46|||110000479675|10
27.10.2018 15:00:00||HAVAŞ|10.40.24.48|||110000479675|747
27.10.2018 15:00:00||HAVAŞ|10.40.24.48|||110000479675|742
27.10.2018 15:00:00||HAVAŞ|10.40.25.48|||110000479675|742
27.10.2018 15:00:00||HAVAŞ|10.40.24.45|||110000479675|70
27.10.2018 15:00:00||HAVAŞ|10.40.25.45|||110000479675|63
27.10.2018 15:00:00||HAVAŞ|10.40.25.47|||110000479675|70
27.10.2018 15:00:00||HAVAŞ|10.40.24.46|||110000479675|80
27.10.2018 15:00:00||HAVAŞ|10.40.24.47|||110000479675|30
27.10.2018 15:00:00||HAVAŞ|10.40.24.47|||110000479675|90
27.10.2018 15:00:00||HAVAŞ|10.40.24.47|||110000479675|90
27.10.2018 15:00:00||HAVAŞ|10.40.25.46|||110000479675|10
27.10.2018 15:00:00||HAVAŞ|10.40.25.46|||110000479675|60
27.10.2018 15:00:00||HAVAŞ|10.40.24.48|||110000479675|753
27.10.2018 15:00:00||HAVAŞ|10.40.24.46|||110000479675|60
27.10.2018 15:00:00||HAVAŞ|10.40.24.46|||110000479675|70
27.10.2018 15:00:00||HAVAŞ|10.40.24.47|||110000479675|20
27.10.2018 15:00:00||HAVAŞ|10.40.25.48|||110000479675|758
27.10.2018 15:00:00||HAVAŞ|10.40.25.48|||110000479675|757
27.10.2018 15:00:00||HAVAŞ|10.40.25.45|||110000479675|97
27.10.2018 15:00:00||HAVAŞ|10.40.24.45|||110000479675|50
27.10.2018 15:00:00||HAVAŞ|10.40.24.45|||110000479675|170
27.10.2018 15:00:00||HAVAŞ|10.40.24.45|||110000479675|100
27.10.2018 15:00:00||HAVAŞ|10.40.25.47|||110000479675|70
27.10.2018 15:00:00||HAVAŞ|10.40.25.47|||110000479675|223
27.10.2018 15:00:00||HAVAŞ|10.40.25.47|||110000479675|57
27.10.2018 15:00:00||HAVAŞ|10.40.25.47|||110000479675|88
27.10.2018 15:00:00||HAVAŞ|10.40.25.47|||110000479675|88
27.10.2018 15:00:00||HAVAŞ|10.40.25.47|||110000479675|92
27.10.2018 15:00:00||HAVAŞ|10.40.25.47|||110000479675|110
27.10.2018 15:00:00||HAVAŞ|10.40.25.47|||110000479675|175
27.10.2018 15:00:00||HAVAŞ|10.40.25.47|||110000479675|90
27.10.2018 15:00:00||HAVAŞ|10.40.25.47|||110000479675|90
27.10.2018 15:00:00||HAVAŞ|10.40.25.47|||110000479675|90
27.10.2018 15:00:00||HAVAŞ|10.40.25.45|||110000479675|98
27.10.2018 15:00:00||HAVAŞ|10.40.25.45|||110000479675|87
27.10.2018 15:00:00||HAVAŞ|10.40.25.46|||110000479675|10
27.10.2018 15:00:00||HAVAŞ|10.40.25.46|||110000479675|10
27.10.2018 15:00:00||HAVAŞ|10.40.25.46|||110000479675|20
27.10.2018 15:00:00||HAVAŞ|10.40.25.46|||110000479675|20
27.10.2018 15:00:00||HAVAŞ|10.40.25.46|||110000479675|50
27.10.2018 15:00:00||HAVAŞ|10.40.25.46|||110000479675|100
27.10.2018 15:00:00||HAVAŞ|10.40.25.46|||110000479675|62
27.10.2018 15:00:00||HAVAŞ|10.40.25.46|||110000479675|73
27.10.2018 15:00:00||HAVAŞ|10.40.25.46|||110000479675|70
27.10.2018 15:00:00||HAVAŞ|10.40.24.46|||110000479675|20
27.10.2018 15:00:00||HAVAŞ|10.40.24.46|||110000479675|20
27.10.2018 15:00:00||HAVAŞ|10.40.24.46|||110000479675|10
27.10.2018 15:00:00||HAVAŞ|10.40.24.46|||110000479675|10
27.10.2018 15:00:00||HAVAŞ|10.40.24.46|||110000479675|10
27.10.2018 15:00:00||HAVAŞ|10.40.24.46|||110000479675|60
27.10.2018 15:00:00||HAVAŞ|10.40.24.46|||110000479675|110
27.10.2018 15:00:00||HAVAŞ|10.40.24.47|||110000479675|30
27.10.2018 15:00:00||HAVAŞ|10.40.24.47|||110000479675|215
27.10.2018 15:00:00||HAVAŞ|10.40.24.47|||110000479675|60
27.10.2018 15:00:00||HAVAŞ|10.40.24.47|||110000479675|55
27.10.2018 15:00:00||HAVAŞ|10.40.24.47|||110000479675|152
27.10.2018 15:00:00||HAVAŞ|10.40.24.47|||110000479675|100
27.10.2018 15:00:00||HAVAŞ|10.40.24.47|||110000479675|100
27.10.2018 15:00:00||MARS CINEMA|10.40.24.203|||110000472614|102
27.10.2018 15:00:00||MARS CINEMA|10.40.24.204|||110000472614|40
27.10.2018 15:00:00||MARS CINEMA|10.40.24.203|||110000472614|75
27.10.2018 15:00:00||MARS CINEMA|10.40.24.203|||110000472614|158
27.10.2018 15:00:00||MARS CINEMA|10.40.24.203|||110000472614|80
27.10.2018 15:00:00||MARS CINEMA|10.40.24.204|||110000472614|58
27.10.2018 15:00:00||MARS CINEMA|10.40.24.203|||110000472614|102
27.10.2018 15:00:00||MARS CINEMA|10.40.24.204|||110000472614|20
27.10.2018 15:00:00||MARS CINEMA|10.40.24.204|||110000472614|88
27.10.2018 15:00:00||MARS CINEMA|10.40.25.203|||110000472614|153
27.10.2018 15:00:00||MARS CINEMA|10.40.25.203|||110000472614|80
27.10.2018 15:00:00||MARS CINEMA|10.40.25.203|||110000472614|190
27.10.2018 15:00:00||MARS CINEMA|10.40.25.203|||110000472614|98
27.10.2018 15:00:00||MARS CINEMA|10.40.25.203|||110000472614|82
27.10.2018 15:00:00||MARS CINEMA|10.40.25.203|||110000472614|115
27.10.2018 15:00:00||MARS CINEMA|10.40.25.203|||110000472614|83
27.10.2018 15:00:00||MARS CINEMA|10.40.25.203|||110000472614|153
27.10.2018 15:00:00||MARS CINEMA|10.40.25.203|||110000472614|95
27.10.2018 15:00:00||MARS CINEMA|10.40.25.203|||110000472614|110
27.10.2018 15:00:00||MARS CINEMA|10.40.25.203|||110000472614|90
27.10.2018 15:00:00||MARS CINEMA|10.40.25.203|||110000472614|62
27.10.2018 15:00:00||MARS CINEMA|10.40.25.203|||110000472614|185
27.10.2018 15:00:00||MARS CINEMA|10.40.25.204|||110000472614|110
27.10.2018 15:00:00||MARS CINEMA|10.40.25.204|||110000472614|70
27.10.2018 15:00:00||MARS CINEMA|10.40.25.204|||110000472614|80
27.10.2018 15:00:00||MARS CINEMA|10.40.25.204|||110000472614|100
27.10.2018 15:00:00||MARS CINEMA|10.40.25.204|||110000472614|20
27.10.2018 15:00:00||MARS CINEMA|10.40.25.204|||110000472614|20
27.10.2018 15:00:00||MARS CINEMA|10.40.25.204|||110000472614|30
27.10.2018 15:00:00||MARS CINEMA|10.40.25.204|||110000472614|40
27.10.2018 15:00:00||MARS CINEMA|10.40.25.204|||110000472614|90
27.10.2018 15:00:00||MARS CINEMA|10.40.25.204|||110000472614|120
27.10.2018 15:00:00||MARS CINEMA|10.40.25.204|||110000472614|80
27.10.2018 15:00:00||MARS CINEMA|10.40.25.204|||110000472614|80
27.10.2018 15:00:00||MARS CINEMA|10.40.25.204|||110000472614|110
27.10.2018 15:00:00||MARS CINEMA|10.40.25.204|||110000472614|100
27.10.2018 15:00:00||MARS CINEMA|10.40.24.203|||110000472614|82
27.10.2018 15:00:00||MARS CINEMA|10.40.24.203|||110000472614|98
27.10.2018 15:00:00||MARS CINEMA|10.40.24.203|||110000472614|148
27.10.2018 15:00:00||MARS CINEMA|10.40.24.203|||110000472614|57
27.10.2018 15:00:00||MARS CINEMA|10.40.24.203|||110000472614|142
27.10.2018 15:00:00||MARS CINEMA|10.40.24.203|||110000472614|150
27.10.2018 15:00:00||MARS CINEMA|10.40.24.203|||110000472614|103
27.10.2018 15:00:00||MARS CINEMA|10.40.24.203|||110000472614|182
27.10.2018 15:00:00||MARS CINEMA|10.40.24.204|||110000472614|110
27.10.2018 15:00:00||MARS CINEMA|10.40.24.204|||110000472614|93
27.10.2018 15:00:00||MARS CINEMA|10.40.24.204|||110000472614|93
27.10.2018 15:00:00||MARS CINEMA|10.40.24.204|||110000472614|20
27.10.2018 15:00:00||MARS CINEMA|10.40.24.204|||110000472614|12
27.10.2018 15:00:00||MARS CINEMA|10.40.24.204|||110000472614|90
27.10.2018 15:00:00||MARS CINEMA|10.40.24.204|||110000472614|120
27.10.2018 15:00:00||MARS CINEMA|10.40.24.204|||110000472614|98
27.10.2018 15:00:00||MARS CINEMA|10.40.24.204|||110000472614|110
27.10.2018 15:00:00||MARS CINEMA|10.40.24.204|||110000472614|83
27.10.2018 15:00:00||MARS CINEMA|10.40.25.206|||110000472614|122
27.10.2018 15:00:00||MARS CINEMA|10.40.25.206|||110000472614|40
27.10.2018 15:00:00||MARS CINEMA|10.40.25.206|||110000472614|40
27.10.2018 15:00:00||MARS CINEMA|10.40.25.206|||110000472614|40
27.10.2018 15:00:00||MARS CINEMA|10.40.25.206|||110000472614|20
27.10.2018 15:00:00||MARS CINEMA|10.40.25.206|||110000472614|20
27.10.2018 15:00:00||MARS CINEMA|10.40.25.206|||110000472614|30
27.10.2018 15:00:00||MARS CINEMA|10.40.25.206|||110000472614|60
27.10.2018 15:00:00||MARS CINEMA|10.40.25.206|||110000472614|40
27.10.2018 15:00:00||MARS CINEMA|10.40.25.206|||110000472614|90
27.10.2018 15:00:00||MARS CINEMA|10.40.25.206|||110000472614|90
27.10.2018 15:00:00||MARS CINEMA|10.40.24.206|||110000472614|157
27.10.2018 15:00:00||MARS CINEMA|10.40.24.206|||110000472614|40
27.10.2018 15:00:00||MARS CINEMA|10.40.24.206|||110000472614|40
27.10.2018 15:00:00||MARS CINEMA|10.40.24.206|||110000472614|45
27.10.2018 15:00:00||MARS CINEMA|10.40.24.206|||110000472614|30
27.10.2018 15:00:00||MARS CINEMA|10.40.24.206|||110000472614|30
27.10.2018 15:00:00||MARS CINEMA|10.40.24.206|||110000472614|195
27.10.2018 15:00:00||MARS CINEMA|10.40.24.206|||110000472614|160
27.10.2018 15:00:00||MARS CINEMA|10.40.24.206|||110000472614|20
27.10.2018 15:00:00||MARS CINEMA|10.40.24.206|||110000472614|80
27.10.2018 15:00:00||MARS CINEMA|10.40.24.206|||110000472614|80
27.10.2018 15:00:00||PEGASUS|10.40.27.84|||110000423831|216
27.10.2018 15:00:00||PEGASUS|10.40.26.85|||110000423831|122
27.10.2018 15:00:00||PEGASUS|10.40.27.66|||110000423831|112
27.10.2018 15:00:00||PEGASUS|10.40.26.66|||110000423831|93
27.10.2018 15:00:00||PEGASUS|10.40.26.84|||110000423831|220
27.10.2018 15:00:00||PEGASUS|10.40.27.85|||110000423831|117
27.10.2018 15:00:00||PEGASUS|10.40.27.67|||110000423831|338
27.10.2018 15:00:00||PEGASUS|10.40.27.67|||110000423831|40
27.10.2018 15:00:00||PEGASUS|10.40.26.62|||110000423831|10
27.10.2018 15:00:00||PEGASUS|10.40.26.62|||110000423831|190
27.10.2018 15:00:00||PEGASUS|10.40.26.63|||110000423831|70
27.10.2018 15:00:00||PEGASUS|10.40.26.63|||110000423831|30
27.10.2018 15:00:00||PEGASUS|10.40.26.63|||110000423831|60
27.10.2018 15:00:00||PEGASUS|10.40.26.63|||110000423831|30
27.10.2018 15:00:00||PEGASUS|10.40.26.63|||110000423831|230
27.10.2018 15:00:00||PEGASUS|10.40.26.63|||110000423831|140
27.10.2018 15:00:00||PEGASUS|10.40.26.63|||110000423831|110
27.10.2018 15:00:00||PEGASUS|10.40.26.63|||110000423831|60
27.10.2018 15:00:00||PEGASUS|10.40.26.67|||110000423831|170
27.10.2018 15:00:00||PEGASUS|10.40.27.68|||110000423831|90
27.10.2018 15:00:00||PEGASUS|10.40.27.68|||110000423831|88
27.10.2018 15:00:00||PEGASUS|10.40.27.68|||110000423831|90
27.10.2018 15:00:00||PEGASUS|10.40.27.68|||110000423831|50
27.10.2018 15:00:00||PEGASUS|10.40.26.68|||110000423831|90
27.10.2018 15:00:00||PEGASUS|10.40.26.68|||110000423831|90
27.10.2018 15:00:00||PEGASUS|10.40.26.68|||110000423831|50
27.10.2018 15:00:00||PEGASUS|10.40.27.63|||110000423831|50
27.10.2018 15:00:00||PEGASUS|10.40.27.86|||110000423831|340
27.10.2018 15:00:00||PEGASUS|10.40.27.63|||110000423831|50
27.10.2018 15:00:00||PEGASUS|10.40.27.63|||110000423831|60
27.10.2018 15:00:00||PEGASUS|10.40.27.64|||110000423831|80
27.10.2018 15:00:00||PEGASUS|10.40.27.64|||110000423831|70
27.10.2018 15:00:00||PEGASUS|10.40.27.63|||110000423831|60
27.10.2018 15:00:00||PEGASUS|10.40.27.63|||110000423831|70
27.10.2018 15:00:00||PEGASUS|10.40.27.63|||110000423831|90
27.10.2018 15:00:00||PEGASUS|10.40.26.63|||110000423831|110
27.10.2018 15:00:00||PEGASUS|10.40.27.67|||110000423831|360
27.10.2018 15:00:00||PEGASUS|10.40.27.64|||110000423831|267
27.10.2018 15:00:00||PEGASUS|10.40.27.64|||110000423831|265
27.10.2018 15:00:00||PEGASUS|10.40.27.63|||110000423831|78
27.10.2018 15:00:00||PEGASUS|10.40.27.63|||110000423831|65
27.10.2018 15:00:00||PEGASUS|10.40.27.63|||110000423831|80
27.10.2018 15:00:00||PEGASUS|10.40.26.63|||110000423831|110
27.10.2018 15:00:00||PEGASUS|10.40.26.63|||110000423831|110
27.10.2018 15:00:00||PEGASUS|10.40.27.81|||110000423831|460
27.10.2018 15:00:00||PEGASUS|10.40.27.81|||110000423831|430
27.10.2018 15:00:00||PEGASUS|10.40.26.63|||110000423831|90
27.10.2018 15:00:00||PEGASUS|10.40.26.63|||110000423831|60
27.10.2018 15:00:00||PEGASUS|10.40.26.67|||110000423831|30
27.10.2018 15:00:00||PEGASUS|10.40.26.67|||110000423831|340
27.10.2018 15:00:00||PEGASUS|10.40.26.67|||110000423831|60
27.10.2018 15:00:00||PEGASUS|10.40.26.67|||110000423831|40
27.10.2018 15:00:00||PEGASUS|10.40.26.67|||110000423831|70
27.10.2018 15:00:00||PEGASUS|10.40.26.68|||110000423831|100
27.10.2018 15:00:00||PEGASUS|10.40.27.64|||110000423831|318
27.10.2018 15:00:00||PEGASUS|10.40.27.64|||110000423831|268
27.10.2018 15:00:00||PEGASUS|10.40.27.64|||110000423831|302
27.10.2018 15:00:00||PEGASUS|10.40.27.64|||110000423831|272
27.10.2018 15:00:00||PEGASUS|10.40.27.64|||110000423831|268
27.10.2018 15:00:00||PEGASUS|10.40.27.86|||110000423831|340
27.10.2018 15:00:00||PEGASUS|10.40.27.63|||110000423831|90
27.10.2018 15:00:00||PEGASUS|10.40.26.63|||110000423831|130
27.10.2018 15:00:00||PEGASUS|10.40.26.63|||110000423831|60
27.10.2018 15:00:00||PEGASUS|10.40.26.63|||110000423831|80
27.10.2018 15:00:00||PEGASUS|10.40.26.67|||110000423831|340
27.10.2018 15:00:00||PEGASUS|10.40.27.63|||110000423831|50
27.10.2018 15:00:00||PEGASUS|10.40.27.63|||110000423831|60
27.10.2018 15:00:00||PEGASUS|10.40.27.81|||110000423831|450
27.10.2018 15:00:00||PEGASUS|10.40.26.62|||110000423831|90
27.10.2018 15:00:00||PEGASUS|10.40.26.63|||110000423831|50
27.10.2018 15:00:00||PEGASUS|10.40.26.63|||110000423831|100
27.10.2018 15:00:00||PEGASUS|10.40.26.63|||110000423831|40
27.10.2018 15:00:00||PEGASUS|10.40.26.63|||110000423831|70
27.10.2018 15:00:00||PEGASUS|10.40.26.67|||110000423831|340
27.10.2018 15:00:00||PEGASUS|10.40.27.64|||110000423831|278
27.10.2018 15:00:00||PEGASUS|10.40.27.64|||110000423831|275
27.10.2018 15:00:00||PEGASUS|10.40.27.64|||110000423831|262
27.10.2018 15:00:00||PEGASUS|10.40.27.64|||110000423831|358
27.10.2018 15:00:00||PEGASUS|10.40.27.64|||110000423831|367
27.10.2018 15:00:00||PEGASUS|10.40.27.86|||110000423831|40
27.10.2018 15:00:00||PEGASUS|10.40.27.63|||110000423831|80
27.10.2018 15:00:00||PEGASUS|10.40.27.63|||110000423831|80
27.10.2018 15:00:00||PEGASUS|10.40.27.63|||110000423831|72
27.10.2018 15:00:00||PEGASUS|10.40.27.63|||110000423831|90
27.10.2018 15:00:00||PEGASUS|10.40.27.63|||110000423831|160
27.10.2018 15:00:00||PEGASUS|10.40.27.63|||110000423831|227
27.10.2018 15:00:00||PEGASUS|10.40.27.63|||110000423831|53
27.10.2018 15:00:00||PEGASUS|10.40.26.64|||110000423831|80
27.10.2018 15:00:00||PEGASUS|10.40.26.64|||110000423831|80
27.10.2018 15:00:00||PEGASUS|10.40.26.82|||110000423831|210
27.10.2018 15:00:00||PEGASUS|10.40.26.82|||110000423831|103
27.10.2018 15:00:00||PEGASUS|10.40.26.82|||110000423831|120
27.10.2018 15:00:00||PEGASUS|10.40.26.82|||110000423831|165
27.10.2018 15:00:00||PEGASUS|10.40.26.82|||110000423831|157
27.10.2018 15:00:00||PEGASUS|10.40.26.82|||110000423831|142
27.10.2018 15:00:00||PEGASUS|10.40.26.82|||110000423831|197
27.10.2018 15:00:00||PEGASUS|10.40.26.82|||110000423831|35
27.10.2018 15:00:00||PEGASUS|10.40.26.82|||110000423831|50
27.10.2018 15:00:00||PEGASUS|10.40.26.82|||110000423831|20
27.10.2018 15:00:00||PEGASUS|10.40.26.82|||110000423831|68
27.10.2018 15:00:00||PEGASUS|10.40.26.82|||110000423831|50
27.10.2018 15:00:00||PEGASUS|10.40.26.82|||110000423831|37
27.10.2018 15:00:00||PEGASUS|10.40.27.83|||110000423831|573
27.10.2018 15:00:00||PEGASUS|10.40.27.83|||110000423831|70
27.10.2018 15:00:00||PEGASUS|10.40.27.83|||110000423831|565
27.10.2018 15:00:00||PEGASUS|10.40.27.83|||110000423831|553
27.10.2018 15:00:00||PEGASUS|10.40.27.83|||110000423831|70
27.10.2018 15:00:00||PEGASUS|10.40.26.83|||110000423831|503
27.10.2018 15:00:00||PEGASUS|10.40.26.83|||110000423831|50
27.10.2018 15:00:00||PEGASUS|10.40.26.83|||110000423831|402
27.10.2018 15:00:00||PEGASUS|10.40.26.83|||110000423831|502
27.10.2018 15:00:00||PEGASUS|10.40.26.83|||110000423831|507
27.10.2018 15:00:00||PEGASUS|10.40.26.86|||110000423831|360
27.10.2018 15:00:00||PEGASUS|10.40.26.86|||110000423831|133
27.10.2018 15:00:00||PEGASUS|10.40.26.86|||110000423831|350
27.10.2018 15:00:00||PEGASUS|10.40.26.86|||110000423831|50
27.10.2018 15:00:00||PEGASUS|10.40.26.86|||110000423831|30
27.10.2018 15:00:00||PEGASUS|10.40.26.86|||110000423831|350
27.10.2018 15:00:00||PEGASUS|10.40.26.86|||110000423831|40
27.10.2018 15:00:00||PEGASUS|10.40.27.87|||110000423831|90
27.10.2018 15:00:00||PEGASUS|10.40.27.87|||110000423831|88
27.10.2018 15:00:00||PEGASUS|10.40.27.87|||110000423831|90
27.10.2018 15:00:00||PEGASUS|10.40.27.87|||110000423831|20
27.10.2018 15:00:00||PEGASUS|10.40.26.87|||110000423831|90
27.10.2018 15:00:00||PEGASUS|10.40.26.87|||110000423831|90
27.10.2018 15:00:00||PEGASUS|10.40.26.87|||110000423831|90
27.10.2018 15:00:00||PEGASUS|10.40.26.87|||110000423831|60
27.10.2018 15:00:00||PEGASUS|10.40.26.87|||110000423831|20
27.10.2018 15:00:00||PEGASUS|10.40.26.81|||110000423831|407
27.10.2018 15:00:00||PEGASUS|10.40.26.81|||110000423831|417
27.10.2018 15:00:00||PEGASUS|10.40.26.81|||110000423831|433
27.10.2018 15:00:00||PEGASUS|10.40.27.82|||110000423831|220
27.10.2018 15:00:00||PEGASUS|10.40.27.82|||110000423831|30
27.10.2018 15:00:00||PEGASUS|10.40.27.82|||110000423831|103
27.10.2018 15:00:00||PEGASUS|10.40.27.82|||110000423831|80
27.10.2018 15:00:00||PEGASUS|10.40.27.82|||110000423831|158
27.10.2018 15:00:00||PEGASUS|10.40.27.82|||110000423831|127
27.10.2018 15:00:00||PEGASUS|10.40.27.82|||110000423831|180
27.10.2018 15:00:00||PEGASUS|10.40.27.82|||110000423831|128
27.10.2018 15:00:00||PEGASUS|10.40.27.82|||110000423831|60
27.10.2018 15:00:00||PEGASUS|10.40.27.82|||110000423831|80
27.10.2018 15:00:00||PEGASUS|10.40.27.82|||110000423831|50
27.10.2018 15:00:00||PEGASUS|10.40.27.82|||110000423831|33
27.10.2018 15:00:00||PEGASUS|10.40.27.82|||110000423831|40
27.10.2018 15:00:00||PEGASUS|10.40.27.67|||110000423831|50
27.10.2018 15:00:00||PEGASUS|10.40.27.67|||110000423831|70
27.10.2018 15:00:00||PEGASUS|10.40.27.67|||110000423831|130
27.10.2018 15:00:00||PEGASUS|10.40.27.67|||110000423831|10
27.10.2018 15:00:00||PEGASUS|10.40.27.67|||110000423831|340
27.10.2018 15:00:00||PEGASUS|10.40.27.82|||110000423831|70
27.10.2018 15:00:00||PEGASUS|10.40.27.86|||110000423831|170
27.10.2018 15:00:00||PEGASUS|10.40.27.86|||110000423831|70
27.10.2018 15:00:00||PEGASUS|10.40.27.86|||110000423831|20
27.10.2018 15:00:00||PEGASUS|10.40.27.86|||110000423831|350
27.10.2018 15:00:00||PETKIM|10.40.25.87|||110000437354|142
27.10.2018 15:00:00||PWC|10.40.24.66|||110000433262|82
27.10.2018 15:00:00||PWC|10.40.24.66|||110000433262|10
27.10.2018 15:00:00||PWC|10.40.24.66|||110000433262|30
27.10.2018 15:00:00||PWC|10.40.24.66|||110000433262|53
27.10.2018 15:00:00||PWC|10.40.24.66|||110000433262|440
27.10.2018 15:00:00||PWC|10.40.24.68|||110000433262|150
27.10.2018 15:00:00||PWC|10.40.24.66|||110000433262|42
27.10.2018 15:00:00||PWC|10.40.24.66|||110000433262|212
27.10.2018 15:00:00||PWC|10.40.24.66|||110000433262|210
27.10.2018 15:00:00||PWC|10.40.25.67|||110000433262|80
27.10.2018 15:00:00||PWC|10.40.25.67|||110000433262|90
27.10.2018 15:00:00||PWC|10.40.25.67|||110000433262|320
27.10.2018 15:00:00||PWC|10.40.25.67|||110000433262|250
27.10.2018 15:00:00||PWC|10.40.25.67|||110000433262|240
27.10.2018 15:00:00||PWC|10.40.25.67|||110000433262|250
27.10.2018 15:00:00||PWC|10.40.25.67|||110000433262|50
27.10.2018 15:00:00||PWC|10.40.25.67|||110000433262|30
27.10.2018 15:00:00||PWC|10.40.25.67|||110000433262|120
27.10.2018 15:00:00||PWC|10.40.24.67|||110000433262|10
27.10.2018 15:00:00||PWC|10.40.24.67|||110000433262|10
27.10.2018 15:00:00||PWC|10.40.24.67|||110000433262|370
27.10.2018 15:00:00||PWC|10.40.24.67|||110000433262|30
27.10.2018 15:00:00||PWC|10.40.24.67|||110000433262|70
27.10.2018 15:00:00||PWC|10.40.24.67|||110000433262|120
27.10.2018 15:00:00||PWC|10.40.25.68|||110000433262|138
27.10.2018 15:00:00||PWC|10.40.25.68|||110000433262|188
27.10.2018 15:00:00||PWC|10.40.25.68|||110000433262|70
27.10.2018 15:00:00||PWC|10.40.25.68|||110000433262|75
27.10.2018 15:00:00||PWC|10.40.25.68|||110000433262|148
27.10.2018 15:00:00||PWC|10.40.24.66|||110000433262|60
27.10.2018 15:00:00||PWC|10.40.24.66|||110000433262|30
27.10.2018 15:00:00||PWC|10.40.24.66|||110000433262|30
27.10.2018 15:00:00||PWC|10.40.24.68|||110000433262|103
27.10.2018 15:00:00||PWC|10.40.24.68|||110000433262|135
27.10.2018 15:00:00||PWC|10.40.24.68|||110000433262|393
27.10.2018 15:00:00||PWC|10.40.24.68|||110000433262|70
27.10.2018 15:00:00||PWC|10.40.24.68|||110000433262|70
27.10.2018 15:00:00||VSMART BİLGİ TEKNOLOJİLERİ|10.40.24.62|||110000474326|42
27.10.2018 15:00:00||VSMART BİLGİ TEKNOLOJİLERİ|10.40.24.62|||110000474326|68
27.10.2018 15:00:00||VSMART BİLGİ TEKNOLOJİLERİ|10.40.24.62|||110000474326|45
27.10.2018 15:00:00||VSMART BİLGİ TEKNOLOJİLERİ|10.40.25.62|||110000474326|63
27.10.2018 15:00:00||VSMART BİLGİ TEKNOLOJİLERİ|10.40.24.62|||110000474326|42
27.10.2018 15:00:00||VSMART BİLGİ TEKNOLOJİLERİ|10.40.24.62|||110000474326|30
27.10.2018 15:00:00||VSMART BİLGİ TEKNOLOJİLERİ|10.40.24.62|||110000474326|10
27.10.2018 15:00:00||VSMART BİLGİ TEKNOLOJİLERİ|10.40.25.62|||110000474326|42
27.10.2018 15:00:00||VSMART BİLGİ TEKNOLOJİLERİ|10.40.25.62|||110000474326|10
27.10.2018 15:00:00||VSMART BİLGİ TEKNOLOJİLERİ|10.40.25.62|||110000474326|10
27.10.2018 15:00:00||VSMART BİLGİ TEKNOLOJİLERİ|10.40.25.62|||110000474326|80
27.10.2018 15:00:00||VSMART BİLGİ TEKNOLOJİLERİ|10.40.25.62|||110000474326|88
27.10.2018 15:00:00||VSMART BİLGİ TEKNOLOJİLERİ|10.40.25.62|||110000474326|100
27.10.2018 15:00:00||VSMART BİLGİ TEKNOLOJİLERİ|10.40.24.62|||110000474326|10
