22.10.2018 04:00:00||AKTİFBANK|10.40.25.174|||110000438458|53
22.10.2018 04:00:00||AKTİFBANK|10.40.25.134|||110000438458|93
22.10.2018 04:00:00||AKTİFBANK|10.40.25.135|||110000438458|96
22.10.2018 04:00:00||AKTİFBANK|10.40.24.135|||110000438458|99
22.10.2018 04:00:00||AKTİFBANK|10.40.24.137|||110000438458|58
22.10.2018 04:00:00||AKTİFBANK|10.40.24.171|||110000438458|11
22.10.2018 04:00:00||AKTİFBANK|10.40.25.172|||110000438458|88
22.10.2018 04:00:00||AKTİFBANK|10.40.24.173|||110000438458|94
22.10.2018 04:00:00||AKTİFBANK|10.40.24.174|||110000438458|60
22.10.2018 04:00:00||AKTİFBANK|10.40.24.172|||110000438458|98
22.10.2018 04:00:00||AKTİFBANK|10.40.24.134|||110000438458|94
22.10.2018 04:00:00||AKTİFBANK|10.40.25.137|||110000438458|58
22.10.2018 04:00:00||AKTİFBANK|10.40.25.171|||110000438458|12
22.10.2018 04:00:00||AKTİFBANK|10.40.24.158|||110000438458|80
22.10.2018 04:00:00||AKTİFBANK|10.40.24.164|||110000438458|68
22.10.2018 04:00:00||AKTİFBANK|10.40.25.138|||110000438458|80
22.10.2018 04:00:00||AKTİFBANK|10.40.25.139|||110000438458|10
22.10.2018 04:00:00||AKTİFBANK|10.40.25.140|||110000438458|30
22.10.2018 04:00:00||AKTİFBANK|10.40.25.151|||110000438458|493
22.10.2018 04:00:00||AKTİFBANK|10.40.25.141|||110000438458|100
22.10.2018 04:00:00||AKTİFBANK|10.40.25.141|||110000438458|98
22.10.2018 04:00:00||AKTİFBANK|10.40.25.142|||110000438458|72
22.10.2018 04:00:00||AKTİFBANK|10.40.25.133|||110000438458|110
22.10.2018 04:00:00||AKTİFBANK|10.40.25.149|||110000438458|102
22.10.2018 04:00:00||AKTİFBANK|10.40.25.149|||110000438458|93
22.10.2018 04:00:00||AKTİFBANK|10.40.25.149|||110000438458|90
22.10.2018 04:00:00||AKTİFBANK|10.40.25.140|||110000438458|30
22.10.2018 04:00:00||AKTİFBANK|10.40.25.150|||110000438458|533
22.10.2018 04:00:00||AKTİFBANK|10.40.25.139|||110000438458|170
22.10.2018 04:00:00||AKTİFBANK|10.40.25.139|||110000438458|40
22.10.2018 04:00:00||AKTİFBANK|10.40.25.140|||110000438458|80
22.10.2018 04:00:00||AKTİFBANK|10.40.25.140|||110000438458|70
22.10.2018 04:00:00||AKTİFBANK|10.40.25.140|||110000438458|30
22.10.2018 04:00:00||AKTİFBANK|10.40.25.151|||110000438458|500
22.10.2018 04:00:00||AKTİFBANK|10.40.25.151|||110000438458|488
22.10.2018 04:00:00||AKTİFBANK|10.40.25.141|||110000438458|40
22.10.2018 04:00:00||AKTİFBANK|10.40.25.141|||110000438458|100
22.10.2018 04:00:00||AKTİFBANK|10.40.25.141|||110000438458|68
22.10.2018 04:00:00||AKTİFBANK|10.40.25.142|||110000438458|40
22.10.2018 04:00:00||AKTİFBANK|10.40.25.149|||110000438458|70
22.10.2018 04:00:00||AKTİFBANK|10.40.25.149|||110000438458|110
22.10.2018 04:00:00||AKTİFBANK|10.40.25.149|||110000438458|90
22.10.2018 04:00:00||AKTİFBANK|10.40.25.149|||110000438458|95
22.10.2018 04:00:00||AKTİFBANK|10.40.25.149|||110000438458|100
22.10.2018 04:00:00||AKTİFBANK|10.40.24.139|||110000438458|63
22.10.2018 04:00:00||AKTİFBANK|10.40.25.153|||110000438458|10
22.10.2018 04:00:00||AKTİFBANK|10.40.25.150|||110000438458|542
22.10.2018 04:00:00||AKTİFBANK|10.40.25.153|||110000438458|70
22.10.2018 04:00:00||AKTİFBANK|10.40.25.163|||110000438458|48
22.10.2018 04:00:00||AKTİFBANK|10.40.24.141|||110000438458|65
22.10.2018 04:00:00||AKTİFBANK|10.40.24.151|||110000438458|507
22.10.2018 04:00:00||AKTİFBANK|10.40.25.153|||110000438458|80
22.10.2018 04:00:00||AKTİFBANK|10.40.24.149|||110000438458|90
22.10.2018 04:00:00||AKTİFBANK|10.40.24.141|||110000438458|50
22.10.2018 04:00:00||AKTİFBANK|10.40.25.133|||110000438458|280
22.10.2018 04:00:00||AKTİFBANK|10.40.25.133|||110000438458|90
22.10.2018 04:00:00||AKTİFBANK|10.40.24.149|||110000438458|88
22.10.2018 04:00:00||AKTİFBANK|10.40.24.162|||110000438458|210
22.10.2018 04:00:00||AKTİFBANK|10.40.24.162|||110000438458|30
22.10.2018 04:00:00||AKTİFBANK|10.40.24.162|||110000438458|40
22.10.2018 04:00:00||AKTİFBANK|10.40.25.133|||110000438458|150
22.10.2018 04:00:00||AKTİFBANK|10.40.25.138|||110000438458|130
22.10.2018 04:00:00||AKTİFBANK|10.40.25.149|||110000438458|70
22.10.2018 04:00:00||AKTİFBANK|10.40.25.149|||110000438458|70
22.10.2018 04:00:00||AKTİFBANK|10.40.25.149|||110000438458|28
22.10.2018 04:00:00||AKTİFBANK|10.40.25.149|||110000438458|68
22.10.2018 04:00:00||AKTİFBANK|10.40.25.149|||110000438458|70
22.10.2018 04:00:00||AKTİFBANK|10.40.25.141|||110000438458|100
22.10.2018 04:00:00||AKTİFBANK|10.40.25.149|||110000438458|130
22.10.2018 04:00:00||AKTİFBANK|10.40.25.138|||110000438458|93
22.10.2018 04:00:00||AKTİFBANK|10.40.25.138|||110000438458|72
22.10.2018 04:00:00||AKTİFBANK|10.40.25.139|||110000438458|100
22.10.2018 04:00:00||AKTİFBANK|10.40.24.145|||110000438458|70
22.10.2018 04:00:00||AKTİFBANK|10.40.24.149|||110000438458|160
22.10.2018 04:00:00||AKTİFBANK|10.40.25.138|||110000438458|30
22.10.2018 04:00:00||AKTİFBANK|10.40.25.138|||110000438458|12
22.10.2018 04:00:00||AKTİFBANK|10.40.25.153|||110000438458|60
22.10.2018 04:00:00||AKTİFBANK|10.40.24.150|||110000438458|545
22.10.2018 04:00:00||AKTİFBANK|10.40.25.128|||110000438458|70
22.10.2018 04:00:00||AKTİFBANK|10.40.25.128|||110000438458|90
22.10.2018 04:00:00||AKTİFBANK|10.40.25.128|||110000438458|90
22.10.2018 04:00:00||AKTİFBANK|10.40.25.128|||110000438458|40
22.10.2018 04:00:00||AKTİFBANK|10.40.25.128|||110000438458|55
22.10.2018 04:00:00||AKTİFBANK|10.40.25.129|||110000438458|87
22.10.2018 04:00:00||AKTİFBANK|10.40.25.129|||110000438458|65
22.10.2018 04:00:00||AKTİFBANK|10.40.25.129|||110000438458|140
22.10.2018 04:00:00||AKTİFBANK|10.40.25.129|||110000438458|105
22.10.2018 04:00:00||AKTİFBANK|10.40.25.129|||110000438458|40
22.10.2018 04:00:00||AKTİFBANK|10.40.25.129|||110000438458|95
22.10.2018 04:00:00||AKTİFBANK|10.40.25.129|||110000438458|93
22.10.2018 04:00:00||AKTİFBANK|10.40.25.130|||110000438458|63
22.10.2018 04:00:00||AKTİFBANK|10.40.25.130|||110000438458|50
22.10.2018 04:00:00||AKTİFBANK|10.40.25.130|||110000438458|73
22.10.2018 04:00:00||AKTİFBANK|10.40.25.130|||110000438458|32
22.10.2018 04:00:00||AKTİFBANK|10.40.25.130|||110000438458|60
22.10.2018 04:00:00||AKTİFBANK|10.40.25.130|||110000438458|98
22.10.2018 04:00:00||AKTİFBANK|10.40.25.130|||110000438458|80
22.10.2018 04:00:00||AKTİFBANK|10.40.25.131|||110000438458|20
22.10.2018 04:00:00||AKTİFBANK|10.40.25.131|||110000438458|73
22.10.2018 04:00:00||AKTİFBANK|10.40.25.131|||110000438458|100
22.10.2018 04:00:00||AKTİFBANK|10.40.25.131|||110000438458|103
22.10.2018 04:00:00||AKTİFBANK|10.40.25.131|||110000438458|82
22.10.2018 04:00:00||AKTİFBANK|10.40.25.131|||110000438458|82
22.10.2018 04:00:00||AKTİFBANK|10.40.25.131|||110000438458|22
22.10.2018 04:00:00||AKTİFBANK|10.40.25.131|||110000438458|120
22.10.2018 04:00:00||AKTİFBANK|10.40.25.132|||110000438458|65
22.10.2018 04:00:00||AKTİFBANK|10.40.25.132|||110000438458|60
22.10.2018 04:00:00||AKTİFBANK|10.40.25.132|||110000438458|80
22.10.2018 04:00:00||AKTİFBANK|10.40.25.132|||110000438458|157
22.10.2018 04:00:00||AKTİFBANK|10.40.25.132|||110000438458|58
22.10.2018 04:00:00||AKTİFBANK|10.40.25.143|||110000438458|320
22.10.2018 04:00:00||AKTİFBANK|10.40.25.144|||110000438458|80
22.10.2018 04:00:00||AKTİFBANK|10.40.25.144|||110000438458|50
22.10.2018 04:00:00||AKTİFBANK|10.40.25.144|||110000438458|20
22.10.2018 04:00:00||AKTİFBANK|10.40.25.154|||110000438458|10
22.10.2018 04:00:00||AKTİFBANK|10.40.25.154|||110000438458|10
22.10.2018 04:00:00||AKTİFBANK|10.40.25.154|||110000438458|10
22.10.2018 04:00:00||AKTİFBANK|10.40.25.157|||110000438458|70
22.10.2018 04:00:00||AKTİFBANK|10.40.25.157|||110000438458|70
22.10.2018 04:00:00||AKTİFBANK|10.40.25.157|||110000438458|70
22.10.2018 04:00:00||AKTİFBANK|10.40.25.157|||110000438458|80
22.10.2018 04:00:00||AKTİFBANK|10.40.25.157|||110000438458|40
22.10.2018 04:00:00||AKTİFBANK|10.40.25.159|||110000438458|60
22.10.2018 04:00:00||AKTİFBANK|10.40.25.159|||110000438458|10
22.10.2018 04:00:00||AKTİFBANK|10.40.25.159|||110000438458|90
22.10.2018 04:00:00||AKTİFBANK|10.40.25.158|||110000438458|37
22.10.2018 04:00:00||AKTİFBANK|10.40.25.158|||110000438458|55
22.10.2018 04:00:00||AKTİFBANK|10.40.25.158|||110000438458|65
22.10.2018 04:00:00||AKTİFBANK|10.40.25.158|||110000438458|50
22.10.2018 04:00:00||AKTİFBANK|10.40.25.160|||110000438458|90
22.10.2018 04:00:00||AKTİFBANK|10.40.25.161|||110000438458|80
22.10.2018 04:00:00||AKTİFBANK|10.40.25.161|||110000438458|70
22.10.2018 04:00:00||AKTİFBANK|10.40.25.161|||110000438458|40
22.10.2018 04:00:00||AKTİFBANK|10.40.25.161|||110000438458|30
22.10.2018 04:00:00||AKTİFBANK|10.40.25.161|||110000438458|20
22.10.2018 04:00:00||AKTİFBANK|10.40.25.161|||110000438458|55
22.10.2018 04:00:00||AKTİFBANK|10.40.25.145|||110000438458|90
22.10.2018 04:00:00||AKTİFBANK|10.40.25.145|||110000438458|60
22.10.2018 04:00:00||AKTİFBANK|10.40.25.145|||110000438458|60
22.10.2018 04:00:00||AKTİFBANK|10.40.25.145|||110000438458|30
22.10.2018 04:00:00||AKTİFBANK|10.40.25.145|||110000438458|50
22.10.2018 04:00:00||AKTİFBANK|10.40.25.147|||110000438458|90
22.10.2018 04:00:00||AKTİFBANK|10.40.25.162|||110000438458|30
22.10.2018 04:00:00||AKTİFBANK|10.40.25.162|||110000438458|30
22.10.2018 04:00:00||AKTİFBANK|10.40.25.162|||110000438458|60
22.10.2018 04:00:00||AKTİFBANK|10.40.25.164|||110000438458|60
22.10.2018 04:00:00||AKTİFBANK|10.40.25.164|||110000438458|280
22.10.2018 04:00:00||AKTİFBANK|10.40.25.164|||110000438458|50
22.10.2018 04:00:00||AKTİFBANK|10.40.25.164|||110000438458|260
22.10.2018 04:00:00||AKTİFBANK|10.40.25.164|||110000438458|270
22.10.2018 04:00:00||AKTİFBANK|10.40.25.165|||110000438458|110
22.10.2018 04:00:00||AKTİFBANK|10.40.25.165|||110000438458|70
22.10.2018 04:00:00||AKTİFBANK|10.40.25.165|||110000438458|80
22.10.2018 04:00:00||AKTİFBANK|10.40.25.165|||110000438458|100
22.10.2018 04:00:00||AKTİFBANK|10.40.25.166|||110000438458|90
22.10.2018 04:00:00||AKTİFBANK|10.40.25.166|||110000438458|10
22.10.2018 04:00:00||AKTİFBANK|10.40.25.166|||110000438458|10
22.10.2018 04:00:00||AKTİFBANK|10.40.25.166|||110000438458|10
22.10.2018 04:00:00||AKTİFBANK|10.40.25.166|||110000438458|40
22.10.2018 04:00:00||AKTİFBANK|10.40.25.148|||110000438458|130
22.10.2018 04:00:00||AKTİFBANK|10.40.25.148|||110000438458|50
22.10.2018 04:00:00||AKTİFBANK|10.40.25.148|||110000438458|100
22.10.2018 04:00:00||AKTİFBANK|10.40.25.148|||110000438458|130
22.10.2018 04:00:00||AKTİFBANK|10.40.25.148|||110000438458|90
22.10.2018 04:00:00||AKTİFBANK|10.40.25.148|||110000438458|80
22.10.2018 04:00:00||AKTİFBANK|10.40.25.148|||110000438458|70
22.10.2018 04:00:00||AKTİFBANK|10.40.25.148|||110000438458|50
22.10.2018 04:00:00||AKTİFBANK|10.40.25.148|||110000438458|80
22.10.2018 04:00:00||AKTİFBANK|10.40.25.148|||110000438458|40
22.10.2018 04:00:00||AKTİFBANK|10.40.25.148|||110000438458|100
22.10.2018 04:00:00||AKTİFBANK|10.40.25.148|||110000438458|60
22.10.2018 04:00:00||AKTİFBANK|10.40.25.155|||110000438458|70
22.10.2018 04:00:00||AKTİFBANK|10.40.25.155|||110000438458|90
22.10.2018 04:00:00||AKTİFBANK|10.40.25.155|||110000438458|110
22.10.2018 04:00:00||AKTİFBANK|10.40.25.155|||110000438458|120
22.10.2018 04:00:00||AKTİFBANK|10.40.25.155|||110000438458|110
22.10.2018 04:00:00||AKTİFBANK|10.40.25.156|||110000438458|20
22.10.2018 04:00:00||AKTİFBANK|10.40.25.156|||110000438458|30
22.10.2018 04:00:00||AKTİFBANK|10.40.25.139|||110000438458|70
22.10.2018 04:00:00||AKTİFBANK|10.40.25.139|||110000438458|80
22.10.2018 04:00:00||AKTİFBANK|10.40.25.150|||110000438458|505
22.10.2018 04:00:00||AKTİFBANK|10.40.25.129|||110000438458|60
22.10.2018 04:00:00||AKTİFBANK|10.40.25.129|||110000438458|83
22.10.2018 04:00:00||AKTİFBANK|10.40.25.129|||110000438458|142
22.10.2018 04:00:00||AKTİFBANK|10.40.25.130|||110000438458|72
22.10.2018 04:00:00||AKTİFBANK|10.40.25.130|||110000438458|125
22.10.2018 04:00:00||AKTİFBANK|10.40.25.130|||110000438458|100
22.10.2018 04:00:00||AKTİFBANK|10.40.25.131|||110000438458|43
22.10.2018 04:00:00||AKTİFBANK|10.40.25.143|||110000438458|60
22.10.2018 04:00:00||AKTİFBANK|10.40.25.143|||110000438458|242
22.10.2018 04:00:00||AKTİFBANK|10.40.25.143|||110000438458|268
22.10.2018 04:00:00||AKTİFBANK|10.40.25.158|||110000438458|102
22.10.2018 04:00:00||AKTİFBANK|10.40.25.160|||110000438458|110
22.10.2018 04:00:00||AKTİFBANK|10.40.25.162|||110000438458|30
22.10.2018 04:00:00||AKTİFBANK|10.40.25.162|||110000438458|42
22.10.2018 04:00:00||AKTİFBANK|10.40.24.140|||110000438458|162
22.10.2018 04:00:00||AKTİFBANK|10.40.24.140|||110000438458|80
22.10.2018 04:00:00||AKTİFBANK|10.40.24.140|||110000438458|40
22.10.2018 04:00:00||AKTİFBANK|10.40.24.140|||110000438458|30
22.10.2018 04:00:00||AKTİFBANK|10.40.24.140|||110000438458|30
22.10.2018 04:00:00||AKTİFBANK|10.40.24.140|||110000438458|23
22.10.2018 04:00:00||AKTİFBANK|10.40.24.149|||110000438458|80
22.10.2018 04:00:00||AKTİFBANK|10.40.24.149|||110000438458|120
22.10.2018 04:00:00||AKTİFBANK|10.40.24.149|||110000438458|92
22.10.2018 04:00:00||AKTİFBANK|10.40.24.149|||110000438458|62
22.10.2018 04:00:00||AKTİFBANK|10.40.24.149|||110000438458|50
22.10.2018 04:00:00||AKTİFBANK|10.40.24.149|||110000438458|140
22.10.2018 04:00:00||AKTİFBANK|10.40.24.149|||110000438458|90
22.10.2018 04:00:00||AKTİFBANK|10.40.24.149|||110000438458|90
22.10.2018 04:00:00||AKTİFBANK|10.40.24.149|||110000438458|100
22.10.2018 04:00:00||AKTİFBANK|10.40.24.149|||110000438458|80
22.10.2018 04:00:00||AKTİFBANK|10.40.24.133|||110000438458|147
22.10.2018 04:00:00||AKTİFBANK|10.40.24.133|||110000438458|278
22.10.2018 04:00:00||AKTİFBANK|10.40.24.133|||110000438458|120
22.10.2018 04:00:00||AKTİFBANK|10.40.24.133|||110000438458|88
22.10.2018 04:00:00||AKTİFBANK|10.40.24.138|||110000438458|110
22.10.2018 04:00:00||AKTİFBANK|10.40.24.138|||110000438458|135
22.10.2018 04:00:00||AKTİFBANK|10.40.24.138|||110000438458|112
22.10.2018 04:00:00||AKTİFBANK|10.40.24.138|||110000438458|32
22.10.2018 04:00:00||AKTİFBANK|10.40.24.138|||110000438458|50
22.10.2018 04:00:00||AKTİFBANK|10.40.24.139|||110000438458|160
22.10.2018 04:00:00||AKTİFBANK|10.40.24.139|||110000438458|90
22.10.2018 04:00:00||AKTİFBANK|10.40.24.139|||110000438458|122
22.10.2018 04:00:00||AKTİFBANK|10.40.24.141|||110000438458|200
22.10.2018 04:00:00||AKTİFBANK|10.40.24.141|||110000438458|102
22.10.2018 04:00:00||AKTİFBANK|10.40.24.141|||110000438458|100
22.10.2018 04:00:00||AKTİFBANK|10.40.24.141|||110000438458|62
22.10.2018 04:00:00||AKTİFBANK|10.40.24.141|||110000438458|80
22.10.2018 04:00:00||AKTİFBANK|10.40.25.152|||110000438458|110
22.10.2018 04:00:00||AKTİFBANK|10.40.25.152|||110000438458|50
22.10.2018 04:00:00||AKTİFBANK|10.40.25.152|||110000438458|140
22.10.2018 04:00:00||AKTİFBANK|10.40.25.152|||110000438458|70
22.10.2018 04:00:00||AKTİFBANK|10.40.25.152|||110000438458|90
22.10.2018 04:00:00||AKTİFBANK|10.40.25.152|||110000438458|160
22.10.2018 04:00:00||AKTİFBANK|10.40.25.152|||110000438458|50
22.10.2018 04:00:00||AKTİFBANK|10.40.25.152|||110000438458|90
22.10.2018 04:00:00||AKTİFBANK|10.40.25.152|||110000438458|30
22.10.2018 04:00:00||AKTİFBANK|10.40.25.152|||110000438458|80
22.10.2018 04:00:00||AKTİFBANK|10.40.25.152|||110000438458|30
22.10.2018 04:00:00||AKTİFBANK|10.40.24.150|||110000438458|550
22.10.2018 04:00:00||AKTİFBANK|10.40.24.151|||110000438458|508
22.10.2018 04:00:00||AKTİFBANK|10.40.24.151|||110000438458|527
22.10.2018 04:00:00||AKTİFBANK|10.40.24.128|||110000438458|60
22.10.2018 04:00:00||AKTİFBANK|10.40.24.128|||110000438458|70
22.10.2018 04:00:00||AKTİFBANK|10.40.24.128|||110000438458|100
22.10.2018 04:00:00||AKTİFBANK|10.40.24.128|||110000438458|40
22.10.2018 04:00:00||AKTİFBANK|10.40.24.128|||110000438458|70
22.10.2018 04:00:00||AKTİFBANK|10.40.24.128|||110000438458|60
22.10.2018 04:00:00||AKTİFBANK|10.40.24.129|||110000438458|100
22.10.2018 04:00:00||AKTİFBANK|10.40.24.129|||110000438458|70
22.10.2018 04:00:00||AKTİFBANK|10.40.24.129|||110000438458|110
22.10.2018 04:00:00||AKTİFBANK|10.40.24.129|||110000438458|120
22.10.2018 04:00:00||AKTİFBANK|10.40.24.129|||110000438458|40
22.10.2018 04:00:00||AKTİFBANK|10.40.24.129|||110000438458|70
22.10.2018 04:00:00||AKTİFBANK|10.40.24.129|||110000438458|70
22.10.2018 04:00:00||AKTİFBANK|10.40.24.129|||110000438458|90
22.10.2018 04:00:00||AKTİFBANK|10.40.24.129|||110000438458|80
22.10.2018 04:00:00||AKTİFBANK|10.40.24.129|||110000438458|140
22.10.2018 04:00:00||AKTİFBANK|10.40.24.130|||110000438458|40
22.10.2018 04:00:00||AKTİFBANK|10.40.24.130|||110000438458|40
22.10.2018 04:00:00||AKTİFBANK|10.40.24.130|||110000438458|67
22.10.2018 04:00:00||AKTİFBANK|10.40.24.130|||110000438458|42
22.10.2018 04:00:00||AKTİFBANK|10.40.24.130|||110000438458|60
22.10.2018 04:00:00||AKTİFBANK|10.40.24.130|||110000438458|75
22.10.2018 04:00:00||AKTİFBANK|10.40.24.130|||110000438458|80
22.10.2018 04:00:00||AKTİFBANK|10.40.24.130|||110000438458|38
22.10.2018 04:00:00||AKTİFBANK|10.40.24.130|||110000438458|130
22.10.2018 04:00:00||AKTİFBANK|10.40.24.130|||110000438458|110
22.10.2018 04:00:00||AKTİFBANK|10.40.24.131|||110000438458|85
22.10.2018 04:00:00||AKTİFBANK|10.40.24.131|||110000438458|90
22.10.2018 04:00:00||AKTİFBANK|10.40.24.131|||110000438458|110
22.10.2018 04:00:00||AKTİFBANK|10.40.24.131|||110000438458|113
22.10.2018 04:00:00||AKTİFBANK|10.40.24.131|||110000438458|20
22.10.2018 04:00:00||AKTİFBANK|10.40.24.131|||110000438458|160
22.10.2018 04:00:00||AKTİFBANK|10.40.24.131|||110000438458|60
22.10.2018 04:00:00||AKTİFBANK|10.40.24.131|||110000438458|110
22.10.2018 04:00:00||AKTİFBANK|10.40.24.132|||110000438458|33
22.10.2018 04:00:00||AKTİFBANK|10.40.24.132|||110000438458|80
22.10.2018 04:00:00||AKTİFBANK|10.40.24.132|||110000438458|50
22.10.2018 04:00:00||AKTİFBANK|10.40.24.132|||110000438458|192
22.10.2018 04:00:00||AKTİFBANK|10.40.24.132|||110000438458|68
22.10.2018 04:00:00||AKTİFBANK|10.40.24.143|||110000438458|68
22.10.2018 04:00:00||AKTİFBANK|10.40.24.143|||110000438458|270
22.10.2018 04:00:00||AKTİFBANK|10.40.24.143|||110000438458|280
22.10.2018 04:00:00||AKTİFBANK|10.40.24.143|||110000438458|222
22.10.2018 04:00:00||AKTİFBANK|10.40.24.144|||110000438458|70
22.10.2018 04:00:00||AKTİFBANK|10.40.24.144|||110000438458|108
22.10.2018 04:00:00||AKTİFBANK|10.40.24.144|||110000438458|130
22.10.2018 04:00:00||AKTİFBANK|10.40.24.148|||110000438458|63
22.10.2018 04:00:00||AKTİFBANK|10.40.24.148|||110000438458|170
22.10.2018 04:00:00||AKTİFBANK|10.40.24.148|||110000438458|80
22.10.2018 04:00:00||AKTİFBANK|10.40.24.148|||110000438458|110
22.10.2018 04:00:00||AKTİFBANK|10.40.24.148|||110000438458|85
22.10.2018 04:00:00||AKTİFBANK|10.40.24.148|||110000438458|80
22.10.2018 04:00:00||AKTİFBANK|10.40.24.148|||110000438458|92
22.10.2018 04:00:00||AKTİFBANK|10.40.24.148|||110000438458|100
22.10.2018 04:00:00||AKTİFBANK|10.40.24.148|||110000438458|78
22.10.2018 04:00:00||AKTİFBANK|10.40.24.148|||110000438458|60
22.10.2018 04:00:00||AKTİFBANK|10.40.24.148|||110000438458|30
22.10.2018 04:00:00||AKTİFBANK|10.40.24.148|||110000438458|70
22.10.2018 04:00:00||AKTİFBANK|10.40.24.153|||110000438458|10
22.10.2018 04:00:00||AKTİFBANK|10.40.24.153|||110000438458|93
22.10.2018 04:00:00||AKTİFBANK|10.40.24.153|||110000438458|77
22.10.2018 04:00:00||AKTİFBANK|10.40.24.153|||110000438458|82
22.10.2018 04:00:00||AKTİFBANK|10.40.24.157|||110000438458|30
22.10.2018 04:00:00||AKTİFBANK|10.40.24.157|||110000438458|75
22.10.2018 04:00:00||AKTİFBANK|10.40.24.157|||110000438458|70
22.10.2018 04:00:00||AKTİFBANK|10.40.24.157|||110000438458|42
22.10.2018 04:00:00||AKTİFBANK|10.40.24.157|||110000438458|82
22.10.2018 04:00:00||AKTİFBANK|10.40.24.157|||110000438458|42
22.10.2018 04:00:00||AKTİFBANK|10.40.24.158|||110000438458|80
22.10.2018 04:00:00||AKTİFBANK|10.40.24.158|||110000438458|110
22.10.2018 04:00:00||AKTİFBANK|10.40.24.159|||110000438458|133
22.10.2018 04:00:00||AKTİFBANK|10.40.24.159|||110000438458|50
22.10.2018 04:00:00||AKTİFBANK|10.40.24.159|||110000438458|185
22.10.2018 04:00:00||AKTİFBANK|10.40.24.160|||110000438458|50
22.10.2018 04:00:00||AKTİFBANK|10.40.24.160|||110000438458|90
22.10.2018 04:00:00||AKTİFBANK|10.40.24.160|||110000438458|102
22.10.2018 04:00:00||AKTİFBANK|10.40.24.161|||110000438458|200
22.10.2018 04:00:00||AKTİFBANK|10.40.24.161|||110000438458|80
22.10.2018 04:00:00||AKTİFBANK|10.40.24.161|||110000438458|40
22.10.2018 04:00:00||AKTİFBANK|10.40.24.161|||110000438458|30
22.10.2018 04:00:00||AKTİFBANK|10.40.24.161|||110000438458|30
22.10.2018 04:00:00||AKTİFBANK|10.40.24.161|||110000438458|20
22.10.2018 04:00:00||AKTİFBANK|10.40.24.161|||110000438458|90
22.10.2018 04:00:00||AKTİFBANK|10.40.24.145|||110000438458|30
22.10.2018 04:00:00||AKTİFBANK|10.40.24.145|||110000438458|70
22.10.2018 04:00:00||AKTİFBANK|10.40.24.145|||110000438458|60
22.10.2018 04:00:00||AKTİFBANK|10.40.24.147|||110000438458|90
22.10.2018 04:00:00||AKTİFBANK|10.40.24.162|||110000438458|40
22.10.2018 04:00:00||AKTİFBANK|10.40.24.162|||110000438458|40
22.10.2018 04:00:00||AKTİFBANK|10.40.24.162|||110000438458|105
22.10.2018 04:00:00||AKTİFBANK|10.40.24.162|||110000438458|10
22.10.2018 04:00:00||AKTİFBANK|10.40.24.162|||110000438458|50
22.10.2018 04:00:00||AKTİFBANK|10.40.24.163|||110000438458|30
22.10.2018 04:00:00||AKTİFBANK|10.40.24.163|||110000438458|70
22.10.2018 04:00:00||AKTİFBANK|10.40.24.164|||110000438458|55
22.10.2018 04:00:00||AKTİFBANK|10.40.24.164|||110000438458|330
22.10.2018 04:00:00||AKTİFBANK|10.40.24.164|||110000438458|217
22.10.2018 04:00:00||AKTİFBANK|10.40.24.165|||110000438458|77
22.10.2018 04:00:00||AKTİFBANK|10.40.24.165|||110000438458|80
22.10.2018 04:00:00||AKTİFBANK|10.40.24.165|||110000438458|52
22.10.2018 04:00:00||AKTİFBANK|10.40.24.165|||110000438458|120
22.10.2018 04:00:00||AKTİFBANK|10.40.24.166|||110000438458|80
22.10.2018 04:00:00||AKTİFBANK|10.40.24.166|||110000438458|90
22.10.2018 04:00:00||AKTİFBANK|10.40.24.166|||110000438458|10
22.10.2018 04:00:00||AKTİFBANK|10.40.25.168|||110000438458|90
22.10.2018 04:00:00||AKTİFBANK|10.40.25.168|||110000438458|70
22.10.2018 04:00:00||AKTİFBANK|10.40.25.168|||110000438458|50
22.10.2018 04:00:00||AKTİFBANK|10.40.25.168|||110000438458|40
22.10.2018 04:00:00||AKTİFBANK|10.40.25.168|||110000438458|60
22.10.2018 04:00:00||AKTİFBANK|10.40.24.168|||110000438458|90
22.10.2018 04:00:00||AKTİFBANK|10.40.24.168|||110000438458|80
22.10.2018 04:00:00||AKTİFBANK|10.40.24.168|||110000438458|70
22.10.2018 04:00:00||AKTİFBANK|10.40.24.168|||110000438458|70
22.10.2018 04:00:00||AKTİFBANK|10.40.24.168|||110000438458|30
22.10.2018 04:00:00||AKTİFBANK|10.40.24.154|||110000438458|70
22.10.2018 04:00:00||AKTİFBANK|10.40.24.154|||110000438458|20
22.10.2018 04:00:00||AKTİFBANK|10.40.24.154|||110000438458|10
22.10.2018 04:00:00||AKTİFBANK|10.40.24.154|||110000438458|10
22.10.2018 04:00:00||AKTİFBANK|10.40.24.154|||110000438458|10
22.10.2018 04:00:00||AKTİFBANK|10.40.24.154|||110000438458|10
22.10.2018 04:00:00||AKTİFBANK|10.40.24.155|||110000438458|60
22.10.2018 04:00:00||AKTİFBANK|10.40.24.155|||110000438458|100
22.10.2018 04:00:00||AKTİFBANK|10.40.24.155|||110000438458|130
22.10.2018 04:00:00||AKTİFBANK|10.40.24.155|||110000438458|80
22.10.2018 04:00:00||AKTİFBANK|10.40.24.155|||110000438458|110
22.10.2018 04:00:00||AKTİFBANK|10.40.24.155|||110000438458|100
22.10.2018 04:00:00||AKTİFBANK|10.40.25.169|||110000438458|85
22.10.2018 04:00:00||AKTİFBANK|10.40.25.169|||110000438458|103
22.10.2018 04:00:00||AKTİFBANK|10.40.25.169|||110000438458|70
22.10.2018 04:00:00||AKTİFBANK|10.40.25.169|||110000438458|75
22.10.2018 04:00:00||AKTİFBANK|10.40.24.169|||110000438458|70
22.10.2018 04:00:00||AKTİFBANK|10.40.24.169|||110000438458|85
22.10.2018 04:00:00||AKTİFBANK|10.40.24.169|||110000438458|72
22.10.2018 04:00:00||AKTİFBANK|10.40.24.169|||110000438458|80
22.10.2018 04:00:00||AKTİFBANK|10.40.25.170|||110000438458|30
22.10.2018 04:00:00||AKTİFBANK|10.40.25.170|||110000438458|30
22.10.2018 04:00:00||AKTİFBANK|10.40.25.170|||110000438458|200
22.10.2018 04:00:00||AKTİFBANK|10.40.25.170|||110000438458|100
22.10.2018 04:00:00||AKTİFBANK|10.40.25.170|||110000438458|80
22.10.2018 04:00:00||AKTİFBANK|10.40.25.170|||110000438458|120
22.10.2018 04:00:00||AKTİFBANK|10.40.24.170|||110000438458|60
22.10.2018 04:00:00||AKTİFBANK|10.40.24.170|||110000438458|60
22.10.2018 04:00:00||AKTİFBANK|10.40.24.170|||110000438458|350
22.10.2018 04:00:00||AKTİFBANK|10.40.24.170|||110000438458|240
22.10.2018 04:00:00||AKTİFBANK|10.40.24.170|||110000438458|77
22.10.2018 04:00:00||AKTİFBANK|10.40.24.170|||110000438458|102
22.10.2018 04:00:00||AKTİFBANK|10.40.24.170|||110000438458|77
22.10.2018 04:00:00||AKTİFBANK|10.40.25.178|||110000438458|590
22.10.2018 04:00:00||AKTİFBANK|10.40.25.178|||110000438458|560
22.10.2018 04:00:00||AKTİFBANK|10.40.25.178|||110000438458|550
22.10.2018 04:00:00||AKTİFBANK|10.40.24.178|||110000438458|552
22.10.2018 04:00:00||AKTİFBANK|10.40.24.178|||110000438458|542
22.10.2018 04:00:00||AKTİFBANK|10.40.24.178|||110000438458|543
22.10.2018 04:00:00||AKTİFBANK|10.40.25.179|||110000438458|398
22.10.2018 04:00:00||AKTİFBANK|10.40.25.179|||110000438458|362
22.10.2018 04:00:00||AKTİFBANK|10.40.25.179|||110000438458|367
22.10.2018 04:00:00||AKTİFBANK|10.40.24.179|||110000438458|320
22.10.2018 04:00:00||AKTİFBANK|10.40.24.179|||110000438458|330
22.10.2018 04:00:00||AKTİFBANK|10.40.24.179|||110000438458|320
22.10.2018 04:00:00||AKTİFBANK|10.40.24.142|||110000438458|40
22.10.2018 04:00:00||AKTİFBANK|10.40.24.156|||110000438458|50
22.10.2018 04:00:00||AKTİFBANK|10.40.24.156|||110000438458|50
22.10.2018 04:00:00||AKTİFBANK|10.40.25.186|||110000438458|90
22.10.2018 04:00:00||AKTİFBANK|10.40.25.186|||110000438458|20
22.10.2018 04:00:00||AKTİFBANK|10.40.25.186|||110000438458|70
22.10.2018 04:00:00||AKTİFBANK|10.40.24.186|||110000438458|90
22.10.2018 04:00:00||AKTİFBANK|10.40.24.186|||110000438458|30
22.10.2018 04:00:00||AKTİFBANK|10.40.24.186|||110000438458|60
22.10.2018 04:00:00||AKTİFBANK|10.40.24.186|||110000438458|40
22.10.2018 04:00:00||AKTİFBANK|10.40.24.152|||110000438458|10
22.10.2018 04:00:00||AKTİFBANK|10.40.24.152|||110000438458|50
22.10.2018 04:00:00||AKTİFBANK|10.40.24.152|||110000438458|85
22.10.2018 04:00:00||AKTİFBANK|10.40.24.152|||110000438458|103
22.10.2018 04:00:00||AKTİFBANK|10.40.24.152|||110000438458|97
22.10.2018 04:00:00||AKTİFBANK|10.40.24.152|||110000438458|105
22.10.2018 04:00:00||AKTİFBANK|10.40.24.152|||110000438458|338
22.10.2018 04:00:00||AKTİFBANK|10.40.24.152|||110000438458|73
22.10.2018 04:00:00||AKTİFBANK|10.40.24.152|||110000438458|92
22.10.2018 04:00:00||AKTİFBANK|10.40.24.152|||110000438458|30
22.10.2018 04:00:00||AKTİFBANK|10.40.24.152|||110000438458|77
22.10.2018 04:00:00||AKTİFBANK|10.40.24.152|||110000438458|30
22.10.2018 04:00:00||AKTİFBANK|10.40.24.133|||110000438458|78
22.10.2018 04:00:00||AKTİFBANK|10.40.24.138|||110000438458|122
22.10.2018 04:00:00||AKTİFBANK|10.40.24.139|||110000438458|30
22.10.2018 04:00:00||AKTİFBANK|10.40.24.149|||110000438458|110
22.10.2018 04:00:00||AKTİFBANK|10.40.24.150|||110000438458|535
22.10.2018 04:00:00||AKTİFBANK|10.40.24.145|||110000438458|60
22.10.2018 04:00:00||AKTİFBANK|10.40.24.164|||110000438458|230
22.10.2018 04:00:00||AKTİFBANK|10.40.25.133|||110000438458|70
22.10.2018 04:00:00||AKTİFBANK|10.40.24.145|||110000438458|90
22.10.2018 04:00:00||BARİKAT İNTERNET GÜVENLİĞİ|10.40.25.201|||110000479736|115
22.10.2018 04:00:00||BARİKAT İNTERNET GÜVENLİĞİ|10.40.25.201|||110000479736|100
22.10.2018 04:00:00||BARİKAT İNTERNET GÜVENLİĞİ|10.40.24.201|||110000479736|133
22.10.2018 04:00:00||BARİKAT İNTERNET GÜVENLİĞİ|10.40.24.201|||110000479736|97
22.10.2018 04:00:00||BOYNER|10.40.27.100|||101367941673|51
22.10.2018 04:00:00||BOYNER|10.40.27.101|||101367941673|165
22.10.2018 04:00:00||BOYNER|10.40.26.101|||101367941673|165
22.10.2018 04:00:00||BOYNER|10.40.26.100|||101367941673|56
22.10.2018 04:00:00||BOYNER|10.40.27.94|||101367941673|210
22.10.2018 04:00:00||BOYNER|10.40.27.94|||101367941673|90
22.10.2018 04:00:00||BOYNER|10.40.27.94|||101367941673|90
22.10.2018 04:00:00||BOYNER|10.40.27.94|||101367941673|100
22.10.2018 04:00:00||BOYNER|10.40.26.94|||101367941673|90
22.10.2018 04:00:00||BOYNER|10.40.26.94|||101367941673|80
22.10.2018 04:00:00||BOYNER|10.40.26.94|||101367941673|80
22.10.2018 04:00:00||BOYNER|10.40.27.95|||101367941673|127
22.10.2018 04:00:00||BOYNER|10.40.27.95|||101367941673|125
22.10.2018 04:00:00||BOYNER|10.40.27.95|||101367941673|230
22.10.2018 04:00:00||BOYNER|10.40.26.95|||101367941673|117
22.10.2018 04:00:00||BOYNER|10.40.26.95|||101367941673|192
22.10.2018 04:00:00||BOYNER|10.40.26.95|||101367941673|135
22.10.2018 04:00:00||BOYNER|10.40.27.96|||101367941673|60
22.10.2018 04:00:00||BOYNER|10.40.27.96|||101367941673|52
22.10.2018 04:00:00||BOYNER|10.40.27.96|||101367941673|50
22.10.2018 04:00:00||BOYNER|10.40.27.96|||101367941673|40
22.10.2018 04:00:00||BOYNER|10.40.27.96|||101367941673|33
22.10.2018 04:00:00||BOYNER|10.40.27.96|||101367941673|147
22.10.2018 04:00:00||BOYNER|10.40.27.96|||101367941673|145
22.10.2018 04:00:00||BOYNER|10.40.27.96|||101367941673|175
22.10.2018 04:00:00||BOYNER|10.40.27.96|||101367941673|168
22.10.2018 04:00:00||BOYNER|10.40.26.96|||101367941673|30
22.10.2018 04:00:00||BOYNER|10.40.26.96|||101367941673|40
22.10.2018 04:00:00||BOYNER|10.40.26.96|||101367941673|30
22.10.2018 04:00:00||BOYNER|10.40.26.96|||101367941673|40
22.10.2018 04:00:00||BOYNER|10.40.26.96|||101367941673|40
22.10.2018 04:00:00||BOYNER|10.40.26.96|||101367941673|50
22.10.2018 04:00:00||BOYNER|10.40.26.96|||101367941673|185
22.10.2018 04:00:00||BOYNER|10.40.26.96|||101367941673|197
22.10.2018 04:00:00||BOYNER|10.40.26.96|||101367941673|158
22.10.2018 04:00:00||BOYNER|10.40.26.96|||101367941673|170
22.10.2018 04:00:00||BOYNER|10.40.27.97|||101367941673|60
22.10.2018 04:00:00||BOYNER|10.40.27.97|||101367941673|640
22.10.2018 04:00:00||BOYNER|10.40.27.97|||101367941673|638
22.10.2018 04:00:00||BOYNER|10.40.27.97|||101367941673|677
22.10.2018 04:00:00||BOYNER|10.40.27.97|||101367941673|40
22.10.2018 04:00:00||BOYNER|10.40.27.97|||101367941673|30
22.10.2018 04:00:00||BOYNER|10.40.27.97|||101367941673|50
22.10.2018 04:00:00||BOYNER|10.40.27.97|||101367941673|30
22.10.2018 04:00:00||BOYNER|10.40.27.97|||101367941673|172
22.10.2018 04:00:00||BOYNER|10.40.27.97|||101367941673|173
22.10.2018 04:00:00||BOYNER|10.40.27.97|||101367941673|188
22.10.2018 04:00:00||BOYNER|10.40.27.97|||101367941673|193
22.10.2018 04:00:00||BOYNER|10.40.26.97|||101367941673|30
22.10.2018 04:00:00||BOYNER|10.40.26.97|||101367941673|635
22.10.2018 04:00:00||BOYNER|10.40.26.97|||101367941673|632
22.10.2018 04:00:00||BOYNER|10.40.26.97|||101367941673|642
22.10.2018 04:00:00||BOYNER|10.40.26.97|||101367941673|30
22.10.2018 04:00:00||BOYNER|10.40.26.97|||101367941673|40
22.10.2018 04:00:00||BOYNER|10.40.26.97|||101367941673|50
22.10.2018 04:00:00||BOYNER|10.40.26.97|||101367941673|60
22.10.2018 04:00:00||BOYNER|10.40.26.97|||101367941673|30
22.10.2018 04:00:00||BOYNER|10.40.26.97|||101367941673|162
22.10.2018 04:00:00||BOYNER|10.40.26.97|||101367941673|173
22.10.2018 04:00:00||BOYNER|10.40.26.97|||101367941673|167
22.10.2018 04:00:00||BOYNER|10.40.26.97|||101367941673|152
22.10.2018 04:00:00||BOYNER|10.40.27.99|||101367941673|130
22.10.2018 04:00:00||BOYNER|10.40.27.99|||101367941673|88
22.10.2018 04:00:00||BOYNER|10.40.27.99|||101367941673|73
22.10.2018 04:00:00||BOYNER|10.40.26.99|||101367941673|12
22.10.2018 04:00:00||BOYNER|10.40.26.99|||101367941673|110
22.10.2018 04:00:00||BOYNER|10.40.26.99|||101367941673|110
22.10.2018 04:00:00||BOYNER|10.40.26.99|||101367941673|72
22.10.2018 04:00:00||ÇALIK HOLDİNG|10.40.25.99|||110000438407|136
22.10.2018 04:00:00||ÇALIK HOLDİNG|10.40.25.118|||110000438407|160
22.10.2018 04:00:00||ÇALIK HOLDİNG|10.40.24.118|||110000438407|43
22.10.2018 04:00:00||ÇALIK HOLDİNG|10.40.25.120|||110000438407|90
22.10.2018 04:00:00||ÇALIK HOLDİNG|10.40.24.95|||110000438407|50
22.10.2018 04:00:00||ÇALIK HOLDİNG|10.40.25.97|||110000438407|80
22.10.2018 04:00:00||ÇALIK HOLDİNG|10.40.25.103|||110000438407|90
22.10.2018 04:00:00||ÇALIK HOLDİNG|10.40.25.120|||110000438407|40
22.10.2018 04:00:00||ÇALIK HOLDİNG|10.40.25.96|||110000438407|70
22.10.2018 04:00:00||ÇALIK HOLDİNG|10.40.25.96|||110000438407|90
22.10.2018 04:00:00||ÇALIK HOLDİNG|10.40.25.96|||110000438407|122
22.10.2018 04:00:00||ÇALIK HOLDİNG|10.40.25.96|||110000438407|90
22.10.2018 04:00:00||ÇALIK HOLDİNG|10.40.25.115|||110000438407|160
22.10.2018 04:00:00||ÇALIK HOLDİNG|10.40.25.115|||110000438407|70
22.10.2018 04:00:00||ÇALIK HOLDİNG|10.40.25.95|||110000438407|93
22.10.2018 04:00:00||ÇALIK HOLDİNG|10.40.25.96|||110000438407|90
22.10.2018 04:00:00||ÇALIK HOLDİNG|10.40.25.96|||110000438407|100
22.10.2018 04:00:00||ÇALIK HOLDİNG|10.40.25.120|||110000438407|20
22.10.2018 04:00:00||ÇALIK HOLDİNG|10.40.25.95|||110000438407|48
22.10.2018 04:00:00||ÇALIK HOLDİNG|10.40.24.94|||110000438407|177
22.10.2018 04:00:00||ÇALIK HOLDİNG|10.40.25.97|||110000438407|110
22.10.2018 04:00:00||ÇALIK HOLDİNG|10.40.25.120|||110000438407|60
22.10.2018 04:00:00||ÇALIK HOLDİNG|10.40.25.115|||110000438407|82
22.10.2018 04:00:00||ÇALIK HOLDİNG|10.40.25.115|||110000438407|68
22.10.2018 04:00:00||ÇALIK HOLDİNG|10.40.25.115|||110000438407|67
22.10.2018 04:00:00||ÇALIK HOLDİNG|10.40.25.101|||110000438407|50
22.10.2018 04:00:00||ÇALIK HOLDİNG|10.40.25.101|||110000438407|110
22.10.2018 04:00:00||ÇALIK HOLDİNG|10.40.25.101|||110000438407|30
22.10.2018 04:00:00||ÇALIK HOLDİNG|10.40.25.101|||110000438407|10
22.10.2018 04:00:00||ÇALIK HOLDİNG|10.40.25.101|||110000438407|90
22.10.2018 04:00:00||ÇALIK HOLDİNG|10.40.25.101|||110000438407|30
22.10.2018 04:00:00||ÇALIK HOLDİNG|10.40.25.101|||110000438407|40
22.10.2018 04:00:00||ÇALIK HOLDİNG|10.40.25.101|||110000438407|40
22.10.2018 04:00:00||ÇALIK HOLDİNG|10.40.25.101|||110000438407|90
22.10.2018 04:00:00||ÇALIK HOLDİNG|10.40.25.101|||110000438407|90
22.10.2018 04:00:00||ÇALIK HOLDİNG|10.40.25.101|||110000438407|90
22.10.2018 04:00:00||ÇALIK HOLDİNG|10.40.25.94|||110000438407|180
22.10.2018 04:00:00||ÇALIK HOLDİNG|10.40.25.94|||110000438407|180
22.10.2018 04:00:00||ÇALIK HOLDİNG|10.40.25.94|||110000438407|170
22.10.2018 04:00:00||ÇALIK HOLDİNG|10.40.25.94|||110000438407|180
22.10.2018 04:00:00||ÇALIK HOLDİNG|10.40.24.94|||110000438407|185
22.10.2018 04:00:00||ÇALIK HOLDİNG|10.40.24.94|||110000438407|187
22.10.2018 04:00:00||ÇALIK HOLDİNG|10.40.24.94|||110000438407|183
22.10.2018 04:00:00||ÇALIK HOLDİNG|10.40.25.95|||110000438407|20
22.10.2018 04:00:00||ÇALIK HOLDİNG|10.40.25.95|||110000438407|338
22.10.2018 04:00:00||ÇALIK HOLDİNG|10.40.25.95|||110000438407|360
22.10.2018 04:00:00||ÇALIK HOLDİNG|10.40.25.95|||110000438407|40
22.10.2018 04:00:00||ÇALIK HOLDİNG|10.40.24.95|||110000438407|100
22.10.2018 04:00:00||ÇALIK HOLDİNG|10.40.24.95|||110000438407|83
22.10.2018 04:00:00||ÇALIK HOLDİNG|10.40.24.95|||110000438407|380
22.10.2018 04:00:00||ÇALIK HOLDİNG|10.40.24.95|||110000438407|392
22.10.2018 04:00:00||ÇALIK HOLDİNG|10.40.25.96|||110000438407|90
22.10.2018 04:00:00||ÇALIK HOLDİNG|10.40.25.96|||110000438407|100
22.10.2018 04:00:00||ÇALIK HOLDİNG|10.40.25.96|||110000438407|102
22.10.2018 04:00:00||ÇALIK HOLDİNG|10.40.25.96|||110000438407|277
22.10.2018 04:00:00||ÇALIK HOLDİNG|10.40.25.96|||110000438407|262
22.10.2018 04:00:00||ÇALIK HOLDİNG|10.40.25.96|||110000438407|100
22.10.2018 04:00:00||ÇALIK HOLDİNG|10.40.25.96|||110000438407|90
22.10.2018 04:00:00||ÇALIK HOLDİNG|10.40.25.96|||110000438407|100
22.10.2018 04:00:00||ÇALIK HOLDİNG|10.40.25.97|||110000438407|90
22.10.2018 04:00:00||ÇALIK HOLDİNG|10.40.25.97|||110000438407|80
22.10.2018 04:00:00||ÇALIK HOLDİNG|10.40.25.97|||110000438407|302
22.10.2018 04:00:00||ÇALIK HOLDİNG|10.40.25.98|||110000438407|50
22.10.2018 04:00:00||ÇALIK HOLDİNG|10.40.25.98|||110000438407|163
22.10.2018 04:00:00||ÇALIK HOLDİNG|10.40.25.98|||110000438407|160
22.10.2018 04:00:00||ÇALIK HOLDİNG|10.40.25.98|||110000438407|168
22.10.2018 04:00:00||ÇALIK HOLDİNG|10.40.25.98|||110000438407|172
22.10.2018 04:00:00||ÇALIK HOLDİNG|10.40.25.98|||110000438407|60
22.10.2018 04:00:00||ÇALIK HOLDİNG|10.40.25.98|||110000438407|210
22.10.2018 04:00:00||ÇALIK HOLDİNG|10.40.25.98|||110000438407|180
22.10.2018 04:00:00||ÇALIK HOLDİNG|10.40.25.98|||110000438407|170
22.10.2018 04:00:00||ÇALIK HOLDİNG|10.40.25.98|||110000438407|210
22.10.2018 04:00:00||ÇALIK HOLDİNG|10.40.25.98|||110000438407|70
22.10.2018 04:00:00||ÇALIK HOLDİNG|10.40.25.98|||110000438407|332
22.10.2018 04:00:00||ÇALIK HOLDİNG|10.40.24.98|||110000438407|90
22.10.2018 04:00:00||ÇALIK HOLDİNG|10.40.24.98|||110000438407|160
22.10.2018 04:00:00||ÇALIK HOLDİNG|10.40.24.98|||110000438407|202
22.10.2018 04:00:00||ÇALIK HOLDİNG|10.40.24.98|||110000438407|200
22.10.2018 04:00:00||ÇALIK HOLDİNG|10.40.24.98|||110000438407|160
22.10.2018 04:00:00||ÇALIK HOLDİNG|10.40.24.98|||110000438407|30
22.10.2018 04:00:00||ÇALIK HOLDİNG|10.40.24.98|||110000438407|163
22.10.2018 04:00:00||ÇALIK HOLDİNG|10.40.24.98|||110000438407|180
22.10.2018 04:00:00||ÇALIK HOLDİNG|10.40.24.98|||110000438407|170
22.10.2018 04:00:00||ÇALIK HOLDİNG|10.40.24.98|||110000438407|173
22.10.2018 04:00:00||ÇALIK HOLDİNG|10.40.24.98|||110000438407|20
22.10.2018 04:00:00||ÇALIK HOLDİNG|10.40.24.98|||110000438407|303
22.10.2018 04:00:00||ÇALIK HOLDİNG|10.40.25.100|||110000438407|38
22.10.2018 04:00:00||ÇALIK HOLDİNG|10.40.25.100|||110000438407|40
22.10.2018 04:00:00||ÇALIK HOLDİNG|10.40.24.101|||110000438407|60
22.10.2018 04:00:00||ÇALIK HOLDİNG|10.40.24.101|||110000438407|110
22.10.2018 04:00:00||ÇALIK HOLDİNG|10.40.24.101|||110000438407|20
22.10.2018 04:00:00||ÇALIK HOLDİNG|10.40.24.101|||110000438407|20
22.10.2018 04:00:00||ÇALIK HOLDİNG|10.40.24.101|||110000438407|40
22.10.2018 04:00:00||ÇALIK HOLDİNG|10.40.24.101|||110000438407|77
22.10.2018 04:00:00||ÇALIK HOLDİNG|10.40.24.101|||110000438407|30
22.10.2018 04:00:00||ÇALIK HOLDİNG|10.40.24.101|||110000438407|10
22.10.2018 04:00:00||ÇALIK HOLDİNG|10.40.24.101|||110000438407|20
22.10.2018 04:00:00||ÇALIK HOLDİNG|10.40.24.101|||110000438407|50
22.10.2018 04:00:00||ÇALIK HOLDİNG|10.40.24.101|||110000438407|30
22.10.2018 04:00:00||ÇALIK HOLDİNG|10.40.24.101|||110000438407|80
22.10.2018 04:00:00||ÇALIK HOLDİNG|10.40.24.101|||110000438407|80
22.10.2018 04:00:00||ÇALIK HOLDİNG|10.40.24.101|||110000438407|90
22.10.2018 04:00:00||ÇALIK HOLDİNG|10.40.25.102|||110000438407|100
22.10.2018 04:00:00||ÇALIK HOLDİNG|10.40.25.102|||110000438407|90
22.10.2018 04:00:00||ÇALIK HOLDİNG|10.40.25.102|||110000438407|150
22.10.2018 04:00:00||ÇALIK HOLDİNG|10.40.24.102|||110000438407|100
22.10.2018 04:00:00||ÇALIK HOLDİNG|10.40.24.102|||110000438407|90
22.10.2018 04:00:00||ÇALIK HOLDİNG|10.40.24.102|||110000438407|140
22.10.2018 04:00:00||ÇALIK HOLDİNG|10.40.25.103|||110000438407|90
22.10.2018 04:00:00||ÇALIK HOLDİNG|10.40.25.103|||110000438407|80
22.10.2018 04:00:00||ÇALIK HOLDİNG|10.40.25.103|||110000438407|10
22.10.2018 04:00:00||ÇALIK HOLDİNG|10.40.25.115|||110000438407|82
22.10.2018 04:00:00||ÇALIK HOLDİNG|10.40.24.103|||110000438407|100
22.10.2018 04:00:00||ÇALIK HOLDİNG|10.40.24.103|||110000438407|80
22.10.2018 04:00:00||ÇALIK HOLDİNG|10.40.24.103|||110000438407|80
22.10.2018 04:00:00||ÇALIK HOLDİNG|10.40.24.103|||110000438407|20
22.10.2018 04:00:00||ÇALIK HOLDİNG|10.40.24.103|||110000438407|10
22.10.2018 04:00:00||ÇALIK HOLDİNG|10.40.25.113|||110000438407|228
22.10.2018 04:00:00||ÇALIK HOLDİNG|10.40.25.113|||110000438407|237
22.10.2018 04:00:00||ÇALIK HOLDİNG|10.40.25.113|||110000438407|195
22.10.2018 04:00:00||ÇALIK HOLDİNG|10.40.25.113|||110000438407|205
22.10.2018 04:00:00||ÇALIK HOLDİNG|10.40.24.113|||110000438407|227
22.10.2018 04:00:00||ÇALIK HOLDİNG|10.40.24.113|||110000438407|225
22.10.2018 04:00:00||ÇALIK HOLDİNG|10.40.24.113|||110000438407|193
22.10.2018 04:00:00||ÇALIK HOLDİNG|10.40.24.113|||110000438407|162
22.10.2018 04:00:00||ÇALIK HOLDİNG|10.40.25.114|||110000438407|177
22.10.2018 04:00:00||ÇALIK HOLDİNG|10.40.25.114|||110000438407|407
22.10.2018 04:00:00||ÇALIK HOLDİNG|10.40.25.114|||110000438407|40
22.10.2018 04:00:00||ÇALIK HOLDİNG|10.40.24.114|||110000438407|20
22.10.2018 04:00:00||ÇALIK HOLDİNG|10.40.24.114|||110000438407|40
22.10.2018 04:00:00||ÇALIK HOLDİNG|10.40.24.114|||110000438407|157
22.10.2018 04:00:00||ÇALIK HOLDİNG|10.40.24.114|||110000438407|362
22.10.2018 04:00:00||ÇALIK HOLDİNG|10.40.24.115|||110000438407|150
22.10.2018 04:00:00||ÇALIK HOLDİNG|10.40.24.115|||110000438407|80
22.10.2018 04:00:00||ÇALIK HOLDİNG|10.40.24.115|||110000438407|90
22.10.2018 04:00:00||ÇALIK HOLDİNG|10.40.24.115|||110000438407|70
22.10.2018 04:00:00||ÇALIK HOLDİNG|10.40.24.115|||110000438407|83
22.10.2018 04:00:00||ÇALIK HOLDİNG|10.40.24.115|||110000438407|70
22.10.2018 04:00:00||ÇALIK HOLDİNG|10.40.25.116|||110000438407|102
22.10.2018 04:00:00||ÇALIK HOLDİNG|10.40.25.116|||110000438407|100
22.10.2018 04:00:00||ÇALIK HOLDİNG|10.40.25.116|||110000438407|283
22.10.2018 04:00:00||ÇALIK HOLDİNG|10.40.24.116|||110000438407|270
22.10.2018 04:00:00||ÇALIK HOLDİNG|10.40.24.116|||110000438407|100
22.10.2018 04:00:00||ÇALIK HOLDİNG|10.40.24.116|||110000438407|102
22.10.2018 04:00:00||ÇALIK HOLDİNG|10.40.25.117|||110000438407|250
22.10.2018 04:00:00||ÇALIK HOLDİNG|10.40.25.117|||110000438407|30
22.10.2018 04:00:00||ÇALIK HOLDİNG|10.40.25.117|||110000438407|27
22.10.2018 04:00:00||ÇALIK HOLDİNG|10.40.25.119|||110000438407|30
22.10.2018 04:00:00||ÇALIK HOLDİNG|10.40.25.119|||110000438407|30
22.10.2018 04:00:00||ÇALIK HOLDİNG|10.40.24.119|||110000438407|150
22.10.2018 04:00:00||ÇALIK HOLDİNG|10.40.24.119|||110000438407|30
22.10.2018 04:00:00||ÇALIK HOLDİNG|10.40.24.119|||110000438407|50
22.10.2018 04:00:00||ÇALIK HOLDİNG|10.40.25.120|||110000438407|108
22.10.2018 04:00:00||ÇALIK HOLDİNG|10.40.25.120|||110000438407|50
22.10.2018 04:00:00||ÇALIK HOLDİNG|10.40.25.120|||110000438407|20
22.10.2018 04:00:00||ÇALIK HOLDİNG|10.40.25.120|||110000438407|20
22.10.2018 04:00:00||ÇALIK HOLDİNG|10.40.25.120|||110000438407|30
22.10.2018 04:00:00||ÇALIK HOLDİNG|10.40.25.120|||110000438407|88
22.10.2018 04:00:00||ÇALIK HOLDİNG|10.40.25.120|||110000438407|90
22.10.2018 04:00:00||ÇALIK HOLDİNG|10.40.24.120|||110000438407|20
22.10.2018 04:00:00||ÇALIK HOLDİNG|10.40.24.120|||110000438407|35
22.10.2018 04:00:00||ÇALIK HOLDİNG|10.40.24.120|||110000438407|110
22.10.2018 04:00:00||ÇALIK HOLDİNG|10.40.24.120|||110000438407|100
22.10.2018 04:00:00||ÇALIK HOLDİNG|10.40.24.120|||110000438407|42
22.10.2018 04:00:00||ÇALIK HOLDİNG|10.40.24.120|||110000438407|80
22.10.2018 04:00:00||ÇALIK HOLDİNG|10.40.24.120|||110000438407|80
22.10.2018 04:00:00||ÇALIK HOLDİNG|10.40.24.120|||110000438407|70
22.10.2018 04:00:00||ÇALIK HOLDİNG|10.40.25.121|||110000438407|90
22.10.2018 04:00:00||ÇALIK HOLDİNG|10.40.25.121|||110000438407|100
22.10.2018 04:00:00||ÇALIK HOLDİNG|10.40.25.121|||110000438407|150
22.10.2018 04:00:00||ÇALIK HOLDİNG|10.40.24.121|||110000438407|100
22.10.2018 04:00:00||ÇALIK HOLDİNG|10.40.24.121|||110000438407|100
22.10.2018 04:00:00||ÇALIK HOLDİNG|10.40.24.121|||110000438407|140
22.10.2018 04:00:00||ÇALIK HOLDİNG|10.40.25.122|||110000438407|90
22.10.2018 04:00:00||ÇALIK HOLDİNG|10.40.25.122|||110000438407|82
22.10.2018 04:00:00||ÇALIK HOLDİNG|10.40.25.122|||110000438407|80
22.10.2018 04:00:00||ÇALIK HOLDİNG|10.40.25.122|||110000438407|30
22.10.2018 04:00:00||ÇALIK HOLDİNG|10.40.25.122|||110000438407|10
22.10.2018 04:00:00||ÇALIK HOLDİNG|10.40.24.122|||110000438407|90
22.10.2018 04:00:00||ÇALIK HOLDİNG|10.40.24.122|||110000438407|80
22.10.2018 04:00:00||ÇALIK HOLDİNG|10.40.24.122|||110000438407|88
22.10.2018 04:00:00||ÇALIK HOLDİNG|10.40.24.117|||110000438407|200
22.10.2018 04:00:00||ÇALIK HOLDİNG|10.40.24.117|||110000438407|30
22.10.2018 04:00:00||ÇALIK HOLDİNG|10.40.24.117|||110000438407|30
22.10.2018 04:00:00||ÇALIK HOLDİNG|10.40.24.97|||110000438407|102
22.10.2018 04:00:00||ÇALIK HOLDİNG|10.40.24.97|||110000438407|90
22.10.2018 04:00:00||ÇALIK HOLDİNG|10.40.24.97|||110000438407|80
22.10.2018 04:00:00||ÇALIK HOLDİNG|10.40.24.97|||110000438407|90
22.10.2018 04:00:00||ÇALIK HOLDİNG|10.40.24.97|||110000438407|317
22.10.2018 04:00:00||ÇALIK HOLDİNG|10.40.24.100|||110000438407|30
22.10.2018 04:00:00||ÇALIK HOLDİNG|10.40.24.100|||110000438407|40
22.10.2018 04:00:00||FIBABANKA|10.40.25.54|||101571767266|330
22.10.2018 04:00:00||FIBABANKA|10.40.27.54|||101571767266|310
22.10.2018 04:00:00||FIBABANKA|10.40.27.55|||101571767266|113
22.10.2018 04:00:00||FIBABANKA|10.40.24.54|||101571767266|318
22.10.2018 04:00:00||FIBABANKA|10.40.25.55|||101571767266|111
22.10.2018 04:00:00||FIBABANKA|10.40.24.55|||101571767266|112
22.10.2018 04:00:00||FIBABANKA|10.40.24.56|||101571767266|196
22.10.2018 04:00:00||FIBABANKA|10.40.25.56|||101571767266|197
22.10.2018 04:00:00||FIBABANKA|10.40.26.55|||101571767266|112
22.10.2018 04:00:00||FIBABANKA|10.40.26.54|||101571767266|317
22.10.2018 04:00:00||FIBABANKA|10.40.25.57|||101571767266|90
22.10.2018 04:00:00||FIBABANKA|10.40.25.57|||101571767266|90
22.10.2018 04:00:00||FIBABANKA|10.40.25.57|||101571767266|90
22.10.2018 04:00:00||FIBABANKA|10.40.26.51|||101571767266|20
22.10.2018 04:00:00||FIBABANKA|10.40.27.52|||101571767266|50
22.10.2018 04:00:00||FIBABANKA|10.40.27.52|||101571767266|60
22.10.2018 04:00:00||FIBABANKA|10.40.27.52|||101571767266|70
22.10.2018 04:00:00||FIBABANKA|10.40.27.73|||101571767266|10
22.10.2018 04:00:00||FIBABANKA|10.40.27.74|||101571767266|170
22.10.2018 04:00:00||FIBABANKA|10.40.25.53|||101571767266|32
22.10.2018 04:00:00||FIBABANKA|10.40.25.53|||101571767266|50
22.10.2018 04:00:00||FIBABANKA|10.40.27.53|||101571767266|58
22.10.2018 04:00:00||FIBABANKA|10.40.26.53|||101571767266|60
22.10.2018 04:00:00||FIBABANKA|10.40.25.51|||101571767266|20
22.10.2018 04:00:00||FIBABANKA|10.40.25.51|||101571767266|110
22.10.2018 04:00:00||FIBABANKA|10.40.24.51|||101571767266|20
22.10.2018 04:00:00||FIBABANKA|10.40.24.51|||101571767266|70
22.10.2018 04:00:00||FIBABANKA|10.40.24.51|||101571767266|100
22.10.2018 04:00:00||FIBABANKA|10.40.24.51|||101571767266|140
22.10.2018 04:00:00||FIBABANKA|10.40.24.51|||101571767266|30
22.10.2018 04:00:00||FIBABANKA|10.40.24.57|||101571767266|90
22.10.2018 04:00:00||FIBABANKA|10.40.24.57|||101571767266|80
22.10.2018 04:00:00||FIBABANKA|10.40.24.57|||101571767266|80
22.10.2018 04:00:00||FIBABANKA|10.40.24.52|||101571767266|40
22.10.2018 04:00:00||FIBABANKA|10.40.24.52|||101571767266|10
22.10.2018 04:00:00||FIBABANKA|10.40.26.73|||101571767266|40
22.10.2018 04:00:00||FIBABANKA|10.40.27.53|||101571767266|70
22.10.2018 04:00:00||FIBABANKA|10.40.26.51|||101571767266|70
22.10.2018 04:00:00||FIBABANKA|10.40.26.52|||101571767266|30
22.10.2018 04:00:00||FIBABANKA|10.40.26.52|||101571767266|90
22.10.2018 04:00:00||FIBABANKA|10.40.26.52|||101571767266|30
22.10.2018 04:00:00||FIBABANKA|10.40.25.51|||101571767266|140
22.10.2018 04:00:00||FIBABANKA|10.40.25.51|||101571767266|40
22.10.2018 04:00:00||FIBABANKA|10.40.25.51|||101571767266|40
22.10.2018 04:00:00||FIBABANKA|10.40.25.51|||101571767266|70
22.10.2018 04:00:00||FIBABANKA|10.40.24.51|||101571767266|30
22.10.2018 04:00:00||FIBABANKA|10.40.24.58|||101571767266|10
22.10.2018 04:00:00||FIBABANKA|10.40.24.58|||101571767266|10
22.10.2018 04:00:00||FIBABANKA|10.40.25.59|||101571767266|70
22.10.2018 04:00:00||FIBABANKA|10.40.25.59|||101571767266|92
22.10.2018 04:00:00||FIBABANKA|10.40.25.59|||101571767266|90
22.10.2018 04:00:00||FIBABANKA|10.40.25.59|||101571767266|40
22.10.2018 04:00:00||FIBABANKA|10.40.25.59|||101571767266|122
22.10.2018 04:00:00||FIBABANKA|10.40.25.59|||101571767266|60
22.10.2018 04:00:00||FIBABANKA|10.40.25.59|||101571767266|60
22.10.2018 04:00:00||FIBABANKA|10.40.25.59|||101571767266|153
22.10.2018 04:00:00||FIBABANKA|10.40.25.59|||101571767266|60
22.10.2018 04:00:00||FIBABANKA|10.40.24.59|||101571767266|70
22.10.2018 04:00:00||FIBABANKA|10.40.24.59|||101571767266|122
22.10.2018 04:00:00||FIBABANKA|10.40.24.59|||101571767266|73
22.10.2018 04:00:00||FIBABANKA|10.40.24.59|||101571767266|50
22.10.2018 04:00:00||FIBABANKA|10.40.24.59|||101571767266|130
22.10.2018 04:00:00||FIBABANKA|10.40.24.59|||101571767266|70
22.10.2018 04:00:00||FIBABANKA|10.40.24.59|||101571767266|58
22.10.2018 04:00:00||FIBABANKA|10.40.24.59|||101571767266|148
22.10.2018 04:00:00||FIBABANKA|10.40.24.59|||101571767266|60
22.10.2018 04:00:00||FIBABANKA|10.40.25.60|||101571767266|108
22.10.2018 04:00:00||FIBABANKA|10.40.25.60|||101571767266|35
22.10.2018 04:00:00||FIBABANKA|10.40.25.60|||101571767266|110
22.10.2018 04:00:00||FIBABANKA|10.40.25.60|||101571767266|40
22.10.2018 04:00:00||FIBABANKA|10.40.24.60|||101571767266|110
22.10.2018 04:00:00||FIBABANKA|10.40.24.60|||101571767266|57
22.10.2018 04:00:00||FIBABANKA|10.40.24.60|||101571767266|40
22.10.2018 04:00:00||FIBABANKA|10.40.24.60|||101571767266|102
22.10.2018 04:00:00||FIBABANKA|10.40.24.60|||101571767266|50
22.10.2018 04:00:00||FIBABANKA|10.40.25.72|||101571767266|70
22.10.2018 04:00:00||FIBABANKA|10.40.25.72|||101571767266|40
22.10.2018 04:00:00||FIBABANKA|10.40.25.72|||101571767266|30
22.10.2018 04:00:00||FIBABANKA|10.40.24.72|||101571767266|140
22.10.2018 04:00:00||FIBABANKA|10.40.24.72|||101571767266|73
22.10.2018 04:00:00||FIBABANKA|10.40.24.72|||101571767266|30
22.10.2018 04:00:00||FIBABANKA|10.40.24.72|||101571767266|40
22.10.2018 04:00:00||FIBABANKA|10.40.25.74|||101571767266|30
22.10.2018 04:00:00||FIBABANKA|10.40.25.75|||101571767266|37
22.10.2018 04:00:00||FIBABANKA|10.40.25.75|||101571767266|85
22.10.2018 04:00:00||FIBABANKA|10.40.25.75|||101571767266|142
22.10.2018 04:00:00||FIBABANKA|10.40.25.75|||101571767266|162
22.10.2018 04:00:00||FIBABANKA|10.40.25.75|||101571767266|180
22.10.2018 04:00:00||FIBABANKA|10.40.25.75|||101571767266|203
22.10.2018 04:00:00||FIBABANKA|10.40.24.75|||101571767266|48
22.10.2018 04:00:00||FIBABANKA|10.40.24.75|||101571767266|52
22.10.2018 04:00:00||FIBABANKA|10.40.24.75|||101571767266|163
22.10.2018 04:00:00||FIBABANKA|10.40.24.75|||101571767266|150
22.10.2018 04:00:00||FIBABANKA|10.40.24.76|||101571767266|40
22.10.2018 04:00:00||FIBABANKA|10.40.24.76|||101571767266|67
22.10.2018 04:00:00||FIBABANKA|10.40.24.76|||101571767266|10
22.10.2018 04:00:00||FIBABANKA|10.40.24.53|||101571767266|30
22.10.2018 04:00:00||FIBABANKA|10.40.24.53|||101571767266|60
22.10.2018 04:00:00||FIBABANKA|10.40.26.57|||101571767266|90
22.10.2018 04:00:00||FIBABANKA|10.40.26.57|||101571767266|83
22.10.2018 04:00:00||FIBABANKA|10.40.26.57|||101571767266|80
22.10.2018 04:00:00||FIBABANKA|10.40.27.72|||101571767266|40
22.10.2018 04:00:00||FIBABANKA|10.40.27.72|||101571767266|50
22.10.2018 04:00:00||FIBABANKA|10.40.27.72|||101571767266|33
22.10.2018 04:00:00||FIBABANKA|10.40.27.72|||101571767266|140
22.10.2018 04:00:00||FIBABANKA|10.40.27.72|||101571767266|60
22.10.2018 04:00:00||FIBABANKA|10.40.26.72|||101571767266|30
22.10.2018 04:00:00||FIBABANKA|10.40.26.72|||101571767266|140
22.10.2018 04:00:00||FIBABANKA|10.40.26.72|||101571767266|70
22.10.2018 04:00:00||FIBABANKA|10.40.26.72|||101571767266|30
22.10.2018 04:00:00||FIBABANKA|10.40.27.73|||101571767266|30
22.10.2018 04:00:00||FIBABANKA|10.40.27.73|||101571767266|100
22.10.2018 04:00:00||FIBABANKA|10.40.27.73|||101571767266|40
22.10.2018 04:00:00||FIBABANKA|10.40.27.73|||101571767266|43
22.10.2018 04:00:00||FIBABANKA|10.40.27.73|||101571767266|260
22.10.2018 04:00:00||FIBABANKA|10.40.26.73|||101571767266|40
22.10.2018 04:00:00||FIBABANKA|10.40.26.73|||101571767266|70
22.10.2018 04:00:00||FIBABANKA|10.40.26.73|||101571767266|30
22.10.2018 04:00:00||FIBABANKA|10.40.26.73|||101571767266|8
22.10.2018 04:00:00||FIBABANKA|10.40.27.74|||101571767266|72
22.10.2018 04:00:00||FIBABANKA|10.40.27.74|||101571767266|155
22.10.2018 04:00:00||FIBABANKA|10.40.27.74|||101571767266|175
22.10.2018 04:00:00||FIBABANKA|10.40.26.74|||101571767266|73
22.10.2018 04:00:00||FIBABANKA|10.40.26.74|||101571767266|187
22.10.2018 04:00:00||FIBABANKA|10.40.26.74|||101571767266|182
22.10.2018 04:00:00||FIBABANKA|10.40.26.74|||101571767266|178
22.10.2018 04:00:00||FIBABANKA|10.40.27.75|||101571767266|10
22.10.2018 04:00:00||FIBABANKA|10.40.27.75|||101571767266|10
22.10.2018 04:00:00||FIBABANKA|10.40.26.79|||101571767266|10
22.10.2018 04:00:00||FIBABANKA|10.40.27.79|||101571767266|10
22.10.2018 04:00:00||FIBABANKA|10.40.27.79|||101571767266|10
22.10.2018 04:00:00||FIBABANKA|10.40.26.79|||101571767266|10
22.10.2018 04:00:00||FIBABANKA|10.40.27.77|||101571767266|157
22.10.2018 04:00:00||FIBABANKA|10.40.26.77|||101571767266|177
22.10.2018 04:00:00||FIBABANKA|10.40.27.77|||101571767266|155
22.10.2018 04:00:00||FIBABANKA|10.40.25.74|||101571767266|230
22.10.2018 04:00:00||FIBABANKA|10.40.24.75|||101571767266|173
22.10.2018 04:00:00||FIBABANKA|10.40.24.53|||101571767266|165
22.10.2018 04:00:00||FIBABANKA|10.40.24.53|||101571767266|175
22.10.2018 04:00:00||FIBABANKA|10.40.25.52|||101571767266|10
22.10.2018 04:00:00||FIBABANKA|10.40.25.52|||101571767266|50
22.10.2018 04:00:00||FIBABANKA|10.40.25.52|||101571767266|63
22.10.2018 04:00:00||FIBABANKA|10.40.25.53|||101571767266|147
22.10.2018 04:00:00||FIBABANKA|10.40.25.53|||101571767266|150
22.10.2018 04:00:00||FIBABANKA|10.40.27.51|||101571767266|30
22.10.2018 04:00:00||FIBABANKA|10.40.27.51|||101571767266|20
22.10.2018 04:00:00||FIBABANKA|10.40.27.51|||101571767266|102
22.10.2018 04:00:00||FIBABANKA|10.40.27.51|||101571767266|140
22.10.2018 04:00:00||FIBABANKA|10.40.27.51|||101571767266|70
22.10.2018 04:00:00||FIBABANKA|10.40.27.51|||101571767266|40
22.10.2018 04:00:00||FIBABANKA|10.40.27.51|||101571767266|40
22.10.2018 04:00:00||FIBABANKA|10.40.26.51|||101571767266|10
22.10.2018 04:00:00||FIBABANKA|10.40.26.51|||101571767266|110
22.10.2018 04:00:00||FIBABANKA|10.40.26.51|||101571767266|130
22.10.2018 04:00:00||FIBABANKA|10.40.26.51|||101571767266|30
22.10.2018 04:00:00||FIBABANKA|10.40.26.51|||101571767266|30
22.10.2018 04:00:00||FIBABANKA|10.40.24.74|||101571767266|30
22.10.2018 04:00:00||FIBABANKA|10.40.25.76|||101571767266|60
22.10.2018 04:00:00||FIBABANKA|10.40.25.76|||101571767266|40
22.10.2018 04:00:00||FIBABANKA|10.40.25.76|||101571767266|10
22.10.2018 04:00:00||FIBABANKA|10.40.26.53|||101571767266|42
22.10.2018 04:00:00||FIBABANKA|10.40.26.53|||101571767266|157
22.10.2018 04:00:00||FIBABANKA|10.40.25.76|||101571767266|10
22.10.2018 04:00:00||FIBABANKA|10.40.27.53|||101571767266|155
22.10.2018 04:00:00||FIBABANKA|10.40.27.53|||101571767266|160
22.10.2018 04:00:00||FIBABANKA|10.40.26.53|||101571767266|147
22.10.2018 04:00:00||FIBABANKA|10.40.27.57|||101571767266|80
22.10.2018 04:00:00||FIBABANKA|10.40.27.57|||101571767266|80
22.10.2018 04:00:00||FIBABANKA|10.40.27.57|||101571767266|80
22.10.2018 04:00:00||HAVAŞ|10.40.24.48|||110000479675|758
22.10.2018 04:00:00||HAVAŞ|10.40.24.48|||110000479675|765
22.10.2018 04:00:00||HAVAŞ|10.40.25.48|||110000479675|753
22.10.2018 04:00:00||HAVAŞ|10.40.24.45|||110000479675|70
22.10.2018 04:00:00||HAVAŞ|10.40.25.45|||110000479675|67
22.10.2018 04:00:00||HAVAŞ|10.40.25.47|||110000479675|70
22.10.2018 04:00:00||HAVAŞ|10.40.24.46|||110000479675|80
22.10.2018 04:00:00||HAVAŞ|10.40.24.47|||110000479675|30
22.10.2018 04:00:00||HAVAŞ|10.40.24.47|||110000479675|90
22.10.2018 04:00:00||HAVAŞ|10.40.24.47|||110000479675|90
22.10.2018 04:00:00||HAVAŞ|10.40.25.46|||110000479675|10
22.10.2018 04:00:00||HAVAŞ|10.40.25.46|||110000479675|60
22.10.2018 04:00:00||HAVAŞ|10.40.24.48|||110000479675|745
22.10.2018 04:00:00||HAVAŞ|10.40.24.46|||110000479675|60
22.10.2018 04:00:00||HAVAŞ|10.40.24.46|||110000479675|70
22.10.2018 04:00:00||HAVAŞ|10.40.24.47|||110000479675|10
22.10.2018 04:00:00||HAVAŞ|10.40.25.48|||110000479675|750
22.10.2018 04:00:00||HAVAŞ|10.40.25.48|||110000479675|762
22.10.2018 04:00:00||HAVAŞ|10.40.25.45|||110000479675|100
22.10.2018 04:00:00||HAVAŞ|10.40.24.45|||110000479675|50
22.10.2018 04:00:00||HAVAŞ|10.40.24.45|||110000479675|170
22.10.2018 04:00:00||HAVAŞ|10.40.24.45|||110000479675|100
22.10.2018 04:00:00||HAVAŞ|10.40.25.47|||110000479675|70
22.10.2018 04:00:00||HAVAŞ|10.40.25.47|||110000479675|223
22.10.2018 04:00:00||HAVAŞ|10.40.25.47|||110000479675|57
22.10.2018 04:00:00||HAVAŞ|10.40.25.47|||110000479675|88
22.10.2018 04:00:00||HAVAŞ|10.40.25.47|||110000479675|88
22.10.2018 04:00:00||HAVAŞ|10.40.25.47|||110000479675|90
22.10.2018 04:00:00||HAVAŞ|10.40.25.47|||110000479675|138
22.10.2018 04:00:00||HAVAŞ|10.40.25.47|||110000479675|180
22.10.2018 04:00:00||HAVAŞ|10.40.25.47|||110000479675|90
22.10.2018 04:00:00||HAVAŞ|10.40.25.47|||110000479675|90
22.10.2018 04:00:00||HAVAŞ|10.40.25.47|||110000479675|90
22.10.2018 04:00:00||HAVAŞ|10.40.25.45|||110000479675|90
22.10.2018 04:00:00||HAVAŞ|10.40.25.45|||110000479675|88
22.10.2018 04:00:00||HAVAŞ|10.40.25.46|||110000479675|10
22.10.2018 04:00:00||HAVAŞ|10.40.25.46|||110000479675|10
22.10.2018 04:00:00||HAVAŞ|10.40.25.46|||110000479675|20
22.10.2018 04:00:00||HAVAŞ|10.40.25.46|||110000479675|20
22.10.2018 04:00:00||HAVAŞ|10.40.25.46|||110000479675|50
22.10.2018 04:00:00||HAVAŞ|10.40.25.46|||110000479675|100
22.10.2018 04:00:00||HAVAŞ|10.40.25.46|||110000479675|62
22.10.2018 04:00:00||HAVAŞ|10.40.25.46|||110000479675|70
22.10.2018 04:00:00||HAVAŞ|10.40.25.46|||110000479675|70
22.10.2018 04:00:00||HAVAŞ|10.40.24.46|||110000479675|20
22.10.2018 04:00:00||HAVAŞ|10.40.24.46|||110000479675|20
22.10.2018 04:00:00||HAVAŞ|10.40.24.46|||110000479675|2
22.10.2018 04:00:00||HAVAŞ|10.40.24.46|||110000479675|10
22.10.2018 04:00:00||HAVAŞ|10.40.24.46|||110000479675|10
22.10.2018 04:00:00||HAVAŞ|10.40.24.46|||110000479675|10
22.10.2018 04:00:00||HAVAŞ|10.40.24.46|||110000479675|60
22.10.2018 04:00:00||HAVAŞ|10.40.24.46|||110000479675|110
22.10.2018 04:00:00||HAVAŞ|10.40.24.47|||110000479675|30
22.10.2018 04:00:00||HAVAŞ|10.40.24.47|||110000479675|218
22.10.2018 04:00:00||HAVAŞ|10.40.24.47|||110000479675|60
22.10.2018 04:00:00||HAVAŞ|10.40.24.47|||110000479675|53
22.10.2018 04:00:00||HAVAŞ|10.40.24.47|||110000479675|153
22.10.2018 04:00:00||HAVAŞ|10.40.24.47|||110000479675|100
22.10.2018 04:00:00||HAVAŞ|10.40.24.47|||110000479675|100
22.10.2018 04:00:00||HAVAŞ|10.40.24.46|||110000479675|10
22.10.2018 04:00:00||MARS CINEMA|10.40.24.203|||110000472614|80
22.10.2018 04:00:00||MARS CINEMA|10.40.24.203|||110000472614|165
22.10.2018 04:00:00||MARS CINEMA|10.40.24.203|||110000472614|80
22.10.2018 04:00:00||MARS CINEMA|10.40.24.204|||110000472614|65
22.10.2018 04:00:00||MARS CINEMA|10.40.24.203|||110000472614|102
22.10.2018 04:00:00||MARS CINEMA|10.40.24.204|||110000472614|20
22.10.2018 04:00:00||MARS CINEMA|10.40.24.204|||110000472614|90
22.10.2018 04:00:00||MARS CINEMA|10.40.25.203|||110000472614|157
22.10.2018 04:00:00||MARS CINEMA|10.40.25.203|||110000472614|92
22.10.2018 04:00:00||MARS CINEMA|10.40.25.203|||110000472614|177
22.10.2018 04:00:00||MARS CINEMA|10.40.25.203|||110000472614|92
22.10.2018 04:00:00||MARS CINEMA|10.40.25.203|||110000472614|80
22.10.2018 04:00:00||MARS CINEMA|10.40.25.203|||110000472614|110
22.10.2018 04:00:00||MARS CINEMA|10.40.25.203|||110000472614|80
22.10.2018 04:00:00||MARS CINEMA|10.40.25.203|||110000472614|153
22.10.2018 04:00:00||MARS CINEMA|10.40.25.203|||110000472614|90
22.10.2018 04:00:00||MARS CINEMA|10.40.25.203|||110000472614|110
22.10.2018 04:00:00||MARS CINEMA|10.40.25.203|||110000472614|92
22.10.2018 04:00:00||MARS CINEMA|10.40.25.203|||110000472614|65
22.10.2018 04:00:00||MARS CINEMA|10.40.25.203|||110000472614|190
22.10.2018 04:00:00||MARS CINEMA|10.40.25.204|||110000472614|110
22.10.2018 04:00:00||MARS CINEMA|10.40.25.204|||110000472614|70
22.10.2018 04:00:00||MARS CINEMA|10.40.25.204|||110000472614|80
22.10.2018 04:00:00||MARS CINEMA|10.40.25.204|||110000472614|100
22.10.2018 04:00:00||MARS CINEMA|10.40.25.204|||110000472614|20
22.10.2018 04:00:00||MARS CINEMA|10.40.25.204|||110000472614|20
22.10.2018 04:00:00||MARS CINEMA|10.40.25.204|||110000472614|30
22.10.2018 04:00:00||MARS CINEMA|10.40.25.204|||110000472614|40
22.10.2018 04:00:00||MARS CINEMA|10.40.25.204|||110000472614|90
22.10.2018 04:00:00||MARS CINEMA|10.40.25.204|||110000472614|120
22.10.2018 04:00:00||MARS CINEMA|10.40.25.204|||110000472614|80
22.10.2018 04:00:00||MARS CINEMA|10.40.25.204|||110000472614|80
22.10.2018 04:00:00||MARS CINEMA|10.40.25.204|||110000472614|110
22.10.2018 04:00:00||MARS CINEMA|10.40.25.204|||110000472614|100
22.10.2018 04:00:00||MARS CINEMA|10.40.24.203|||110000472614|80
22.10.2018 04:00:00||MARS CINEMA|10.40.24.203|||110000472614|90
22.10.2018 04:00:00||MARS CINEMA|10.40.24.203|||110000472614|140
22.10.2018 04:00:00||MARS CINEMA|10.40.24.203|||110000472614|57
22.10.2018 04:00:00||MARS CINEMA|10.40.24.203|||110000472614|140
22.10.2018 04:00:00||MARS CINEMA|10.40.24.203|||110000472614|153
22.10.2018 04:00:00||MARS CINEMA|10.40.24.203|||110000472614|100
22.10.2018 04:00:00||MARS CINEMA|10.40.24.203|||110000472614|185
22.10.2018 04:00:00||MARS CINEMA|10.40.24.204|||110000472614|112
22.10.2018 04:00:00||MARS CINEMA|10.40.24.204|||110000472614|93
22.10.2018 04:00:00||MARS CINEMA|10.40.24.204|||110000472614|90
22.10.2018 04:00:00||MARS CINEMA|10.40.24.204|||110000472614|20
22.10.2018 04:00:00||MARS CINEMA|10.40.24.204|||110000472614|10
22.10.2018 04:00:00||MARS CINEMA|10.40.24.204|||110000472614|95
22.10.2018 04:00:00||MARS CINEMA|10.40.24.204|||110000472614|125
22.10.2018 04:00:00||MARS CINEMA|10.40.24.204|||110000472614|90
22.10.2018 04:00:00||MARS CINEMA|10.40.24.204|||110000472614|110
22.10.2018 04:00:00||MARS CINEMA|10.40.24.204|||110000472614|80
22.10.2018 04:00:00||MARS CINEMA|10.40.25.206|||110000472614|122
22.10.2018 04:00:00||MARS CINEMA|10.40.25.206|||110000472614|40
22.10.2018 04:00:00||MARS CINEMA|10.40.25.206|||110000472614|40
22.10.2018 04:00:00||MARS CINEMA|10.40.25.206|||110000472614|40
22.10.2018 04:00:00||MARS CINEMA|10.40.25.206|||110000472614|20
22.10.2018 04:00:00||MARS CINEMA|10.40.25.206|||110000472614|20
22.10.2018 04:00:00||MARS CINEMA|10.40.25.206|||110000472614|30
22.10.2018 04:00:00||MARS CINEMA|10.40.25.206|||110000472614|60
22.10.2018 04:00:00||MARS CINEMA|10.40.25.206|||110000472614|40
22.10.2018 04:00:00||MARS CINEMA|10.40.25.206|||110000472614|82
22.10.2018 04:00:00||MARS CINEMA|10.40.25.206|||110000472614|90
22.10.2018 04:00:00||MARS CINEMA|10.40.24.206|||110000472614|150
22.10.2018 04:00:00||MARS CINEMA|10.40.24.206|||110000472614|40
22.10.2018 04:00:00||MARS CINEMA|10.40.24.206|||110000472614|40
22.10.2018 04:00:00||MARS CINEMA|10.40.24.206|||110000472614|43
22.10.2018 04:00:00||MARS CINEMA|10.40.24.206|||110000472614|30
22.10.2018 04:00:00||MARS CINEMA|10.40.24.206|||110000472614|30
22.10.2018 04:00:00||MARS CINEMA|10.40.24.206|||110000472614|185
22.10.2018 04:00:00||MARS CINEMA|10.40.24.206|||110000472614|160
22.10.2018 04:00:00||MARS CINEMA|10.40.24.206|||110000472614|20
22.10.2018 04:00:00||MARS CINEMA|10.40.24.206|||110000472614|80
22.10.2018 04:00:00||MARS CINEMA|10.40.24.206|||110000472614|77
22.10.2018 04:00:00||MARS CINEMA|10.40.24.203|||110000472614|100
22.10.2018 04:00:00||MARS CINEMA|10.40.24.204|||110000472614|40
22.10.2018 04:00:00||PEGASUS|10.40.27.66|||110000423831|113
22.10.2018 04:00:00||PEGASUS|10.40.26.66|||110000423831|93
22.10.2018 04:00:00||PEGASUS|10.40.26.84|||110000423831|215
22.10.2018 04:00:00||PEGASUS|10.40.27.85|||110000423831|117
22.10.2018 04:00:00||PEGASUS|10.40.26.85|||110000423831|122
22.10.2018 04:00:00||PEGASUS|10.40.27.64|||110000423831|70
22.10.2018 04:00:00||PEGASUS|10.40.27.64|||110000423831|70
22.10.2018 04:00:00||PEGASUS|10.40.27.63|||110000423831|58
22.10.2018 04:00:00||PEGASUS|10.40.27.63|||110000423831|70
22.10.2018 04:00:00||PEGASUS|10.40.27.63|||110000423831|90
22.10.2018 04:00:00||PEGASUS|10.40.26.63|||110000423831|110
22.10.2018 04:00:00||PEGASUS|10.40.27.67|||110000423831|360
22.10.2018 04:00:00||PEGASUS|10.40.27.64|||110000423831|270
22.10.2018 04:00:00||PEGASUS|10.40.27.64|||110000423831|260
22.10.2018 04:00:00||PEGASUS|10.40.27.63|||110000423831|72
22.10.2018 04:00:00||PEGASUS|10.40.27.63|||110000423831|92
22.10.2018 04:00:00||PEGASUS|10.40.27.63|||110000423831|80
22.10.2018 04:00:00||PEGASUS|10.40.26.63|||110000423831|110
22.10.2018 04:00:00||PEGASUS|10.40.26.63|||110000423831|110
22.10.2018 04:00:00||PEGASUS|10.40.27.81|||110000423831|443
22.10.2018 04:00:00||PEGASUS|10.40.27.81|||110000423831|418
22.10.2018 04:00:00||PEGASUS|10.40.26.63|||110000423831|90
22.10.2018 04:00:00||PEGASUS|10.40.26.63|||110000423831|60
22.10.2018 04:00:00||PEGASUS|10.40.26.67|||110000423831|30
22.10.2018 04:00:00||PEGASUS|10.40.26.67|||110000423831|340
22.10.2018 04:00:00||PEGASUS|10.40.26.67|||110000423831|60
22.10.2018 04:00:00||PEGASUS|10.40.26.67|||110000423831|40
22.10.2018 04:00:00||PEGASUS|10.40.26.67|||110000423831|70
22.10.2018 04:00:00||PEGASUS|10.40.26.68|||110000423831|100
22.10.2018 04:00:00||PEGASUS|10.40.27.64|||110000423831|278
22.10.2018 04:00:00||PEGASUS|10.40.27.64|||110000423831|267
22.10.2018 04:00:00||PEGASUS|10.40.27.64|||110000423831|278
22.10.2018 04:00:00||PEGASUS|10.40.27.64|||110000423831|267
22.10.2018 04:00:00||PEGASUS|10.40.27.64|||110000423831|270
22.10.2018 04:00:00||PEGASUS|10.40.27.86|||110000423831|340
22.10.2018 04:00:00||PEGASUS|10.40.27.63|||110000423831|90
22.10.2018 04:00:00||PEGASUS|10.40.26.63|||110000423831|130
22.10.2018 04:00:00||PEGASUS|10.40.26.63|||110000423831|60
22.10.2018 04:00:00||PEGASUS|10.40.26.63|||110000423831|80
22.10.2018 04:00:00||PEGASUS|10.40.26.67|||110000423831|340
22.10.2018 04:00:00||PEGASUS|10.40.27.63|||110000423831|50
22.10.2018 04:00:00||PEGASUS|10.40.27.63|||110000423831|60
22.10.2018 04:00:00||PEGASUS|10.40.27.81|||110000423831|423
22.10.2018 04:00:00||PEGASUS|10.40.26.62|||110000423831|92
22.10.2018 04:00:00||PEGASUS|10.40.26.63|||110000423831|50
22.10.2018 04:00:00||PEGASUS|10.40.26.63|||110000423831|100
22.10.2018 04:00:00||PEGASUS|10.40.26.63|||110000423831|40
22.10.2018 04:00:00||PEGASUS|10.40.26.63|||110000423831|70
22.10.2018 04:00:00||PEGASUS|10.40.26.67|||110000423831|340
22.10.2018 04:00:00||PEGASUS|10.40.27.64|||110000423831|275
22.10.2018 04:00:00||PEGASUS|10.40.27.64|||110000423831|272
22.10.2018 04:00:00||PEGASUS|10.40.27.64|||110000423831|260
22.10.2018 04:00:00||PEGASUS|10.40.27.64|||110000423831|330
22.10.2018 04:00:00||PEGASUS|10.40.27.64|||110000423831|302
22.10.2018 04:00:00||PEGASUS|10.40.27.86|||110000423831|40
22.10.2018 04:00:00||PEGASUS|10.40.27.63|||110000423831|75
22.10.2018 04:00:00||PEGASUS|10.40.27.63|||110000423831|80
22.10.2018 04:00:00||PEGASUS|10.40.27.63|||110000423831|75
22.10.2018 04:00:00||PEGASUS|10.40.27.63|||110000423831|90
22.10.2018 04:00:00||PEGASUS|10.40.27.63|||110000423831|147
22.10.2018 04:00:00||PEGASUS|10.40.27.63|||110000423831|220
22.10.2018 04:00:00||PEGASUS|10.40.27.63|||110000423831|52
22.10.2018 04:00:00||PEGASUS|10.40.26.64|||110000423831|80
22.10.2018 04:00:00||PEGASUS|10.40.26.64|||110000423831|80
22.10.2018 04:00:00||PEGASUS|10.40.26.82|||110000423831|210
22.10.2018 04:00:00||PEGASUS|10.40.26.82|||110000423831|110
22.10.2018 04:00:00||PEGASUS|10.40.26.82|||110000423831|80
22.10.2018 04:00:00||PEGASUS|10.40.26.82|||110000423831|150
22.10.2018 04:00:00||PEGASUS|10.40.26.82|||110000423831|140
22.10.2018 04:00:00||PEGASUS|10.40.26.82|||110000423831|140
22.10.2018 04:00:00||PEGASUS|10.40.26.82|||110000423831|180
22.10.2018 04:00:00||PEGASUS|10.40.26.82|||110000423831|30
22.10.2018 04:00:00||PEGASUS|10.40.26.82|||110000423831|40
22.10.2018 04:00:00||PEGASUS|10.40.26.82|||110000423831|20
22.10.2018 04:00:00||PEGASUS|10.40.26.82|||110000423831|70
22.10.2018 04:00:00||PEGASUS|10.40.26.82|||110000423831|50
22.10.2018 04:00:00||PEGASUS|10.40.26.82|||110000423831|40
22.10.2018 04:00:00||PEGASUS|10.40.27.83|||110000423831|573
22.10.2018 04:00:00||PEGASUS|10.40.27.83|||110000423831|70
22.10.2018 04:00:00||PEGASUS|10.40.27.83|||110000423831|562
22.10.2018 04:00:00||PEGASUS|10.40.27.83|||110000423831|552
22.10.2018 04:00:00||PEGASUS|10.40.27.83|||110000423831|70
22.10.2018 04:00:00||PEGASUS|10.40.26.83|||110000423831|503
22.10.2018 04:00:00||PEGASUS|10.40.26.83|||110000423831|50
22.10.2018 04:00:00||PEGASUS|10.40.26.83|||110000423831|395
22.10.2018 04:00:00||PEGASUS|10.40.26.83|||110000423831|503
22.10.2018 04:00:00||PEGASUS|10.40.26.83|||110000423831|497
22.10.2018 04:00:00||PEGASUS|10.40.26.86|||110000423831|360
22.10.2018 04:00:00||PEGASUS|10.40.26.86|||110000423831|137
22.10.2018 04:00:00||PEGASUS|10.40.26.86|||110000423831|350
22.10.2018 04:00:00||PEGASUS|10.40.26.86|||110000423831|50
22.10.2018 04:00:00||PEGASUS|10.40.26.86|||110000423831|30
22.10.2018 04:00:00||PEGASUS|10.40.26.86|||110000423831|350
22.10.2018 04:00:00||PEGASUS|10.40.26.86|||110000423831|40
22.10.2018 04:00:00||PEGASUS|10.40.27.87|||110000423831|90
22.10.2018 04:00:00||PEGASUS|10.40.27.87|||110000423831|88
22.10.2018 04:00:00||PEGASUS|10.40.27.87|||110000423831|90
22.10.2018 04:00:00||PEGASUS|10.40.27.87|||110000423831|20
22.10.2018 04:00:00||PEGASUS|10.40.26.87|||110000423831|90
22.10.2018 04:00:00||PEGASUS|10.40.26.87|||110000423831|90
22.10.2018 04:00:00||PEGASUS|10.40.26.87|||110000423831|90
22.10.2018 04:00:00||PEGASUS|10.40.26.87|||110000423831|60
22.10.2018 04:00:00||PEGASUS|10.40.26.87|||110000423831|20
22.10.2018 04:00:00||PEGASUS|10.40.26.81|||110000423831|395
22.10.2018 04:00:00||PEGASUS|10.40.26.81|||110000423831|405
22.10.2018 04:00:00||PEGASUS|10.40.26.81|||110000423831|415
22.10.2018 04:00:00||PEGASUS|10.40.27.82|||110000423831|220
22.10.2018 04:00:00||PEGASUS|10.40.27.82|||110000423831|30
22.10.2018 04:00:00||PEGASUS|10.40.27.82|||110000423831|110
22.10.2018 04:00:00||PEGASUS|10.40.27.82|||110000423831|80
22.10.2018 04:00:00||PEGASUS|10.40.27.82|||110000423831|152
22.10.2018 04:00:00||PEGASUS|10.40.27.82|||110000423831|120
22.10.2018 04:00:00||PEGASUS|10.40.27.82|||110000423831|168
22.10.2018 04:00:00||PEGASUS|10.40.27.82|||110000423831|117
22.10.2018 04:00:00||PEGASUS|10.40.27.82|||110000423831|62
22.10.2018 04:00:00||PEGASUS|10.40.27.82|||110000423831|83
22.10.2018 04:00:00||PEGASUS|10.40.27.82|||110000423831|50
22.10.2018 04:00:00||PEGASUS|10.40.27.82|||110000423831|35
22.10.2018 04:00:00||PEGASUS|10.40.27.82|||110000423831|40
22.10.2018 04:00:00||PEGASUS|10.40.27.67|||110000423831|50
22.10.2018 04:00:00||PEGASUS|10.40.27.67|||110000423831|70
22.10.2018 04:00:00||PEGASUS|10.40.27.67|||110000423831|130
22.10.2018 04:00:00||PEGASUS|10.40.27.67|||110000423831|10
22.10.2018 04:00:00||PEGASUS|10.40.27.67|||110000423831|340
22.10.2018 04:00:00||PEGASUS|10.40.27.82|||110000423831|75
22.10.2018 04:00:00||PEGASUS|10.40.27.86|||110000423831|170
22.10.2018 04:00:00||PEGASUS|10.40.27.86|||110000423831|70
22.10.2018 04:00:00||PEGASUS|10.40.27.86|||110000423831|20
22.10.2018 04:00:00||PEGASUS|10.40.27.86|||110000423831|350
22.10.2018 04:00:00||PEGASUS|10.40.27.67|||110000423831|340
22.10.2018 04:00:00||PEGASUS|10.40.27.67|||110000423831|40
22.10.2018 04:00:00||PEGASUS|10.40.26.62|||110000423831|10
22.10.2018 04:00:00||PEGASUS|10.40.26.62|||110000423831|190
22.10.2018 04:00:00||PEGASUS|10.40.26.63|||110000423831|70
22.10.2018 04:00:00||PEGASUS|10.40.26.63|||110000423831|30
22.10.2018 04:00:00||PEGASUS|10.40.26.63|||110000423831|60
22.10.2018 04:00:00||PEGASUS|10.40.26.63|||110000423831|30
22.10.2018 04:00:00||PEGASUS|10.40.26.63|||110000423831|230
22.10.2018 04:00:00||PEGASUS|10.40.26.63|||110000423831|140
22.10.2018 04:00:00||PEGASUS|10.40.26.63|||110000423831|110
22.10.2018 04:00:00||PEGASUS|10.40.26.63|||110000423831|60
22.10.2018 04:00:00||PEGASUS|10.40.26.67|||110000423831|170
22.10.2018 04:00:00||PEGASUS|10.40.27.68|||110000423831|90
22.10.2018 04:00:00||PEGASUS|10.40.27.68|||110000423831|85
22.10.2018 04:00:00||PEGASUS|10.40.27.68|||110000423831|90
22.10.2018 04:00:00||PEGASUS|10.40.27.68|||110000423831|50
22.10.2018 04:00:00||PEGASUS|10.40.26.68|||110000423831|90
22.10.2018 04:00:00||PEGASUS|10.40.26.68|||110000423831|90
22.10.2018 04:00:00||PEGASUS|10.40.26.68|||110000423831|50
22.10.2018 04:00:00||PEGASUS|10.40.27.63|||110000423831|42
22.10.2018 04:00:00||PEGASUS|10.40.27.86|||110000423831|340
22.10.2018 04:00:00||PEGASUS|10.40.27.63|||110000423831|50
22.10.2018 04:00:00||PEGASUS|10.40.27.63|||110000423831|60
22.10.2018 04:00:00||PWC|10.40.24.66|||110000433262|90
22.10.2018 04:00:00||PWC|10.40.24.66|||110000433262|10
22.10.2018 04:00:00||PWC|10.40.24.66|||110000433262|30
22.10.2018 04:00:00||PWC|10.40.24.66|||110000433262|57
22.10.2018 04:00:00||PWC|10.40.24.66|||110000433262|442
22.10.2018 04:00:00||PWC|10.40.24.68|||110000433262|158
22.10.2018 04:00:00||PWC|10.40.24.66|||110000433262|42
22.10.2018 04:00:00||PWC|10.40.24.66|||110000433262|213
22.10.2018 04:00:00||PWC|10.40.24.66|||110000433262|210
22.10.2018 04:00:00||PWC|10.40.25.67|||110000433262|80
22.10.2018 04:00:00||PWC|10.40.25.67|||110000433262|90
22.10.2018 04:00:00||PWC|10.40.25.67|||110000433262|320
22.10.2018 04:00:00||PWC|10.40.25.67|||110000433262|250
22.10.2018 04:00:00||PWC|10.40.25.67|||110000433262|240
22.10.2018 04:00:00||PWC|10.40.25.67|||110000433262|250
22.10.2018 04:00:00||PWC|10.40.25.67|||110000433262|50
22.10.2018 04:00:00||PWC|10.40.25.67|||110000433262|30
22.10.2018 04:00:00||PWC|10.40.25.67|||110000433262|120
22.10.2018 04:00:00||PWC|10.40.24.67|||110000433262|10
22.10.2018 04:00:00||PWC|10.40.24.67|||110000433262|10
22.10.2018 04:00:00||PWC|10.40.24.67|||110000433262|370
22.10.2018 04:00:00||PWC|10.40.24.67|||110000433262|30
22.10.2018 04:00:00||PWC|10.40.24.67|||110000433262|70
22.10.2018 04:00:00||PWC|10.40.24.67|||110000433262|120
22.10.2018 04:00:00||PWC|10.40.25.68|||110000433262|132
22.10.2018 04:00:00||PWC|10.40.25.68|||110000433262|197
22.10.2018 04:00:00||PWC|10.40.25.68|||110000433262|70
22.10.2018 04:00:00||PWC|10.40.25.68|||110000433262|80
22.10.2018 04:00:00||PWC|10.40.25.68|||110000433262|153
22.10.2018 04:00:00||PWC|10.40.24.66|||110000433262|60
22.10.2018 04:00:00||PWC|10.40.24.66|||110000433262|30
22.10.2018 04:00:00||PWC|10.40.24.66|||110000433262|30
22.10.2018 04:00:00||PWC|10.40.24.68|||110000433262|108
22.10.2018 04:00:00||PWC|10.40.24.68|||110000433262|163
22.10.2018 04:00:00||PWC|10.40.24.68|||110000433262|393
22.10.2018 04:00:00||PWC|10.40.24.68|||110000433262|75
22.10.2018 04:00:00||PWC|10.40.24.68|||110000433262|68
22.10.2018 04:00:00||VSMART BİLGİ TEKNOLOJİLERİ|10.40.24.62|||110000474326|40
22.10.2018 04:00:00||VSMART BİLGİ TEKNOLOJİLERİ|10.40.24.62|||110000474326|70
22.10.2018 04:00:00||VSMART BİLGİ TEKNOLOJİLERİ|10.40.24.62|||110000474326|48
22.10.2018 04:00:00||VSMART BİLGİ TEKNOLOJİLERİ|10.40.25.62|||110000474326|68
22.10.2018 04:00:00||VSMART BİLGİ TEKNOLOJİLERİ|10.40.24.62|||110000474326|42
22.10.2018 04:00:00||VSMART BİLGİ TEKNOLOJİLERİ|10.40.24.62|||110000474326|32
22.10.2018 04:00:00||VSMART BİLGİ TEKNOLOJİLERİ|10.40.24.62|||110000474326|10
22.10.2018 04:00:00||VSMART BİLGİ TEKNOLOJİLERİ|10.40.25.62|||110000474326|40
22.10.2018 04:00:00||VSMART BİLGİ TEKNOLOJİLERİ|10.40.25.62|||110000474326|10
22.10.2018 04:00:00||VSMART BİLGİ TEKNOLOJİLERİ|10.40.25.62|||110000474326|10
22.10.2018 04:00:00||VSMART BİLGİ TEKNOLOJİLERİ|10.40.25.62|||110000474326|80
22.10.2018 04:00:00||VSMART BİLGİ TEKNOLOJİLERİ|10.40.25.62|||110000474326|83
22.10.2018 04:00:00||VSMART BİLGİ TEKNOLOJİLERİ|10.40.25.62|||110000474326|100
22.10.2018 04:00:00||VSMART BİLGİ TEKNOLOJİLERİ|10.40.24.62|||110000474326|10
