19.10.2018 00:00:00||AKTİFBANK|10.40.25.174|||110000438458|53
19.10.2018 00:00:00||AKTİFBANK|10.40.25.134|||110000438458|93
19.10.2018 00:00:00||AKTİFBANK|10.40.25.135|||110000438458|96
19.10.2018 00:00:00||AKTİFBANK|10.40.24.135|||110000438458|100
19.10.2018 00:00:00||AKTİFBANK|10.40.24.137|||110000438458|58
19.10.2018 00:00:00||AKTİFBANK|10.40.24.171|||110000438458|11
19.10.2018 00:00:00||AKTİFBANK|10.40.25.172|||110000438458|88
19.10.2018 00:00:00||AKTİFBANK|10.40.24.173|||110000438458|93
19.10.2018 00:00:00||AKTİFBANK|10.40.24.174|||110000438458|60
19.10.2018 00:00:00||AKTİFBANK|10.40.24.172|||110000438458|94
19.10.2018 00:00:00||AKTİFBANK|10.40.24.134|||110000438458|93
19.10.2018 00:00:00||AKTİFBANK|10.40.25.137|||110000438458|57
19.10.2018 00:00:00||AKTİFBANK|10.40.25.171|||110000438458|12
19.10.2018 00:00:00||AKTİFBANK|10.40.24.158|||110000438458|83
19.10.2018 00:00:00||AKTİFBANK|10.40.24.164|||110000438458|70
19.10.2018 00:00:00||AKTİFBANK|10.40.25.138|||110000438458|80
19.10.2018 00:00:00||AKTİFBANK|10.40.25.139|||110000438458|10
19.10.2018 00:00:00||AKTİFBANK|10.40.25.140|||110000438458|32
19.10.2018 00:00:00||AKTİFBANK|10.40.25.151|||110000438458|507
19.10.2018 00:00:00||AKTİFBANK|10.40.25.141|||110000438458|100
19.10.2018 00:00:00||AKTİFBANK|10.40.25.141|||110000438458|80
19.10.2018 00:00:00||AKTİFBANK|10.40.25.142|||110000438458|77
19.10.2018 00:00:00||AKTİFBANK|10.40.25.133|||110000438458|110
19.10.2018 00:00:00||AKTİFBANK|10.40.25.149|||110000438458|100
19.10.2018 00:00:00||AKTİFBANK|10.40.25.149|||110000438458|90
19.10.2018 00:00:00||AKTİFBANK|10.40.25.149|||110000438458|90
19.10.2018 00:00:00||AKTİFBANK|10.40.25.140|||110000438458|30
19.10.2018 00:00:00||AKTİFBANK|10.40.25.150|||110000438458|535
19.10.2018 00:00:00||AKTİFBANK|10.40.25.139|||110000438458|170
19.10.2018 00:00:00||AKTİFBANK|10.40.25.139|||110000438458|40
19.10.2018 00:00:00||AKTİFBANK|10.40.25.140|||110000438458|80
19.10.2018 00:00:00||AKTİFBANK|10.40.25.140|||110000438458|70
19.10.2018 00:00:00||AKTİFBANK|10.40.25.140|||110000438458|30
19.10.2018 00:00:00||AKTİFBANK|10.40.25.151|||110000438458|522
19.10.2018 00:00:00||AKTİFBANK|10.40.25.151|||110000438458|510
19.10.2018 00:00:00||AKTİFBANK|10.40.25.141|||110000438458|40
19.10.2018 00:00:00||AKTİFBANK|10.40.25.141|||110000438458|100
19.10.2018 00:00:00||AKTİFBANK|10.40.25.141|||110000438458|65
19.10.2018 00:00:00||AKTİFBANK|10.40.25.142|||110000438458|40
19.10.2018 00:00:00||AKTİFBANK|10.40.25.149|||110000438458|70
19.10.2018 00:00:00||AKTİFBANK|10.40.25.149|||110000438458|110
19.10.2018 00:00:00||AKTİFBANK|10.40.25.149|||110000438458|90
19.10.2018 00:00:00||AKTİFBANK|10.40.25.149|||110000438458|95
19.10.2018 00:00:00||AKTİFBANK|10.40.25.149|||110000438458|100
19.10.2018 00:00:00||AKTİFBANK|10.40.24.139|||110000438458|62
19.10.2018 00:00:00||AKTİFBANK|10.40.25.153|||110000438458|10
19.10.2018 00:00:00||AKTİFBANK|10.40.25.150|||110000438458|558
19.10.2018 00:00:00||AKTİFBANK|10.40.25.153|||110000438458|70
19.10.2018 00:00:00||AKTİFBANK|10.40.25.163|||110000438458|50
19.10.2018 00:00:00||AKTİFBANK|10.40.24.141|||110000438458|70
19.10.2018 00:00:00||AKTİFBANK|10.40.24.151|||110000438458|518
19.10.2018 00:00:00||AKTİFBANK|10.40.25.153|||110000438458|80
19.10.2018 00:00:00||AKTİFBANK|10.40.24.149|||110000438458|87
19.10.2018 00:00:00||AKTİFBANK|10.40.24.141|||110000438458|50
19.10.2018 00:00:00||AKTİFBANK|10.40.25.133|||110000438458|280
19.10.2018 00:00:00||AKTİFBANK|10.40.25.133|||110000438458|90
19.10.2018 00:00:00||AKTİFBANK|10.40.24.149|||110000438458|88
19.10.2018 00:00:00||AKTİFBANK|10.40.24.162|||110000438458|212
19.10.2018 00:00:00||AKTİFBANK|10.40.24.162|||110000438458|30
19.10.2018 00:00:00||AKTİFBANK|10.40.24.162|||110000438458|40
19.10.2018 00:00:00||AKTİFBANK|10.40.25.133|||110000438458|150
19.10.2018 00:00:00||AKTİFBANK|10.40.25.138|||110000438458|130
19.10.2018 00:00:00||AKTİFBANK|10.40.25.149|||110000438458|63
19.10.2018 00:00:00||AKTİFBANK|10.40.25.149|||110000438458|70
19.10.2018 00:00:00||AKTİFBANK|10.40.25.149|||110000438458|27
19.10.2018 00:00:00||AKTİFBANK|10.40.25.149|||110000438458|77
19.10.2018 00:00:00||AKTİFBANK|10.40.25.149|||110000438458|70
19.10.2018 00:00:00||AKTİFBANK|10.40.25.141|||110000438458|100
19.10.2018 00:00:00||AKTİFBANK|10.40.25.149|||110000438458|130
19.10.2018 00:00:00||AKTİFBANK|10.40.25.138|||110000438458|93
19.10.2018 00:00:00||AKTİFBANK|10.40.25.138|||110000438458|70
19.10.2018 00:00:00||AKTİFBANK|10.40.25.139|||110000438458|100
19.10.2018 00:00:00||AKTİFBANK|10.40.24.145|||110000438458|70
19.10.2018 00:00:00||AKTİFBANK|10.40.24.149|||110000438458|160
19.10.2018 00:00:00||AKTİFBANK|10.40.25.138|||110000438458|30
19.10.2018 00:00:00||AKTİFBANK|10.40.25.138|||110000438458|10
19.10.2018 00:00:00||AKTİFBANK|10.40.25.153|||110000438458|60
19.10.2018 00:00:00||AKTİFBANK|10.40.24.150|||110000438458|545
19.10.2018 00:00:00||AKTİFBANK|10.40.25.128|||110000438458|70
19.10.2018 00:00:00||AKTİFBANK|10.40.25.128|||110000438458|90
19.10.2018 00:00:00||AKTİFBANK|10.40.25.128|||110000438458|90
19.10.2018 00:00:00||AKTİFBANK|10.40.25.128|||110000438458|40
19.10.2018 00:00:00||AKTİFBANK|10.40.25.128|||110000438458|70
19.10.2018 00:00:00||AKTİFBANK|10.40.25.129|||110000438458|82
19.10.2018 00:00:00||AKTİFBANK|10.40.25.129|||110000438458|67
19.10.2018 00:00:00||AKTİFBANK|10.40.25.129|||110000438458|137
19.10.2018 00:00:00||AKTİFBANK|10.40.25.129|||110000438458|102
19.10.2018 00:00:00||AKTİFBANK|10.40.25.129|||110000438458|42
19.10.2018 00:00:00||AKTİFBANK|10.40.25.129|||110000438458|93
19.10.2018 00:00:00||AKTİFBANK|10.40.25.129|||110000438458|93
19.10.2018 00:00:00||AKTİFBANK|10.40.25.130|||110000438458|60
19.10.2018 00:00:00||AKTİFBANK|10.40.25.130|||110000438458|50
19.10.2018 00:00:00||AKTİFBANK|10.40.25.130|||110000438458|70
19.10.2018 00:00:00||AKTİFBANK|10.40.25.130|||110000438458|33
19.10.2018 00:00:00||AKTİFBANK|10.40.25.130|||110000438458|60
19.10.2018 00:00:00||AKTİFBANK|10.40.25.130|||110000438458|100
19.10.2018 00:00:00||AKTİFBANK|10.40.25.130|||110000438458|82
19.10.2018 00:00:00||AKTİFBANK|10.40.25.131|||110000438458|20
19.10.2018 00:00:00||AKTİFBANK|10.40.25.131|||110000438458|82
19.10.2018 00:00:00||AKTİFBANK|10.40.25.131|||110000438458|100
19.10.2018 00:00:00||AKTİFBANK|10.40.25.131|||110000438458|105
19.10.2018 00:00:00||AKTİFBANK|10.40.25.131|||110000438458|80
19.10.2018 00:00:00||AKTİFBANK|10.40.25.131|||110000438458|80
19.10.2018 00:00:00||AKTİFBANK|10.40.25.131|||110000438458|20
19.10.2018 00:00:00||AKTİFBANK|10.40.25.131|||110000438458|120
19.10.2018 00:00:00||AKTİFBANK|10.40.25.132|||110000438458|62
19.10.2018 00:00:00||AKTİFBANK|10.40.25.132|||110000438458|62
19.10.2018 00:00:00||AKTİFBANK|10.40.25.132|||110000438458|80
19.10.2018 00:00:00||AKTİFBANK|10.40.25.132|||110000438458|233
19.10.2018 00:00:00||AKTİFBANK|10.40.25.132|||110000438458|57
19.10.2018 00:00:00||AKTİFBANK|10.40.25.143|||110000438458|322
19.10.2018 00:00:00||AKTİFBANK|10.40.25.144|||110000438458|80
19.10.2018 00:00:00||AKTİFBANK|10.40.25.144|||110000438458|50
19.10.2018 00:00:00||AKTİFBANK|10.40.25.144|||110000438458|20
19.10.2018 00:00:00||AKTİFBANK|10.40.25.154|||110000438458|10
19.10.2018 00:00:00||AKTİFBANK|10.40.25.154|||110000438458|10
19.10.2018 00:00:00||AKTİFBANK|10.40.25.154|||110000438458|10
19.10.2018 00:00:00||AKTİFBANK|10.40.25.157|||110000438458|70
19.10.2018 00:00:00||AKTİFBANK|10.40.25.157|||110000438458|70
19.10.2018 00:00:00||AKTİFBANK|10.40.25.157|||110000438458|70
19.10.2018 00:00:00||AKTİFBANK|10.40.25.157|||110000438458|80
19.10.2018 00:00:00||AKTİFBANK|10.40.25.157|||110000438458|40
19.10.2018 00:00:00||AKTİFBANK|10.40.25.159|||110000438458|60
19.10.2018 00:00:00||AKTİFBANK|10.40.25.159|||110000438458|10
19.10.2018 00:00:00||AKTİFBANK|10.40.25.159|||110000438458|90
19.10.2018 00:00:00||AKTİFBANK|10.40.25.158|||110000438458|110
19.10.2018 00:00:00||AKTİFBANK|10.40.25.158|||110000438458|55
19.10.2018 00:00:00||AKTİFBANK|10.40.25.158|||110000438458|22
19.10.2018 00:00:00||AKTİFBANK|10.40.25.158|||110000438458|50
19.10.2018 00:00:00||AKTİFBANK|10.40.25.160|||110000438458|90
19.10.2018 00:00:00||AKTİFBANK|10.40.25.161|||110000438458|80
19.10.2018 00:00:00||AKTİFBANK|10.40.25.161|||110000438458|70
19.10.2018 00:00:00||AKTİFBANK|10.40.25.161|||110000438458|40
19.10.2018 00:00:00||AKTİFBANK|10.40.25.161|||110000438458|30
19.10.2018 00:00:00||AKTİFBANK|10.40.25.161|||110000438458|20
19.10.2018 00:00:00||AKTİFBANK|10.40.25.161|||110000438458|55
19.10.2018 00:00:00||AKTİFBANK|10.40.25.145|||110000438458|90
19.10.2018 00:00:00||AKTİFBANK|10.40.25.145|||110000438458|60
19.10.2018 00:00:00||AKTİFBANK|10.40.25.145|||110000438458|60
19.10.2018 00:00:00||AKTİFBANK|10.40.25.145|||110000438458|30
19.10.2018 00:00:00||AKTİFBANK|10.40.25.145|||110000438458|50
19.10.2018 00:00:00||AKTİFBANK|10.40.25.147|||110000438458|90
19.10.2018 00:00:00||AKTİFBANK|10.40.25.162|||110000438458|30
19.10.2018 00:00:00||AKTİFBANK|10.40.25.162|||110000438458|30
19.10.2018 00:00:00||AKTİFBANK|10.40.25.162|||110000438458|60
19.10.2018 00:00:00||AKTİFBANK|10.40.25.164|||110000438458|60
19.10.2018 00:00:00||AKTİFBANK|10.40.25.164|||110000438458|280
19.10.2018 00:00:00||AKTİFBANK|10.40.25.164|||110000438458|50
19.10.2018 00:00:00||AKTİFBANK|10.40.25.164|||110000438458|260
19.10.2018 00:00:00||AKTİFBANK|10.40.25.164|||110000438458|270
19.10.2018 00:00:00||AKTİFBANK|10.40.25.165|||110000438458|110
19.10.2018 00:00:00||AKTİFBANK|10.40.25.165|||110000438458|70
19.10.2018 00:00:00||AKTİFBANK|10.40.25.165|||110000438458|80
19.10.2018 00:00:00||AKTİFBANK|10.40.25.165|||110000438458|100
19.10.2018 00:00:00||AKTİFBANK|10.40.25.166|||110000438458|90
19.10.2018 00:00:00||AKTİFBANK|10.40.25.166|||110000438458|10
19.10.2018 00:00:00||AKTİFBANK|10.40.25.166|||110000438458|10
19.10.2018 00:00:00||AKTİFBANK|10.40.25.166|||110000438458|10
19.10.2018 00:00:00||AKTİFBANK|10.40.25.166|||110000438458|40
19.10.2018 00:00:00||AKTİFBANK|10.40.25.148|||110000438458|130
19.10.2018 00:00:00||AKTİFBANK|10.40.25.148|||110000438458|50
19.10.2018 00:00:00||AKTİFBANK|10.40.25.148|||110000438458|100
19.10.2018 00:00:00||AKTİFBANK|10.40.25.148|||110000438458|130
19.10.2018 00:00:00||AKTİFBANK|10.40.25.148|||110000438458|90
19.10.2018 00:00:00||AKTİFBANK|10.40.25.148|||110000438458|80
19.10.2018 00:00:00||AKTİFBANK|10.40.25.148|||110000438458|70
19.10.2018 00:00:00||AKTİFBANK|10.40.25.148|||110000438458|50
19.10.2018 00:00:00||AKTİFBANK|10.40.25.148|||110000438458|80
19.10.2018 00:00:00||AKTİFBANK|10.40.25.148|||110000438458|40
19.10.2018 00:00:00||AKTİFBANK|10.40.25.148|||110000438458|100
19.10.2018 00:00:00||AKTİFBANK|10.40.25.148|||110000438458|60
19.10.2018 00:00:00||AKTİFBANK|10.40.25.155|||110000438458|70
19.10.2018 00:00:00||AKTİFBANK|10.40.25.155|||110000438458|90
19.10.2018 00:00:00||AKTİFBANK|10.40.25.155|||110000438458|110
19.10.2018 00:00:00||AKTİFBANK|10.40.25.155|||110000438458|120
19.10.2018 00:00:00||AKTİFBANK|10.40.25.155|||110000438458|110
19.10.2018 00:00:00||AKTİFBANK|10.40.25.156|||110000438458|20
19.10.2018 00:00:00||AKTİFBANK|10.40.25.156|||110000438458|30
19.10.2018 00:00:00||AKTİFBANK|10.40.25.139|||110000438458|70
19.10.2018 00:00:00||AKTİFBANK|10.40.25.139|||110000438458|80
19.10.2018 00:00:00||AKTİFBANK|10.40.25.150|||110000438458|530
19.10.2018 00:00:00||AKTİFBANK|10.40.25.129|||110000438458|60
19.10.2018 00:00:00||AKTİFBANK|10.40.25.129|||110000438458|83
19.10.2018 00:00:00||AKTİFBANK|10.40.25.129|||110000438458|140
19.10.2018 00:00:00||AKTİFBANK|10.40.25.130|||110000438458|62
19.10.2018 00:00:00||AKTİFBANK|10.40.25.130|||110000438458|128
19.10.2018 00:00:00||AKTİFBANK|10.40.25.130|||110000438458|100
19.10.2018 00:00:00||AKTİFBANK|10.40.25.131|||110000438458|43
19.10.2018 00:00:00||AKTİFBANK|10.40.25.143|||110000438458|60
19.10.2018 00:00:00||AKTİFBANK|10.40.25.143|||110000438458|240
19.10.2018 00:00:00||AKTİFBANK|10.40.25.143|||110000438458|265
19.10.2018 00:00:00||AKTİFBANK|10.40.25.158|||110000438458|100
19.10.2018 00:00:00||AKTİFBANK|10.40.25.160|||110000438458|110
19.10.2018 00:00:00||AKTİFBANK|10.40.25.162|||110000438458|32
19.10.2018 00:00:00||AKTİFBANK|10.40.25.162|||110000438458|40
19.10.2018 00:00:00||AKTİFBANK|10.40.24.140|||110000438458|160
19.10.2018 00:00:00||AKTİFBANK|10.40.24.140|||110000438458|80
19.10.2018 00:00:00||AKTİFBANK|10.40.24.140|||110000438458|40
19.10.2018 00:00:00||AKTİFBANK|10.40.24.140|||110000438458|30
19.10.2018 00:00:00||AKTİFBANK|10.40.24.140|||110000438458|30
19.10.2018 00:00:00||AKTİFBANK|10.40.24.140|||110000438458|25
19.10.2018 00:00:00||AKTİFBANK|10.40.24.149|||110000438458|80
19.10.2018 00:00:00||AKTİFBANK|10.40.24.149|||110000438458|120
19.10.2018 00:00:00||AKTİFBANK|10.40.24.149|||110000438458|90
19.10.2018 00:00:00||AKTİFBANK|10.40.24.149|||110000438458|55
19.10.2018 00:00:00||AKTİFBANK|10.40.24.149|||110000438458|50
19.10.2018 00:00:00||AKTİFBANK|10.40.24.149|||110000438458|138
19.10.2018 00:00:00||AKTİFBANK|10.40.24.149|||110000438458|90
19.10.2018 00:00:00||AKTİFBANK|10.40.24.149|||110000438458|88
19.10.2018 00:00:00||AKTİFBANK|10.40.24.149|||110000438458|95
19.10.2018 00:00:00||AKTİFBANK|10.40.24.149|||110000438458|80
19.10.2018 00:00:00||AKTİFBANK|10.40.24.133|||110000438458|147
19.10.2018 00:00:00||AKTİFBANK|10.40.24.133|||110000438458|273
19.10.2018 00:00:00||AKTİFBANK|10.40.24.133|||110000438458|120
19.10.2018 00:00:00||AKTİFBANK|10.40.24.133|||110000438458|85
19.10.2018 00:00:00||AKTİFBANK|10.40.24.138|||110000438458|113
19.10.2018 00:00:00||AKTİFBANK|10.40.24.138|||110000438458|140
19.10.2018 00:00:00||AKTİFBANK|10.40.24.138|||110000438458|118
19.10.2018 00:00:00||AKTİFBANK|10.40.24.138|||110000438458|32
19.10.2018 00:00:00||AKTİFBANK|10.40.24.138|||110000438458|50
19.10.2018 00:00:00||AKTİFBANK|10.40.24.139|||110000438458|160
19.10.2018 00:00:00||AKTİFBANK|10.40.24.139|||110000438458|90
19.10.2018 00:00:00||AKTİFBANK|10.40.24.139|||110000438458|122
19.10.2018 00:00:00||AKTİFBANK|10.40.24.141|||110000438458|200
19.10.2018 00:00:00||AKTİFBANK|10.40.24.141|||110000438458|100
19.10.2018 00:00:00||AKTİFBANK|10.40.24.141|||110000438458|100
19.10.2018 00:00:00||AKTİFBANK|10.40.24.141|||110000438458|73
19.10.2018 00:00:00||AKTİFBANK|10.40.24.141|||110000438458|80
19.10.2018 00:00:00||AKTİFBANK|10.40.25.152|||110000438458|98
19.10.2018 00:00:00||AKTİFBANK|10.40.25.152|||110000438458|50
19.10.2018 00:00:00||AKTİFBANK|10.40.25.152|||110000438458|113
19.10.2018 00:00:00||AKTİFBANK|10.40.25.152|||110000438458|70
19.10.2018 00:00:00||AKTİFBANK|10.40.25.152|||110000438458|90
19.10.2018 00:00:00||AKTİFBANK|10.40.25.152|||110000438458|57
19.10.2018 00:00:00||AKTİFBANK|10.40.25.152|||110000438458|92
19.10.2018 00:00:00||AKTİFBANK|10.40.25.152|||110000438458|30
19.10.2018 00:00:00||AKTİFBANK|10.40.25.152|||110000438458|80
19.10.2018 00:00:00||AKTİFBANK|10.40.25.152|||110000438458|30
19.10.2018 00:00:00||AKTİFBANK|10.40.24.150|||110000438458|553
19.10.2018 00:00:00||AKTİFBANK|10.40.24.151|||110000438458|525
19.10.2018 00:00:00||AKTİFBANK|10.40.24.151|||110000438458|532
19.10.2018 00:00:00||AKTİFBANK|10.40.24.128|||110000438458|60
19.10.2018 00:00:00||AKTİFBANK|10.40.24.128|||110000438458|70
19.10.2018 00:00:00||AKTİFBANK|10.40.24.128|||110000438458|98
19.10.2018 00:00:00||AKTİFBANK|10.40.24.128|||110000438458|40
19.10.2018 00:00:00||AKTİFBANK|10.40.24.128|||110000438458|70
19.10.2018 00:00:00||AKTİFBANK|10.40.24.128|||110000438458|40
19.10.2018 00:00:00||AKTİFBANK|10.40.24.129|||110000438458|100
19.10.2018 00:00:00||AKTİFBANK|10.40.24.129|||110000438458|70
19.10.2018 00:00:00||AKTİFBANK|10.40.24.129|||110000438458|110
19.10.2018 00:00:00||AKTİFBANK|10.40.24.129|||110000438458|120
19.10.2018 00:00:00||AKTİFBANK|10.40.24.129|||110000438458|40
19.10.2018 00:00:00||AKTİFBANK|10.40.24.129|||110000438458|70
19.10.2018 00:00:00||AKTİFBANK|10.40.24.129|||110000438458|70
19.10.2018 00:00:00||AKTİFBANK|10.40.24.129|||110000438458|90
19.10.2018 00:00:00||AKTİFBANK|10.40.24.129|||110000438458|80
19.10.2018 00:00:00||AKTİFBANK|10.40.24.129|||110000438458|140
19.10.2018 00:00:00||AKTİFBANK|10.40.24.130|||110000438458|45
19.10.2018 00:00:00||AKTİFBANK|10.40.24.130|||110000438458|47
19.10.2018 00:00:00||AKTİFBANK|10.40.24.130|||110000438458|68
19.10.2018 00:00:00||AKTİFBANK|10.40.24.130|||110000438458|40
19.10.2018 00:00:00||AKTİFBANK|10.40.24.130|||110000438458|60
19.10.2018 00:00:00||AKTİFBANK|10.40.24.130|||110000438458|75
19.10.2018 00:00:00||AKTİFBANK|10.40.24.130|||110000438458|88
19.10.2018 00:00:00||AKTİFBANK|10.40.24.130|||110000438458|33
19.10.2018 00:00:00||AKTİFBANK|10.40.24.130|||110000438458|130
19.10.2018 00:00:00||AKTİFBANK|10.40.24.130|||110000438458|110
19.10.2018 00:00:00||AKTİFBANK|10.40.24.131|||110000438458|88
19.10.2018 00:00:00||AKTİFBANK|10.40.24.131|||110000438458|90
19.10.2018 00:00:00||AKTİFBANK|10.40.24.131|||110000438458|112
19.10.2018 00:00:00||AKTİFBANK|10.40.24.131|||110000438458|113
19.10.2018 00:00:00||AKTİFBANK|10.40.24.131|||110000438458|17
19.10.2018 00:00:00||AKTİFBANK|10.40.24.131|||110000438458|160
19.10.2018 00:00:00||AKTİFBANK|10.40.24.131|||110000438458|60
19.10.2018 00:00:00||AKTİFBANK|10.40.24.131|||110000438458|110
19.10.2018 00:00:00||AKTİFBANK|10.40.24.132|||110000438458|32
19.10.2018 00:00:00||AKTİFBANK|10.40.24.132|||110000438458|78
19.10.2018 00:00:00||AKTİFBANK|10.40.24.132|||110000438458|52
19.10.2018 00:00:00||AKTİFBANK|10.40.24.132|||110000438458|262
19.10.2018 00:00:00||AKTİFBANK|10.40.24.132|||110000438458|67
19.10.2018 00:00:00||AKTİFBANK|10.40.24.143|||110000438458|62
19.10.2018 00:00:00||AKTİFBANK|10.40.24.143|||110000438458|268
19.10.2018 00:00:00||AKTİFBANK|10.40.24.143|||110000438458|277
19.10.2018 00:00:00||AKTİFBANK|10.40.24.143|||110000438458|225
19.10.2018 00:00:00||AKTİFBANK|10.40.24.144|||110000438458|70
19.10.2018 00:00:00||AKTİFBANK|10.40.24.144|||110000438458|108
19.10.2018 00:00:00||AKTİFBANK|10.40.24.144|||110000438458|128
19.10.2018 00:00:00||AKTİFBANK|10.40.24.148|||110000438458|63
19.10.2018 00:00:00||AKTİFBANK|10.40.24.148|||110000438458|172
19.10.2018 00:00:00||AKTİFBANK|10.40.24.148|||110000438458|80
19.10.2018 00:00:00||AKTİFBANK|10.40.24.148|||110000438458|110
19.10.2018 00:00:00||AKTİFBANK|10.40.24.148|||110000438458|83
19.10.2018 00:00:00||AKTİFBANK|10.40.24.148|||110000438458|82
19.10.2018 00:00:00||AKTİFBANK|10.40.24.148|||110000438458|93
19.10.2018 00:00:00||AKTİFBANK|10.40.24.148|||110000438458|103
19.10.2018 00:00:00||AKTİFBANK|10.40.24.148|||110000438458|77
19.10.2018 00:00:00||AKTİFBANK|10.40.24.148|||110000438458|50
19.10.2018 00:00:00||AKTİFBANK|10.40.24.148|||110000438458|25
19.10.2018 00:00:00||AKTİFBANK|10.40.24.148|||110000438458|70
19.10.2018 00:00:00||AKTİFBANK|10.40.24.153|||110000438458|10
19.10.2018 00:00:00||AKTİFBANK|10.40.24.153|||110000438458|92
19.10.2018 00:00:00||AKTİFBANK|10.40.24.153|||110000438458|70
19.10.2018 00:00:00||AKTİFBANK|10.40.24.153|||110000438458|77
19.10.2018 00:00:00||AKTİFBANK|10.40.24.157|||110000438458|33
19.10.2018 00:00:00||AKTİFBANK|10.40.24.157|||110000438458|80
19.10.2018 00:00:00||AKTİFBANK|10.40.24.157|||110000438458|70
19.10.2018 00:00:00||AKTİFBANK|10.40.24.157|||110000438458|40
19.10.2018 00:00:00||AKTİFBANK|10.40.24.157|||110000438458|80
19.10.2018 00:00:00||AKTİFBANK|10.40.24.157|||110000438458|40
19.10.2018 00:00:00||AKTİFBANK|10.40.24.158|||110000438458|80
19.10.2018 00:00:00||AKTİFBANK|10.40.24.158|||110000438458|113
19.10.2018 00:00:00||AKTİFBANK|10.40.24.159|||110000438458|130
19.10.2018 00:00:00||AKTİFBANK|10.40.24.159|||110000438458|50
19.10.2018 00:00:00||AKTİFBANK|10.40.24.159|||110000438458|180
19.10.2018 00:00:00||AKTİFBANK|10.40.24.160|||110000438458|50
19.10.2018 00:00:00||AKTİFBANK|10.40.24.160|||110000438458|92
19.10.2018 00:00:00||AKTİFBANK|10.40.24.160|||110000438458|100
19.10.2018 00:00:00||AKTİFBANK|10.40.24.161|||110000438458|205
19.10.2018 00:00:00||AKTİFBANK|10.40.24.161|||110000438458|80
19.10.2018 00:00:00||AKTİFBANK|10.40.24.161|||110000438458|40
19.10.2018 00:00:00||AKTİFBANK|10.40.24.161|||110000438458|30
19.10.2018 00:00:00||AKTİFBANK|10.40.24.161|||110000438458|30
19.10.2018 00:00:00||AKTİFBANK|10.40.24.161|||110000438458|20
19.10.2018 00:00:00||AKTİFBANK|10.40.24.161|||110000438458|90
19.10.2018 00:00:00||AKTİFBANK|10.40.24.145|||110000438458|30
19.10.2018 00:00:00||AKTİFBANK|10.40.24.145|||110000438458|70
19.10.2018 00:00:00||AKTİFBANK|10.40.24.145|||110000438458|60
19.10.2018 00:00:00||AKTİFBANK|10.40.24.147|||110000438458|90
19.10.2018 00:00:00||AKTİFBANK|10.40.24.162|||110000438458|40
19.10.2018 00:00:00||AKTİFBANK|10.40.24.162|||110000438458|40
19.10.2018 00:00:00||AKTİFBANK|10.40.24.162|||110000438458|103
19.10.2018 00:00:00||AKTİFBANK|10.40.24.162|||110000438458|10
19.10.2018 00:00:00||AKTİFBANK|10.40.24.162|||110000438458|48
19.10.2018 00:00:00||AKTİFBANK|10.40.24.163|||110000438458|30
19.10.2018 00:00:00||AKTİFBANK|10.40.24.163|||110000438458|72
19.10.2018 00:00:00||AKTİFBANK|10.40.24.164|||110000438458|57
19.10.2018 00:00:00||AKTİFBANK|10.40.24.164|||110000438458|330
19.10.2018 00:00:00||AKTİFBANK|10.40.24.164|||110000438458|220
19.10.2018 00:00:00||AKTİFBANK|10.40.24.165|||110000438458|77
19.10.2018 00:00:00||AKTİFBANK|10.40.24.165|||110000438458|80
19.10.2018 00:00:00||AKTİFBANK|10.40.24.165|||110000438458|50
19.10.2018 00:00:00||AKTİFBANK|10.40.24.165|||110000438458|122
19.10.2018 00:00:00||AKTİFBANK|10.40.24.166|||110000438458|80
19.10.2018 00:00:00||AKTİFBANK|10.40.24.166|||110000438458|90
19.10.2018 00:00:00||AKTİFBANK|10.40.24.166|||110000438458|10
19.10.2018 00:00:00||AKTİFBANK|10.40.25.168|||110000438458|90
19.10.2018 00:00:00||AKTİFBANK|10.40.25.168|||110000438458|70
19.10.2018 00:00:00||AKTİFBANK|10.40.25.168|||110000438458|50
19.10.2018 00:00:00||AKTİFBANK|10.40.25.168|||110000438458|40
19.10.2018 00:00:00||AKTİFBANK|10.40.25.168|||110000438458|60
19.10.2018 00:00:00||AKTİFBANK|10.40.24.168|||110000438458|90
19.10.2018 00:00:00||AKTİFBANK|10.40.24.168|||110000438458|80
19.10.2018 00:00:00||AKTİFBANK|10.40.24.168|||110000438458|70
19.10.2018 00:00:00||AKTİFBANK|10.40.24.168|||110000438458|70
19.10.2018 00:00:00||AKTİFBANK|10.40.24.168|||110000438458|30
19.10.2018 00:00:00||AKTİFBANK|10.40.24.154|||110000438458|70
19.10.2018 00:00:00||AKTİFBANK|10.40.24.154|||110000438458|20
19.10.2018 00:00:00||AKTİFBANK|10.40.24.154|||110000438458|10
19.10.2018 00:00:00||AKTİFBANK|10.40.24.154|||110000438458|10
19.10.2018 00:00:00||AKTİFBANK|10.40.24.154|||110000438458|10
19.10.2018 00:00:00||AKTİFBANK|10.40.24.154|||110000438458|10
19.10.2018 00:00:00||AKTİFBANK|10.40.24.155|||110000438458|62
19.10.2018 00:00:00||AKTİFBANK|10.40.24.155|||110000438458|102
19.10.2018 00:00:00||AKTİFBANK|10.40.24.155|||110000438458|130
19.10.2018 00:00:00||AKTİFBANK|10.40.24.155|||110000438458|80
19.10.2018 00:00:00||AKTİFBANK|10.40.24.155|||110000438458|112
19.10.2018 00:00:00||AKTİFBANK|10.40.24.155|||110000438458|100
19.10.2018 00:00:00||AKTİFBANK|10.40.25.169|||110000438458|88
19.10.2018 00:00:00||AKTİFBANK|10.40.25.169|||110000438458|92
19.10.2018 00:00:00||AKTİFBANK|10.40.25.169|||110000438458|72
19.10.2018 00:00:00||AKTİFBANK|10.40.25.169|||110000438458|87
19.10.2018 00:00:00||AKTİFBANK|10.40.24.169|||110000438458|80
19.10.2018 00:00:00||AKTİFBANK|10.40.24.169|||110000438458|88
19.10.2018 00:00:00||AKTİFBANK|10.40.24.169|||110000438458|72
19.10.2018 00:00:00||AKTİFBANK|10.40.24.169|||110000438458|80
19.10.2018 00:00:00||AKTİFBANK|10.40.25.170|||110000438458|30
19.10.2018 00:00:00||AKTİFBANK|10.40.25.170|||110000438458|30
19.10.2018 00:00:00||AKTİFBANK|10.40.25.170|||110000438458|200
19.10.2018 00:00:00||AKTİFBANK|10.40.25.170|||110000438458|100
19.10.2018 00:00:00||AKTİFBANK|10.40.25.170|||110000438458|80
19.10.2018 00:00:00||AKTİFBANK|10.40.25.170|||110000438458|120
19.10.2018 00:00:00||AKTİFBANK|10.40.24.170|||110000438458|60
19.10.2018 00:00:00||AKTİFBANK|10.40.24.170|||110000438458|60
19.10.2018 00:00:00||AKTİFBANK|10.40.24.170|||110000438458|368
19.10.2018 00:00:00||AKTİFBANK|10.40.24.170|||110000438458|82
19.10.2018 00:00:00||AKTİFBANK|10.40.24.170|||110000438458|102
19.10.2018 00:00:00||AKTİFBANK|10.40.24.170|||110000438458|73
19.10.2018 00:00:00||AKTİFBANK|10.40.25.178|||110000438458|590
19.10.2018 00:00:00||AKTİFBANK|10.40.25.178|||110000438458|560
19.10.2018 00:00:00||AKTİFBANK|10.40.25.178|||110000438458|550
19.10.2018 00:00:00||AKTİFBANK|10.40.24.178|||110000438458|565
19.10.2018 00:00:00||AKTİFBANK|10.40.24.178|||110000438458|552
19.10.2018 00:00:00||AKTİFBANK|10.40.24.178|||110000438458|543
19.10.2018 00:00:00||AKTİFBANK|10.40.25.179|||110000438458|395
19.10.2018 00:00:00||AKTİFBANK|10.40.25.179|||110000438458|358
19.10.2018 00:00:00||AKTİFBANK|10.40.25.179|||110000438458|355
19.10.2018 00:00:00||AKTİFBANK|10.40.24.179|||110000438458|325
19.10.2018 00:00:00||AKTİFBANK|10.40.24.179|||110000438458|318
19.10.2018 00:00:00||AKTİFBANK|10.40.24.179|||110000438458|325
19.10.2018 00:00:00||AKTİFBANK|10.40.24.142|||110000438458|40
19.10.2018 00:00:00||AKTİFBANK|10.40.24.156|||110000438458|50
19.10.2018 00:00:00||AKTİFBANK|10.40.24.156|||110000438458|50
19.10.2018 00:00:00||AKTİFBANK|10.40.25.186|||110000438458|90
19.10.2018 00:00:00||AKTİFBANK|10.40.25.186|||110000438458|20
19.10.2018 00:00:00||AKTİFBANK|10.40.25.186|||110000438458|70
19.10.2018 00:00:00||AKTİFBANK|10.40.24.186|||110000438458|92
19.10.2018 00:00:00||AKTİFBANK|10.40.24.186|||110000438458|30
19.10.2018 00:00:00||AKTİFBANK|10.40.24.186|||110000438458|60
19.10.2018 00:00:00||AKTİFBANK|10.40.24.186|||110000438458|40
19.10.2018 00:00:00||AKTİFBANK|10.40.24.152|||110000438458|10
19.10.2018 00:00:00||AKTİFBANK|10.40.24.152|||110000438458|48
19.10.2018 00:00:00||AKTİFBANK|10.40.24.152|||110000438458|88
19.10.2018 00:00:00||AKTİFBANK|10.40.24.152|||110000438458|105
19.10.2018 00:00:00||AKTİFBANK|10.40.24.152|||110000438458|105
19.10.2018 00:00:00||AKTİFBANK|10.40.24.152|||110000438458|102
19.10.2018 00:00:00||AKTİFBANK|10.40.24.152|||110000438458|312
19.10.2018 00:00:00||AKTİFBANK|10.40.24.152|||110000438458|75
19.10.2018 00:00:00||AKTİFBANK|10.40.24.152|||110000438458|93
19.10.2018 00:00:00||AKTİFBANK|10.40.24.152|||110000438458|30
19.10.2018 00:00:00||AKTİFBANK|10.40.24.152|||110000438458|72
19.10.2018 00:00:00||AKTİFBANK|10.40.24.152|||110000438458|30
19.10.2018 00:00:00||AKTİFBANK|10.40.24.133|||110000438458|75
19.10.2018 00:00:00||AKTİFBANK|10.40.24.138|||110000438458|122
19.10.2018 00:00:00||AKTİFBANK|10.40.24.139|||110000438458|30
19.10.2018 00:00:00||AKTİFBANK|10.40.24.149|||110000438458|110
19.10.2018 00:00:00||AKTİFBANK|10.40.24.150|||110000438458|542
19.10.2018 00:00:00||AKTİFBANK|10.40.24.145|||110000438458|60
19.10.2018 00:00:00||AKTİFBANK|10.40.24.164|||110000438458|227
19.10.2018 00:00:00||AKTİFBANK|10.40.25.133|||110000438458|70
19.10.2018 00:00:00||AKTİFBANK|10.40.24.145|||110000438458|90
19.10.2018 00:00:00||BARİKAT İNTERNET GÜVENLİĞİ|10.40.25.201|||110000479736|118
19.10.2018 00:00:00||BARİKAT İNTERNET GÜVENLİĞİ|10.40.25.201|||110000479736|103
19.10.2018 00:00:00||BARİKAT İNTERNET GÜVENLİĞİ|10.40.24.201|||110000479736|135
19.10.2018 00:00:00||BARİKAT İNTERNET GÜVENLİĞİ|10.40.24.201|||110000479736|90
19.10.2018 00:00:00||BOYNER|10.40.27.100|||101367941673|53
19.10.2018 00:00:00||BOYNER|10.40.27.101|||101367941673|165
19.10.2018 00:00:00||BOYNER|10.40.26.101|||101367941673|164
19.10.2018 00:00:00||BOYNER|10.40.26.100|||101367941673|57
19.10.2018 00:00:00||BOYNER|10.40.27.94|||101367941673|210
19.10.2018 00:00:00||BOYNER|10.40.27.94|||101367941673|90
19.10.2018 00:00:00||BOYNER|10.40.27.94|||101367941673|90
19.10.2018 00:00:00||BOYNER|10.40.27.94|||101367941673|100
19.10.2018 00:00:00||BOYNER|10.40.26.94|||101367941673|90
19.10.2018 00:00:00||BOYNER|10.40.26.94|||101367941673|80
19.10.2018 00:00:00||BOYNER|10.40.26.94|||101367941673|80
19.10.2018 00:00:00||BOYNER|10.40.27.95|||101367941673|132
19.10.2018 00:00:00||BOYNER|10.40.27.95|||101367941673|128
19.10.2018 00:00:00||BOYNER|10.40.27.95|||101367941673|235
19.10.2018 00:00:00||BOYNER|10.40.26.95|||101367941673|125
19.10.2018 00:00:00||BOYNER|10.40.26.95|||101367941673|200
19.10.2018 00:00:00||BOYNER|10.40.26.95|||101367941673|140
19.10.2018 00:00:00||BOYNER|10.40.27.96|||101367941673|60
19.10.2018 00:00:00||BOYNER|10.40.27.96|||101367941673|50
19.10.2018 00:00:00||BOYNER|10.40.27.96|||101367941673|50
19.10.2018 00:00:00||BOYNER|10.40.27.96|||101367941673|40
19.10.2018 00:00:00||BOYNER|10.40.27.96|||101367941673|40
19.10.2018 00:00:00||BOYNER|10.40.27.96|||101367941673|150
19.10.2018 00:00:00||BOYNER|10.40.27.96|||101367941673|152
19.10.2018 00:00:00||BOYNER|10.40.27.96|||101367941673|172
19.10.2018 00:00:00||BOYNER|10.40.27.96|||101367941673|165
19.10.2018 00:00:00||BOYNER|10.40.26.96|||101367941673|30
19.10.2018 00:00:00||BOYNER|10.40.26.96|||101367941673|40
19.10.2018 00:00:00||BOYNER|10.40.26.96|||101367941673|30
19.10.2018 00:00:00||BOYNER|10.40.26.96|||101367941673|40
19.10.2018 00:00:00||BOYNER|10.40.26.96|||101367941673|40
19.10.2018 00:00:00||BOYNER|10.40.26.96|||101367941673|50
19.10.2018 00:00:00||BOYNER|10.40.26.96|||101367941673|190
19.10.2018 00:00:00||BOYNER|10.40.26.96|||101367941673|205
19.10.2018 00:00:00||BOYNER|10.40.26.96|||101367941673|165
19.10.2018 00:00:00||BOYNER|10.40.26.96|||101367941673|182
19.10.2018 00:00:00||BOYNER|10.40.27.97|||101367941673|60
19.10.2018 00:00:00||BOYNER|10.40.27.97|||101367941673|653
19.10.2018 00:00:00||BOYNER|10.40.27.97|||101367941673|662
19.10.2018 00:00:00||BOYNER|10.40.27.97|||101367941673|695
19.10.2018 00:00:00||BOYNER|10.40.27.97|||101367941673|40
19.10.2018 00:00:00||BOYNER|10.40.27.97|||101367941673|30
19.10.2018 00:00:00||BOYNER|10.40.27.97|||101367941673|52
19.10.2018 00:00:00||BOYNER|10.40.27.97|||101367941673|30
19.10.2018 00:00:00||BOYNER|10.40.27.97|||101367941673|177
19.10.2018 00:00:00||BOYNER|10.40.27.97|||101367941673|172
19.10.2018 00:00:00||BOYNER|10.40.27.97|||101367941673|188
19.10.2018 00:00:00||BOYNER|10.40.27.97|||101367941673|190
19.10.2018 00:00:00||BOYNER|10.40.26.97|||101367941673|30
19.10.2018 00:00:00||BOYNER|10.40.26.97|||101367941673|657
19.10.2018 00:00:00||BOYNER|10.40.26.97|||101367941673|652
19.10.2018 00:00:00||BOYNER|10.40.26.97|||101367941673|658
19.10.2018 00:00:00||BOYNER|10.40.26.97|||101367941673|33
19.10.2018 00:00:00||BOYNER|10.40.26.97|||101367941673|40
19.10.2018 00:00:00||BOYNER|10.40.26.97|||101367941673|50
19.10.2018 00:00:00||BOYNER|10.40.26.97|||101367941673|60
19.10.2018 00:00:00||BOYNER|10.40.26.97|||101367941673|30
19.10.2018 00:00:00||BOYNER|10.40.26.97|||101367941673|160
19.10.2018 00:00:00||BOYNER|10.40.26.97|||101367941673|173
19.10.2018 00:00:00||BOYNER|10.40.26.97|||101367941673|172
19.10.2018 00:00:00||BOYNER|10.40.26.97|||101367941673|152
19.10.2018 00:00:00||BOYNER|10.40.27.99|||101367941673|130
19.10.2018 00:00:00||BOYNER|10.40.27.99|||101367941673|90
19.10.2018 00:00:00||BOYNER|10.40.27.99|||101367941673|82
19.10.2018 00:00:00||BOYNER|10.40.26.99|||101367941673|10
19.10.2018 00:00:00||BOYNER|10.40.26.99|||101367941673|112
19.10.2018 00:00:00||BOYNER|10.40.26.99|||101367941673|98
19.10.2018 00:00:00||BOYNER|10.40.26.99|||101367941673|78
19.10.2018 00:00:00||ÇALIK HOLDİNG|10.40.25.99|||110000438407|137
19.10.2018 00:00:00||ÇALIK HOLDİNG|10.40.25.118|||110000438407|161
19.10.2018 00:00:00||ÇALIK HOLDİNG|10.40.24.118|||110000438407|43
19.10.2018 00:00:00||ÇALIK HOLDİNG|10.40.25.120|||110000438407|90
19.10.2018 00:00:00||ÇALIK HOLDİNG|10.40.24.95|||110000438407|50
19.10.2018 00:00:00||ÇALIK HOLDİNG|10.40.25.97|||110000438407|80
19.10.2018 00:00:00||ÇALIK HOLDİNG|10.40.25.103|||110000438407|90
19.10.2018 00:00:00||ÇALIK HOLDİNG|10.40.25.120|||110000438407|47
19.10.2018 00:00:00||ÇALIK HOLDİNG|10.40.25.96|||110000438407|70
19.10.2018 00:00:00||ÇALIK HOLDİNG|10.40.25.96|||110000438407|90
19.10.2018 00:00:00||ÇALIK HOLDİNG|10.40.25.96|||110000438407|120
19.10.2018 00:00:00||ÇALIK HOLDİNG|10.40.25.96|||110000438407|90
19.10.2018 00:00:00||ÇALIK HOLDİNG|10.40.25.115|||110000438407|162
19.10.2018 00:00:00||ÇALIK HOLDİNG|10.40.25.115|||110000438407|70
19.10.2018 00:00:00||ÇALIK HOLDİNG|10.40.25.95|||110000438407|95
19.10.2018 00:00:00||ÇALIK HOLDİNG|10.40.25.96|||110000438407|90
19.10.2018 00:00:00||ÇALIK HOLDİNG|10.40.25.96|||110000438407|100
19.10.2018 00:00:00||ÇALIK HOLDİNG|10.40.25.120|||110000438407|20
19.10.2018 00:00:00||ÇALIK HOLDİNG|10.40.25.95|||110000438407|50
19.10.2018 00:00:00||ÇALIK HOLDİNG|10.40.24.94|||110000438407|192
19.10.2018 00:00:00||ÇALIK HOLDİNG|10.40.25.97|||110000438407|110
19.10.2018 00:00:00||ÇALIK HOLDİNG|10.40.25.120|||110000438407|60
19.10.2018 00:00:00||ÇALIK HOLDİNG|10.40.25.115|||110000438407|80
19.10.2018 00:00:00||ÇALIK HOLDİNG|10.40.25.115|||110000438407|70
19.10.2018 00:00:00||ÇALIK HOLDİNG|10.40.25.115|||110000438407|63
19.10.2018 00:00:00||ÇALIK HOLDİNG|10.40.25.101|||110000438407|50
19.10.2018 00:00:00||ÇALIK HOLDİNG|10.40.25.101|||110000438407|110
19.10.2018 00:00:00||ÇALIK HOLDİNG|10.40.25.101|||110000438407|30
19.10.2018 00:00:00||ÇALIK HOLDİNG|10.40.25.101|||110000438407|10
19.10.2018 00:00:00||ÇALIK HOLDİNG|10.40.25.101|||110000438407|90
19.10.2018 00:00:00||ÇALIK HOLDİNG|10.40.25.101|||110000438407|30
19.10.2018 00:00:00||ÇALIK HOLDİNG|10.40.25.101|||110000438407|40
19.10.2018 00:00:00||ÇALIK HOLDİNG|10.40.25.101|||110000438407|40
19.10.2018 00:00:00||ÇALIK HOLDİNG|10.40.25.101|||110000438407|90
19.10.2018 00:00:00||ÇALIK HOLDİNG|10.40.25.101|||110000438407|90
19.10.2018 00:00:00||ÇALIK HOLDİNG|10.40.25.101|||110000438407|90
19.10.2018 00:00:00||ÇALIK HOLDİNG|10.40.25.94|||110000438407|180
19.10.2018 00:00:00||ÇALIK HOLDİNG|10.40.25.94|||110000438407|180
19.10.2018 00:00:00||ÇALIK HOLDİNG|10.40.25.94|||110000438407|170
19.10.2018 00:00:00||ÇALIK HOLDİNG|10.40.25.94|||110000438407|180
19.10.2018 00:00:00||ÇALIK HOLDİNG|10.40.24.94|||110000438407|195
19.10.2018 00:00:00||ÇALIK HOLDİNG|10.40.24.94|||110000438407|198
19.10.2018 00:00:00||ÇALIK HOLDİNG|10.40.24.94|||110000438407|200
19.10.2018 00:00:00||ÇALIK HOLDİNG|10.40.25.95|||110000438407|20
19.10.2018 00:00:00||ÇALIK HOLDİNG|10.40.25.95|||110000438407|358
19.10.2018 00:00:00||ÇALIK HOLDİNG|10.40.25.95|||110000438407|355
19.10.2018 00:00:00||ÇALIK HOLDİNG|10.40.25.95|||110000438407|40
19.10.2018 00:00:00||ÇALIK HOLDİNG|10.40.24.95|||110000438407|102
19.10.2018 00:00:00||ÇALIK HOLDİNG|10.40.24.95|||110000438407|82
19.10.2018 00:00:00||ÇALIK HOLDİNG|10.40.24.95|||110000438407|388
19.10.2018 00:00:00||ÇALIK HOLDİNG|10.40.24.95|||110000438407|392
19.10.2018 00:00:00||ÇALIK HOLDİNG|10.40.25.96|||110000438407|90
19.10.2018 00:00:00||ÇALIK HOLDİNG|10.40.25.96|||110000438407|93
19.10.2018 00:00:00||ÇALIK HOLDİNG|10.40.25.96|||110000438407|100
19.10.2018 00:00:00||ÇALIK HOLDİNG|10.40.25.96|||110000438407|257
19.10.2018 00:00:00||ÇALIK HOLDİNG|10.40.25.96|||110000438407|263
19.10.2018 00:00:00||ÇALIK HOLDİNG|10.40.25.96|||110000438407|100
19.10.2018 00:00:00||ÇALIK HOLDİNG|10.40.25.96|||110000438407|90
19.10.2018 00:00:00||ÇALIK HOLDİNG|10.40.25.96|||110000438407|92
19.10.2018 00:00:00||ÇALIK HOLDİNG|10.40.25.97|||110000438407|88
19.10.2018 00:00:00||ÇALIK HOLDİNG|10.40.25.97|||110000438407|80
19.10.2018 00:00:00||ÇALIK HOLDİNG|10.40.25.97|||110000438407|303
19.10.2018 00:00:00||ÇALIK HOLDİNG|10.40.25.98|||110000438407|50
19.10.2018 00:00:00||ÇALIK HOLDİNG|10.40.25.98|||110000438407|162
19.10.2018 00:00:00||ÇALIK HOLDİNG|10.40.25.98|||110000438407|160
19.10.2018 00:00:00||ÇALIK HOLDİNG|10.40.25.98|||110000438407|163
19.10.2018 00:00:00||ÇALIK HOLDİNG|10.40.25.98|||110000438407|170
19.10.2018 00:00:00||ÇALIK HOLDİNG|10.40.25.98|||110000438407|62
19.10.2018 00:00:00||ÇALIK HOLDİNG|10.40.25.98|||110000438407|210
19.10.2018 00:00:00||ÇALIK HOLDİNG|10.40.25.98|||110000438407|180
19.10.2018 00:00:00||ÇALIK HOLDİNG|10.40.25.98|||110000438407|170
19.10.2018 00:00:00||ÇALIK HOLDİNG|10.40.25.98|||110000438407|212
19.10.2018 00:00:00||ÇALIK HOLDİNG|10.40.25.98|||110000438407|70
19.10.2018 00:00:00||ÇALIK HOLDİNG|10.40.25.98|||110000438407|303
19.10.2018 00:00:00||ÇALIK HOLDİNG|10.40.24.98|||110000438407|90
19.10.2018 00:00:00||ÇALIK HOLDİNG|10.40.24.98|||110000438407|153
19.10.2018 00:00:00||ÇALIK HOLDİNG|10.40.24.98|||110000438407|200
19.10.2018 00:00:00||ÇALIK HOLDİNG|10.40.24.98|||110000438407|200
19.10.2018 00:00:00||ÇALIK HOLDİNG|10.40.24.98|||110000438407|162
19.10.2018 00:00:00||ÇALIK HOLDİNG|10.40.24.98|||110000438407|30
19.10.2018 00:00:00||ÇALIK HOLDİNG|10.40.24.98|||110000438407|165
19.10.2018 00:00:00||ÇALIK HOLDİNG|10.40.24.98|||110000438407|180
19.10.2018 00:00:00||ÇALIK HOLDİNG|10.40.24.98|||110000438407|170
19.10.2018 00:00:00||ÇALIK HOLDİNG|10.40.24.98|||110000438407|170
19.10.2018 00:00:00||ÇALIK HOLDİNG|10.40.24.98|||110000438407|20
19.10.2018 00:00:00||ÇALIK HOLDİNG|10.40.24.98|||110000438407|282
19.10.2018 00:00:00||ÇALIK HOLDİNG|10.40.25.100|||110000438407|35
19.10.2018 00:00:00||ÇALIK HOLDİNG|10.40.25.100|||110000438407|40
19.10.2018 00:00:00||ÇALIK HOLDİNG|10.40.24.101|||110000438407|60
19.10.2018 00:00:00||ÇALIK HOLDİNG|10.40.24.101|||110000438407|110
19.10.2018 00:00:00||ÇALIK HOLDİNG|10.40.24.101|||110000438407|20
19.10.2018 00:00:00||ÇALIK HOLDİNG|10.40.24.101|||110000438407|20
19.10.2018 00:00:00||ÇALIK HOLDİNG|10.40.24.101|||110000438407|40
19.10.2018 00:00:00||ÇALIK HOLDİNG|10.40.24.101|||110000438407|83
19.10.2018 00:00:00||ÇALIK HOLDİNG|10.40.24.101|||110000438407|10
19.10.2018 00:00:00||ÇALIK HOLDİNG|10.40.24.101|||110000438407|20
19.10.2018 00:00:00||ÇALIK HOLDİNG|10.40.24.101|||110000438407|50
19.10.2018 00:00:00||ÇALIK HOLDİNG|10.40.24.101|||110000438407|30
19.10.2018 00:00:00||ÇALIK HOLDİNG|10.40.24.101|||110000438407|80
19.10.2018 00:00:00||ÇALIK HOLDİNG|10.40.24.101|||110000438407|80
19.10.2018 00:00:00||ÇALIK HOLDİNG|10.40.24.101|||110000438407|100
19.10.2018 00:00:00||ÇALIK HOLDİNG|10.40.25.102|||110000438407|100
19.10.2018 00:00:00||ÇALIK HOLDİNG|10.40.25.102|||110000438407|100
19.10.2018 00:00:00||ÇALIK HOLDİNG|10.40.25.102|||110000438407|150
19.10.2018 00:00:00||ÇALIK HOLDİNG|10.40.24.102|||110000438407|100
19.10.2018 00:00:00||ÇALIK HOLDİNG|10.40.24.102|||110000438407|100
19.10.2018 00:00:00||ÇALIK HOLDİNG|10.40.24.102|||110000438407|140
19.10.2018 00:00:00||ÇALIK HOLDİNG|10.40.25.103|||110000438407|90
19.10.2018 00:00:00||ÇALIK HOLDİNG|10.40.25.103|||110000438407|80
19.10.2018 00:00:00||ÇALIK HOLDİNG|10.40.25.103|||110000438407|20
19.10.2018 00:00:00||ÇALIK HOLDİNG|10.40.25.103|||110000438407|10
19.10.2018 00:00:00||ÇALIK HOLDİNG|10.40.25.115|||110000438407|80
19.10.2018 00:00:00||ÇALIK HOLDİNG|10.40.24.103|||110000438407|97
19.10.2018 00:00:00||ÇALIK HOLDİNG|10.40.24.103|||110000438407|80
19.10.2018 00:00:00||ÇALIK HOLDİNG|10.40.24.103|||110000438407|80
19.10.2018 00:00:00||ÇALIK HOLDİNG|10.40.24.103|||110000438407|10
19.10.2018 00:00:00||ÇALIK HOLDİNG|10.40.25.113|||110000438407|237
19.10.2018 00:00:00||ÇALIK HOLDİNG|10.40.25.113|||110000438407|253
19.10.2018 00:00:00||ÇALIK HOLDİNG|10.40.25.113|||110000438407|197
19.10.2018 00:00:00||ÇALIK HOLDİNG|10.40.25.113|||110000438407|208
19.10.2018 00:00:00||ÇALIK HOLDİNG|10.40.24.113|||110000438407|237
19.10.2018 00:00:00||ÇALIK HOLDİNG|10.40.24.113|||110000438407|238
19.10.2018 00:00:00||ÇALIK HOLDİNG|10.40.24.113|||110000438407|193
19.10.2018 00:00:00||ÇALIK HOLDİNG|10.40.24.113|||110000438407|162
19.10.2018 00:00:00||ÇALIK HOLDİNG|10.40.25.114|||110000438407|190
19.10.2018 00:00:00||ÇALIK HOLDİNG|10.40.25.114|||110000438407|422
19.10.2018 00:00:00||ÇALIK HOLDİNG|10.40.25.114|||110000438407|40
19.10.2018 00:00:00||ÇALIK HOLDİNG|10.40.24.114|||110000438407|20
19.10.2018 00:00:00||ÇALIK HOLDİNG|10.40.24.114|||110000438407|40
19.10.2018 00:00:00||ÇALIK HOLDİNG|10.40.24.114|||110000438407|160
19.10.2018 00:00:00||ÇALIK HOLDİNG|10.40.24.114|||110000438407|385
19.10.2018 00:00:00||ÇALIK HOLDİNG|10.40.24.115|||110000438407|152
19.10.2018 00:00:00||ÇALIK HOLDİNG|10.40.24.115|||110000438407|80
19.10.2018 00:00:00||ÇALIK HOLDİNG|10.40.24.115|||110000438407|90
19.10.2018 00:00:00||ÇALIK HOLDİNG|10.40.24.115|||110000438407|70
19.10.2018 00:00:00||ÇALIK HOLDİNG|10.40.24.115|||110000438407|83
19.10.2018 00:00:00||ÇALIK HOLDİNG|10.40.24.115|||110000438407|70
19.10.2018 00:00:00||ÇALIK HOLDİNG|10.40.25.116|||110000438407|103
19.10.2018 00:00:00||ÇALIK HOLDİNG|10.40.25.116|||110000438407|107
19.10.2018 00:00:00||ÇALIK HOLDİNG|10.40.25.116|||110000438407|305
19.10.2018 00:00:00||ÇALIK HOLDİNG|10.40.24.116|||110000438407|293
19.10.2018 00:00:00||ÇALIK HOLDİNG|10.40.24.116|||110000438407|107
19.10.2018 00:00:00||ÇALIK HOLDİNG|10.40.24.116|||110000438407|103
19.10.2018 00:00:00||ÇALIK HOLDİNG|10.40.25.117|||110000438407|243
19.10.2018 00:00:00||ÇALIK HOLDİNG|10.40.25.117|||110000438407|30
19.10.2018 00:00:00||ÇALIK HOLDİNG|10.40.25.117|||110000438407|25
19.10.2018 00:00:00||ÇALIK HOLDİNG|10.40.25.119|||110000438407|30
19.10.2018 00:00:00||ÇALIK HOLDİNG|10.40.25.119|||110000438407|30
19.10.2018 00:00:00||ÇALIK HOLDİNG|10.40.24.119|||110000438407|150
19.10.2018 00:00:00||ÇALIK HOLDİNG|10.40.24.119|||110000438407|30
19.10.2018 00:00:00||ÇALIK HOLDİNG|10.40.24.119|||110000438407|50
19.10.2018 00:00:00||ÇALIK HOLDİNG|10.40.25.120|||110000438407|107
19.10.2018 00:00:00||ÇALIK HOLDİNG|10.40.25.120|||110000438407|50
19.10.2018 00:00:00||ÇALIK HOLDİNG|10.40.25.120|||110000438407|20
19.10.2018 00:00:00||ÇALIK HOLDİNG|10.40.25.120|||110000438407|20
19.10.2018 00:00:00||ÇALIK HOLDİNG|10.40.25.120|||110000438407|30
19.10.2018 00:00:00||ÇALIK HOLDİNG|10.40.25.120|||110000438407|90
19.10.2018 00:00:00||ÇALIK HOLDİNG|10.40.25.120|||110000438407|90
19.10.2018 00:00:00||ÇALIK HOLDİNG|10.40.24.120|||110000438407|20
19.10.2018 00:00:00||ÇALIK HOLDİNG|10.40.24.120|||110000438407|30
19.10.2018 00:00:00||ÇALIK HOLDİNG|10.40.24.120|||110000438407|110
19.10.2018 00:00:00||ÇALIK HOLDİNG|10.40.24.120|||110000438407|100
19.10.2018 00:00:00||ÇALIK HOLDİNG|10.40.24.120|||110000438407|40
19.10.2018 00:00:00||ÇALIK HOLDİNG|10.40.24.120|||110000438407|80
19.10.2018 00:00:00||ÇALIK HOLDİNG|10.40.24.120|||110000438407|80
19.10.2018 00:00:00||ÇALIK HOLDİNG|10.40.24.120|||110000438407|70
19.10.2018 00:00:00||ÇALIK HOLDİNG|10.40.25.121|||110000438407|90
19.10.2018 00:00:00||ÇALIK HOLDİNG|10.40.25.121|||110000438407|100
19.10.2018 00:00:00||ÇALIK HOLDİNG|10.40.25.121|||110000438407|150
19.10.2018 00:00:00||ÇALIK HOLDİNG|10.40.24.121|||110000438407|100
19.10.2018 00:00:00||ÇALIK HOLDİNG|10.40.24.121|||110000438407|100
19.10.2018 00:00:00||ÇALIK HOLDİNG|10.40.24.121|||110000438407|140
19.10.2018 00:00:00||ÇALIK HOLDİNG|10.40.25.122|||110000438407|90
19.10.2018 00:00:00||ÇALIK HOLDİNG|10.40.25.122|||110000438407|83
19.10.2018 00:00:00||ÇALIK HOLDİNG|10.40.25.122|||110000438407|80
19.10.2018 00:00:00||ÇALIK HOLDİNG|10.40.25.122|||110000438407|30
19.10.2018 00:00:00||ÇALIK HOLDİNG|10.40.25.122|||110000438407|10
19.10.2018 00:00:00||ÇALIK HOLDİNG|10.40.24.122|||110000438407|90
19.10.2018 00:00:00||ÇALIK HOLDİNG|10.40.24.122|||110000438407|80
19.10.2018 00:00:00||ÇALIK HOLDİNG|10.40.24.122|||110000438407|87
19.10.2018 00:00:00||ÇALIK HOLDİNG|10.40.24.117|||110000438407|200
19.10.2018 00:00:00||ÇALIK HOLDİNG|10.40.24.117|||110000438407|30
19.10.2018 00:00:00||ÇALIK HOLDİNG|10.40.24.117|||110000438407|30
19.10.2018 00:00:00||ÇALIK HOLDİNG|10.40.24.97|||110000438407|103
19.10.2018 00:00:00||ÇALIK HOLDİNG|10.40.24.97|||110000438407|90
19.10.2018 00:00:00||ÇALIK HOLDİNG|10.40.24.97|||110000438407|80
19.10.2018 00:00:00||ÇALIK HOLDİNG|10.40.24.97|||110000438407|90
19.10.2018 00:00:00||ÇALIK HOLDİNG|10.40.24.97|||110000438407|322
19.10.2018 00:00:00||ÇALIK HOLDİNG|10.40.24.100|||110000438407|30
19.10.2018 00:00:00||ÇALIK HOLDİNG|10.40.24.100|||110000438407|40
19.10.2018 00:00:00||FIBABANKA|10.40.25.54|||101571767266|330
19.10.2018 00:00:00||FIBABANKA|10.40.27.54|||101571767266|310
19.10.2018 00:00:00||FIBABANKA|10.40.27.55|||101571767266|105
19.10.2018 00:00:00||FIBABANKA|10.40.24.54|||101571767266|314
19.10.2018 00:00:00||FIBABANKA|10.40.25.55|||101571767266|111
19.10.2018 00:00:00||FIBABANKA|10.40.24.55|||101571767266|110
19.10.2018 00:00:00||FIBABANKA|10.40.24.56|||101571767266|197
19.10.2018 00:00:00||FIBABANKA|10.40.25.56|||101571767266|198
19.10.2018 00:00:00||FIBABANKA|10.40.26.55|||101571767266|104
19.10.2018 00:00:00||FIBABANKA|10.40.26.54|||101571767266|317
19.10.2018 00:00:00||FIBABANKA|10.40.25.57|||101571767266|90
19.10.2018 00:00:00||FIBABANKA|10.40.25.57|||101571767266|90
19.10.2018 00:00:00||FIBABANKA|10.40.25.57|||101571767266|90
19.10.2018 00:00:00||FIBABANKA|10.40.26.51|||101571767266|20
19.10.2018 00:00:00||FIBABANKA|10.40.27.52|||101571767266|50
19.10.2018 00:00:00||FIBABANKA|10.40.27.52|||101571767266|60
19.10.2018 00:00:00||FIBABANKA|10.40.27.52|||101571767266|70
19.10.2018 00:00:00||FIBABANKA|10.40.27.73|||101571767266|10
19.10.2018 00:00:00||FIBABANKA|10.40.27.74|||101571767266|173
19.10.2018 00:00:00||FIBABANKA|10.40.25.53|||101571767266|32
19.10.2018 00:00:00||FIBABANKA|10.40.25.53|||101571767266|50
19.10.2018 00:00:00||FIBABANKA|10.40.27.53|||101571767266|55
19.10.2018 00:00:00||FIBABANKA|10.40.26.53|||101571767266|62
19.10.2018 00:00:00||FIBABANKA|10.40.25.51|||101571767266|20
19.10.2018 00:00:00||FIBABANKA|10.40.25.51|||101571767266|110
19.10.2018 00:00:00||FIBABANKA|10.40.24.51|||101571767266|20
19.10.2018 00:00:00||FIBABANKA|10.40.24.51|||101571767266|70
19.10.2018 00:00:00||FIBABANKA|10.40.24.51|||101571767266|100
19.10.2018 00:00:00||FIBABANKA|10.40.24.51|||101571767266|140
19.10.2018 00:00:00||FIBABANKA|10.40.24.51|||101571767266|30
19.10.2018 00:00:00||FIBABANKA|10.40.24.57|||101571767266|90
19.10.2018 00:00:00||FIBABANKA|10.40.24.57|||101571767266|80
19.10.2018 00:00:00||FIBABANKA|10.40.24.57|||101571767266|80
19.10.2018 00:00:00||FIBABANKA|10.40.24.52|||101571767266|40
19.10.2018 00:00:00||FIBABANKA|10.40.24.52|||101571767266|10
19.10.2018 00:00:00||FIBABANKA|10.40.26.73|||101571767266|40
19.10.2018 00:00:00||FIBABANKA|10.40.27.53|||101571767266|68
19.10.2018 00:00:00||FIBABANKA|10.40.26.51|||101571767266|72
19.10.2018 00:00:00||FIBABANKA|10.40.26.52|||101571767266|30
19.10.2018 00:00:00||FIBABANKA|10.40.26.52|||101571767266|90
19.10.2018 00:00:00||FIBABANKA|10.40.26.52|||101571767266|30
19.10.2018 00:00:00||FIBABANKA|10.40.25.51|||101571767266|140
19.10.2018 00:00:00||FIBABANKA|10.40.25.51|||101571767266|40
19.10.2018 00:00:00||FIBABANKA|10.40.25.51|||101571767266|40
19.10.2018 00:00:00||FIBABANKA|10.40.25.51|||101571767266|70
19.10.2018 00:00:00||FIBABANKA|10.40.24.51|||101571767266|30
19.10.2018 00:00:00||FIBABANKA|10.40.24.58|||101571767266|10
19.10.2018 00:00:00||FIBABANKA|10.40.24.58|||101571767266|10
19.10.2018 00:00:00||FIBABANKA|10.40.25.59|||101571767266|70
19.10.2018 00:00:00||FIBABANKA|10.40.25.59|||101571767266|92
19.10.2018 00:00:00||FIBABANKA|10.40.25.59|||101571767266|100
19.10.2018 00:00:00||FIBABANKA|10.40.25.59|||101571767266|40
19.10.2018 00:00:00||FIBABANKA|10.40.25.59|||101571767266|120
19.10.2018 00:00:00||FIBABANKA|10.40.25.59|||101571767266|65
19.10.2018 00:00:00||FIBABANKA|10.40.25.59|||101571767266|60
19.10.2018 00:00:00||FIBABANKA|10.40.25.59|||101571767266|157
19.10.2018 00:00:00||FIBABANKA|10.40.25.59|||101571767266|60
19.10.2018 00:00:00||FIBABANKA|10.40.24.59|||101571767266|70
19.10.2018 00:00:00||FIBABANKA|10.40.24.59|||101571767266|120
19.10.2018 00:00:00||FIBABANKA|10.40.24.59|||101571767266|73
19.10.2018 00:00:00||FIBABANKA|10.40.24.59|||101571767266|50
19.10.2018 00:00:00||FIBABANKA|10.40.24.59|||101571767266|130
19.10.2018 00:00:00||FIBABANKA|10.40.24.59|||101571767266|70
19.10.2018 00:00:00||FIBABANKA|10.40.24.59|||101571767266|60
19.10.2018 00:00:00||FIBABANKA|10.40.24.59|||101571767266|147
19.10.2018 00:00:00||FIBABANKA|10.40.24.59|||101571767266|63
19.10.2018 00:00:00||FIBABANKA|10.40.25.60|||101571767266|113
19.10.2018 00:00:00||FIBABANKA|10.40.25.60|||101571767266|33
19.10.2018 00:00:00||FIBABANKA|10.40.25.60|||101571767266|110
19.10.2018 00:00:00||FIBABANKA|10.40.25.60|||101571767266|42
19.10.2018 00:00:00||FIBABANKA|10.40.24.60|||101571767266|113
19.10.2018 00:00:00||FIBABANKA|10.40.24.60|||101571767266|58
19.10.2018 00:00:00||FIBABANKA|10.40.24.60|||101571767266|40
19.10.2018 00:00:00||FIBABANKA|10.40.24.60|||101571767266|102
19.10.2018 00:00:00||FIBABANKA|10.40.24.60|||101571767266|50
19.10.2018 00:00:00||FIBABANKA|10.40.25.72|||101571767266|70
19.10.2018 00:00:00||FIBABANKA|10.40.25.72|||101571767266|40
19.10.2018 00:00:00||FIBABANKA|10.40.25.72|||101571767266|30
19.10.2018 00:00:00||FIBABANKA|10.40.24.72|||101571767266|138
19.10.2018 00:00:00||FIBABANKA|10.40.24.72|||101571767266|77
19.10.2018 00:00:00||FIBABANKA|10.40.24.72|||101571767266|30
19.10.2018 00:00:00||FIBABANKA|10.40.24.72|||101571767266|40
19.10.2018 00:00:00||FIBABANKA|10.40.25.74|||101571767266|30
19.10.2018 00:00:00||FIBABANKA|10.40.25.75|||101571767266|40
19.10.2018 00:00:00||FIBABANKA|10.40.25.75|||101571767266|80
19.10.2018 00:00:00||FIBABANKA|10.40.25.75|||101571767266|143
19.10.2018 00:00:00||FIBABANKA|10.40.25.75|||101571767266|172
19.10.2018 00:00:00||FIBABANKA|10.40.25.75|||101571767266|187
19.10.2018 00:00:00||FIBABANKA|10.40.25.75|||101571767266|207
19.10.2018 00:00:00||FIBABANKA|10.40.24.75|||101571767266|43
19.10.2018 00:00:00||FIBABANKA|10.40.24.75|||101571767266|50
19.10.2018 00:00:00||FIBABANKA|10.40.24.75|||101571767266|167
19.10.2018 00:00:00||FIBABANKA|10.40.24.75|||101571767266|158
19.10.2018 00:00:00||FIBABANKA|10.40.24.76|||101571767266|37
19.10.2018 00:00:00||FIBABANKA|10.40.24.76|||101571767266|65
19.10.2018 00:00:00||FIBABANKA|10.40.24.76|||101571767266|10
19.10.2018 00:00:00||FIBABANKA|10.40.24.53|||101571767266|30
19.10.2018 00:00:00||FIBABANKA|10.40.24.53|||101571767266|58
19.10.2018 00:00:00||FIBABANKA|10.40.26.57|||101571767266|90
19.10.2018 00:00:00||FIBABANKA|10.40.26.57|||101571767266|82
19.10.2018 00:00:00||FIBABANKA|10.40.26.57|||101571767266|80
19.10.2018 00:00:00||FIBABANKA|10.40.27.72|||101571767266|40
19.10.2018 00:00:00||FIBABANKA|10.40.27.72|||101571767266|50
19.10.2018 00:00:00||FIBABANKA|10.40.27.72|||101571767266|40
19.10.2018 00:00:00||FIBABANKA|10.40.27.72|||101571767266|140
19.10.2018 00:00:00||FIBABANKA|10.40.27.72|||101571767266|62
19.10.2018 00:00:00||FIBABANKA|10.40.26.72|||101571767266|30
19.10.2018 00:00:00||FIBABANKA|10.40.26.72|||101571767266|140
19.10.2018 00:00:00||FIBABANKA|10.40.26.72|||101571767266|70
19.10.2018 00:00:00||FIBABANKA|10.40.26.72|||101571767266|30
19.10.2018 00:00:00||FIBABANKA|10.40.27.73|||101571767266|30
19.10.2018 00:00:00||FIBABANKA|10.40.27.73|||101571767266|100
19.10.2018 00:00:00||FIBABANKA|10.40.27.73|||101571767266|40
19.10.2018 00:00:00||FIBABANKA|10.40.27.73|||101571767266|45
19.10.2018 00:00:00||FIBABANKA|10.40.27.73|||101571767266|260
19.10.2018 00:00:00||FIBABANKA|10.40.26.73|||101571767266|40
19.10.2018 00:00:00||FIBABANKA|10.40.26.73|||101571767266|70
19.10.2018 00:00:00||FIBABANKA|10.40.26.73|||101571767266|30
19.10.2018 00:00:00||FIBABANKA|10.40.26.73|||101571767266|7
19.10.2018 00:00:00||FIBABANKA|10.40.27.74|||101571767266|70
19.10.2018 00:00:00||FIBABANKA|10.40.27.74|||101571767266|173
19.10.2018 00:00:00||FIBABANKA|10.40.27.74|||101571767266|173
19.10.2018 00:00:00||FIBABANKA|10.40.26.74|||101571767266|75
19.10.2018 00:00:00||FIBABANKA|10.40.26.74|||101571767266|185
19.10.2018 00:00:00||FIBABANKA|10.40.26.74|||101571767266|182
19.10.2018 00:00:00||FIBABANKA|10.40.26.74|||101571767266|173
19.10.2018 00:00:00||FIBABANKA|10.40.27.75|||101571767266|10
19.10.2018 00:00:00||FIBABANKA|10.40.27.75|||101571767266|10
19.10.2018 00:00:00||FIBABANKA|10.40.26.79|||101571767266|10
19.10.2018 00:00:00||FIBABANKA|10.40.27.79|||101571767266|12
19.10.2018 00:00:00||FIBABANKA|10.40.27.79|||101571767266|10
19.10.2018 00:00:00||FIBABANKA|10.40.26.79|||101571767266|10
19.10.2018 00:00:00||FIBABANKA|10.40.27.77|||101571767266|165
19.10.2018 00:00:00||FIBABANKA|10.40.26.77|||101571767266|187
19.10.2018 00:00:00||FIBABANKA|10.40.27.77|||101571767266|163
19.10.2018 00:00:00||FIBABANKA|10.40.25.74|||101571767266|228
19.10.2018 00:00:00||FIBABANKA|10.40.24.75|||101571767266|182
19.10.2018 00:00:00||FIBABANKA|10.40.24.53|||101571767266|170
19.10.2018 00:00:00||FIBABANKA|10.40.24.53|||101571767266|182
19.10.2018 00:00:00||FIBABANKA|10.40.25.52|||101571767266|10
19.10.2018 00:00:00||FIBABANKA|10.40.25.52|||101571767266|50
19.10.2018 00:00:00||FIBABANKA|10.40.25.52|||101571767266|60
19.10.2018 00:00:00||FIBABANKA|10.40.25.53|||101571767266|167
19.10.2018 00:00:00||FIBABANKA|10.40.25.53|||101571767266|153
19.10.2018 00:00:00||FIBABANKA|10.40.27.51|||101571767266|30
19.10.2018 00:00:00||FIBABANKA|10.40.27.51|||101571767266|20
19.10.2018 00:00:00||FIBABANKA|10.40.27.51|||101571767266|100
19.10.2018 00:00:00||FIBABANKA|10.40.27.51|||101571767266|140
19.10.2018 00:00:00||FIBABANKA|10.40.27.51|||101571767266|70
19.10.2018 00:00:00||FIBABANKA|10.40.27.51|||101571767266|40
19.10.2018 00:00:00||FIBABANKA|10.40.27.51|||101571767266|40
19.10.2018 00:00:00||FIBABANKA|10.40.26.51|||101571767266|10
19.10.2018 00:00:00||FIBABANKA|10.40.26.51|||101571767266|110
19.10.2018 00:00:00||FIBABANKA|10.40.26.51|||101571767266|130
19.10.2018 00:00:00||FIBABANKA|10.40.26.51|||101571767266|30
19.10.2018 00:00:00||FIBABANKA|10.40.26.51|||101571767266|30
19.10.2018 00:00:00||FIBABANKA|10.40.24.74|||101571767266|32
19.10.2018 00:00:00||FIBABANKA|10.40.25.76|||101571767266|60
19.10.2018 00:00:00||FIBABANKA|10.40.25.76|||101571767266|40
19.10.2018 00:00:00||FIBABANKA|10.40.25.76|||101571767266|10
19.10.2018 00:00:00||FIBABANKA|10.40.26.53|||101571767266|43
19.10.2018 00:00:00||FIBABANKA|10.40.26.53|||101571767266|167
19.10.2018 00:00:00||FIBABANKA|10.40.25.76|||101571767266|10
19.10.2018 00:00:00||FIBABANKA|10.40.27.53|||101571767266|178
19.10.2018 00:00:00||FIBABANKA|10.40.27.53|||101571767266|178
19.10.2018 00:00:00||FIBABANKA|10.40.26.53|||101571767266|162
19.10.2018 00:00:00||FIBABANKA|10.40.27.57|||101571767266|80
19.10.2018 00:00:00||FIBABANKA|10.40.27.57|||101571767266|80
19.10.2018 00:00:00||FIBABANKA|10.40.27.57|||101571767266|80
19.10.2018 00:00:00||HAVAŞ|10.40.24.48|||110000479675|753
19.10.2018 00:00:00||HAVAŞ|10.40.24.48|||110000479675|752
19.10.2018 00:00:00||HAVAŞ|10.40.25.48|||110000479675|747
19.10.2018 00:00:00||HAVAŞ|10.40.24.45|||110000479675|70
19.10.2018 00:00:00||HAVAŞ|10.40.25.45|||110000479675|68
19.10.2018 00:00:00||HAVAŞ|10.40.25.47|||110000479675|70
19.10.2018 00:00:00||HAVAŞ|10.40.24.46|||110000479675|80
19.10.2018 00:00:00||HAVAŞ|10.40.24.47|||110000479675|30
19.10.2018 00:00:00||HAVAŞ|10.40.24.47|||110000479675|90
19.10.2018 00:00:00||HAVAŞ|10.40.24.47|||110000479675|90
19.10.2018 00:00:00||HAVAŞ|10.40.25.46|||110000479675|10
19.10.2018 00:00:00||HAVAŞ|10.40.25.46|||110000479675|60
19.10.2018 00:00:00||HAVAŞ|10.40.24.48|||110000479675|758
19.10.2018 00:00:00||HAVAŞ|10.40.24.46|||110000479675|60
19.10.2018 00:00:00||HAVAŞ|10.40.24.46|||110000479675|70
19.10.2018 00:00:00||HAVAŞ|10.40.24.47|||110000479675|12
19.10.2018 00:00:00||HAVAŞ|10.40.25.48|||110000479675|742
19.10.2018 00:00:00||HAVAŞ|10.40.25.48|||110000479675|780
19.10.2018 00:00:00||HAVAŞ|10.40.25.45|||110000479675|93
19.10.2018 00:00:00||HAVAŞ|10.40.24.45|||110000479675|50
19.10.2018 00:00:00||HAVAŞ|10.40.24.45|||110000479675|170
19.10.2018 00:00:00||HAVAŞ|10.40.24.45|||110000479675|100
19.10.2018 00:00:00||HAVAŞ|10.40.25.47|||110000479675|70
19.10.2018 00:00:00||HAVAŞ|10.40.25.47|||110000479675|222
19.10.2018 00:00:00||HAVAŞ|10.40.25.47|||110000479675|55
19.10.2018 00:00:00||HAVAŞ|10.40.25.47|||110000479675|90
19.10.2018 00:00:00||HAVAŞ|10.40.25.47|||110000479675|90
19.10.2018 00:00:00||HAVAŞ|10.40.25.47|||110000479675|90
19.10.2018 00:00:00||HAVAŞ|10.40.25.47|||110000479675|115
19.10.2018 00:00:00||HAVAŞ|10.40.25.47|||110000479675|178
19.10.2018 00:00:00||HAVAŞ|10.40.25.47|||110000479675|90
19.10.2018 00:00:00||HAVAŞ|10.40.25.47|||110000479675|90
19.10.2018 00:00:00||HAVAŞ|10.40.25.47|||110000479675|90
19.10.2018 00:00:00||HAVAŞ|10.40.25.45|||110000479675|100
19.10.2018 00:00:00||HAVAŞ|10.40.25.45|||110000479675|88
19.10.2018 00:00:00||HAVAŞ|10.40.25.46|||110000479675|10
19.10.2018 00:00:00||HAVAŞ|10.40.25.46|||110000479675|10
19.10.2018 00:00:00||HAVAŞ|10.40.25.46|||110000479675|20
19.10.2018 00:00:00||HAVAŞ|10.40.25.46|||110000479675|20
19.10.2018 00:00:00||HAVAŞ|10.40.25.46|||110000479675|50
19.10.2018 00:00:00||HAVAŞ|10.40.25.46|||110000479675|100
19.10.2018 00:00:00||HAVAŞ|10.40.25.46|||110000479675|65
19.10.2018 00:00:00||HAVAŞ|10.40.25.46|||110000479675|73
19.10.2018 00:00:00||HAVAŞ|10.40.25.46|||110000479675|70
19.10.2018 00:00:00||HAVAŞ|10.40.24.46|||110000479675|20
19.10.2018 00:00:00||HAVAŞ|10.40.24.46|||110000479675|20
19.10.2018 00:00:00||HAVAŞ|10.40.24.46|||110000479675|10
19.10.2018 00:00:00||HAVAŞ|10.40.24.46|||110000479675|10
19.10.2018 00:00:00||HAVAŞ|10.40.24.46|||110000479675|10
19.10.2018 00:00:00||HAVAŞ|10.40.24.46|||110000479675|60
19.10.2018 00:00:00||HAVAŞ|10.40.24.46|||110000479675|110
19.10.2018 00:00:00||HAVAŞ|10.40.24.47|||110000479675|30
19.10.2018 00:00:00||HAVAŞ|10.40.24.47|||110000479675|213
19.10.2018 00:00:00||HAVAŞ|10.40.24.47|||110000479675|60
19.10.2018 00:00:00||HAVAŞ|10.40.24.47|||110000479675|57
19.10.2018 00:00:00||HAVAŞ|10.40.24.47|||110000479675|157
19.10.2018 00:00:00||HAVAŞ|10.40.24.47|||110000479675|100
19.10.2018 00:00:00||HAVAŞ|10.40.24.47|||110000479675|100
19.10.2018 00:00:00||HAVAŞ|10.40.24.46|||110000479675|10
19.10.2018 00:00:00||MARS CINEMA|10.40.24.203|||110000472614|72
19.10.2018 00:00:00||MARS CINEMA|10.40.24.203|||110000472614|168
19.10.2018 00:00:00||MARS CINEMA|10.40.24.203|||110000472614|80
19.10.2018 00:00:00||MARS CINEMA|10.40.24.204|||110000472614|63
19.10.2018 00:00:00||MARS CINEMA|10.40.24.203|||110000472614|103
19.10.2018 00:00:00||MARS CINEMA|10.40.24.204|||110000472614|20
19.10.2018 00:00:00||MARS CINEMA|10.40.24.204|||110000472614|90
19.10.2018 00:00:00||MARS CINEMA|10.40.25.203|||110000472614|160
19.10.2018 00:00:00||MARS CINEMA|10.40.25.203|||110000472614|87
19.10.2018 00:00:00||MARS CINEMA|10.40.25.203|||110000472614|177
19.10.2018 00:00:00||MARS CINEMA|10.40.25.203|||110000472614|95
19.10.2018 00:00:00||MARS CINEMA|10.40.25.203|||110000472614|83
19.10.2018 00:00:00||MARS CINEMA|10.40.25.203|||110000472614|110
19.10.2018 00:00:00||MARS CINEMA|10.40.25.203|||110000472614|78
19.10.2018 00:00:00||MARS CINEMA|10.40.25.203|||110000472614|150
19.10.2018 00:00:00||MARS CINEMA|10.40.25.203|||110000472614|90
19.10.2018 00:00:00||MARS CINEMA|10.40.25.203|||110000472614|110
19.10.2018 00:00:00||MARS CINEMA|10.40.25.203|||110000472614|90
19.10.2018 00:00:00||MARS CINEMA|10.40.25.203|||110000472614|60
19.10.2018 00:00:00||MARS CINEMA|10.40.25.203|||110000472614|190
19.10.2018 00:00:00||MARS CINEMA|10.40.25.204|||110000472614|110
19.10.2018 00:00:00||MARS CINEMA|10.40.25.204|||110000472614|70
19.10.2018 00:00:00||MARS CINEMA|10.40.25.204|||110000472614|80
19.10.2018 00:00:00||MARS CINEMA|10.40.25.204|||110000472614|100
19.10.2018 00:00:00||MARS CINEMA|10.40.25.204|||110000472614|20
19.10.2018 00:00:00||MARS CINEMA|10.40.25.204|||110000472614|20
19.10.2018 00:00:00||MARS CINEMA|10.40.25.204|||110000472614|30
19.10.2018 00:00:00||MARS CINEMA|10.40.25.204|||110000472614|40
19.10.2018 00:00:00||MARS CINEMA|10.40.25.204|||110000472614|90
19.10.2018 00:00:00||MARS CINEMA|10.40.25.204|||110000472614|120
19.10.2018 00:00:00||MARS CINEMA|10.40.25.204|||110000472614|80
19.10.2018 00:00:00||MARS CINEMA|10.40.25.204|||110000472614|80
19.10.2018 00:00:00||MARS CINEMA|10.40.25.204|||110000472614|110
19.10.2018 00:00:00||MARS CINEMA|10.40.25.204|||110000472614|100
19.10.2018 00:00:00||MARS CINEMA|10.40.24.203|||110000472614|80
19.10.2018 00:00:00||MARS CINEMA|10.40.24.203|||110000472614|92
19.10.2018 00:00:00||MARS CINEMA|10.40.24.203|||110000472614|140
19.10.2018 00:00:00||MARS CINEMA|10.40.24.203|||110000472614|53
19.10.2018 00:00:00||MARS CINEMA|10.40.24.203|||110000472614|140
19.10.2018 00:00:00||MARS CINEMA|10.40.24.203|||110000472614|157
19.10.2018 00:00:00||MARS CINEMA|10.40.24.203|||110000472614|100
19.10.2018 00:00:00||MARS CINEMA|10.40.24.203|||110000472614|187
19.10.2018 00:00:00||MARS CINEMA|10.40.24.204|||110000472614|110
19.10.2018 00:00:00||MARS CINEMA|10.40.24.204|||110000472614|90
19.10.2018 00:00:00||MARS CINEMA|10.40.24.204|||110000472614|90
19.10.2018 00:00:00||MARS CINEMA|10.40.24.204|||110000472614|20
19.10.2018 00:00:00||MARS CINEMA|10.40.24.204|||110000472614|10
19.10.2018 00:00:00||MARS CINEMA|10.40.24.204|||110000472614|90
19.10.2018 00:00:00||MARS CINEMA|10.40.24.204|||110000472614|123
19.10.2018 00:00:00||MARS CINEMA|10.40.24.204|||110000472614|90
19.10.2018 00:00:00||MARS CINEMA|10.40.24.204|||110000472614|107
19.10.2018 00:00:00||MARS CINEMA|10.40.24.204|||110000472614|80
19.10.2018 00:00:00||MARS CINEMA|10.40.25.206|||110000472614|120
19.10.2018 00:00:00||MARS CINEMA|10.40.25.206|||110000472614|40
19.10.2018 00:00:00||MARS CINEMA|10.40.25.206|||110000472614|40
19.10.2018 00:00:00||MARS CINEMA|10.40.25.206|||110000472614|40
19.10.2018 00:00:00||MARS CINEMA|10.40.25.206|||110000472614|20
19.10.2018 00:00:00||MARS CINEMA|10.40.25.206|||110000472614|20
19.10.2018 00:00:00||MARS CINEMA|10.40.25.206|||110000472614|30
19.10.2018 00:00:00||MARS CINEMA|10.40.25.206|||110000472614|60
19.10.2018 00:00:00||MARS CINEMA|10.40.25.206|||110000472614|40
19.10.2018 00:00:00||MARS CINEMA|10.40.25.206|||110000472614|82
19.10.2018 00:00:00||MARS CINEMA|10.40.25.206|||110000472614|87
19.10.2018 00:00:00||MARS CINEMA|10.40.24.206|||110000472614|150
19.10.2018 00:00:00||MARS CINEMA|10.40.24.206|||110000472614|40
19.10.2018 00:00:00||MARS CINEMA|10.40.24.206|||110000472614|40
19.10.2018 00:00:00||MARS CINEMA|10.40.24.206|||110000472614|43
19.10.2018 00:00:00||MARS CINEMA|10.40.24.206|||110000472614|30
19.10.2018 00:00:00||MARS CINEMA|10.40.24.206|||110000472614|30
19.10.2018 00:00:00||MARS CINEMA|10.40.24.206|||110000472614|192
19.10.2018 00:00:00||MARS CINEMA|10.40.24.206|||110000472614|160
19.10.2018 00:00:00||MARS CINEMA|10.40.24.206|||110000472614|20
19.10.2018 00:00:00||MARS CINEMA|10.40.24.206|||110000472614|80
19.10.2018 00:00:00||MARS CINEMA|10.40.24.206|||110000472614|80
19.10.2018 00:00:00||MARS CINEMA|10.40.24.203|||110000472614|102
19.10.2018 00:00:00||MARS CINEMA|10.40.24.204|||110000472614|40
19.10.2018 00:00:00||PEGASUS|10.40.27.66|||110000423831|113
19.10.2018 00:00:00||PEGASUS|10.40.26.66|||110000423831|94
19.10.2018 00:00:00||PEGASUS|10.40.26.84|||110000423831|221
19.10.2018 00:00:00||PEGASUS|10.40.27.85|||110000423831|116
19.10.2018 00:00:00||PEGASUS|10.40.26.85|||110000423831|121
19.10.2018 00:00:00||PEGASUS|10.40.27.64|||110000423831|70
19.10.2018 00:00:00||PEGASUS|10.40.27.64|||110000423831|70
19.10.2018 00:00:00||PEGASUS|10.40.27.63|||110000423831|60
19.10.2018 00:00:00||PEGASUS|10.40.27.63|||110000423831|70
19.10.2018 00:00:00||PEGASUS|10.40.27.63|||110000423831|90
19.10.2018 00:00:00||PEGASUS|10.40.26.63|||110000423831|110
19.10.2018 00:00:00||PEGASUS|10.40.27.67|||110000423831|362
19.10.2018 00:00:00||PEGASUS|10.40.27.64|||110000423831|270
19.10.2018 00:00:00||PEGASUS|10.40.27.64|||110000423831|262
19.10.2018 00:00:00||PEGASUS|10.40.27.63|||110000423831|73
19.10.2018 00:00:00||PEGASUS|10.40.27.63|||110000423831|70
19.10.2018 00:00:00||PEGASUS|10.40.27.63|||110000423831|80
19.10.2018 00:00:00||PEGASUS|10.40.26.63|||110000423831|110
19.10.2018 00:00:00||PEGASUS|10.40.26.63|||110000423831|110
19.10.2018 00:00:00||PEGASUS|10.40.27.81|||110000423831|455
19.10.2018 00:00:00||PEGASUS|10.40.27.81|||110000423831|418
19.10.2018 00:00:00||PEGASUS|10.40.26.63|||110000423831|90
19.10.2018 00:00:00||PEGASUS|10.40.26.63|||110000423831|60
19.10.2018 00:00:00||PEGASUS|10.40.26.67|||110000423831|30
19.10.2018 00:00:00||PEGASUS|10.40.26.67|||110000423831|340
19.10.2018 00:00:00||PEGASUS|10.40.26.67|||110000423831|60
19.10.2018 00:00:00||PEGASUS|10.40.26.67|||110000423831|40
19.10.2018 00:00:00||PEGASUS|10.40.26.67|||110000423831|70
19.10.2018 00:00:00||PEGASUS|10.40.26.68|||110000423831|100
19.10.2018 00:00:00||PEGASUS|10.40.27.64|||110000423831|287
19.10.2018 00:00:00||PEGASUS|10.40.27.64|||110000423831|265
19.10.2018 00:00:00||PEGASUS|10.40.27.64|||110000423831|290
19.10.2018 00:00:00||PEGASUS|10.40.27.64|||110000423831|270
19.10.2018 00:00:00||PEGASUS|10.40.27.64|||110000423831|275
19.10.2018 00:00:00||PEGASUS|10.40.27.86|||110000423831|340
19.10.2018 00:00:00||PEGASUS|10.40.27.63|||110000423831|90
19.10.2018 00:00:00||PEGASUS|10.40.26.63|||110000423831|130
19.10.2018 00:00:00||PEGASUS|10.40.26.63|||110000423831|60
19.10.2018 00:00:00||PEGASUS|10.40.26.63|||110000423831|80
19.10.2018 00:00:00||PEGASUS|10.40.26.67|||110000423831|340
19.10.2018 00:00:00||PEGASUS|10.40.27.63|||110000423831|50
19.10.2018 00:00:00||PEGASUS|10.40.27.63|||110000423831|60
19.10.2018 00:00:00||PEGASUS|10.40.27.81|||110000423831|423
19.10.2018 00:00:00||PEGASUS|10.40.26.62|||110000423831|90
19.10.2018 00:00:00||PEGASUS|10.40.26.63|||110000423831|50
19.10.2018 00:00:00||PEGASUS|10.40.26.63|||110000423831|100
19.10.2018 00:00:00||PEGASUS|10.40.26.63|||110000423831|40
19.10.2018 00:00:00||PEGASUS|10.40.26.63|||110000423831|70
19.10.2018 00:00:00||PEGASUS|10.40.26.67|||110000423831|343
19.10.2018 00:00:00||PEGASUS|10.40.27.64|||110000423831|278
19.10.2018 00:00:00||PEGASUS|10.40.27.64|||110000423831|272
19.10.2018 00:00:00||PEGASUS|10.40.27.64|||110000423831|262
19.10.2018 00:00:00||PEGASUS|10.40.27.64|||110000423831|282
19.10.2018 00:00:00||PEGASUS|10.40.27.64|||110000423831|310
19.10.2018 00:00:00||PEGASUS|10.40.27.86|||110000423831|40
19.10.2018 00:00:00||PEGASUS|10.40.27.63|||110000423831|70
19.10.2018 00:00:00||PEGASUS|10.40.27.63|||110000423831|80
19.10.2018 00:00:00||PEGASUS|10.40.27.63|||110000423831|80
19.10.2018 00:00:00||PEGASUS|10.40.27.63|||110000423831|90
19.10.2018 00:00:00||PEGASUS|10.40.27.63|||110000423831|150
19.10.2018 00:00:00||PEGASUS|10.40.27.63|||110000423831|215
19.10.2018 00:00:00||PEGASUS|10.40.27.63|||110000423831|52
19.10.2018 00:00:00||PEGASUS|10.40.26.64|||110000423831|80
19.10.2018 00:00:00||PEGASUS|10.40.26.64|||110000423831|80
19.10.2018 00:00:00||PEGASUS|10.40.26.82|||110000423831|210
19.10.2018 00:00:00||PEGASUS|10.40.26.82|||110000423831|110
19.10.2018 00:00:00||PEGASUS|10.40.26.82|||110000423831|80
19.10.2018 00:00:00||PEGASUS|10.40.26.82|||110000423831|150
19.10.2018 00:00:00||PEGASUS|10.40.26.82|||110000423831|140
19.10.2018 00:00:00||PEGASUS|10.40.26.82|||110000423831|140
19.10.2018 00:00:00||PEGASUS|10.40.26.82|||110000423831|180
19.10.2018 00:00:00||PEGASUS|10.40.26.82|||110000423831|30
19.10.2018 00:00:00||PEGASUS|10.40.26.82|||110000423831|40
19.10.2018 00:00:00||PEGASUS|10.40.26.82|||110000423831|20
19.10.2018 00:00:00||PEGASUS|10.40.26.82|||110000423831|70
19.10.2018 00:00:00||PEGASUS|10.40.26.82|||110000423831|50
19.10.2018 00:00:00||PEGASUS|10.40.26.82|||110000423831|40
19.10.2018 00:00:00||PEGASUS|10.40.27.83|||110000423831|577
19.10.2018 00:00:00||PEGASUS|10.40.27.83|||110000423831|70
19.10.2018 00:00:00||PEGASUS|10.40.27.83|||110000423831|565
19.10.2018 00:00:00||PEGASUS|10.40.27.83|||110000423831|555
19.10.2018 00:00:00||PEGASUS|10.40.27.83|||110000423831|70
19.10.2018 00:00:00||PEGASUS|10.40.26.83|||110000423831|503
19.10.2018 00:00:00||PEGASUS|10.40.26.83|||110000423831|50
19.10.2018 00:00:00||PEGASUS|10.40.26.83|||110000423831|400
19.10.2018 00:00:00||PEGASUS|10.40.26.83|||110000423831|502
19.10.2018 00:00:00||PEGASUS|10.40.26.83|||110000423831|498
19.10.2018 00:00:00||PEGASUS|10.40.26.86|||110000423831|360
19.10.2018 00:00:00||PEGASUS|10.40.26.86|||110000423831|138
19.10.2018 00:00:00||PEGASUS|10.40.26.86|||110000423831|350
19.10.2018 00:00:00||PEGASUS|10.40.26.86|||110000423831|50
19.10.2018 00:00:00||PEGASUS|10.40.26.86|||110000423831|30
19.10.2018 00:00:00||PEGASUS|10.40.26.86|||110000423831|350
19.10.2018 00:00:00||PEGASUS|10.40.26.86|||110000423831|40
19.10.2018 00:00:00||PEGASUS|10.40.27.87|||110000423831|90
19.10.2018 00:00:00||PEGASUS|10.40.27.87|||110000423831|88
19.10.2018 00:00:00||PEGASUS|10.40.27.87|||110000423831|90
19.10.2018 00:00:00||PEGASUS|10.40.27.87|||110000423831|20
19.10.2018 00:00:00||PEGASUS|10.40.26.87|||110000423831|90
19.10.2018 00:00:00||PEGASUS|10.40.26.87|||110000423831|90
19.10.2018 00:00:00||PEGASUS|10.40.26.87|||110000423831|90
19.10.2018 00:00:00||PEGASUS|10.40.26.87|||110000423831|60
19.10.2018 00:00:00||PEGASUS|10.40.26.87|||110000423831|20
19.10.2018 00:00:00||PEGASUS|10.40.26.81|||110000423831|398
19.10.2018 00:00:00||PEGASUS|10.40.26.81|||110000423831|412
19.10.2018 00:00:00||PEGASUS|10.40.26.81|||110000423831|430
19.10.2018 00:00:00||PEGASUS|10.40.27.82|||110000423831|220
19.10.2018 00:00:00||PEGASUS|10.40.27.82|||110000423831|30
19.10.2018 00:00:00||PEGASUS|10.40.27.82|||110000423831|108
19.10.2018 00:00:00||PEGASUS|10.40.27.82|||110000423831|87
19.10.2018 00:00:00||PEGASUS|10.40.27.82|||110000423831|160
19.10.2018 00:00:00||PEGASUS|10.40.27.82|||110000423831|127
19.10.2018 00:00:00||PEGASUS|10.40.27.82|||110000423831|178
19.10.2018 00:00:00||PEGASUS|10.40.27.82|||110000423831|117
19.10.2018 00:00:00||PEGASUS|10.40.27.82|||110000423831|60
19.10.2018 00:00:00||PEGASUS|10.40.27.82|||110000423831|80
19.10.2018 00:00:00||PEGASUS|10.40.27.82|||110000423831|50
19.10.2018 00:00:00||PEGASUS|10.40.27.82|||110000423831|32
19.10.2018 00:00:00||PEGASUS|10.40.27.82|||110000423831|40
19.10.2018 00:00:00||PEGASUS|10.40.27.67|||110000423831|50
19.10.2018 00:00:00||PEGASUS|10.40.27.67|||110000423831|70
19.10.2018 00:00:00||PEGASUS|10.40.27.67|||110000423831|130
19.10.2018 00:00:00||PEGASUS|10.40.27.67|||110000423831|10
19.10.2018 00:00:00||PEGASUS|10.40.27.67|||110000423831|340
19.10.2018 00:00:00||PEGASUS|10.40.27.82|||110000423831|73
19.10.2018 00:00:00||PEGASUS|10.40.27.86|||110000423831|170
19.10.2018 00:00:00||PEGASUS|10.40.27.86|||110000423831|70
19.10.2018 00:00:00||PEGASUS|10.40.27.86|||110000423831|20
19.10.2018 00:00:00||PEGASUS|10.40.27.86|||110000423831|350
19.10.2018 00:00:00||PEGASUS|10.40.27.67|||110000423831|340
19.10.2018 00:00:00||PEGASUS|10.40.27.67|||110000423831|40
19.10.2018 00:00:00||PEGASUS|10.40.26.62|||110000423831|10
19.10.2018 00:00:00||PEGASUS|10.40.26.62|||110000423831|190
19.10.2018 00:00:00||PEGASUS|10.40.26.63|||110000423831|70
19.10.2018 00:00:00||PEGASUS|10.40.26.63|||110000423831|30
19.10.2018 00:00:00||PEGASUS|10.40.26.63|||110000423831|60
19.10.2018 00:00:00||PEGASUS|10.40.26.63|||110000423831|30
19.10.2018 00:00:00||PEGASUS|10.40.26.63|||110000423831|230
19.10.2018 00:00:00||PEGASUS|10.40.26.63|||110000423831|140
19.10.2018 00:00:00||PEGASUS|10.40.26.63|||110000423831|110
19.10.2018 00:00:00||PEGASUS|10.40.26.63|||110000423831|60
19.10.2018 00:00:00||PEGASUS|10.40.26.67|||110000423831|170
19.10.2018 00:00:00||PEGASUS|10.40.27.68|||110000423831|90
19.10.2018 00:00:00||PEGASUS|10.40.27.68|||110000423831|87
19.10.2018 00:00:00||PEGASUS|10.40.27.68|||110000423831|90
19.10.2018 00:00:00||PEGASUS|10.40.27.68|||110000423831|50
19.10.2018 00:00:00||PEGASUS|10.40.26.68|||110000423831|90
19.10.2018 00:00:00||PEGASUS|10.40.26.68|||110000423831|90
19.10.2018 00:00:00||PEGASUS|10.40.26.68|||110000423831|50
19.10.2018 00:00:00||PEGASUS|10.40.27.63|||110000423831|40
19.10.2018 00:00:00||PEGASUS|10.40.27.86|||110000423831|340
19.10.2018 00:00:00||PEGASUS|10.40.27.63|||110000423831|50
19.10.2018 00:00:00||PEGASUS|10.40.27.63|||110000423831|60
19.10.2018 00:00:00||PWC|10.40.24.66|||110000433262|80
19.10.2018 00:00:00||PWC|10.40.24.66|||110000433262|10
19.10.2018 00:00:00||PWC|10.40.24.66|||110000433262|30
19.10.2018 00:00:00||PWC|10.40.24.66|||110000433262|57
19.10.2018 00:00:00||PWC|10.40.24.66|||110000433262|440
19.10.2018 00:00:00||PWC|10.40.24.68|||110000433262|147
19.10.2018 00:00:00||PWC|10.40.24.66|||110000433262|47
19.10.2018 00:00:00||PWC|10.40.24.66|||110000433262|212
19.10.2018 00:00:00||PWC|10.40.24.66|||110000433262|210
19.10.2018 00:00:00||PWC|10.40.25.67|||110000433262|80
19.10.2018 00:00:00||PWC|10.40.25.67|||110000433262|90
19.10.2018 00:00:00||PWC|10.40.25.67|||110000433262|320
19.10.2018 00:00:00||PWC|10.40.25.67|||110000433262|250
19.10.2018 00:00:00||PWC|10.40.25.67|||110000433262|240
19.10.2018 00:00:00||PWC|10.40.25.67|||110000433262|250
19.10.2018 00:00:00||PWC|10.40.25.67|||110000433262|50
19.10.2018 00:00:00||PWC|10.40.25.67|||110000433262|30
19.10.2018 00:00:00||PWC|10.40.25.67|||110000433262|120
19.10.2018 00:00:00||PWC|10.40.24.67|||110000433262|12
19.10.2018 00:00:00||PWC|10.40.24.67|||110000433262|10
19.10.2018 00:00:00||PWC|10.40.24.67|||110000433262|387
19.10.2018 00:00:00||PWC|10.40.24.67|||110000433262|30
19.10.2018 00:00:00||PWC|10.40.24.67|||110000433262|67
19.10.2018 00:00:00||PWC|10.40.24.67|||110000433262|120
19.10.2018 00:00:00||PWC|10.40.25.68|||110000433262|140
19.10.2018 00:00:00||PWC|10.40.25.68|||110000433262|200
19.10.2018 00:00:00||PWC|10.40.25.68|||110000433262|65
19.10.2018 00:00:00||PWC|10.40.25.68|||110000433262|70
19.10.2018 00:00:00||PWC|10.40.25.68|||110000433262|143
19.10.2018 00:00:00||PWC|10.40.24.66|||110000433262|60
19.10.2018 00:00:00||PWC|10.40.24.66|||110000433262|30
19.10.2018 00:00:00||PWC|10.40.24.66|||110000433262|30
19.10.2018 00:00:00||PWC|10.40.24.68|||110000433262|102
19.10.2018 00:00:00||PWC|10.40.24.68|||110000433262|138
19.10.2018 00:00:00||PWC|10.40.24.68|||110000433262|398
19.10.2018 00:00:00||PWC|10.40.24.68|||110000433262|60
19.10.2018 00:00:00||PWC|10.40.24.68|||110000433262|62
19.10.2018 00:00:00||VSMART BİLGİ TEKNOLOJİLERİ|10.40.24.62|||110000474326|40
19.10.2018 00:00:00||VSMART BİLGİ TEKNOLOJİLERİ|10.40.24.62|||110000474326|70
19.10.2018 00:00:00||VSMART BİLGİ TEKNOLOJİLERİ|10.40.24.62|||110000474326|33
19.10.2018 00:00:00||VSMART BİLGİ TEKNOLOJİLERİ|10.40.25.62|||110000474326|68
19.10.2018 00:00:00||VSMART BİLGİ TEKNOLOJİLERİ|10.40.24.62|||110000474326|40
19.10.2018 00:00:00||VSMART BİLGİ TEKNOLOJİLERİ|10.40.24.62|||110000474326|32
19.10.2018 00:00:00||VSMART BİLGİ TEKNOLOJİLERİ|10.40.24.62|||110000474326|10
19.10.2018 00:00:00||VSMART BİLGİ TEKNOLOJİLERİ|10.40.25.62|||110000474326|40
19.10.2018 00:00:00||VSMART BİLGİ TEKNOLOJİLERİ|10.40.25.62|||110000474326|10
19.10.2018 00:00:00||VSMART BİLGİ TEKNOLOJİLERİ|10.40.25.62|||110000474326|10
19.10.2018 00:00:00||VSMART BİLGİ TEKNOLOJİLERİ|10.40.25.62|||110000474326|80
19.10.2018 00:00:00||VSMART BİLGİ TEKNOLOJİLERİ|10.40.25.62|||110000474326|88
19.10.2018 00:00:00||VSMART BİLGİ TEKNOLOJİLERİ|10.40.25.62|||110000474326|102
19.10.2018 00:00:00||VSMART BİLGİ TEKNOLOJİLERİ|10.40.24.62|||110000474326|10
