25.10.2018 00:00:00||AKTİFBANK|10.40.24.172|||110000438458|95
25.10.2018 00:00:00||AKTİFBANK|10.40.25.134|||110000438458|93
25.10.2018 00:00:00||AKTİFBANK|10.40.24.134|||110000438458|93
25.10.2018 00:00:00||AKTİFBANK|10.40.24.135|||110000438458|99
25.10.2018 00:00:00||AKTİFBANK|10.40.25.137|||110000438458|57
25.10.2018 00:00:00||AKTİFBANK|10.40.25.171|||110000438458|12
25.10.2018 00:00:00||AKTİFBANK|10.40.25.172|||110000438458|88
25.10.2018 00:00:00||AKTİFBANK|10.40.25.174|||110000438458|53
25.10.2018 00:00:00||AKTİFBANK|10.40.25.135|||110000438458|97
25.10.2018 00:00:00||AKTİFBANK|10.40.24.137|||110000438458|57
25.10.2018 00:00:00||AKTİFBANK|10.40.24.171|||110000438458|11
25.10.2018 00:00:00||AKTİFBANK|10.40.25.173|||110000438458|94
25.10.2018 00:00:00||AKTİFBANK|10.40.24.173|||110000438458|93
25.10.2018 00:00:00||AKTİFBANK|10.40.24.174|||110000438458|60
25.10.2018 00:00:00||AKTİFBANK|10.40.24.133|||110000438458|78
25.10.2018 00:00:00||AKTİFBANK|10.40.24.138|||110000438458|122
25.10.2018 00:00:00||AKTİFBANK|10.40.24.139|||110000438458|30
25.10.2018 00:00:00||AKTİFBANK|10.40.24.149|||110000438458|110
25.10.2018 00:00:00||AKTİFBANK|10.40.24.150|||110000438458|538
25.10.2018 00:00:00||AKTİFBANK|10.40.24.145|||110000438458|60
25.10.2018 00:00:00||AKTİFBANK|10.40.24.164|||110000438458|228
25.10.2018 00:00:00||AKTİFBANK|10.40.25.133|||110000438458|70
25.10.2018 00:00:00||AKTİFBANK|10.40.24.145|||110000438458|90
25.10.2018 00:00:00||AKTİFBANK|10.40.24.158|||110000438458|83
25.10.2018 00:00:00||AKTİFBANK|10.40.24.164|||110000438458|70
25.10.2018 00:00:00||AKTİFBANK|10.40.25.138|||110000438458|80
25.10.2018 00:00:00||AKTİFBANK|10.40.25.139|||110000438458|10
25.10.2018 00:00:00||AKTİFBANK|10.40.25.140|||110000438458|30
25.10.2018 00:00:00||AKTİFBANK|10.40.25.151|||110000438458|500
25.10.2018 00:00:00||AKTİFBANK|10.40.25.141|||110000438458|100
25.10.2018 00:00:00||AKTİFBANK|10.40.25.141|||110000438458|85
25.10.2018 00:00:00||AKTİFBANK|10.40.25.142|||110000438458|72
25.10.2018 00:00:00||AKTİFBANK|10.40.25.133|||110000438458|110
25.10.2018 00:00:00||AKTİFBANK|10.40.25.149|||110000438458|102
25.10.2018 00:00:00||AKTİFBANK|10.40.25.149|||110000438458|90
25.10.2018 00:00:00||AKTİFBANK|10.40.25.149|||110000438458|90
25.10.2018 00:00:00||AKTİFBANK|10.40.25.140|||110000438458|30
25.10.2018 00:00:00||AKTİFBANK|10.40.25.150|||110000438458|527
25.10.2018 00:00:00||AKTİFBANK|10.40.25.139|||110000438458|170
25.10.2018 00:00:00||AKTİFBANK|10.40.25.139|||110000438458|40
25.10.2018 00:00:00||AKTİFBANK|10.40.25.140|||110000438458|80
25.10.2018 00:00:00||AKTİFBANK|10.40.25.140|||110000438458|70
25.10.2018 00:00:00||AKTİFBANK|10.40.25.140|||110000438458|30
25.10.2018 00:00:00||AKTİFBANK|10.40.25.151|||110000438458|510
25.10.2018 00:00:00||AKTİFBANK|10.40.25.151|||110000438458|498
25.10.2018 00:00:00||AKTİFBANK|10.40.25.141|||110000438458|40
25.10.2018 00:00:00||AKTİFBANK|10.40.25.141|||110000438458|100
25.10.2018 00:00:00||AKTİFBANK|10.40.25.141|||110000438458|92
25.10.2018 00:00:00||AKTİFBANK|10.40.25.142|||110000438458|40
25.10.2018 00:00:00||AKTİFBANK|10.40.25.149|||110000438458|70
25.10.2018 00:00:00||AKTİFBANK|10.40.25.149|||110000438458|112
25.10.2018 00:00:00||AKTİFBANK|10.40.25.149|||110000438458|92
25.10.2018 00:00:00||AKTİFBANK|10.40.25.149|||110000438458|92
25.10.2018 00:00:00||AKTİFBANK|10.40.25.149|||110000438458|103
25.10.2018 00:00:00||AKTİFBANK|10.40.24.139|||110000438458|62
25.10.2018 00:00:00||AKTİFBANK|10.40.25.153|||110000438458|10
25.10.2018 00:00:00||AKTİFBANK|10.40.25.150|||110000438458|543
25.10.2018 00:00:00||AKTİFBANK|10.40.25.153|||110000438458|70
25.10.2018 00:00:00||AKTİFBANK|10.40.25.163|||110000438458|48
25.10.2018 00:00:00||AKTİFBANK|10.40.24.141|||110000438458|65
25.10.2018 00:00:00||AKTİFBANK|10.40.24.151|||110000438458|505
25.10.2018 00:00:00||AKTİFBANK|10.40.25.153|||110000438458|80
25.10.2018 00:00:00||AKTİFBANK|10.40.24.149|||110000438458|98
25.10.2018 00:00:00||AKTİFBANK|10.40.24.141|||110000438458|50
25.10.2018 00:00:00||AKTİFBANK|10.40.25.133|||110000438458|280
25.10.2018 00:00:00||AKTİFBANK|10.40.25.133|||110000438458|90
25.10.2018 00:00:00||AKTİFBANK|10.40.24.149|||110000438458|90
25.10.2018 00:00:00||AKTİFBANK|10.40.24.162|||110000438458|210
25.10.2018 00:00:00||AKTİFBANK|10.40.24.162|||110000438458|30
25.10.2018 00:00:00||AKTİFBANK|10.40.24.162|||110000438458|40
25.10.2018 00:00:00||AKTİFBANK|10.40.25.133|||110000438458|150
25.10.2018 00:00:00||AKTİFBANK|10.40.25.138|||110000438458|130
25.10.2018 00:00:00||AKTİFBANK|10.40.25.149|||110000438458|70
25.10.2018 00:00:00||AKTİFBANK|10.40.25.149|||110000438458|70
25.10.2018 00:00:00||AKTİFBANK|10.40.25.149|||110000438458|27
25.10.2018 00:00:00||AKTİFBANK|10.40.25.149|||110000438458|72
25.10.2018 00:00:00||AKTİFBANK|10.40.25.149|||110000438458|72
25.10.2018 00:00:00||AKTİFBANK|10.40.25.141|||110000438458|100
25.10.2018 00:00:00||AKTİFBANK|10.40.25.149|||110000438458|133
25.10.2018 00:00:00||AKTİFBANK|10.40.25.138|||110000438458|92
25.10.2018 00:00:00||AKTİFBANK|10.40.25.138|||110000438458|73
25.10.2018 00:00:00||AKTİFBANK|10.40.25.139|||110000438458|100
25.10.2018 00:00:00||AKTİFBANK|10.40.24.145|||110000438458|70
25.10.2018 00:00:00||AKTİFBANK|10.40.24.149|||110000438458|160
25.10.2018 00:00:00||AKTİFBANK|10.40.25.138|||110000438458|30
25.10.2018 00:00:00||AKTİFBANK|10.40.25.138|||110000438458|10
25.10.2018 00:00:00||AKTİFBANK|10.40.25.153|||110000438458|60
25.10.2018 00:00:00||AKTİFBANK|10.40.24.150|||110000438458|542
25.10.2018 00:00:00||AKTİFBANK|10.40.25.128|||110000438458|70
25.10.2018 00:00:00||AKTİFBANK|10.40.25.128|||110000438458|90
25.10.2018 00:00:00||AKTİFBANK|10.40.25.128|||110000438458|90
25.10.2018 00:00:00||AKTİFBANK|10.40.25.128|||110000438458|40
25.10.2018 00:00:00||AKTİFBANK|10.40.25.128|||110000438458|68
25.10.2018 00:00:00||AKTİFBANK|10.40.25.129|||110000438458|85
25.10.2018 00:00:00||AKTİFBANK|10.40.25.129|||110000438458|65
25.10.2018 00:00:00||AKTİFBANK|10.40.25.129|||110000438458|138
25.10.2018 00:00:00||AKTİFBANK|10.40.25.129|||110000438458|102
25.10.2018 00:00:00||AKTİFBANK|10.40.25.129|||110000438458|40
25.10.2018 00:00:00||AKTİFBANK|10.40.25.129|||110000438458|95
25.10.2018 00:00:00||AKTİFBANK|10.40.25.129|||110000438458|97
25.10.2018 00:00:00||AKTİFBANK|10.40.25.130|||110000438458|62
25.10.2018 00:00:00||AKTİFBANK|10.40.25.130|||110000438458|52
25.10.2018 00:00:00||AKTİFBANK|10.40.25.130|||110000438458|72
25.10.2018 00:00:00||AKTİFBANK|10.40.25.130|||110000438458|32
25.10.2018 00:00:00||AKTİFBANK|10.40.25.130|||110000438458|60
25.10.2018 00:00:00||AKTİFBANK|10.40.25.130|||110000438458|100
25.10.2018 00:00:00||AKTİFBANK|10.40.25.130|||110000438458|83
25.10.2018 00:00:00||AKTİFBANK|10.40.25.131|||110000438458|20
25.10.2018 00:00:00||AKTİFBANK|10.40.25.131|||110000438458|80
25.10.2018 00:00:00||AKTİFBANK|10.40.25.131|||110000438458|100
25.10.2018 00:00:00||AKTİFBANK|10.40.25.131|||110000438458|105
25.10.2018 00:00:00||AKTİFBANK|10.40.25.131|||110000438458|80
25.10.2018 00:00:00||AKTİFBANK|10.40.25.131|||110000438458|82
25.10.2018 00:00:00||AKTİFBANK|10.40.25.131|||110000438458|20
25.10.2018 00:00:00||AKTİFBANK|10.40.25.131|||110000438458|120
25.10.2018 00:00:00||AKTİFBANK|10.40.25.132|||110000438458|60
25.10.2018 00:00:00||AKTİFBANK|10.40.25.132|||110000438458|63
25.10.2018 00:00:00||AKTİFBANK|10.40.25.132|||110000438458|85
25.10.2018 00:00:00||AKTİFBANK|10.40.25.132|||110000438458|155
25.10.2018 00:00:00||AKTİFBANK|10.40.25.132|||110000438458|63
25.10.2018 00:00:00||AKTİFBANK|10.40.25.143|||110000438458|320
25.10.2018 00:00:00||AKTİFBANK|10.40.25.144|||110000438458|80
25.10.2018 00:00:00||AKTİFBANK|10.40.25.144|||110000438458|50
25.10.2018 00:00:00||AKTİFBANK|10.40.25.144|||110000438458|20
25.10.2018 00:00:00||AKTİFBANK|10.40.25.154|||110000438458|10
25.10.2018 00:00:00||AKTİFBANK|10.40.25.154|||110000438458|10
25.10.2018 00:00:00||AKTİFBANK|10.40.25.154|||110000438458|10
25.10.2018 00:00:00||AKTİFBANK|10.40.25.157|||110000438458|70
25.10.2018 00:00:00||AKTİFBANK|10.40.25.157|||110000438458|70
25.10.2018 00:00:00||AKTİFBANK|10.40.25.157|||110000438458|72
25.10.2018 00:00:00||AKTİFBANK|10.40.25.157|||110000438458|80
25.10.2018 00:00:00||AKTİFBANK|10.40.25.157|||110000438458|40
25.10.2018 00:00:00||AKTİFBANK|10.40.25.159|||110000438458|60
25.10.2018 00:00:00||AKTİFBANK|10.40.25.159|||110000438458|10
25.10.2018 00:00:00||AKTİFBANK|10.40.25.159|||110000438458|90
25.10.2018 00:00:00||AKTİFBANK|10.40.25.158|||110000438458|77
25.10.2018 00:00:00||AKTİFBANK|10.40.25.158|||110000438458|75
25.10.2018 00:00:00||AKTİFBANK|10.40.25.158|||110000438458|87
25.10.2018 00:00:00||AKTİFBANK|10.40.25.158|||110000438458|50
25.10.2018 00:00:00||AKTİFBANK|10.40.25.160|||110000438458|90
25.10.2018 00:00:00||AKTİFBANK|10.40.25.161|||110000438458|80
25.10.2018 00:00:00||AKTİFBANK|10.40.25.161|||110000438458|70
25.10.2018 00:00:00||AKTİFBANK|10.40.25.161|||110000438458|40
25.10.2018 00:00:00||AKTİFBANK|10.40.25.161|||110000438458|30
25.10.2018 00:00:00||AKTİFBANK|10.40.25.161|||110000438458|20
25.10.2018 00:00:00||AKTİFBANK|10.40.25.161|||110000438458|53
25.10.2018 00:00:00||AKTİFBANK|10.40.25.145|||110000438458|90
25.10.2018 00:00:00||AKTİFBANK|10.40.25.145|||110000438458|60
25.10.2018 00:00:00||AKTİFBANK|10.40.25.145|||110000438458|60
25.10.2018 00:00:00||AKTİFBANK|10.40.25.145|||110000438458|30
25.10.2018 00:00:00||AKTİFBANK|10.40.25.145|||110000438458|50
25.10.2018 00:00:00||AKTİFBANK|10.40.25.147|||110000438458|90
25.10.2018 00:00:00||AKTİFBANK|10.40.25.162|||110000438458|30
25.10.2018 00:00:00||AKTİFBANK|10.40.25.162|||110000438458|30
25.10.2018 00:00:00||AKTİFBANK|10.40.25.162|||110000438458|60
25.10.2018 00:00:00||AKTİFBANK|10.40.25.164|||110000438458|60
25.10.2018 00:00:00||AKTİFBANK|10.40.25.164|||110000438458|280
25.10.2018 00:00:00||AKTİFBANK|10.40.25.164|||110000438458|50
25.10.2018 00:00:00||AKTİFBANK|10.40.25.164|||110000438458|260
25.10.2018 00:00:00||AKTİFBANK|10.40.25.164|||110000438458|270
25.10.2018 00:00:00||AKTİFBANK|10.40.25.165|||110000438458|110
25.10.2018 00:00:00||AKTİFBANK|10.40.25.165|||110000438458|73
25.10.2018 00:00:00||AKTİFBANK|10.40.25.165|||110000438458|80
25.10.2018 00:00:00||AKTİFBANK|10.40.25.165|||110000438458|100
25.10.2018 00:00:00||AKTİFBANK|10.40.25.166|||110000438458|90
25.10.2018 00:00:00||AKTİFBANK|10.40.25.166|||110000438458|10
25.10.2018 00:00:00||AKTİFBANK|10.40.25.166|||110000438458|10
25.10.2018 00:00:00||AKTİFBANK|10.40.25.166|||110000438458|40
25.10.2018 00:00:00||AKTİFBANK|10.40.25.148|||110000438458|130
25.10.2018 00:00:00||AKTİFBANK|10.40.25.148|||110000438458|50
25.10.2018 00:00:00||AKTİFBANK|10.40.25.148|||110000438458|100
25.10.2018 00:00:00||AKTİFBANK|10.40.25.148|||110000438458|130
25.10.2018 00:00:00||AKTİFBANK|10.40.25.148|||110000438458|90
25.10.2018 00:00:00||AKTİFBANK|10.40.25.148|||110000438458|80
25.10.2018 00:00:00||AKTİFBANK|10.40.25.148|||110000438458|70
25.10.2018 00:00:00||AKTİFBANK|10.40.25.148|||110000438458|50
25.10.2018 00:00:00||AKTİFBANK|10.40.25.148|||110000438458|80
25.10.2018 00:00:00||AKTİFBANK|10.40.25.148|||110000438458|40
25.10.2018 00:00:00||AKTİFBANK|10.40.25.148|||110000438458|100
25.10.2018 00:00:00||AKTİFBANK|10.40.25.148|||110000438458|60
25.10.2018 00:00:00||AKTİFBANK|10.40.25.155|||110000438458|70
25.10.2018 00:00:00||AKTİFBANK|10.40.25.155|||110000438458|90
25.10.2018 00:00:00||AKTİFBANK|10.40.25.155|||110000438458|110
25.10.2018 00:00:00||AKTİFBANK|10.40.25.155|||110000438458|120
25.10.2018 00:00:00||AKTİFBANK|10.40.25.155|||110000438458|110
25.10.2018 00:00:00||AKTİFBANK|10.40.25.156|||110000438458|20
25.10.2018 00:00:00||AKTİFBANK|10.40.25.156|||110000438458|25
25.10.2018 00:00:00||AKTİFBANK|10.40.25.139|||110000438458|70
25.10.2018 00:00:00||AKTİFBANK|10.40.25.139|||110000438458|80
25.10.2018 00:00:00||AKTİFBANK|10.40.25.150|||110000438458|508
25.10.2018 00:00:00||AKTİFBANK|10.40.25.129|||110000438458|60
25.10.2018 00:00:00||AKTİFBANK|10.40.25.129|||110000438458|85
25.10.2018 00:00:00||AKTİFBANK|10.40.25.129|||110000438458|140
25.10.2018 00:00:00||AKTİFBANK|10.40.25.130|||110000438458|63
25.10.2018 00:00:00||AKTİFBANK|10.40.25.130|||110000438458|127
25.10.2018 00:00:00||AKTİFBANK|10.40.25.130|||110000438458|100
25.10.2018 00:00:00||AKTİFBANK|10.40.25.131|||110000438458|45
25.10.2018 00:00:00||AKTİFBANK|10.40.25.143|||110000438458|60
25.10.2018 00:00:00||AKTİFBANK|10.40.25.143|||110000438458|245
25.10.2018 00:00:00||AKTİFBANK|10.40.25.143|||110000438458|270
25.10.2018 00:00:00||AKTİFBANK|10.40.25.158|||110000438458|102
25.10.2018 00:00:00||AKTİFBANK|10.40.25.160|||110000438458|112
25.10.2018 00:00:00||AKTİFBANK|10.40.25.162|||110000438458|33
25.10.2018 00:00:00||AKTİFBANK|10.40.25.162|||110000438458|40
25.10.2018 00:00:00||AKTİFBANK|10.40.24.140|||110000438458|160
25.10.2018 00:00:00||AKTİFBANK|10.40.24.140|||110000438458|80
25.10.2018 00:00:00||AKTİFBANK|10.40.24.140|||110000438458|40
25.10.2018 00:00:00||AKTİFBANK|10.40.24.140|||110000438458|30
25.10.2018 00:00:00||AKTİFBANK|10.40.24.140|||110000438458|30
25.10.2018 00:00:00||AKTİFBANK|10.40.24.140|||110000438458|30
25.10.2018 00:00:00||AKTİFBANK|10.40.24.149|||110000438458|80
25.10.2018 00:00:00||AKTİFBANK|10.40.24.149|||110000438458|120
25.10.2018 00:00:00||AKTİFBANK|10.40.24.149|||110000438458|90
25.10.2018 00:00:00||AKTİFBANK|10.40.24.149|||110000438458|62
25.10.2018 00:00:00||AKTİFBANK|10.40.24.149|||110000438458|50
25.10.2018 00:00:00||AKTİFBANK|10.40.24.149|||110000438458|140
25.10.2018 00:00:00||AKTİFBANK|10.40.24.149|||110000438458|90
25.10.2018 00:00:00||AKTİFBANK|10.40.24.149|||110000438458|90
25.10.2018 00:00:00||AKTİFBANK|10.40.24.149|||110000438458|97
25.10.2018 00:00:00||AKTİFBANK|10.40.24.149|||110000438458|80
25.10.2018 00:00:00||AKTİFBANK|10.40.24.133|||110000438458|272
25.10.2018 00:00:00||AKTİFBANK|10.40.24.133|||110000438458|147
25.10.2018 00:00:00||AKTİFBANK|10.40.24.133|||110000438458|120
25.10.2018 00:00:00||AKTİFBANK|10.40.24.133|||110000438458|87
25.10.2018 00:00:00||AKTİFBANK|10.40.24.138|||110000438458|112
25.10.2018 00:00:00||AKTİFBANK|10.40.24.138|||110000438458|140
25.10.2018 00:00:00||AKTİFBANK|10.40.24.138|||110000438458|113
25.10.2018 00:00:00||AKTİFBANK|10.40.24.138|||110000438458|30
25.10.2018 00:00:00||AKTİFBANK|10.40.24.138|||110000438458|50
25.10.2018 00:00:00||AKTİFBANK|10.40.24.139|||110000438458|162
25.10.2018 00:00:00||AKTİFBANK|10.40.24.139|||110000438458|90
25.10.2018 00:00:00||AKTİFBANK|10.40.24.139|||110000438458|122
25.10.2018 00:00:00||AKTİFBANK|10.40.24.141|||110000438458|200
25.10.2018 00:00:00||AKTİFBANK|10.40.24.141|||110000438458|100
25.10.2018 00:00:00||AKTİFBANK|10.40.24.141|||110000438458|100
25.10.2018 00:00:00||AKTİFBANK|10.40.24.141|||110000438458|58
25.10.2018 00:00:00||AKTİFBANK|10.40.24.141|||110000438458|80
25.10.2018 00:00:00||AKTİFBANK|10.40.25.152|||110000438458|110
25.10.2018 00:00:00||AKTİFBANK|10.40.25.152|||110000438458|50
25.10.2018 00:00:00||AKTİFBANK|10.40.25.152|||110000438458|140
25.10.2018 00:00:00||AKTİFBANK|10.40.25.152|||110000438458|70
25.10.2018 00:00:00||AKTİFBANK|10.40.25.152|||110000438458|90
25.10.2018 00:00:00||AKTİFBANK|10.40.25.152|||110000438458|160
25.10.2018 00:00:00||AKTİFBANK|10.40.25.152|||110000438458|50
25.10.2018 00:00:00||AKTİFBANK|10.40.25.152|||110000438458|90
25.10.2018 00:00:00||AKTİFBANK|10.40.25.152|||110000438458|30
25.10.2018 00:00:00||AKTİFBANK|10.40.25.152|||110000438458|80
25.10.2018 00:00:00||AKTİFBANK|10.40.25.152|||110000438458|30
25.10.2018 00:00:00||AKTİFBANK|10.40.24.150|||110000438458|547
25.10.2018 00:00:00||AKTİFBANK|10.40.24.151|||110000438458|517
25.10.2018 00:00:00||AKTİFBANK|10.40.24.151|||110000438458|530
25.10.2018 00:00:00||AKTİFBANK|10.40.24.128|||110000438458|60
25.10.2018 00:00:00||AKTİFBANK|10.40.24.128|||110000438458|70
25.10.2018 00:00:00||AKTİFBANK|10.40.24.128|||110000438458|100
25.10.2018 00:00:00||AKTİFBANK|10.40.24.128|||110000438458|40
25.10.2018 00:00:00||AKTİFBANK|10.40.24.128|||110000438458|70
25.10.2018 00:00:00||AKTİFBANK|10.40.24.128|||110000438458|50
25.10.2018 00:00:00||AKTİFBANK|10.40.24.129|||110000438458|100
25.10.2018 00:00:00||AKTİFBANK|10.40.24.129|||110000438458|70
25.10.2018 00:00:00||AKTİFBANK|10.40.24.129|||110000438458|110
25.10.2018 00:00:00||AKTİFBANK|10.40.24.129|||110000438458|120
25.10.2018 00:00:00||AKTİFBANK|10.40.24.129|||110000438458|40
25.10.2018 00:00:00||AKTİFBANK|10.40.24.129|||110000438458|70
25.10.2018 00:00:00||AKTİFBANK|10.40.24.129|||110000438458|70
25.10.2018 00:00:00||AKTİFBANK|10.40.24.129|||110000438458|90
25.10.2018 00:00:00||AKTİFBANK|10.40.24.129|||110000438458|80
25.10.2018 00:00:00||AKTİFBANK|10.40.24.129|||110000438458|140
25.10.2018 00:00:00||AKTİFBANK|10.40.24.130|||110000438458|40
25.10.2018 00:00:00||AKTİFBANK|10.40.24.130|||110000438458|40
25.10.2018 00:00:00||AKTİFBANK|10.40.24.130|||110000438458|70
25.10.2018 00:00:00||AKTİFBANK|10.40.24.130|||110000438458|45
25.10.2018 00:00:00||AKTİFBANK|10.40.24.130|||110000438458|60
25.10.2018 00:00:00||AKTİFBANK|10.40.24.130|||110000438458|75
25.10.2018 00:00:00||AKTİFBANK|10.40.24.130|||110000438458|87
25.10.2018 00:00:00||AKTİFBANK|10.40.24.130|||110000438458|38
25.10.2018 00:00:00||AKTİFBANK|10.40.24.130|||110000438458|130
25.10.2018 00:00:00||AKTİFBANK|10.40.24.130|||110000438458|110
25.10.2018 00:00:00||AKTİFBANK|10.40.24.131|||110000438458|85
25.10.2018 00:00:00||AKTİFBANK|10.40.24.131|||110000438458|92
25.10.2018 00:00:00||AKTİFBANK|10.40.24.131|||110000438458|110
25.10.2018 00:00:00||AKTİFBANK|10.40.24.131|||110000438458|112
25.10.2018 00:00:00||AKTİFBANK|10.40.24.131|||110000438458|22
25.10.2018 00:00:00||AKTİFBANK|10.40.24.131|||110000438458|160
25.10.2018 00:00:00||AKTİFBANK|10.40.24.131|||110000438458|60
25.10.2018 00:00:00||AKTİFBANK|10.40.24.131|||110000438458|110
25.10.2018 00:00:00||AKTİFBANK|10.40.24.132|||110000438458|35
25.10.2018 00:00:00||AKTİFBANK|10.40.24.132|||110000438458|80
25.10.2018 00:00:00||AKTİFBANK|10.40.24.132|||110000438458|50
25.10.2018 00:00:00||AKTİFBANK|10.40.24.132|||110000438458|182
25.10.2018 00:00:00||AKTİFBANK|10.40.24.132|||110000438458|72
25.10.2018 00:00:00||AKTİFBANK|10.40.24.143|||110000438458|65
25.10.2018 00:00:00||AKTİFBANK|10.40.24.143|||110000438458|270
25.10.2018 00:00:00||AKTİFBANK|10.40.24.143|||110000438458|280
25.10.2018 00:00:00||AKTİFBANK|10.40.24.143|||110000438458|220
25.10.2018 00:00:00||AKTİFBANK|10.40.24.144|||110000438458|70
25.10.2018 00:00:00||AKTİFBANK|10.40.24.144|||110000438458|105
25.10.2018 00:00:00||AKTİFBANK|10.40.24.144|||110000438458|130
25.10.2018 00:00:00||AKTİFBANK|10.40.24.148|||110000438458|70
25.10.2018 00:00:00||AKTİFBANK|10.40.24.148|||110000438458|170
25.10.2018 00:00:00||AKTİFBANK|10.40.24.148|||110000438458|90
25.10.2018 00:00:00||AKTİFBANK|10.40.24.148|||110000438458|110
25.10.2018 00:00:00||AKTİFBANK|10.40.24.148|||110000438458|80
25.10.2018 00:00:00||AKTİFBANK|10.40.24.148|||110000438458|90
25.10.2018 00:00:00||AKTİFBANK|10.40.24.148|||110000438458|90
25.10.2018 00:00:00||AKTİFBANK|10.40.24.148|||110000438458|100
25.10.2018 00:00:00||AKTİFBANK|10.40.24.148|||110000438458|90
25.10.2018 00:00:00||AKTİFBANK|10.40.24.148|||110000438458|60
25.10.2018 00:00:00||AKTİFBANK|10.40.24.148|||110000438458|30
25.10.2018 00:00:00||AKTİFBANK|10.40.24.148|||110000438458|80
25.10.2018 00:00:00||AKTİFBANK|10.40.24.153|||110000438458|10
25.10.2018 00:00:00||AKTİFBANK|10.40.24.153|||110000438458|95
25.10.2018 00:00:00||AKTİFBANK|10.40.24.153|||110000438458|70
25.10.2018 00:00:00||AKTİFBANK|10.40.24.153|||110000438458|73
25.10.2018 00:00:00||AKTİFBANK|10.40.24.157|||110000438458|33
25.10.2018 00:00:00||AKTİFBANK|10.40.24.157|||110000438458|75
25.10.2018 00:00:00||AKTİFBANK|10.40.24.157|||110000438458|70
25.10.2018 00:00:00||AKTİFBANK|10.40.24.157|||110000438458|42
25.10.2018 00:00:00||AKTİFBANK|10.40.24.157|||110000438458|80
25.10.2018 00:00:00||AKTİFBANK|10.40.24.157|||110000438458|47
25.10.2018 00:00:00||AKTİFBANK|10.40.24.158|||110000438458|80
25.10.2018 00:00:00||AKTİFBANK|10.40.24.158|||110000438458|110
25.10.2018 00:00:00||AKTİFBANK|10.40.24.159|||110000438458|132
25.10.2018 00:00:00||AKTİFBANK|10.40.24.159|||110000438458|53
25.10.2018 00:00:00||AKTİFBANK|10.40.24.159|||110000438458|183
25.10.2018 00:00:00||AKTİFBANK|10.40.24.160|||110000438458|50
25.10.2018 00:00:00||AKTİFBANK|10.40.24.160|||110000438458|90
25.10.2018 00:00:00||AKTİFBANK|10.40.24.160|||110000438458|103
25.10.2018 00:00:00||AKTİFBANK|10.40.24.161|||110000438458|200
25.10.2018 00:00:00||AKTİFBANK|10.40.24.161|||110000438458|80
25.10.2018 00:00:00||AKTİFBANK|10.40.24.161|||110000438458|40
25.10.2018 00:00:00||AKTİFBANK|10.40.24.161|||110000438458|30
25.10.2018 00:00:00||AKTİFBANK|10.40.24.161|||110000438458|30
25.10.2018 00:00:00||AKTİFBANK|10.40.24.161|||110000438458|20
25.10.2018 00:00:00||AKTİFBANK|10.40.24.161|||110000438458|90
25.10.2018 00:00:00||AKTİFBANK|10.40.24.145|||110000438458|30
25.10.2018 00:00:00||AKTİFBANK|10.40.24.145|||110000438458|70
25.10.2018 00:00:00||AKTİFBANK|10.40.24.145|||110000438458|50
25.10.2018 00:00:00||AKTİFBANK|10.40.24.147|||110000438458|90
25.10.2018 00:00:00||AKTİFBANK|10.40.24.162|||110000438458|40
25.10.2018 00:00:00||AKTİFBANK|10.40.24.162|||110000438458|40
25.10.2018 00:00:00||AKTİFBANK|10.40.24.162|||110000438458|105
25.10.2018 00:00:00||AKTİFBANK|10.40.24.162|||110000438458|10
25.10.2018 00:00:00||AKTİFBANK|10.40.24.162|||110000438458|53
25.10.2018 00:00:00||AKTİFBANK|10.40.24.163|||110000438458|30
25.10.2018 00:00:00||AKTİFBANK|10.40.24.163|||110000438458|70
25.10.2018 00:00:00||AKTİFBANK|10.40.24.164|||110000438458|58
25.10.2018 00:00:00||AKTİFBANK|10.40.24.164|||110000438458|330
25.10.2018 00:00:00||AKTİFBANK|10.40.24.164|||110000438458|220
25.10.2018 00:00:00||AKTİFBANK|10.40.24.165|||110000438458|75
25.10.2018 00:00:00||AKTİFBANK|10.40.24.165|||110000438458|80
25.10.2018 00:00:00||AKTİFBANK|10.40.24.165|||110000438458|50
25.10.2018 00:00:00||AKTİFBANK|10.40.24.165|||110000438458|122
25.10.2018 00:00:00||AKTİFBANK|10.40.24.166|||110000438458|80
25.10.2018 00:00:00||AKTİFBANK|10.40.24.166|||110000438458|90
25.10.2018 00:00:00||AKTİFBANK|10.40.24.166|||110000438458|10
25.10.2018 00:00:00||AKTİFBANK|10.40.25.168|||110000438458|90
25.10.2018 00:00:00||AKTİFBANK|10.40.25.168|||110000438458|70
25.10.2018 00:00:00||AKTİFBANK|10.40.25.168|||110000438458|50
25.10.2018 00:00:00||AKTİFBANK|10.40.25.168|||110000438458|40
25.10.2018 00:00:00||AKTİFBANK|10.40.25.168|||110000438458|60
25.10.2018 00:00:00||AKTİFBANK|10.40.24.168|||110000438458|90
25.10.2018 00:00:00||AKTİFBANK|10.40.24.168|||110000438458|80
25.10.2018 00:00:00||AKTİFBANK|10.40.24.168|||110000438458|70
25.10.2018 00:00:00||AKTİFBANK|10.40.24.168|||110000438458|70
25.10.2018 00:00:00||AKTİFBANK|10.40.24.168|||110000438458|30
25.10.2018 00:00:00||AKTİFBANK|10.40.24.154|||110000438458|70
25.10.2018 00:00:00||AKTİFBANK|10.40.24.154|||110000438458|20
25.10.2018 00:00:00||AKTİFBANK|10.40.24.154|||110000438458|10
25.10.2018 00:00:00||AKTİFBANK|10.40.24.154|||110000438458|10
25.10.2018 00:00:00||AKTİFBANK|10.40.24.154|||110000438458|10
25.10.2018 00:00:00||AKTİFBANK|10.40.24.154|||110000438458|10
25.10.2018 00:00:00||AKTİFBANK|10.40.24.155|||110000438458|57
25.10.2018 00:00:00||AKTİFBANK|10.40.24.155|||110000438458|100
25.10.2018 00:00:00||AKTİFBANK|10.40.24.155|||110000438458|132
25.10.2018 00:00:00||AKTİFBANK|10.40.24.155|||110000438458|80
25.10.2018 00:00:00||AKTİFBANK|10.40.24.155|||110000438458|112
25.10.2018 00:00:00||AKTİFBANK|10.40.24.155|||110000438458|100
25.10.2018 00:00:00||AKTİFBANK|10.40.25.169|||110000438458|90
25.10.2018 00:00:00||AKTİFBANK|10.40.25.169|||110000438458|92
25.10.2018 00:00:00||AKTİFBANK|10.40.25.169|||110000438458|70
25.10.2018 00:00:00||AKTİFBANK|10.40.25.169|||110000438458|77
25.10.2018 00:00:00||AKTİFBANK|10.40.24.169|||110000438458|80
25.10.2018 00:00:00||AKTİFBANK|10.40.24.169|||110000438458|85
25.10.2018 00:00:00||AKTİFBANK|10.40.24.169|||110000438458|70
25.10.2018 00:00:00||AKTİFBANK|10.40.24.169|||110000438458|80
25.10.2018 00:00:00||AKTİFBANK|10.40.25.170|||110000438458|30
25.10.2018 00:00:00||AKTİFBANK|10.40.25.170|||110000438458|30
25.10.2018 00:00:00||AKTİFBANK|10.40.25.170|||110000438458|200
25.10.2018 00:00:00||AKTİFBANK|10.40.25.170|||110000438458|100
25.10.2018 00:00:00||AKTİFBANK|10.40.25.170|||110000438458|80
25.10.2018 00:00:00||AKTİFBANK|10.40.25.170|||110000438458|120
25.10.2018 00:00:00||AKTİFBANK|10.40.24.170|||110000438458|60
25.10.2018 00:00:00||AKTİFBANK|10.40.24.170|||110000438458|60
25.10.2018 00:00:00||AKTİFBANK|10.40.24.170|||110000438458|352
25.10.2018 00:00:00||AKTİFBANK|10.40.24.170|||110000438458|267
25.10.2018 00:00:00||AKTİFBANK|10.40.24.170|||110000438458|77
25.10.2018 00:00:00||AKTİFBANK|10.40.24.170|||110000438458|102
25.10.2018 00:00:00||AKTİFBANK|10.40.24.170|||110000438458|77
25.10.2018 00:00:00||AKTİFBANK|10.40.25.178|||110000438458|590
25.10.2018 00:00:00||AKTİFBANK|10.40.25.178|||110000438458|560
25.10.2018 00:00:00||AKTİFBANK|10.40.25.178|||110000438458|550
25.10.2018 00:00:00||AKTİFBANK|10.40.24.178|||110000438458|550
25.10.2018 00:00:00||AKTİFBANK|10.40.24.178|||110000438458|538
25.10.2018 00:00:00||AKTİFBANK|10.40.24.178|||110000438458|533
25.10.2018 00:00:00||AKTİFBANK|10.40.25.179|||110000438458|395
25.10.2018 00:00:00||AKTİFBANK|10.40.25.179|||110000438458|358
25.10.2018 00:00:00||AKTİFBANK|10.40.25.179|||110000438458|358
25.10.2018 00:00:00||AKTİFBANK|10.40.24.179|||110000438458|320
25.10.2018 00:00:00||AKTİFBANK|10.40.24.179|||110000438458|330
25.10.2018 00:00:00||AKTİFBANK|10.40.24.179|||110000438458|320
25.10.2018 00:00:00||AKTİFBANK|10.40.24.142|||110000438458|40
25.10.2018 00:00:00||AKTİFBANK|10.40.24.156|||110000438458|50
25.10.2018 00:00:00||AKTİFBANK|10.40.24.156|||110000438458|50
25.10.2018 00:00:00||AKTİFBANK|10.40.25.186|||110000438458|90
25.10.2018 00:00:00||AKTİFBANK|10.40.25.186|||110000438458|20
25.10.2018 00:00:00||AKTİFBANK|10.40.25.186|||110000438458|70
25.10.2018 00:00:00||AKTİFBANK|10.40.24.186|||110000438458|90
25.10.2018 00:00:00||AKTİFBANK|10.40.24.186|||110000438458|30
25.10.2018 00:00:00||AKTİFBANK|10.40.24.186|||110000438458|60
25.10.2018 00:00:00||AKTİFBANK|10.40.24.186|||110000438458|40
25.10.2018 00:00:00||AKTİFBANK|10.40.24.152|||110000438458|10
25.10.2018 00:00:00||AKTİFBANK|10.40.24.152|||110000438458|50
25.10.2018 00:00:00||AKTİFBANK|10.40.24.152|||110000438458|85
25.10.2018 00:00:00||AKTİFBANK|10.40.24.152|||110000438458|117
25.10.2018 00:00:00||AKTİFBANK|10.40.24.152|||110000438458|98
25.10.2018 00:00:00||AKTİFBANK|10.40.24.152|||110000438458|105
25.10.2018 00:00:00||AKTİFBANK|10.40.24.152|||110000438458|325
25.10.2018 00:00:00||AKTİFBANK|10.40.24.152|||110000438458|75
25.10.2018 00:00:00||AKTİFBANK|10.40.24.152|||110000438458|90
25.10.2018 00:00:00||AKTİFBANK|10.40.24.152|||110000438458|30
25.10.2018 00:00:00||AKTİFBANK|10.40.24.152|||110000438458|70
25.10.2018 00:00:00||AKTİFBANK|10.40.24.152|||110000438458|30
25.10.2018 00:00:00||BARİKAT İNTERNET GÜVENLİĞİ|10.40.25.201|||110000479736|115
25.10.2018 00:00:00||BARİKAT İNTERNET GÜVENLİĞİ|10.40.25.201|||110000479736|100
25.10.2018 00:00:00||BARİKAT İNTERNET GÜVENLİĞİ|10.40.24.201|||110000479736|140
25.10.2018 00:00:00||BARİKAT İNTERNET GÜVENLİĞİ|10.40.24.201|||110000479736|100
25.10.2018 00:00:00||BOYNER|10.40.26.100|||101367941673|58
25.10.2018 00:00:00||BOYNER|10.40.26.101|||101367941673|167
25.10.2018 00:00:00||BOYNER|10.40.27.100|||101367941673|53
25.10.2018 00:00:00||BOYNER|10.40.27.101|||101367941673|165
25.10.2018 00:00:00||BOYNER|10.40.27.94|||101367941673|210
25.10.2018 00:00:00||BOYNER|10.40.27.94|||101367941673|90
25.10.2018 00:00:00||BOYNER|10.40.27.94|||101367941673|90
25.10.2018 00:00:00||BOYNER|10.40.27.94|||101367941673|100
25.10.2018 00:00:00||BOYNER|10.40.26.94|||101367941673|90
25.10.2018 00:00:00||BOYNER|10.40.26.94|||101367941673|80
25.10.2018 00:00:00||BOYNER|10.40.26.94|||101367941673|80
25.10.2018 00:00:00||BOYNER|10.40.27.95|||101367941673|143
25.10.2018 00:00:00||BOYNER|10.40.27.95|||101367941673|135
25.10.2018 00:00:00||BOYNER|10.40.27.95|||101367941673|242
25.10.2018 00:00:00||BOYNER|10.40.26.95|||101367941673|132
25.10.2018 00:00:00||BOYNER|10.40.26.95|||101367941673|203
25.10.2018 00:00:00||BOYNER|10.40.26.95|||101367941673|140
25.10.2018 00:00:00||BOYNER|10.40.27.96|||101367941673|60
25.10.2018 00:00:00||BOYNER|10.40.27.96|||101367941673|50
25.10.2018 00:00:00||BOYNER|10.40.27.96|||101367941673|50
25.10.2018 00:00:00||BOYNER|10.40.27.96|||101367941673|40
25.10.2018 00:00:00||BOYNER|10.40.27.96|||101367941673|35
25.10.2018 00:00:00||BOYNER|10.40.27.96|||101367941673|153
25.10.2018 00:00:00||BOYNER|10.40.27.96|||101367941673|155
25.10.2018 00:00:00||BOYNER|10.40.27.96|||101367941673|180
25.10.2018 00:00:00||BOYNER|10.40.27.96|||101367941673|170
25.10.2018 00:00:00||BOYNER|10.40.26.96|||101367941673|30
25.10.2018 00:00:00||BOYNER|10.40.26.96|||101367941673|40
25.10.2018 00:00:00||BOYNER|10.40.26.96|||101367941673|30
25.10.2018 00:00:00||BOYNER|10.40.26.96|||101367941673|40
25.10.2018 00:00:00||BOYNER|10.40.26.96|||101367941673|40
25.10.2018 00:00:00||BOYNER|10.40.26.96|||101367941673|50
25.10.2018 00:00:00||BOYNER|10.40.26.96|||101367941673|190
25.10.2018 00:00:00||BOYNER|10.40.26.96|||101367941673|203
25.10.2018 00:00:00||BOYNER|10.40.26.96|||101367941673|167
25.10.2018 00:00:00||BOYNER|10.40.26.96|||101367941673|177
25.10.2018 00:00:00||BOYNER|10.40.27.97|||101367941673|60
25.10.2018 00:00:00||BOYNER|10.40.27.97|||101367941673|658
25.10.2018 00:00:00||BOYNER|10.40.27.97|||101367941673|663
25.10.2018 00:00:00||BOYNER|10.40.27.97|||101367941673|705
25.10.2018 00:00:00||BOYNER|10.40.27.97|||101367941673|40
25.10.2018 00:00:00||BOYNER|10.40.27.97|||101367941673|32
25.10.2018 00:00:00||BOYNER|10.40.27.97|||101367941673|50
25.10.2018 00:00:00||BOYNER|10.40.27.97|||101367941673|30
25.10.2018 00:00:00||BOYNER|10.40.27.97|||101367941673|175
25.10.2018 00:00:00||BOYNER|10.40.27.97|||101367941673|178
25.10.2018 00:00:00||BOYNER|10.40.27.97|||101367941673|183
25.10.2018 00:00:00||BOYNER|10.40.27.97|||101367941673|195
25.10.2018 00:00:00||BOYNER|10.40.26.97|||101367941673|30
25.10.2018 00:00:00||BOYNER|10.40.26.97|||101367941673|658
25.10.2018 00:00:00||BOYNER|10.40.26.97|||101367941673|658
25.10.2018 00:00:00||BOYNER|10.40.26.97|||101367941673|665
25.10.2018 00:00:00||BOYNER|10.40.26.97|||101367941673|32
25.10.2018 00:00:00||BOYNER|10.40.26.97|||101367941673|40
25.10.2018 00:00:00||BOYNER|10.40.26.97|||101367941673|50
25.10.2018 00:00:00||BOYNER|10.40.26.97|||101367941673|60
25.10.2018 00:00:00||BOYNER|10.40.26.97|||101367941673|30
25.10.2018 00:00:00||BOYNER|10.40.26.97|||101367941673|163
25.10.2018 00:00:00||BOYNER|10.40.26.97|||101367941673|173
25.10.2018 00:00:00||BOYNER|10.40.26.97|||101367941673|173
25.10.2018 00:00:00||BOYNER|10.40.26.97|||101367941673|158
25.10.2018 00:00:00||BOYNER|10.40.27.99|||101367941673|127
25.10.2018 00:00:00||BOYNER|10.40.27.99|||101367941673|92
25.10.2018 00:00:00||BOYNER|10.40.27.99|||101367941673|83
25.10.2018 00:00:00||BOYNER|10.40.26.99|||101367941673|13
25.10.2018 00:00:00||BOYNER|10.40.26.99|||101367941673|108
25.10.2018 00:00:00||BOYNER|10.40.26.99|||101367941673|105
25.10.2018 00:00:00||BOYNER|10.40.26.99|||101367941673|75
25.10.2018 00:00:00||ÇALIK HOLDİNG|10.40.24.118|||110000438407|43
25.10.2018 00:00:00||ÇALIK HOLDİNG|10.40.25.99|||110000438407|136
25.10.2018 00:00:00||ÇALIK HOLDİNG|10.40.25.118|||110000438407|160
25.10.2018 00:00:00||ÇALIK HOLDİNG|10.40.25.120|||110000438407|90
25.10.2018 00:00:00||ÇALIK HOLDİNG|10.40.24.95|||110000438407|48
25.10.2018 00:00:00||ÇALIK HOLDİNG|10.40.25.97|||110000438407|80
25.10.2018 00:00:00||ÇALIK HOLDİNG|10.40.25.103|||110000438407|90
25.10.2018 00:00:00||ÇALIK HOLDİNG|10.40.25.120|||110000438407|40
25.10.2018 00:00:00||ÇALIK HOLDİNG|10.40.25.96|||110000438407|70
25.10.2018 00:00:00||ÇALIK HOLDİNG|10.40.25.96|||110000438407|90
25.10.2018 00:00:00||ÇALIK HOLDİNG|10.40.25.96|||110000438407|120
25.10.2018 00:00:00||ÇALIK HOLDİNG|10.40.25.96|||110000438407|90
25.10.2018 00:00:00||ÇALIK HOLDİNG|10.40.25.115|||110000438407|167
25.10.2018 00:00:00||ÇALIK HOLDİNG|10.40.25.115|||110000438407|70
25.10.2018 00:00:00||ÇALIK HOLDİNG|10.40.25.95|||110000438407|93
25.10.2018 00:00:00||ÇALIK HOLDİNG|10.40.25.96|||110000438407|90
25.10.2018 00:00:00||ÇALIK HOLDİNG|10.40.25.96|||110000438407|100
25.10.2018 00:00:00||ÇALIK HOLDİNG|10.40.25.120|||110000438407|22
25.10.2018 00:00:00||ÇALIK HOLDİNG|10.40.25.95|||110000438407|58
25.10.2018 00:00:00||ÇALIK HOLDİNG|10.40.24.94|||110000438407|192
25.10.2018 00:00:00||ÇALIK HOLDİNG|10.40.25.97|||110000438407|107
25.10.2018 00:00:00||ÇALIK HOLDİNG|10.40.25.120|||110000438407|60
25.10.2018 00:00:00||ÇALIK HOLDİNG|10.40.25.115|||110000438407|82
25.10.2018 00:00:00||ÇALIK HOLDİNG|10.40.25.115|||110000438407|68
25.10.2018 00:00:00||ÇALIK HOLDİNG|10.40.25.115|||110000438407|65
25.10.2018 00:00:00||ÇALIK HOLDİNG|10.40.25.101|||110000438407|50
25.10.2018 00:00:00||ÇALIK HOLDİNG|10.40.25.101|||110000438407|110
25.10.2018 00:00:00||ÇALIK HOLDİNG|10.40.25.101|||110000438407|30
25.10.2018 00:00:00||ÇALIK HOLDİNG|10.40.25.101|||110000438407|10
25.10.2018 00:00:00||ÇALIK HOLDİNG|10.40.25.101|||110000438407|90
25.10.2018 00:00:00||ÇALIK HOLDİNG|10.40.25.101|||110000438407|30
25.10.2018 00:00:00||ÇALIK HOLDİNG|10.40.25.101|||110000438407|40
25.10.2018 00:00:00||ÇALIK HOLDİNG|10.40.25.101|||110000438407|40
25.10.2018 00:00:00||ÇALIK HOLDİNG|10.40.25.101|||110000438407|90
25.10.2018 00:00:00||ÇALIK HOLDİNG|10.40.25.101|||110000438407|90
25.10.2018 00:00:00||ÇALIK HOLDİNG|10.40.25.101|||110000438407|90
25.10.2018 00:00:00||ÇALIK HOLDİNG|10.40.25.94|||110000438407|180
25.10.2018 00:00:00||ÇALIK HOLDİNG|10.40.25.94|||110000438407|180
25.10.2018 00:00:00||ÇALIK HOLDİNG|10.40.25.94|||110000438407|170
25.10.2018 00:00:00||ÇALIK HOLDİNG|10.40.25.94|||110000438407|180
25.10.2018 00:00:00||ÇALIK HOLDİNG|10.40.24.94|||110000438407|200
25.10.2018 00:00:00||ÇALIK HOLDİNG|10.40.24.94|||110000438407|195
25.10.2018 00:00:00||ÇALIK HOLDİNG|10.40.24.94|||110000438407|200
25.10.2018 00:00:00||ÇALIK HOLDİNG|10.40.25.95|||110000438407|20
25.10.2018 00:00:00||ÇALIK HOLDİNG|10.40.25.95|||110000438407|342
25.10.2018 00:00:00||ÇALIK HOLDİNG|10.40.25.95|||110000438407|357
25.10.2018 00:00:00||ÇALIK HOLDİNG|10.40.25.95|||110000438407|40
25.10.2018 00:00:00||ÇALIK HOLDİNG|10.40.24.95|||110000438407|102
25.10.2018 00:00:00||ÇALIK HOLDİNG|10.40.24.95|||110000438407|88
25.10.2018 00:00:00||ÇALIK HOLDİNG|10.40.24.95|||110000438407|390
25.10.2018 00:00:00||ÇALIK HOLDİNG|10.40.24.95|||110000438407|388
25.10.2018 00:00:00||ÇALIK HOLDİNG|10.40.25.96|||110000438407|90
25.10.2018 00:00:00||ÇALIK HOLDİNG|10.40.25.96|||110000438407|95
25.10.2018 00:00:00||ÇALIK HOLDİNG|10.40.25.96|||110000438407|100
25.10.2018 00:00:00||ÇALIK HOLDİNG|10.40.25.96|||110000438407|258
25.10.2018 00:00:00||ÇALIK HOLDİNG|10.40.25.96|||110000438407|260
25.10.2018 00:00:00||ÇALIK HOLDİNG|10.40.25.96|||110000438407|100
25.10.2018 00:00:00||ÇALIK HOLDİNG|10.40.25.96|||110000438407|90
25.10.2018 00:00:00||ÇALIK HOLDİNG|10.40.25.96|||110000438407|92
25.10.2018 00:00:00||ÇALIK HOLDİNG|10.40.25.97|||110000438407|88
25.10.2018 00:00:00||ÇALIK HOLDİNG|10.40.25.97|||110000438407|80
25.10.2018 00:00:00||ÇALIK HOLDİNG|10.40.25.97|||110000438407|302
25.10.2018 00:00:00||ÇALIK HOLDİNG|10.40.25.98|||110000438407|50
25.10.2018 00:00:00||ÇALIK HOLDİNG|10.40.25.98|||110000438407|162
25.10.2018 00:00:00||ÇALIK HOLDİNG|10.40.25.98|||110000438407|158
25.10.2018 00:00:00||ÇALIK HOLDİNG|10.40.25.98|||110000438407|165
25.10.2018 00:00:00||ÇALIK HOLDİNG|10.40.25.98|||110000438407|168
25.10.2018 00:00:00||ÇALIK HOLDİNG|10.40.25.98|||110000438407|60
25.10.2018 00:00:00||ÇALIK HOLDİNG|10.40.25.98|||110000438407|210
25.10.2018 00:00:00||ÇALIK HOLDİNG|10.40.25.98|||110000438407|180
25.10.2018 00:00:00||ÇALIK HOLDİNG|10.40.25.98|||110000438407|170
25.10.2018 00:00:00||ÇALIK HOLDİNG|10.40.25.98|||110000438407|210
25.10.2018 00:00:00||ÇALIK HOLDİNG|10.40.25.98|||110000438407|70
25.10.2018 00:00:00||ÇALIK HOLDİNG|10.40.25.98|||110000438407|325
25.10.2018 00:00:00||ÇALIK HOLDİNG|10.40.24.98|||110000438407|90
25.10.2018 00:00:00||ÇALIK HOLDİNG|10.40.24.98|||110000438407|153
25.10.2018 00:00:00||ÇALIK HOLDİNG|10.40.24.98|||110000438407|200
25.10.2018 00:00:00||ÇALIK HOLDİNG|10.40.24.98|||110000438407|200
25.10.2018 00:00:00||ÇALIK HOLDİNG|10.40.24.98|||110000438407|163
25.10.2018 00:00:00||ÇALIK HOLDİNG|10.40.24.98|||110000438407|30
25.10.2018 00:00:00||ÇALIK HOLDİNG|10.40.24.98|||110000438407|163
25.10.2018 00:00:00||ÇALIK HOLDİNG|10.40.24.98|||110000438407|180
25.10.2018 00:00:00||ÇALIK HOLDİNG|10.40.24.98|||110000438407|170
25.10.2018 00:00:00||ÇALIK HOLDİNG|10.40.24.98|||110000438407|172
25.10.2018 00:00:00||ÇALIK HOLDİNG|10.40.24.98|||110000438407|20
25.10.2018 00:00:00||ÇALIK HOLDİNG|10.40.24.98|||110000438407|293
25.10.2018 00:00:00||ÇALIK HOLDİNG|10.40.25.100|||110000438407|37
25.10.2018 00:00:00||ÇALIK HOLDİNG|10.40.25.100|||110000438407|40
25.10.2018 00:00:00||ÇALIK HOLDİNG|10.40.24.101|||110000438407|60
25.10.2018 00:00:00||ÇALIK HOLDİNG|10.40.24.101|||110000438407|110
25.10.2018 00:00:00||ÇALIK HOLDİNG|10.40.24.101|||110000438407|20
25.10.2018 00:00:00||ÇALIK HOLDİNG|10.40.24.101|||110000438407|20
25.10.2018 00:00:00||ÇALIK HOLDİNG|10.40.24.101|||110000438407|43
25.10.2018 00:00:00||ÇALIK HOLDİNG|10.40.24.101|||110000438407|85
25.10.2018 00:00:00||ÇALIK HOLDİNG|10.40.24.101|||110000438407|30
25.10.2018 00:00:00||ÇALIK HOLDİNG|10.40.24.101|||110000438407|10
25.10.2018 00:00:00||ÇALIK HOLDİNG|10.40.24.101|||110000438407|20
25.10.2018 00:00:00||ÇALIK HOLDİNG|10.40.24.101|||110000438407|50
25.10.2018 00:00:00||ÇALIK HOLDİNG|10.40.24.101|||110000438407|30
25.10.2018 00:00:00||ÇALIK HOLDİNG|10.40.24.101|||110000438407|80
25.10.2018 00:00:00||ÇALIK HOLDİNG|10.40.24.101|||110000438407|80
25.10.2018 00:00:00||ÇALIK HOLDİNG|10.40.24.101|||110000438407|90
25.10.2018 00:00:00||ÇALIK HOLDİNG|10.40.25.102|||110000438407|100
25.10.2018 00:00:00||ÇALIK HOLDİNG|10.40.25.102|||110000438407|90
25.10.2018 00:00:00||ÇALIK HOLDİNG|10.40.25.102|||110000438407|150
25.10.2018 00:00:00||ÇALIK HOLDİNG|10.40.24.102|||110000438407|100
25.10.2018 00:00:00||ÇALIK HOLDİNG|10.40.24.102|||110000438407|90
25.10.2018 00:00:00||ÇALIK HOLDİNG|10.40.24.102|||110000438407|140
25.10.2018 00:00:00||ÇALIK HOLDİNG|10.40.25.103|||110000438407|90
25.10.2018 00:00:00||ÇALIK HOLDİNG|10.40.25.103|||110000438407|80
25.10.2018 00:00:00||ÇALIK HOLDİNG|10.40.25.103|||110000438407|10
25.10.2018 00:00:00||ÇALIK HOLDİNG|10.40.25.115|||110000438407|83
25.10.2018 00:00:00||ÇALIK HOLDİNG|10.40.24.103|||110000438407|100
25.10.2018 00:00:00||ÇALIK HOLDİNG|10.40.24.103|||110000438407|80
25.10.2018 00:00:00||ÇALIK HOLDİNG|10.40.24.103|||110000438407|80
25.10.2018 00:00:00||ÇALIK HOLDİNG|10.40.24.103|||110000438407|20
25.10.2018 00:00:00||ÇALIK HOLDİNG|10.40.24.103|||110000438407|10
25.10.2018 00:00:00||ÇALIK HOLDİNG|10.40.25.113|||110000438407|113
25.10.2018 00:00:00||ÇALIK HOLDİNG|10.40.25.113|||110000438407|243
25.10.2018 00:00:00||ÇALIK HOLDİNG|10.40.25.113|||110000438407|200
25.10.2018 00:00:00||ÇALIK HOLDİNG|10.40.25.113|||110000438407|212
25.10.2018 00:00:00||ÇALIK HOLDİNG|10.40.24.113|||110000438407|228
25.10.2018 00:00:00||ÇALIK HOLDİNG|10.40.24.113|||110000438407|223
25.10.2018 00:00:00||ÇALIK HOLDİNG|10.40.24.113|||110000438407|192
25.10.2018 00:00:00||ÇALIK HOLDİNG|10.40.24.113|||110000438407|162
25.10.2018 00:00:00||ÇALIK HOLDİNG|10.40.25.114|||110000438407|180
25.10.2018 00:00:00||ÇALIK HOLDİNG|10.40.25.114|||110000438407|410
25.10.2018 00:00:00||ÇALIK HOLDİNG|10.40.25.114|||110000438407|40
25.10.2018 00:00:00||ÇALIK HOLDİNG|10.40.24.114|||110000438407|20
25.10.2018 00:00:00||ÇALIK HOLDİNG|10.40.24.114|||110000438407|40
25.10.2018 00:00:00||ÇALIK HOLDİNG|10.40.24.114|||110000438407|172
25.10.2018 00:00:00||ÇALIK HOLDİNG|10.40.24.114|||110000438407|370
25.10.2018 00:00:00||ÇALIK HOLDİNG|10.40.24.115|||110000438407|170
25.10.2018 00:00:00||ÇALIK HOLDİNG|10.40.24.115|||110000438407|80
25.10.2018 00:00:00||ÇALIK HOLDİNG|10.40.24.115|||110000438407|90
25.10.2018 00:00:00||ÇALIK HOLDİNG|10.40.24.115|||110000438407|80
25.10.2018 00:00:00||ÇALIK HOLDİNG|10.40.24.115|||110000438407|90
25.10.2018 00:00:00||ÇALIK HOLDİNG|10.40.24.115|||110000438407|70
25.10.2018 00:00:00||ÇALIK HOLDİNG|10.40.25.116|||110000438407|100
25.10.2018 00:00:00||ÇALIK HOLDİNG|10.40.25.116|||110000438407|100
25.10.2018 00:00:00||ÇALIK HOLDİNG|10.40.25.116|||110000438407|300
25.10.2018 00:00:00||ÇALIK HOLDİNG|10.40.24.116|||110000438407|280
25.10.2018 00:00:00||ÇALIK HOLDİNG|10.40.24.116|||110000438407|100
25.10.2018 00:00:00||ÇALIK HOLDİNG|10.40.24.116|||110000438407|100
25.10.2018 00:00:00||ÇALIK HOLDİNG|10.40.25.117|||110000438407|250
25.10.2018 00:00:00||ÇALIK HOLDİNG|10.40.25.117|||110000438407|30
25.10.2018 00:00:00||ÇALIK HOLDİNG|10.40.25.117|||110000438407|27
25.10.2018 00:00:00||ÇALIK HOLDİNG|10.40.25.119|||110000438407|30
25.10.2018 00:00:00||ÇALIK HOLDİNG|10.40.25.119|||110000438407|30
25.10.2018 00:00:00||ÇALIK HOLDİNG|10.40.24.119|||110000438407|150
25.10.2018 00:00:00||ÇALIK HOLDİNG|10.40.24.119|||110000438407|30
25.10.2018 00:00:00||ÇALIK HOLDİNG|10.40.24.119|||110000438407|50
25.10.2018 00:00:00||ÇALIK HOLDİNG|10.40.25.120|||110000438407|107
25.10.2018 00:00:00||ÇALIK HOLDİNG|10.40.25.120|||110000438407|50
25.10.2018 00:00:00||ÇALIK HOLDİNG|10.40.25.120|||110000438407|20
25.10.2018 00:00:00||ÇALIK HOLDİNG|10.40.25.120|||110000438407|20
25.10.2018 00:00:00||ÇALIK HOLDİNG|10.40.25.120|||110000438407|30
25.10.2018 00:00:00||ÇALIK HOLDİNG|10.40.25.120|||110000438407|88
25.10.2018 00:00:00||ÇALIK HOLDİNG|10.40.25.120|||110000438407|90
25.10.2018 00:00:00||ÇALIK HOLDİNG|10.40.24.120|||110000438407|20
25.10.2018 00:00:00||ÇALIK HOLDİNG|10.40.24.120|||110000438407|38
25.10.2018 00:00:00||ÇALIK HOLDİNG|10.40.24.120|||110000438407|110
25.10.2018 00:00:00||ÇALIK HOLDİNG|10.40.24.120|||110000438407|100
25.10.2018 00:00:00||ÇALIK HOLDİNG|10.40.24.120|||110000438407|40
25.10.2018 00:00:00||ÇALIK HOLDİNG|10.40.24.120|||110000438407|80
25.10.2018 00:00:00||ÇALIK HOLDİNG|10.40.24.120|||110000438407|80
25.10.2018 00:00:00||ÇALIK HOLDİNG|10.40.24.120|||110000438407|70
25.10.2018 00:00:00||ÇALIK HOLDİNG|10.40.25.121|||110000438407|92
25.10.2018 00:00:00||ÇALIK HOLDİNG|10.40.25.121|||110000438407|100
25.10.2018 00:00:00||ÇALIK HOLDİNG|10.40.25.121|||110000438407|150
25.10.2018 00:00:00||ÇALIK HOLDİNG|10.40.24.121|||110000438407|100
25.10.2018 00:00:00||ÇALIK HOLDİNG|10.40.24.121|||110000438407|100
25.10.2018 00:00:00||ÇALIK HOLDİNG|10.40.24.121|||110000438407|140
25.10.2018 00:00:00||ÇALIK HOLDİNG|10.40.25.122|||110000438407|90
25.10.2018 00:00:00||ÇALIK HOLDİNG|10.40.25.122|||110000438407|82
25.10.2018 00:00:00||ÇALIK HOLDİNG|10.40.25.122|||110000438407|80
25.10.2018 00:00:00||ÇALIK HOLDİNG|10.40.25.122|||110000438407|30
25.10.2018 00:00:00||ÇALIK HOLDİNG|10.40.25.122|||110000438407|10
25.10.2018 00:00:00||ÇALIK HOLDİNG|10.40.24.122|||110000438407|90
25.10.2018 00:00:00||ÇALIK HOLDİNG|10.40.24.122|||110000438407|80
25.10.2018 00:00:00||ÇALIK HOLDİNG|10.40.24.122|||110000438407|87
25.10.2018 00:00:00||ÇALIK HOLDİNG|10.40.24.117|||110000438407|200
25.10.2018 00:00:00||ÇALIK HOLDİNG|10.40.24.117|||110000438407|30
25.10.2018 00:00:00||ÇALIK HOLDİNG|10.40.24.117|||110000438407|30
25.10.2018 00:00:00||ÇALIK HOLDİNG|10.40.24.97|||110000438407|103
25.10.2018 00:00:00||ÇALIK HOLDİNG|10.40.24.97|||110000438407|90
25.10.2018 00:00:00||ÇALIK HOLDİNG|10.40.24.97|||110000438407|80
25.10.2018 00:00:00||ÇALIK HOLDİNG|10.40.24.97|||110000438407|90
25.10.2018 00:00:00||ÇALIK HOLDİNG|10.40.24.97|||110000438407|318
25.10.2018 00:00:00||ÇALIK HOLDİNG|10.40.24.100|||110000438407|30
25.10.2018 00:00:00||ÇALIK HOLDİNG|10.40.24.100|||110000438407|40
25.10.2018 00:00:00||FIBABANKA|10.40.27.54|||101571767266|310
25.10.2018 00:00:00||FIBABANKA|10.40.26.54|||101571767266|317
25.10.2018 00:00:00||FIBABANKA|10.40.27.55|||101571767266|106
25.10.2018 00:00:00||FIBABANKA|10.40.26.55|||101571767266|105
25.10.2018 00:00:00||FIBABANKA|10.40.24.55|||101571767266|111
25.10.2018 00:00:00||FIBABANKA|10.40.25.56|||101571767266|201
25.10.2018 00:00:00||FIBABANKA|10.40.25.54|||101571767266|330
25.10.2018 00:00:00||FIBABANKA|10.40.24.54|||101571767266|315
25.10.2018 00:00:00||FIBABANKA|10.40.25.55|||101571767266|111
25.10.2018 00:00:00||FIBABANKA|10.40.24.56|||101571767266|199
25.10.2018 00:00:00||FIBABANKA|10.40.26.53|||101571767266|43
25.10.2018 00:00:00||FIBABANKA|10.40.26.53|||101571767266|167
25.10.2018 00:00:00||FIBABANKA|10.40.25.76|||101571767266|10
25.10.2018 00:00:00||FIBABANKA|10.40.27.53|||101571767266|163
25.10.2018 00:00:00||FIBABANKA|10.40.27.53|||101571767266|185
25.10.2018 00:00:00||FIBABANKA|10.40.26.53|||101571767266|172
25.10.2018 00:00:00||FIBABANKA|10.40.27.57|||101571767266|82
25.10.2018 00:00:00||FIBABANKA|10.40.27.57|||101571767266|80
25.10.2018 00:00:00||FIBABANKA|10.40.27.57|||101571767266|80
25.10.2018 00:00:00||FIBABANKA|10.40.25.57|||101571767266|90
25.10.2018 00:00:00||FIBABANKA|10.40.25.57|||101571767266|90
25.10.2018 00:00:00||FIBABANKA|10.40.25.57|||101571767266|90
25.10.2018 00:00:00||FIBABANKA|10.40.26.51|||101571767266|20
25.10.2018 00:00:00||FIBABANKA|10.40.27.52|||101571767266|50
25.10.2018 00:00:00||FIBABANKA|10.40.27.52|||101571767266|60
25.10.2018 00:00:00||FIBABANKA|10.40.27.52|||101571767266|70
25.10.2018 00:00:00||FIBABANKA|10.40.27.73|||101571767266|10
25.10.2018 00:00:00||FIBABANKA|10.40.27.74|||101571767266|183
25.10.2018 00:00:00||FIBABANKA|10.40.25.53|||101571767266|30
25.10.2018 00:00:00||FIBABANKA|10.40.25.53|||101571767266|50
25.10.2018 00:00:00||FIBABANKA|10.40.27.53|||101571767266|60
25.10.2018 00:00:00||FIBABANKA|10.40.26.53|||101571767266|60
25.10.2018 00:00:00||FIBABANKA|10.40.25.51|||101571767266|20
25.10.2018 00:00:00||FIBABANKA|10.40.25.51|||101571767266|110
25.10.2018 00:00:00||FIBABANKA|10.40.24.51|||101571767266|20
25.10.2018 00:00:00||FIBABANKA|10.40.24.51|||101571767266|70
25.10.2018 00:00:00||FIBABANKA|10.40.24.51|||101571767266|100
25.10.2018 00:00:00||FIBABANKA|10.40.24.51|||101571767266|140
25.10.2018 00:00:00||FIBABANKA|10.40.24.51|||101571767266|30
25.10.2018 00:00:00||FIBABANKA|10.40.24.57|||101571767266|90
25.10.2018 00:00:00||FIBABANKA|10.40.24.57|||101571767266|80
25.10.2018 00:00:00||FIBABANKA|10.40.24.57|||101571767266|80
25.10.2018 00:00:00||FIBABANKA|10.40.24.52|||101571767266|40
25.10.2018 00:00:00||FIBABANKA|10.40.24.52|||101571767266|10
25.10.2018 00:00:00||FIBABANKA|10.40.26.73|||101571767266|40
25.10.2018 00:00:00||FIBABANKA|10.40.27.53|||101571767266|68
25.10.2018 00:00:00||FIBABANKA|10.40.26.51|||101571767266|70
25.10.2018 00:00:00||FIBABANKA|10.40.26.52|||101571767266|30
25.10.2018 00:00:00||FIBABANKA|10.40.26.52|||101571767266|90
25.10.2018 00:00:00||FIBABANKA|10.40.26.52|||101571767266|30
25.10.2018 00:00:00||FIBABANKA|10.40.25.51|||101571767266|140
25.10.2018 00:00:00||FIBABANKA|10.40.25.51|||101571767266|40
25.10.2018 00:00:00||FIBABANKA|10.40.25.51|||101571767266|40
25.10.2018 00:00:00||FIBABANKA|10.40.25.51|||101571767266|72
25.10.2018 00:00:00||FIBABANKA|10.40.24.51|||101571767266|30
25.10.2018 00:00:00||FIBABANKA|10.40.24.58|||101571767266|10
25.10.2018 00:00:00||FIBABANKA|10.40.24.58|||101571767266|10
25.10.2018 00:00:00||FIBABANKA|10.40.25.59|||101571767266|70
25.10.2018 00:00:00||FIBABANKA|10.40.25.59|||101571767266|90
25.10.2018 00:00:00||FIBABANKA|10.40.25.59|||101571767266|90
25.10.2018 00:00:00||FIBABANKA|10.40.25.59|||101571767266|40
25.10.2018 00:00:00||FIBABANKA|10.40.25.59|||101571767266|120
25.10.2018 00:00:00||FIBABANKA|10.40.25.59|||101571767266|60
25.10.2018 00:00:00||FIBABANKA|10.40.25.59|||101571767266|50
25.10.2018 00:00:00||FIBABANKA|10.40.25.59|||101571767266|140
25.10.2018 00:00:00||FIBABANKA|10.40.25.59|||101571767266|50
25.10.2018 00:00:00||FIBABANKA|10.40.24.59|||101571767266|70
25.10.2018 00:00:00||FIBABANKA|10.40.24.59|||101571767266|120
25.10.2018 00:00:00||FIBABANKA|10.40.24.59|||101571767266|77
25.10.2018 00:00:00||FIBABANKA|10.40.24.59|||101571767266|50
25.10.2018 00:00:00||FIBABANKA|10.40.24.59|||101571767266|132
25.10.2018 00:00:00||FIBABANKA|10.40.24.59|||101571767266|70
25.10.2018 00:00:00||FIBABANKA|10.40.24.59|||101571767266|60
25.10.2018 00:00:00||FIBABANKA|10.40.24.59|||101571767266|140
25.10.2018 00:00:00||FIBABANKA|10.40.24.59|||101571767266|60
25.10.2018 00:00:00||FIBABANKA|10.40.25.60|||101571767266|100
25.10.2018 00:00:00||FIBABANKA|10.40.25.60|||101571767266|38
25.10.2018 00:00:00||FIBABANKA|10.40.25.60|||101571767266|110
25.10.2018 00:00:00||FIBABANKA|10.40.25.60|||101571767266|40
25.10.2018 00:00:00||FIBABANKA|10.40.24.60|||101571767266|110
25.10.2018 00:00:00||FIBABANKA|10.40.24.60|||101571767266|57
25.10.2018 00:00:00||FIBABANKA|10.40.24.60|||101571767266|40
25.10.2018 00:00:00||FIBABANKA|10.40.24.60|||101571767266|100
25.10.2018 00:00:00||FIBABANKA|10.40.24.60|||101571767266|50
25.10.2018 00:00:00||FIBABANKA|10.40.25.72|||101571767266|70
25.10.2018 00:00:00||FIBABANKA|10.40.25.72|||101571767266|40
25.10.2018 00:00:00||FIBABANKA|10.40.25.72|||101571767266|30
25.10.2018 00:00:00||FIBABANKA|10.40.24.72|||101571767266|140
25.10.2018 00:00:00||FIBABANKA|10.40.24.72|||101571767266|78
25.10.2018 00:00:00||FIBABANKA|10.40.24.72|||101571767266|30
25.10.2018 00:00:00||FIBABANKA|10.40.24.72|||101571767266|40
25.10.2018 00:00:00||FIBABANKA|10.40.25.74|||101571767266|30
25.10.2018 00:00:00||FIBABANKA|10.40.25.75|||101571767266|42
25.10.2018 00:00:00||FIBABANKA|10.40.25.75|||101571767266|87
25.10.2018 00:00:00||FIBABANKA|10.40.25.75|||101571767266|132
25.10.2018 00:00:00||FIBABANKA|10.40.25.75|||101571767266|177
25.10.2018 00:00:00||FIBABANKA|10.40.25.75|||101571767266|187
25.10.2018 00:00:00||FIBABANKA|10.40.25.75|||101571767266|203
25.10.2018 00:00:00||FIBABANKA|10.40.24.75|||101571767266|50
25.10.2018 00:00:00||FIBABANKA|10.40.24.75|||101571767266|45
25.10.2018 00:00:00||FIBABANKA|10.40.24.75|||101571767266|165
25.10.2018 00:00:00||FIBABANKA|10.40.24.75|||101571767266|152
25.10.2018 00:00:00||FIBABANKA|10.40.24.76|||101571767266|35
25.10.2018 00:00:00||FIBABANKA|10.40.24.76|||101571767266|70
25.10.2018 00:00:00||FIBABANKA|10.40.24.76|||101571767266|20
25.10.2018 00:00:00||FIBABANKA|10.40.24.76|||101571767266|40
25.10.2018 00:00:00||FIBABANKA|10.40.24.76|||101571767266|10
25.10.2018 00:00:00||FIBABANKA|10.40.24.53|||101571767266|30
25.10.2018 00:00:00||FIBABANKA|10.40.24.53|||101571767266|60
25.10.2018 00:00:00||FIBABANKA|10.40.26.57|||101571767266|92
25.10.2018 00:00:00||FIBABANKA|10.40.26.57|||101571767266|87
25.10.2018 00:00:00||FIBABANKA|10.40.26.57|||101571767266|80
25.10.2018 00:00:00||FIBABANKA|10.40.27.72|||101571767266|40
25.10.2018 00:00:00||FIBABANKA|10.40.27.72|||101571767266|50
25.10.2018 00:00:00||FIBABANKA|10.40.27.72|||101571767266|40
25.10.2018 00:00:00||FIBABANKA|10.40.27.72|||101571767266|140
25.10.2018 00:00:00||FIBABANKA|10.40.27.72|||101571767266|60
25.10.2018 00:00:00||FIBABANKA|10.40.26.72|||101571767266|30
25.10.2018 00:00:00||FIBABANKA|10.40.26.72|||101571767266|140
25.10.2018 00:00:00||FIBABANKA|10.40.26.72|||101571767266|70
25.10.2018 00:00:00||FIBABANKA|10.40.26.72|||101571767266|30
25.10.2018 00:00:00||FIBABANKA|10.40.27.73|||101571767266|30
25.10.2018 00:00:00||FIBABANKA|10.40.27.73|||101571767266|100
25.10.2018 00:00:00||FIBABANKA|10.40.27.73|||101571767266|40
25.10.2018 00:00:00||FIBABANKA|10.40.27.73|||101571767266|40
25.10.2018 00:00:00||FIBABANKA|10.40.27.73|||101571767266|260
25.10.2018 00:00:00||FIBABANKA|10.40.26.73|||101571767266|40
25.10.2018 00:00:00||FIBABANKA|10.40.26.73|||101571767266|70
25.10.2018 00:00:00||FIBABANKA|10.40.26.73|||101571767266|30
25.10.2018 00:00:00||FIBABANKA|10.40.26.73|||101571767266|8
25.10.2018 00:00:00||FIBABANKA|10.40.27.74|||101571767266|72
25.10.2018 00:00:00||FIBABANKA|10.40.27.74|||101571767266|170
25.10.2018 00:00:00||FIBABANKA|10.40.27.74|||101571767266|170
25.10.2018 00:00:00||FIBABANKA|10.40.26.74|||101571767266|70
25.10.2018 00:00:00||FIBABANKA|10.40.26.74|||101571767266|193
25.10.2018 00:00:00||FIBABANKA|10.40.26.74|||101571767266|182
25.10.2018 00:00:00||FIBABANKA|10.40.26.74|||101571767266|178
25.10.2018 00:00:00||FIBABANKA|10.40.27.75|||101571767266|10
25.10.2018 00:00:00||FIBABANKA|10.40.27.75|||101571767266|10
25.10.2018 00:00:00||FIBABANKA|10.40.26.79|||101571767266|10
25.10.2018 00:00:00||FIBABANKA|10.40.27.79|||101571767266|10
25.10.2018 00:00:00||FIBABANKA|10.40.27.79|||101571767266|10
25.10.2018 00:00:00||FIBABANKA|10.40.26.79|||101571767266|10
25.10.2018 00:00:00||FIBABANKA|10.40.27.77|||101571767266|163
25.10.2018 00:00:00||FIBABANKA|10.40.26.77|||101571767266|183
25.10.2018 00:00:00||FIBABANKA|10.40.27.77|||101571767266|163
25.10.2018 00:00:00||FIBABANKA|10.40.25.74|||101571767266|230
25.10.2018 00:00:00||FIBABANKA|10.40.24.75|||101571767266|183
25.10.2018 00:00:00||FIBABANKA|10.40.24.53|||101571767266|170
25.10.2018 00:00:00||FIBABANKA|10.40.24.53|||101571767266|178
25.10.2018 00:00:00||FIBABANKA|10.40.25.52|||101571767266|10
25.10.2018 00:00:00||FIBABANKA|10.40.25.52|||101571767266|50
25.10.2018 00:00:00||FIBABANKA|10.40.25.52|||101571767266|63
25.10.2018 00:00:00||FIBABANKA|10.40.25.53|||101571767266|163
25.10.2018 00:00:00||FIBABANKA|10.40.25.53|||101571767266|155
25.10.2018 00:00:00||FIBABANKA|10.40.27.51|||101571767266|30
25.10.2018 00:00:00||FIBABANKA|10.40.27.51|||101571767266|20
25.10.2018 00:00:00||FIBABANKA|10.40.27.51|||101571767266|102
25.10.2018 00:00:00||FIBABANKA|10.40.27.51|||101571767266|140
25.10.2018 00:00:00||FIBABANKA|10.40.27.51|||101571767266|70
25.10.2018 00:00:00||FIBABANKA|10.40.27.51|||101571767266|40
25.10.2018 00:00:00||FIBABANKA|10.40.27.51|||101571767266|40
25.10.2018 00:00:00||FIBABANKA|10.40.26.51|||101571767266|10
25.10.2018 00:00:00||FIBABANKA|10.40.26.51|||101571767266|110
25.10.2018 00:00:00||FIBABANKA|10.40.26.51|||101571767266|130
25.10.2018 00:00:00||FIBABANKA|10.40.26.51|||101571767266|30
25.10.2018 00:00:00||FIBABANKA|10.40.26.51|||101571767266|30
25.10.2018 00:00:00||FIBABANKA|10.40.24.74|||101571767266|32
25.10.2018 00:00:00||FIBABANKA|10.40.25.76|||101571767266|60
25.10.2018 00:00:00||FIBABANKA|10.40.25.76|||101571767266|40
25.10.2018 00:00:00||FIBABANKA|10.40.25.76|||101571767266|10
25.10.2018 00:00:00||HAVAŞ|10.40.24.46|||110000479675|10
25.10.2018 00:00:00||HAVAŞ|10.40.24.48|||110000479675|747
25.10.2018 00:00:00||HAVAŞ|10.40.24.48|||110000479675|747
25.10.2018 00:00:00||HAVAŞ|10.40.25.48|||110000479675|740
25.10.2018 00:00:00||HAVAŞ|10.40.24.45|||110000479675|70
25.10.2018 00:00:00||HAVAŞ|10.40.25.45|||110000479675|68
25.10.2018 00:00:00||HAVAŞ|10.40.25.47|||110000479675|70
25.10.2018 00:00:00||HAVAŞ|10.40.24.46|||110000479675|80
25.10.2018 00:00:00||HAVAŞ|10.40.24.47|||110000479675|30
25.10.2018 00:00:00||HAVAŞ|10.40.24.47|||110000479675|90
25.10.2018 00:00:00||HAVAŞ|10.40.24.47|||110000479675|90
25.10.2018 00:00:00||HAVAŞ|10.40.25.46|||110000479675|10
25.10.2018 00:00:00||HAVAŞ|10.40.25.46|||110000479675|60
25.10.2018 00:00:00||HAVAŞ|10.40.24.48|||110000479675|748
25.10.2018 00:00:00||HAVAŞ|10.40.24.46|||110000479675|60
25.10.2018 00:00:00||HAVAŞ|10.40.24.46|||110000479675|72
25.10.2018 00:00:00||HAVAŞ|10.40.24.47|||110000479675|13
25.10.2018 00:00:00||HAVAŞ|10.40.25.48|||110000479675|753
25.10.2018 00:00:00||HAVAŞ|10.40.25.48|||110000479675|770
25.10.2018 00:00:00||HAVAŞ|10.40.25.45|||110000479675|95
25.10.2018 00:00:00||HAVAŞ|10.40.24.45|||110000479675|50
25.10.2018 00:00:00||HAVAŞ|10.40.24.45|||110000479675|170
25.10.2018 00:00:00||HAVAŞ|10.40.24.45|||110000479675|100
25.10.2018 00:00:00||HAVAŞ|10.40.25.47|||110000479675|70
25.10.2018 00:00:00||HAVAŞ|10.40.25.47|||110000479675|227
25.10.2018 00:00:00||HAVAŞ|10.40.25.47|||110000479675|58
25.10.2018 00:00:00||HAVAŞ|10.40.25.47|||110000479675|90
25.10.2018 00:00:00||HAVAŞ|10.40.25.47|||110000479675|90
25.10.2018 00:00:00||HAVAŞ|10.40.25.47|||110000479675|92
25.10.2018 00:00:00||HAVAŞ|10.40.25.47|||110000479675|158
25.10.2018 00:00:00||HAVAŞ|10.40.25.47|||110000479675|178
25.10.2018 00:00:00||HAVAŞ|10.40.25.47|||110000479675|90
25.10.2018 00:00:00||HAVAŞ|10.40.25.47|||110000479675|90
25.10.2018 00:00:00||HAVAŞ|10.40.25.47|||110000479675|90
25.10.2018 00:00:00||HAVAŞ|10.40.25.45|||110000479675|110
25.10.2018 00:00:00||HAVAŞ|10.40.25.45|||110000479675|90
25.10.2018 00:00:00||HAVAŞ|10.40.25.46|||110000479675|10
25.10.2018 00:00:00||HAVAŞ|10.40.25.46|||110000479675|10
25.10.2018 00:00:00||HAVAŞ|10.40.25.46|||110000479675|20
25.10.2018 00:00:00||HAVAŞ|10.40.25.46|||110000479675|20
25.10.2018 00:00:00||HAVAŞ|10.40.25.46|||110000479675|50
25.10.2018 00:00:00||HAVAŞ|10.40.25.46|||110000479675|100
25.10.2018 00:00:00||HAVAŞ|10.40.25.46|||110000479675|65
25.10.2018 00:00:00||HAVAŞ|10.40.25.46|||110000479675|72
25.10.2018 00:00:00||HAVAŞ|10.40.25.46|||110000479675|70
25.10.2018 00:00:00||HAVAŞ|10.40.24.46|||110000479675|20
25.10.2018 00:00:00||HAVAŞ|10.40.24.46|||110000479675|20
25.10.2018 00:00:00||HAVAŞ|10.40.24.46|||110000479675|10
25.10.2018 00:00:00||HAVAŞ|10.40.24.46|||110000479675|10
25.10.2018 00:00:00||HAVAŞ|10.40.24.46|||110000479675|10
25.10.2018 00:00:00||HAVAŞ|10.40.24.46|||110000479675|60
25.10.2018 00:00:00||HAVAŞ|10.40.24.46|||110000479675|110
25.10.2018 00:00:00||HAVAŞ|10.40.24.47|||110000479675|30
25.10.2018 00:00:00||HAVAŞ|10.40.24.47|||110000479675|220
25.10.2018 00:00:00||HAVAŞ|10.40.24.47|||110000479675|60
25.10.2018 00:00:00||HAVAŞ|10.40.24.47|||110000479675|57
25.10.2018 00:00:00||HAVAŞ|10.40.24.47|||110000479675|155
25.10.2018 00:00:00||HAVAŞ|10.40.24.47|||110000479675|100
25.10.2018 00:00:00||HAVAŞ|10.40.24.47|||110000479675|100
25.10.2018 00:00:00||MARS CINEMA|10.40.24.203|||110000472614|102
25.10.2018 00:00:00||MARS CINEMA|10.40.24.204|||110000472614|40
25.10.2018 00:00:00||MARS CINEMA|10.40.24.203|||110000472614|78
25.10.2018 00:00:00||MARS CINEMA|10.40.24.203|||110000472614|163
25.10.2018 00:00:00||MARS CINEMA|10.40.24.203|||110000472614|80
25.10.2018 00:00:00||MARS CINEMA|10.40.24.204|||110000472614|63
25.10.2018 00:00:00||MARS CINEMA|10.40.24.203|||110000472614|105
25.10.2018 00:00:00||MARS CINEMA|10.40.24.204|||110000472614|20
25.10.2018 00:00:00||MARS CINEMA|10.40.24.204|||110000472614|93
25.10.2018 00:00:00||MARS CINEMA|10.40.25.203|||110000472614|155
25.10.2018 00:00:00||MARS CINEMA|10.40.25.203|||110000472614|68
25.10.2018 00:00:00||MARS CINEMA|10.40.25.203|||110000472614|187
25.10.2018 00:00:00||MARS CINEMA|10.40.25.203|||110000472614|93
25.10.2018 00:00:00||MARS CINEMA|10.40.25.203|||110000472614|80
25.10.2018 00:00:00||MARS CINEMA|10.40.25.203|||110000472614|110
25.10.2018 00:00:00||MARS CINEMA|10.40.25.203|||110000472614|80
25.10.2018 00:00:00||MARS CINEMA|10.40.25.203|||110000472614|148
25.10.2018 00:00:00||MARS CINEMA|10.40.25.203|||110000472614|90
25.10.2018 00:00:00||MARS CINEMA|10.40.25.203|||110000472614|110
25.10.2018 00:00:00||MARS CINEMA|10.40.25.203|||110000472614|93
25.10.2018 00:00:00||MARS CINEMA|10.40.25.203|||110000472614|65
25.10.2018 00:00:00||MARS CINEMA|10.40.25.203|||110000472614|188
25.10.2018 00:00:00||MARS CINEMA|10.40.25.204|||110000472614|110
25.10.2018 00:00:00||MARS CINEMA|10.40.25.204|||110000472614|70
25.10.2018 00:00:00||MARS CINEMA|10.40.25.204|||110000472614|80
25.10.2018 00:00:00||MARS CINEMA|10.40.25.204|||110000472614|100
25.10.2018 00:00:00||MARS CINEMA|10.40.25.204|||110000472614|20
25.10.2018 00:00:00||MARS CINEMA|10.40.25.204|||110000472614|20
25.10.2018 00:00:00||MARS CINEMA|10.40.25.204|||110000472614|30
25.10.2018 00:00:00||MARS CINEMA|10.40.25.204|||110000472614|40
25.10.2018 00:00:00||MARS CINEMA|10.40.25.204|||110000472614|90
25.10.2018 00:00:00||MARS CINEMA|10.40.25.204|||110000472614|120
25.10.2018 00:00:00||MARS CINEMA|10.40.25.204|||110000472614|80
25.10.2018 00:00:00||MARS CINEMA|10.40.25.204|||110000472614|80
25.10.2018 00:00:00||MARS CINEMA|10.40.25.204|||110000472614|110
25.10.2018 00:00:00||MARS CINEMA|10.40.25.204|||110000472614|100
25.10.2018 00:00:00||MARS CINEMA|10.40.24.203|||110000472614|80
25.10.2018 00:00:00||MARS CINEMA|10.40.24.203|||110000472614|90
25.10.2018 00:00:00||MARS CINEMA|10.40.24.203|||110000472614|145
25.10.2018 00:00:00||MARS CINEMA|10.40.24.203|||110000472614|50
25.10.2018 00:00:00||MARS CINEMA|10.40.24.203|||110000472614|140
25.10.2018 00:00:00||MARS CINEMA|10.40.24.203|||110000472614|150
25.10.2018 00:00:00||MARS CINEMA|10.40.24.203|||110000472614|100
25.10.2018 00:00:00||MARS CINEMA|10.40.24.203|||110000472614|180
25.10.2018 00:00:00||MARS CINEMA|10.40.24.204|||110000472614|110
25.10.2018 00:00:00||MARS CINEMA|10.40.24.204|||110000472614|93
25.10.2018 00:00:00||MARS CINEMA|10.40.24.204|||110000472614|90
25.10.2018 00:00:00||MARS CINEMA|10.40.24.204|||110000472614|20
25.10.2018 00:00:00||MARS CINEMA|10.40.24.204|||110000472614|10
25.10.2018 00:00:00||MARS CINEMA|10.40.24.204|||110000472614|90
25.10.2018 00:00:00||MARS CINEMA|10.40.24.204|||110000472614|120
25.10.2018 00:00:00||MARS CINEMA|10.40.24.204|||110000472614|92
25.10.2018 00:00:00||MARS CINEMA|10.40.24.204|||110000472614|108
25.10.2018 00:00:00||MARS CINEMA|10.40.24.204|||110000472614|78
25.10.2018 00:00:00||MARS CINEMA|10.40.25.206|||110000472614|120
25.10.2018 00:00:00||MARS CINEMA|10.40.25.206|||110000472614|40
25.10.2018 00:00:00||MARS CINEMA|10.40.25.206|||110000472614|40
25.10.2018 00:00:00||MARS CINEMA|10.40.25.206|||110000472614|40
25.10.2018 00:00:00||MARS CINEMA|10.40.25.206|||110000472614|20
25.10.2018 00:00:00||MARS CINEMA|10.40.25.206|||110000472614|20
25.10.2018 00:00:00||MARS CINEMA|10.40.25.206|||110000472614|30
25.10.2018 00:00:00||MARS CINEMA|10.40.25.206|||110000472614|60
25.10.2018 00:00:00||MARS CINEMA|10.40.25.206|||110000472614|40
25.10.2018 00:00:00||MARS CINEMA|10.40.25.206|||110000472614|83
25.10.2018 00:00:00||MARS CINEMA|10.40.25.206|||110000472614|90
25.10.2018 00:00:00||MARS CINEMA|10.40.24.206|||110000472614|157
25.10.2018 00:00:00||MARS CINEMA|10.40.24.206|||110000472614|40
25.10.2018 00:00:00||MARS CINEMA|10.40.24.206|||110000472614|40
25.10.2018 00:00:00||MARS CINEMA|10.40.24.206|||110000472614|40
25.10.2018 00:00:00||MARS CINEMA|10.40.24.206|||110000472614|30
25.10.2018 00:00:00||MARS CINEMA|10.40.24.206|||110000472614|30
25.10.2018 00:00:00||MARS CINEMA|10.40.24.206|||110000472614|190
25.10.2018 00:00:00||MARS CINEMA|10.40.24.206|||110000472614|160
25.10.2018 00:00:00||MARS CINEMA|10.40.24.206|||110000472614|20
25.10.2018 00:00:00||MARS CINEMA|10.40.24.206|||110000472614|80
25.10.2018 00:00:00||MARS CINEMA|10.40.24.206|||110000472614|78
25.10.2018 00:00:00||PEGASUS|10.40.27.84|||110000423831|216
25.10.2018 00:00:00||PEGASUS|10.40.26.85|||110000423831|121
25.10.2018 00:00:00||PEGASUS|10.40.27.66|||110000423831|112
25.10.2018 00:00:00||PEGASUS|10.40.26.66|||110000423831|93
25.10.2018 00:00:00||PEGASUS|10.40.26.84|||110000423831|218
25.10.2018 00:00:00||PEGASUS|10.40.27.85|||110000423831|116
25.10.2018 00:00:00||PEGASUS|10.40.27.67|||110000423831|337
25.10.2018 00:00:00||PEGASUS|10.40.27.67|||110000423831|40
25.10.2018 00:00:00||PEGASUS|10.40.26.62|||110000423831|10
25.10.2018 00:00:00||PEGASUS|10.40.26.62|||110000423831|190
25.10.2018 00:00:00||PEGASUS|10.40.26.63|||110000423831|70
25.10.2018 00:00:00||PEGASUS|10.40.26.63|||110000423831|30
25.10.2018 00:00:00||PEGASUS|10.40.26.63|||110000423831|60
25.10.2018 00:00:00||PEGASUS|10.40.26.63|||110000423831|30
25.10.2018 00:00:00||PEGASUS|10.40.26.63|||110000423831|230
25.10.2018 00:00:00||PEGASUS|10.40.26.63|||110000423831|140
25.10.2018 00:00:00||PEGASUS|10.40.26.63|||110000423831|110
25.10.2018 00:00:00||PEGASUS|10.40.26.63|||110000423831|60
25.10.2018 00:00:00||PEGASUS|10.40.26.67|||110000423831|170
25.10.2018 00:00:00||PEGASUS|10.40.27.68|||110000423831|90
25.10.2018 00:00:00||PEGASUS|10.40.27.68|||110000423831|83
25.10.2018 00:00:00||PEGASUS|10.40.27.68|||110000423831|90
25.10.2018 00:00:00||PEGASUS|10.40.27.68|||110000423831|50
25.10.2018 00:00:00||PEGASUS|10.40.26.68|||110000423831|90
25.10.2018 00:00:00||PEGASUS|10.40.26.68|||110000423831|90
25.10.2018 00:00:00||PEGASUS|10.40.26.68|||110000423831|50
25.10.2018 00:00:00||PEGASUS|10.40.27.63|||110000423831|40
25.10.2018 00:00:00||PEGASUS|10.40.27.86|||110000423831|340
25.10.2018 00:00:00||PEGASUS|10.40.27.63|||110000423831|50
25.10.2018 00:00:00||PEGASUS|10.40.27.63|||110000423831|60
25.10.2018 00:00:00||PEGASUS|10.40.27.64|||110000423831|80
25.10.2018 00:00:00||PEGASUS|10.40.27.64|||110000423831|70
25.10.2018 00:00:00||PEGASUS|10.40.27.63|||110000423831|62
25.10.2018 00:00:00||PEGASUS|10.40.27.63|||110000423831|70
25.10.2018 00:00:00||PEGASUS|10.40.27.63|||110000423831|90
25.10.2018 00:00:00||PEGASUS|10.40.26.63|||110000423831|110
25.10.2018 00:00:00||PEGASUS|10.40.27.67|||110000423831|360
25.10.2018 00:00:00||PEGASUS|10.40.27.64|||110000423831|297
25.10.2018 00:00:00||PEGASUS|10.40.27.64|||110000423831|262
25.10.2018 00:00:00||PEGASUS|10.40.27.63|||110000423831|72
25.10.2018 00:00:00||PEGASUS|10.40.27.63|||110000423831|67
25.10.2018 00:00:00||PEGASUS|10.40.27.63|||110000423831|80
25.10.2018 00:00:00||PEGASUS|10.40.26.63|||110000423831|110
25.10.2018 00:00:00||PEGASUS|10.40.26.63|||110000423831|110
25.10.2018 00:00:00||PEGASUS|10.40.27.81|||110000423831|460
25.10.2018 00:00:00||PEGASUS|10.40.27.81|||110000423831|430
25.10.2018 00:00:00||PEGASUS|10.40.26.63|||110000423831|90
25.10.2018 00:00:00||PEGASUS|10.40.26.63|||110000423831|60
25.10.2018 00:00:00||PEGASUS|10.40.26.67|||110000423831|30
25.10.2018 00:00:00||PEGASUS|10.40.26.67|||110000423831|340
25.10.2018 00:00:00||PEGASUS|10.40.26.67|||110000423831|60
25.10.2018 00:00:00||PEGASUS|10.40.26.67|||110000423831|40
25.10.2018 00:00:00||PEGASUS|10.40.26.67|||110000423831|70
25.10.2018 00:00:00||PEGASUS|10.40.26.68|||110000423831|100
25.10.2018 00:00:00||PEGASUS|10.40.27.64|||110000423831|315
25.10.2018 00:00:00||PEGASUS|10.40.27.64|||110000423831|265
25.10.2018 00:00:00||PEGASUS|10.40.27.64|||110000423831|295
25.10.2018 00:00:00||PEGASUS|10.40.27.64|||110000423831|263
25.10.2018 00:00:00||PEGASUS|10.40.27.64|||110000423831|272
25.10.2018 00:00:00||PEGASUS|10.40.27.86|||110000423831|340
25.10.2018 00:00:00||PEGASUS|10.40.27.63|||110000423831|90
25.10.2018 00:00:00||PEGASUS|10.40.26.63|||110000423831|130
25.10.2018 00:00:00||PEGASUS|10.40.26.63|||110000423831|60
25.10.2018 00:00:00||PEGASUS|10.40.26.63|||110000423831|80
25.10.2018 00:00:00||PEGASUS|10.40.26.67|||110000423831|340
25.10.2018 00:00:00||PEGASUS|10.40.27.63|||110000423831|50
25.10.2018 00:00:00||PEGASUS|10.40.27.63|||110000423831|60
25.10.2018 00:00:00||PEGASUS|10.40.27.81|||110000423831|450
25.10.2018 00:00:00||PEGASUS|10.40.26.62|||110000423831|90
25.10.2018 00:00:00||PEGASUS|10.40.26.63|||110000423831|50
25.10.2018 00:00:00||PEGASUS|10.40.26.63|||110000423831|100
25.10.2018 00:00:00||PEGASUS|10.40.26.63|||110000423831|40
25.10.2018 00:00:00||PEGASUS|10.40.26.63|||110000423831|70
25.10.2018 00:00:00||PEGASUS|10.40.26.67|||110000423831|340
25.10.2018 00:00:00||PEGASUS|10.40.27.64|||110000423831|280
25.10.2018 00:00:00||PEGASUS|10.40.27.64|||110000423831|273
25.10.2018 00:00:00||PEGASUS|10.40.27.64|||110000423831|263
25.10.2018 00:00:00||PEGASUS|10.40.27.64|||110000423831|297
25.10.2018 00:00:00||PEGASUS|10.40.27.64|||110000423831|328
25.10.2018 00:00:00||PEGASUS|10.40.27.86|||110000423831|40
25.10.2018 00:00:00||PEGASUS|10.40.27.63|||110000423831|70
25.10.2018 00:00:00||PEGASUS|10.40.27.63|||110000423831|80
25.10.2018 00:00:00||PEGASUS|10.40.27.63|||110000423831|72
25.10.2018 00:00:00||PEGASUS|10.40.27.63|||110000423831|90
25.10.2018 00:00:00||PEGASUS|10.40.27.63|||110000423831|152
25.10.2018 00:00:00||PEGASUS|10.40.27.63|||110000423831|223
25.10.2018 00:00:00||PEGASUS|10.40.27.63|||110000423831|60
25.10.2018 00:00:00||PEGASUS|10.40.26.64|||110000423831|80
25.10.2018 00:00:00||PEGASUS|10.40.26.64|||110000423831|80
25.10.2018 00:00:00||PEGASUS|10.40.26.82|||110000423831|210
25.10.2018 00:00:00||PEGASUS|10.40.26.82|||110000423831|110
25.10.2018 00:00:00||PEGASUS|10.40.26.82|||110000423831|117
25.10.2018 00:00:00||PEGASUS|10.40.26.82|||110000423831|152
25.10.2018 00:00:00||PEGASUS|10.40.26.82|||110000423831|140
25.10.2018 00:00:00||PEGASUS|10.40.26.82|||110000423831|145
25.10.2018 00:00:00||PEGASUS|10.40.26.82|||110000423831|182
25.10.2018 00:00:00||PEGASUS|10.40.26.82|||110000423831|35
25.10.2018 00:00:00||PEGASUS|10.40.26.82|||110000423831|52
25.10.2018 00:00:00||PEGASUS|10.40.26.82|||110000423831|20
25.10.2018 00:00:00||PEGASUS|10.40.26.82|||110000423831|63
25.10.2018 00:00:00||PEGASUS|10.40.26.82|||110000423831|50
25.10.2018 00:00:00||PEGASUS|10.40.26.82|||110000423831|38
25.10.2018 00:00:00||PEGASUS|10.40.27.83|||110000423831|573
25.10.2018 00:00:00||PEGASUS|10.40.27.83|||110000423831|70
25.10.2018 00:00:00||PEGASUS|10.40.27.83|||110000423831|562
25.10.2018 00:00:00||PEGASUS|10.40.27.83|||110000423831|555
25.10.2018 00:00:00||PEGASUS|10.40.27.83|||110000423831|70
25.10.2018 00:00:00||PEGASUS|10.40.26.83|||110000423831|502
25.10.2018 00:00:00||PEGASUS|10.40.26.83|||110000423831|50
25.10.2018 00:00:00||PEGASUS|10.40.26.83|||110000423831|397
25.10.2018 00:00:00||PEGASUS|10.40.26.83|||110000423831|500
25.10.2018 00:00:00||PEGASUS|10.40.26.83|||110000423831|503
25.10.2018 00:00:00||PEGASUS|10.40.26.86|||110000423831|360
25.10.2018 00:00:00||PEGASUS|10.40.26.86|||110000423831|135
25.10.2018 00:00:00||PEGASUS|10.40.26.86|||110000423831|350
25.10.2018 00:00:00||PEGASUS|10.40.26.86|||110000423831|50
25.10.2018 00:00:00||PEGASUS|10.40.26.86|||110000423831|30
25.10.2018 00:00:00||PEGASUS|10.40.26.86|||110000423831|350
25.10.2018 00:00:00||PEGASUS|10.40.26.86|||110000423831|40
25.10.2018 00:00:00||PEGASUS|10.40.27.87|||110000423831|90
25.10.2018 00:00:00||PEGASUS|10.40.27.87|||110000423831|87
25.10.2018 00:00:00||PEGASUS|10.40.27.87|||110000423831|90
25.10.2018 00:00:00||PEGASUS|10.40.27.87|||110000423831|20
25.10.2018 00:00:00||PEGASUS|10.40.26.87|||110000423831|90
25.10.2018 00:00:00||PEGASUS|10.40.26.87|||110000423831|90
25.10.2018 00:00:00||PEGASUS|10.40.26.87|||110000423831|90
25.10.2018 00:00:00||PEGASUS|10.40.26.87|||110000423831|60
25.10.2018 00:00:00||PEGASUS|10.40.26.87|||110000423831|20
25.10.2018 00:00:00||PEGASUS|10.40.26.81|||110000423831|403
25.10.2018 00:00:00||PEGASUS|10.40.26.81|||110000423831|427
25.10.2018 00:00:00||PEGASUS|10.40.26.81|||110000423831|423
25.10.2018 00:00:00||PEGASUS|10.40.27.82|||110000423831|220
25.10.2018 00:00:00||PEGASUS|10.40.27.82|||110000423831|30
25.10.2018 00:00:00||PEGASUS|10.40.27.82|||110000423831|110
25.10.2018 00:00:00||PEGASUS|10.40.27.82|||110000423831|87
25.10.2018 00:00:00||PEGASUS|10.40.27.82|||110000423831|158
25.10.2018 00:00:00||PEGASUS|10.40.27.82|||110000423831|122
25.10.2018 00:00:00||PEGASUS|10.40.27.82|||110000423831|168
25.10.2018 00:00:00||PEGASUS|10.40.27.82|||110000423831|117
25.10.2018 00:00:00||PEGASUS|10.40.27.82|||110000423831|62
25.10.2018 00:00:00||PEGASUS|10.40.27.82|||110000423831|80
25.10.2018 00:00:00||PEGASUS|10.40.27.82|||110000423831|50
25.10.2018 00:00:00||PEGASUS|10.40.27.82|||110000423831|33
25.10.2018 00:00:00||PEGASUS|10.40.27.82|||110000423831|40
25.10.2018 00:00:00||PEGASUS|10.40.27.67|||110000423831|50
25.10.2018 00:00:00||PEGASUS|10.40.27.67|||110000423831|70
25.10.2018 00:00:00||PEGASUS|10.40.27.67|||110000423831|130
25.10.2018 00:00:00||PEGASUS|10.40.27.67|||110000423831|10
25.10.2018 00:00:00||PEGASUS|10.40.27.67|||110000423831|340
25.10.2018 00:00:00||PEGASUS|10.40.27.82|||110000423831|67
25.10.2018 00:00:00||PEGASUS|10.40.27.86|||110000423831|170
25.10.2018 00:00:00||PEGASUS|10.40.27.86|||110000423831|70
25.10.2018 00:00:00||PEGASUS|10.40.27.86|||110000423831|20
25.10.2018 00:00:00||PEGASUS|10.40.27.86|||110000423831|350
25.10.2018 00:00:00||PETKIM|10.40.25.87|||110000437354|142
25.10.2018 00:00:00||PWC|10.40.24.66|||110000433262|82
25.10.2018 00:00:00||PWC|10.40.24.66|||110000433262|10
25.10.2018 00:00:00||PWC|10.40.24.66|||110000433262|30
25.10.2018 00:00:00||PWC|10.40.24.66|||110000433262|50
25.10.2018 00:00:00||PWC|10.40.24.66|||110000433262|440
25.10.2018 00:00:00||PWC|10.40.24.68|||110000433262|153
25.10.2018 00:00:00||PWC|10.40.24.66|||110000433262|50
25.10.2018 00:00:00||PWC|10.40.24.66|||110000433262|212
25.10.2018 00:00:00||PWC|10.40.24.66|||110000433262|210
25.10.2018 00:00:00||PWC|10.40.25.67|||110000433262|80
25.10.2018 00:00:00||PWC|10.40.25.67|||110000433262|90
25.10.2018 00:00:00||PWC|10.40.25.67|||110000433262|320
25.10.2018 00:00:00||PWC|10.40.25.67|||110000433262|250
25.10.2018 00:00:00||PWC|10.40.25.67|||110000433262|240
25.10.2018 00:00:00||PWC|10.40.25.67|||110000433262|250
25.10.2018 00:00:00||PWC|10.40.25.67|||110000433262|50
25.10.2018 00:00:00||PWC|10.40.25.67|||110000433262|30
25.10.2018 00:00:00||PWC|10.40.25.67|||110000433262|120
25.10.2018 00:00:00||PWC|10.40.24.67|||110000433262|10
25.10.2018 00:00:00||PWC|10.40.24.67|||110000433262|10
25.10.2018 00:00:00||PWC|10.40.24.67|||110000433262|370
25.10.2018 00:00:00||PWC|10.40.24.67|||110000433262|30
25.10.2018 00:00:00||PWC|10.40.24.67|||110000433262|70
25.10.2018 00:00:00||PWC|10.40.24.67|||110000433262|120
25.10.2018 00:00:00||PWC|10.40.25.68|||110000433262|127
25.10.2018 00:00:00||PWC|10.40.25.68|||110000433262|198
25.10.2018 00:00:00||PWC|10.40.25.68|||110000433262|68
25.10.2018 00:00:00||PWC|10.40.25.68|||110000433262|72
25.10.2018 00:00:00||PWC|10.40.25.68|||110000433262|147
25.10.2018 00:00:00||PWC|10.40.24.66|||110000433262|60
25.10.2018 00:00:00||PWC|10.40.24.66|||110000433262|30
25.10.2018 00:00:00||PWC|10.40.24.66|||110000433262|30
25.10.2018 00:00:00||PWC|10.40.24.68|||110000433262|105
25.10.2018 00:00:00||PWC|10.40.24.68|||110000433262|140
25.10.2018 00:00:00||PWC|10.40.24.68|||110000433262|382
25.10.2018 00:00:00||PWC|10.40.24.68|||110000433262|67
25.10.2018 00:00:00||PWC|10.40.24.68|||110000433262|63
25.10.2018 00:00:00||VSMART BİLGİ TEKNOLOJİLERİ|10.40.24.62|||110000474326|40
25.10.2018 00:00:00||VSMART BİLGİ TEKNOLOJİLERİ|10.40.24.62|||110000474326|65
25.10.2018 00:00:00||VSMART BİLGİ TEKNOLOJİLERİ|10.40.24.62|||110000474326|27
25.10.2018 00:00:00||VSMART BİLGİ TEKNOLOJİLERİ|10.40.25.62|||110000474326|68
25.10.2018 00:00:00||VSMART BİLGİ TEKNOLOJİLERİ|10.40.24.62|||110000474326|42
25.10.2018 00:00:00||VSMART BİLGİ TEKNOLOJİLERİ|10.40.24.62|||110000474326|30
25.10.2018 00:00:00||VSMART BİLGİ TEKNOLOJİLERİ|10.40.24.62|||110000474326|10
25.10.2018 00:00:00||VSMART BİLGİ TEKNOLOJİLERİ|10.40.25.62|||110000474326|42
25.10.2018 00:00:00||VSMART BİLGİ TEKNOLOJİLERİ|10.40.25.62|||110000474326|10
25.10.2018 00:00:00||VSMART BİLGİ TEKNOLOJİLERİ|10.40.25.62|||110000474326|10
25.10.2018 00:00:00||VSMART BİLGİ TEKNOLOJİLERİ|10.40.25.62|||110000474326|80
25.10.2018 00:00:00||VSMART BİLGİ TEKNOLOJİLERİ|10.40.25.62|||110000474326|90
25.10.2018 00:00:00||VSMART BİLGİ TEKNOLOJİLERİ|10.40.25.62|||110000474326|103
25.10.2018 00:00:00||VSMART BİLGİ TEKNOLOJİLERİ|10.40.24.62|||110000474326|10
