18.10.2018 08:00:00||AKTİFBANK|10.40.25.174|||110000438458|53
18.10.2018 08:00:00||AKTİFBANK|10.40.25.134|||110000438458|94
18.10.2018 08:00:00||AKTİFBANK|10.40.25.135|||110000438458|101
18.10.2018 08:00:00||AKTİFBANK|10.40.24.135|||110000438458|103
18.10.2018 08:00:00||AKTİFBANK|10.40.24.137|||110000438458|57
18.10.2018 08:00:00||AKTİFBANK|10.40.24.171|||110000438458|11
18.10.2018 08:00:00||AKTİFBANK|10.40.25.172|||110000438458|88
18.10.2018 08:00:00||AKTİFBANK|10.40.24.173|||110000438458|96
18.10.2018 08:00:00||AKTİFBANK|10.40.24.174|||110000438458|60
18.10.2018 08:00:00||AKTİFBANK|10.40.24.172|||110000438458|96
18.10.2018 08:00:00||AKTİFBANK|10.40.24.134|||110000438458|93
18.10.2018 08:00:00||AKTİFBANK|10.40.25.137|||110000438458|57
18.10.2018 08:00:00||AKTİFBANK|10.40.25.171|||110000438458|12
18.10.2018 08:00:00||AKTİFBANK|10.40.24.158|||110000438458|82
18.10.2018 08:00:00||AKTİFBANK|10.40.24.164|||110000438458|70
18.10.2018 08:00:00||AKTİFBANK|10.40.25.138|||110000438458|80
18.10.2018 08:00:00||AKTİFBANK|10.40.25.139|||110000438458|10
18.10.2018 08:00:00||AKTİFBANK|10.40.25.140|||110000438458|32
18.10.2018 08:00:00||AKTİFBANK|10.40.25.151|||110000438458|500
18.10.2018 08:00:00||AKTİFBANK|10.40.25.141|||110000438458|100
18.10.2018 08:00:00||AKTİFBANK|10.40.25.141|||110000438458|87
18.10.2018 08:00:00||AKTİFBANK|10.40.25.142|||110000438458|73
18.10.2018 08:00:00||AKTİFBANK|10.40.25.133|||110000438458|110
18.10.2018 08:00:00||AKTİFBANK|10.40.25.149|||110000438458|103
18.10.2018 08:00:00||AKTİFBANK|10.40.25.149|||110000438458|90
18.10.2018 08:00:00||AKTİFBANK|10.40.25.149|||110000438458|90
18.10.2018 08:00:00||AKTİFBANK|10.40.25.140|||110000438458|30
18.10.2018 08:00:00||AKTİFBANK|10.40.25.150|||110000438458|555
18.10.2018 08:00:00||AKTİFBANK|10.40.25.139|||110000438458|170
18.10.2018 08:00:00||AKTİFBANK|10.40.25.139|||110000438458|40
18.10.2018 08:00:00||AKTİFBANK|10.40.25.140|||110000438458|80
18.10.2018 08:00:00||AKTİFBANK|10.40.25.140|||110000438458|70
18.10.2018 08:00:00||AKTİFBANK|10.40.25.140|||110000438458|30
18.10.2018 08:00:00||AKTİFBANK|10.40.25.151|||110000438458|515
18.10.2018 08:00:00||AKTİFBANK|10.40.25.151|||110000438458|507
18.10.2018 08:00:00||AKTİFBANK|10.40.25.141|||110000438458|40
18.10.2018 08:00:00||AKTİFBANK|10.40.25.141|||110000438458|100
18.10.2018 08:00:00||AKTİFBANK|10.40.25.141|||110000438458|78
18.10.2018 08:00:00||AKTİFBANK|10.40.25.142|||110000438458|40
18.10.2018 08:00:00||AKTİFBANK|10.40.25.149|||110000438458|70
18.10.2018 08:00:00||AKTİFBANK|10.40.25.149|||110000438458|110
18.10.2018 08:00:00||AKTİFBANK|10.40.25.149|||110000438458|90
18.10.2018 08:00:00||AKTİFBANK|10.40.25.149|||110000438458|92
18.10.2018 08:00:00||AKTİFBANK|10.40.25.149|||110000438458|100
18.10.2018 08:00:00||AKTİFBANK|10.40.24.139|||110000438458|60
18.10.2018 08:00:00||AKTİFBANK|10.40.25.153|||110000438458|10
18.10.2018 08:00:00||AKTİFBANK|10.40.25.150|||110000438458|552
18.10.2018 08:00:00||AKTİFBANK|10.40.25.153|||110000438458|70
18.10.2018 08:00:00||AKTİFBANK|10.40.25.163|||110000438458|50
18.10.2018 08:00:00||AKTİFBANK|10.40.24.141|||110000438458|65
18.10.2018 08:00:00||AKTİFBANK|10.40.24.151|||110000438458|507
18.10.2018 08:00:00||AKTİFBANK|10.40.25.153|||110000438458|80
18.10.2018 08:00:00||AKTİFBANK|10.40.24.149|||110000438458|90
18.10.2018 08:00:00||AKTİFBANK|10.40.24.141|||110000438458|50
18.10.2018 08:00:00||AKTİFBANK|10.40.25.133|||110000438458|280
18.10.2018 08:00:00||AKTİFBANK|10.40.25.133|||110000438458|90
18.10.2018 08:00:00||AKTİFBANK|10.40.24.149|||110000438458|87
18.10.2018 08:00:00||AKTİFBANK|10.40.24.162|||110000438458|210
18.10.2018 08:00:00||AKTİFBANK|10.40.24.162|||110000438458|30
18.10.2018 08:00:00||AKTİFBANK|10.40.24.162|||110000438458|40
18.10.2018 08:00:00||AKTİFBANK|10.40.25.133|||110000438458|150
18.10.2018 08:00:00||AKTİFBANK|10.40.25.138|||110000438458|130
18.10.2018 08:00:00||AKTİFBANK|10.40.25.149|||110000438458|60
18.10.2018 08:00:00||AKTİFBANK|10.40.25.149|||110000438458|70
18.10.2018 08:00:00||AKTİFBANK|10.40.25.149|||110000438458|30
18.10.2018 08:00:00||AKTİFBANK|10.40.25.149|||110000438458|65
18.10.2018 08:00:00||AKTİFBANK|10.40.25.149|||110000438458|72
18.10.2018 08:00:00||AKTİFBANK|10.40.25.141|||110000438458|100
18.10.2018 08:00:00||AKTİFBANK|10.40.25.149|||110000438458|130
18.10.2018 08:00:00||AKTİFBANK|10.40.25.138|||110000438458|92
18.10.2018 08:00:00||AKTİFBANK|10.40.25.138|||110000438458|70
18.10.2018 08:00:00||AKTİFBANK|10.40.25.139|||110000438458|100
18.10.2018 08:00:00||AKTİFBANK|10.40.24.145|||110000438458|70
18.10.2018 08:00:00||AKTİFBANK|10.40.24.149|||110000438458|160
18.10.2018 08:00:00||AKTİFBANK|10.40.25.138|||110000438458|30
18.10.2018 08:00:00||AKTİFBANK|10.40.25.138|||110000438458|10
18.10.2018 08:00:00||AKTİFBANK|10.40.25.153|||110000438458|60
18.10.2018 08:00:00||AKTİFBANK|10.40.24.150|||110000438458|560
18.10.2018 08:00:00||AKTİFBANK|10.40.25.128|||110000438458|70
18.10.2018 08:00:00||AKTİFBANK|10.40.25.128|||110000438458|90
18.10.2018 08:00:00||AKTİFBANK|10.40.25.128|||110000438458|90
18.10.2018 08:00:00||AKTİFBANK|10.40.25.128|||110000438458|40
18.10.2018 08:00:00||AKTİFBANK|10.40.25.128|||110000438458|70
18.10.2018 08:00:00||AKTİFBANK|10.40.25.129|||110000438458|83
18.10.2018 08:00:00||AKTİFBANK|10.40.25.129|||110000438458|70
18.10.2018 08:00:00||AKTİFBANK|10.40.25.129|||110000438458|137
18.10.2018 08:00:00||AKTİFBANK|10.40.25.129|||110000438458|100
18.10.2018 08:00:00||AKTİFBANK|10.40.25.129|||110000438458|40
18.10.2018 08:00:00||AKTİFBANK|10.40.25.129|||110000438458|92
18.10.2018 08:00:00||AKTİFBANK|10.40.25.129|||110000438458|93
18.10.2018 08:00:00||AKTİFBANK|10.40.25.130|||110000438458|63
18.10.2018 08:00:00||AKTİFBANK|10.40.25.130|||110000438458|50
18.10.2018 08:00:00||AKTİFBANK|10.40.25.130|||110000438458|70
18.10.2018 08:00:00||AKTİFBANK|10.40.25.130|||110000438458|33
18.10.2018 08:00:00||AKTİFBANK|10.40.25.130|||110000438458|60
18.10.2018 08:00:00||AKTİFBANK|10.40.25.130|||110000438458|100
18.10.2018 08:00:00||AKTİFBANK|10.40.25.130|||110000438458|80
18.10.2018 08:00:00||AKTİFBANK|10.40.25.131|||110000438458|20
18.10.2018 08:00:00||AKTİFBANK|10.40.25.131|||110000438458|77
18.10.2018 08:00:00||AKTİFBANK|10.40.25.131|||110000438458|100
18.10.2018 08:00:00||AKTİFBANK|10.40.25.131|||110000438458|100
18.10.2018 08:00:00||AKTİFBANK|10.40.25.131|||110000438458|83
18.10.2018 08:00:00||AKTİFBANK|10.40.25.131|||110000438458|83
18.10.2018 08:00:00||AKTİFBANK|10.40.25.131|||110000438458|20
18.10.2018 08:00:00||AKTİFBANK|10.40.25.131|||110000438458|120
18.10.2018 08:00:00||AKTİFBANK|10.40.25.132|||110000438458|60
18.10.2018 08:00:00||AKTİFBANK|10.40.25.132|||110000438458|65
18.10.2018 08:00:00||AKTİFBANK|10.40.25.132|||110000438458|83
18.10.2018 08:00:00||AKTİFBANK|10.40.25.132|||110000438458|223
18.10.2018 08:00:00||AKTİFBANK|10.40.25.132|||110000438458|60
18.10.2018 08:00:00||AKTİFBANK|10.40.25.143|||110000438458|320
18.10.2018 08:00:00||AKTİFBANK|10.40.25.144|||110000438458|80
18.10.2018 08:00:00||AKTİFBANK|10.40.25.144|||110000438458|50
18.10.2018 08:00:00||AKTİFBANK|10.40.25.144|||110000438458|20
18.10.2018 08:00:00||AKTİFBANK|10.40.25.154|||110000438458|10
18.10.2018 08:00:00||AKTİFBANK|10.40.25.154|||110000438458|10
18.10.2018 08:00:00||AKTİFBANK|10.40.25.154|||110000438458|10
18.10.2018 08:00:00||AKTİFBANK|10.40.25.157|||110000438458|70
18.10.2018 08:00:00||AKTİFBANK|10.40.25.157|||110000438458|70
18.10.2018 08:00:00||AKTİFBANK|10.40.25.157|||110000438458|70
18.10.2018 08:00:00||AKTİFBANK|10.40.25.157|||110000438458|82
18.10.2018 08:00:00||AKTİFBANK|10.40.25.157|||110000438458|43
18.10.2018 08:00:00||AKTİFBANK|10.40.25.159|||110000438458|60
18.10.2018 08:00:00||AKTİFBANK|10.40.25.159|||110000438458|10
18.10.2018 08:00:00||AKTİFBANK|10.40.25.159|||110000438458|90
18.10.2018 08:00:00||AKTİFBANK|10.40.25.158|||110000438458|73
18.10.2018 08:00:00||AKTİFBANK|10.40.25.158|||110000438458|55
18.10.2018 08:00:00||AKTİFBANK|10.40.25.158|||110000438458|43
18.10.2018 08:00:00||AKTİFBANK|10.40.25.158|||110000438458|50
18.10.2018 08:00:00||AKTİFBANK|10.40.25.160|||110000438458|92
18.10.2018 08:00:00||AKTİFBANK|10.40.25.161|||110000438458|80
18.10.2018 08:00:00||AKTİFBANK|10.40.25.161|||110000438458|70
18.10.2018 08:00:00||AKTİFBANK|10.40.25.161|||110000438458|40
18.10.2018 08:00:00||AKTİFBANK|10.40.25.161|||110000438458|30
18.10.2018 08:00:00||AKTİFBANK|10.40.25.161|||110000438458|20
18.10.2018 08:00:00||AKTİFBANK|10.40.25.161|||110000438458|58
18.10.2018 08:00:00||AKTİFBANK|10.40.25.145|||110000438458|90
18.10.2018 08:00:00||AKTİFBANK|10.40.25.145|||110000438458|60
18.10.2018 08:00:00||AKTİFBANK|10.40.25.145|||110000438458|60
18.10.2018 08:00:00||AKTİFBANK|10.40.25.145|||110000438458|30
18.10.2018 08:00:00||AKTİFBANK|10.40.25.145|||110000438458|50
18.10.2018 08:00:00||AKTİFBANK|10.40.25.147|||110000438458|90
18.10.2018 08:00:00||AKTİFBANK|10.40.25.162|||110000438458|30
18.10.2018 08:00:00||AKTİFBANK|10.40.25.162|||110000438458|30
18.10.2018 08:00:00||AKTİFBANK|10.40.25.162|||110000438458|60
18.10.2018 08:00:00||AKTİFBANK|10.40.25.164|||110000438458|60
18.10.2018 08:00:00||AKTİFBANK|10.40.25.164|||110000438458|280
18.10.2018 08:00:00||AKTİFBANK|10.40.25.164|||110000438458|50
18.10.2018 08:00:00||AKTİFBANK|10.40.25.164|||110000438458|260
18.10.2018 08:00:00||AKTİFBANK|10.40.25.164|||110000438458|270
18.10.2018 08:00:00||AKTİFBANK|10.40.25.165|||110000438458|110
18.10.2018 08:00:00||AKTİFBANK|10.40.25.165|||110000438458|70
18.10.2018 08:00:00||AKTİFBANK|10.40.25.165|||110000438458|80
18.10.2018 08:00:00||AKTİFBANK|10.40.25.165|||110000438458|100
18.10.2018 08:00:00||AKTİFBANK|10.40.25.166|||110000438458|90
18.10.2018 08:00:00||AKTİFBANK|10.40.25.166|||110000438458|10
18.10.2018 08:00:00||AKTİFBANK|10.40.25.166|||110000438458|10
18.10.2018 08:00:00||AKTİFBANK|10.40.25.166|||110000438458|10
18.10.2018 08:00:00||AKTİFBANK|10.40.25.166|||110000438458|40
18.10.2018 08:00:00||AKTİFBANK|10.40.25.148|||110000438458|130
18.10.2018 08:00:00||AKTİFBANK|10.40.25.148|||110000438458|50
18.10.2018 08:00:00||AKTİFBANK|10.40.25.148|||110000438458|100
18.10.2018 08:00:00||AKTİFBANK|10.40.25.148|||110000438458|130
18.10.2018 08:00:00||AKTİFBANK|10.40.25.148|||110000438458|90
18.10.2018 08:00:00||AKTİFBANK|10.40.25.148|||110000438458|80
18.10.2018 08:00:00||AKTİFBANK|10.40.25.148|||110000438458|70
18.10.2018 08:00:00||AKTİFBANK|10.40.25.148|||110000438458|50
18.10.2018 08:00:00||AKTİFBANK|10.40.25.148|||110000438458|80
18.10.2018 08:00:00||AKTİFBANK|10.40.25.148|||110000438458|40
18.10.2018 08:00:00||AKTİFBANK|10.40.25.148|||110000438458|100
18.10.2018 08:00:00||AKTİFBANK|10.40.25.148|||110000438458|60
18.10.2018 08:00:00||AKTİFBANK|10.40.25.155|||110000438458|70
18.10.2018 08:00:00||AKTİFBANK|10.40.25.155|||110000438458|90
18.10.2018 08:00:00||AKTİFBANK|10.40.25.155|||110000438458|110
18.10.2018 08:00:00||AKTİFBANK|10.40.25.155|||110000438458|120
18.10.2018 08:00:00||AKTİFBANK|10.40.25.155|||110000438458|110
18.10.2018 08:00:00||AKTİFBANK|10.40.25.156|||110000438458|20
18.10.2018 08:00:00||AKTİFBANK|10.40.25.156|||110000438458|30
18.10.2018 08:00:00||AKTİFBANK|10.40.25.139|||110000438458|70
18.10.2018 08:00:00||AKTİFBANK|10.40.25.139|||110000438458|80
18.10.2018 08:00:00||AKTİFBANK|10.40.25.150|||110000438458|522
18.10.2018 08:00:00||AKTİFBANK|10.40.25.129|||110000438458|62
18.10.2018 08:00:00||AKTİFBANK|10.40.25.129|||110000438458|88
18.10.2018 08:00:00||AKTİFBANK|10.40.25.129|||110000438458|140
18.10.2018 08:00:00||AKTİFBANK|10.40.25.130|||110000438458|68
18.10.2018 08:00:00||AKTİFBANK|10.40.25.130|||110000438458|128
18.10.2018 08:00:00||AKTİFBANK|10.40.25.130|||110000438458|100
18.10.2018 08:00:00||AKTİFBANK|10.40.25.131|||110000438458|40
18.10.2018 08:00:00||AKTİFBANK|10.40.25.143|||110000438458|60
18.10.2018 08:00:00||AKTİFBANK|10.40.25.143|||110000438458|242
18.10.2018 08:00:00||AKTİFBANK|10.40.25.143|||110000438458|268
18.10.2018 08:00:00||AKTİFBANK|10.40.25.158|||110000438458|108
18.10.2018 08:00:00||AKTİFBANK|10.40.25.160|||110000438458|110
18.10.2018 08:00:00||AKTİFBANK|10.40.25.162|||110000438458|30
18.10.2018 08:00:00||AKTİFBANK|10.40.25.162|||110000438458|40
18.10.2018 08:00:00||AKTİFBANK|10.40.24.140|||110000438458|160
18.10.2018 08:00:00||AKTİFBANK|10.40.24.140|||110000438458|80
18.10.2018 08:00:00||AKTİFBANK|10.40.24.140|||110000438458|40
18.10.2018 08:00:00||AKTİFBANK|10.40.24.140|||110000438458|30
18.10.2018 08:00:00||AKTİFBANK|10.40.24.140|||110000438458|30
18.10.2018 08:00:00||AKTİFBANK|10.40.24.140|||110000438458|30
18.10.2018 08:00:00||AKTİFBANK|10.40.24.149|||110000438458|80
18.10.2018 08:00:00||AKTİFBANK|10.40.24.149|||110000438458|120
18.10.2018 08:00:00||AKTİFBANK|10.40.24.149|||110000438458|90
18.10.2018 08:00:00||AKTİFBANK|10.40.24.149|||110000438458|67
18.10.2018 08:00:00||AKTİFBANK|10.40.24.149|||110000438458|50
18.10.2018 08:00:00||AKTİFBANK|10.40.24.149|||110000438458|140
18.10.2018 08:00:00||AKTİFBANK|10.40.24.149|||110000438458|92
18.10.2018 08:00:00||AKTİFBANK|10.40.24.149|||110000438458|90
18.10.2018 08:00:00||AKTİFBANK|10.40.24.149|||110000438458|90
18.10.2018 08:00:00||AKTİFBANK|10.40.24.149|||110000438458|80
18.10.2018 08:00:00||AKTİFBANK|10.40.24.133|||110000438458|148
18.10.2018 08:00:00||AKTİFBANK|10.40.24.133|||110000438458|277
18.10.2018 08:00:00||AKTİFBANK|10.40.24.133|||110000438458|120
18.10.2018 08:00:00||AKTİFBANK|10.40.24.133|||110000438458|90
18.10.2018 08:00:00||AKTİFBANK|10.40.24.138|||110000438458|112
18.10.2018 08:00:00||AKTİFBANK|10.40.24.138|||110000438458|137
18.10.2018 08:00:00||AKTİFBANK|10.40.24.138|||110000438458|113
18.10.2018 08:00:00||AKTİFBANK|10.40.24.138|||110000438458|30
18.10.2018 08:00:00||AKTİFBANK|10.40.24.138|||110000438458|50
18.10.2018 08:00:00||AKTİFBANK|10.40.24.139|||110000438458|160
18.10.2018 08:00:00||AKTİFBANK|10.40.24.139|||110000438458|90
18.10.2018 08:00:00||AKTİFBANK|10.40.24.139|||110000438458|120
18.10.2018 08:00:00||AKTİFBANK|10.40.24.141|||110000438458|205
18.10.2018 08:00:00||AKTİFBANK|10.40.24.141|||110000438458|100
18.10.2018 08:00:00||AKTİFBANK|10.40.24.141|||110000438458|100
18.10.2018 08:00:00||AKTİFBANK|10.40.24.141|||110000438458|60
18.10.2018 08:00:00||AKTİFBANK|10.40.24.141|||110000438458|80
18.10.2018 08:00:00||AKTİFBANK|10.40.25.152|||110000438458|105
18.10.2018 08:00:00||AKTİFBANK|10.40.25.152|||110000438458|50
18.10.2018 08:00:00||AKTİFBANK|10.40.25.152|||110000438458|127
18.10.2018 08:00:00||AKTİFBANK|10.40.25.152|||110000438458|70
18.10.2018 08:00:00||AKTİFBANK|10.40.25.152|||110000438458|93
18.10.2018 08:00:00||AKTİFBANK|10.40.25.152|||110000438458|28
18.10.2018 08:00:00||AKTİFBANK|10.40.25.152|||110000438458|57
18.10.2018 08:00:00||AKTİFBANK|10.40.25.152|||110000438458|90
18.10.2018 08:00:00||AKTİFBANK|10.40.25.152|||110000438458|30
18.10.2018 08:00:00||AKTİFBANK|10.40.25.152|||110000438458|82
18.10.2018 08:00:00||AKTİFBANK|10.40.25.152|||110000438458|30
18.10.2018 08:00:00||AKTİFBANK|10.40.24.150|||110000438458|557
18.10.2018 08:00:00||AKTİFBANK|10.40.24.151|||110000438458|512
18.10.2018 08:00:00||AKTİFBANK|10.40.24.151|||110000438458|523
18.10.2018 08:00:00||AKTİFBANK|10.40.24.128|||110000438458|60
18.10.2018 08:00:00||AKTİFBANK|10.40.24.128|||110000438458|70
18.10.2018 08:00:00||AKTİFBANK|10.40.24.128|||110000438458|100
18.10.2018 08:00:00||AKTİFBANK|10.40.24.128|||110000438458|40
18.10.2018 08:00:00||AKTİFBANK|10.40.24.128|||110000438458|70
18.10.2018 08:00:00||AKTİFBANK|10.40.24.128|||110000438458|40
18.10.2018 08:00:00||AKTİFBANK|10.40.24.129|||110000438458|100
18.10.2018 08:00:00||AKTİFBANK|10.40.24.129|||110000438458|70
18.10.2018 08:00:00||AKTİFBANK|10.40.24.129|||110000438458|110
18.10.2018 08:00:00||AKTİFBANK|10.40.24.129|||110000438458|120
18.10.2018 08:00:00||AKTİFBANK|10.40.24.129|||110000438458|40
18.10.2018 08:00:00||AKTİFBANK|10.40.24.129|||110000438458|70
18.10.2018 08:00:00||AKTİFBANK|10.40.24.129|||110000438458|70
18.10.2018 08:00:00||AKTİFBANK|10.40.24.129|||110000438458|90
18.10.2018 08:00:00||AKTİFBANK|10.40.24.129|||110000438458|80
18.10.2018 08:00:00||AKTİFBANK|10.40.24.129|||110000438458|140
18.10.2018 08:00:00||AKTİFBANK|10.40.24.130|||110000438458|47
18.10.2018 08:00:00||AKTİFBANK|10.40.24.130|||110000438458|40
18.10.2018 08:00:00||AKTİFBANK|10.40.24.130|||110000438458|68
18.10.2018 08:00:00||AKTİFBANK|10.40.24.130|||110000438458|40
18.10.2018 08:00:00||AKTİFBANK|10.40.24.130|||110000438458|60
18.10.2018 08:00:00||AKTİFBANK|10.40.24.130|||110000438458|75
18.10.2018 08:00:00||AKTİFBANK|10.40.24.130|||110000438458|83
18.10.2018 08:00:00||AKTİFBANK|10.40.24.130|||110000438458|38
18.10.2018 08:00:00||AKTİFBANK|10.40.24.130|||110000438458|130
18.10.2018 08:00:00||AKTİFBANK|10.40.24.130|||110000438458|110
18.10.2018 08:00:00||AKTİFBANK|10.40.24.131|||110000438458|87
18.10.2018 08:00:00||AKTİFBANK|10.40.24.131|||110000438458|90
18.10.2018 08:00:00||AKTİFBANK|10.40.24.131|||110000438458|110
18.10.2018 08:00:00||AKTİFBANK|10.40.24.131|||110000438458|108
18.10.2018 08:00:00||AKTİFBANK|10.40.24.131|||110000438458|20
18.10.2018 08:00:00||AKTİFBANK|10.40.24.131|||110000438458|160
18.10.2018 08:00:00||AKTİFBANK|10.40.24.131|||110000438458|60
18.10.2018 08:00:00||AKTİFBANK|10.40.24.131|||110000438458|112
18.10.2018 08:00:00||AKTİFBANK|10.40.24.132|||110000438458|33
18.10.2018 08:00:00||AKTİFBANK|10.40.24.132|||110000438458|82
18.10.2018 08:00:00||AKTİFBANK|10.40.24.132|||110000438458|52
18.10.2018 08:00:00||AKTİFBANK|10.40.24.132|||110000438458|250
18.10.2018 08:00:00||AKTİFBANK|10.40.24.132|||110000438458|72
18.10.2018 08:00:00||AKTİFBANK|10.40.24.143|||110000438458|63
18.10.2018 08:00:00||AKTİFBANK|10.40.24.143|||110000438458|270
18.10.2018 08:00:00||AKTİFBANK|10.40.24.143|||110000438458|282
18.10.2018 08:00:00||AKTİFBANK|10.40.24.143|||110000438458|222
18.10.2018 08:00:00||AKTİFBANK|10.40.24.144|||110000438458|70
18.10.2018 08:00:00||AKTİFBANK|10.40.24.144|||110000438458|108
18.10.2018 08:00:00||AKTİFBANK|10.40.24.144|||110000438458|130
18.10.2018 08:00:00||AKTİFBANK|10.40.24.148|||110000438458|65
18.10.2018 08:00:00||AKTİFBANK|10.40.24.148|||110000438458|170
18.10.2018 08:00:00||AKTİFBANK|10.40.24.148|||110000438458|80
18.10.2018 08:00:00||AKTİFBANK|10.40.24.148|||110000438458|110
18.10.2018 08:00:00||AKTİFBANK|10.40.24.148|||110000438458|80
18.10.2018 08:00:00||AKTİFBANK|10.40.24.148|||110000438458|82
18.10.2018 08:00:00||AKTİFBANK|10.40.24.148|||110000438458|92
18.10.2018 08:00:00||AKTİFBANK|10.40.24.148|||110000438458|100
18.10.2018 08:00:00||AKTİFBANK|10.40.24.148|||110000438458|85
18.10.2018 08:00:00||AKTİFBANK|10.40.24.148|||110000438458|55
18.10.2018 08:00:00||AKTİFBANK|10.40.24.148|||110000438458|25
18.10.2018 08:00:00||AKTİFBANK|10.40.24.148|||110000438458|70
18.10.2018 08:00:00||AKTİFBANK|10.40.24.153|||110000438458|10
18.10.2018 08:00:00||AKTİFBANK|10.40.24.153|||110000438458|93
18.10.2018 08:00:00||AKTİFBANK|10.40.24.153|||110000438458|73
18.10.2018 08:00:00||AKTİFBANK|10.40.24.153|||110000438458|82
18.10.2018 08:00:00||AKTİFBANK|10.40.24.157|||110000438458|30
18.10.2018 08:00:00||AKTİFBANK|10.40.24.157|||110000438458|80
18.10.2018 08:00:00||AKTİFBANK|10.40.24.157|||110000438458|70
18.10.2018 08:00:00||AKTİFBANK|10.40.24.157|||110000438458|43
18.10.2018 08:00:00||AKTİFBANK|10.40.24.157|||110000438458|80
18.10.2018 08:00:00||AKTİFBANK|10.40.24.157|||110000438458|40
18.10.2018 08:00:00||AKTİFBANK|10.40.24.158|||110000438458|80
18.10.2018 08:00:00||AKTİFBANK|10.40.24.158|||110000438458|110
18.10.2018 08:00:00||AKTİFBANK|10.40.24.159|||110000438458|132
18.10.2018 08:00:00||AKTİFBANK|10.40.24.159|||110000438458|52
18.10.2018 08:00:00||AKTİFBANK|10.40.24.159|||110000438458|182
18.10.2018 08:00:00||AKTİFBANK|10.40.24.160|||110000438458|50
18.10.2018 08:00:00||AKTİFBANK|10.40.24.160|||110000438458|90
18.10.2018 08:00:00||AKTİFBANK|10.40.24.160|||110000438458|103
18.10.2018 08:00:00||AKTİFBANK|10.40.24.161|||110000438458|200
18.10.2018 08:00:00||AKTİFBANK|10.40.24.161|||110000438458|80
18.10.2018 08:00:00||AKTİFBANK|10.40.24.161|||110000438458|40
18.10.2018 08:00:00||AKTİFBANK|10.40.24.161|||110000438458|30
18.10.2018 08:00:00||AKTİFBANK|10.40.24.161|||110000438458|30
18.10.2018 08:00:00||AKTİFBANK|10.40.24.161|||110000438458|20
18.10.2018 08:00:00||AKTİFBANK|10.40.24.161|||110000438458|90
18.10.2018 08:00:00||AKTİFBANK|10.40.24.145|||110000438458|30
18.10.2018 08:00:00||AKTİFBANK|10.40.24.145|||110000438458|70
18.10.2018 08:00:00||AKTİFBANK|10.40.24.145|||110000438458|60
18.10.2018 08:00:00||AKTİFBANK|10.40.24.147|||110000438458|90
18.10.2018 08:00:00||AKTİFBANK|10.40.24.162|||110000438458|40
18.10.2018 08:00:00||AKTİFBANK|10.40.24.162|||110000438458|40
18.10.2018 08:00:00||AKTİFBANK|10.40.24.162|||110000438458|122
18.10.2018 08:00:00||AKTİFBANK|10.40.24.162|||110000438458|10
18.10.2018 08:00:00||AKTİFBANK|10.40.24.162|||110000438458|50
18.10.2018 08:00:00||AKTİFBANK|10.40.24.163|||110000438458|30
18.10.2018 08:00:00||AKTİFBANK|10.40.24.163|||110000438458|75
18.10.2018 08:00:00||AKTİFBANK|10.40.24.164|||110000438458|58
18.10.2018 08:00:00||AKTİFBANK|10.40.24.164|||110000438458|330
18.10.2018 08:00:00||AKTİFBANK|10.40.24.164|||110000438458|220
18.10.2018 08:00:00||AKTİFBANK|10.40.24.165|||110000438458|75
18.10.2018 08:00:00||AKTİFBANK|10.40.24.165|||110000438458|80
18.10.2018 08:00:00||AKTİFBANK|10.40.24.165|||110000438458|50
18.10.2018 08:00:00||AKTİFBANK|10.40.24.165|||110000438458|122
18.10.2018 08:00:00||AKTİFBANK|10.40.24.166|||110000438458|80
18.10.2018 08:00:00||AKTİFBANK|10.40.24.166|||110000438458|90
18.10.2018 08:00:00||AKTİFBANK|10.40.24.166|||110000438458|10
18.10.2018 08:00:00||AKTİFBANK|10.40.25.168|||110000438458|90
18.10.2018 08:00:00||AKTİFBANK|10.40.25.168|||110000438458|70
18.10.2018 08:00:00||AKTİFBANK|10.40.25.168|||110000438458|50
18.10.2018 08:00:00||AKTİFBANK|10.40.25.168|||110000438458|40
18.10.2018 08:00:00||AKTİFBANK|10.40.25.168|||110000438458|60
18.10.2018 08:00:00||AKTİFBANK|10.40.24.168|||110000438458|90
18.10.2018 08:00:00||AKTİFBANK|10.40.24.168|||110000438458|80
18.10.2018 08:00:00||AKTİFBANK|10.40.24.168|||110000438458|70
18.10.2018 08:00:00||AKTİFBANK|10.40.24.168|||110000438458|70
18.10.2018 08:00:00||AKTİFBANK|10.40.24.168|||110000438458|30
18.10.2018 08:00:00||AKTİFBANK|10.40.24.154|||110000438458|70
18.10.2018 08:00:00||AKTİFBANK|10.40.24.154|||110000438458|20
18.10.2018 08:00:00||AKTİFBANK|10.40.24.154|||110000438458|10
18.10.2018 08:00:00||AKTİFBANK|10.40.24.154|||110000438458|10
18.10.2018 08:00:00||AKTİFBANK|10.40.24.154|||110000438458|10
18.10.2018 08:00:00||AKTİFBANK|10.40.24.154|||110000438458|10
18.10.2018 08:00:00||AKTİFBANK|10.40.24.155|||110000438458|67
18.10.2018 08:00:00||AKTİFBANK|10.40.24.155|||110000438458|100
18.10.2018 08:00:00||AKTİFBANK|10.40.24.155|||110000438458|130
18.10.2018 08:00:00||AKTİFBANK|10.40.24.155|||110000438458|80
18.10.2018 08:00:00||AKTİFBANK|10.40.24.155|||110000438458|112
18.10.2018 08:00:00||AKTİFBANK|10.40.24.155|||110000438458|100
18.10.2018 08:00:00||AKTİFBANK|10.40.25.169|||110000438458|88
18.10.2018 08:00:00||AKTİFBANK|10.40.25.169|||110000438458|95
18.10.2018 08:00:00||AKTİFBANK|10.40.25.169|||110000438458|72
18.10.2018 08:00:00||AKTİFBANK|10.40.25.169|||110000438458|70
18.10.2018 08:00:00||AKTİFBANK|10.40.24.169|||110000438458|77
18.10.2018 08:00:00||AKTİFBANK|10.40.24.169|||110000438458|87
18.10.2018 08:00:00||AKTİFBANK|10.40.24.169|||110000438458|73
18.10.2018 08:00:00||AKTİFBANK|10.40.24.169|||110000438458|80
18.10.2018 08:00:00||AKTİFBANK|10.40.25.170|||110000438458|30
18.10.2018 08:00:00||AKTİFBANK|10.40.25.170|||110000438458|30
18.10.2018 08:00:00||AKTİFBANK|10.40.25.170|||110000438458|200
18.10.2018 08:00:00||AKTİFBANK|10.40.25.170|||110000438458|100
18.10.2018 08:00:00||AKTİFBANK|10.40.25.170|||110000438458|80
18.10.2018 08:00:00||AKTİFBANK|10.40.25.170|||110000438458|120
18.10.2018 08:00:00||AKTİFBANK|10.40.24.170|||110000438458|60
18.10.2018 08:00:00||AKTİFBANK|10.40.24.170|||110000438458|60
18.10.2018 08:00:00||AKTİFBANK|10.40.24.170|||110000438458|293
18.10.2018 08:00:00||AKTİFBANK|10.40.24.170|||110000438458|83
18.10.2018 08:00:00||AKTİFBANK|10.40.24.170|||110000438458|107
18.10.2018 08:00:00||AKTİFBANK|10.40.24.170|||110000438458|82
18.10.2018 08:00:00||AKTİFBANK|10.40.25.178|||110000438458|590
18.10.2018 08:00:00||AKTİFBANK|10.40.25.178|||110000438458|560
18.10.2018 08:00:00||AKTİFBANK|10.40.25.178|||110000438458|550
18.10.2018 08:00:00||AKTİFBANK|10.40.24.178|||110000438458|585
18.10.2018 08:00:00||AKTİFBANK|10.40.24.178|||110000438458|557
18.10.2018 08:00:00||AKTİFBANK|10.40.24.178|||110000438458|557
18.10.2018 08:00:00||AKTİFBANK|10.40.25.179|||110000438458|397
18.10.2018 08:00:00||AKTİFBANK|10.40.25.179|||110000438458|365
18.10.2018 08:00:00||AKTİFBANK|10.40.25.179|||110000438458|362
18.10.2018 08:00:00||AKTİFBANK|10.40.24.179|||110000438458|330
18.10.2018 08:00:00||AKTİFBANK|10.40.24.179|||110000438458|328
18.10.2018 08:00:00||AKTİFBANK|10.40.24.179|||110000438458|325
18.10.2018 08:00:00||AKTİFBANK|10.40.24.142|||110000438458|40
18.10.2018 08:00:00||AKTİFBANK|10.40.24.156|||110000438458|50
18.10.2018 08:00:00||AKTİFBANK|10.40.24.156|||110000438458|50
18.10.2018 08:00:00||AKTİFBANK|10.40.25.186|||110000438458|90
18.10.2018 08:00:00||AKTİFBANK|10.40.25.186|||110000438458|20
18.10.2018 08:00:00||AKTİFBANK|10.40.25.186|||110000438458|70
18.10.2018 08:00:00||AKTİFBANK|10.40.24.186|||110000438458|90
18.10.2018 08:00:00||AKTİFBANK|10.40.24.186|||110000438458|30
18.10.2018 08:00:00||AKTİFBANK|10.40.24.186|||110000438458|57
18.10.2018 08:00:00||AKTİFBANK|10.40.24.186|||110000438458|40
18.10.2018 08:00:00||AKTİFBANK|10.40.24.152|||110000438458|10
18.10.2018 08:00:00||AKTİFBANK|10.40.24.152|||110000438458|48
18.10.2018 08:00:00||AKTİFBANK|10.40.24.152|||110000438458|95
18.10.2018 08:00:00||AKTİFBANK|10.40.24.152|||110000438458|105
18.10.2018 08:00:00||AKTİFBANK|10.40.24.152|||110000438458|100
18.10.2018 08:00:00||AKTİFBANK|10.40.24.152|||110000438458|105
18.10.2018 08:00:00||AKTİFBANK|10.40.24.152|||110000438458|277
18.10.2018 08:00:00||AKTİFBANK|10.40.24.152|||110000438458|75
18.10.2018 08:00:00||AKTİFBANK|10.40.24.152|||110000438458|92
18.10.2018 08:00:00||AKTİFBANK|10.40.24.152|||110000438458|30
18.10.2018 08:00:00||AKTİFBANK|10.40.24.152|||110000438458|72
18.10.2018 08:00:00||AKTİFBANK|10.40.24.152|||110000438458|30
18.10.2018 08:00:00||AKTİFBANK|10.40.24.133|||110000438458|78
18.10.2018 08:00:00||AKTİFBANK|10.40.24.138|||110000438458|120
18.10.2018 08:00:00||AKTİFBANK|10.40.24.139|||110000438458|30
18.10.2018 08:00:00||AKTİFBANK|10.40.24.149|||110000438458|110
18.10.2018 08:00:00||AKTİFBANK|10.40.24.150|||110000438458|557
18.10.2018 08:00:00||AKTİFBANK|10.40.24.145|||110000438458|60
18.10.2018 08:00:00||AKTİFBANK|10.40.24.164|||110000438458|227
18.10.2018 08:00:00||AKTİFBANK|10.40.25.133|||110000438458|70
18.10.2018 08:00:00||AKTİFBANK|10.40.24.145|||110000438458|90
18.10.2018 08:00:00||BARİKAT İNTERNET GÜVENLİĞİ|10.40.25.201|||110000479736|115
18.10.2018 08:00:00||BARİKAT İNTERNET GÜVENLİĞİ|10.40.25.201|||110000479736|100
18.10.2018 08:00:00||BARİKAT İNTERNET GÜVENLİĞİ|10.40.24.201|||110000479736|132
18.10.2018 08:00:00||BARİKAT İNTERNET GÜVENLİĞİ|10.40.24.201|||110000479736|93
18.10.2018 08:00:00||BOYNER|10.40.27.100|||101367941673|51
18.10.2018 08:00:00||BOYNER|10.40.27.101|||101367941673|165
18.10.2018 08:00:00||BOYNER|10.40.26.101|||101367941673|166
18.10.2018 08:00:00||BOYNER|10.40.26.100|||101367941673|56
18.10.2018 08:00:00||BOYNER|10.40.27.94|||101367941673|210
18.10.2018 08:00:00||BOYNER|10.40.27.94|||101367941673|90
18.10.2018 08:00:00||BOYNER|10.40.27.94|||101367941673|90
18.10.2018 08:00:00||BOYNER|10.40.27.94|||101367941673|100
18.10.2018 08:00:00||BOYNER|10.40.26.94|||101367941673|90
18.10.2018 08:00:00||BOYNER|10.40.26.94|||101367941673|80
18.10.2018 08:00:00||BOYNER|10.40.26.94|||101367941673|80
18.10.2018 08:00:00||BOYNER|10.40.27.95|||101367941673|145
18.10.2018 08:00:00||BOYNER|10.40.27.95|||101367941673|123
18.10.2018 08:00:00||BOYNER|10.40.27.95|||101367941673|222
18.10.2018 08:00:00||BOYNER|10.40.26.95|||101367941673|130
18.10.2018 08:00:00||BOYNER|10.40.26.95|||101367941673|193
18.10.2018 08:00:00||BOYNER|10.40.26.95|||101367941673|135
18.10.2018 08:00:00||BOYNER|10.40.27.96|||101367941673|60
18.10.2018 08:00:00||BOYNER|10.40.27.96|||101367941673|52
18.10.2018 08:00:00||BOYNER|10.40.27.96|||101367941673|50
18.10.2018 08:00:00||BOYNER|10.40.27.96|||101367941673|40
18.10.2018 08:00:00||BOYNER|10.40.27.96|||101367941673|33
18.10.2018 08:00:00||BOYNER|10.40.27.96|||101367941673|158
18.10.2018 08:00:00||BOYNER|10.40.27.96|||101367941673|147
18.10.2018 08:00:00||BOYNER|10.40.27.96|||101367941673|175
18.10.2018 08:00:00||BOYNER|10.40.27.96|||101367941673|163
18.10.2018 08:00:00||BOYNER|10.40.26.96|||101367941673|30
18.10.2018 08:00:00||BOYNER|10.40.26.96|||101367941673|40
18.10.2018 08:00:00||BOYNER|10.40.26.96|||101367941673|30
18.10.2018 08:00:00||BOYNER|10.40.26.96|||101367941673|40
18.10.2018 08:00:00||BOYNER|10.40.26.96|||101367941673|40
18.10.2018 08:00:00||BOYNER|10.40.26.96|||101367941673|50
18.10.2018 08:00:00||BOYNER|10.40.26.96|||101367941673|187
18.10.2018 08:00:00||BOYNER|10.40.26.96|||101367941673|202
18.10.2018 08:00:00||BOYNER|10.40.26.96|||101367941673|158
18.10.2018 08:00:00||BOYNER|10.40.26.96|||101367941673|173
18.10.2018 08:00:00||BOYNER|10.40.27.97|||101367941673|60
18.10.2018 08:00:00||BOYNER|10.40.27.97|||101367941673|637
18.10.2018 08:00:00||BOYNER|10.40.27.97|||101367941673|640
18.10.2018 08:00:00||BOYNER|10.40.27.97|||101367941673|673
18.10.2018 08:00:00||BOYNER|10.40.27.97|||101367941673|40
18.10.2018 08:00:00||BOYNER|10.40.27.97|||101367941673|30
18.10.2018 08:00:00||BOYNER|10.40.27.97|||101367941673|50
18.10.2018 08:00:00||BOYNER|10.40.27.97|||101367941673|30
18.10.2018 08:00:00||BOYNER|10.40.27.97|||101367941673|170
18.10.2018 08:00:00||BOYNER|10.40.27.97|||101367941673|173
18.10.2018 08:00:00||BOYNER|10.40.27.97|||101367941673|185
18.10.2018 08:00:00||BOYNER|10.40.27.97|||101367941673|193
18.10.2018 08:00:00||BOYNER|10.40.26.97|||101367941673|30
18.10.2018 08:00:00||BOYNER|10.40.26.97|||101367941673|635
18.10.2018 08:00:00||BOYNER|10.40.26.97|||101367941673|633
18.10.2018 08:00:00||BOYNER|10.40.26.97|||101367941673|638
18.10.2018 08:00:00||BOYNER|10.40.26.97|||101367941673|30
18.10.2018 08:00:00||BOYNER|10.40.26.97|||101367941673|40
18.10.2018 08:00:00||BOYNER|10.40.26.97|||101367941673|50
18.10.2018 08:00:00||BOYNER|10.40.26.97|||101367941673|60
18.10.2018 08:00:00||BOYNER|10.40.26.97|||101367941673|30
18.10.2018 08:00:00||BOYNER|10.40.26.97|||101367941673|155
18.10.2018 08:00:00||BOYNER|10.40.26.97|||101367941673|173
18.10.2018 08:00:00||BOYNER|10.40.26.97|||101367941673|165
18.10.2018 08:00:00||BOYNER|10.40.26.97|||101367941673|153
18.10.2018 08:00:00||BOYNER|10.40.27.99|||101367941673|132
18.10.2018 08:00:00||BOYNER|10.40.27.99|||101367941673|87
18.10.2018 08:00:00||BOYNER|10.40.27.99|||101367941673|77
18.10.2018 08:00:00||BOYNER|10.40.26.99|||101367941673|10
18.10.2018 08:00:00||BOYNER|10.40.26.99|||101367941673|110
18.10.2018 08:00:00||BOYNER|10.40.26.99|||101367941673|97
18.10.2018 08:00:00||BOYNER|10.40.26.99|||101367941673|72
18.10.2018 08:00:00||ÇALIK HOLDİNG|10.40.25.99|||110000438407|138
18.10.2018 08:00:00||ÇALIK HOLDİNG|10.40.25.118|||110000438407|159
18.10.2018 08:00:00||ÇALIK HOLDİNG|10.40.24.118|||110000438407|43
18.10.2018 08:00:00||ÇALIK HOLDİNG|10.40.25.120|||110000438407|90
18.10.2018 08:00:00||ÇALIK HOLDİNG|10.40.24.95|||110000438407|50
18.10.2018 08:00:00||ÇALIK HOLDİNG|10.40.25.97|||110000438407|80
18.10.2018 08:00:00||ÇALIK HOLDİNG|10.40.25.103|||110000438407|90
18.10.2018 08:00:00||ÇALIK HOLDİNG|10.40.25.120|||110000438407|40
18.10.2018 08:00:00||ÇALIK HOLDİNG|10.40.25.96|||110000438407|70
18.10.2018 08:00:00||ÇALIK HOLDİNG|10.40.25.96|||110000438407|90
18.10.2018 08:00:00||ÇALIK HOLDİNG|10.40.25.96|||110000438407|122
18.10.2018 08:00:00||ÇALIK HOLDİNG|10.40.25.96|||110000438407|90
18.10.2018 08:00:00||ÇALIK HOLDİNG|10.40.25.115|||110000438407|165
18.10.2018 08:00:00||ÇALIK HOLDİNG|10.40.25.115|||110000438407|70
18.10.2018 08:00:00||ÇALIK HOLDİNG|10.40.25.95|||110000438407|93
18.10.2018 08:00:00||ÇALIK HOLDİNG|10.40.25.96|||110000438407|90
18.10.2018 08:00:00||ÇALIK HOLDİNG|10.40.25.96|||110000438407|100
18.10.2018 08:00:00||ÇALIK HOLDİNG|10.40.25.120|||110000438407|20
18.10.2018 08:00:00||ÇALIK HOLDİNG|10.40.25.95|||110000438407|65
18.10.2018 08:00:00||ÇALIK HOLDİNG|10.40.24.94|||110000438407|200
18.10.2018 08:00:00||ÇALIK HOLDİNG|10.40.25.97|||110000438407|105
18.10.2018 08:00:00||ÇALIK HOLDİNG|10.40.25.120|||110000438407|60
18.10.2018 08:00:00||ÇALIK HOLDİNG|10.40.25.115|||110000438407|82
18.10.2018 08:00:00||ÇALIK HOLDİNG|10.40.25.115|||110000438407|67
18.10.2018 08:00:00||ÇALIK HOLDİNG|10.40.25.115|||110000438407|62
18.10.2018 08:00:00||ÇALIK HOLDİNG|10.40.25.101|||110000438407|50
18.10.2018 08:00:00||ÇALIK HOLDİNG|10.40.25.101|||110000438407|110
18.10.2018 08:00:00||ÇALIK HOLDİNG|10.40.25.101|||110000438407|30
18.10.2018 08:00:00||ÇALIK HOLDİNG|10.40.25.101|||110000438407|10
18.10.2018 08:00:00||ÇALIK HOLDİNG|10.40.25.101|||110000438407|87
18.10.2018 08:00:00||ÇALIK HOLDİNG|10.40.25.101|||110000438407|30
18.10.2018 08:00:00||ÇALIK HOLDİNG|10.40.25.101|||110000438407|40
18.10.2018 08:00:00||ÇALIK HOLDİNG|10.40.25.101|||110000438407|40
18.10.2018 08:00:00||ÇALIK HOLDİNG|10.40.25.101|||110000438407|90
18.10.2018 08:00:00||ÇALIK HOLDİNG|10.40.25.101|||110000438407|90
18.10.2018 08:00:00||ÇALIK HOLDİNG|10.40.25.101|||110000438407|90
18.10.2018 08:00:00||ÇALIK HOLDİNG|10.40.25.94|||110000438407|180
18.10.2018 08:00:00||ÇALIK HOLDİNG|10.40.25.94|||110000438407|180
18.10.2018 08:00:00||ÇALIK HOLDİNG|10.40.25.94|||110000438407|170
18.10.2018 08:00:00||ÇALIK HOLDİNG|10.40.25.94|||110000438407|180
18.10.2018 08:00:00||ÇALIK HOLDİNG|10.40.24.94|||110000438407|207
18.10.2018 08:00:00||ÇALIK HOLDİNG|10.40.24.94|||110000438407|193
18.10.2018 08:00:00||ÇALIK HOLDİNG|10.40.24.94|||110000438407|200
18.10.2018 08:00:00||ÇALIK HOLDİNG|10.40.25.95|||110000438407|20
18.10.2018 08:00:00||ÇALIK HOLDİNG|10.40.25.95|||110000438407|342
18.10.2018 08:00:00||ÇALIK HOLDİNG|10.40.25.95|||110000438407|357
18.10.2018 08:00:00||ÇALIK HOLDİNG|10.40.25.95|||110000438407|40
18.10.2018 08:00:00||ÇALIK HOLDİNG|10.40.24.95|||110000438407|98
18.10.2018 08:00:00||ÇALIK HOLDİNG|10.40.24.95|||110000438407|90
18.10.2018 08:00:00||ÇALIK HOLDİNG|10.40.24.95|||110000438407|387
18.10.2018 08:00:00||ÇALIK HOLDİNG|10.40.24.95|||110000438407|393
18.10.2018 08:00:00||ÇALIK HOLDİNG|10.40.25.96|||110000438407|90
18.10.2018 08:00:00||ÇALIK HOLDİNG|10.40.25.96|||110000438407|93
18.10.2018 08:00:00||ÇALIK HOLDİNG|10.40.25.96|||110000438407|100
18.10.2018 08:00:00||ÇALIK HOLDİNG|10.40.25.96|||110000438407|257
18.10.2018 08:00:00||ÇALIK HOLDİNG|10.40.25.96|||110000438407|260
18.10.2018 08:00:00||ÇALIK HOLDİNG|10.40.25.96|||110000438407|100
18.10.2018 08:00:00||ÇALIK HOLDİNG|10.40.25.96|||110000438407|90
18.10.2018 08:00:00||ÇALIK HOLDİNG|10.40.25.96|||110000438407|95
18.10.2018 08:00:00||ÇALIK HOLDİNG|10.40.25.97|||110000438407|88
18.10.2018 08:00:00||ÇALIK HOLDİNG|10.40.25.97|||110000438407|80
18.10.2018 08:00:00||ÇALIK HOLDİNG|10.40.25.97|||110000438407|293
18.10.2018 08:00:00||ÇALIK HOLDİNG|10.40.25.98|||110000438407|50
18.10.2018 08:00:00||ÇALIK HOLDİNG|10.40.25.98|||110000438407|163
18.10.2018 08:00:00||ÇALIK HOLDİNG|10.40.25.98|||110000438407|157
18.10.2018 08:00:00||ÇALIK HOLDİNG|10.40.25.98|||110000438407|165
18.10.2018 08:00:00||ÇALIK HOLDİNG|10.40.25.98|||110000438407|168
18.10.2018 08:00:00||ÇALIK HOLDİNG|10.40.25.98|||110000438407|60
18.10.2018 08:00:00||ÇALIK HOLDİNG|10.40.25.98|||110000438407|210
18.10.2018 08:00:00||ÇALIK HOLDİNG|10.40.25.98|||110000438407|180
18.10.2018 08:00:00||ÇALIK HOLDİNG|10.40.25.98|||110000438407|170
18.10.2018 08:00:00||ÇALIK HOLDİNG|10.40.25.98|||110000438407|213
18.10.2018 08:00:00||ÇALIK HOLDİNG|10.40.25.98|||110000438407|70
18.10.2018 08:00:00||ÇALIK HOLDİNG|10.40.25.98|||110000438407|303
18.10.2018 08:00:00||ÇALIK HOLDİNG|10.40.24.98|||110000438407|90
18.10.2018 08:00:00||ÇALIK HOLDİNG|10.40.24.98|||110000438407|153
18.10.2018 08:00:00||ÇALIK HOLDİNG|10.40.24.98|||110000438407|203
18.10.2018 08:00:00||ÇALIK HOLDİNG|10.40.24.98|||110000438407|200
18.10.2018 08:00:00||ÇALIK HOLDİNG|10.40.24.98|||110000438407|160
18.10.2018 08:00:00||ÇALIK HOLDİNG|10.40.24.98|||110000438407|30
18.10.2018 08:00:00||ÇALIK HOLDİNG|10.40.24.98|||110000438407|165
18.10.2018 08:00:00||ÇALIK HOLDİNG|10.40.24.98|||110000438407|180
18.10.2018 08:00:00||ÇALIK HOLDİNG|10.40.24.98|||110000438407|170
18.10.2018 08:00:00||ÇALIK HOLDİNG|10.40.24.98|||110000438407|170
18.10.2018 08:00:00||ÇALIK HOLDİNG|10.40.24.98|||110000438407|20
18.10.2018 08:00:00||ÇALIK HOLDİNG|10.40.24.98|||110000438407|275
18.10.2018 08:00:00||ÇALIK HOLDİNG|10.40.25.100|||110000438407|35
18.10.2018 08:00:00||ÇALIK HOLDİNG|10.40.25.100|||110000438407|40
18.10.2018 08:00:00||ÇALIK HOLDİNG|10.40.24.101|||110000438407|60
18.10.2018 08:00:00||ÇALIK HOLDİNG|10.40.24.101|||110000438407|110
18.10.2018 08:00:00||ÇALIK HOLDİNG|10.40.24.101|||110000438407|20
18.10.2018 08:00:00||ÇALIK HOLDİNG|10.40.24.101|||110000438407|20
18.10.2018 08:00:00||ÇALIK HOLDİNG|10.40.24.101|||110000438407|40
18.10.2018 08:00:00||ÇALIK HOLDİNG|10.40.24.101|||110000438407|82
18.10.2018 08:00:00||ÇALIK HOLDİNG|10.40.24.101|||110000438407|10
18.10.2018 08:00:00||ÇALIK HOLDİNG|10.40.24.101|||110000438407|20
18.10.2018 08:00:00||ÇALIK HOLDİNG|10.40.24.101|||110000438407|50
18.10.2018 08:00:00||ÇALIK HOLDİNG|10.40.24.101|||110000438407|30
18.10.2018 08:00:00||ÇALIK HOLDİNG|10.40.24.101|||110000438407|80
18.10.2018 08:00:00||ÇALIK HOLDİNG|10.40.24.101|||110000438407|80
18.10.2018 08:00:00||ÇALIK HOLDİNG|10.40.24.101|||110000438407|97
18.10.2018 08:00:00||ÇALIK HOLDİNG|10.40.25.102|||110000438407|100
18.10.2018 08:00:00||ÇALIK HOLDİNG|10.40.25.102|||110000438407|100
18.10.2018 08:00:00||ÇALIK HOLDİNG|10.40.25.102|||110000438407|150
18.10.2018 08:00:00||ÇALIK HOLDİNG|10.40.24.102|||110000438407|100
18.10.2018 08:00:00||ÇALIK HOLDİNG|10.40.24.102|||110000438407|100
18.10.2018 08:00:00||ÇALIK HOLDİNG|10.40.24.102|||110000438407|140
18.10.2018 08:00:00||ÇALIK HOLDİNG|10.40.25.103|||110000438407|90
18.10.2018 08:00:00||ÇALIK HOLDİNG|10.40.25.103|||110000438407|80
18.10.2018 08:00:00||ÇALIK HOLDİNG|10.40.25.103|||110000438407|20
18.10.2018 08:00:00||ÇALIK HOLDİNG|10.40.25.103|||110000438407|10
18.10.2018 08:00:00||ÇALIK HOLDİNG|10.40.25.115|||110000438407|80
18.10.2018 08:00:00||ÇALIK HOLDİNG|10.40.24.103|||110000438407|97
18.10.2018 08:00:00||ÇALIK HOLDİNG|10.40.24.103|||110000438407|80
18.10.2018 08:00:00||ÇALIK HOLDİNG|10.40.24.103|||110000438407|80
18.10.2018 08:00:00||ÇALIK HOLDİNG|10.40.24.103|||110000438407|10
18.10.2018 08:00:00||ÇALIK HOLDİNG|10.40.25.113|||110000438407|230
18.10.2018 08:00:00||ÇALIK HOLDİNG|10.40.25.113|||110000438407|238
18.10.2018 08:00:00||ÇALIK HOLDİNG|10.40.25.113|||110000438407|188
18.10.2018 08:00:00||ÇALIK HOLDİNG|10.40.25.113|||110000438407|192
18.10.2018 08:00:00||ÇALIK HOLDİNG|10.40.24.113|||110000438407|228
18.10.2018 08:00:00||ÇALIK HOLDİNG|10.40.24.113|||110000438407|232
18.10.2018 08:00:00||ÇALIK HOLDİNG|10.40.24.113|||110000438407|192
18.10.2018 08:00:00||ÇALIK HOLDİNG|10.40.24.113|||110000438407|148
18.10.2018 08:00:00||ÇALIK HOLDİNG|10.40.25.114|||110000438407|192
18.10.2018 08:00:00||ÇALIK HOLDİNG|10.40.25.114|||110000438407|412
18.10.2018 08:00:00||ÇALIK HOLDİNG|10.40.25.114|||110000438407|40
18.10.2018 08:00:00||ÇALIK HOLDİNG|10.40.24.114|||110000438407|20
18.10.2018 08:00:00||ÇALIK HOLDİNG|10.40.24.114|||110000438407|40
18.10.2018 08:00:00||ÇALIK HOLDİNG|10.40.24.114|||110000438407|158
18.10.2018 08:00:00||ÇALIK HOLDİNG|10.40.24.114|||110000438407|373
18.10.2018 08:00:00||ÇALIK HOLDİNG|10.40.24.115|||110000438407|160
18.10.2018 08:00:00||ÇALIK HOLDİNG|10.40.24.115|||110000438407|80
18.10.2018 08:00:00||ÇALIK HOLDİNG|10.40.24.115|||110000438407|88
18.10.2018 08:00:00||ÇALIK HOLDİNG|10.40.24.115|||110000438407|70
18.10.2018 08:00:00||ÇALIK HOLDİNG|10.40.24.115|||110000438407|82
18.10.2018 08:00:00||ÇALIK HOLDİNG|10.40.24.115|||110000438407|70
18.10.2018 08:00:00||ÇALIK HOLDİNG|10.40.25.116|||110000438407|103
18.10.2018 08:00:00||ÇALIK HOLDİNG|10.40.25.116|||110000438407|98
18.10.2018 08:00:00||ÇALIK HOLDİNG|10.40.25.116|||110000438407|302
18.10.2018 08:00:00||ÇALIK HOLDİNG|10.40.24.116|||110000438407|288
18.10.2018 08:00:00||ÇALIK HOLDİNG|10.40.24.116|||110000438407|98
18.10.2018 08:00:00||ÇALIK HOLDİNG|10.40.24.116|||110000438407|100
18.10.2018 08:00:00||ÇALIK HOLDİNG|10.40.25.117|||110000438407|242
18.10.2018 08:00:00||ÇALIK HOLDİNG|10.40.25.117|||110000438407|30
18.10.2018 08:00:00||ÇALIK HOLDİNG|10.40.25.117|||110000438407|28
18.10.2018 08:00:00||ÇALIK HOLDİNG|10.40.25.119|||110000438407|32
18.10.2018 08:00:00||ÇALIK HOLDİNG|10.40.25.119|||110000438407|30
18.10.2018 08:00:00||ÇALIK HOLDİNG|10.40.24.119|||110000438407|150
18.10.2018 08:00:00||ÇALIK HOLDİNG|10.40.24.119|||110000438407|30
18.10.2018 08:00:00||ÇALIK HOLDİNG|10.40.24.119|||110000438407|50
18.10.2018 08:00:00||ÇALIK HOLDİNG|10.40.25.120|||110000438407|105
18.10.2018 08:00:00||ÇALIK HOLDİNG|10.40.25.120|||110000438407|50
18.10.2018 08:00:00||ÇALIK HOLDİNG|10.40.25.120|||110000438407|20
18.10.2018 08:00:00||ÇALIK HOLDİNG|10.40.25.120|||110000438407|20
18.10.2018 08:00:00||ÇALIK HOLDİNG|10.40.25.120|||110000438407|30
18.10.2018 08:00:00||ÇALIK HOLDİNG|10.40.25.120|||110000438407|90
18.10.2018 08:00:00||ÇALIK HOLDİNG|10.40.25.120|||110000438407|90
18.10.2018 08:00:00||ÇALIK HOLDİNG|10.40.24.120|||110000438407|20
18.10.2018 08:00:00||ÇALIK HOLDİNG|10.40.24.120|||110000438407|30
18.10.2018 08:00:00||ÇALIK HOLDİNG|10.40.24.120|||110000438407|110
18.10.2018 08:00:00||ÇALIK HOLDİNG|10.40.24.120|||110000438407|100
18.10.2018 08:00:00||ÇALIK HOLDİNG|10.40.24.120|||110000438407|40
18.10.2018 08:00:00||ÇALIK HOLDİNG|10.40.24.120|||110000438407|80
18.10.2018 08:00:00||ÇALIK HOLDİNG|10.40.24.120|||110000438407|80
18.10.2018 08:00:00||ÇALIK HOLDİNG|10.40.24.120|||110000438407|70
18.10.2018 08:00:00||ÇALIK HOLDİNG|10.40.25.121|||110000438407|90
18.10.2018 08:00:00||ÇALIK HOLDİNG|10.40.25.121|||110000438407|100
18.10.2018 08:00:00||ÇALIK HOLDİNG|10.40.25.121|||110000438407|150
18.10.2018 08:00:00||ÇALIK HOLDİNG|10.40.24.121|||110000438407|100
18.10.2018 08:00:00||ÇALIK HOLDİNG|10.40.24.121|||110000438407|100
18.10.2018 08:00:00||ÇALIK HOLDİNG|10.40.24.121|||110000438407|140
18.10.2018 08:00:00||ÇALIK HOLDİNG|10.40.25.122|||110000438407|90
18.10.2018 08:00:00||ÇALIK HOLDİNG|10.40.25.122|||110000438407|80
18.10.2018 08:00:00||ÇALIK HOLDİNG|10.40.25.122|||110000438407|80
18.10.2018 08:00:00||ÇALIK HOLDİNG|10.40.25.122|||110000438407|30
18.10.2018 08:00:00||ÇALIK HOLDİNG|10.40.25.122|||110000438407|10
18.10.2018 08:00:00||ÇALIK HOLDİNG|10.40.24.122|||110000438407|90
18.10.2018 08:00:00||ÇALIK HOLDİNG|10.40.24.122|||110000438407|80
18.10.2018 08:00:00||ÇALIK HOLDİNG|10.40.24.122|||110000438407|90
18.10.2018 08:00:00||ÇALIK HOLDİNG|10.40.24.117|||110000438407|200
18.10.2018 08:00:00||ÇALIK HOLDİNG|10.40.24.117|||110000438407|30
18.10.2018 08:00:00||ÇALIK HOLDİNG|10.40.24.117|||110000438407|30
18.10.2018 08:00:00||ÇALIK HOLDİNG|10.40.24.97|||110000438407|100
18.10.2018 08:00:00||ÇALIK HOLDİNG|10.40.24.97|||110000438407|90
18.10.2018 08:00:00||ÇALIK HOLDİNG|10.40.24.97|||110000438407|80
18.10.2018 08:00:00||ÇALIK HOLDİNG|10.40.24.97|||110000438407|90
18.10.2018 08:00:00||ÇALIK HOLDİNG|10.40.24.97|||110000438407|310
18.10.2018 08:00:00||ÇALIK HOLDİNG|10.40.24.100|||110000438407|30
18.10.2018 08:00:00||ÇALIK HOLDİNG|10.40.24.100|||110000438407|40
18.10.2018 08:00:00||FIBABANKA|10.40.25.54|||101571767266|329
18.10.2018 08:00:00||FIBABANKA|10.40.27.54|||101571767266|309
18.10.2018 08:00:00||FIBABANKA|10.40.27.55|||101571767266|113
18.10.2018 08:00:00||FIBABANKA|10.40.24.54|||101571767266|317
18.10.2018 08:00:00||FIBABANKA|10.40.25.55|||101571767266|111
18.10.2018 08:00:00||FIBABANKA|10.40.24.55|||101571767266|110
18.10.2018 08:00:00||FIBABANKA|10.40.24.56|||101571767266|203
18.10.2018 08:00:00||FIBABANKA|10.40.25.56|||101571767266|204
18.10.2018 08:00:00||FIBABANKA|10.40.26.55|||101571767266|114
18.10.2018 08:00:00||FIBABANKA|10.40.26.54|||101571767266|317
18.10.2018 08:00:00||FIBABANKA|10.40.25.57|||101571767266|90
18.10.2018 08:00:00||FIBABANKA|10.40.25.57|||101571767266|90
18.10.2018 08:00:00||FIBABANKA|10.40.25.57|||101571767266|90
18.10.2018 08:00:00||FIBABANKA|10.40.26.51|||101571767266|20
18.10.2018 08:00:00||FIBABANKA|10.40.27.52|||101571767266|50
18.10.2018 08:00:00||FIBABANKA|10.40.27.52|||101571767266|60
18.10.2018 08:00:00||FIBABANKA|10.40.27.52|||101571767266|70
18.10.2018 08:00:00||FIBABANKA|10.40.27.74|||101571767266|180
18.10.2018 08:00:00||FIBABANKA|10.40.25.53|||101571767266|30
18.10.2018 08:00:00||FIBABANKA|10.40.25.53|||101571767266|50
18.10.2018 08:00:00||FIBABANKA|10.40.27.53|||101571767266|60
18.10.2018 08:00:00||FIBABANKA|10.40.26.53|||101571767266|60
18.10.2018 08:00:00||FIBABANKA|10.40.25.51|||101571767266|20
18.10.2018 08:00:00||FIBABANKA|10.40.25.51|||101571767266|112
18.10.2018 08:00:00||FIBABANKA|10.40.24.51|||101571767266|20
18.10.2018 08:00:00||FIBABANKA|10.40.24.51|||101571767266|70
18.10.2018 08:00:00||FIBABANKA|10.40.24.51|||101571767266|100
18.10.2018 08:00:00||FIBABANKA|10.40.24.51|||101571767266|140
18.10.2018 08:00:00||FIBABANKA|10.40.24.51|||101571767266|30
18.10.2018 08:00:00||FIBABANKA|10.40.24.57|||101571767266|90
18.10.2018 08:00:00||FIBABANKA|10.40.24.57|||101571767266|80
18.10.2018 08:00:00||FIBABANKA|10.40.24.57|||101571767266|80
18.10.2018 08:00:00||FIBABANKA|10.40.24.52|||101571767266|10
18.10.2018 08:00:00||FIBABANKA|10.40.26.73|||101571767266|40
18.10.2018 08:00:00||FIBABANKA|10.40.27.53|||101571767266|70
18.10.2018 08:00:00||FIBABANKA|10.40.26.51|||101571767266|73
18.10.2018 08:00:00||FIBABANKA|10.40.26.52|||101571767266|30
18.10.2018 08:00:00||FIBABANKA|10.40.26.52|||101571767266|90
18.10.2018 08:00:00||FIBABANKA|10.40.26.52|||101571767266|30
18.10.2018 08:00:00||FIBABANKA|10.40.25.51|||101571767266|140
18.10.2018 08:00:00||FIBABANKA|10.40.25.51|||101571767266|40
18.10.2018 08:00:00||FIBABANKA|10.40.25.51|||101571767266|40
18.10.2018 08:00:00||FIBABANKA|10.40.25.51|||101571767266|70
18.10.2018 08:00:00||FIBABANKA|10.40.24.51|||101571767266|30
18.10.2018 08:00:00||FIBABANKA|10.40.25.59|||101571767266|70
18.10.2018 08:00:00||FIBABANKA|10.40.25.59|||101571767266|90
18.10.2018 08:00:00||FIBABANKA|10.40.25.59|||101571767266|103
18.10.2018 08:00:00||FIBABANKA|10.40.25.59|||101571767266|40
18.10.2018 08:00:00||FIBABANKA|10.40.25.59|||101571767266|120
18.10.2018 08:00:00||FIBABANKA|10.40.25.59|||101571767266|70
18.10.2018 08:00:00||FIBABANKA|10.40.25.59|||101571767266|60
18.10.2018 08:00:00||FIBABANKA|10.40.25.59|||101571767266|162
18.10.2018 08:00:00||FIBABANKA|10.40.25.59|||101571767266|60
18.10.2018 08:00:00||FIBABANKA|10.40.24.59|||101571767266|70
18.10.2018 08:00:00||FIBABANKA|10.40.24.59|||101571767266|123
18.10.2018 08:00:00||FIBABANKA|10.40.24.59|||101571767266|82
18.10.2018 08:00:00||FIBABANKA|10.40.24.59|||101571767266|50
18.10.2018 08:00:00||FIBABANKA|10.40.24.59|||101571767266|130
18.10.2018 08:00:00||FIBABANKA|10.40.24.59|||101571767266|70
18.10.2018 08:00:00||FIBABANKA|10.40.24.59|||101571767266|60
18.10.2018 08:00:00||FIBABANKA|10.40.24.59|||101571767266|152
18.10.2018 08:00:00||FIBABANKA|10.40.24.59|||101571767266|60
18.10.2018 08:00:00||FIBABANKA|10.40.25.60|||101571767266|105
18.10.2018 08:00:00||FIBABANKA|10.40.25.60|||101571767266|38
18.10.2018 08:00:00||FIBABANKA|10.40.25.60|||101571767266|110
18.10.2018 08:00:00||FIBABANKA|10.40.25.60|||101571767266|42
18.10.2018 08:00:00||FIBABANKA|10.40.24.60|||101571767266|117
18.10.2018 08:00:00||FIBABANKA|10.40.24.60|||101571767266|57
18.10.2018 08:00:00||FIBABANKA|10.40.24.60|||101571767266|40
18.10.2018 08:00:00||FIBABANKA|10.40.24.60|||101571767266|103
18.10.2018 08:00:00||FIBABANKA|10.40.24.60|||101571767266|50
18.10.2018 08:00:00||FIBABANKA|10.40.25.72|||101571767266|70
18.10.2018 08:00:00||FIBABANKA|10.40.25.72|||101571767266|40
18.10.2018 08:00:00||FIBABANKA|10.40.25.72|||101571767266|30
18.10.2018 08:00:00||FIBABANKA|10.40.24.72|||101571767266|140
18.10.2018 08:00:00||FIBABANKA|10.40.24.72|||101571767266|80
18.10.2018 08:00:00||FIBABANKA|10.40.24.72|||101571767266|30
18.10.2018 08:00:00||FIBABANKA|10.40.24.72|||101571767266|40
18.10.2018 08:00:00||FIBABANKA|10.40.25.74|||101571767266|30
18.10.2018 08:00:00||FIBABANKA|10.40.25.75|||101571767266|40
18.10.2018 08:00:00||FIBABANKA|10.40.25.75|||101571767266|83
18.10.2018 08:00:00||FIBABANKA|10.40.25.75|||101571767266|132
18.10.2018 08:00:00||FIBABANKA|10.40.25.75|||101571767266|163
18.10.2018 08:00:00||FIBABANKA|10.40.25.75|||101571767266|188
18.10.2018 08:00:00||FIBABANKA|10.40.25.75|||101571767266|208
18.10.2018 08:00:00||FIBABANKA|10.40.24.75|||101571767266|45
18.10.2018 08:00:00||FIBABANKA|10.40.24.75|||101571767266|50
18.10.2018 08:00:00||FIBABANKA|10.40.24.75|||101571767266|170
18.10.2018 08:00:00||FIBABANKA|10.40.24.75|||101571767266|148
18.10.2018 08:00:00||FIBABANKA|10.40.24.76|||101571767266|38
18.10.2018 08:00:00||FIBABANKA|10.40.24.76|||101571767266|63
18.10.2018 08:00:00||FIBABANKA|10.40.24.76|||101571767266|10
18.10.2018 08:00:00||FIBABANKA|10.40.24.53|||101571767266|30
18.10.2018 08:00:00||FIBABANKA|10.40.24.53|||101571767266|58
18.10.2018 08:00:00||FIBABANKA|10.40.26.57|||101571767266|90
18.10.2018 08:00:00||FIBABANKA|10.40.26.57|||101571767266|83
18.10.2018 08:00:00||FIBABANKA|10.40.26.57|||101571767266|80
18.10.2018 08:00:00||FIBABANKA|10.40.27.72|||101571767266|40
18.10.2018 08:00:00||FIBABANKA|10.40.27.72|||101571767266|50
18.10.2018 08:00:00||FIBABANKA|10.40.27.72|||101571767266|32
18.10.2018 08:00:00||FIBABANKA|10.40.27.72|||101571767266|140
18.10.2018 08:00:00||FIBABANKA|10.40.27.72|||101571767266|63
18.10.2018 08:00:00||FIBABANKA|10.40.26.72|||101571767266|30
18.10.2018 08:00:00||FIBABANKA|10.40.26.72|||101571767266|140
18.10.2018 08:00:00||FIBABANKA|10.40.26.72|||101571767266|70
18.10.2018 08:00:00||FIBABANKA|10.40.26.72|||101571767266|30
18.10.2018 08:00:00||FIBABANKA|10.40.27.73|||101571767266|30
18.10.2018 08:00:00||FIBABANKA|10.40.27.73|||101571767266|100
18.10.2018 08:00:00||FIBABANKA|10.40.27.73|||101571767266|40
18.10.2018 08:00:00||FIBABANKA|10.40.27.73|||101571767266|40
18.10.2018 08:00:00||FIBABANKA|10.40.27.73|||101571767266|200
18.10.2018 08:00:00||FIBABANKA|10.40.26.73|||101571767266|40
18.10.2018 08:00:00||FIBABANKA|10.40.26.73|||101571767266|70
18.10.2018 08:00:00||FIBABANKA|10.40.26.73|||101571767266|30
18.10.2018 08:00:00||FIBABANKA|10.40.27.74|||101571767266|72
18.10.2018 08:00:00||FIBABANKA|10.40.27.74|||101571767266|168
18.10.2018 08:00:00||FIBABANKA|10.40.27.74|||101571767266|180
18.10.2018 08:00:00||FIBABANKA|10.40.26.74|||101571767266|72
18.10.2018 08:00:00||FIBABANKA|10.40.26.74|||101571767266|197
18.10.2018 08:00:00||FIBABANKA|10.40.26.74|||101571767266|185
18.10.2018 08:00:00||FIBABANKA|10.40.26.74|||101571767266|173
18.10.2018 08:00:00||FIBABANKA|10.40.27.75|||101571767266|10
18.10.2018 08:00:00||FIBABANKA|10.40.27.75|||101571767266|10
18.10.2018 08:00:00||FIBABANKA|10.40.26.79|||101571767266|10
18.10.2018 08:00:00||FIBABANKA|10.40.27.79|||101571767266|12
18.10.2018 08:00:00||FIBABANKA|10.40.27.79|||101571767266|10
18.10.2018 08:00:00||FIBABANKA|10.40.26.79|||101571767266|10
18.10.2018 08:00:00||FIBABANKA|10.40.27.77|||101571767266|155
18.10.2018 08:00:00||FIBABANKA|10.40.26.77|||101571767266|178
18.10.2018 08:00:00||FIBABANKA|10.40.27.77|||101571767266|155
18.10.2018 08:00:00||FIBABANKA|10.40.25.74|||101571767266|228
18.10.2018 08:00:00||FIBABANKA|10.40.24.75|||101571767266|175
18.10.2018 08:00:00||FIBABANKA|10.40.24.53|||101571767266|160
18.10.2018 08:00:00||FIBABANKA|10.40.24.53|||101571767266|158
18.10.2018 08:00:00||FIBABANKA|10.40.25.52|||101571767266|10
18.10.2018 08:00:00||FIBABANKA|10.40.25.52|||101571767266|63
18.10.2018 08:00:00||FIBABANKA|10.40.25.53|||101571767266|150
18.10.2018 08:00:00||FIBABANKA|10.40.25.53|||101571767266|140
18.10.2018 08:00:00||FIBABANKA|10.40.27.51|||101571767266|30
18.10.2018 08:00:00||FIBABANKA|10.40.27.51|||101571767266|20
18.10.2018 08:00:00||FIBABANKA|10.40.27.51|||101571767266|103
18.10.2018 08:00:00||FIBABANKA|10.40.27.51|||101571767266|140
18.10.2018 08:00:00||FIBABANKA|10.40.27.51|||101571767266|70
18.10.2018 08:00:00||FIBABANKA|10.40.27.51|||101571767266|38
18.10.2018 08:00:00||FIBABANKA|10.40.27.51|||101571767266|40
18.10.2018 08:00:00||FIBABANKA|10.40.26.51|||101571767266|10
18.10.2018 08:00:00||FIBABANKA|10.40.26.51|||101571767266|110
18.10.2018 08:00:00||FIBABANKA|10.40.26.51|||101571767266|130
18.10.2018 08:00:00||FIBABANKA|10.40.26.51|||101571767266|30
18.10.2018 08:00:00||FIBABANKA|10.40.26.51|||101571767266|30
18.10.2018 08:00:00||FIBABANKA|10.40.24.74|||101571767266|30
18.10.2018 08:00:00||FIBABANKA|10.40.25.76|||101571767266|60
18.10.2018 08:00:00||FIBABANKA|10.40.25.76|||101571767266|40
18.10.2018 08:00:00||FIBABANKA|10.40.25.76|||101571767266|10
18.10.2018 08:00:00||FIBABANKA|10.40.26.53|||101571767266|40
18.10.2018 08:00:00||FIBABANKA|10.40.26.53|||101571767266|163
18.10.2018 08:00:00||FIBABANKA|10.40.25.76|||101571767266|10
18.10.2018 08:00:00||FIBABANKA|10.40.27.53|||101571767266|163
18.10.2018 08:00:00||FIBABANKA|10.40.27.53|||101571767266|168
18.10.2018 08:00:00||FIBABANKA|10.40.26.53|||101571767266|155
18.10.2018 08:00:00||FIBABANKA|10.40.27.57|||101571767266|82
18.10.2018 08:00:00||FIBABANKA|10.40.27.57|||101571767266|80
18.10.2018 08:00:00||FIBABANKA|10.40.27.57|||101571767266|80
18.10.2018 08:00:00||HAVAŞ|10.40.24.48|||110000479675|767
18.10.2018 08:00:00||HAVAŞ|10.40.24.48|||110000479675|768
18.10.2018 08:00:00||HAVAŞ|10.40.25.48|||110000479675|763
18.10.2018 08:00:00||HAVAŞ|10.40.24.45|||110000479675|70
18.10.2018 08:00:00||HAVAŞ|10.40.25.45|||110000479675|67
18.10.2018 08:00:00||HAVAŞ|10.40.25.47|||110000479675|70
18.10.2018 08:00:00||HAVAŞ|10.40.24.46|||110000479675|80
18.10.2018 08:00:00||HAVAŞ|10.40.24.47|||110000479675|30
18.10.2018 08:00:00||HAVAŞ|10.40.24.47|||110000479675|90
18.10.2018 08:00:00||HAVAŞ|10.40.24.47|||110000479675|90
18.10.2018 08:00:00||HAVAŞ|10.40.25.46|||110000479675|10
18.10.2018 08:00:00||HAVAŞ|10.40.25.46|||110000479675|60
18.10.2018 08:00:00||HAVAŞ|10.40.24.48|||110000479675|770
18.10.2018 08:00:00||HAVAŞ|10.40.24.46|||110000479675|60
18.10.2018 08:00:00||HAVAŞ|10.40.24.46|||110000479675|70
18.10.2018 08:00:00||HAVAŞ|10.40.24.47|||110000479675|18
18.10.2018 08:00:00||HAVAŞ|10.40.25.48|||110000479675|762
18.10.2018 08:00:00||HAVAŞ|10.40.25.48|||110000479675|793
18.10.2018 08:00:00||HAVAŞ|10.40.25.45|||110000479675|102
18.10.2018 08:00:00||HAVAŞ|10.40.24.45|||110000479675|50
18.10.2018 08:00:00||HAVAŞ|10.40.24.45|||110000479675|170
18.10.2018 08:00:00||HAVAŞ|10.40.24.45|||110000479675|100
18.10.2018 08:00:00||HAVAŞ|10.40.25.47|||110000479675|70
18.10.2018 08:00:00||HAVAŞ|10.40.25.47|||110000479675|222
18.10.2018 08:00:00||HAVAŞ|10.40.25.47|||110000479675|57
18.10.2018 08:00:00||HAVAŞ|10.40.25.47|||110000479675|90
18.10.2018 08:00:00||HAVAŞ|10.40.25.47|||110000479675|90
18.10.2018 08:00:00||HAVAŞ|10.40.25.47|||110000479675|90
18.10.2018 08:00:00||HAVAŞ|10.40.25.47|||110000479675|172
18.10.2018 08:00:00||HAVAŞ|10.40.25.47|||110000479675|180
18.10.2018 08:00:00||HAVAŞ|10.40.25.47|||110000479675|90
18.10.2018 08:00:00||HAVAŞ|10.40.25.47|||110000479675|90
18.10.2018 08:00:00||HAVAŞ|10.40.25.47|||110000479675|92
18.10.2018 08:00:00||HAVAŞ|10.40.25.45|||110000479675|110
18.10.2018 08:00:00||HAVAŞ|10.40.25.45|||110000479675|90
18.10.2018 08:00:00||HAVAŞ|10.40.25.46|||110000479675|10
18.10.2018 08:00:00||HAVAŞ|10.40.25.46|||110000479675|10
18.10.2018 08:00:00||HAVAŞ|10.40.25.46|||110000479675|20
18.10.2018 08:00:00||HAVAŞ|10.40.25.46|||110000479675|20
18.10.2018 08:00:00||HAVAŞ|10.40.25.46|||110000479675|52
18.10.2018 08:00:00||HAVAŞ|10.40.25.46|||110000479675|100
18.10.2018 08:00:00||HAVAŞ|10.40.25.46|||110000479675|55
18.10.2018 08:00:00||HAVAŞ|10.40.25.46|||110000479675|78
18.10.2018 08:00:00||HAVAŞ|10.40.25.46|||110000479675|70
18.10.2018 08:00:00||HAVAŞ|10.40.24.46|||110000479675|20
18.10.2018 08:00:00||HAVAŞ|10.40.24.46|||110000479675|20
18.10.2018 08:00:00||HAVAŞ|10.40.24.46|||110000479675|10
18.10.2018 08:00:00||HAVAŞ|10.40.24.46|||110000479675|10
18.10.2018 08:00:00||HAVAŞ|10.40.24.46|||110000479675|10
18.10.2018 08:00:00||HAVAŞ|10.40.24.46|||110000479675|60
18.10.2018 08:00:00||HAVAŞ|10.40.24.46|||110000479675|110
18.10.2018 08:00:00||HAVAŞ|10.40.24.47|||110000479675|30
18.10.2018 08:00:00||HAVAŞ|10.40.24.47|||110000479675|220
18.10.2018 08:00:00||HAVAŞ|10.40.24.47|||110000479675|60
18.10.2018 08:00:00||HAVAŞ|10.40.24.47|||110000479675|57
18.10.2018 08:00:00||HAVAŞ|10.40.24.47|||110000479675|158
18.10.2018 08:00:00||HAVAŞ|10.40.24.47|||110000479675|100
18.10.2018 08:00:00||HAVAŞ|10.40.24.47|||110000479675|100
18.10.2018 08:00:00||HAVAŞ|10.40.24.46|||110000479675|10
18.10.2018 08:00:00||MARS CINEMA|10.40.24.203|||110000472614|87
18.10.2018 08:00:00||MARS CINEMA|10.40.24.203|||110000472614|160
18.10.2018 08:00:00||MARS CINEMA|10.40.24.203|||110000472614|80
18.10.2018 08:00:00||MARS CINEMA|10.40.24.204|||110000472614|65
18.10.2018 08:00:00||MARS CINEMA|10.40.24.203|||110000472614|102
18.10.2018 08:00:00||MARS CINEMA|10.40.24.204|||110000472614|20
18.10.2018 08:00:00||MARS CINEMA|10.40.24.204|||110000472614|92
18.10.2018 08:00:00||MARS CINEMA|10.40.25.203|||110000472614|153
18.10.2018 08:00:00||MARS CINEMA|10.40.25.203|||110000472614|75
18.10.2018 08:00:00||MARS CINEMA|10.40.25.203|||110000472614|178
18.10.2018 08:00:00||MARS CINEMA|10.40.25.203|||110000472614|95
18.10.2018 08:00:00||MARS CINEMA|10.40.25.203|||110000472614|80
18.10.2018 08:00:00||MARS CINEMA|10.40.25.203|||110000472614|110
18.10.2018 08:00:00||MARS CINEMA|10.40.25.203|||110000472614|85
18.10.2018 08:00:00||MARS CINEMA|10.40.25.203|||110000472614|162
18.10.2018 08:00:00||MARS CINEMA|10.40.25.203|||110000472614|90
18.10.2018 08:00:00||MARS CINEMA|10.40.25.203|||110000472614|110
18.10.2018 08:00:00||MARS CINEMA|10.40.25.203|||110000472614|92
18.10.2018 08:00:00||MARS CINEMA|10.40.25.203|||110000472614|62
18.10.2018 08:00:00||MARS CINEMA|10.40.25.203|||110000472614|182
18.10.2018 08:00:00||MARS CINEMA|10.40.25.204|||110000472614|110
18.10.2018 08:00:00||MARS CINEMA|10.40.25.204|||110000472614|70
18.10.2018 08:00:00||MARS CINEMA|10.40.25.204|||110000472614|80
18.10.2018 08:00:00||MARS CINEMA|10.40.25.204|||110000472614|100
18.10.2018 08:00:00||MARS CINEMA|10.40.25.204|||110000472614|20
18.10.2018 08:00:00||MARS CINEMA|10.40.25.204|||110000472614|20
18.10.2018 08:00:00||MARS CINEMA|10.40.25.204|||110000472614|30
18.10.2018 08:00:00||MARS CINEMA|10.40.25.204|||110000472614|40
18.10.2018 08:00:00||MARS CINEMA|10.40.25.204|||110000472614|90
18.10.2018 08:00:00||MARS CINEMA|10.40.25.204|||110000472614|120
18.10.2018 08:00:00||MARS CINEMA|10.40.25.204|||110000472614|80
18.10.2018 08:00:00||MARS CINEMA|10.40.25.204|||110000472614|80
18.10.2018 08:00:00||MARS CINEMA|10.40.25.204|||110000472614|110
18.10.2018 08:00:00||MARS CINEMA|10.40.25.204|||110000472614|100
18.10.2018 08:00:00||MARS CINEMA|10.40.24.203|||110000472614|80
18.10.2018 08:00:00||MARS CINEMA|10.40.24.203|||110000472614|90
18.10.2018 08:00:00||MARS CINEMA|10.40.24.203|||110000472614|137
18.10.2018 08:00:00||MARS CINEMA|10.40.24.203|||110000472614|70
18.10.2018 08:00:00||MARS CINEMA|10.40.24.203|||110000472614|140
18.10.2018 08:00:00||MARS CINEMA|10.40.24.203|||110000472614|152
18.10.2018 08:00:00||MARS CINEMA|10.40.24.203|||110000472614|100
18.10.2018 08:00:00||MARS CINEMA|10.40.24.203|||110000472614|182
18.10.2018 08:00:00||MARS CINEMA|10.40.24.204|||110000472614|110
18.10.2018 08:00:00||MARS CINEMA|10.40.24.204|||110000472614|92
18.10.2018 08:00:00||MARS CINEMA|10.40.24.204|||110000472614|90
18.10.2018 08:00:00||MARS CINEMA|10.40.24.204|||110000472614|20
18.10.2018 08:00:00||MARS CINEMA|10.40.24.204|||110000472614|10
18.10.2018 08:00:00||MARS CINEMA|10.40.24.204|||110000472614|90
18.10.2018 08:00:00||MARS CINEMA|10.40.24.204|||110000472614|120
18.10.2018 08:00:00||MARS CINEMA|10.40.24.204|||110000472614|90
18.10.2018 08:00:00||MARS CINEMA|10.40.24.204|||110000472614|105
18.10.2018 08:00:00||MARS CINEMA|10.40.24.204|||110000472614|80
18.10.2018 08:00:00||MARS CINEMA|10.40.25.206|||110000472614|122
18.10.2018 08:00:00||MARS CINEMA|10.40.25.206|||110000472614|40
18.10.2018 08:00:00||MARS CINEMA|10.40.25.206|||110000472614|40
18.10.2018 08:00:00||MARS CINEMA|10.40.25.206|||110000472614|40
18.10.2018 08:00:00||MARS CINEMA|10.40.25.206|||110000472614|20
18.10.2018 08:00:00||MARS CINEMA|10.40.25.206|||110000472614|20
18.10.2018 08:00:00||MARS CINEMA|10.40.25.206|||110000472614|30
18.10.2018 08:00:00||MARS CINEMA|10.40.25.206|||110000472614|60
18.10.2018 08:00:00||MARS CINEMA|10.40.25.206|||110000472614|40
18.10.2018 08:00:00||MARS CINEMA|10.40.25.206|||110000472614|82
18.10.2018 08:00:00||MARS CINEMA|10.40.25.206|||110000472614|83
18.10.2018 08:00:00||MARS CINEMA|10.40.24.206|||110000472614|153
18.10.2018 08:00:00||MARS CINEMA|10.40.24.206|||110000472614|40
18.10.2018 08:00:00||MARS CINEMA|10.40.24.206|||110000472614|40
18.10.2018 08:00:00||MARS CINEMA|10.40.24.206|||110000472614|42
18.10.2018 08:00:00||MARS CINEMA|10.40.24.206|||110000472614|30
18.10.2018 08:00:00||MARS CINEMA|10.40.24.206|||110000472614|30
18.10.2018 08:00:00||MARS CINEMA|10.40.24.206|||110000472614|198
18.10.2018 08:00:00||MARS CINEMA|10.40.24.206|||110000472614|160
18.10.2018 08:00:00||MARS CINEMA|10.40.24.206|||110000472614|20
18.10.2018 08:00:00||MARS CINEMA|10.40.24.206|||110000472614|80
18.10.2018 08:00:00||MARS CINEMA|10.40.24.206|||110000472614|70
18.10.2018 08:00:00||MARS CINEMA|10.40.24.203|||110000472614|100
18.10.2018 08:00:00||MARS CINEMA|10.40.24.204|||110000472614|40
18.10.2018 08:00:00||PEGASUS|10.40.27.66|||110000423831|113
18.10.2018 08:00:00||PEGASUS|10.40.26.66|||110000423831|94
18.10.2018 08:00:00||PEGASUS|10.40.26.84|||110000423831|218
18.10.2018 08:00:00||PEGASUS|10.40.27.85|||110000423831|116
18.10.2018 08:00:00||PEGASUS|10.40.26.85|||110000423831|121
18.10.2018 08:00:00||PEGASUS|10.40.27.64|||110000423831|70
18.10.2018 08:00:00||PEGASUS|10.40.27.64|||110000423831|70
18.10.2018 08:00:00||PEGASUS|10.40.27.63|||110000423831|62
18.10.2018 08:00:00||PEGASUS|10.40.27.63|||110000423831|70
18.10.2018 08:00:00||PEGASUS|10.40.27.63|||110000423831|90
18.10.2018 08:00:00||PEGASUS|10.40.26.63|||110000423831|110
18.10.2018 08:00:00||PEGASUS|10.40.27.67|||110000423831|362
18.10.2018 08:00:00||PEGASUS|10.40.27.64|||110000423831|265
18.10.2018 08:00:00||PEGASUS|10.40.27.64|||110000423831|263
18.10.2018 08:00:00||PEGASUS|10.40.27.63|||110000423831|72
18.10.2018 08:00:00||PEGASUS|10.40.27.63|||110000423831|67
18.10.2018 08:00:00||PEGASUS|10.40.27.63|||110000423831|80
18.10.2018 08:00:00||PEGASUS|10.40.26.63|||110000423831|110
18.10.2018 08:00:00||PEGASUS|10.40.26.63|||110000423831|110
18.10.2018 08:00:00||PEGASUS|10.40.27.81|||110000423831|462
18.10.2018 08:00:00||PEGASUS|10.40.27.81|||110000423831|428
18.10.2018 08:00:00||PEGASUS|10.40.26.63|||110000423831|90
18.10.2018 08:00:00||PEGASUS|10.40.26.63|||110000423831|60
18.10.2018 08:00:00||PEGASUS|10.40.26.67|||110000423831|30
18.10.2018 08:00:00||PEGASUS|10.40.26.67|||110000423831|340
18.10.2018 08:00:00||PEGASUS|10.40.26.67|||110000423831|60
18.10.2018 08:00:00||PEGASUS|10.40.26.67|||110000423831|40
18.10.2018 08:00:00||PEGASUS|10.40.26.67|||110000423831|70
18.10.2018 08:00:00||PEGASUS|10.40.26.68|||110000423831|100
18.10.2018 08:00:00||PEGASUS|10.40.27.64|||110000423831|283
18.10.2018 08:00:00||PEGASUS|10.40.27.64|||110000423831|262
18.10.2018 08:00:00||PEGASUS|10.40.27.64|||110000423831|290
18.10.2018 08:00:00||PEGASUS|10.40.27.64|||110000423831|267
18.10.2018 08:00:00||PEGASUS|10.40.27.64|||110000423831|273
18.10.2018 08:00:00||PEGASUS|10.40.27.86|||110000423831|340
18.10.2018 08:00:00||PEGASUS|10.40.27.63|||110000423831|90
18.10.2018 08:00:00||PEGASUS|10.40.26.63|||110000423831|130
18.10.2018 08:00:00||PEGASUS|10.40.26.63|||110000423831|60
18.10.2018 08:00:00||PEGASUS|10.40.26.63|||110000423831|80
18.10.2018 08:00:00||PEGASUS|10.40.26.67|||110000423831|340
18.10.2018 08:00:00||PEGASUS|10.40.27.63|||110000423831|53
18.10.2018 08:00:00||PEGASUS|10.40.27.63|||110000423831|60
18.10.2018 08:00:00||PEGASUS|10.40.27.81|||110000423831|433
18.10.2018 08:00:00||PEGASUS|10.40.26.62|||110000423831|90
18.10.2018 08:00:00||PEGASUS|10.40.26.63|||110000423831|50
18.10.2018 08:00:00||PEGASUS|10.40.26.63|||110000423831|100
18.10.2018 08:00:00||PEGASUS|10.40.26.63|||110000423831|40
18.10.2018 08:00:00||PEGASUS|10.40.26.63|||110000423831|70
18.10.2018 08:00:00||PEGASUS|10.40.26.67|||110000423831|348
18.10.2018 08:00:00||PEGASUS|10.40.27.64|||110000423831|277
18.10.2018 08:00:00||PEGASUS|10.40.27.64|||110000423831|270
18.10.2018 08:00:00||PEGASUS|10.40.27.64|||110000423831|262
18.10.2018 08:00:00||PEGASUS|10.40.27.64|||110000423831|325
18.10.2018 08:00:00||PEGASUS|10.40.27.64|||110000423831|312
18.10.2018 08:00:00||PEGASUS|10.40.27.86|||110000423831|40
18.10.2018 08:00:00||PEGASUS|10.40.27.63|||110000423831|65
18.10.2018 08:00:00||PEGASUS|10.40.27.63|||110000423831|80
18.10.2018 08:00:00||PEGASUS|10.40.27.63|||110000423831|80
18.10.2018 08:00:00||PEGASUS|10.40.27.63|||110000423831|90
18.10.2018 08:00:00||PEGASUS|10.40.27.63|||110000423831|148
18.10.2018 08:00:00||PEGASUS|10.40.27.63|||110000423831|218
18.10.2018 08:00:00||PEGASUS|10.40.27.63|||110000423831|57
18.10.2018 08:00:00||PEGASUS|10.40.26.64|||110000423831|80
18.10.2018 08:00:00||PEGASUS|10.40.26.64|||110000423831|80
18.10.2018 08:00:00||PEGASUS|10.40.26.82|||110000423831|210
18.10.2018 08:00:00||PEGASUS|10.40.26.82|||110000423831|110
18.10.2018 08:00:00||PEGASUS|10.40.26.82|||110000423831|80
18.10.2018 08:00:00||PEGASUS|10.40.26.82|||110000423831|150
18.10.2018 08:00:00||PEGASUS|10.40.26.82|||110000423831|140
18.10.2018 08:00:00||PEGASUS|10.40.26.82|||110000423831|140
18.10.2018 08:00:00||PEGASUS|10.40.26.82|||110000423831|180
18.10.2018 08:00:00||PEGASUS|10.40.26.82|||110000423831|30
18.10.2018 08:00:00||PEGASUS|10.40.26.82|||110000423831|40
18.10.2018 08:00:00||PEGASUS|10.40.26.82|||110000423831|20
18.10.2018 08:00:00||PEGASUS|10.40.26.82|||110000423831|70
18.10.2018 08:00:00||PEGASUS|10.40.26.82|||110000423831|50
18.10.2018 08:00:00||PEGASUS|10.40.26.82|||110000423831|40
18.10.2018 08:00:00||PEGASUS|10.40.27.83|||110000423831|575
18.10.2018 08:00:00||PEGASUS|10.40.27.83|||110000423831|70
18.10.2018 08:00:00||PEGASUS|10.40.27.83|||110000423831|555
18.10.2018 08:00:00||PEGASUS|10.40.27.83|||110000423831|550
18.10.2018 08:00:00||PEGASUS|10.40.27.83|||110000423831|70
18.10.2018 08:00:00||PEGASUS|10.40.26.83|||110000423831|507
18.10.2018 08:00:00||PEGASUS|10.40.26.83|||110000423831|50
18.10.2018 08:00:00||PEGASUS|10.40.26.83|||110000423831|400
18.10.2018 08:00:00||PEGASUS|10.40.26.83|||110000423831|500
18.10.2018 08:00:00||PEGASUS|10.40.26.83|||110000423831|508
18.10.2018 08:00:00||PEGASUS|10.40.26.86|||110000423831|360
18.10.2018 08:00:00||PEGASUS|10.40.26.86|||110000423831|138
18.10.2018 08:00:00||PEGASUS|10.40.26.86|||110000423831|350
18.10.2018 08:00:00||PEGASUS|10.40.26.86|||110000423831|45
18.10.2018 08:00:00||PEGASUS|10.40.26.86|||110000423831|30
18.10.2018 08:00:00||PEGASUS|10.40.26.86|||110000423831|350
18.10.2018 08:00:00||PEGASUS|10.40.26.86|||110000423831|40
18.10.2018 08:00:00||PEGASUS|10.40.27.87|||110000423831|90
18.10.2018 08:00:00||PEGASUS|10.40.27.87|||110000423831|90
18.10.2018 08:00:00||PEGASUS|10.40.27.87|||110000423831|90
18.10.2018 08:00:00||PEGASUS|10.40.27.87|||110000423831|20
18.10.2018 08:00:00||PEGASUS|10.40.26.87|||110000423831|90
18.10.2018 08:00:00||PEGASUS|10.40.26.87|||110000423831|90
18.10.2018 08:00:00||PEGASUS|10.40.26.87|||110000423831|90
18.10.2018 08:00:00||PEGASUS|10.40.26.87|||110000423831|60
18.10.2018 08:00:00||PEGASUS|10.40.26.87|||110000423831|20
18.10.2018 08:00:00||PEGASUS|10.40.26.81|||110000423831|402
18.10.2018 08:00:00||PEGASUS|10.40.26.81|||110000423831|417
18.10.2018 08:00:00||PEGASUS|10.40.26.81|||110000423831|432
18.10.2018 08:00:00||PEGASUS|10.40.27.82|||110000423831|220
18.10.2018 08:00:00||PEGASUS|10.40.27.82|||110000423831|30
18.10.2018 08:00:00||PEGASUS|10.40.27.82|||110000423831|103
18.10.2018 08:00:00||PEGASUS|10.40.27.82|||110000423831|80
18.10.2018 08:00:00||PEGASUS|10.40.27.82|||110000423831|153
18.10.2018 08:00:00||PEGASUS|10.40.27.82|||110000423831|122
18.10.2018 08:00:00||PEGASUS|10.40.27.82|||110000423831|177
18.10.2018 08:00:00||PEGASUS|10.40.27.82|||110000423831|118
18.10.2018 08:00:00||PEGASUS|10.40.27.82|||110000423831|60
18.10.2018 08:00:00||PEGASUS|10.40.27.82|||110000423831|78
18.10.2018 08:00:00||PEGASUS|10.40.27.82|||110000423831|50
18.10.2018 08:00:00||PEGASUS|10.40.27.82|||110000423831|35
18.10.2018 08:00:00||PEGASUS|10.40.27.82|||110000423831|40
18.10.2018 08:00:00||PEGASUS|10.40.27.67|||110000423831|50
18.10.2018 08:00:00||PEGASUS|10.40.27.67|||110000423831|70
18.10.2018 08:00:00||PEGASUS|10.40.27.67|||110000423831|130
18.10.2018 08:00:00||PEGASUS|10.40.27.67|||110000423831|10
18.10.2018 08:00:00||PEGASUS|10.40.27.67|||110000423831|340
18.10.2018 08:00:00||PEGASUS|10.40.27.82|||110000423831|77
18.10.2018 08:00:00||PEGASUS|10.40.27.86|||110000423831|170
18.10.2018 08:00:00||PEGASUS|10.40.27.86|||110000423831|70
18.10.2018 08:00:00||PEGASUS|10.40.27.86|||110000423831|20
18.10.2018 08:00:00||PEGASUS|10.40.27.86|||110000423831|350
18.10.2018 08:00:00||PEGASUS|10.40.27.67|||110000423831|340
18.10.2018 08:00:00||PEGASUS|10.40.27.67|||110000423831|40
18.10.2018 08:00:00||PEGASUS|10.40.26.62|||110000423831|10
18.10.2018 08:00:00||PEGASUS|10.40.26.62|||110000423831|190
18.10.2018 08:00:00||PEGASUS|10.40.26.63|||110000423831|70
18.10.2018 08:00:00||PEGASUS|10.40.26.63|||110000423831|30
18.10.2018 08:00:00||PEGASUS|10.40.26.63|||110000423831|60
18.10.2018 08:00:00||PEGASUS|10.40.26.63|||110000423831|30
18.10.2018 08:00:00||PEGASUS|10.40.26.63|||110000423831|230
18.10.2018 08:00:00||PEGASUS|10.40.26.63|||110000423831|140
18.10.2018 08:00:00||PEGASUS|10.40.26.63|||110000423831|110
18.10.2018 08:00:00||PEGASUS|10.40.26.63|||110000423831|60
18.10.2018 08:00:00||PEGASUS|10.40.26.67|||110000423831|168
18.10.2018 08:00:00||PEGASUS|10.40.27.68|||110000423831|90
18.10.2018 08:00:00||PEGASUS|10.40.27.68|||110000423831|85
18.10.2018 08:00:00||PEGASUS|10.40.27.68|||110000423831|90
18.10.2018 08:00:00||PEGASUS|10.40.27.68|||110000423831|50
18.10.2018 08:00:00||PEGASUS|10.40.26.68|||110000423831|90
18.10.2018 08:00:00||PEGASUS|10.40.26.68|||110000423831|90
18.10.2018 08:00:00||PEGASUS|10.40.26.68|||110000423831|50
18.10.2018 08:00:00||PEGASUS|10.40.27.63|||110000423831|43
18.10.2018 08:00:00||PEGASUS|10.40.27.86|||110000423831|340
18.10.2018 08:00:00||PEGASUS|10.40.27.63|||110000423831|50
18.10.2018 08:00:00||PEGASUS|10.40.27.63|||110000423831|60
18.10.2018 08:00:00||PWC|10.40.24.66|||110000433262|85
18.10.2018 08:00:00||PWC|10.40.24.66|||110000433262|10
18.10.2018 08:00:00||PWC|10.40.24.66|||110000433262|30
18.10.2018 08:00:00||PWC|10.40.24.66|||110000433262|52
18.10.2018 08:00:00||PWC|10.40.24.66|||110000433262|443
18.10.2018 08:00:00||PWC|10.40.24.68|||110000433262|160
18.10.2018 08:00:00||PWC|10.40.24.66|||110000433262|48
18.10.2018 08:00:00||PWC|10.40.24.66|||110000433262|210
18.10.2018 08:00:00||PWC|10.40.24.66|||110000433262|210
18.10.2018 08:00:00||PWC|10.40.25.67|||110000433262|80
18.10.2018 08:00:00||PWC|10.40.25.67|||110000433262|90
18.10.2018 08:00:00||PWC|10.40.25.67|||110000433262|320
18.10.2018 08:00:00||PWC|10.40.25.67|||110000433262|250
18.10.2018 08:00:00||PWC|10.40.25.67|||110000433262|240
18.10.2018 08:00:00||PWC|10.40.25.67|||110000433262|250
18.10.2018 08:00:00||PWC|10.40.25.67|||110000433262|50
18.10.2018 08:00:00||PWC|10.40.25.67|||110000433262|30
18.10.2018 08:00:00||PWC|10.40.25.67|||110000433262|120
18.10.2018 08:00:00||PWC|10.40.24.67|||110000433262|10
18.10.2018 08:00:00||PWC|10.40.24.67|||110000433262|10
18.10.2018 08:00:00||PWC|10.40.24.67|||110000433262|377
18.10.2018 08:00:00||PWC|10.40.24.67|||110000433262|30
18.10.2018 08:00:00||PWC|10.40.24.67|||110000433262|68
18.10.2018 08:00:00||PWC|10.40.24.67|||110000433262|112
18.10.2018 08:00:00||PWC|10.40.25.68|||110000433262|132
18.10.2018 08:00:00||PWC|10.40.25.68|||110000433262|187
18.10.2018 08:00:00||PWC|10.40.25.68|||110000433262|72
18.10.2018 08:00:00||PWC|10.40.25.68|||110000433262|80
18.10.2018 08:00:00||PWC|10.40.25.68|||110000433262|150
18.10.2018 08:00:00||PWC|10.40.24.66|||110000433262|60
18.10.2018 08:00:00||PWC|10.40.24.66|||110000433262|30
18.10.2018 08:00:00||PWC|10.40.24.66|||110000433262|30
18.10.2018 08:00:00||PWC|10.40.24.68|||110000433262|105
18.10.2018 08:00:00||PWC|10.40.24.68|||110000433262|143
18.10.2018 08:00:00||PWC|10.40.24.68|||110000433262|415
18.10.2018 08:00:00||PWC|10.40.24.68|||110000433262|73
18.10.2018 08:00:00||PWC|10.40.24.68|||110000433262|70
18.10.2018 08:00:00||VSMART BİLGİ TEKNOLOJİLERİ|10.40.24.62|||110000474326|40
18.10.2018 08:00:00||VSMART BİLGİ TEKNOLOJİLERİ|10.40.24.62|||110000474326|63
18.10.2018 08:00:00||VSMART BİLGİ TEKNOLOJİLERİ|10.40.24.62|||110000474326|40
18.10.2018 08:00:00||VSMART BİLGİ TEKNOLOJİLERİ|10.40.25.62|||110000474326|70
18.10.2018 08:00:00||VSMART BİLGİ TEKNOLOJİLERİ|10.40.24.62|||110000474326|43
18.10.2018 08:00:00||VSMART BİLGİ TEKNOLOJİLERİ|10.40.24.62|||110000474326|32
18.10.2018 08:00:00||VSMART BİLGİ TEKNOLOJİLERİ|10.40.24.62|||110000474326|10
18.10.2018 08:00:00||VSMART BİLGİ TEKNOLOJİLERİ|10.40.25.62|||110000474326|38
18.10.2018 08:00:00||VSMART BİLGİ TEKNOLOJİLERİ|10.40.25.62|||110000474326|10
18.10.2018 08:00:00||VSMART BİLGİ TEKNOLOJİLERİ|10.40.25.62|||110000474326|10
18.10.2018 08:00:00||VSMART BİLGİ TEKNOLOJİLERİ|10.40.25.62|||110000474326|80
18.10.2018 08:00:00||VSMART BİLGİ TEKNOLOJİLERİ|10.40.25.62|||110000474326|88
18.10.2018 08:00:00||VSMART BİLGİ TEKNOLOJİLERİ|10.40.25.62|||110000474326|103
18.10.2018 08:00:00||VSMART BİLGİ TEKNOLOJİLERİ|10.40.24.62|||110000474326|10
