08.11.2018 00:00:00||AKTİFBANK|10.40.25.134|||110000438458|93
08.11.2018 00:00:00||AKTİFBANK|10.40.24.134|||110000438458|94
08.11.2018 00:00:00||AKTİFBANK|10.40.24.135|||110000438458|100
08.11.2018 00:00:00||AKTİFBANK|10.40.25.137|||110000438458|58
08.11.2018 00:00:00||AKTİFBANK|10.40.25.172|||110000438458|90
08.11.2018 00:00:00||AKTİFBANK|10.40.24.172|||110000438458|96
08.11.2018 00:00:00||AKTİFBANK|10.40.25.173|||110000438458|95
08.11.2018 00:00:00||AKTİFBANK|10.40.25.171|||110000438458|17
08.11.2018 00:00:00||AKTİFBANK|10.40.25.174|||110000438458|53
08.11.2018 00:00:00||AKTİFBANK|10.40.24.173|||110000438458|93
08.11.2018 00:00:00||AKTİFBANK|10.40.25.135|||110000438458|97
08.11.2018 00:00:00||AKTİFBANK|10.40.24.137|||110000438458|58
08.11.2018 00:00:00||AKTİFBANK|10.40.24.171|||110000438458|7
08.11.2018 00:00:00||AKTİFBANK|10.40.24.174|||110000438458|60
08.11.2018 00:00:00||AKTİFBANK|10.40.24.138|||110000438458|123
08.11.2018 00:00:00||AKTİFBANK|10.40.24.139|||110000438458|30
08.11.2018 00:00:00||AKTİFBANK|10.40.24.164|||110000438458|70
08.11.2018 00:00:00||AKTİFBANK|10.40.24.145|||110000438458|60
08.11.2018 00:00:00||AKTİFBANK|10.40.24.164|||110000438458|230
08.11.2018 00:00:00||AKTİFBANK|10.40.25.133|||110000438458|62
08.11.2018 00:00:00||AKTİFBANK|10.40.24.145|||110000438458|90
08.11.2018 00:00:00||AKTİFBANK|10.40.25.151|||110000438458|535
08.11.2018 00:00:00||AKTİFBANK|10.40.24.158|||110000438458|82
08.11.2018 00:00:00||AKTİFBANK|10.40.25.138|||110000438458|80
08.11.2018 00:00:00||AKTİFBANK|10.40.25.139|||110000438458|10
08.11.2018 00:00:00||AKTİFBANK|10.40.25.140|||110000438458|32
08.11.2018 00:00:00||AKTİFBANK|10.40.25.151|||110000438458|523
08.11.2018 00:00:00||AKTİFBANK|10.40.25.141|||110000438458|100
08.11.2018 00:00:00||AKTİFBANK|10.40.25.141|||110000438458|73
08.11.2018 00:00:00||AKTİFBANK|10.40.25.142|||110000438458|75
08.11.2018 00:00:00||AKTİFBANK|10.40.25.140|||110000438458|80
08.11.2018 00:00:00||AKTİFBANK|10.40.25.140|||110000438458|70
08.11.2018 00:00:00||AKTİFBANK|10.40.25.151|||110000438458|512
08.11.2018 00:00:00||AKTİFBANK|10.40.25.141|||110000438458|100
08.11.2018 00:00:00||AKTİFBANK|10.40.25.141|||110000438458|70
08.11.2018 00:00:00||AKTİFBANK|10.40.25.149|||110000438458|70
08.11.2018 00:00:00||AKTİFBANK|10.40.25.149|||110000438458|90
08.11.2018 00:00:00||AKTİFBANK|10.40.25.149|||110000438458|97
08.11.2018 00:00:00||AKTİFBANK|10.40.25.149|||110000438458|100
08.11.2018 00:00:00||AKTİFBANK|10.40.25.141|||110000438458|100
08.11.2018 00:00:00||AKTİFBANK|10.40.25.138|||110000438458|90
08.11.2018 00:00:00||AKTİFBANK|10.40.25.138|||110000438458|30
08.11.2018 00:00:00||AKTİFBANK|10.40.25.149|||110000438458|55
08.11.2018 00:00:00||AKTİFBANK|10.40.25.149|||110000438458|70
08.11.2018 00:00:00||AKTİFBANK|10.40.25.149|||110000438458|28
08.11.2018 00:00:00||AKTİFBANK|10.40.25.133|||110000438458|105
08.11.2018 00:00:00||AKTİFBANK|10.40.25.150|||110000438458|550
08.11.2018 00:00:00||AKTİFBANK|10.40.25.139|||110000438458|37
08.11.2018 00:00:00||AKTİFBANK|10.40.25.140|||110000438458|30
08.11.2018 00:00:00||AKTİFBANK|10.40.25.141|||110000438458|40
08.11.2018 00:00:00||AKTİFBANK|10.40.25.142|||110000438458|40
08.11.2018 00:00:00||AKTİFBANK|10.40.25.149|||110000438458|110
08.11.2018 00:00:00||AKTİFBANK|10.40.24.139|||110000438458|67
08.11.2018 00:00:00||AKTİFBANK|10.40.25.153|||110000438458|10
08.11.2018 00:00:00||AKTİFBANK|10.40.25.150|||110000438458|553
08.11.2018 00:00:00||AKTİFBANK|10.40.25.153|||110000438458|65
08.11.2018 00:00:00||AKTİFBANK|10.40.25.163|||110000438458|50
08.11.2018 00:00:00||AKTİFBANK|10.40.24.141|||110000438458|65
08.11.2018 00:00:00||AKTİFBANK|10.40.25.133|||110000438458|270
08.11.2018 00:00:00||AKTİFBANK|10.40.25.128|||110000438458|70
08.11.2018 00:00:00||AKTİFBANK|10.40.25.128|||110000438458|90
08.11.2018 00:00:00||AKTİFBANK|10.40.25.128|||110000438458|90
08.11.2018 00:00:00||AKTİFBANK|10.40.25.128|||110000438458|40
08.11.2018 00:00:00||AKTİFBANK|10.40.25.128|||110000438458|70
08.11.2018 00:00:00||AKTİFBANK|10.40.25.129|||110000438458|85
08.11.2018 00:00:00||AKTİFBANK|10.40.25.129|||110000438458|68
08.11.2018 00:00:00||AKTİFBANK|10.40.25.129|||110000438458|140
08.11.2018 00:00:00||AKTİFBANK|10.40.25.129|||110000438458|102
08.11.2018 00:00:00||AKTİFBANK|10.40.25.129|||110000438458|42
08.11.2018 00:00:00||AKTİFBANK|10.40.25.129|||110000438458|90
08.11.2018 00:00:00||AKTİFBANK|10.40.25.129|||110000438458|90
08.11.2018 00:00:00||AKTİFBANK|10.40.25.130|||110000438458|62
08.11.2018 00:00:00||AKTİFBANK|10.40.25.130|||110000438458|52
08.11.2018 00:00:00||AKTİFBANK|10.40.25.130|||110000438458|72
08.11.2018 00:00:00||AKTİFBANK|10.40.25.130|||110000438458|30
08.11.2018 00:00:00||AKTİFBANK|10.40.25.130|||110000438458|60
08.11.2018 00:00:00||AKTİFBANK|10.40.25.130|||110000438458|97
08.11.2018 00:00:00||AKTİFBANK|10.40.25.130|||110000438458|80
08.11.2018 00:00:00||AKTİFBANK|10.40.25.131|||110000438458|20
08.11.2018 00:00:00||AKTİFBANK|10.40.25.131|||110000438458|80
08.11.2018 00:00:00||AKTİFBANK|10.40.25.131|||110000438458|100
08.11.2018 00:00:00||AKTİFBANK|10.40.25.131|||110000438458|105
08.11.2018 00:00:00||AKTİFBANK|10.40.25.131|||110000438458|82
08.11.2018 00:00:00||AKTİFBANK|10.40.25.131|||110000438458|82
08.11.2018 00:00:00||AKTİFBANK|10.40.25.131|||110000438458|25
08.11.2018 00:00:00||AKTİFBANK|10.40.25.131|||110000438458|120
08.11.2018 00:00:00||AKTİFBANK|10.40.25.132|||110000438458|60
08.11.2018 00:00:00||AKTİFBANK|10.40.25.132|||110000438458|63
08.11.2018 00:00:00||AKTİFBANK|10.40.25.132|||110000438458|163
08.11.2018 00:00:00||AKTİFBANK|10.40.25.132|||110000438458|40
08.11.2018 00:00:00||AKTİFBANK|10.40.25.143|||110000438458|320
08.11.2018 00:00:00||AKTİFBANK|10.40.25.144|||110000438458|80
08.11.2018 00:00:00||AKTİFBANK|10.40.25.144|||110000438458|50
08.11.2018 00:00:00||AKTİFBANK|10.40.25.144|||110000438458|20
08.11.2018 00:00:00||AKTİFBANK|10.40.25.154|||110000438458|10
08.11.2018 00:00:00||AKTİFBANK|10.40.25.154|||110000438458|10
08.11.2018 00:00:00||AKTİFBANK|10.40.25.154|||110000438458|10
08.11.2018 00:00:00||AKTİFBANK|10.40.25.157|||110000438458|50
08.11.2018 00:00:00||AKTİFBANK|10.40.25.157|||110000438458|75
08.11.2018 00:00:00||AKTİFBANK|10.40.25.157|||110000438458|68
08.11.2018 00:00:00||AKTİFBANK|10.40.25.157|||110000438458|83
08.11.2018 00:00:00||AKTİFBANK|10.40.25.157|||110000438458|40
08.11.2018 00:00:00||AKTİFBANK|10.40.25.159|||110000438458|60
08.11.2018 00:00:00||AKTİFBANK|10.40.25.159|||110000438458|10
08.11.2018 00:00:00||AKTİFBANK|10.40.25.159|||110000438458|97
08.11.2018 00:00:00||AKTİFBANK|10.40.25.158|||110000438458|73
08.11.2018 00:00:00||AKTİFBANK|10.40.25.158|||110000438458|18
08.11.2018 00:00:00||AKTİFBANK|10.40.25.158|||110000438458|88
08.11.2018 00:00:00||AKTİFBANK|10.40.25.158|||110000438458|50
08.11.2018 00:00:00||AKTİFBANK|10.40.25.160|||110000438458|90
08.11.2018 00:00:00||AKTİFBANK|10.40.25.161|||110000438458|80
08.11.2018 00:00:00||AKTİFBANK|10.40.25.161|||110000438458|70
08.11.2018 00:00:00||AKTİFBANK|10.40.25.161|||110000438458|50
08.11.2018 00:00:00||AKTİFBANK|10.40.25.145|||110000438458|90
08.11.2018 00:00:00||AKTİFBANK|10.40.25.145|||110000438458|70
08.11.2018 00:00:00||AKTİFBANK|10.40.25.145|||110000438458|70
08.11.2018 00:00:00||AKTİFBANK|10.40.25.145|||110000438458|30
08.11.2018 00:00:00||AKTİFBANK|10.40.25.145|||110000438458|50
08.11.2018 00:00:00||AKTİFBANK|10.40.25.147|||110000438458|90
08.11.2018 00:00:00||AKTİFBANK|10.40.25.162|||110000438458|30
08.11.2018 00:00:00||AKTİFBANK|10.40.25.162|||110000438458|30
08.11.2018 00:00:00||AKTİFBANK|10.40.25.162|||110000438458|60
08.11.2018 00:00:00||AKTİFBANK|10.40.25.164|||110000438458|60
08.11.2018 00:00:00||AKTİFBANK|10.40.25.164|||110000438458|280
08.11.2018 00:00:00||AKTİFBANK|10.40.25.164|||110000438458|50
08.11.2018 00:00:00||AKTİFBANK|10.40.25.164|||110000438458|263
08.11.2018 00:00:00||AKTİFBANK|10.40.25.164|||110000438458|270
08.11.2018 00:00:00||AKTİFBANK|10.40.25.165|||110000438458|110
08.11.2018 00:00:00||AKTİFBANK|10.40.25.165|||110000438458|70
08.11.2018 00:00:00||AKTİFBANK|10.40.25.165|||110000438458|80
08.11.2018 00:00:00||AKTİFBANK|10.40.25.165|||110000438458|100
08.11.2018 00:00:00||AKTİFBANK|10.40.25.166|||110000438458|90
08.11.2018 00:00:00||AKTİFBANK|10.40.25.166|||110000438458|10
08.11.2018 00:00:00||AKTİFBANK|10.40.25.166|||110000438458|10
08.11.2018 00:00:00||AKTİFBANK|10.40.25.166|||110000438458|40
08.11.2018 00:00:00||AKTİFBANK|10.40.25.148|||110000438458|130
08.11.2018 00:00:00||AKTİFBANK|10.40.25.148|||110000438458|48
08.11.2018 00:00:00||AKTİFBANK|10.40.25.148|||110000438458|102
08.11.2018 00:00:00||AKTİFBANK|10.40.25.148|||110000438458|130
08.11.2018 00:00:00||AKTİFBANK|10.40.25.148|||110000438458|92
08.11.2018 00:00:00||AKTİFBANK|10.40.25.148|||110000438458|90
08.11.2018 00:00:00||AKTİFBANK|10.40.25.148|||110000438458|70
08.11.2018 00:00:00||AKTİFBANK|10.40.25.148|||110000438458|42
08.11.2018 00:00:00||AKTİFBANK|10.40.25.148|||110000438458|85
08.11.2018 00:00:00||AKTİFBANK|10.40.25.148|||110000438458|37
08.11.2018 00:00:00||AKTİFBANK|10.40.25.148|||110000438458|110
08.11.2018 00:00:00||AKTİFBANK|10.40.25.148|||110000438458|62
08.11.2018 00:00:00||AKTİFBANK|10.40.25.155|||110000438458|50
08.11.2018 00:00:00||AKTİFBANK|10.40.25.155|||110000438458|70
08.11.2018 00:00:00||AKTİFBANK|10.40.25.155|||110000438458|92
08.11.2018 00:00:00||AKTİFBANK|10.40.25.155|||110000438458|108
08.11.2018 00:00:00||AKTİFBANK|10.40.25.155|||110000438458|120
08.11.2018 00:00:00||AKTİFBANK|10.40.25.155|||110000438458|107
08.11.2018 00:00:00||AKTİFBANK|10.40.25.156|||110000438458|20
08.11.2018 00:00:00||AKTİFBANK|10.40.25.156|||110000438458|27
08.11.2018 00:00:00||AKTİFBANK|10.40.25.139|||110000438458|77
08.11.2018 00:00:00||AKTİFBANK|10.40.25.139|||110000438458|85
08.11.2018 00:00:00||AKTİFBANK|10.40.25.150|||110000438458|505
08.11.2018 00:00:00||AKTİFBANK|10.40.25.129|||110000438458|60
08.11.2018 00:00:00||AKTİFBANK|10.40.25.129|||110000438458|87
08.11.2018 00:00:00||AKTİFBANK|10.40.25.129|||110000438458|142
08.11.2018 00:00:00||AKTİFBANK|10.40.25.130|||110000438458|68
08.11.2018 00:00:00||AKTİFBANK|10.40.25.130|||110000438458|127
08.11.2018 00:00:00||AKTİFBANK|10.40.25.130|||110000438458|100
08.11.2018 00:00:00||AKTİFBANK|10.40.25.131|||110000438458|42
08.11.2018 00:00:00||AKTİFBANK|10.40.25.143|||110000438458|60
08.11.2018 00:00:00||AKTİFBANK|10.40.25.143|||110000438458|240
08.11.2018 00:00:00||AKTİFBANK|10.40.25.143|||110000438458|268
08.11.2018 00:00:00||AKTİFBANK|10.40.25.158|||110000438458|102
08.11.2018 00:00:00||AKTİFBANK|10.40.25.160|||110000438458|110
08.11.2018 00:00:00||AKTİFBANK|10.40.25.162|||110000438458|32
08.11.2018 00:00:00||AKTİFBANK|10.40.25.162|||110000438458|40
08.11.2018 00:00:00||AKTİFBANK|10.40.24.140|||110000438458|163
08.11.2018 00:00:00||AKTİFBANK|10.40.24.140|||110000438458|80
08.11.2018 00:00:00||AKTİFBANK|10.40.24.140|||110000438458|40
08.11.2018 00:00:00||AKTİFBANK|10.40.24.140|||110000438458|30
08.11.2018 00:00:00||AKTİFBANK|10.40.24.140|||110000438458|30
08.11.2018 00:00:00||AKTİFBANK|10.40.24.140|||110000438458|25
08.11.2018 00:00:00||AKTİFBANK|10.40.24.149|||110000438458|80
08.11.2018 00:00:00||AKTİFBANK|10.40.24.149|||110000438458|120
08.11.2018 00:00:00||AKTİFBANK|10.40.24.149|||110000438458|93
08.11.2018 00:00:00||AKTİFBANK|10.40.24.149|||110000438458|50
08.11.2018 00:00:00||AKTİFBANK|10.40.24.149|||110000438458|53
08.11.2018 00:00:00||AKTİFBANK|10.40.24.149|||110000438458|142
08.11.2018 00:00:00||AKTİFBANK|10.40.24.149|||110000438458|90
08.11.2018 00:00:00||AKTİFBANK|10.40.24.149|||110000438458|90
08.11.2018 00:00:00||AKTİFBANK|10.40.24.149|||110000438458|100
08.11.2018 00:00:00||AKTİFBANK|10.40.24.149|||110000438458|80
08.11.2018 00:00:00||AKTİFBANK|10.40.24.133|||110000438458|150
08.11.2018 00:00:00||AKTİFBANK|10.40.24.133|||110000438458|120
08.11.2018 00:00:00||AKTİFBANK|10.40.24.133|||110000438458|87
08.11.2018 00:00:00||AKTİFBANK|10.40.24.138|||110000438458|112
08.11.2018 00:00:00||AKTİFBANK|10.40.24.138|||110000438458|140
08.11.2018 00:00:00||AKTİFBANK|10.40.24.138|||110000438458|118
08.11.2018 00:00:00||AKTİFBANK|10.40.24.138|||110000438458|30
08.11.2018 00:00:00||AKTİFBANK|10.40.24.138|||110000438458|50
08.11.2018 00:00:00||AKTİFBANK|10.40.24.139|||110000438458|160
08.11.2018 00:00:00||AKTİFBANK|10.40.24.139|||110000438458|93
08.11.2018 00:00:00||AKTİFBANK|10.40.24.139|||110000438458|120
08.11.2018 00:00:00||AKTİFBANK|10.40.24.141|||110000438458|200
08.11.2018 00:00:00||AKTİFBANK|10.40.24.141|||110000438458|102
08.11.2018 00:00:00||AKTİFBANK|10.40.24.141|||110000438458|100
08.11.2018 00:00:00||AKTİFBANK|10.40.24.141|||110000438458|67
08.11.2018 00:00:00||AKTİFBANK|10.40.24.141|||110000438458|80
08.11.2018 00:00:00||AKTİFBANK|10.40.25.152|||110000438458|98
08.11.2018 00:00:00||AKTİFBANK|10.40.25.152|||110000438458|43
08.11.2018 00:00:00||AKTİFBANK|10.40.25.152|||110000438458|113
08.11.2018 00:00:00||AKTİFBANK|10.40.25.152|||110000438458|73
08.11.2018 00:00:00||AKTİFBANK|10.40.25.152|||110000438458|88
08.11.2018 00:00:00||AKTİFBANK|10.40.25.152|||110000438458|35
08.11.2018 00:00:00||AKTİFBANK|10.40.25.152|||110000438458|65
08.11.2018 00:00:00||AKTİFBANK|10.40.25.152|||110000438458|92
08.11.2018 00:00:00||AKTİFBANK|10.40.25.152|||110000438458|30
08.11.2018 00:00:00||AKTİFBANK|10.40.25.152|||110000438458|80
08.11.2018 00:00:00||AKTİFBANK|10.40.25.152|||110000438458|30
08.11.2018 00:00:00||AKTİFBANK|10.40.24.150|||110000438458|552
08.11.2018 00:00:00||AKTİFBANK|10.40.24.151|||110000438458|525
08.11.2018 00:00:00||AKTİFBANK|10.40.24.151|||110000438458|538
08.11.2018 00:00:00||AKTİFBANK|10.40.24.128|||110000438458|60
08.11.2018 00:00:00||AKTİFBANK|10.40.24.128|||110000438458|70
08.11.2018 00:00:00||AKTİFBANK|10.40.24.128|||110000438458|100
08.11.2018 00:00:00||AKTİFBANK|10.40.24.128|||110000438458|40
08.11.2018 00:00:00||AKTİFBANK|10.40.24.128|||110000438458|70
08.11.2018 00:00:00||AKTİFBANK|10.40.24.128|||110000438458|47
08.11.2018 00:00:00||AKTİFBANK|10.40.24.129|||110000438458|100
08.11.2018 00:00:00||AKTİFBANK|10.40.24.129|||110000438458|67
08.11.2018 00:00:00||AKTİFBANK|10.40.24.129|||110000438458|103
08.11.2018 00:00:00||AKTİFBANK|10.40.24.129|||110000438458|115
08.11.2018 00:00:00||AKTİFBANK|10.40.24.129|||110000438458|38
08.11.2018 00:00:00||AKTİFBANK|10.40.24.129|||110000438458|70
08.11.2018 00:00:00||AKTİFBANK|10.40.24.129|||110000438458|70
08.11.2018 00:00:00||AKTİFBANK|10.40.24.129|||110000438458|92
08.11.2018 00:00:00||AKTİFBANK|10.40.24.129|||110000438458|90
08.11.2018 00:00:00||AKTİFBANK|10.40.24.129|||110000438458|140
08.11.2018 00:00:00||AKTİFBANK|10.40.24.130|||110000438458|40
08.11.2018 00:00:00||AKTİFBANK|10.40.24.130|||110000438458|40
08.11.2018 00:00:00||AKTİFBANK|10.40.24.130|||110000438458|63
08.11.2018 00:00:00||AKTİFBANK|10.40.24.130|||110000438458|43
08.11.2018 00:00:00||AKTİFBANK|10.40.24.130|||110000438458|60
08.11.2018 00:00:00||AKTİFBANK|10.40.24.130|||110000438458|77
08.11.2018 00:00:00||AKTİFBANK|10.40.24.130|||110000438458|85
08.11.2018 00:00:00||AKTİFBANK|10.40.24.130|||110000438458|37
08.11.2018 00:00:00||AKTİFBANK|10.40.24.130|||110000438458|130
08.11.2018 00:00:00||AKTİFBANK|10.40.24.130|||110000438458|110
08.11.2018 00:00:00||AKTİFBANK|10.40.24.131|||110000438458|87
08.11.2018 00:00:00||AKTİFBANK|10.40.24.131|||110000438458|88
08.11.2018 00:00:00||AKTİFBANK|10.40.24.131|||110000438458|110
08.11.2018 00:00:00||AKTİFBANK|10.40.24.131|||110000438458|110
08.11.2018 00:00:00||AKTİFBANK|10.40.24.131|||110000438458|20
08.11.2018 00:00:00||AKTİFBANK|10.40.24.131|||110000438458|160
08.11.2018 00:00:00||AKTİFBANK|10.40.24.131|||110000438458|60
08.11.2018 00:00:00||AKTİFBANK|10.40.24.131|||110000438458|110
08.11.2018 00:00:00||AKTİFBANK|10.40.24.132|||110000438458|32
08.11.2018 00:00:00||AKTİFBANK|10.40.24.132|||110000438458|78
08.11.2018 00:00:00||AKTİFBANK|10.40.24.132|||110000438458|50
08.11.2018 00:00:00||AKTİFBANK|10.40.24.132|||110000438458|185
08.11.2018 00:00:00||AKTİFBANK|10.40.24.132|||110000438458|62
08.11.2018 00:00:00||AKTİFBANK|10.40.24.143|||110000438458|70
08.11.2018 00:00:00||AKTİFBANK|10.40.24.143|||110000438458|270
08.11.2018 00:00:00||AKTİFBANK|10.40.24.143|||110000438458|282
08.11.2018 00:00:00||AKTİFBANK|10.40.24.143|||110000438458|222
08.11.2018 00:00:00||AKTİFBANK|10.40.24.144|||110000438458|70
08.11.2018 00:00:00||AKTİFBANK|10.40.24.144|||110000438458|110
08.11.2018 00:00:00||AKTİFBANK|10.40.24.144|||110000438458|130
08.11.2018 00:00:00||AKTİFBANK|10.40.24.148|||110000438458|62
08.11.2018 00:00:00||AKTİFBANK|10.40.24.148|||110000438458|168
08.11.2018 00:00:00||AKTİFBANK|10.40.24.148|||110000438458|80
08.11.2018 00:00:00||AKTİFBANK|10.40.24.148|||110000438458|107
08.11.2018 00:00:00||AKTİFBANK|10.40.24.148|||110000438458|80
08.11.2018 00:00:00||AKTİFBANK|10.40.24.148|||110000438458|88
08.11.2018 00:00:00||AKTİFBANK|10.40.24.148|||110000438458|92
08.11.2018 00:00:00||AKTİFBANK|10.40.24.148|||110000438458|98
08.11.2018 00:00:00||AKTİFBANK|10.40.24.148|||110000438458|73
08.11.2018 00:00:00||AKTİFBANK|10.40.24.148|||110000438458|50
08.11.2018 00:00:00||AKTİFBANK|10.40.24.148|||110000438458|28
08.11.2018 00:00:00||AKTİFBANK|10.40.24.148|||110000438458|72
08.11.2018 00:00:00||AKTİFBANK|10.40.24.153|||110000438458|10
08.11.2018 00:00:00||AKTİFBANK|10.40.24.153|||110000438458|93
08.11.2018 00:00:00||AKTİFBANK|10.40.24.153|||110000438458|70
08.11.2018 00:00:00||AKTİFBANK|10.40.24.153|||110000438458|77
08.11.2018 00:00:00||AKTİFBANK|10.40.24.157|||110000438458|30
08.11.2018 00:00:00||AKTİFBANK|10.40.24.157|||110000438458|80
08.11.2018 00:00:00||AKTİFBANK|10.40.24.157|||110000438458|60
08.11.2018 00:00:00||AKTİFBANK|10.40.24.157|||110000438458|40
08.11.2018 00:00:00||AKTİFBANK|10.40.24.157|||110000438458|80
08.11.2018 00:00:00||AKTİFBANK|10.40.24.157|||110000438458|40
08.11.2018 00:00:00||AKTİFBANK|10.40.24.158|||110000438458|80
08.11.2018 00:00:00||AKTİFBANK|10.40.24.158|||110000438458|110
08.11.2018 00:00:00||AKTİFBANK|10.40.24.159|||110000438458|133
08.11.2018 00:00:00||AKTİFBANK|10.40.24.159|||110000438458|53
08.11.2018 00:00:00||AKTİFBANK|10.40.24.159|||110000438458|182
08.11.2018 00:00:00||AKTİFBANK|10.40.24.160|||110000438458|50
08.11.2018 00:00:00||AKTİFBANK|10.40.24.160|||110000438458|90
08.11.2018 00:00:00||AKTİFBANK|10.40.24.160|||110000438458|102
08.11.2018 00:00:00||AKTİFBANK|10.40.24.161|||110000438458|202
08.11.2018 00:00:00||AKTİFBANK|10.40.24.161|||110000438458|80
08.11.2018 00:00:00||AKTİFBANK|10.40.24.161|||110000438458|40
08.11.2018 00:00:00||AKTİFBANK|10.40.24.161|||110000438458|30
08.11.2018 00:00:00||AKTİFBANK|10.40.24.161|||110000438458|30
08.11.2018 00:00:00||AKTİFBANK|10.40.24.161|||110000438458|20
08.11.2018 00:00:00||AKTİFBANK|10.40.24.161|||110000438458|90
08.11.2018 00:00:00||AKTİFBANK|10.40.24.145|||110000438458|30
08.11.2018 00:00:00||AKTİFBANK|10.40.24.145|||110000438458|70
08.11.2018 00:00:00||AKTİFBANK|10.40.24.145|||110000438458|50
08.11.2018 00:00:00||AKTİFBANK|10.40.24.147|||110000438458|90
08.11.2018 00:00:00||AKTİFBANK|10.40.24.162|||110000438458|40
08.11.2018 00:00:00||AKTİFBANK|10.40.24.162|||110000438458|40
08.11.2018 00:00:00||AKTİFBANK|10.40.24.162|||110000438458|120
08.11.2018 00:00:00||AKTİFBANK|10.40.24.162|||110000438458|10
08.11.2018 00:00:00||AKTİFBANK|10.40.24.162|||110000438458|50
08.11.2018 00:00:00||AKTİFBANK|10.40.24.163|||110000438458|30
08.11.2018 00:00:00||AKTİFBANK|10.40.24.163|||110000438458|70
08.11.2018 00:00:00||AKTİFBANK|10.40.24.164|||110000438458|60
08.11.2018 00:00:00||AKTİFBANK|10.40.24.164|||110000438458|330
08.11.2018 00:00:00||AKTİFBANK|10.40.24.164|||110000438458|213
08.11.2018 00:00:00||AKTİFBANK|10.40.24.165|||110000438458|77
08.11.2018 00:00:00||AKTİFBANK|10.40.24.165|||110000438458|80
08.11.2018 00:00:00||AKTİFBANK|10.40.24.165|||110000438458|50
08.11.2018 00:00:00||AKTİFBANK|10.40.24.165|||110000438458|120
08.11.2018 00:00:00||AKTİFBANK|10.40.24.166|||110000438458|80
08.11.2018 00:00:00||AKTİFBANK|10.40.24.166|||110000438458|90
08.11.2018 00:00:00||AKTİFBANK|10.40.24.166|||110000438458|10
08.11.2018 00:00:00||AKTİFBANK|10.40.25.168|||110000438458|90
08.11.2018 00:00:00||AKTİFBANK|10.40.25.168|||110000438458|70
08.11.2018 00:00:00||AKTİFBANK|10.40.25.168|||110000438458|50
08.11.2018 00:00:00||AKTİFBANK|10.40.25.168|||110000438458|40
08.11.2018 00:00:00||AKTİFBANK|10.40.25.168|||110000438458|60
08.11.2018 00:00:00||AKTİFBANK|10.40.24.168|||110000438458|90
08.11.2018 00:00:00||AKTİFBANK|10.40.24.168|||110000438458|80
08.11.2018 00:00:00||AKTİFBANK|10.40.24.168|||110000438458|70
08.11.2018 00:00:00||AKTİFBANK|10.40.24.168|||110000438458|70
08.11.2018 00:00:00||AKTİFBANK|10.40.24.168|||110000438458|30
08.11.2018 00:00:00||AKTİFBANK|10.40.24.154|||110000438458|70
08.11.2018 00:00:00||AKTİFBANK|10.40.24.154|||110000438458|20
08.11.2018 00:00:00||AKTİFBANK|10.40.24.154|||110000438458|10
08.11.2018 00:00:00||AKTİFBANK|10.40.24.154|||110000438458|10
08.11.2018 00:00:00||AKTİFBANK|10.40.24.154|||110000438458|10
08.11.2018 00:00:00||AKTİFBANK|10.40.24.154|||110000438458|10
08.11.2018 00:00:00||AKTİFBANK|10.40.24.155|||110000438458|55
08.11.2018 00:00:00||AKTİFBANK|10.40.24.155|||110000438458|100
08.11.2018 00:00:00||AKTİFBANK|10.40.24.155|||110000438458|130
08.11.2018 00:00:00||AKTİFBANK|10.40.24.155|||110000438458|80
08.11.2018 00:00:00||AKTİFBANK|10.40.24.155|||110000438458|113
08.11.2018 00:00:00||AKTİFBANK|10.40.24.155|||110000438458|100
08.11.2018 00:00:00||AKTİFBANK|10.40.25.169|||110000438458|92
08.11.2018 00:00:00||AKTİFBANK|10.40.25.169|||110000438458|93
08.11.2018 00:00:00||AKTİFBANK|10.40.25.169|||110000438458|70
08.11.2018 00:00:00||AKTİFBANK|10.40.25.169|||110000438458|85
08.11.2018 00:00:00||AKTİFBANK|10.40.24.169|||110000438458|75
08.11.2018 00:00:00||AKTİFBANK|10.40.24.169|||110000438458|90
08.11.2018 00:00:00||AKTİFBANK|10.40.24.169|||110000438458|67
08.11.2018 00:00:00||AKTİFBANK|10.40.24.169|||110000438458|80
08.11.2018 00:00:00||AKTİFBANK|10.40.25.170|||110000438458|30
08.11.2018 00:00:00||AKTİFBANK|10.40.25.170|||110000438458|30
08.11.2018 00:00:00||AKTİFBANK|10.40.25.170|||110000438458|102
08.11.2018 00:00:00||AKTİFBANK|10.40.25.170|||110000438458|83
08.11.2018 00:00:00||AKTİFBANK|10.40.25.170|||110000438458|102
08.11.2018 00:00:00||AKTİFBANK|10.40.24.170|||110000438458|60
08.11.2018 00:00:00||AKTİFBANK|10.40.24.170|||110000438458|60
08.11.2018 00:00:00||AKTİFBANK|10.40.24.170|||110000438458|350
08.11.2018 00:00:00||AKTİFBANK|10.40.24.170|||110000438458|262
08.11.2018 00:00:00||AKTİFBANK|10.40.24.170|||110000438458|82
08.11.2018 00:00:00||AKTİFBANK|10.40.24.170|||110000438458|100
08.11.2018 00:00:00||AKTİFBANK|10.40.24.170|||110000438458|73
08.11.2018 00:00:00||AKTİFBANK|10.40.25.178|||110000438458|557
08.11.2018 00:00:00||AKTİFBANK|10.40.25.178|||110000438458|560
08.11.2018 00:00:00||AKTİFBANK|10.40.25.178|||110000438458|557
08.11.2018 00:00:00||AKTİFBANK|10.40.24.178|||110000438458|557
08.11.2018 00:00:00||AKTİFBANK|10.40.24.178|||110000438458|547
08.11.2018 00:00:00||AKTİFBANK|10.40.24.178|||110000438458|543
08.11.2018 00:00:00||AKTİFBANK|10.40.25.179|||110000438458|405
08.11.2018 00:00:00||AKTİFBANK|10.40.25.179|||110000438458|375
08.11.2018 00:00:00||AKTİFBANK|10.40.25.179|||110000438458|373
08.11.2018 00:00:00||AKTİFBANK|10.40.24.179|||110000438458|337
08.11.2018 00:00:00||AKTİFBANK|10.40.24.179|||110000438458|328
08.11.2018 00:00:00||AKTİFBANK|10.40.24.179|||110000438458|328
08.11.2018 00:00:00||AKTİFBANK|10.40.24.142|||110000438458|40
08.11.2018 00:00:00||AKTİFBANK|10.40.24.156|||110000438458|50
08.11.2018 00:00:00||AKTİFBANK|10.40.24.156|||110000438458|50
08.11.2018 00:00:00||AKTİFBANK|10.40.25.186|||110000438458|90
08.11.2018 00:00:00||AKTİFBANK|10.40.25.186|||110000438458|20
08.11.2018 00:00:00||AKTİFBANK|10.40.25.186|||110000438458|70
08.11.2018 00:00:00||AKTİFBANK|10.40.24.186|||110000438458|90
08.11.2018 00:00:00||AKTİFBANK|10.40.24.186|||110000438458|30
08.11.2018 00:00:00||AKTİFBANK|10.40.24.186|||110000438458|60
08.11.2018 00:00:00||AKTİFBANK|10.40.24.186|||110000438458|40
08.11.2018 00:00:00||AKTİFBANK|10.40.24.152|||110000438458|10
08.11.2018 00:00:00||AKTİFBANK|10.40.24.152|||110000438458|50
08.11.2018 00:00:00||AKTİFBANK|10.40.24.152|||110000438458|85
08.11.2018 00:00:00||AKTİFBANK|10.40.24.152|||110000438458|102
08.11.2018 00:00:00||AKTİFBANK|10.40.24.152|||110000438458|97
08.11.2018 00:00:00||AKTİFBANK|10.40.24.152|||110000438458|100
08.11.2018 00:00:00||AKTİFBANK|10.40.24.152|||110000438458|360
08.11.2018 00:00:00||AKTİFBANK|10.40.24.152|||110000438458|75
08.11.2018 00:00:00||AKTİFBANK|10.40.24.152|||110000438458|93
08.11.2018 00:00:00||AKTİFBANK|10.40.24.152|||110000438458|30
08.11.2018 00:00:00||AKTİFBANK|10.40.24.152|||110000438458|73
08.11.2018 00:00:00||AKTİFBANK|10.40.24.152|||110000438458|30
08.11.2018 00:00:00||AKTİFBANK|10.40.25.140|||110000438458|30
08.11.2018 00:00:00||AKTİFBANK|10.40.24.141|||110000438458|50
08.11.2018 00:00:00||AKTİFBANK|10.40.25.133|||110000438458|92
08.11.2018 00:00:00||AKTİFBANK|10.40.25.133|||110000438458|150
08.11.2018 00:00:00||AKTİFBANK|10.40.25.138|||110000438458|130
08.11.2018 00:00:00||AKTİFBANK|10.40.25.138|||110000438458|72
08.11.2018 00:00:00||AKTİFBANK|10.40.25.139|||110000438458|107
08.11.2018 00:00:00||AKTİFBANK|10.40.25.138|||110000438458|10
08.11.2018 00:00:00||AKTİFBANK|10.40.24.149|||110000438458|110
08.11.2018 00:00:00||AKTİFBANK|10.40.24.150|||110000438458|543
08.11.2018 00:00:00||AKTİFBANK|10.40.25.149|||110000438458|100
08.11.2018 00:00:00||AKTİFBANK|10.40.25.149|||110000438458|90
08.11.2018 00:00:00||AKTİFBANK|10.40.25.149|||110000438458|90
08.11.2018 00:00:00||AKTİFBANK|10.40.24.151|||110000438458|522
08.11.2018 00:00:00||AKTİFBANK|10.40.25.153|||110000438458|80
08.11.2018 00:00:00||AKTİFBANK|10.40.24.149|||110000438458|83
08.11.2018 00:00:00||AKTİFBANK|10.40.24.149|||110000438458|90
08.11.2018 00:00:00||AKTİFBANK|10.40.25.149|||110000438458|72
08.11.2018 00:00:00||AKTİFBANK|10.40.25.149|||110000438458|70
08.11.2018 00:00:00||AKTİFBANK|10.40.25.149|||110000438458|130
08.11.2018 00:00:00||AKTİFBANK|10.40.24.145|||110000438458|70
08.11.2018 00:00:00||AKTİFBANK|10.40.24.149|||110000438458|160
08.11.2018 00:00:00||AKTİFBANK|10.40.25.153|||110000438458|62
08.11.2018 00:00:00||AKTİFBANK|10.40.24.150|||110000438458|545
08.11.2018 00:00:00||AKTİFBANK|10.40.24.162|||110000438458|210
08.11.2018 00:00:00||AKTİFBANK|10.40.24.162|||110000438458|30
08.11.2018 00:00:00||AKTİFBANK|10.40.24.162|||110000438458|40
08.11.2018 00:00:00||AKTİFBANK|10.40.24.133|||110000438458|77
08.11.2018 00:00:00||BARİKAT İNTERNET GÜVENLİĞİ|10.40.25.201|||110000479736|112
08.11.2018 00:00:00||BARİKAT İNTERNET GÜVENLİĞİ|10.40.25.201|||110000479736|100
08.11.2018 00:00:00||BARİKAT İNTERNET GÜVENLİĞİ|10.40.24.201|||110000479736|135
08.11.2018 00:00:00||BARİKAT İNTERNET GÜVENLİĞİ|10.40.24.201|||110000479736|90
08.11.2018 00:00:00||BOYNER|10.40.26.100|||101367941673|57
08.11.2018 00:00:00||BOYNER|10.40.26.101|||101367941673|177
08.11.2018 00:00:00||BOYNER|10.40.27.100|||101367941673|54
08.11.2018 00:00:00||BOYNER|10.40.27.101|||101367941673|184
08.11.2018 00:00:00||BOYNER|10.40.27.94|||101367941673|152
08.11.2018 00:00:00||BOYNER|10.40.27.94|||101367941673|152
08.11.2018 00:00:00||BOYNER|10.40.27.94|||101367941673|215
08.11.2018 00:00:00||BOYNER|10.40.27.94|||101367941673|90
08.11.2018 00:00:00||BOYNER|10.40.27.94|||101367941673|97
08.11.2018 00:00:00||BOYNER|10.40.27.94|||101367941673|100
08.11.2018 00:00:00||BOYNER|10.40.26.94|||101367941673|142
08.11.2018 00:00:00||BOYNER|10.40.26.94|||101367941673|155
08.11.2018 00:00:00||BOYNER|10.40.26.94|||101367941673|180
08.11.2018 00:00:00||BOYNER|10.40.26.94|||101367941673|80
08.11.2018 00:00:00||BOYNER|10.40.26.94|||101367941673|72
08.11.2018 00:00:00||BOYNER|10.40.26.94|||101367941673|70
08.11.2018 00:00:00||BOYNER|10.40.27.95|||101367941673|138
08.11.2018 00:00:00||BOYNER|10.40.27.95|||101367941673|130
08.11.2018 00:00:00||BOYNER|10.40.27.95|||101367941673|238
08.11.2018 00:00:00||BOYNER|10.40.26.95|||101367941673|135
08.11.2018 00:00:00||BOYNER|10.40.26.95|||101367941673|203
08.11.2018 00:00:00||BOYNER|10.40.26.95|||101367941673|140
08.11.2018 00:00:00||BOYNER|10.40.27.96|||101367941673|60
08.11.2018 00:00:00||BOYNER|10.40.27.96|||101367941673|50
08.11.2018 00:00:00||BOYNER|10.40.27.96|||101367941673|50
08.11.2018 00:00:00||BOYNER|10.40.27.96|||101367941673|40
08.11.2018 00:00:00||BOYNER|10.40.27.96|||101367941673|40
08.11.2018 00:00:00||BOYNER|10.40.27.96|||101367941673|155
08.11.2018 00:00:00||BOYNER|10.40.27.96|||101367941673|155
08.11.2018 00:00:00||BOYNER|10.40.27.96|||101367941673|178
08.11.2018 00:00:00||BOYNER|10.40.27.96|||101367941673|170
08.11.2018 00:00:00||BOYNER|10.40.26.96|||101367941673|30
08.11.2018 00:00:00||BOYNER|10.40.26.96|||101367941673|40
08.11.2018 00:00:00||BOYNER|10.40.26.96|||101367941673|30
08.11.2018 00:00:00||BOYNER|10.40.26.96|||101367941673|40
08.11.2018 00:00:00||BOYNER|10.40.26.96|||101367941673|40
08.11.2018 00:00:00||BOYNER|10.40.26.96|||101367941673|50
08.11.2018 00:00:00||BOYNER|10.40.26.96|||101367941673|195
08.11.2018 00:00:00||BOYNER|10.40.26.96|||101367941673|203
08.11.2018 00:00:00||BOYNER|10.40.26.96|||101367941673|170
08.11.2018 00:00:00||BOYNER|10.40.26.96|||101367941673|182
08.11.2018 00:00:00||BOYNER|10.40.27.97|||101367941673|60
08.11.2018 00:00:00||BOYNER|10.40.27.97|||101367941673|678
08.11.2018 00:00:00||BOYNER|10.40.27.97|||101367941673|683
08.11.2018 00:00:00||BOYNER|10.40.27.97|||101367941673|717
08.11.2018 00:00:00||BOYNER|10.40.27.97|||101367941673|40
08.11.2018 00:00:00||BOYNER|10.40.27.97|||101367941673|30
08.11.2018 00:00:00||BOYNER|10.40.27.97|||101367941673|52
08.11.2018 00:00:00||BOYNER|10.40.27.97|||101367941673|30
08.11.2018 00:00:00||BOYNER|10.40.27.97|||101367941673|182
08.11.2018 00:00:00||BOYNER|10.40.27.97|||101367941673|182
08.11.2018 00:00:00||BOYNER|10.40.27.97|||101367941673|190
08.11.2018 00:00:00||BOYNER|10.40.27.97|||101367941673|202
08.11.2018 00:00:00||BOYNER|10.40.26.97|||101367941673|30
08.11.2018 00:00:00||BOYNER|10.40.26.97|||101367941673|680
08.11.2018 00:00:00||BOYNER|10.40.26.97|||101367941673|673
08.11.2018 00:00:00||BOYNER|10.40.26.97|||101367941673|680
08.11.2018 00:00:00||BOYNER|10.40.26.97|||101367941673|37
08.11.2018 00:00:00||BOYNER|10.40.26.97|||101367941673|40
08.11.2018 00:00:00||BOYNER|10.40.26.97|||101367941673|50
08.11.2018 00:00:00||BOYNER|10.40.26.97|||101367941673|60
08.11.2018 00:00:00||BOYNER|10.40.26.97|||101367941673|30
08.11.2018 00:00:00||BOYNER|10.40.26.97|||101367941673|172
08.11.2018 00:00:00||BOYNER|10.40.26.97|||101367941673|182
08.11.2018 00:00:00||BOYNER|10.40.26.97|||101367941673|177
08.11.2018 00:00:00||BOYNER|10.40.26.97|||101367941673|160
08.11.2018 00:00:00||BOYNER|10.40.27.99|||101367941673|132
08.11.2018 00:00:00||BOYNER|10.40.27.99|||101367941673|87
08.11.2018 00:00:00||BOYNER|10.40.27.99|||101367941673|82
08.11.2018 00:00:00||BOYNER|10.40.26.99|||101367941673|13
08.11.2018 00:00:00||BOYNER|10.40.26.99|||101367941673|110
08.11.2018 00:00:00||BOYNER|10.40.26.99|||101367941673|107
08.11.2018 00:00:00||BOYNER|10.40.26.99|||101367941673|80
08.11.2018 00:00:00||ÇALIK HOLDİNG|10.40.24.118|||110000438407|37
08.11.2018 00:00:00||ÇALIK HOLDİNG|10.40.25.118|||110000438407|133
08.11.2018 00:00:00||ÇALIK HOLDİNG|10.40.25.99|||110000438407|138
08.11.2018 00:00:00||ÇALIK HOLDİNG|10.40.25.120|||110000438407|90
08.11.2018 00:00:00||ÇALIK HOLDİNG|10.40.25.97|||110000438407|80
08.11.2018 00:00:00||ÇALIK HOLDİNG|10.40.25.96|||110000438407|70
08.11.2018 00:00:00||ÇALIK HOLDİNG|10.40.25.96|||110000438407|90
08.11.2018 00:00:00||ÇALIK HOLDİNG|10.40.25.96|||110000438407|120
08.11.2018 00:00:00||ÇALIK HOLDİNG|10.40.25.96|||110000438407|90
08.11.2018 00:00:00||ÇALIK HOLDİNG|10.40.25.95|||110000438407|97
08.11.2018 00:00:00||ÇALIK HOLDİNG|10.40.25.95|||110000438407|52
08.11.2018 00:00:00||ÇALIK HOLDİNG|10.40.24.94|||110000438407|192
08.11.2018 00:00:00||ÇALIK HOLDİNG|10.40.25.97|||110000438407|105
08.11.2018 00:00:00||ÇALIK HOLDİNG|10.40.25.115|||110000438407|82
08.11.2018 00:00:00||ÇALIK HOLDİNG|10.40.25.115|||110000438407|70
08.11.2018 00:00:00||ÇALIK HOLDİNG|10.40.25.115|||110000438407|68
08.11.2018 00:00:00||ÇALIK HOLDİNG|10.40.24.95|||110000438407|48
08.11.2018 00:00:00||ÇALIK HOLDİNG|10.40.25.120|||110000438407|43
08.11.2018 00:00:00||ÇALIK HOLDİNG|10.40.25.96|||110000438407|90
08.11.2018 00:00:00||ÇALIK HOLDİNG|10.40.25.96|||110000438407|100
08.11.2018 00:00:00||ÇALIK HOLDİNG|10.40.25.101|||110000438407|50
08.11.2018 00:00:00||ÇALIK HOLDİNG|10.40.25.101|||110000438407|110
08.11.2018 00:00:00||ÇALIK HOLDİNG|10.40.25.101|||110000438407|30
08.11.2018 00:00:00||ÇALIK HOLDİNG|10.40.25.101|||110000438407|10
08.11.2018 00:00:00||ÇALIK HOLDİNG|10.40.25.101|||110000438407|80
08.11.2018 00:00:00||ÇALIK HOLDİNG|10.40.25.101|||110000438407|38
08.11.2018 00:00:00||ÇALIK HOLDİNG|10.40.25.101|||110000438407|40
08.11.2018 00:00:00||ÇALIK HOLDİNG|10.40.25.101|||110000438407|90
08.11.2018 00:00:00||ÇALIK HOLDİNG|10.40.25.101|||110000438407|90
08.11.2018 00:00:00||ÇALIK HOLDİNG|10.40.25.101|||110000438407|100
08.11.2018 00:00:00||ÇALIK HOLDİNG|10.40.25.94|||110000438407|175
08.11.2018 00:00:00||ÇALIK HOLDİNG|10.40.25.94|||110000438407|175
08.11.2018 00:00:00||ÇALIK HOLDİNG|10.40.25.94|||110000438407|178
08.11.2018 00:00:00||ÇALIK HOLDİNG|10.40.25.94|||110000438407|173
08.11.2018 00:00:00||ÇALIK HOLDİNG|10.40.24.94|||110000438407|193
08.11.2018 00:00:00||ÇALIK HOLDİNG|10.40.24.94|||110000438407|187
08.11.2018 00:00:00||ÇALIK HOLDİNG|10.40.24.94|||110000438407|193
08.11.2018 00:00:00||ÇALIK HOLDİNG|10.40.25.95|||110000438407|20
08.11.2018 00:00:00||ÇALIK HOLDİNG|10.40.25.95|||110000438407|343
08.11.2018 00:00:00||ÇALIK HOLDİNG|10.40.25.95|||110000438407|355
08.11.2018 00:00:00||ÇALIK HOLDİNG|10.40.25.95|||110000438407|40
08.11.2018 00:00:00||ÇALIK HOLDİNG|10.40.24.95|||110000438407|102
08.11.2018 00:00:00||ÇALIK HOLDİNG|10.40.24.95|||110000438407|87
08.11.2018 00:00:00||ÇALIK HOLDİNG|10.40.24.95|||110000438407|402
08.11.2018 00:00:00||ÇALIK HOLDİNG|10.40.24.95|||110000438407|385
08.11.2018 00:00:00||ÇALIK HOLDİNG|10.40.25.96|||110000438407|90
08.11.2018 00:00:00||ÇALIK HOLDİNG|10.40.25.96|||110000438407|100
08.11.2018 00:00:00||ÇALIK HOLDİNG|10.40.25.96|||110000438407|100
08.11.2018 00:00:00||ÇALIK HOLDİNG|10.40.25.96|||110000438407|255
08.11.2018 00:00:00||ÇALIK HOLDİNG|10.40.25.96|||110000438407|260
08.11.2018 00:00:00||ÇALIK HOLDİNG|10.40.25.96|||110000438407|100
08.11.2018 00:00:00||ÇALIK HOLDİNG|10.40.25.96|||110000438407|90
08.11.2018 00:00:00||ÇALIK HOLDİNG|10.40.25.96|||110000438407|90
08.11.2018 00:00:00||ÇALIK HOLDİNG|10.40.25.97|||110000438407|90
08.11.2018 00:00:00||ÇALIK HOLDİNG|10.40.25.97|||110000438407|80
08.11.2018 00:00:00||ÇALIK HOLDİNG|10.40.25.97|||110000438407|295
08.11.2018 00:00:00||ÇALIK HOLDİNG|10.40.25.98|||110000438407|50
08.11.2018 00:00:00||ÇALIK HOLDİNG|10.40.25.98|||110000438407|163
08.11.2018 00:00:00||ÇALIK HOLDİNG|10.40.25.98|||110000438407|158
08.11.2018 00:00:00||ÇALIK HOLDİNG|10.40.25.98|||110000438407|167
08.11.2018 00:00:00||ÇALIK HOLDİNG|10.40.25.98|||110000438407|172
08.11.2018 00:00:00||ÇALIK HOLDİNG|10.40.25.98|||110000438407|60
08.11.2018 00:00:00||ÇALIK HOLDİNG|10.40.25.98|||110000438407|210
08.11.2018 00:00:00||ÇALIK HOLDİNG|10.40.25.98|||110000438407|180
08.11.2018 00:00:00||ÇALIK HOLDİNG|10.40.25.98|||110000438407|170
08.11.2018 00:00:00||ÇALIK HOLDİNG|10.40.25.98|||110000438407|210
08.11.2018 00:00:00||ÇALIK HOLDİNG|10.40.25.98|||110000438407|70
08.11.2018 00:00:00||ÇALIK HOLDİNG|10.40.25.98|||110000438407|318
08.11.2018 00:00:00||ÇALIK HOLDİNG|10.40.24.98|||110000438407|90
08.11.2018 00:00:00||ÇALIK HOLDİNG|10.40.24.98|||110000438407|153
08.11.2018 00:00:00||ÇALIK HOLDİNG|10.40.24.98|||110000438407|200
08.11.2018 00:00:00||ÇALIK HOLDİNG|10.40.24.98|||110000438407|202
08.11.2018 00:00:00||ÇALIK HOLDİNG|10.40.24.98|||110000438407|160
08.11.2018 00:00:00||ÇALIK HOLDİNG|10.40.24.98|||110000438407|30
08.11.2018 00:00:00||ÇALIK HOLDİNG|10.40.24.98|||110000438407|165
08.11.2018 00:00:00||ÇALIK HOLDİNG|10.40.24.98|||110000438407|180
08.11.2018 00:00:00||ÇALIK HOLDİNG|10.40.24.98|||110000438407|170
08.11.2018 00:00:00||ÇALIK HOLDİNG|10.40.24.98|||110000438407|170
08.11.2018 00:00:00||ÇALIK HOLDİNG|10.40.24.98|||110000438407|20
08.11.2018 00:00:00||ÇALIK HOLDİNG|10.40.24.98|||110000438407|283
08.11.2018 00:00:00||ÇALIK HOLDİNG|10.40.25.100|||110000438407|33
08.11.2018 00:00:00||ÇALIK HOLDİNG|10.40.25.100|||110000438407|40
08.11.2018 00:00:00||ÇALIK HOLDİNG|10.40.24.101|||110000438407|60
08.11.2018 00:00:00||ÇALIK HOLDİNG|10.40.24.101|||110000438407|110
08.11.2018 00:00:00||ÇALIK HOLDİNG|10.40.24.101|||110000438407|20
08.11.2018 00:00:00||ÇALIK HOLDİNG|10.40.24.101|||110000438407|20
08.11.2018 00:00:00||ÇALIK HOLDİNG|10.40.24.101|||110000438407|40
08.11.2018 00:00:00||ÇALIK HOLDİNG|10.40.24.101|||110000438407|80
08.11.2018 00:00:00||ÇALIK HOLDİNG|10.40.24.101|||110000438407|30
08.11.2018 00:00:00||ÇALIK HOLDİNG|10.40.24.101|||110000438407|10
08.11.2018 00:00:00||ÇALIK HOLDİNG|10.40.24.101|||110000438407|20
08.11.2018 00:00:00||ÇALIK HOLDİNG|10.40.24.101|||110000438407|50
08.11.2018 00:00:00||ÇALIK HOLDİNG|10.40.24.101|||110000438407|30
08.11.2018 00:00:00||ÇALIK HOLDİNG|10.40.24.101|||110000438407|80
08.11.2018 00:00:00||ÇALIK HOLDİNG|10.40.24.101|||110000438407|80
08.11.2018 00:00:00||ÇALIK HOLDİNG|10.40.24.101|||110000438407|90
08.11.2018 00:00:00||ÇALIK HOLDİNG|10.40.25.102|||110000438407|100
08.11.2018 00:00:00||ÇALIK HOLDİNG|10.40.25.102|||110000438407|90
08.11.2018 00:00:00||ÇALIK HOLDİNG|10.40.25.102|||110000438407|150
08.11.2018 00:00:00||ÇALIK HOLDİNG|10.40.24.102|||110000438407|100
08.11.2018 00:00:00||ÇALIK HOLDİNG|10.40.24.102|||110000438407|90
08.11.2018 00:00:00||ÇALIK HOLDİNG|10.40.24.102|||110000438407|140
08.11.2018 00:00:00||ÇALIK HOLDİNG|10.40.25.103|||110000438407|90
08.11.2018 00:00:00||ÇALIK HOLDİNG|10.40.25.103|||110000438407|80
08.11.2018 00:00:00||ÇALIK HOLDİNG|10.40.25.103|||110000438407|10
08.11.2018 00:00:00||ÇALIK HOLDİNG|10.40.25.115|||110000438407|90
08.11.2018 00:00:00||ÇALIK HOLDİNG|10.40.24.103|||110000438407|98
08.11.2018 00:00:00||ÇALIK HOLDİNG|10.40.24.103|||110000438407|80
08.11.2018 00:00:00||ÇALIK HOLDİNG|10.40.24.103|||110000438407|80
08.11.2018 00:00:00||ÇALIK HOLDİNG|10.40.24.103|||110000438407|20
08.11.2018 00:00:00||ÇALIK HOLDİNG|10.40.24.103|||110000438407|10
08.11.2018 00:00:00||ÇALIK HOLDİNG|10.40.25.113|||110000438407|227
08.11.2018 00:00:00||ÇALIK HOLDİNG|10.40.25.113|||110000438407|243
08.11.2018 00:00:00||ÇALIK HOLDİNG|10.40.25.113|||110000438407|193
08.11.2018 00:00:00||ÇALIK HOLDİNG|10.40.25.113|||110000438407|202
08.11.2018 00:00:00||ÇALIK HOLDİNG|10.40.24.113|||110000438407|230
08.11.2018 00:00:00||ÇALIK HOLDİNG|10.40.24.113|||110000438407|225
08.11.2018 00:00:00||ÇALIK HOLDİNG|10.40.24.113|||110000438407|195
08.11.2018 00:00:00||ÇALIK HOLDİNG|10.40.24.113|||110000438407|167
08.11.2018 00:00:00||ÇALIK HOLDİNG|10.40.25.114|||110000438407|172
08.11.2018 00:00:00||ÇALIK HOLDİNG|10.40.25.114|||110000438407|418
08.11.2018 00:00:00||ÇALIK HOLDİNG|10.40.25.114|||110000438407|40
08.11.2018 00:00:00||ÇALIK HOLDİNG|10.40.24.114|||110000438407|20
08.11.2018 00:00:00||ÇALIK HOLDİNG|10.40.24.114|||110000438407|40
08.11.2018 00:00:00||ÇALIK HOLDİNG|10.40.24.114|||110000438407|133
08.11.2018 00:00:00||ÇALIK HOLDİNG|10.40.24.114|||110000438407|380
08.11.2018 00:00:00||ÇALIK HOLDİNG|10.40.24.115|||110000438407|153
08.11.2018 00:00:00||ÇALIK HOLDİNG|10.40.24.115|||110000438407|80
08.11.2018 00:00:00||ÇALIK HOLDİNG|10.40.24.115|||110000438407|90
08.11.2018 00:00:00||ÇALIK HOLDİNG|10.40.24.115|||110000438407|72
08.11.2018 00:00:00||ÇALIK HOLDİNG|10.40.24.115|||110000438407|85
08.11.2018 00:00:00||ÇALIK HOLDİNG|10.40.24.115|||110000438407|72
08.11.2018 00:00:00||ÇALIK HOLDİNG|10.40.25.116|||110000438407|105
08.11.2018 00:00:00||ÇALIK HOLDİNG|10.40.25.116|||110000438407|103
08.11.2018 00:00:00||ÇALIK HOLDİNG|10.40.25.116|||110000438407|305
08.11.2018 00:00:00||ÇALIK HOLDİNG|10.40.24.116|||110000438407|297
08.11.2018 00:00:00||ÇALIK HOLDİNG|10.40.24.116|||110000438407|103
08.11.2018 00:00:00||ÇALIK HOLDİNG|10.40.24.116|||110000438407|102
08.11.2018 00:00:00||ÇALIK HOLDİNG|10.40.25.117|||110000438407|250
08.11.2018 00:00:00||ÇALIK HOLDİNG|10.40.25.117|||110000438407|30
08.11.2018 00:00:00||ÇALIK HOLDİNG|10.40.25.117|||110000438407|25
08.11.2018 00:00:00||ÇALIK HOLDİNG|10.40.25.119|||110000438407|30
08.11.2018 00:00:00||ÇALIK HOLDİNG|10.40.25.119|||110000438407|30
08.11.2018 00:00:00||ÇALIK HOLDİNG|10.40.24.119|||110000438407|150
08.11.2018 00:00:00||ÇALIK HOLDİNG|10.40.24.119|||110000438407|30
08.11.2018 00:00:00||ÇALIK HOLDİNG|10.40.24.119|||110000438407|50
08.11.2018 00:00:00||ÇALIK HOLDİNG|10.40.25.120|||110000438407|107
08.11.2018 00:00:00||ÇALIK HOLDİNG|10.40.25.120|||110000438407|50
08.11.2018 00:00:00||ÇALIK HOLDİNG|10.40.25.120|||110000438407|20
08.11.2018 00:00:00||ÇALIK HOLDİNG|10.40.25.120|||110000438407|22
08.11.2018 00:00:00||ÇALIK HOLDİNG|10.40.25.120|||110000438407|30
08.11.2018 00:00:00||ÇALIK HOLDİNG|10.40.25.120|||110000438407|88
08.11.2018 00:00:00||ÇALIK HOLDİNG|10.40.25.120|||110000438407|90
08.11.2018 00:00:00||ÇALIK HOLDİNG|10.40.24.120|||110000438407|20
08.11.2018 00:00:00||ÇALIK HOLDİNG|10.40.24.120|||110000438407|33
08.11.2018 00:00:00||ÇALIK HOLDİNG|10.40.24.120|||110000438407|110
08.11.2018 00:00:00||ÇALIK HOLDİNG|10.40.24.120|||110000438407|100
08.11.2018 00:00:00||ÇALIK HOLDİNG|10.40.24.120|||110000438407|40
08.11.2018 00:00:00||ÇALIK HOLDİNG|10.40.24.120|||110000438407|80
08.11.2018 00:00:00||ÇALIK HOLDİNG|10.40.24.120|||110000438407|80
08.11.2018 00:00:00||ÇALIK HOLDİNG|10.40.24.120|||110000438407|70
08.11.2018 00:00:00||ÇALIK HOLDİNG|10.40.25.121|||110000438407|90
08.11.2018 00:00:00||ÇALIK HOLDİNG|10.40.25.121|||110000438407|100
08.11.2018 00:00:00||ÇALIK HOLDİNG|10.40.25.121|||110000438407|150
08.11.2018 00:00:00||ÇALIK HOLDİNG|10.40.24.121|||110000438407|100
08.11.2018 00:00:00||ÇALIK HOLDİNG|10.40.24.121|||110000438407|100
08.11.2018 00:00:00||ÇALIK HOLDİNG|10.40.24.121|||110000438407|140
08.11.2018 00:00:00||ÇALIK HOLDİNG|10.40.25.122|||110000438407|90
08.11.2018 00:00:00||ÇALIK HOLDİNG|10.40.25.122|||110000438407|80
08.11.2018 00:00:00||ÇALIK HOLDİNG|10.40.25.122|||110000438407|80
08.11.2018 00:00:00||ÇALIK HOLDİNG|10.40.25.122|||110000438407|30
08.11.2018 00:00:00||ÇALIK HOLDİNG|10.40.25.122|||110000438407|10
08.11.2018 00:00:00||ÇALIK HOLDİNG|10.40.24.122|||110000438407|90
08.11.2018 00:00:00||ÇALIK HOLDİNG|10.40.24.122|||110000438407|80
08.11.2018 00:00:00||ÇALIK HOLDİNG|10.40.24.122|||110000438407|88
08.11.2018 00:00:00||ÇALIK HOLDİNG|10.40.24.117|||110000438407|200
08.11.2018 00:00:00||ÇALIK HOLDİNG|10.40.24.117|||110000438407|30
08.11.2018 00:00:00||ÇALIK HOLDİNG|10.40.24.117|||110000438407|30
08.11.2018 00:00:00||ÇALIK HOLDİNG|10.40.24.97|||110000438407|102
08.11.2018 00:00:00||ÇALIK HOLDİNG|10.40.24.97|||110000438407|90
08.11.2018 00:00:00||ÇALIK HOLDİNG|10.40.24.97|||110000438407|80
08.11.2018 00:00:00||ÇALIK HOLDİNG|10.40.24.97|||110000438407|90
08.11.2018 00:00:00||ÇALIK HOLDİNG|10.40.24.97|||110000438407|313
08.11.2018 00:00:00||ÇALIK HOLDİNG|10.40.24.100|||110000438407|30
08.11.2018 00:00:00||ÇALIK HOLDİNG|10.40.24.100|||110000438407|40
08.11.2018 00:00:00||ÇALIK HOLDİNG|10.40.25.103|||110000438407|90
08.11.2018 00:00:00||ÇALIK HOLDİNG|10.40.25.115|||110000438407|163
08.11.2018 00:00:00||ÇALIK HOLDİNG|10.40.25.115|||110000438407|72
08.11.2018 00:00:00||ÇALIK HOLDİNG|10.40.25.120|||110000438407|20
08.11.2018 00:00:00||ÇALIK HOLDİNG|10.40.25.120|||110000438407|60
08.11.2018 00:00:00||FIBABANKA|10.40.26.54|||101571767266|315
08.11.2018 00:00:00||FIBABANKA|10.40.26.55|||101571767266|104
08.11.2018 00:00:00||FIBABANKA|10.40.25.56|||101571767266|99
08.11.2018 00:00:00||FIBABANKA|10.40.27.54|||101571767266|309
08.11.2018 00:00:00||FIBABANKA|10.40.27.55|||101571767266|104
08.11.2018 00:00:00||FIBABANKA|10.40.24.55|||101571767266|111
08.11.2018 00:00:00||FIBABANKA|10.40.25.54|||101571767266|330
08.11.2018 00:00:00||FIBABANKA|10.40.24.54|||101571767266|316
08.11.2018 00:00:00||FIBABANKA|10.40.25.55|||101571767266|113
08.11.2018 00:00:00||FIBABANKA|10.40.24.56|||101571767266|198
08.11.2018 00:00:00||FIBABANKA|10.40.26.51|||101571767266|20
08.11.2018 00:00:00||FIBABANKA|10.40.27.52|||101571767266|50
08.11.2018 00:00:00||FIBABANKA|10.40.27.52|||101571767266|60
08.11.2018 00:00:00||FIBABANKA|10.40.27.52|||101571767266|70
08.11.2018 00:00:00||FIBABANKA|10.40.27.53|||101571767266|60
08.11.2018 00:00:00||FIBABANKA|10.40.26.53|||101571767266|70
08.11.2018 00:00:00||FIBABANKA|10.40.26.53|||101571767266|60
08.11.2018 00:00:00||FIBABANKA|10.40.27.57|||101571767266|80
08.11.2018 00:00:00||FIBABANKA|10.40.27.53|||101571767266|70
08.11.2018 00:00:00||FIBABANKA|10.40.27.52|||101571767266|50
08.11.2018 00:00:00||FIBABANKA|10.40.27.53|||101571767266|182
08.11.2018 00:00:00||FIBABANKA|10.40.27.53|||101571767266|180
08.11.2018 00:00:00||FIBABANKA|10.40.27.57|||101571767266|83
08.11.2018 00:00:00||FIBABANKA|10.40.27.57|||101571767266|82
08.11.2018 00:00:00||FIBABANKA|10.40.26.60|||101571767266|10
08.11.2018 00:00:00||FIBABANKA|10.40.26.60|||101571767266|110
08.11.2018 00:00:00||FIBABANKA|10.40.26.60|||101571767266|148
08.11.2018 00:00:00||FIBABANKA|10.40.26.60|||101571767266|25
08.11.2018 00:00:00||FIBABANKA|10.40.27.60|||101571767266|10
08.11.2018 00:00:00||FIBABANKA|10.40.27.60|||101571767266|50
08.11.2018 00:00:00||FIBABANKA|10.40.27.60|||101571767266|10
08.11.2018 00:00:00||FIBABANKA|10.40.27.60|||101571767266|220
08.11.2018 00:00:00||FIBABANKA|10.40.27.60|||101571767266|237
08.11.2018 00:00:00||FIBABANKA|10.40.27.60|||101571767266|43
08.11.2018 00:00:00||FIBABANKA|10.40.27.60|||101571767266|160
08.11.2018 00:00:00||FIBABANKA|10.40.27.60|||101571767266|10
08.11.2018 00:00:00||FIBABANKA|10.40.27.60|||101571767266|102
08.11.2018 00:00:00||FIBABANKA|10.40.27.60|||101571767266|10
08.11.2018 00:00:00||FIBABANKA|10.40.27.60|||101571767266|113
08.11.2018 00:00:00||FIBABANKA|10.40.26.60|||101571767266|10
08.11.2018 00:00:00||FIBABANKA|10.40.26.60|||101571767266|10
08.11.2018 00:00:00||FIBABANKA|10.40.26.60|||101571767266|110
08.11.2018 00:00:00||FIBABANKA|10.40.26.60|||101571767266|123
08.11.2018 00:00:00||FIBABANKA|10.40.26.60|||101571767266|240
08.11.2018 00:00:00||FIBABANKA|10.40.27.73|||101571767266|10
08.11.2018 00:00:00||FIBABANKA|10.40.27.74|||101571767266|182
08.11.2018 00:00:00||FIBABANKA|10.40.25.57|||101571767266|90
08.11.2018 00:00:00||FIBABANKA|10.40.27.60|||101571767266|50
08.11.2018 00:00:00||FIBABANKA|10.40.25.53|||101571767266|50
08.11.2018 00:00:00||FIBABANKA|10.40.25.51|||101571767266|110
08.11.2018 00:00:00||FIBABANKA|10.40.24.51|||101571767266|20
08.11.2018 00:00:00||FIBABANKA|10.40.24.51|||101571767266|70
08.11.2018 00:00:00||FIBABANKA|10.40.24.51|||101571767266|100
08.11.2018 00:00:00||FIBABANKA|10.40.24.52|||101571767266|40
08.11.2018 00:00:00||FIBABANKA|10.40.24.52|||101571767266|10
08.11.2018 00:00:00||FIBABANKA|10.40.25.51|||101571767266|40
08.11.2018 00:00:00||FIBABANKA|10.40.25.51|||101571767266|40
08.11.2018 00:00:00||FIBABANKA|10.40.25.51|||101571767266|70
08.11.2018 00:00:00||FIBABANKA|10.40.26.51|||101571767266|70
08.11.2018 00:00:00||FIBABANKA|10.40.26.52|||101571767266|30
08.11.2018 00:00:00||FIBABANKA|10.40.26.52|||101571767266|90
08.11.2018 00:00:00||FIBABANKA|10.40.26.52|||101571767266|30
08.11.2018 00:00:00||FIBABANKA|10.40.27.60|||101571767266|90
08.11.2018 00:00:00||FIBABANKA|10.40.26.60|||101571767266|10
08.11.2018 00:00:00||FIBABANKA|10.40.26.73|||101571767266|40
08.11.2018 00:00:00||FIBABANKA|10.40.26.53|||101571767266|40
08.11.2018 00:00:00||FIBABANKA|10.40.26.53|||101571767266|183
08.11.2018 00:00:00||FIBABANKA|10.40.25.57|||101571767266|85
08.11.2018 00:00:00||FIBABANKA|10.40.27.60|||101571767266|3
08.11.2018 00:00:00||FIBABANKA|10.40.25.76|||101571767266|10
08.11.2018 00:00:00||FIBABANKA|10.40.25.76|||101571767266|30
08.11.2018 00:00:00||FIBABANKA|10.40.25.76|||101571767266|50
08.11.2018 00:00:00||FIBABANKA|10.40.26.53|||101571767266|175
08.11.2018 00:00:00||FIBABANKA|10.40.27.57|||101571767266|80
08.11.2018 00:00:00||FIBABANKA|10.40.26.60|||101571767266|10
08.11.2018 00:00:00||FIBABANKA|10.40.27.60|||101571767266|10
08.11.2018 00:00:00||FIBABANKA|10.40.27.60|||101571767266|10
08.11.2018 00:00:00||FIBABANKA|10.40.24.57|||101571767266|100
08.11.2018 00:00:00||FIBABANKA|10.40.24.57|||101571767266|70
08.11.2018 00:00:00||FIBABANKA|10.40.24.57|||101571767266|92
08.11.2018 00:00:00||FIBABANKA|10.40.25.53|||101571767266|30
08.11.2018 00:00:00||FIBABANKA|10.40.24.51|||101571767266|140
08.11.2018 00:00:00||FIBABANKA|10.40.24.51|||101571767266|30
08.11.2018 00:00:00||FIBABANKA|10.40.24.57|||101571767266|70
08.11.2018 00:00:00||FIBABANKA|10.40.25.59|||101571767266|70
08.11.2018 00:00:00||FIBABANKA|10.40.25.59|||101571767266|95
08.11.2018 00:00:00||FIBABANKA|10.40.25.59|||101571767266|140
08.11.2018 00:00:00||FIBABANKA|10.40.25.59|||101571767266|90
08.11.2018 00:00:00||FIBABANKA|10.40.25.59|||101571767266|50
08.11.2018 00:00:00||FIBABANKA|10.40.25.59|||101571767266|123
08.11.2018 00:00:00||FIBABANKA|10.40.25.59|||101571767266|63
08.11.2018 00:00:00||FIBABANKA|10.40.25.59|||101571767266|53
08.11.2018 00:00:00||FIBABANKA|10.40.25.59|||101571767266|150
08.11.2018 00:00:00||FIBABANKA|10.40.25.59|||101571767266|52
08.11.2018 00:00:00||FIBABANKA|10.40.24.59|||101571767266|70
08.11.2018 00:00:00||FIBABANKA|10.40.24.59|||101571767266|125
08.11.2018 00:00:00||FIBABANKA|10.40.24.59|||101571767266|80
08.11.2018 00:00:00||FIBABANKA|10.40.24.59|||101571767266|70
08.11.2018 00:00:00||FIBABANKA|10.40.24.59|||101571767266|50
08.11.2018 00:00:00||FIBABANKA|10.40.24.59|||101571767266|130
08.11.2018 00:00:00||FIBABANKA|10.40.24.59|||101571767266|70
08.11.2018 00:00:00||FIBABANKA|10.40.24.59|||101571767266|60
08.11.2018 00:00:00||FIBABANKA|10.40.24.59|||101571767266|140
08.11.2018 00:00:00||FIBABANKA|10.40.24.59|||101571767266|60
08.11.2018 00:00:00||FIBABANKA|10.40.25.60|||101571767266|100
08.11.2018 00:00:00||FIBABANKA|10.40.25.60|||101571767266|30
08.11.2018 00:00:00||FIBABANKA|10.40.25.60|||101571767266|110
08.11.2018 00:00:00||FIBABANKA|10.40.25.60|||101571767266|43
08.11.2018 00:00:00||FIBABANKA|10.40.24.60|||101571767266|110
08.11.2018 00:00:00||FIBABANKA|10.40.24.60|||101571767266|48
08.11.2018 00:00:00||FIBABANKA|10.40.24.60|||101571767266|40
08.11.2018 00:00:00||FIBABANKA|10.40.24.60|||101571767266|100
08.11.2018 00:00:00||FIBABANKA|10.40.24.60|||101571767266|50
08.11.2018 00:00:00||FIBABANKA|10.40.25.72|||101571767266|70
08.11.2018 00:00:00||FIBABANKA|10.40.25.72|||101571767266|40
08.11.2018 00:00:00||FIBABANKA|10.40.25.72|||101571767266|30
08.11.2018 00:00:00||FIBABANKA|10.40.24.72|||101571767266|140
08.11.2018 00:00:00||FIBABANKA|10.40.24.72|||101571767266|78
08.11.2018 00:00:00||FIBABANKA|10.40.24.72|||101571767266|30
08.11.2018 00:00:00||FIBABANKA|10.40.24.72|||101571767266|40
08.11.2018 00:00:00||FIBABANKA|10.40.25.74|||101571767266|30
08.11.2018 00:00:00||FIBABANKA|10.40.25.75|||101571767266|40
08.11.2018 00:00:00||FIBABANKA|10.40.25.75|||101571767266|80
08.11.2018 00:00:00||FIBABANKA|10.40.25.75|||101571767266|135
08.11.2018 00:00:00||FIBABANKA|10.40.25.75|||101571767266|180
08.11.2018 00:00:00||FIBABANKA|10.40.25.75|||101571767266|183
08.11.2018 00:00:00||FIBABANKA|10.40.25.75|||101571767266|208
08.11.2018 00:00:00||FIBABANKA|10.40.24.75|||101571767266|53
08.11.2018 00:00:00||FIBABANKA|10.40.24.75|||101571767266|53
08.11.2018 00:00:00||FIBABANKA|10.40.24.75|||101571767266|108
08.11.2018 00:00:00||FIBABANKA|10.40.24.75|||101571767266|168
08.11.2018 00:00:00||FIBABANKA|10.40.24.75|||101571767266|152
08.11.2018 00:00:00||FIBABANKA|10.40.24.76|||101571767266|50
08.11.2018 00:00:00||FIBABANKA|10.40.24.76|||101571767266|70
08.11.2018 00:00:00||FIBABANKA|10.40.24.76|||101571767266|20
08.11.2018 00:00:00||FIBABANKA|10.40.24.76|||101571767266|40
08.11.2018 00:00:00||FIBABANKA|10.40.24.76|||101571767266|10
08.11.2018 00:00:00||FIBABANKA|10.40.25.77|||101571767266|63
08.11.2018 00:00:00||FIBABANKA|10.40.25.77|||101571767266|43
08.11.2018 00:00:00||FIBABANKA|10.40.24.77|||101571767266|50
08.11.2018 00:00:00||FIBABANKA|10.40.24.77|||101571767266|30
08.11.2018 00:00:00||FIBABANKA|10.40.24.53|||101571767266|30
08.11.2018 00:00:00||FIBABANKA|10.40.24.53|||101571767266|62
08.11.2018 00:00:00||FIBABANKA|10.40.26.57|||101571767266|90
08.11.2018 00:00:00||FIBABANKA|10.40.26.57|||101571767266|85
08.11.2018 00:00:00||FIBABANKA|10.40.26.57|||101571767266|80
08.11.2018 00:00:00||FIBABANKA|10.40.26.57|||101571767266|68
08.11.2018 00:00:00||FIBABANKA|10.40.26.57|||101571767266|68
08.11.2018 00:00:00||FIBABANKA|10.40.27.72|||101571767266|40
08.11.2018 00:00:00||FIBABANKA|10.40.27.72|||101571767266|50
08.11.2018 00:00:00||FIBABANKA|10.40.27.72|||101571767266|40
08.11.2018 00:00:00||FIBABANKA|10.40.27.72|||101571767266|140
08.11.2018 00:00:00||FIBABANKA|10.40.27.72|||101571767266|60
08.11.2018 00:00:00||FIBABANKA|10.40.26.72|||101571767266|30
08.11.2018 00:00:00||FIBABANKA|10.40.26.72|||101571767266|140
08.11.2018 00:00:00||FIBABANKA|10.40.26.72|||101571767266|70
08.11.2018 00:00:00||FIBABANKA|10.40.26.72|||101571767266|32
08.11.2018 00:00:00||FIBABANKA|10.40.27.73|||101571767266|30
08.11.2018 00:00:00||FIBABANKA|10.40.27.73|||101571767266|100
08.11.2018 00:00:00||FIBABANKA|10.40.27.73|||101571767266|20
08.11.2018 00:00:00||FIBABANKA|10.40.27.73|||101571767266|40
08.11.2018 00:00:00||FIBABANKA|10.40.27.73|||101571767266|40
08.11.2018 00:00:00||FIBABANKA|10.40.27.73|||101571767266|30
08.11.2018 00:00:00||FIBABANKA|10.40.27.73|||101571767266|17
08.11.2018 00:00:00||FIBABANKA|10.40.27.73|||101571767266|357
08.11.2018 00:00:00||FIBABANKA|10.40.26.73|||101571767266|40
08.11.2018 00:00:00||FIBABANKA|10.40.26.73|||101571767266|70
08.11.2018 00:00:00||FIBABANKA|10.40.26.73|||101571767266|30
08.11.2018 00:00:00||FIBABANKA|10.40.26.73|||101571767266|10
08.11.2018 00:00:00||FIBABANKA|10.40.27.74|||101571767266|70
08.11.2018 00:00:00||FIBABANKA|10.40.27.74|||101571767266|183
08.11.2018 00:00:00||FIBABANKA|10.40.27.74|||101571767266|185
08.11.2018 00:00:00||FIBABANKA|10.40.26.74|||101571767266|70
08.11.2018 00:00:00||FIBABANKA|10.40.26.74|||101571767266|200
08.11.2018 00:00:00||FIBABANKA|10.40.26.74|||101571767266|188
08.11.2018 00:00:00||FIBABANKA|10.40.26.74|||101571767266|200
08.11.2018 00:00:00||FIBABANKA|10.40.27.75|||101571767266|20
08.11.2018 00:00:00||FIBABANKA|10.40.27.75|||101571767266|10
08.11.2018 00:00:00||FIBABANKA|10.40.27.75|||101571767266|10
08.11.2018 00:00:00||FIBABANKA|10.40.27.75|||101571767266|60
08.11.2018 00:00:00||FIBABANKA|10.40.26.75|||101571767266|42
08.11.2018 00:00:00||FIBABANKA|10.40.26.75|||101571767266|10
08.11.2018 00:00:00||FIBABANKA|10.40.27.76|||101571767266|90
08.11.2018 00:00:00||FIBABANKA|10.40.26.76|||101571767266|100
08.11.2018 00:00:00||FIBABANKA|10.40.27.79|||101571767266|10
08.11.2018 00:00:00||FIBABANKA|10.40.27.79|||101571767266|10
08.11.2018 00:00:00||FIBABANKA|10.40.27.77|||101571767266|53
08.11.2018 00:00:00||FIBABANKA|10.40.27.77|||101571767266|52
08.11.2018 00:00:00||FIBABANKA|10.40.27.77|||101571767266|157
08.11.2018 00:00:00||FIBABANKA|10.40.26.77|||101571767266|50
08.11.2018 00:00:00||FIBABANKA|10.40.26.77|||101571767266|50
08.11.2018 00:00:00||FIBABANKA|10.40.26.77|||101571767266|178
08.11.2018 00:00:00||FIBABANKA|10.40.26.77|||101571767266|210
08.11.2018 00:00:00||FIBABANKA|10.40.26.77|||101571767266|65
08.11.2018 00:00:00||FIBABANKA|10.40.26.77|||101571767266|125
08.11.2018 00:00:00||FIBABANKA|10.40.26.77|||101571767266|188
08.11.2018 00:00:00||FIBABANKA|10.40.26.77|||101571767266|177
08.11.2018 00:00:00||FIBABANKA|10.40.27.77|||101571767266|55
08.11.2018 00:00:00||FIBABANKA|10.40.27.77|||101571767266|45
08.11.2018 00:00:00||FIBABANKA|10.40.27.77|||101571767266|162
08.11.2018 00:00:00||FIBABANKA|10.40.27.57|||101571767266|80
08.11.2018 00:00:00||FIBABANKA|10.40.26.60|||101571767266|222
08.11.2018 00:00:00||FIBABANKA|10.40.25.74|||101571767266|270
08.11.2018 00:00:00||FIBABANKA|10.40.24.75|||101571767266|187
08.11.2018 00:00:00||FIBABANKA|10.40.24.75|||101571767266|142
08.11.2018 00:00:00||FIBABANKA|10.40.24.53|||101571767266|188
08.11.2018 00:00:00||FIBABANKA|10.40.24.53|||101571767266|145
08.11.2018 00:00:00||FIBABANKA|10.40.25.52|||101571767266|10
08.11.2018 00:00:00||FIBABANKA|10.40.25.52|||101571767266|50
08.11.2018 00:00:00||FIBABANKA|10.40.25.52|||101571767266|82
08.11.2018 00:00:00||FIBABANKA|10.40.25.53|||101571767266|185
08.11.2018 00:00:00||FIBABANKA|10.40.25.53|||101571767266|115
08.11.2018 00:00:00||FIBABANKA|10.40.27.51|||101571767266|30
08.11.2018 00:00:00||FIBABANKA|10.40.27.51|||101571767266|20
08.11.2018 00:00:00||FIBABANKA|10.40.27.51|||101571767266|102
08.11.2018 00:00:00||FIBABANKA|10.40.27.51|||101571767266|140
08.11.2018 00:00:00||FIBABANKA|10.40.27.51|||101571767266|70
08.11.2018 00:00:00||FIBABANKA|10.40.27.51|||101571767266|40
08.11.2018 00:00:00||FIBABANKA|10.40.27.51|||101571767266|40
08.11.2018 00:00:00||FIBABANKA|10.40.26.51|||101571767266|10
08.11.2018 00:00:00||FIBABANKA|10.40.26.51|||101571767266|110
08.11.2018 00:00:00||FIBABANKA|10.40.26.51|||101571767266|130
08.11.2018 00:00:00||FIBABANKA|10.40.26.51|||101571767266|30
08.11.2018 00:00:00||FIBABANKA|10.40.26.51|||101571767266|30
08.11.2018 00:00:00||FIBABANKA|10.40.24.74|||101571767266|33
08.11.2018 00:00:00||FIBABANKA|10.40.24.74|||101571767266|30
08.11.2018 00:00:00||FIBABANKA|10.40.25.76|||101571767266|63
08.11.2018 00:00:00||FIBABANKA|10.40.25.76|||101571767266|45
08.11.2018 00:00:00||FIBABANKA|10.40.25.76|||101571767266|20
08.11.2018 00:00:00||FIBABANKA|10.40.25.76|||101571767266|10
08.11.2018 00:00:00||FIBABANKA|10.40.25.52|||101571767266|40
08.11.2018 00:00:00||FIBABANKA|10.40.25.52|||101571767266|32
08.11.2018 00:00:00||FIBABANKA|10.40.25.51|||101571767266|20
08.11.2018 00:00:00||FIBABANKA|10.40.24.52|||101571767266|32
08.11.2018 00:00:00||FIBABANKA|10.40.25.51|||101571767266|140
08.11.2018 00:00:00||FIBABANKA|10.40.24.51|||101571767266|30
08.11.2018 00:00:00||FIBABANKA|10.40.25.57|||101571767266|90
08.11.2018 00:00:00||FIBABANKA|10.40.25.57|||101571767266|90
08.11.2018 00:00:00||FIBABANKA|10.40.25.57|||101571767266|90
08.11.2018 00:00:00||FIBABANKA|10.40.25.57|||101571767266|50
08.11.2018 00:00:00||FIBABANKA|10.40.25.57|||101571767266|98
08.11.2018 00:00:00||FIBABANKA|10.40.25.57|||101571767266|80
08.11.2018 00:00:00||FIBABANKA|10.40.24.57|||101571767266|90
08.11.2018 00:00:00||FIBABANKA|10.40.24.57|||101571767266|80
08.11.2018 00:00:00||FIBABANKA|10.40.24.57|||101571767266|80
08.11.2018 00:00:00||FIBABANKA|10.40.24.57|||101571767266|70
08.11.2018 00:00:00||HAVAŞ|10.40.24.48|||110000479675|755
08.11.2018 00:00:00||HAVAŞ|10.40.25.48|||110000479675|747
08.11.2018 00:00:00||HAVAŞ|10.40.24.46|||110000479675|80
08.11.2018 00:00:00||HAVAŞ|10.40.24.47|||110000479675|30
08.11.2018 00:00:00||HAVAŞ|10.40.24.47|||110000479675|92
08.11.2018 00:00:00||HAVAŞ|10.40.24.47|||110000479675|90
08.11.2018 00:00:00||HAVAŞ|10.40.25.46|||110000479675|10
08.11.2018 00:00:00||HAVAŞ|10.40.25.46|||110000479675|60
08.11.2018 00:00:00||HAVAŞ|10.40.24.48|||110000479675|755
08.11.2018 00:00:00||HAVAŞ|10.40.24.46|||110000479675|60
08.11.2018 00:00:00||HAVAŞ|10.40.24.46|||110000479675|70
08.11.2018 00:00:00||HAVAŞ|10.40.24.47|||110000479675|10
08.11.2018 00:00:00||HAVAŞ|10.40.25.45|||110000479675|92
08.11.2018 00:00:00||HAVAŞ|10.40.24.45|||110000479675|52
08.11.2018 00:00:00||HAVAŞ|10.40.24.45|||110000479675|162
08.11.2018 00:00:00||HAVAŞ|10.40.24.45|||110000479675|100
08.11.2018 00:00:00||HAVAŞ|10.40.25.47|||110000479675|70
08.11.2018 00:00:00||HAVAŞ|10.40.25.47|||110000479675|90
08.11.2018 00:00:00||HAVAŞ|10.40.25.47|||110000479675|90
08.11.2018 00:00:00||HAVAŞ|10.40.25.47|||110000479675|90
08.11.2018 00:00:00||HAVAŞ|10.40.24.46|||110000479675|10
08.11.2018 00:00:00||HAVAŞ|10.40.24.48|||110000479675|758
08.11.2018 00:00:00||HAVAŞ|10.40.24.45|||110000479675|85
08.11.2018 00:00:00||HAVAŞ|10.40.25.47|||110000479675|70
08.11.2018 00:00:00||HAVAŞ|10.40.25.48|||110000479675|753
08.11.2018 00:00:00||HAVAŞ|10.40.25.48|||110000479675|787
08.11.2018 00:00:00||HAVAŞ|10.40.25.45|||110000479675|87
08.11.2018 00:00:00||HAVAŞ|10.40.25.45|||110000479675|90
08.11.2018 00:00:00||HAVAŞ|10.40.25.46|||110000479675|10
08.11.2018 00:00:00||HAVAŞ|10.40.25.46|||110000479675|10
08.11.2018 00:00:00||HAVAŞ|10.40.25.46|||110000479675|20
08.11.2018 00:00:00||HAVAŞ|10.40.25.46|||110000479675|20
08.11.2018 00:00:00||HAVAŞ|10.40.25.46|||110000479675|50
08.11.2018 00:00:00||HAVAŞ|10.40.25.46|||110000479675|100
08.11.2018 00:00:00||HAVAŞ|10.40.25.46|||110000479675|65
08.11.2018 00:00:00||HAVAŞ|10.40.25.46|||110000479675|80
08.11.2018 00:00:00||HAVAŞ|10.40.25.46|||110000479675|70
08.11.2018 00:00:00||HAVAŞ|10.40.24.46|||110000479675|20
08.11.2018 00:00:00||HAVAŞ|10.40.24.46|||110000479675|20
08.11.2018 00:00:00||HAVAŞ|10.40.24.46|||110000479675|10
08.11.2018 00:00:00||HAVAŞ|10.40.24.46|||110000479675|10
08.11.2018 00:00:00||HAVAŞ|10.40.24.46|||110000479675|10
08.11.2018 00:00:00||HAVAŞ|10.40.24.46|||110000479675|60
08.11.2018 00:00:00||HAVAŞ|10.40.24.46|||110000479675|110
08.11.2018 00:00:00||HAVAŞ|10.40.24.47|||110000479675|30
08.11.2018 00:00:00||HAVAŞ|10.40.24.47|||110000479675|220
08.11.2018 00:00:00||HAVAŞ|10.40.24.47|||110000479675|62
08.11.2018 00:00:00||HAVAŞ|10.40.24.47|||110000479675|60
08.11.2018 00:00:00||HAVAŞ|10.40.24.47|||110000479675|153
08.11.2018 00:00:00||HAVAŞ|10.40.24.47|||110000479675|100
08.11.2018 00:00:00||HAVAŞ|10.40.24.47|||110000479675|100
08.11.2018 00:00:00||HAVAŞ|10.40.25.45|||110000479675|58
08.11.2018 00:00:00||HAVAŞ|10.40.25.47|||110000479675|232
08.11.2018 00:00:00||HAVAŞ|10.40.25.47|||110000479675|60
08.11.2018 00:00:00||HAVAŞ|10.40.25.47|||110000479675|92
08.11.2018 00:00:00||HAVAŞ|10.40.25.47|||110000479675|90
08.11.2018 00:00:00||HAVAŞ|10.40.25.47|||110000479675|90
08.11.2018 00:00:00||HAVAŞ|10.40.25.47|||110000479675|115
08.11.2018 00:00:00||HAVAŞ|10.40.25.47|||110000479675|180
08.11.2018 00:00:00||MARS CINEMA|10.40.24.203|||110000472614|92
08.11.2018 00:00:00||MARS CINEMA|10.40.24.203|||110000472614|172
08.11.2018 00:00:00||MARS CINEMA|10.40.24.203|||110000472614|100
08.11.2018 00:00:00||MARS CINEMA|10.40.24.204|||110000472614|40
08.11.2018 00:00:00||MARS CINEMA|10.40.24.203|||110000472614|83
08.11.2018 00:00:00||MARS CINEMA|10.40.25.203|||110000472614|167
08.11.2018 00:00:00||MARS CINEMA|10.40.25.203|||110000472614|83
08.11.2018 00:00:00||MARS CINEMA|10.40.25.203|||110000472614|190
08.11.2018 00:00:00||MARS CINEMA|10.40.25.203|||110000472614|98
08.11.2018 00:00:00||MARS CINEMA|10.40.25.203|||110000472614|83
08.11.2018 00:00:00||MARS CINEMA|10.40.25.203|||110000472614|112
08.11.2018 00:00:00||MARS CINEMA|10.40.25.203|||110000472614|87
08.11.2018 00:00:00||MARS CINEMA|10.40.25.203|||110000472614|162
08.11.2018 00:00:00||MARS CINEMA|10.40.25.203|||110000472614|100
08.11.2018 00:00:00||MARS CINEMA|10.40.25.203|||110000472614|110
08.11.2018 00:00:00||MARS CINEMA|10.40.25.203|||110000472614|92
08.11.2018 00:00:00||MARS CINEMA|10.40.25.203|||110000472614|63
08.11.2018 00:00:00||MARS CINEMA|10.40.25.203|||110000472614|192
08.11.2018 00:00:00||MARS CINEMA|10.40.25.204|||110000472614|107
08.11.2018 00:00:00||MARS CINEMA|10.40.25.204|||110000472614|70
08.11.2018 00:00:00||MARS CINEMA|10.40.25.204|||110000472614|83
08.11.2018 00:00:00||MARS CINEMA|10.40.25.204|||110000472614|100
08.11.2018 00:00:00||MARS CINEMA|10.40.25.204|||110000472614|20
08.11.2018 00:00:00||MARS CINEMA|10.40.25.204|||110000472614|20
08.11.2018 00:00:00||MARS CINEMA|10.40.25.204|||110000472614|30
08.11.2018 00:00:00||MARS CINEMA|10.40.25.204|||110000472614|40
08.11.2018 00:00:00||MARS CINEMA|10.40.25.204|||110000472614|90
08.11.2018 00:00:00||MARS CINEMA|10.40.25.204|||110000472614|125
08.11.2018 00:00:00||MARS CINEMA|10.40.25.204|||110000472614|78
08.11.2018 00:00:00||MARS CINEMA|10.40.25.204|||110000472614|88
08.11.2018 00:00:00||MARS CINEMA|10.40.25.204|||110000472614|115
08.11.2018 00:00:00||MARS CINEMA|10.40.25.204|||110000472614|98
08.11.2018 00:00:00||MARS CINEMA|10.40.24.203|||110000472614|80
08.11.2018 00:00:00||MARS CINEMA|10.40.24.203|||110000472614|90
08.11.2018 00:00:00||MARS CINEMA|10.40.24.203|||110000472614|147
08.11.2018 00:00:00||MARS CINEMA|10.40.24.203|||110000472614|73
08.11.2018 00:00:00||MARS CINEMA|10.40.24.203|||110000472614|140
08.11.2018 00:00:00||MARS CINEMA|10.40.24.203|||110000472614|162
08.11.2018 00:00:00||MARS CINEMA|10.40.24.203|||110000472614|103
08.11.2018 00:00:00||MARS CINEMA|10.40.24.203|||110000472614|185
08.11.2018 00:00:00||MARS CINEMA|10.40.24.204|||110000472614|110
08.11.2018 00:00:00||MARS CINEMA|10.40.24.204|||110000472614|92
08.11.2018 00:00:00||MARS CINEMA|10.40.24.204|||110000472614|90
08.11.2018 00:00:00||MARS CINEMA|10.40.24.204|||110000472614|20
08.11.2018 00:00:00||MARS CINEMA|10.40.24.204|||110000472614|10
08.11.2018 00:00:00||MARS CINEMA|10.40.24.204|||110000472614|90
08.11.2018 00:00:00||MARS CINEMA|10.40.24.204|||110000472614|125
08.11.2018 00:00:00||MARS CINEMA|10.40.24.204|||110000472614|92
08.11.2018 00:00:00||MARS CINEMA|10.40.24.204|||110000472614|108
08.11.2018 00:00:00||MARS CINEMA|10.40.24.204|||110000472614|80
08.11.2018 00:00:00||MARS CINEMA|10.40.25.206|||110000472614|120
08.11.2018 00:00:00||MARS CINEMA|10.40.25.206|||110000472614|40
08.11.2018 00:00:00||MARS CINEMA|10.40.25.206|||110000472614|40
08.11.2018 00:00:00||MARS CINEMA|10.40.25.206|||110000472614|40
08.11.2018 00:00:00||MARS CINEMA|10.40.25.206|||110000472614|20
08.11.2018 00:00:00||MARS CINEMA|10.40.25.206|||110000472614|20
08.11.2018 00:00:00||MARS CINEMA|10.40.25.206|||110000472614|30
08.11.2018 00:00:00||MARS CINEMA|10.40.25.206|||110000472614|60
08.11.2018 00:00:00||MARS CINEMA|10.40.25.206|||110000472614|40
08.11.2018 00:00:00||MARS CINEMA|10.40.25.206|||110000472614|87
08.11.2018 00:00:00||MARS CINEMA|10.40.25.206|||110000472614|90
08.11.2018 00:00:00||MARS CINEMA|10.40.24.206|||110000472614|152
08.11.2018 00:00:00||MARS CINEMA|10.40.24.206|||110000472614|40
08.11.2018 00:00:00||MARS CINEMA|10.40.24.206|||110000472614|40
08.11.2018 00:00:00||MARS CINEMA|10.40.24.206|||110000472614|42
08.11.2018 00:00:00||MARS CINEMA|10.40.24.206|||110000472614|30
08.11.2018 00:00:00||MARS CINEMA|10.40.24.206|||110000472614|30
08.11.2018 00:00:00||MARS CINEMA|10.40.24.206|||110000472614|198
08.11.2018 00:00:00||MARS CINEMA|10.40.24.206|||110000472614|160
08.11.2018 00:00:00||MARS CINEMA|10.40.24.206|||110000472614|20
08.11.2018 00:00:00||MARS CINEMA|10.40.24.206|||110000472614|80
08.11.2018 00:00:00||MARS CINEMA|10.40.24.206|||110000472614|78
08.11.2018 00:00:00||MARS CINEMA|10.40.24.204|||110000472614|68
08.11.2018 00:00:00||MARS CINEMA|10.40.24.203|||110000472614|103
08.11.2018 00:00:00||MARS CINEMA|10.40.24.204|||110000472614|20
08.11.2018 00:00:00||MARS CINEMA|10.40.24.204|||110000472614|92
08.11.2018 00:00:00||PEGASUS|10.40.27.85|||110000423831|117
08.11.2018 00:00:00||PEGASUS|10.40.26.84|||110000423831|222
08.11.2018 00:00:00||PEGASUS|10.40.26.85|||110000423831|123
08.11.2018 00:00:00||PEGASUS|10.40.27.66|||110000423831|113
08.11.2018 00:00:00||PEGASUS|10.40.26.66|||110000423831|94
08.11.2018 00:00:00||PEGASUS|10.40.27.84|||110000423831|216
08.11.2018 00:00:00||PEGASUS|10.40.27.67|||110000423831|338
08.11.2018 00:00:00||PEGASUS|10.40.27.67|||110000423831|40
08.11.2018 00:00:00||PEGASUS|10.40.26.62|||110000423831|10
08.11.2018 00:00:00||PEGASUS|10.40.26.62|||110000423831|190
08.11.2018 00:00:00||PEGASUS|10.40.26.63|||110000423831|70
08.11.2018 00:00:00||PEGASUS|10.40.26.63|||110000423831|30
08.11.2018 00:00:00||PEGASUS|10.40.26.63|||110000423831|60
08.11.2018 00:00:00||PEGASUS|10.40.26.63|||110000423831|18
08.11.2018 00:00:00||PEGASUS|10.40.26.63|||110000423831|235
08.11.2018 00:00:00||PEGASUS|10.40.26.63|||110000423831|140
08.11.2018 00:00:00||PEGASUS|10.40.26.63|||110000423831|133
08.11.2018 00:00:00||PEGASUS|10.40.26.63|||110000423831|60
08.11.2018 00:00:00||PEGASUS|10.40.26.67|||110000423831|170
08.11.2018 00:00:00||PEGASUS|10.40.27.68|||110000423831|90
08.11.2018 00:00:00||PEGASUS|10.40.27.68|||110000423831|83
08.11.2018 00:00:00||PEGASUS|10.40.27.68|||110000423831|90
08.11.2018 00:00:00||PEGASUS|10.40.27.68|||110000423831|50
08.11.2018 00:00:00||PEGASUS|10.40.26.68|||110000423831|90
08.11.2018 00:00:00||PEGASUS|10.40.26.68|||110000423831|90
08.11.2018 00:00:00||PEGASUS|10.40.26.68|||110000423831|50
08.11.2018 00:00:00||PEGASUS|10.40.27.67|||110000423831|360
08.11.2018 00:00:00||PEGASUS|10.40.27.63|||110000423831|80
08.11.2018 00:00:00||PEGASUS|10.40.26.63|||110000423831|110
08.11.2018 00:00:00||PEGASUS|10.40.26.63|||110000423831|90
08.11.2018 00:00:00||PEGASUS|10.40.26.63|||110000423831|45
08.11.2018 00:00:00||PEGASUS|10.40.26.67|||110000423831|30
08.11.2018 00:00:00||PEGASUS|10.40.26.67|||110000423831|340
08.11.2018 00:00:00||PEGASUS|10.40.26.67|||110000423831|60
08.11.2018 00:00:00||PEGASUS|10.40.26.67|||110000423831|40
08.11.2018 00:00:00||PEGASUS|10.40.26.67|||110000423831|70
08.11.2018 00:00:00||PEGASUS|10.40.26.68|||110000423831|100
08.11.2018 00:00:00||PEGASUS|10.40.27.64|||110000423831|307
08.11.2018 00:00:00||PEGASUS|10.40.27.64|||110000423831|277
08.11.2018 00:00:00||PEGASUS|10.40.27.64|||110000423831|303
08.11.2018 00:00:00||PEGASUS|10.40.27.64|||110000423831|275
08.11.2018 00:00:00||PEGASUS|10.40.27.64|||110000423831|280
08.11.2018 00:00:00||PEGASUS|10.40.27.63|||110000423831|90
08.11.2018 00:00:00||PEGASUS|10.40.26.63|||110000423831|130
08.11.2018 00:00:00||PEGASUS|10.40.26.63|||110000423831|58
08.11.2018 00:00:00||PEGASUS|10.40.26.63|||110000423831|93
08.11.2018 00:00:00||PEGASUS|10.40.26.67|||110000423831|340
08.11.2018 00:00:00||PEGASUS|10.40.27.63|||110000423831|53
08.11.2018 00:00:00||PEGASUS|10.40.27.63|||110000423831|60
08.11.2018 00:00:00||PEGASUS|10.40.26.62|||110000423831|90
08.11.2018 00:00:00||PEGASUS|10.40.26.63|||110000423831|50
08.11.2018 00:00:00||PEGASUS|10.40.26.63|||110000423831|95
08.11.2018 00:00:00||PEGASUS|10.40.26.63|||110000423831|40
08.11.2018 00:00:00||PEGASUS|10.40.26.63|||110000423831|50
08.11.2018 00:00:00||PEGASUS|10.40.26.67|||110000423831|340
08.11.2018 00:00:00||PEGASUS|10.40.27.64|||110000423831|282
08.11.2018 00:00:00||PEGASUS|10.40.27.64|||110000423831|270
08.11.2018 00:00:00||PEGASUS|10.40.27.64|||110000423831|263
08.11.2018 00:00:00||PEGASUS|10.40.27.64|||110000423831|347
08.11.2018 00:00:00||PEGASUS|10.40.27.64|||110000423831|327
08.11.2018 00:00:00||PEGASUS|10.40.27.63|||110000423831|77
08.11.2018 00:00:00||PEGASUS|10.40.27.63|||110000423831|80
08.11.2018 00:00:00||PEGASUS|10.40.27.63|||110000423831|72
08.11.2018 00:00:00||PEGASUS|10.40.27.63|||110000423831|163
08.11.2018 00:00:00||PEGASUS|10.40.27.63|||110000423831|228
08.11.2018 00:00:00||PEGASUS|10.40.27.63|||110000423831|55
08.11.2018 00:00:00||PEGASUS|10.40.27.81|||110000423831|475
08.11.2018 00:00:00||PEGASUS|10.40.27.81|||110000423831|447
08.11.2018 00:00:00||PEGASUS|10.40.27.81|||110000423831|453
08.11.2018 00:00:00||PEGASUS|10.40.27.86|||110000423831|340
08.11.2018 00:00:00||PEGASUS|10.40.27.86|||110000423831|40
08.11.2018 00:00:00||PEGASUS|10.40.27.63|||110000423831|40
08.11.2018 00:00:00||PEGASUS|10.40.27.86|||110000423831|340
08.11.2018 00:00:00||PEGASUS|10.40.27.63|||110000423831|50
08.11.2018 00:00:00||PEGASUS|10.40.27.63|||110000423831|60
08.11.2018 00:00:00||PEGASUS|10.40.27.64|||110000423831|80
08.11.2018 00:00:00||PEGASUS|10.40.27.64|||110000423831|70
08.11.2018 00:00:00||PEGASUS|10.40.27.63|||110000423831|60
08.11.2018 00:00:00||PEGASUS|10.40.27.63|||110000423831|70
08.11.2018 00:00:00||PEGASUS|10.40.27.63|||110000423831|90
08.11.2018 00:00:00||PEGASUS|10.40.26.63|||110000423831|112
08.11.2018 00:00:00||PEGASUS|10.40.27.64|||110000423831|277
08.11.2018 00:00:00||PEGASUS|10.40.27.64|||110000423831|260
08.11.2018 00:00:00||PEGASUS|10.40.27.63|||110000423831|70
08.11.2018 00:00:00||PEGASUS|10.40.27.63|||110000423831|65
08.11.2018 00:00:00||PEGASUS|10.40.26.64|||110000423831|80
08.11.2018 00:00:00||PEGASUS|10.40.26.64|||110000423831|80
08.11.2018 00:00:00||PEGASUS|10.40.26.82|||110000423831|210
08.11.2018 00:00:00||PEGASUS|10.40.26.82|||110000423831|105
08.11.2018 00:00:00||PEGASUS|10.40.26.82|||110000423831|118
08.11.2018 00:00:00||PEGASUS|10.40.26.82|||110000423831|158
08.11.2018 00:00:00||PEGASUS|10.40.26.82|||110000423831|145
08.11.2018 00:00:00||PEGASUS|10.40.26.82|||110000423831|145
08.11.2018 00:00:00||PEGASUS|10.40.26.82|||110000423831|195
08.11.2018 00:00:00||PEGASUS|10.40.26.82|||110000423831|33
08.11.2018 00:00:00||PEGASUS|10.40.26.82|||110000423831|50
08.11.2018 00:00:00||PEGASUS|10.40.26.82|||110000423831|20
08.11.2018 00:00:00||PEGASUS|10.40.26.82|||110000423831|63
08.11.2018 00:00:00||PEGASUS|10.40.26.82|||110000423831|50
08.11.2018 00:00:00||PEGASUS|10.40.26.82|||110000423831|42
08.11.2018 00:00:00||PEGASUS|10.40.27.83|||110000423831|590
08.11.2018 00:00:00||PEGASUS|10.40.27.83|||110000423831|70
08.11.2018 00:00:00||PEGASUS|10.40.27.83|||110000423831|570
08.11.2018 00:00:00||PEGASUS|10.40.27.83|||110000423831|570
08.11.2018 00:00:00||PEGASUS|10.40.27.83|||110000423831|90
08.11.2018 00:00:00||PEGASUS|10.40.26.83|||110000423831|527
08.11.2018 00:00:00||PEGASUS|10.40.26.83|||110000423831|50
08.11.2018 00:00:00||PEGASUS|10.40.26.83|||110000423831|405
08.11.2018 00:00:00||PEGASUS|10.40.26.83|||110000423831|522
08.11.2018 00:00:00||PEGASUS|10.40.26.83|||110000423831|522
08.11.2018 00:00:00||PEGASUS|10.40.26.86|||110000423831|360
08.11.2018 00:00:00||PEGASUS|10.40.26.86|||110000423831|133
08.11.2018 00:00:00||PEGASUS|10.40.26.86|||110000423831|350
08.11.2018 00:00:00||PEGASUS|10.40.26.86|||110000423831|50
08.11.2018 00:00:00||PEGASUS|10.40.26.86|||110000423831|30
08.11.2018 00:00:00||PEGASUS|10.40.26.86|||110000423831|350
08.11.2018 00:00:00||PEGASUS|10.40.26.86|||110000423831|40
08.11.2018 00:00:00||PEGASUS|10.40.27.87|||110000423831|90
08.11.2018 00:00:00||PEGASUS|10.40.27.87|||110000423831|88
08.11.2018 00:00:00||PEGASUS|10.40.27.87|||110000423831|88
08.11.2018 00:00:00||PEGASUS|10.40.27.87|||110000423831|20
08.11.2018 00:00:00||PEGASUS|10.40.26.87|||110000423831|90
08.11.2018 00:00:00||PEGASUS|10.40.26.87|||110000423831|90
08.11.2018 00:00:00||PEGASUS|10.40.26.87|||110000423831|90
08.11.2018 00:00:00||PEGASUS|10.40.26.87|||110000423831|60
08.11.2018 00:00:00||PEGASUS|10.40.26.87|||110000423831|20
08.11.2018 00:00:00||PEGASUS|10.40.26.81|||110000423831|423
08.11.2018 00:00:00||PEGASUS|10.40.26.81|||110000423831|435
08.11.2018 00:00:00||PEGASUS|10.40.26.81|||110000423831|443
08.11.2018 00:00:00||PEGASUS|10.40.27.82|||110000423831|220
08.11.2018 00:00:00||PEGASUS|10.40.27.82|||110000423831|30
08.11.2018 00:00:00||PEGASUS|10.40.27.82|||110000423831|107
08.11.2018 00:00:00||PEGASUS|10.40.27.82|||110000423831|82
08.11.2018 00:00:00||PEGASUS|10.40.27.82|||110000423831|158
08.11.2018 00:00:00||PEGASUS|10.40.27.82|||110000423831|125
08.11.2018 00:00:00||PEGASUS|10.40.27.82|||110000423831|172
08.11.2018 00:00:00||PEGASUS|10.40.27.82|||110000423831|125
08.11.2018 00:00:00||PEGASUS|10.40.27.82|||110000423831|60
08.11.2018 00:00:00||PEGASUS|10.40.27.82|||110000423831|82
08.11.2018 00:00:00||PEGASUS|10.40.27.82|||110000423831|50
08.11.2018 00:00:00||PEGASUS|10.40.27.82|||110000423831|30
08.11.2018 00:00:00||PEGASUS|10.40.27.82|||110000423831|40
08.11.2018 00:00:00||PEGASUS|10.40.27.67|||110000423831|50
08.11.2018 00:00:00||PEGASUS|10.40.27.67|||110000423831|70
08.11.2018 00:00:00||PEGASUS|10.40.27.67|||110000423831|130
08.11.2018 00:00:00||PEGASUS|10.40.27.67|||110000423831|10
08.11.2018 00:00:00||PEGASUS|10.40.27.67|||110000423831|340
08.11.2018 00:00:00||PEGASUS|10.40.27.82|||110000423831|65
08.11.2018 00:00:00||PEGASUS|10.40.27.86|||110000423831|165
08.11.2018 00:00:00||PEGASUS|10.40.27.86|||110000423831|70
08.11.2018 00:00:00||PEGASUS|10.40.27.86|||110000423831|20
08.11.2018 00:00:00||PEGASUS|10.40.27.86|||110000423831|340
08.11.2018 00:00:00||PWC|10.40.24.66|||110000433262|82
08.11.2018 00:00:00||PWC|10.40.24.66|||110000433262|10
08.11.2018 00:00:00||PWC|10.40.24.66|||110000433262|30
08.11.2018 00:00:00||PWC|10.40.24.66|||110000433262|212
08.11.2018 00:00:00||PWC|10.40.24.66|||110000433262|210
08.11.2018 00:00:00||PWC|10.40.24.68|||110000433262|165
08.11.2018 00:00:00||PWC|10.40.24.66|||110000433262|57
08.11.2018 00:00:00||PWC|10.40.24.66|||110000433262|445
08.11.2018 00:00:00||PWC|10.40.24.66|||110000433262|47
08.11.2018 00:00:00||PWC|10.40.25.67|||110000433262|80
08.11.2018 00:00:00||PWC|10.40.25.67|||110000433262|90
08.11.2018 00:00:00||PWC|10.40.25.67|||110000433262|358
08.11.2018 00:00:00||PWC|10.40.25.67|||110000433262|260
08.11.2018 00:00:00||PWC|10.40.25.67|||110000433262|252
08.11.2018 00:00:00||PWC|10.40.25.67|||110000433262|267
08.11.2018 00:00:00||PWC|10.40.25.67|||110000433262|50
08.11.2018 00:00:00||PWC|10.40.25.67|||110000433262|40
08.11.2018 00:00:00||PWC|10.40.25.67|||110000433262|120
08.11.2018 00:00:00||PWC|10.40.24.67|||110000433262|20
08.11.2018 00:00:00||PWC|10.40.24.67|||110000433262|10
08.11.2018 00:00:00||PWC|10.40.24.67|||110000433262|400
08.11.2018 00:00:00||PWC|10.40.24.67|||110000433262|32
08.11.2018 00:00:00||PWC|10.40.24.67|||110000433262|50
08.11.2018 00:00:00||PWC|10.40.24.67|||110000433262|120
08.11.2018 00:00:00||PWC|10.40.25.68|||110000433262|142
08.11.2018 00:00:00||PWC|10.40.25.68|||110000433262|200
08.11.2018 00:00:00||PWC|10.40.25.68|||110000433262|73
08.11.2018 00:00:00||PWC|10.40.25.68|||110000433262|78
08.11.2018 00:00:00||PWC|10.40.25.68|||110000433262|162
08.11.2018 00:00:00||PWC|10.40.24.66|||110000433262|60
08.11.2018 00:00:00||PWC|10.40.24.66|||110000433262|30
08.11.2018 00:00:00||PWC|10.40.24.66|||110000433262|30
08.11.2018 00:00:00||PWC|10.40.24.68|||110000433262|110
08.11.2018 00:00:00||PWC|10.40.24.68|||110000433262|142
08.11.2018 00:00:00||PWC|10.40.24.68|||110000433262|387
08.11.2018 00:00:00||PWC|10.40.24.68|||110000433262|77
08.11.2018 00:00:00||PWC|10.40.24.68|||110000433262|73
08.11.2018 00:00:00||VSMART BİLGİ TEKNOLOJİLERİ|10.40.24.62|||110000474326|40
08.11.2018 00:00:00||VSMART BİLGİ TEKNOLOJİLERİ|10.40.24.62|||110000474326|70
08.11.2018 00:00:00||VSMART BİLGİ TEKNOLOJİLERİ|10.40.24.62|||110000474326|40
08.11.2018 00:00:00||VSMART BİLGİ TEKNOLOJİLERİ|10.40.24.62|||110000474326|10
08.11.2018 00:00:00||VSMART BİLGİ TEKNOLOJİLERİ|10.40.25.62|||110000474326|70
08.11.2018 00:00:00||VSMART BİLGİ TEKNOLOJİLERİ|10.40.24.62|||110000474326|45
08.11.2018 00:00:00||VSMART BİLGİ TEKNOLOJİLERİ|10.40.24.62|||110000474326|10
08.11.2018 00:00:00||VSMART BİLGİ TEKNOLOJİLERİ|10.40.25.62|||110000474326|10
08.11.2018 00:00:00||VSMART BİLGİ TEKNOLOJİLERİ|10.40.25.62|||110000474326|10
08.11.2018 00:00:00||VSMART BİLGİ TEKNOLOJİLERİ|10.40.25.62|||110000474326|82
08.11.2018 00:00:00||VSMART BİLGİ TEKNOLOJİLERİ|10.40.25.62|||110000474326|90
08.11.2018 00:00:00||VSMART BİLGİ TEKNOLOJİLERİ|10.40.25.62|||110000474326|107
