30.10.2018 12:00:00||AKTİFBANK|10.40.24.172|||110000438458|96
30.10.2018 12:00:00||AKTİFBANK|10.40.25.134|||110000438458|93
30.10.2018 12:00:00||AKTİFBANK|10.40.24.134|||110000438458|93
30.10.2018 12:00:00||AKTİFBANK|10.40.24.135|||110000438458|102
30.10.2018 12:00:00||AKTİFBANK|10.40.25.137|||110000438458|58
30.10.2018 12:00:00||AKTİFBANK|10.40.25.171|||110000438458|12
30.10.2018 12:00:00||AKTİFBANK|10.40.25.172|||110000438458|88
30.10.2018 12:00:00||AKTİFBANK|10.40.25.174|||110000438458|53
30.10.2018 12:00:00||AKTİFBANK|10.40.25.135|||110000438458|99
30.10.2018 12:00:00||AKTİFBANK|10.40.24.137|||110000438458|57
30.10.2018 12:00:00||AKTİFBANK|10.40.24.171|||110000438458|11
30.10.2018 12:00:00||AKTİFBANK|10.40.25.173|||110000438458|102
30.10.2018 12:00:00||AKTİFBANK|10.40.24.173|||110000438458|97
30.10.2018 12:00:00||AKTİFBANK|10.40.24.174|||110000438458|60
30.10.2018 12:00:00||AKTİFBANK|10.40.24.133|||110000438458|90
30.10.2018 12:00:00||AKTİFBANK|10.40.24.138|||110000438458|107
30.10.2018 12:00:00||AKTİFBANK|10.40.24.139|||110000438458|30
30.10.2018 12:00:00||AKTİFBANK|10.40.24.149|||110000438458|110
30.10.2018 12:00:00||AKTİFBANK|10.40.24.150|||110000438458|555
30.10.2018 12:00:00||AKTİFBANK|10.40.24.145|||110000438458|60
30.10.2018 12:00:00||AKTİFBANK|10.40.24.164|||110000438458|230
30.10.2018 12:00:00||AKTİFBANK|10.40.25.133|||110000438458|70
30.10.2018 12:00:00||AKTİFBANK|10.40.24.145|||110000438458|90
30.10.2018 12:00:00||AKTİFBANK|10.40.24.158|||110000438458|82
30.10.2018 12:00:00||AKTİFBANK|10.40.24.164|||110000438458|70
30.10.2018 12:00:00||AKTİFBANK|10.40.25.138|||110000438458|82
30.10.2018 12:00:00||AKTİFBANK|10.40.25.139|||110000438458|10
30.10.2018 12:00:00||AKTİFBANK|10.40.25.140|||110000438458|32
30.10.2018 12:00:00||AKTİFBANK|10.40.25.151|||110000438458|517
30.10.2018 12:00:00||AKTİFBANK|10.40.25.141|||110000438458|100
30.10.2018 12:00:00||AKTİFBANK|10.40.25.141|||110000438458|100
30.10.2018 12:00:00||AKTİFBANK|10.40.25.142|||110000438458|77
30.10.2018 12:00:00||AKTİFBANK|10.40.25.133|||110000438458|110
30.10.2018 12:00:00||AKTİFBANK|10.40.25.149|||110000438458|100
30.10.2018 12:00:00||AKTİFBANK|10.40.25.149|||110000438458|90
30.10.2018 12:00:00||AKTİFBANK|10.40.25.149|||110000438458|90
30.10.2018 12:00:00||AKTİFBANK|10.40.25.140|||110000438458|30
30.10.2018 12:00:00||AKTİFBANK|10.40.25.150|||110000438458|553
30.10.2018 12:00:00||AKTİFBANK|10.40.25.139|||110000438458|170
30.10.2018 12:00:00||AKTİFBANK|10.40.25.139|||110000438458|40
30.10.2018 12:00:00||AKTİFBANK|10.40.25.140|||110000438458|80
30.10.2018 12:00:00||AKTİFBANK|10.40.25.140|||110000438458|70
30.10.2018 12:00:00||AKTİFBANK|10.40.25.140|||110000438458|30
30.10.2018 12:00:00||AKTİFBANK|10.40.25.151|||110000438458|520
30.10.2018 12:00:00||AKTİFBANK|10.40.25.151|||110000438458|503
30.10.2018 12:00:00||AKTİFBANK|10.40.25.141|||110000438458|40
30.10.2018 12:00:00||AKTİFBANK|10.40.25.141|||110000438458|100
30.10.2018 12:00:00||AKTİFBANK|10.40.25.141|||110000438458|80
30.10.2018 12:00:00||AKTİFBANK|10.40.25.142|||110000438458|40
30.10.2018 12:00:00||AKTİFBANK|10.40.25.149|||110000438458|70
30.10.2018 12:00:00||AKTİFBANK|10.40.25.149|||110000438458|110
30.10.2018 12:00:00||AKTİFBANK|10.40.25.149|||110000438458|90
30.10.2018 12:00:00||AKTİFBANK|10.40.25.149|||110000438458|93
30.10.2018 12:00:00||AKTİFBANK|10.40.25.149|||110000438458|100
30.10.2018 12:00:00||AKTİFBANK|10.40.24.139|||110000438458|62
30.10.2018 12:00:00||AKTİFBANK|10.40.25.153|||110000438458|10
30.10.2018 12:00:00||AKTİFBANK|10.40.25.150|||110000438458|582
30.10.2018 12:00:00||AKTİFBANK|10.40.25.153|||110000438458|70
30.10.2018 12:00:00||AKTİFBANK|10.40.25.163|||110000438458|50
30.10.2018 12:00:00||AKTİFBANK|10.40.24.141|||110000438458|77
30.10.2018 12:00:00||AKTİFBANK|10.40.24.151|||110000438458|500
30.10.2018 12:00:00||AKTİFBANK|10.40.25.153|||110000438458|80
30.10.2018 12:00:00||AKTİFBANK|10.40.24.149|||110000438458|97
30.10.2018 12:00:00||AKTİFBANK|10.40.24.141|||110000438458|50
30.10.2018 12:00:00||AKTİFBANK|10.40.25.133|||110000438458|280
30.10.2018 12:00:00||AKTİFBANK|10.40.25.133|||110000438458|90
30.10.2018 12:00:00||AKTİFBANK|10.40.24.149|||110000438458|93
30.10.2018 12:00:00||AKTİFBANK|10.40.24.162|||110000438458|212
30.10.2018 12:00:00||AKTİFBANK|10.40.24.162|||110000438458|30
30.10.2018 12:00:00||AKTİFBANK|10.40.24.162|||110000438458|40
30.10.2018 12:00:00||AKTİFBANK|10.40.25.133|||110000438458|150
30.10.2018 12:00:00||AKTİFBANK|10.40.25.138|||110000438458|130
30.10.2018 12:00:00||AKTİFBANK|10.40.25.149|||110000438458|108
30.10.2018 12:00:00||AKTİFBANK|10.40.25.149|||110000438458|70
30.10.2018 12:00:00||AKTİFBANK|10.40.25.149|||110000438458|30
30.10.2018 12:00:00||AKTİFBANK|10.40.25.149|||110000438458|80
30.10.2018 12:00:00||AKTİFBANK|10.40.25.149|||110000438458|70
30.10.2018 12:00:00||AKTİFBANK|10.40.25.141|||110000438458|100
30.10.2018 12:00:00||AKTİFBANK|10.40.25.149|||110000438458|130
30.10.2018 12:00:00||AKTİFBANK|10.40.25.138|||110000438458|102
30.10.2018 12:00:00||AKTİFBANK|10.40.25.138|||110000438458|70
30.10.2018 12:00:00||AKTİFBANK|10.40.25.139|||110000438458|100
30.10.2018 12:00:00||AKTİFBANK|10.40.24.145|||110000438458|70
30.10.2018 12:00:00||AKTİFBANK|10.40.24.149|||110000438458|160
30.10.2018 12:00:00||AKTİFBANK|10.40.25.138|||110000438458|30
30.10.2018 12:00:00||AKTİFBANK|10.40.25.138|||110000438458|12
30.10.2018 12:00:00||AKTİFBANK|10.40.25.153|||110000438458|60
30.10.2018 12:00:00||AKTİFBANK|10.40.24.150|||110000438458|560
30.10.2018 12:00:00||AKTİFBANK|10.40.25.128|||110000438458|70
30.10.2018 12:00:00||AKTİFBANK|10.40.25.128|||110000438458|90
30.10.2018 12:00:00||AKTİFBANK|10.40.25.128|||110000438458|90
30.10.2018 12:00:00||AKTİFBANK|10.40.25.128|||110000438458|40
30.10.2018 12:00:00||AKTİFBANK|10.40.25.128|||110000438458|68
30.10.2018 12:00:00||AKTİFBANK|10.40.25.129|||110000438458|87
30.10.2018 12:00:00||AKTİFBANK|10.40.25.129|||110000438458|80
30.10.2018 12:00:00||AKTİFBANK|10.40.25.129|||110000438458|133
30.10.2018 12:00:00||AKTİFBANK|10.40.25.129|||110000438458|100
30.10.2018 12:00:00||AKTİFBANK|10.40.25.129|||110000438458|97
30.10.2018 12:00:00||AKTİFBANK|10.40.25.130|||110000438458|70
30.10.2018 12:00:00||AKTİFBANK|10.40.25.130|||110000438458|50
30.10.2018 12:00:00||AKTİFBANK|10.40.25.130|||110000438458|80
30.10.2018 12:00:00||AKTİFBANK|10.40.25.130|||110000438458|40
30.10.2018 12:00:00||AKTİFBANK|10.40.25.130|||110000438458|60
30.10.2018 12:00:00||AKTİFBANK|10.40.25.130|||110000438458|100
30.10.2018 12:00:00||AKTİFBANK|10.40.25.130|||110000438458|90
30.10.2018 12:00:00||AKTİFBANK|10.40.25.131|||110000438458|20
30.10.2018 12:00:00||AKTİFBANK|10.40.25.131|||110000438458|82
30.10.2018 12:00:00||AKTİFBANK|10.40.25.131|||110000438458|100
30.10.2018 12:00:00||AKTİFBANK|10.40.25.131|||110000438458|105
30.10.2018 12:00:00||AKTİFBANK|10.40.25.131|||110000438458|93
30.10.2018 12:00:00||AKTİFBANK|10.40.25.131|||110000438458|80
30.10.2018 12:00:00||AKTİFBANK|10.40.25.131|||110000438458|20
30.10.2018 12:00:00||AKTİFBANK|10.40.25.131|||110000438458|120
30.10.2018 12:00:00||AKTİFBANK|10.40.25.132|||110000438458|60
30.10.2018 12:00:00||AKTİFBANK|10.40.25.132|||110000438458|80
30.10.2018 12:00:00||AKTİFBANK|10.40.25.132|||110000438458|27
30.10.2018 12:00:00||AKTİFBANK|10.40.25.132|||110000438458|78
30.10.2018 12:00:00||AKTİFBANK|10.40.25.132|||110000438458|47
30.10.2018 12:00:00||AKTİFBANK|10.40.25.143|||110000438458|307
30.10.2018 12:00:00||AKTİFBANK|10.40.25.144|||110000438458|80
30.10.2018 12:00:00||AKTİFBANK|10.40.25.144|||110000438458|50
30.10.2018 12:00:00||AKTİFBANK|10.40.25.144|||110000438458|20
30.10.2018 12:00:00||AKTİFBANK|10.40.25.154|||110000438458|10
30.10.2018 12:00:00||AKTİFBANK|10.40.25.154|||110000438458|10
30.10.2018 12:00:00||AKTİFBANK|10.40.25.154|||110000438458|10
30.10.2018 12:00:00||AKTİFBANK|10.40.25.157|||110000438458|70
30.10.2018 12:00:00||AKTİFBANK|10.40.25.157|||110000438458|70
30.10.2018 12:00:00||AKTİFBANK|10.40.25.157|||110000438458|70
30.10.2018 12:00:00||AKTİFBANK|10.40.25.157|||110000438458|83
30.10.2018 12:00:00||AKTİFBANK|10.40.25.157|||110000438458|42
30.10.2018 12:00:00||AKTİFBANK|10.40.25.159|||110000438458|60
30.10.2018 12:00:00||AKTİFBANK|10.40.25.159|||110000438458|10
30.10.2018 12:00:00||AKTİFBANK|10.40.25.159|||110000438458|90
30.10.2018 12:00:00||AKTİFBANK|10.40.25.158|||110000438458|55
30.10.2018 12:00:00||AKTİFBANK|10.40.25.158|||110000438458|18
30.10.2018 12:00:00||AKTİFBANK|10.40.25.158|||110000438458|22
30.10.2018 12:00:00||AKTİFBANK|10.40.25.158|||110000438458|50
30.10.2018 12:00:00||AKTİFBANK|10.40.25.160|||110000438458|90
30.10.2018 12:00:00||AKTİFBANK|10.40.25.161|||110000438458|80
30.10.2018 12:00:00||AKTİFBANK|10.40.25.161|||110000438458|70
30.10.2018 12:00:00||AKTİFBANK|10.40.25.161|||110000438458|50
30.10.2018 12:00:00||AKTİFBANK|10.40.25.145|||110000438458|90
30.10.2018 12:00:00||AKTİFBANK|10.40.25.145|||110000438458|60
30.10.2018 12:00:00||AKTİFBANK|10.40.25.145|||110000438458|60
30.10.2018 12:00:00||AKTİFBANK|10.40.25.145|||110000438458|30
30.10.2018 12:00:00||AKTİFBANK|10.40.25.145|||110000438458|50
30.10.2018 12:00:00||AKTİFBANK|10.40.25.147|||110000438458|90
30.10.2018 12:00:00||AKTİFBANK|10.40.25.162|||110000438458|30
30.10.2018 12:00:00||AKTİFBANK|10.40.25.162|||110000438458|30
30.10.2018 12:00:00||AKTİFBANK|10.40.25.162|||110000438458|60
30.10.2018 12:00:00||AKTİFBANK|10.40.25.164|||110000438458|60
30.10.2018 12:00:00||AKTİFBANK|10.40.25.164|||110000438458|280
30.10.2018 12:00:00||AKTİFBANK|10.40.25.164|||110000438458|50
30.10.2018 12:00:00||AKTİFBANK|10.40.25.164|||110000438458|260
30.10.2018 12:00:00||AKTİFBANK|10.40.25.164|||110000438458|270
30.10.2018 12:00:00||AKTİFBANK|10.40.25.165|||110000438458|110
30.10.2018 12:00:00||AKTİFBANK|10.40.25.165|||110000438458|70
30.10.2018 12:00:00||AKTİFBANK|10.40.25.165|||110000438458|80
30.10.2018 12:00:00||AKTİFBANK|10.40.25.165|||110000438458|103
30.10.2018 12:00:00||AKTİFBANK|10.40.25.166|||110000438458|90
30.10.2018 12:00:00||AKTİFBANK|10.40.25.166|||110000438458|10
30.10.2018 12:00:00||AKTİFBANK|10.40.25.166|||110000438458|10
30.10.2018 12:00:00||AKTİFBANK|10.40.25.166|||110000438458|40
30.10.2018 12:00:00||AKTİFBANK|10.40.25.148|||110000438458|130
30.10.2018 12:00:00||AKTİFBANK|10.40.25.148|||110000438458|50
30.10.2018 12:00:00||AKTİFBANK|10.40.25.148|||110000438458|100
30.10.2018 12:00:00||AKTİFBANK|10.40.25.148|||110000438458|130
30.10.2018 12:00:00||AKTİFBANK|10.40.25.148|||110000438458|90
30.10.2018 12:00:00||AKTİFBANK|10.40.25.148|||110000438458|80
30.10.2018 12:00:00||AKTİFBANK|10.40.25.148|||110000438458|70
30.10.2018 12:00:00||AKTİFBANK|10.40.25.148|||110000438458|50
30.10.2018 12:00:00||AKTİFBANK|10.40.25.148|||110000438458|80
30.10.2018 12:00:00||AKTİFBANK|10.40.25.148|||110000438458|40
30.10.2018 12:00:00||AKTİFBANK|10.40.25.148|||110000438458|100
30.10.2018 12:00:00||AKTİFBANK|10.40.25.148|||110000438458|60
30.10.2018 12:00:00||AKTİFBANK|10.40.25.155|||110000438458|70
30.10.2018 12:00:00||AKTİFBANK|10.40.25.155|||110000438458|90
30.10.2018 12:00:00||AKTİFBANK|10.40.25.155|||110000438458|110
30.10.2018 12:00:00||AKTİFBANK|10.40.25.155|||110000438458|120
30.10.2018 12:00:00||AKTİFBANK|10.40.25.155|||110000438458|110
30.10.2018 12:00:00||AKTİFBANK|10.40.25.156|||110000438458|20
30.10.2018 12:00:00||AKTİFBANK|10.40.25.156|||110000438458|22
30.10.2018 12:00:00||AKTİFBANK|10.40.25.139|||110000438458|70
30.10.2018 12:00:00||AKTİFBANK|10.40.25.139|||110000438458|80
30.10.2018 12:00:00||AKTİFBANK|10.40.25.150|||110000438458|532
30.10.2018 12:00:00||AKTİFBANK|10.40.25.129|||110000438458|85
30.10.2018 12:00:00||AKTİFBANK|10.40.25.129|||110000438458|140
30.10.2018 12:00:00||AKTİFBANK|10.40.25.130|||110000438458|70
30.10.2018 12:00:00||AKTİFBANK|10.40.25.130|||110000438458|130
30.10.2018 12:00:00||AKTİFBANK|10.40.25.130|||110000438458|100
30.10.2018 12:00:00||AKTİFBANK|10.40.25.131|||110000438458|47
30.10.2018 12:00:00||AKTİFBANK|10.40.25.143|||110000438458|60
30.10.2018 12:00:00||AKTİFBANK|10.40.25.143|||110000438458|243
30.10.2018 12:00:00||AKTİFBANK|10.40.25.143|||110000438458|257
30.10.2018 12:00:00||AKTİFBANK|10.40.25.158|||110000438458|103
30.10.2018 12:00:00||AKTİFBANK|10.40.25.160|||110000438458|112
30.10.2018 12:00:00||AKTİFBANK|10.40.25.162|||110000438458|30
30.10.2018 12:00:00||AKTİFBANK|10.40.25.162|||110000438458|40
30.10.2018 12:00:00||AKTİFBANK|10.40.24.140|||110000438458|160
30.10.2018 12:00:00||AKTİFBANK|10.40.24.140|||110000438458|80
30.10.2018 12:00:00||AKTİFBANK|10.40.24.140|||110000438458|40
30.10.2018 12:00:00||AKTİFBANK|10.40.24.140|||110000438458|30
30.10.2018 12:00:00||AKTİFBANK|10.40.24.140|||110000438458|30
30.10.2018 12:00:00||AKTİFBANK|10.40.24.140|||110000438458|30
30.10.2018 12:00:00||AKTİFBANK|10.40.24.149|||110000438458|80
30.10.2018 12:00:00||AKTİFBANK|10.40.24.149|||110000438458|120
30.10.2018 12:00:00||AKTİFBANK|10.40.24.149|||110000438458|95
30.10.2018 12:00:00||AKTİFBANK|10.40.24.149|||110000438458|98
30.10.2018 12:00:00||AKTİFBANK|10.40.24.149|||110000438458|55
30.10.2018 12:00:00||AKTİFBANK|10.40.24.149|||110000438458|138
30.10.2018 12:00:00||AKTİFBANK|10.40.24.149|||110000438458|90
30.10.2018 12:00:00||AKTİFBANK|10.40.24.149|||110000438458|90
30.10.2018 12:00:00||AKTİFBANK|10.40.24.149|||110000438458|100
30.10.2018 12:00:00||AKTİFBANK|10.40.24.149|||110000438458|80
30.10.2018 12:00:00||AKTİFBANK|10.40.24.133|||110000438458|275
30.10.2018 12:00:00||AKTİFBANK|10.40.24.133|||110000438458|143
30.10.2018 12:00:00||AKTİFBANK|10.40.24.133|||110000438458|120
30.10.2018 12:00:00||AKTİFBANK|10.40.24.133|||110000438458|90
30.10.2018 12:00:00||AKTİFBANK|10.40.24.138|||110000438458|113
30.10.2018 12:00:00||AKTİFBANK|10.40.24.138|||110000438458|140
30.10.2018 12:00:00||AKTİFBANK|10.40.24.138|||110000438458|117
30.10.2018 12:00:00||AKTİFBANK|10.40.24.138|||110000438458|30
30.10.2018 12:00:00||AKTİFBANK|10.40.24.138|||110000438458|50
30.10.2018 12:00:00||AKTİFBANK|10.40.24.139|||110000438458|160
30.10.2018 12:00:00||AKTİFBANK|10.40.24.139|||110000438458|90
30.10.2018 12:00:00||AKTİFBANK|10.40.24.139|||110000438458|120
30.10.2018 12:00:00||AKTİFBANK|10.40.24.141|||110000438458|200
30.10.2018 12:00:00||AKTİFBANK|10.40.24.141|||110000438458|100
30.10.2018 12:00:00||AKTİFBANK|10.40.24.141|||110000438458|100
30.10.2018 12:00:00||AKTİFBANK|10.40.24.141|||110000438458|73
30.10.2018 12:00:00||AKTİFBANK|10.40.24.141|||110000438458|80
30.10.2018 12:00:00||AKTİFBANK|10.40.25.152|||110000438458|110
30.10.2018 12:00:00||AKTİFBANK|10.40.25.152|||110000438458|50
30.10.2018 12:00:00||AKTİFBANK|10.40.25.152|||110000438458|140
30.10.2018 12:00:00||AKTİFBANK|10.40.25.152|||110000438458|70
30.10.2018 12:00:00||AKTİFBANK|10.40.25.152|||110000438458|90
30.10.2018 12:00:00||AKTİFBANK|10.40.25.152|||110000438458|160
30.10.2018 12:00:00||AKTİFBANK|10.40.25.152|||110000438458|50
30.10.2018 12:00:00||AKTİFBANK|10.40.25.152|||110000438458|90
30.10.2018 12:00:00||AKTİFBANK|10.40.25.152|||110000438458|30
30.10.2018 12:00:00||AKTİFBANK|10.40.25.152|||110000438458|80
30.10.2018 12:00:00||AKTİFBANK|10.40.25.152|||110000438458|30
30.10.2018 12:00:00||AKTİFBANK|10.40.24.150|||110000438458|573
30.10.2018 12:00:00||AKTİFBANK|10.40.24.151|||110000438458|530
30.10.2018 12:00:00||AKTİFBANK|10.40.24.151|||110000438458|530
30.10.2018 12:00:00||AKTİFBANK|10.40.24.128|||110000438458|60
30.10.2018 12:00:00||AKTİFBANK|10.40.24.128|||110000438458|70
30.10.2018 12:00:00||AKTİFBANK|10.40.24.128|||110000438458|98
30.10.2018 12:00:00||AKTİFBANK|10.40.24.128|||110000438458|40
30.10.2018 12:00:00||AKTİFBANK|10.40.24.128|||110000438458|70
30.10.2018 12:00:00||AKTİFBANK|10.40.24.128|||110000438458|50
30.10.2018 12:00:00||AKTİFBANK|10.40.24.129|||110000438458|100
30.10.2018 12:00:00||AKTİFBANK|10.40.24.129|||110000438458|70
30.10.2018 12:00:00||AKTİFBANK|10.40.24.129|||110000438458|110
30.10.2018 12:00:00||AKTİFBANK|10.40.24.129|||110000438458|120
30.10.2018 12:00:00||AKTİFBANK|10.40.24.129|||110000438458|40
30.10.2018 12:00:00||AKTİFBANK|10.40.24.129|||110000438458|70
30.10.2018 12:00:00||AKTİFBANK|10.40.24.129|||110000438458|70
30.10.2018 12:00:00||AKTİFBANK|10.40.24.129|||110000438458|90
30.10.2018 12:00:00||AKTİFBANK|10.40.24.129|||110000438458|80
30.10.2018 12:00:00||AKTİFBANK|10.40.24.129|||110000438458|140
30.10.2018 12:00:00||AKTİFBANK|10.40.24.130|||110000438458|57
30.10.2018 12:00:00||AKTİFBANK|10.40.24.130|||110000438458|40
30.10.2018 12:00:00||AKTİFBANK|10.40.24.130|||110000438458|68
30.10.2018 12:00:00||AKTİFBANK|10.40.24.130|||110000438458|40
30.10.2018 12:00:00||AKTİFBANK|10.40.24.130|||110000438458|60
30.10.2018 12:00:00||AKTİFBANK|10.40.24.130|||110000438458|75
30.10.2018 12:00:00||AKTİFBANK|10.40.24.130|||110000438458|83
30.10.2018 12:00:00||AKTİFBANK|10.40.24.130|||110000438458|40
30.10.2018 12:00:00||AKTİFBANK|10.40.24.130|||110000438458|130
30.10.2018 12:00:00||AKTİFBANK|10.40.24.130|||110000438458|110
30.10.2018 12:00:00||AKTİFBANK|10.40.24.131|||110000438458|90
30.10.2018 12:00:00||AKTİFBANK|10.40.24.131|||110000438458|90
30.10.2018 12:00:00||AKTİFBANK|10.40.24.131|||110000438458|110
30.10.2018 12:00:00||AKTİFBANK|10.40.24.131|||110000438458|115
30.10.2018 12:00:00||AKTİFBANK|10.40.24.131|||110000438458|42
30.10.2018 12:00:00||AKTİFBANK|10.40.24.131|||110000438458|160
30.10.2018 12:00:00||AKTİFBANK|10.40.24.131|||110000438458|60
30.10.2018 12:00:00||AKTİFBANK|10.40.24.131|||110000438458|110
30.10.2018 12:00:00||AKTİFBANK|10.40.24.132|||110000438458|33
30.10.2018 12:00:00||AKTİFBANK|10.40.24.132|||110000438458|98
30.10.2018 12:00:00||AKTİFBANK|10.40.24.132|||110000438458|52
30.10.2018 12:00:00||AKTİFBANK|10.40.24.132|||110000438458|192
30.10.2018 12:00:00||AKTİFBANK|10.40.24.132|||110000438458|62
30.10.2018 12:00:00||AKTİFBANK|10.40.24.143|||110000438458|65
30.10.2018 12:00:00||AKTİFBANK|10.40.24.143|||110000438458|267
30.10.2018 12:00:00||AKTİFBANK|10.40.24.143|||110000438458|330
30.10.2018 12:00:00||AKTİFBANK|10.40.24.143|||110000438458|202
30.10.2018 12:00:00||AKTİFBANK|10.40.24.144|||110000438458|70
30.10.2018 12:00:00||AKTİFBANK|10.40.24.144|||110000438458|110
30.10.2018 12:00:00||AKTİFBANK|10.40.24.144|||110000438458|130
30.10.2018 12:00:00||AKTİFBANK|10.40.24.148|||110000438458|70
30.10.2018 12:00:00||AKTİFBANK|10.40.24.148|||110000438458|170
30.10.2018 12:00:00||AKTİFBANK|10.40.24.148|||110000438458|90
30.10.2018 12:00:00||AKTİFBANK|10.40.24.148|||110000438458|110
30.10.2018 12:00:00||AKTİFBANK|10.40.24.148|||110000438458|80
30.10.2018 12:00:00||AKTİFBANK|10.40.24.148|||110000438458|90
30.10.2018 12:00:00||AKTİFBANK|10.40.24.148|||110000438458|90
30.10.2018 12:00:00||AKTİFBANK|10.40.24.148|||110000438458|100
30.10.2018 12:00:00||AKTİFBANK|10.40.24.148|||110000438458|90
30.10.2018 12:00:00||AKTİFBANK|10.40.24.148|||110000438458|60
30.10.2018 12:00:00||AKTİFBANK|10.40.24.148|||110000438458|30
30.10.2018 12:00:00||AKTİFBANK|10.40.24.148|||110000438458|80
30.10.2018 12:00:00||AKTİFBANK|10.40.24.153|||110000438458|10
30.10.2018 12:00:00||AKTİFBANK|10.40.24.153|||110000438458|90
30.10.2018 12:00:00||AKTİFBANK|10.40.24.153|||110000438458|70
30.10.2018 12:00:00||AKTİFBANK|10.40.24.153|||110000438458|80
30.10.2018 12:00:00||AKTİFBANK|10.40.24.157|||110000438458|30
30.10.2018 12:00:00||AKTİFBANK|10.40.24.157|||110000438458|70
30.10.2018 12:00:00||AKTİFBANK|10.40.24.157|||110000438458|70
30.10.2018 12:00:00||AKTİFBANK|10.40.24.157|||110000438458|40
30.10.2018 12:00:00||AKTİFBANK|10.40.24.157|||110000438458|80
30.10.2018 12:00:00||AKTİFBANK|10.40.24.157|||110000438458|40
30.10.2018 12:00:00||AKTİFBANK|10.40.24.158|||110000438458|80
30.10.2018 12:00:00||AKTİFBANK|10.40.24.158|||110000438458|110
30.10.2018 12:00:00||AKTİFBANK|10.40.24.159|||110000438458|132
30.10.2018 12:00:00||AKTİFBANK|10.40.24.159|||110000438458|52
30.10.2018 12:00:00||AKTİFBANK|10.40.24.159|||110000438458|185
30.10.2018 12:00:00||AKTİFBANK|10.40.24.160|||110000438458|50
30.10.2018 12:00:00||AKTİFBANK|10.40.24.160|||110000438458|90
30.10.2018 12:00:00||AKTİFBANK|10.40.24.160|||110000438458|103
30.10.2018 12:00:00||AKTİFBANK|10.40.24.161|||110000438458|200
30.10.2018 12:00:00||AKTİFBANK|10.40.24.161|||110000438458|80
30.10.2018 12:00:00||AKTİFBANK|10.40.24.161|||110000438458|40
30.10.2018 12:00:00||AKTİFBANK|10.40.24.161|||110000438458|30
30.10.2018 12:00:00||AKTİFBANK|10.40.24.161|||110000438458|30
30.10.2018 12:00:00||AKTİFBANK|10.40.24.161|||110000438458|20
30.10.2018 12:00:00||AKTİFBANK|10.40.24.161|||110000438458|90
30.10.2018 12:00:00||AKTİFBANK|10.40.24.145|||110000438458|30
30.10.2018 12:00:00||AKTİFBANK|10.40.24.145|||110000438458|70
30.10.2018 12:00:00||AKTİFBANK|10.40.24.145|||110000438458|50
30.10.2018 12:00:00||AKTİFBANK|10.40.24.147|||110000438458|90
30.10.2018 12:00:00||AKTİFBANK|10.40.24.162|||110000438458|40
30.10.2018 12:00:00||AKTİFBANK|10.40.24.162|||110000438458|40
30.10.2018 12:00:00||AKTİFBANK|10.40.24.162|||110000438458|125
30.10.2018 12:00:00||AKTİFBANK|10.40.24.162|||110000438458|10
30.10.2018 12:00:00||AKTİFBANK|10.40.24.162|||110000438458|50
30.10.2018 12:00:00||AKTİFBANK|10.40.24.163|||110000438458|30
30.10.2018 12:00:00||AKTİFBANK|10.40.24.163|||110000438458|70
30.10.2018 12:00:00||AKTİFBANK|10.40.24.164|||110000438458|58
30.10.2018 12:00:00||AKTİFBANK|10.40.24.164|||110000438458|330
30.10.2018 12:00:00||AKTİFBANK|10.40.24.164|||110000438458|210
30.10.2018 12:00:00||AKTİFBANK|10.40.24.165|||110000438458|77
30.10.2018 12:00:00||AKTİFBANK|10.40.24.165|||110000438458|80
30.10.2018 12:00:00||AKTİFBANK|10.40.24.165|||110000438458|50
30.10.2018 12:00:00||AKTİFBANK|10.40.24.165|||110000438458|123
30.10.2018 12:00:00||AKTİFBANK|10.40.24.166|||110000438458|80
30.10.2018 12:00:00||AKTİFBANK|10.40.24.166|||110000438458|90
30.10.2018 12:00:00||AKTİFBANK|10.40.24.166|||110000438458|10
30.10.2018 12:00:00||AKTİFBANK|10.40.25.168|||110000438458|90
30.10.2018 12:00:00||AKTİFBANK|10.40.25.168|||110000438458|70
30.10.2018 12:00:00||AKTİFBANK|10.40.25.168|||110000438458|50
30.10.2018 12:00:00||AKTİFBANK|10.40.25.168|||110000438458|40
30.10.2018 12:00:00||AKTİFBANK|10.40.25.168|||110000438458|60
30.10.2018 12:00:00||AKTİFBANK|10.40.24.168|||110000438458|90
30.10.2018 12:00:00||AKTİFBANK|10.40.24.168|||110000438458|80
30.10.2018 12:00:00||AKTİFBANK|10.40.24.168|||110000438458|70
30.10.2018 12:00:00||AKTİFBANK|10.40.24.168|||110000438458|70
30.10.2018 12:00:00||AKTİFBANK|10.40.24.168|||110000438458|30
30.10.2018 12:00:00||AKTİFBANK|10.40.24.154|||110000438458|70
30.10.2018 12:00:00||AKTİFBANK|10.40.24.154|||110000438458|20
30.10.2018 12:00:00||AKTİFBANK|10.40.24.154|||110000438458|10
30.10.2018 12:00:00||AKTİFBANK|10.40.24.154|||110000438458|10
30.10.2018 12:00:00||AKTİFBANK|10.40.24.154|||110000438458|10
30.10.2018 12:00:00||AKTİFBANK|10.40.24.154|||110000438458|10
30.10.2018 12:00:00||AKTİFBANK|10.40.24.155|||110000438458|58
30.10.2018 12:00:00||AKTİFBANK|10.40.24.155|||110000438458|100
30.10.2018 12:00:00||AKTİFBANK|10.40.24.155|||110000438458|133
30.10.2018 12:00:00||AKTİFBANK|10.40.24.155|||110000438458|80
30.10.2018 12:00:00||AKTİFBANK|10.40.24.155|||110000438458|117
30.10.2018 12:00:00||AKTİFBANK|10.40.24.155|||110000438458|100
30.10.2018 12:00:00||AKTİFBANK|10.40.25.169|||110000438458|92
30.10.2018 12:00:00||AKTİFBANK|10.40.25.169|||110000438458|98
30.10.2018 12:00:00||AKTİFBANK|10.40.25.169|||110000438458|70
30.10.2018 12:00:00||AKTİFBANK|10.40.25.169|||110000438458|70
30.10.2018 12:00:00||AKTİFBANK|10.40.24.169|||110000438458|73
30.10.2018 12:00:00||AKTİFBANK|10.40.24.169|||110000438458|83
30.10.2018 12:00:00||AKTİFBANK|10.40.24.169|||110000438458|68
30.10.2018 12:00:00||AKTİFBANK|10.40.24.169|||110000438458|80
30.10.2018 12:00:00||AKTİFBANK|10.40.25.170|||110000438458|30
30.10.2018 12:00:00||AKTİFBANK|10.40.25.170|||110000438458|30
30.10.2018 12:00:00||AKTİFBANK|10.40.25.170|||110000438458|200
30.10.2018 12:00:00||AKTİFBANK|10.40.25.170|||110000438458|100
30.10.2018 12:00:00||AKTİFBANK|10.40.25.170|||110000438458|80
30.10.2018 12:00:00||AKTİFBANK|10.40.25.170|||110000438458|120
30.10.2018 12:00:00||AKTİFBANK|10.40.24.170|||110000438458|60
30.10.2018 12:00:00||AKTİFBANK|10.40.24.170|||110000438458|60
30.10.2018 12:00:00||AKTİFBANK|10.40.24.170|||110000438458|350
30.10.2018 12:00:00||AKTİFBANK|10.40.24.170|||110000438458|83
30.10.2018 12:00:00||AKTİFBANK|10.40.24.170|||110000438458|100
30.10.2018 12:00:00||AKTİFBANK|10.40.24.170|||110000438458|77
30.10.2018 12:00:00||AKTİFBANK|10.40.25.178|||110000438458|590
30.10.2018 12:00:00||AKTİFBANK|10.40.25.178|||110000438458|560
30.10.2018 12:00:00||AKTİFBANK|10.40.25.178|||110000438458|550
30.10.2018 12:00:00||AKTİFBANK|10.40.24.178|||110000438458|567
30.10.2018 12:00:00||AKTİFBANK|10.40.24.178|||110000438458|552
30.10.2018 12:00:00||AKTİFBANK|10.40.24.178|||110000438458|555
30.10.2018 12:00:00||AKTİFBANK|10.40.25.179|||110000438458|402
30.10.2018 12:00:00||AKTİFBANK|10.40.25.179|||110000438458|360
30.10.2018 12:00:00||AKTİFBANK|10.40.25.179|||110000438458|357
30.10.2018 12:00:00||AKTİFBANK|10.40.24.179|||110000438458|320
30.10.2018 12:00:00||AKTİFBANK|10.40.24.179|||110000438458|330
30.10.2018 12:00:00||AKTİFBANK|10.40.24.179|||110000438458|320
30.10.2018 12:00:00||AKTİFBANK|10.40.24.142|||110000438458|40
30.10.2018 12:00:00||AKTİFBANK|10.40.24.156|||110000438458|50
30.10.2018 12:00:00||AKTİFBANK|10.40.24.156|||110000438458|50
30.10.2018 12:00:00||AKTİFBANK|10.40.25.186|||110000438458|90
30.10.2018 12:00:00||AKTİFBANK|10.40.25.186|||110000438458|20
30.10.2018 12:00:00||AKTİFBANK|10.40.25.186|||110000438458|70
30.10.2018 12:00:00||AKTİFBANK|10.40.24.186|||110000438458|92
30.10.2018 12:00:00||AKTİFBANK|10.40.24.186|||110000438458|30
30.10.2018 12:00:00||AKTİFBANK|10.40.24.186|||110000438458|55
30.10.2018 12:00:00||AKTİFBANK|10.40.24.186|||110000438458|40
30.10.2018 12:00:00||AKTİFBANK|10.40.24.152|||110000438458|10
30.10.2018 12:00:00||AKTİFBANK|10.40.24.152|||110000438458|50
30.10.2018 12:00:00||AKTİFBANK|10.40.24.152|||110000438458|118
30.10.2018 12:00:00||AKTİFBANK|10.40.24.152|||110000438458|103
30.10.2018 12:00:00||AKTİFBANK|10.40.24.152|||110000438458|100
30.10.2018 12:00:00||AKTİFBANK|10.40.24.152|||110000438458|100
30.10.2018 12:00:00||AKTİFBANK|10.40.24.152|||110000438458|287
30.10.2018 12:00:00||AKTİFBANK|10.40.24.152|||110000438458|78
30.10.2018 12:00:00||AKTİFBANK|10.40.24.152|||110000438458|92
30.10.2018 12:00:00||AKTİFBANK|10.40.24.152|||110000438458|30
30.10.2018 12:00:00||AKTİFBANK|10.40.24.152|||110000438458|75
30.10.2018 12:00:00||AKTİFBANK|10.40.24.152|||110000438458|30
30.10.2018 12:00:00||BARİKAT İNTERNET GÜVENLİĞİ|10.40.25.201|||110000479736|118
30.10.2018 12:00:00||BARİKAT İNTERNET GÜVENLİĞİ|10.40.25.201|||110000479736|100
30.10.2018 12:00:00||BARİKAT İNTERNET GÜVENLİĞİ|10.40.24.201|||110000479736|140
30.10.2018 12:00:00||BARİKAT İNTERNET GÜVENLİĞİ|10.40.24.201|||110000479736|100
30.10.2018 12:00:00||BOYNER|10.40.26.100|||101367941673|58
30.10.2018 12:00:00||BOYNER|10.40.26.101|||101367941673|166
30.10.2018 12:00:00||BOYNER|10.40.27.100|||101367941673|53
30.10.2018 12:00:00||BOYNER|10.40.27.101|||101367941673|165
30.10.2018 12:00:00||BOYNER|10.40.27.94|||101367941673|210
30.10.2018 12:00:00||BOYNER|10.40.27.94|||101367941673|90
30.10.2018 12:00:00||BOYNER|10.40.27.94|||101367941673|90
30.10.2018 12:00:00||BOYNER|10.40.27.94|||101367941673|100
30.10.2018 12:00:00||BOYNER|10.40.26.94|||101367941673|90
30.10.2018 12:00:00||BOYNER|10.40.26.94|||101367941673|80
30.10.2018 12:00:00||BOYNER|10.40.26.94|||101367941673|80
30.10.2018 12:00:00||BOYNER|10.40.27.95|||101367941673|125
30.10.2018 12:00:00||BOYNER|10.40.27.95|||101367941673|125
30.10.2018 12:00:00||BOYNER|10.40.27.95|||101367941673|232
30.10.2018 12:00:00||BOYNER|10.40.26.95|||101367941673|120
30.10.2018 12:00:00||BOYNER|10.40.26.95|||101367941673|192
30.10.2018 12:00:00||BOYNER|10.40.26.95|||101367941673|130
30.10.2018 12:00:00||BOYNER|10.40.27.96|||101367941673|60
30.10.2018 12:00:00||BOYNER|10.40.27.96|||101367941673|50
30.10.2018 12:00:00||BOYNER|10.40.27.96|||101367941673|50
30.10.2018 12:00:00||BOYNER|10.40.27.96|||101367941673|40
30.10.2018 12:00:00||BOYNER|10.40.27.96|||101367941673|40
30.10.2018 12:00:00||BOYNER|10.40.27.96|||101367941673|147
30.10.2018 12:00:00||BOYNER|10.40.27.96|||101367941673|153
30.10.2018 12:00:00||BOYNER|10.40.27.96|||101367941673|170
30.10.2018 12:00:00||BOYNER|10.40.27.96|||101367941673|163
30.10.2018 12:00:00||BOYNER|10.40.26.96|||101367941673|30
30.10.2018 12:00:00||BOYNER|10.40.26.96|||101367941673|42
30.10.2018 12:00:00||BOYNER|10.40.26.96|||101367941673|30
30.10.2018 12:00:00||BOYNER|10.40.26.96|||101367941673|40
30.10.2018 12:00:00||BOYNER|10.40.26.96|||101367941673|40
30.10.2018 12:00:00||BOYNER|10.40.26.96|||101367941673|50
30.10.2018 12:00:00||BOYNER|10.40.26.96|||101367941673|190
30.10.2018 12:00:00||BOYNER|10.40.26.96|||101367941673|198
30.10.2018 12:00:00||BOYNER|10.40.26.96|||101367941673|162
30.10.2018 12:00:00||BOYNER|10.40.26.96|||101367941673|173
30.10.2018 12:00:00||BOYNER|10.40.27.97|||101367941673|60
30.10.2018 12:00:00||BOYNER|10.40.27.97|||101367941673|668
30.10.2018 12:00:00||BOYNER|10.40.27.97|||101367941673|675
30.10.2018 12:00:00||BOYNER|10.40.27.97|||101367941673|707
30.10.2018 12:00:00||BOYNER|10.40.27.97|||101367941673|42
30.10.2018 12:00:00||BOYNER|10.40.27.97|||101367941673|32
30.10.2018 12:00:00||BOYNER|10.40.27.97|||101367941673|52
30.10.2018 12:00:00||BOYNER|10.40.27.97|||101367941673|30
30.10.2018 12:00:00||BOYNER|10.40.27.97|||101367941673|185
30.10.2018 12:00:00||BOYNER|10.40.27.97|||101367941673|175
30.10.2018 12:00:00||BOYNER|10.40.27.97|||101367941673|190
30.10.2018 12:00:00||BOYNER|10.40.27.97|||101367941673|193
30.10.2018 12:00:00||BOYNER|10.40.26.97|||101367941673|30
30.10.2018 12:00:00||BOYNER|10.40.26.97|||101367941673|670
30.10.2018 12:00:00||BOYNER|10.40.26.97|||101367941673|665
30.10.2018 12:00:00||BOYNER|10.40.26.97|||101367941673|673
30.10.2018 12:00:00||BOYNER|10.40.26.97|||101367941673|35
30.10.2018 12:00:00||BOYNER|10.40.26.97|||101367941673|40
30.10.2018 12:00:00||BOYNER|10.40.26.97|||101367941673|50
30.10.2018 12:00:00||BOYNER|10.40.26.97|||101367941673|60
30.10.2018 12:00:00||BOYNER|10.40.26.97|||101367941673|32
30.10.2018 12:00:00||BOYNER|10.40.26.97|||101367941673|170
30.10.2018 12:00:00||BOYNER|10.40.26.97|||101367941673|187
30.10.2018 12:00:00||BOYNER|10.40.26.97|||101367941673|178
30.10.2018 12:00:00||BOYNER|10.40.26.97|||101367941673|162
30.10.2018 12:00:00||BOYNER|10.40.27.99|||101367941673|130
30.10.2018 12:00:00||BOYNER|10.40.27.99|||101367941673|102
30.10.2018 12:00:00||BOYNER|10.40.27.99|||101367941673|85
30.10.2018 12:00:00||BOYNER|10.40.26.99|||101367941673|10
30.10.2018 12:00:00||BOYNER|10.40.26.99|||101367941673|112
30.10.2018 12:00:00||BOYNER|10.40.26.99|||101367941673|110
30.10.2018 12:00:00||BOYNER|10.40.26.99|||101367941673|80
30.10.2018 12:00:00||ÇALIK HOLDİNG|10.40.24.118|||110000438407|43
30.10.2018 12:00:00||ÇALIK HOLDİNG|10.40.25.99|||110000438407|138
30.10.2018 12:00:00||ÇALIK HOLDİNG|10.40.25.118|||110000438407|160
30.10.2018 12:00:00||ÇALIK HOLDİNG|10.40.25.120|||110000438407|90
30.10.2018 12:00:00||ÇALIK HOLDİNG|10.40.24.95|||110000438407|50
30.10.2018 12:00:00||ÇALIK HOLDİNG|10.40.25.97|||110000438407|80
30.10.2018 12:00:00||ÇALIK HOLDİNG|10.40.25.103|||110000438407|90
30.10.2018 12:00:00||ÇALIK HOLDİNG|10.40.25.120|||110000438407|40
30.10.2018 12:00:00||ÇALIK HOLDİNG|10.40.25.96|||110000438407|70
30.10.2018 12:00:00||ÇALIK HOLDİNG|10.40.25.96|||110000438407|90
30.10.2018 12:00:00||ÇALIK HOLDİNG|10.40.25.96|||110000438407|120
30.10.2018 12:00:00||ÇALIK HOLDİNG|10.40.25.96|||110000438407|90
30.10.2018 12:00:00||ÇALIK HOLDİNG|10.40.25.115|||110000438407|183
30.10.2018 12:00:00||ÇALIK HOLDİNG|10.40.25.115|||110000438407|75
30.10.2018 12:00:00||ÇALIK HOLDİNG|10.40.25.95|||110000438407|97
30.10.2018 12:00:00||ÇALIK HOLDİNG|10.40.25.96|||110000438407|90
30.10.2018 12:00:00||ÇALIK HOLDİNG|10.40.25.96|||110000438407|100
30.10.2018 12:00:00||ÇALIK HOLDİNG|10.40.25.120|||110000438407|20
30.10.2018 12:00:00||ÇALIK HOLDİNG|10.40.25.95|||110000438407|78
30.10.2018 12:00:00||ÇALIK HOLDİNG|10.40.24.94|||110000438407|205
30.10.2018 12:00:00||ÇALIK HOLDİNG|10.40.25.97|||110000438407|108
30.10.2018 12:00:00||ÇALIK HOLDİNG|10.40.25.120|||110000438407|60
30.10.2018 12:00:00||ÇALIK HOLDİNG|10.40.25.115|||110000438407|85
30.10.2018 12:00:00||ÇALIK HOLDİNG|10.40.25.115|||110000438407|72
30.10.2018 12:00:00||ÇALIK HOLDİNG|10.40.25.115|||110000438407|70
30.10.2018 12:00:00||ÇALIK HOLDİNG|10.40.25.101|||110000438407|50
30.10.2018 12:00:00||ÇALIK HOLDİNG|10.40.25.101|||110000438407|110
30.10.2018 12:00:00||ÇALIK HOLDİNG|10.40.25.101|||110000438407|30
30.10.2018 12:00:00||ÇALIK HOLDİNG|10.40.25.101|||110000438407|10
30.10.2018 12:00:00||ÇALIK HOLDİNG|10.40.25.101|||110000438407|90
30.10.2018 12:00:00||ÇALIK HOLDİNG|10.40.25.101|||110000438407|30
30.10.2018 12:00:00||ÇALIK HOLDİNG|10.40.25.101|||110000438407|40
30.10.2018 12:00:00||ÇALIK HOLDİNG|10.40.25.101|||110000438407|40
30.10.2018 12:00:00||ÇALIK HOLDİNG|10.40.25.101|||110000438407|90
30.10.2018 12:00:00||ÇALIK HOLDİNG|10.40.25.101|||110000438407|90
30.10.2018 12:00:00||ÇALIK HOLDİNG|10.40.25.101|||110000438407|90
30.10.2018 12:00:00||ÇALIK HOLDİNG|10.40.25.94|||110000438407|180
30.10.2018 12:00:00||ÇALIK HOLDİNG|10.40.25.94|||110000438407|180
30.10.2018 12:00:00||ÇALIK HOLDİNG|10.40.25.94|||110000438407|170
30.10.2018 12:00:00||ÇALIK HOLDİNG|10.40.25.94|||110000438407|180
30.10.2018 12:00:00||ÇALIK HOLDİNG|10.40.24.94|||110000438407|205
30.10.2018 12:00:00||ÇALIK HOLDİNG|10.40.24.94|||110000438407|193
30.10.2018 12:00:00||ÇALIK HOLDİNG|10.40.24.94|||110000438407|202
30.10.2018 12:00:00||ÇALIK HOLDİNG|10.40.25.95|||110000438407|20
30.10.2018 12:00:00||ÇALIK HOLDİNG|10.40.25.95|||110000438407|347
30.10.2018 12:00:00||ÇALIK HOLDİNG|10.40.25.95|||110000438407|377
30.10.2018 12:00:00||ÇALIK HOLDİNG|10.40.25.95|||110000438407|40
30.10.2018 12:00:00||ÇALIK HOLDİNG|10.40.24.95|||110000438407|105
30.10.2018 12:00:00||ÇALIK HOLDİNG|10.40.24.95|||110000438407|105
30.10.2018 12:00:00||ÇALIK HOLDİNG|10.40.24.95|||110000438407|380
30.10.2018 12:00:00||ÇALIK HOLDİNG|10.40.24.95|||110000438407|412
30.10.2018 12:00:00||ÇALIK HOLDİNG|10.40.25.96|||110000438407|90
30.10.2018 12:00:00||ÇALIK HOLDİNG|10.40.25.96|||110000438407|97
30.10.2018 12:00:00||ÇALIK HOLDİNG|10.40.25.96|||110000438407|100
30.10.2018 12:00:00||ÇALIK HOLDİNG|10.40.25.96|||110000438407|258
30.10.2018 12:00:00||ÇALIK HOLDİNG|10.40.25.96|||110000438407|267
30.10.2018 12:00:00||ÇALIK HOLDİNG|10.40.25.96|||110000438407|100
30.10.2018 12:00:00||ÇALIK HOLDİNG|10.40.25.96|||110000438407|90
30.10.2018 12:00:00||ÇALIK HOLDİNG|10.40.25.96|||110000438407|98
30.10.2018 12:00:00||ÇALIK HOLDİNG|10.40.25.97|||110000438407|90
30.10.2018 12:00:00||ÇALIK HOLDİNG|10.40.25.97|||110000438407|80
30.10.2018 12:00:00||ÇALIK HOLDİNG|10.40.25.97|||110000438407|300
30.10.2018 12:00:00||ÇALIK HOLDİNG|10.40.25.98|||110000438407|55
30.10.2018 12:00:00||ÇALIK HOLDİNG|10.40.25.98|||110000438407|162
30.10.2018 12:00:00||ÇALIK HOLDİNG|10.40.25.98|||110000438407|162
30.10.2018 12:00:00||ÇALIK HOLDİNG|10.40.25.98|||110000438407|167
30.10.2018 12:00:00||ÇALIK HOLDİNG|10.40.25.98|||110000438407|170
30.10.2018 12:00:00||ÇALIK HOLDİNG|10.40.25.98|||110000438407|60
30.10.2018 12:00:00||ÇALIK HOLDİNG|10.40.25.98|||110000438407|210
30.10.2018 12:00:00||ÇALIK HOLDİNG|10.40.25.98|||110000438407|180
30.10.2018 12:00:00||ÇALIK HOLDİNG|10.40.25.98|||110000438407|170
30.10.2018 12:00:00||ÇALIK HOLDİNG|10.40.25.98|||110000438407|210
30.10.2018 12:00:00||ÇALIK HOLDİNG|10.40.25.98|||110000438407|73
30.10.2018 12:00:00||ÇALIK HOLDİNG|10.40.25.98|||110000438407|302
30.10.2018 12:00:00||ÇALIK HOLDİNG|10.40.24.98|||110000438407|100
30.10.2018 12:00:00||ÇALIK HOLDİNG|10.40.24.98|||110000438407|153
30.10.2018 12:00:00||ÇALIK HOLDİNG|10.40.24.98|||110000438407|200
30.10.2018 12:00:00||ÇALIK HOLDİNG|10.40.24.98|||110000438407|200
30.10.2018 12:00:00||ÇALIK HOLDİNG|10.40.24.98|||110000438407|160
30.10.2018 12:00:00||ÇALIK HOLDİNG|10.40.24.98|||110000438407|30
30.10.2018 12:00:00||ÇALIK HOLDİNG|10.40.24.98|||110000438407|165
30.10.2018 12:00:00||ÇALIK HOLDİNG|10.40.24.98|||110000438407|180
30.10.2018 12:00:00||ÇALIK HOLDİNG|10.40.24.98|||110000438407|170
30.10.2018 12:00:00||ÇALIK HOLDİNG|10.40.24.98|||110000438407|170
30.10.2018 12:00:00||ÇALIK HOLDİNG|10.40.24.98|||110000438407|20
30.10.2018 12:00:00||ÇALIK HOLDİNG|10.40.24.98|||110000438407|273
30.10.2018 12:00:00||ÇALIK HOLDİNG|10.40.25.100|||110000438407|35
30.10.2018 12:00:00||ÇALIK HOLDİNG|10.40.25.100|||110000438407|40
30.10.2018 12:00:00||ÇALIK HOLDİNG|10.40.24.101|||110000438407|60
30.10.2018 12:00:00||ÇALIK HOLDİNG|10.40.24.101|||110000438407|110
30.10.2018 12:00:00||ÇALIK HOLDİNG|10.40.24.101|||110000438407|20
30.10.2018 12:00:00||ÇALIK HOLDİNG|10.40.24.101|||110000438407|20
30.10.2018 12:00:00||ÇALIK HOLDİNG|10.40.24.101|||110000438407|43
30.10.2018 12:00:00||ÇALIK HOLDİNG|10.40.24.101|||110000438407|95
30.10.2018 12:00:00||ÇALIK HOLDİNG|10.40.24.101|||110000438407|30
30.10.2018 12:00:00||ÇALIK HOLDİNG|10.40.24.101|||110000438407|10
30.10.2018 12:00:00||ÇALIK HOLDİNG|10.40.24.101|||110000438407|20
30.10.2018 12:00:00||ÇALIK HOLDİNG|10.40.24.101|||110000438407|50
30.10.2018 12:00:00||ÇALIK HOLDİNG|10.40.24.101|||110000438407|30
30.10.2018 12:00:00||ÇALIK HOLDİNG|10.40.24.101|||110000438407|82
30.10.2018 12:00:00||ÇALIK HOLDİNG|10.40.24.101|||110000438407|80
30.10.2018 12:00:00||ÇALIK HOLDİNG|10.40.24.101|||110000438407|90
30.10.2018 12:00:00||ÇALIK HOLDİNG|10.40.24.101|||110000438407|2
30.10.2018 12:00:00||ÇALIK HOLDİNG|10.40.25.102|||110000438407|100
30.10.2018 12:00:00||ÇALIK HOLDİNG|10.40.25.102|||110000438407|90
30.10.2018 12:00:00||ÇALIK HOLDİNG|10.40.25.102|||110000438407|150
30.10.2018 12:00:00||ÇALIK HOLDİNG|10.40.24.102|||110000438407|100
30.10.2018 12:00:00||ÇALIK HOLDİNG|10.40.24.102|||110000438407|90
30.10.2018 12:00:00||ÇALIK HOLDİNG|10.40.24.102|||110000438407|140
30.10.2018 12:00:00||ÇALIK HOLDİNG|10.40.25.103|||110000438407|90
30.10.2018 12:00:00||ÇALIK HOLDİNG|10.40.25.103|||110000438407|80
30.10.2018 12:00:00||ÇALIK HOLDİNG|10.40.25.103|||110000438407|10
30.10.2018 12:00:00||ÇALIK HOLDİNG|10.40.25.115|||110000438407|87
30.10.2018 12:00:00||ÇALIK HOLDİNG|10.40.24.103|||110000438407|100
30.10.2018 12:00:00||ÇALIK HOLDİNG|10.40.24.103|||110000438407|80
30.10.2018 12:00:00||ÇALIK HOLDİNG|10.40.24.103|||110000438407|80
30.10.2018 12:00:00||ÇALIK HOLDİNG|10.40.24.103|||110000438407|20
30.10.2018 12:00:00||ÇALIK HOLDİNG|10.40.24.103|||110000438407|10
30.10.2018 12:00:00||ÇALIK HOLDİNG|10.40.25.113|||110000438407|240
30.10.2018 12:00:00||ÇALIK HOLDİNG|10.40.25.113|||110000438407|252
30.10.2018 12:00:00||ÇALIK HOLDİNG|10.40.25.113|||110000438407|205
30.10.2018 12:00:00||ÇALIK HOLDİNG|10.40.25.113|||110000438407|212
30.10.2018 12:00:00||ÇALIK HOLDİNG|10.40.24.113|||110000438407|243
30.10.2018 12:00:00||ÇALIK HOLDİNG|10.40.24.113|||110000438407|238
30.10.2018 12:00:00||ÇALIK HOLDİNG|10.40.24.113|||110000438407|198
30.10.2018 12:00:00||ÇALIK HOLDİNG|10.40.24.113|||110000438407|162
30.10.2018 12:00:00||ÇALIK HOLDİNG|10.40.25.114|||110000438407|183
30.10.2018 12:00:00||ÇALIK HOLDİNG|10.40.25.114|||110000438407|432
30.10.2018 12:00:00||ÇALIK HOLDİNG|10.40.25.114|||110000438407|40
30.10.2018 12:00:00||ÇALIK HOLDİNG|10.40.24.114|||110000438407|20
30.10.2018 12:00:00||ÇALIK HOLDİNG|10.40.24.114|||110000438407|40
30.10.2018 12:00:00||ÇALIK HOLDİNG|10.40.24.114|||110000438407|163
30.10.2018 12:00:00||ÇALIK HOLDİNG|10.40.24.114|||110000438407|395
30.10.2018 12:00:00||ÇALIK HOLDİNG|10.40.24.115|||110000438407|170
30.10.2018 12:00:00||ÇALIK HOLDİNG|10.40.24.115|||110000438407|80
30.10.2018 12:00:00||ÇALIK HOLDİNG|10.40.24.115|||110000438407|90
30.10.2018 12:00:00||ÇALIK HOLDİNG|10.40.24.115|||110000438407|80
30.10.2018 12:00:00||ÇALIK HOLDİNG|10.40.24.115|||110000438407|90
30.10.2018 12:00:00||ÇALIK HOLDİNG|10.40.24.115|||110000438407|70
30.10.2018 12:00:00||ÇALIK HOLDİNG|10.40.25.116|||110000438407|100
30.10.2018 12:00:00||ÇALIK HOLDİNG|10.40.25.116|||110000438407|103
30.10.2018 12:00:00||ÇALIK HOLDİNG|10.40.25.116|||110000438407|288
30.10.2018 12:00:00||ÇALIK HOLDİNG|10.40.24.116|||110000438407|280
30.10.2018 12:00:00||ÇALIK HOLDİNG|10.40.24.116|||110000438407|100
30.10.2018 12:00:00||ÇALIK HOLDİNG|10.40.24.116|||110000438407|100
30.10.2018 12:00:00||ÇALIK HOLDİNG|10.40.25.117|||110000438407|250
30.10.2018 12:00:00||ÇALIK HOLDİNG|10.40.25.117|||110000438407|30
30.10.2018 12:00:00||ÇALIK HOLDİNG|10.40.25.117|||110000438407|27
30.10.2018 12:00:00||ÇALIK HOLDİNG|10.40.25.119|||110000438407|30
30.10.2018 12:00:00||ÇALIK HOLDİNG|10.40.25.119|||110000438407|30
30.10.2018 12:00:00||ÇALIK HOLDİNG|10.40.24.119|||110000438407|150
30.10.2018 12:00:00||ÇALIK HOLDİNG|10.40.24.119|||110000438407|30
30.10.2018 12:00:00||ÇALIK HOLDİNG|10.40.24.119|||110000438407|50
30.10.2018 12:00:00||ÇALIK HOLDİNG|10.40.25.120|||110000438407|107
30.10.2018 12:00:00||ÇALIK HOLDİNG|10.40.25.120|||110000438407|50
30.10.2018 12:00:00||ÇALIK HOLDİNG|10.40.25.120|||110000438407|20
30.10.2018 12:00:00||ÇALIK HOLDİNG|10.40.25.120|||110000438407|20
30.10.2018 12:00:00||ÇALIK HOLDİNG|10.40.25.120|||110000438407|30
30.10.2018 12:00:00||ÇALIK HOLDİNG|10.40.25.120|||110000438407|90
30.10.2018 12:00:00||ÇALIK HOLDİNG|10.40.25.120|||110000438407|90
30.10.2018 12:00:00||ÇALIK HOLDİNG|10.40.24.120|||110000438407|20
30.10.2018 12:00:00||ÇALIK HOLDİNG|10.40.24.120|||110000438407|37
30.10.2018 12:00:00||ÇALIK HOLDİNG|10.40.24.120|||110000438407|110
30.10.2018 12:00:00||ÇALIK HOLDİNG|10.40.24.120|||110000438407|100
30.10.2018 12:00:00||ÇALIK HOLDİNG|10.40.24.120|||110000438407|40
30.10.2018 12:00:00||ÇALIK HOLDİNG|10.40.24.120|||110000438407|80
30.10.2018 12:00:00||ÇALIK HOLDİNG|10.40.24.120|||110000438407|80
30.10.2018 12:00:00||ÇALIK HOLDİNG|10.40.24.120|||110000438407|70
30.10.2018 12:00:00||ÇALIK HOLDİNG|10.40.25.121|||110000438407|90
30.10.2018 12:00:00||ÇALIK HOLDİNG|10.40.25.121|||110000438407|100
30.10.2018 12:00:00||ÇALIK HOLDİNG|10.40.25.121|||110000438407|150
30.10.2018 12:00:00||ÇALIK HOLDİNG|10.40.24.121|||110000438407|100
30.10.2018 12:00:00||ÇALIK HOLDİNG|10.40.24.121|||110000438407|100
30.10.2018 12:00:00||ÇALIK HOLDİNG|10.40.24.121|||110000438407|140
30.10.2018 12:00:00||ÇALIK HOLDİNG|10.40.25.122|||110000438407|90
30.10.2018 12:00:00||ÇALIK HOLDİNG|10.40.25.122|||110000438407|80
30.10.2018 12:00:00||ÇALIK HOLDİNG|10.40.25.122|||110000438407|80
30.10.2018 12:00:00||ÇALIK HOLDİNG|10.40.25.122|||110000438407|30
30.10.2018 12:00:00||ÇALIK HOLDİNG|10.40.25.122|||110000438407|10
30.10.2018 12:00:00||ÇALIK HOLDİNG|10.40.24.122|||110000438407|90
30.10.2018 12:00:00||ÇALIK HOLDİNG|10.40.24.122|||110000438407|80
30.10.2018 12:00:00||ÇALIK HOLDİNG|10.40.24.122|||110000438407|90
30.10.2018 12:00:00||ÇALIK HOLDİNG|10.40.24.117|||110000438407|200
30.10.2018 12:00:00||ÇALIK HOLDİNG|10.40.24.117|||110000438407|30
30.10.2018 12:00:00||ÇALIK HOLDİNG|10.40.24.117|||110000438407|30
30.10.2018 12:00:00||ÇALIK HOLDİNG|10.40.24.97|||110000438407|103
30.10.2018 12:00:00||ÇALIK HOLDİNG|10.40.24.97|||110000438407|90
30.10.2018 12:00:00||ÇALIK HOLDİNG|10.40.24.97|||110000438407|80
30.10.2018 12:00:00||ÇALIK HOLDİNG|10.40.24.97|||110000438407|90
30.10.2018 12:00:00||ÇALIK HOLDİNG|10.40.24.97|||110000438407|327
30.10.2018 12:00:00||ÇALIK HOLDİNG|10.40.24.100|||110000438407|30
30.10.2018 12:00:00||ÇALIK HOLDİNG|10.40.24.100|||110000438407|40
30.10.2018 12:00:00||FIBABANKA|10.40.27.54|||101571767266|311
30.10.2018 12:00:00||FIBABANKA|10.40.26.54|||101571767266|317
30.10.2018 12:00:00||FIBABANKA|10.40.27.55|||101571767266|112
30.10.2018 12:00:00||FIBABANKA|10.40.26.55|||101571767266|112
30.10.2018 12:00:00||FIBABANKA|10.40.24.55|||101571767266|111
30.10.2018 12:00:00||FIBABANKA|10.40.25.56|||101571767266|197
30.10.2018 12:00:00||FIBABANKA|10.40.25.54|||101571767266|330
30.10.2018 12:00:00||FIBABANKA|10.40.24.54|||101571767266|316
30.10.2018 12:00:00||FIBABANKA|10.40.25.55|||101571767266|111
30.10.2018 12:00:00||FIBABANKA|10.40.24.56|||101571767266|196
30.10.2018 12:00:00||FIBABANKA|10.40.26.53|||101571767266|45
30.10.2018 12:00:00||FIBABANKA|10.40.26.53|||101571767266|170
30.10.2018 12:00:00||FIBABANKA|10.40.25.57|||101571767266|90
30.10.2018 12:00:00||FIBABANKA|10.40.27.60|||101571767266|50
30.10.2018 12:00:00||FIBABANKA|10.40.25.76|||101571767266|10
30.10.2018 12:00:00||FIBABANKA|10.40.27.53|||101571767266|170
30.10.2018 12:00:00||FIBABANKA|10.40.27.53|||101571767266|177
30.10.2018 12:00:00||FIBABANKA|10.40.26.53|||101571767266|170
30.10.2018 12:00:00||FIBABANKA|10.40.27.57|||101571767266|85
30.10.2018 12:00:00||FIBABANKA|10.40.27.57|||101571767266|80
30.10.2018 12:00:00||FIBABANKA|10.40.27.57|||101571767266|80
30.10.2018 12:00:00||FIBABANKA|10.40.26.60|||101571767266|10
30.10.2018 12:00:00||FIBABANKA|10.40.25.57|||101571767266|90
30.10.2018 12:00:00||FIBABANKA|10.40.25.57|||101571767266|90
30.10.2018 12:00:00||FIBABANKA|10.40.25.57|||101571767266|90
30.10.2018 12:00:00||FIBABANKA|10.40.25.57|||101571767266|90
30.10.2018 12:00:00||FIBABANKA|10.40.25.57|||101571767266|75
30.10.2018 12:00:00||FIBABANKA|10.40.25.57|||101571767266|100
30.10.2018 12:00:00||FIBABANKA|10.40.25.57|||101571767266|80
30.10.2018 12:00:00||FIBABANKA|10.40.24.57|||101571767266|102
30.10.2018 12:00:00||FIBABANKA|10.40.24.57|||101571767266|68
30.10.2018 12:00:00||FIBABANKA|10.40.24.57|||101571767266|87
30.10.2018 12:00:00||FIBABANKA|10.40.26.51|||101571767266|20
30.10.2018 12:00:00||FIBABANKA|10.40.27.52|||101571767266|50
30.10.2018 12:00:00||FIBABANKA|10.40.27.52|||101571767266|60
30.10.2018 12:00:00||FIBABANKA|10.40.27.52|||101571767266|70
30.10.2018 12:00:00||FIBABANKA|10.40.27.73|||101571767266|10
30.10.2018 12:00:00||FIBABANKA|10.40.27.74|||101571767266|183
30.10.2018 12:00:00||FIBABANKA|10.40.27.60|||101571767266|93
30.10.2018 12:00:00||FIBABANKA|10.40.26.60|||101571767266|113
30.10.2018 12:00:00||FIBABANKA|10.40.26.60|||101571767266|152
30.10.2018 12:00:00||FIBABANKA|10.40.26.60|||101571767266|30
30.10.2018 12:00:00||FIBABANKA|10.40.25.53|||101571767266|33
30.10.2018 12:00:00||FIBABANKA|10.40.25.53|||101571767266|48
30.10.2018 12:00:00||FIBABANKA|10.40.27.60|||101571767266|50
30.10.2018 12:00:00||FIBABANKA|10.40.27.60|||101571767266|220
30.10.2018 12:00:00||FIBABANKA|10.40.27.60|||101571767266|238
30.10.2018 12:00:00||FIBABANKA|10.40.27.60|||101571767266|47
30.10.2018 12:00:00||FIBABANKA|10.40.27.60|||101571767266|163
30.10.2018 12:00:00||FIBABANKA|10.40.27.60|||101571767266|10
30.10.2018 12:00:00||FIBABANKA|10.40.27.53|||101571767266|58
30.10.2018 12:00:00||FIBABANKA|10.40.26.53|||101571767266|70
30.10.2018 12:00:00||FIBABANKA|10.40.26.53|||101571767266|62
30.10.2018 12:00:00||FIBABANKA|10.40.27.57|||101571767266|80
30.10.2018 12:00:00||FIBABANKA|10.40.25.51|||101571767266|20
30.10.2018 12:00:00||FIBABANKA|10.40.25.51|||101571767266|110
30.10.2018 12:00:00||FIBABANKA|10.40.24.51|||101571767266|20
30.10.2018 12:00:00||FIBABANKA|10.40.24.51|||101571767266|70
30.10.2018 12:00:00||FIBABANKA|10.40.24.51|||101571767266|100
30.10.2018 12:00:00||FIBABANKA|10.40.24.51|||101571767266|140
30.10.2018 12:00:00||FIBABANKA|10.40.24.51|||101571767266|30
30.10.2018 12:00:00||FIBABANKA|10.40.24.57|||101571767266|70
30.10.2018 12:00:00||FIBABANKA|10.40.24.57|||101571767266|90
30.10.2018 12:00:00||FIBABANKA|10.40.24.57|||101571767266|80
30.10.2018 12:00:00||FIBABANKA|10.40.24.57|||101571767266|80
30.10.2018 12:00:00||FIBABANKA|10.40.24.57|||101571767266|70
30.10.2018 12:00:00||FIBABANKA|10.40.24.52|||101571767266|37
30.10.2018 12:00:00||FIBABANKA|10.40.24.52|||101571767266|40
30.10.2018 12:00:00||FIBABANKA|10.40.24.52|||101571767266|10
30.10.2018 12:00:00||FIBABANKA|10.40.26.73|||101571767266|40
30.10.2018 12:00:00||FIBABANKA|10.40.27.53|||101571767266|67
30.10.2018 12:00:00||FIBABANKA|10.40.26.51|||101571767266|70
30.10.2018 12:00:00||FIBABANKA|10.40.27.60|||101571767266|68
30.10.2018 12:00:00||FIBABANKA|10.40.27.60|||101571767266|82
30.10.2018 12:00:00||FIBABANKA|10.40.26.52|||101571767266|30
30.10.2018 12:00:00||FIBABANKA|10.40.26.52|||101571767266|90
30.10.2018 12:00:00||FIBABANKA|10.40.26.52|||101571767266|30
30.10.2018 12:00:00||FIBABANKA|10.40.26.60|||101571767266|10
30.10.2018 12:00:00||FIBABANKA|10.40.26.60|||101571767266|83
30.10.2018 12:00:00||FIBABANKA|10.40.26.60|||101571767266|88
30.10.2018 12:00:00||FIBABANKA|10.40.26.60|||101571767266|235
30.10.2018 12:00:00||FIBABANKA|10.40.25.51|||101571767266|140
30.10.2018 12:00:00||FIBABANKA|10.40.25.51|||101571767266|40
30.10.2018 12:00:00||FIBABANKA|10.40.25.51|||101571767266|40
30.10.2018 12:00:00||FIBABANKA|10.40.25.51|||101571767266|72
30.10.2018 12:00:00||FIBABANKA|10.40.24.51|||101571767266|30
30.10.2018 12:00:00||FIBABANKA|10.40.25.59|||101571767266|70
30.10.2018 12:00:00||FIBABANKA|10.40.25.59|||101571767266|90
30.10.2018 12:00:00||FIBABANKA|10.40.25.59|||101571767266|90
30.10.2018 12:00:00||FIBABANKA|10.40.25.59|||101571767266|40
30.10.2018 12:00:00||FIBABANKA|10.40.25.59|||101571767266|120
30.10.2018 12:00:00||FIBABANKA|10.40.25.59|||101571767266|60
30.10.2018 12:00:00||FIBABANKA|10.40.25.59|||101571767266|50
30.10.2018 12:00:00||FIBABANKA|10.40.25.59|||101571767266|140
30.10.2018 12:00:00||FIBABANKA|10.40.25.59|||101571767266|50
30.10.2018 12:00:00||FIBABANKA|10.40.24.59|||101571767266|70
30.10.2018 12:00:00||FIBABANKA|10.40.24.59|||101571767266|122
30.10.2018 12:00:00||FIBABANKA|10.40.24.59|||101571767266|80
30.10.2018 12:00:00||FIBABANKA|10.40.24.59|||101571767266|50
30.10.2018 12:00:00||FIBABANKA|10.40.24.59|||101571767266|132
30.10.2018 12:00:00||FIBABANKA|10.40.24.59|||101571767266|70
30.10.2018 12:00:00||FIBABANKA|10.40.24.59|||101571767266|60
30.10.2018 12:00:00||FIBABANKA|10.40.24.59|||101571767266|140
30.10.2018 12:00:00||FIBABANKA|10.40.24.59|||101571767266|60
30.10.2018 12:00:00||FIBABANKA|10.40.25.60|||101571767266|107
30.10.2018 12:00:00||FIBABANKA|10.40.25.60|||101571767266|33
30.10.2018 12:00:00||FIBABANKA|10.40.25.60|||101571767266|108
30.10.2018 12:00:00||FIBABANKA|10.40.25.60|||101571767266|40
30.10.2018 12:00:00||FIBABANKA|10.40.24.60|||101571767266|110
30.10.2018 12:00:00||FIBABANKA|10.40.24.60|||101571767266|57
30.10.2018 12:00:00||FIBABANKA|10.40.24.60|||101571767266|40
30.10.2018 12:00:00||FIBABANKA|10.40.24.60|||101571767266|100
30.10.2018 12:00:00||FIBABANKA|10.40.24.60|||101571767266|50
30.10.2018 12:00:00||FIBABANKA|10.40.25.72|||101571767266|70
30.10.2018 12:00:00||FIBABANKA|10.40.25.72|||101571767266|40
30.10.2018 12:00:00||FIBABANKA|10.40.25.72|||101571767266|32
30.10.2018 12:00:00||FIBABANKA|10.40.24.72|||101571767266|138
30.10.2018 12:00:00||FIBABANKA|10.40.24.72|||101571767266|77
30.10.2018 12:00:00||FIBABANKA|10.40.24.72|||101571767266|30
30.10.2018 12:00:00||FIBABANKA|10.40.24.72|||101571767266|40
30.10.2018 12:00:00||FIBABANKA|10.40.25.74|||101571767266|30
30.10.2018 12:00:00||FIBABANKA|10.40.25.75|||101571767266|37
30.10.2018 12:00:00||FIBABANKA|10.40.25.75|||101571767266|85
30.10.2018 12:00:00||FIBABANKA|10.40.25.75|||101571767266|137
30.10.2018 12:00:00||FIBABANKA|10.40.25.75|||101571767266|173
30.10.2018 12:00:00||FIBABANKA|10.40.25.75|||101571767266|185
30.10.2018 12:00:00||FIBABANKA|10.40.25.75|||101571767266|207
30.10.2018 12:00:00||FIBABANKA|10.40.24.75|||101571767266|50
30.10.2018 12:00:00||FIBABANKA|10.40.24.75|||101571767266|55
30.10.2018 12:00:00||FIBABANKA|10.40.24.75|||101571767266|107
30.10.2018 12:00:00||FIBABANKA|10.40.24.75|||101571767266|167
30.10.2018 12:00:00||FIBABANKA|10.40.24.75|||101571767266|153
30.10.2018 12:00:00||FIBABANKA|10.40.24.76|||101571767266|40
30.10.2018 12:00:00||FIBABANKA|10.40.24.76|||101571767266|68
30.10.2018 12:00:00||FIBABANKA|10.40.24.76|||101571767266|20
30.10.2018 12:00:00||FIBABANKA|10.40.24.76|||101571767266|40
30.10.2018 12:00:00||FIBABANKA|10.40.24.76|||101571767266|10
30.10.2018 12:00:00||FIBABANKA|10.40.25.77|||101571767266|72
30.10.2018 12:00:00||FIBABANKA|10.40.25.77|||101571767266|50
30.10.2018 12:00:00||FIBABANKA|10.40.24.77|||101571767266|53
30.10.2018 12:00:00||FIBABANKA|10.40.24.77|||101571767266|38
30.10.2018 12:00:00||FIBABANKA|10.40.24.53|||101571767266|30
30.10.2018 12:00:00||FIBABANKA|10.40.24.53|||101571767266|62
30.10.2018 12:00:00||FIBABANKA|10.40.26.57|||101571767266|90
30.10.2018 12:00:00||FIBABANKA|10.40.26.57|||101571767266|88
30.10.2018 12:00:00||FIBABANKA|10.40.26.57|||101571767266|80
30.10.2018 12:00:00||FIBABANKA|10.40.26.57|||101571767266|70
30.10.2018 12:00:00||FIBABANKA|10.40.26.57|||101571767266|70
30.10.2018 12:00:00||FIBABANKA|10.40.27.72|||101571767266|40
30.10.2018 12:00:00||FIBABANKA|10.40.27.72|||101571767266|50
30.10.2018 12:00:00||FIBABANKA|10.40.27.72|||101571767266|40
30.10.2018 12:00:00||FIBABANKA|10.40.27.72|||101571767266|140
30.10.2018 12:00:00||FIBABANKA|10.40.27.72|||101571767266|60
30.10.2018 12:00:00||FIBABANKA|10.40.26.72|||101571767266|30
30.10.2018 12:00:00||FIBABANKA|10.40.26.72|||101571767266|140
30.10.2018 12:00:00||FIBABANKA|10.40.26.72|||101571767266|70
30.10.2018 12:00:00||FIBABANKA|10.40.26.72|||101571767266|30
30.10.2018 12:00:00||FIBABANKA|10.40.27.73|||101571767266|32
30.10.2018 12:00:00||FIBABANKA|10.40.27.73|||101571767266|100
30.10.2018 12:00:00||FIBABANKA|10.40.27.73|||101571767266|40
30.10.2018 12:00:00||FIBABANKA|10.40.27.73|||101571767266|40
30.10.2018 12:00:00||FIBABANKA|10.40.27.73|||101571767266|352
30.10.2018 12:00:00||FIBABANKA|10.40.26.73|||101571767266|40
30.10.2018 12:00:00||FIBABANKA|10.40.26.73|||101571767266|70
30.10.2018 12:00:00||FIBABANKA|10.40.26.73|||101571767266|32
30.10.2018 12:00:00||FIBABANKA|10.40.26.73|||101571767266|10
30.10.2018 12:00:00||FIBABANKA|10.40.27.74|||101571767266|82
30.10.2018 12:00:00||FIBABANKA|10.40.27.74|||101571767266|162
30.10.2018 12:00:00||FIBABANKA|10.40.27.74|||101571767266|172
30.10.2018 12:00:00||FIBABANKA|10.40.26.74|||101571767266|77
30.10.2018 12:00:00||FIBABANKA|10.40.26.74|||101571767266|193
30.10.2018 12:00:00||FIBABANKA|10.40.26.74|||101571767266|183
30.10.2018 12:00:00||FIBABANKA|10.40.26.74|||101571767266|185
30.10.2018 12:00:00||FIBABANKA|10.40.27.75|||101571767266|10
30.10.2018 12:00:00||FIBABANKA|10.40.27.75|||101571767266|10
30.10.2018 12:00:00||FIBABANKA|10.40.27.75|||101571767266|60
30.10.2018 12:00:00||FIBABANKA|10.40.26.75|||101571767266|10
30.10.2018 12:00:00||FIBABANKA|10.40.27.76|||101571767266|90
30.10.2018 12:00:00||FIBABANKA|10.40.26.76|||101571767266|100
30.10.2018 12:00:00||FIBABANKA|10.40.26.79|||101571767266|10
30.10.2018 12:00:00||FIBABANKA|10.40.27.79|||101571767266|10
30.10.2018 12:00:00||FIBABANKA|10.40.27.79|||101571767266|10
30.10.2018 12:00:00||FIBABANKA|10.40.26.79|||101571767266|10
30.10.2018 12:00:00||FIBABANKA|10.40.27.77|||101571767266|53
30.10.2018 12:00:00||FIBABANKA|10.40.27.77|||101571767266|32
30.10.2018 12:00:00||FIBABANKA|10.40.27.77|||101571767266|153
30.10.2018 12:00:00||FIBABANKA|10.40.26.77|||101571767266|47
30.10.2018 12:00:00||FIBABANKA|10.40.26.77|||101571767266|50
30.10.2018 12:00:00||FIBABANKA|10.40.26.77|||101571767266|187
30.10.2018 12:00:00||FIBABANKA|10.40.26.77|||101571767266|212
30.10.2018 12:00:00||FIBABANKA|10.40.26.77|||101571767266|75
30.10.2018 12:00:00||FIBABANKA|10.40.26.77|||101571767266|118
30.10.2018 12:00:00||FIBABANKA|10.40.26.77|||101571767266|198
30.10.2018 12:00:00||FIBABANKA|10.40.26.77|||101571767266|182
30.10.2018 12:00:00||FIBABANKA|10.40.27.77|||101571767266|53
30.10.2018 12:00:00||FIBABANKA|10.40.27.77|||101571767266|33
30.10.2018 12:00:00||FIBABANKA|10.40.27.77|||101571767266|158
30.10.2018 12:00:00||FIBABANKA|10.40.27.57|||101571767266|80
30.10.2018 12:00:00||FIBABANKA|10.40.26.60|||101571767266|220
30.10.2018 12:00:00||FIBABANKA|10.40.25.74|||101571767266|230
30.10.2018 12:00:00||FIBABANKA|10.40.24.75|||101571767266|180
30.10.2018 12:00:00||FIBABANKA|10.40.24.75|||101571767266|140
30.10.2018 12:00:00||FIBABANKA|10.40.24.53|||101571767266|170
30.10.2018 12:00:00||FIBABANKA|10.40.24.53|||101571767266|192
30.10.2018 12:00:00||FIBABANKA|10.40.25.52|||101571767266|10
30.10.2018 12:00:00||FIBABANKA|10.40.25.52|||101571767266|50
30.10.2018 12:00:00||FIBABANKA|10.40.25.52|||101571767266|65
30.10.2018 12:00:00||FIBABANKA|10.40.25.53|||101571767266|165
30.10.2018 12:00:00||FIBABANKA|10.40.25.53|||101571767266|160
30.10.2018 12:00:00||FIBABANKA|10.40.27.51|||101571767266|30
30.10.2018 12:00:00||FIBABANKA|10.40.27.51|||101571767266|20
30.10.2018 12:00:00||FIBABANKA|10.40.27.51|||101571767266|100
30.10.2018 12:00:00||FIBABANKA|10.40.27.51|||101571767266|140
30.10.2018 12:00:00||FIBABANKA|10.40.27.51|||101571767266|70
30.10.2018 12:00:00||FIBABANKA|10.40.27.51|||101571767266|40
30.10.2018 12:00:00||FIBABANKA|10.40.27.51|||101571767266|40
30.10.2018 12:00:00||FIBABANKA|10.40.26.51|||101571767266|10
30.10.2018 12:00:00||FIBABANKA|10.40.26.51|||101571767266|110
30.10.2018 12:00:00||FIBABANKA|10.40.26.51|||101571767266|130
30.10.2018 12:00:00||FIBABANKA|10.40.26.51|||101571767266|30
30.10.2018 12:00:00||FIBABANKA|10.40.26.51|||101571767266|30
30.10.2018 12:00:00||FIBABANKA|10.40.24.74|||101571767266|30
30.10.2018 12:00:00||FIBABANKA|10.40.25.76|||101571767266|60
30.10.2018 12:00:00||FIBABANKA|10.40.25.76|||101571767266|40
30.10.2018 12:00:00||FIBABANKA|10.40.25.76|||101571767266|10
30.10.2018 12:00:00||FIBABANKA|10.40.25.52|||101571767266|40
30.10.2018 12:00:00||FIBABANKA|10.40.25.52|||101571767266|30
30.10.2018 12:00:00||HAVAŞ|10.40.24.46|||110000479675|10
30.10.2018 12:00:00||HAVAŞ|10.40.24.48|||110000479675|750
30.10.2018 12:00:00||HAVAŞ|10.40.24.48|||110000479675|758
30.10.2018 12:00:00||HAVAŞ|10.40.25.48|||110000479675|752
30.10.2018 12:00:00||HAVAŞ|10.40.24.45|||110000479675|70
30.10.2018 12:00:00||HAVAŞ|10.40.25.45|||110000479675|57
30.10.2018 12:00:00||HAVAŞ|10.40.25.47|||110000479675|70
30.10.2018 12:00:00||HAVAŞ|10.40.24.46|||110000479675|80
30.10.2018 12:00:00||HAVAŞ|10.40.24.47|||110000479675|30
30.10.2018 12:00:00||HAVAŞ|10.40.24.47|||110000479675|92
30.10.2018 12:00:00||HAVAŞ|10.40.24.47|||110000479675|90
30.10.2018 12:00:00||HAVAŞ|10.40.25.46|||110000479675|10
30.10.2018 12:00:00||HAVAŞ|10.40.25.46|||110000479675|60
30.10.2018 12:00:00||HAVAŞ|10.40.24.48|||110000479675|762
30.10.2018 12:00:00||HAVAŞ|10.40.24.46|||110000479675|60
30.10.2018 12:00:00||HAVAŞ|10.40.24.46|||110000479675|70
30.10.2018 12:00:00||HAVAŞ|10.40.24.47|||110000479675|10
30.10.2018 12:00:00||HAVAŞ|10.40.25.48|||110000479675|757
30.10.2018 12:00:00||HAVAŞ|10.40.25.48|||110000479675|795
30.10.2018 12:00:00||HAVAŞ|10.40.25.45|||110000479675|100
30.10.2018 12:00:00||HAVAŞ|10.40.24.45|||110000479675|50
30.10.2018 12:00:00||HAVAŞ|10.40.24.45|||110000479675|170
30.10.2018 12:00:00||HAVAŞ|10.40.24.45|||110000479675|100
30.10.2018 12:00:00||HAVAŞ|10.40.25.47|||110000479675|70
30.10.2018 12:00:00||HAVAŞ|10.40.25.47|||110000479675|227
30.10.2018 12:00:00||HAVAŞ|10.40.25.47|||110000479675|57
30.10.2018 12:00:00||HAVAŞ|10.40.25.47|||110000479675|87
30.10.2018 12:00:00||HAVAŞ|10.40.25.47|||110000479675|90
30.10.2018 12:00:00||HAVAŞ|10.40.25.47|||110000479675|90
30.10.2018 12:00:00||HAVAŞ|10.40.25.47|||110000479675|140
30.10.2018 12:00:00||HAVAŞ|10.40.25.47|||110000479675|177
30.10.2018 12:00:00||HAVAŞ|10.40.25.47|||110000479675|90
30.10.2018 12:00:00||HAVAŞ|10.40.25.47|||110000479675|92
30.10.2018 12:00:00||HAVAŞ|10.40.25.47|||110000479675|90
30.10.2018 12:00:00||HAVAŞ|10.40.25.45|||110000479675|112
30.10.2018 12:00:00||HAVAŞ|10.40.25.45|||110000479675|88
30.10.2018 12:00:00||HAVAŞ|10.40.25.46|||110000479675|10
30.10.2018 12:00:00||HAVAŞ|10.40.25.46|||110000479675|10
30.10.2018 12:00:00||HAVAŞ|10.40.25.46|||110000479675|20
30.10.2018 12:00:00||HAVAŞ|10.40.25.46|||110000479675|20
30.10.2018 12:00:00||HAVAŞ|10.40.25.46|||110000479675|50
30.10.2018 12:00:00||HAVAŞ|10.40.25.46|||110000479675|100
30.10.2018 12:00:00||HAVAŞ|10.40.25.46|||110000479675|63
30.10.2018 12:00:00||HAVAŞ|10.40.25.46|||110000479675|73
30.10.2018 12:00:00||HAVAŞ|10.40.25.46|||110000479675|70
30.10.2018 12:00:00||HAVAŞ|10.40.24.46|||110000479675|20
30.10.2018 12:00:00||HAVAŞ|10.40.24.46|||110000479675|20
30.10.2018 12:00:00||HAVAŞ|10.40.24.46|||110000479675|2
30.10.2018 12:00:00||HAVAŞ|10.40.24.46|||110000479675|10
30.10.2018 12:00:00||HAVAŞ|10.40.24.46|||110000479675|10
30.10.2018 12:00:00||HAVAŞ|10.40.24.46|||110000479675|10
30.10.2018 12:00:00||HAVAŞ|10.40.24.46|||110000479675|60
30.10.2018 12:00:00||HAVAŞ|10.40.24.46|||110000479675|110
30.10.2018 12:00:00||HAVAŞ|10.40.24.47|||110000479675|30
30.10.2018 12:00:00||HAVAŞ|10.40.24.47|||110000479675|217
30.10.2018 12:00:00||HAVAŞ|10.40.24.47|||110000479675|60
30.10.2018 12:00:00||HAVAŞ|10.40.24.47|||110000479675|58
30.10.2018 12:00:00||HAVAŞ|10.40.24.47|||110000479675|160
30.10.2018 12:00:00||HAVAŞ|10.40.24.47|||110000479675|100
30.10.2018 12:00:00||HAVAŞ|10.40.24.47|||110000479675|102
30.10.2018 12:00:00||MARS CINEMA|10.40.24.203|||110000472614|103
30.10.2018 12:00:00||MARS CINEMA|10.40.24.204|||110000472614|40
30.10.2018 12:00:00||MARS CINEMA|10.40.24.203|||110000472614|80
30.10.2018 12:00:00||MARS CINEMA|10.40.24.203|||110000472614|167
30.10.2018 12:00:00||MARS CINEMA|10.40.24.203|||110000472614|80
30.10.2018 12:00:00||MARS CINEMA|10.40.24.204|||110000472614|62
30.10.2018 12:00:00||MARS CINEMA|10.40.24.203|||110000472614|108
30.10.2018 12:00:00||MARS CINEMA|10.40.24.204|||110000472614|20
30.10.2018 12:00:00||MARS CINEMA|10.40.24.204|||110000472614|93
30.10.2018 12:00:00||MARS CINEMA|10.40.25.203|||110000472614|167
30.10.2018 12:00:00||MARS CINEMA|10.40.25.203|||110000472614|95
30.10.2018 12:00:00||MARS CINEMA|10.40.25.203|||110000472614|185
30.10.2018 12:00:00||MARS CINEMA|10.40.25.203|||110000472614|98
30.10.2018 12:00:00||MARS CINEMA|10.40.25.203|||110000472614|83
30.10.2018 12:00:00||MARS CINEMA|10.40.25.203|||110000472614|118
30.10.2018 12:00:00||MARS CINEMA|10.40.25.203|||110000472614|82
30.10.2018 12:00:00||MARS CINEMA|10.40.25.203|||110000472614|150
30.10.2018 12:00:00||MARS CINEMA|10.40.25.203|||110000472614|90
30.10.2018 12:00:00||MARS CINEMA|10.40.25.203|||110000472614|110
30.10.2018 12:00:00||MARS CINEMA|10.40.25.203|||110000472614|92
30.10.2018 12:00:00||MARS CINEMA|10.40.25.203|||110000472614|65
30.10.2018 12:00:00||MARS CINEMA|10.40.25.203|||110000472614|187
30.10.2018 12:00:00||MARS CINEMA|10.40.25.204|||110000472614|110
30.10.2018 12:00:00||MARS CINEMA|10.40.25.204|||110000472614|70
30.10.2018 12:00:00||MARS CINEMA|10.40.25.204|||110000472614|80
30.10.2018 12:00:00||MARS CINEMA|10.40.25.204|||110000472614|100
30.10.2018 12:00:00||MARS CINEMA|10.40.25.204|||110000472614|20
30.10.2018 12:00:00||MARS CINEMA|10.40.25.204|||110000472614|20
30.10.2018 12:00:00||MARS CINEMA|10.40.25.204|||110000472614|30
30.10.2018 12:00:00||MARS CINEMA|10.40.25.204|||110000472614|40
30.10.2018 12:00:00||MARS CINEMA|10.40.25.204|||110000472614|90
30.10.2018 12:00:00||MARS CINEMA|10.40.25.204|||110000472614|120
30.10.2018 12:00:00||MARS CINEMA|10.40.25.204|||110000472614|80
30.10.2018 12:00:00||MARS CINEMA|10.40.25.204|||110000472614|80
30.10.2018 12:00:00||MARS CINEMA|10.40.25.204|||110000472614|110
30.10.2018 12:00:00||MARS CINEMA|10.40.25.204|||110000472614|100
30.10.2018 12:00:00||MARS CINEMA|10.40.24.203|||110000472614|80
30.10.2018 12:00:00||MARS CINEMA|10.40.24.203|||110000472614|97
30.10.2018 12:00:00||MARS CINEMA|10.40.24.203|||110000472614|147
30.10.2018 12:00:00||MARS CINEMA|10.40.24.203|||110000472614|72
30.10.2018 12:00:00||MARS CINEMA|10.40.24.203|||110000472614|142
30.10.2018 12:00:00||MARS CINEMA|10.40.24.203|||110000472614|167
30.10.2018 12:00:00||MARS CINEMA|10.40.24.203|||110000472614|100
30.10.2018 12:00:00||MARS CINEMA|10.40.24.203|||110000472614|183
30.10.2018 12:00:00||MARS CINEMA|10.40.24.204|||110000472614|110
30.10.2018 12:00:00||MARS CINEMA|10.40.24.204|||110000472614|97
30.10.2018 12:00:00||MARS CINEMA|10.40.24.204|||110000472614|90
30.10.2018 12:00:00||MARS CINEMA|10.40.24.204|||110000472614|20
30.10.2018 12:00:00||MARS CINEMA|10.40.24.204|||110000472614|10
30.10.2018 12:00:00||MARS CINEMA|10.40.24.204|||110000472614|92
30.10.2018 12:00:00||MARS CINEMA|10.40.24.204|||110000472614|122
30.10.2018 12:00:00||MARS CINEMA|10.40.24.204|||110000472614|90
30.10.2018 12:00:00||MARS CINEMA|10.40.24.204|||110000472614|108
30.10.2018 12:00:00||MARS CINEMA|10.40.24.204|||110000472614|80
30.10.2018 12:00:00||MARS CINEMA|10.40.25.206|||110000472614|123
30.10.2018 12:00:00||MARS CINEMA|10.40.25.206|||110000472614|40
30.10.2018 12:00:00||MARS CINEMA|10.40.25.206|||110000472614|40
30.10.2018 12:00:00||MARS CINEMA|10.40.25.206|||110000472614|40
30.10.2018 12:00:00||MARS CINEMA|10.40.25.206|||110000472614|20
30.10.2018 12:00:00||MARS CINEMA|10.40.25.206|||110000472614|20
30.10.2018 12:00:00||MARS CINEMA|10.40.25.206|||110000472614|30
30.10.2018 12:00:00||MARS CINEMA|10.40.25.206|||110000472614|60
30.10.2018 12:00:00||MARS CINEMA|10.40.25.206|||110000472614|40
30.10.2018 12:00:00||MARS CINEMA|10.40.25.206|||110000472614|90
30.10.2018 12:00:00||MARS CINEMA|10.40.25.206|||110000472614|90
30.10.2018 12:00:00||MARS CINEMA|10.40.24.206|||110000472614|155
30.10.2018 12:00:00||MARS CINEMA|10.40.24.206|||110000472614|40
30.10.2018 12:00:00||MARS CINEMA|10.40.24.206|||110000472614|40
30.10.2018 12:00:00||MARS CINEMA|10.40.24.206|||110000472614|48
30.10.2018 12:00:00||MARS CINEMA|10.40.24.206|||110000472614|30
30.10.2018 12:00:00||MARS CINEMA|10.40.24.206|||110000472614|30
30.10.2018 12:00:00||MARS CINEMA|10.40.24.206|||110000472614|202
30.10.2018 12:00:00||MARS CINEMA|10.40.24.206|||110000472614|162
30.10.2018 12:00:00||MARS CINEMA|10.40.24.206|||110000472614|20
30.10.2018 12:00:00||MARS CINEMA|10.40.24.206|||110000472614|82
30.10.2018 12:00:00||MARS CINEMA|10.40.24.206|||110000472614|80
30.10.2018 12:00:00||PEGASUS|10.40.27.84|||110000423831|216
30.10.2018 12:00:00||PEGASUS|10.40.26.85|||110000423831|121
30.10.2018 12:00:00||PEGASUS|10.40.27.66|||110000423831|113
30.10.2018 12:00:00||PEGASUS|10.40.26.66|||110000423831|93
30.10.2018 12:00:00||PEGASUS|10.40.26.84|||110000423831|222
30.10.2018 12:00:00||PEGASUS|10.40.27.85|||110000423831|117
30.10.2018 12:00:00||PEGASUS|10.40.27.67|||110000423831|338
30.10.2018 12:00:00||PEGASUS|10.40.27.67|||110000423831|40
30.10.2018 12:00:00||PEGASUS|10.40.26.62|||110000423831|10
30.10.2018 12:00:00||PEGASUS|10.40.26.62|||110000423831|190
30.10.2018 12:00:00||PEGASUS|10.40.26.63|||110000423831|70
30.10.2018 12:00:00||PEGASUS|10.40.26.63|||110000423831|30
30.10.2018 12:00:00||PEGASUS|10.40.26.63|||110000423831|60
30.10.2018 12:00:00||PEGASUS|10.40.26.63|||110000423831|30
30.10.2018 12:00:00||PEGASUS|10.40.26.63|||110000423831|230
30.10.2018 12:00:00||PEGASUS|10.40.26.63|||110000423831|140
30.10.2018 12:00:00||PEGASUS|10.40.26.63|||110000423831|110
30.10.2018 12:00:00||PEGASUS|10.40.26.63|||110000423831|60
30.10.2018 12:00:00||PEGASUS|10.40.26.67|||110000423831|170
30.10.2018 12:00:00||PEGASUS|10.40.27.68|||110000423831|90
30.10.2018 12:00:00||PEGASUS|10.40.27.68|||110000423831|87
30.10.2018 12:00:00||PEGASUS|10.40.27.68|||110000423831|90
30.10.2018 12:00:00||PEGASUS|10.40.27.68|||110000423831|50
30.10.2018 12:00:00||PEGASUS|10.40.26.68|||110000423831|90
30.10.2018 12:00:00||PEGASUS|10.40.26.68|||110000423831|90
30.10.2018 12:00:00||PEGASUS|10.40.26.68|||110000423831|50
30.10.2018 12:00:00||PEGASUS|10.40.27.63|||110000423831|42
30.10.2018 12:00:00||PEGASUS|10.40.27.86|||110000423831|340
30.10.2018 12:00:00||PEGASUS|10.40.27.63|||110000423831|50
30.10.2018 12:00:00||PEGASUS|10.40.27.63|||110000423831|60
30.10.2018 12:00:00||PEGASUS|10.40.27.64|||110000423831|80
30.10.2018 12:00:00||PEGASUS|10.40.27.64|||110000423831|70
30.10.2018 12:00:00||PEGASUS|10.40.27.63|||110000423831|60
30.10.2018 12:00:00||PEGASUS|10.40.27.63|||110000423831|70
30.10.2018 12:00:00||PEGASUS|10.40.27.63|||110000423831|90
30.10.2018 12:00:00||PEGASUS|10.40.26.63|||110000423831|110
30.10.2018 12:00:00||PEGASUS|10.40.27.67|||110000423831|360
30.10.2018 12:00:00||PEGASUS|10.40.27.64|||110000423831|283
30.10.2018 12:00:00||PEGASUS|10.40.27.64|||110000423831|272
30.10.2018 12:00:00||PEGASUS|10.40.27.63|||110000423831|87
30.10.2018 12:00:00||PEGASUS|10.40.27.63|||110000423831|72
30.10.2018 12:00:00||PEGASUS|10.40.27.63|||110000423831|80
30.10.2018 12:00:00||PEGASUS|10.40.26.63|||110000423831|110
30.10.2018 12:00:00||PEGASUS|10.40.26.63|||110000423831|110
30.10.2018 12:00:00||PEGASUS|10.40.27.81|||110000423831|460
30.10.2018 12:00:00||PEGASUS|10.40.27.81|||110000423831|430
30.10.2018 12:00:00||PEGASUS|10.40.26.63|||110000423831|90
30.10.2018 12:00:00||PEGASUS|10.40.26.63|||110000423831|60
30.10.2018 12:00:00||PEGASUS|10.40.26.67|||110000423831|30
30.10.2018 12:00:00||PEGASUS|10.40.26.67|||110000423831|340
30.10.2018 12:00:00||PEGASUS|10.40.26.67|||110000423831|60
30.10.2018 12:00:00||PEGASUS|10.40.26.67|||110000423831|40
30.10.2018 12:00:00||PEGASUS|10.40.26.67|||110000423831|70
30.10.2018 12:00:00||PEGASUS|10.40.26.68|||110000423831|100
30.10.2018 12:00:00||PEGASUS|10.40.27.64|||110000423831|312
30.10.2018 12:00:00||PEGASUS|10.40.27.64|||110000423831|270
30.10.2018 12:00:00||PEGASUS|10.40.27.64|||110000423831|313
30.10.2018 12:00:00||PEGASUS|10.40.27.64|||110000423831|277
30.10.2018 12:00:00||PEGASUS|10.40.27.64|||110000423831|282
30.10.2018 12:00:00||PEGASUS|10.40.27.86|||110000423831|340
30.10.2018 12:00:00||PEGASUS|10.40.27.63|||110000423831|90
30.10.2018 12:00:00||PEGASUS|10.40.26.63|||110000423831|130
30.10.2018 12:00:00||PEGASUS|10.40.26.63|||110000423831|60
30.10.2018 12:00:00||PEGASUS|10.40.26.63|||110000423831|80
30.10.2018 12:00:00||PEGASUS|10.40.26.67|||110000423831|340
30.10.2018 12:00:00||PEGASUS|10.40.27.63|||110000423831|50
30.10.2018 12:00:00||PEGASUS|10.40.27.63|||110000423831|60
30.10.2018 12:00:00||PEGASUS|10.40.27.81|||110000423831|450
30.10.2018 12:00:00||PEGASUS|10.40.26.62|||110000423831|90
30.10.2018 12:00:00||PEGASUS|10.40.26.63|||110000423831|50
30.10.2018 12:00:00||PEGASUS|10.40.26.63|||110000423831|100
30.10.2018 12:00:00||PEGASUS|10.40.26.63|||110000423831|40
30.10.2018 12:00:00||PEGASUS|10.40.26.63|||110000423831|70
30.10.2018 12:00:00||PEGASUS|10.40.26.67|||110000423831|342
30.10.2018 12:00:00||PEGASUS|10.40.27.64|||110000423831|290
30.10.2018 12:00:00||PEGASUS|10.40.27.64|||110000423831|278
30.10.2018 12:00:00||PEGASUS|10.40.27.64|||110000423831|267
30.10.2018 12:00:00||PEGASUS|10.40.27.64|||110000423831|302
30.10.2018 12:00:00||PEGASUS|10.40.27.64|||110000423831|353
30.10.2018 12:00:00||PEGASUS|10.40.27.86|||110000423831|40
30.10.2018 12:00:00||PEGASUS|10.40.27.63|||110000423831|72
30.10.2018 12:00:00||PEGASUS|10.40.27.63|||110000423831|80
30.10.2018 12:00:00||PEGASUS|10.40.27.63|||110000423831|73
30.10.2018 12:00:00||PEGASUS|10.40.27.63|||110000423831|88
30.10.2018 12:00:00||PEGASUS|10.40.27.63|||110000423831|150
30.10.2018 12:00:00||PEGASUS|10.40.27.63|||110000423831|223
30.10.2018 12:00:00||PEGASUS|10.40.27.63|||110000423831|58
30.10.2018 12:00:00||PEGASUS|10.40.26.64|||110000423831|80
30.10.2018 12:00:00||PEGASUS|10.40.26.64|||110000423831|80
30.10.2018 12:00:00||PEGASUS|10.40.26.82|||110000423831|210
30.10.2018 12:00:00||PEGASUS|10.40.26.82|||110000423831|110
30.10.2018 12:00:00||PEGASUS|10.40.26.82|||110000423831|117
30.10.2018 12:00:00||PEGASUS|10.40.26.82|||110000423831|153
30.10.2018 12:00:00||PEGASUS|10.40.26.82|||110000423831|145
30.10.2018 12:00:00||PEGASUS|10.40.26.82|||110000423831|147
30.10.2018 12:00:00||PEGASUS|10.40.26.82|||110000423831|185
30.10.2018 12:00:00||PEGASUS|10.40.26.82|||110000423831|33
30.10.2018 12:00:00||PEGASUS|10.40.26.82|||110000423831|52
30.10.2018 12:00:00||PEGASUS|10.40.26.82|||110000423831|20
30.10.2018 12:00:00||PEGASUS|10.40.26.82|||110000423831|62
30.10.2018 12:00:00||PEGASUS|10.40.26.82|||110000423831|50
30.10.2018 12:00:00||PEGASUS|10.40.26.82|||110000423831|57
30.10.2018 12:00:00||PEGASUS|10.40.27.83|||110000423831|593
30.10.2018 12:00:00||PEGASUS|10.40.27.83|||110000423831|70
30.10.2018 12:00:00||PEGASUS|10.40.27.83|||110000423831|578
30.10.2018 12:00:00||PEGASUS|10.40.27.83|||110000423831|568
30.10.2018 12:00:00||PEGASUS|10.40.27.83|||110000423831|75
30.10.2018 12:00:00||PEGASUS|10.40.26.83|||110000423831|520
30.10.2018 12:00:00||PEGASUS|10.40.26.83|||110000423831|50
30.10.2018 12:00:00||PEGASUS|10.40.26.83|||110000423831|400
30.10.2018 12:00:00||PEGASUS|10.40.26.83|||110000423831|518
30.10.2018 12:00:00||PEGASUS|10.40.26.83|||110000423831|517
30.10.2018 12:00:00||PEGASUS|10.40.26.86|||110000423831|360
30.10.2018 12:00:00||PEGASUS|10.40.26.86|||110000423831|138
30.10.2018 12:00:00||PEGASUS|10.40.26.86|||110000423831|350
30.10.2018 12:00:00||PEGASUS|10.40.26.86|||110000423831|50
30.10.2018 12:00:00||PEGASUS|10.40.26.86|||110000423831|30
30.10.2018 12:00:00||PEGASUS|10.40.26.86|||110000423831|350
30.10.2018 12:00:00||PEGASUS|10.40.26.86|||110000423831|40
30.10.2018 12:00:00||PEGASUS|10.40.27.87|||110000423831|90
30.10.2018 12:00:00||PEGASUS|10.40.27.87|||110000423831|90
30.10.2018 12:00:00||PEGASUS|10.40.27.87|||110000423831|90
30.10.2018 12:00:00||PEGASUS|10.40.27.87|||110000423831|20
30.10.2018 12:00:00||PEGASUS|10.40.26.87|||110000423831|90
30.10.2018 12:00:00||PEGASUS|10.40.26.87|||110000423831|90
30.10.2018 12:00:00||PEGASUS|10.40.26.87|||110000423831|90
30.10.2018 12:00:00||PEGASUS|10.40.26.87|||110000423831|60
30.10.2018 12:00:00||PEGASUS|10.40.26.87|||110000423831|20
30.10.2018 12:00:00||PEGASUS|10.40.26.81|||110000423831|400
30.10.2018 12:00:00||PEGASUS|10.40.26.81|||110000423831|420
30.10.2018 12:00:00||PEGASUS|10.40.26.81|||110000423831|410
30.10.2018 12:00:00||PEGASUS|10.40.27.82|||110000423831|220
30.10.2018 12:00:00||PEGASUS|10.40.27.82|||110000423831|30
30.10.2018 12:00:00||PEGASUS|10.40.27.82|||110000423831|113
30.10.2018 12:00:00||PEGASUS|10.40.27.82|||110000423831|80
30.10.2018 12:00:00||PEGASUS|10.40.27.82|||110000423831|155
30.10.2018 12:00:00||PEGASUS|10.40.27.82|||110000423831|123
30.10.2018 12:00:00||PEGASUS|10.40.27.82|||110000423831|170
30.10.2018 12:00:00||PEGASUS|10.40.27.82|||110000423831|127
30.10.2018 12:00:00||PEGASUS|10.40.27.82|||110000423831|62
30.10.2018 12:00:00||PEGASUS|10.40.27.82|||110000423831|80
30.10.2018 12:00:00||PEGASUS|10.40.27.82|||110000423831|50
30.10.2018 12:00:00||PEGASUS|10.40.27.82|||110000423831|37
30.10.2018 12:00:00||PEGASUS|10.40.27.82|||110000423831|40
30.10.2018 12:00:00||PEGASUS|10.40.27.67|||110000423831|50
30.10.2018 12:00:00||PEGASUS|10.40.27.67|||110000423831|70
30.10.2018 12:00:00||PEGASUS|10.40.27.67|||110000423831|130
30.10.2018 12:00:00||PEGASUS|10.40.27.67|||110000423831|10
30.10.2018 12:00:00||PEGASUS|10.40.27.67|||110000423831|340
30.10.2018 12:00:00||PEGASUS|10.40.27.82|||110000423831|83
30.10.2018 12:00:00||PEGASUS|10.40.27.86|||110000423831|170
30.10.2018 12:00:00||PEGASUS|10.40.27.86|||110000423831|70
30.10.2018 12:00:00||PEGASUS|10.40.27.86|||110000423831|20
30.10.2018 12:00:00||PEGASUS|10.40.27.86|||110000423831|350
30.10.2018 12:00:00||PETKIM|10.40.25.87|||110000437354|142
30.10.2018 12:00:00||PWC|10.40.24.66|||110000433262|90
30.10.2018 12:00:00||PWC|10.40.24.66|||110000433262|10
30.10.2018 12:00:00||PWC|10.40.24.66|||110000433262|30
30.10.2018 12:00:00||PWC|10.40.24.66|||110000433262|50
30.10.2018 12:00:00||PWC|10.40.24.66|||110000433262|440
30.10.2018 12:00:00||PWC|10.40.24.68|||110000433262|162
30.10.2018 12:00:00||PWC|10.40.24.66|||110000433262|50
30.10.2018 12:00:00||PWC|10.40.24.66|||110000433262|210
30.10.2018 12:00:00||PWC|10.40.24.66|||110000433262|210
30.10.2018 12:00:00||PWC|10.40.25.67|||110000433262|80
30.10.2018 12:00:00||PWC|10.40.25.67|||110000433262|90
30.10.2018 12:00:00||PWC|10.40.25.67|||110000433262|320
30.10.2018 12:00:00||PWC|10.40.25.67|||110000433262|250
30.10.2018 12:00:00||PWC|10.40.25.67|||110000433262|240
30.10.2018 12:00:00||PWC|10.40.25.67|||110000433262|250
30.10.2018 12:00:00||PWC|10.40.25.67|||110000433262|50
30.10.2018 12:00:00||PWC|10.40.25.67|||110000433262|30
30.10.2018 12:00:00||PWC|10.40.25.67|||110000433262|120
30.10.2018 12:00:00||PWC|10.40.24.67|||110000433262|10
30.10.2018 12:00:00||PWC|10.40.24.67|||110000433262|10
30.10.2018 12:00:00||PWC|10.40.24.67|||110000433262|370
30.10.2018 12:00:00||PWC|10.40.24.67|||110000433262|30
30.10.2018 12:00:00||PWC|10.40.24.67|||110000433262|70
30.10.2018 12:00:00||PWC|10.40.24.67|||110000433262|120
30.10.2018 12:00:00||PWC|10.40.25.68|||110000433262|132
30.10.2018 12:00:00||PWC|10.40.25.68|||110000433262|198
30.10.2018 12:00:00||PWC|10.40.25.68|||110000433262|75
30.10.2018 12:00:00||PWC|10.40.25.68|||110000433262|80
30.10.2018 12:00:00||PWC|10.40.25.68|||110000433262|170
30.10.2018 12:00:00||PWC|10.40.24.66|||110000433262|60
30.10.2018 12:00:00||PWC|10.40.24.66|||110000433262|30
30.10.2018 12:00:00||PWC|10.40.24.66|||110000433262|30
30.10.2018 12:00:00||PWC|10.40.24.68|||110000433262|113
30.10.2018 12:00:00||PWC|10.40.24.68|||110000433262|145
30.10.2018 12:00:00||PWC|10.40.24.68|||110000433262|403
30.10.2018 12:00:00||PWC|10.40.24.68|||110000433262|77
30.10.2018 12:00:00||PWC|10.40.24.68|||110000433262|73
30.10.2018 12:00:00||VSMART BİLGİ TEKNOLOJİLERİ|10.40.24.62|||110000474326|47
30.10.2018 12:00:00||VSMART BİLGİ TEKNOLOJİLERİ|10.40.24.62|||110000474326|63
30.10.2018 12:00:00||VSMART BİLGİ TEKNOLOJİLERİ|10.40.24.62|||110000474326|40
30.10.2018 12:00:00||VSMART BİLGİ TEKNOLOJİLERİ|10.40.25.62|||110000474326|70
30.10.2018 12:00:00||VSMART BİLGİ TEKNOLOJİLERİ|10.40.24.62|||110000474326|48
30.10.2018 12:00:00||VSMART BİLGİ TEKNOLOJİLERİ|10.40.24.62|||110000474326|30
30.10.2018 12:00:00||VSMART BİLGİ TEKNOLOJİLERİ|10.40.24.62|||110000474326|10
30.10.2018 12:00:00||VSMART BİLGİ TEKNOLOJİLERİ|10.40.25.62|||110000474326|40
30.10.2018 12:00:00||VSMART BİLGİ TEKNOLOJİLERİ|10.40.25.62|||110000474326|10
30.10.2018 12:00:00||VSMART BİLGİ TEKNOLOJİLERİ|10.40.25.62|||110000474326|10
30.10.2018 12:00:00||VSMART BİLGİ TEKNOLOJİLERİ|10.40.25.62|||110000474326|80
30.10.2018 12:00:00||VSMART BİLGİ TEKNOLOJİLERİ|10.40.25.62|||110000474326|92
30.10.2018 12:00:00||VSMART BİLGİ TEKNOLOJİLERİ|10.40.25.62|||110000474326|107
30.10.2018 12:00:00||VSMART BİLGİ TEKNOLOJİLERİ|10.40.24.62|||110000474326|10
