07.11.2018 14:00:00||AKTİFBANK|10.40.25.134|||110000438458|92
07.11.2018 14:00:00||AKTİFBANK|10.40.24.134|||110000438458|94
07.11.2018 14:00:00||AKTİFBANK|10.40.24.135|||110000438458|102
07.11.2018 14:00:00||AKTİFBANK|10.40.25.137|||110000438458|58
07.11.2018 14:00:00||AKTİFBANK|10.40.25.172|||110000438458|89
07.11.2018 14:00:00||AKTİFBANK|10.40.24.172|||110000438458|96
07.11.2018 14:00:00||AKTİFBANK|10.40.25.173|||110000438458|103
07.11.2018 14:00:00||AKTİFBANK|10.40.25.171|||110000438458|18
07.11.2018 14:00:00||AKTİFBANK|10.40.25.174|||110000438458|53
07.11.2018 14:00:00||AKTİFBANK|10.40.24.173|||110000438458|97
07.11.2018 14:00:00||AKTİFBANK|10.40.25.135|||110000438458|98
07.11.2018 14:00:00||AKTİFBANK|10.40.24.137|||110000438458|58
07.11.2018 14:00:00||AKTİFBANK|10.40.24.171|||110000438458|12
07.11.2018 14:00:00||AKTİFBANK|10.40.24.174|||110000438458|60
07.11.2018 14:00:00||AKTİFBANK|10.40.24.138|||110000438458|125
07.11.2018 14:00:00||AKTİFBANK|10.40.24.139|||110000438458|30
07.11.2018 14:00:00||AKTİFBANK|10.40.24.164|||110000438458|70
07.11.2018 14:00:00||AKTİFBANK|10.40.24.145|||110000438458|60
07.11.2018 14:00:00||AKTİFBANK|10.40.24.164|||110000438458|225
07.11.2018 14:00:00||AKTİFBANK|10.40.25.133|||110000438458|67
07.11.2018 14:00:00||AKTİFBANK|10.40.24.145|||110000438458|90
07.11.2018 14:00:00||AKTİFBANK|10.40.25.151|||110000438458|532
07.11.2018 14:00:00||AKTİFBANK|10.40.24.158|||110000438458|82
07.11.2018 14:00:00||AKTİFBANK|10.40.25.138|||110000438458|80
07.11.2018 14:00:00||AKTİFBANK|10.40.25.139|||110000438458|10
07.11.2018 14:00:00||AKTİFBANK|10.40.25.140|||110000438458|32
07.11.2018 14:00:00||AKTİFBANK|10.40.25.151|||110000438458|527
07.11.2018 14:00:00||AKTİFBANK|10.40.25.141|||110000438458|100
07.11.2018 14:00:00||AKTİFBANK|10.40.25.141|||110000438458|85
07.11.2018 14:00:00||AKTİFBANK|10.40.25.142|||110000438458|78
07.11.2018 14:00:00||AKTİFBANK|10.40.25.140|||110000438458|80
07.11.2018 14:00:00||AKTİFBANK|10.40.25.140|||110000438458|70
07.11.2018 14:00:00||AKTİFBANK|10.40.25.151|||110000438458|517
07.11.2018 14:00:00||AKTİFBANK|10.40.25.141|||110000438458|100
07.11.2018 14:00:00||AKTİFBANK|10.40.25.141|||110000438458|88
07.11.2018 14:00:00||AKTİFBANK|10.40.25.149|||110000438458|72
07.11.2018 14:00:00||AKTİFBANK|10.40.25.149|||110000438458|92
07.11.2018 14:00:00||AKTİFBANK|10.40.25.149|||110000438458|90
07.11.2018 14:00:00||AKTİFBANK|10.40.25.149|||110000438458|103
07.11.2018 14:00:00||AKTİFBANK|10.40.25.141|||110000438458|100
07.11.2018 14:00:00||AKTİFBANK|10.40.25.138|||110000438458|90
07.11.2018 14:00:00||AKTİFBANK|10.40.25.138|||110000438458|30
07.11.2018 14:00:00||AKTİFBANK|10.40.25.149|||110000438458|100
07.11.2018 14:00:00||AKTİFBANK|10.40.25.149|||110000438458|70
07.11.2018 14:00:00||AKTİFBANK|10.40.25.149|||110000438458|33
07.11.2018 14:00:00||AKTİFBANK|10.40.25.133|||110000438458|110
07.11.2018 14:00:00||AKTİFBANK|10.40.25.150|||110000438458|560
07.11.2018 14:00:00||AKTİFBANK|10.40.25.139|||110000438458|38
07.11.2018 14:00:00||AKTİFBANK|10.40.25.140|||110000438458|30
07.11.2018 14:00:00||AKTİFBANK|10.40.25.141|||110000438458|40
07.11.2018 14:00:00||AKTİFBANK|10.40.25.142|||110000438458|40
07.11.2018 14:00:00||AKTİFBANK|10.40.25.149|||110000438458|110
07.11.2018 14:00:00||AKTİFBANK|10.40.24.139|||110000438458|62
07.11.2018 14:00:00||AKTİFBANK|10.40.25.153|||110000438458|10
07.11.2018 14:00:00||AKTİFBANK|10.40.25.150|||110000438458|562
07.11.2018 14:00:00||AKTİFBANK|10.40.25.153|||110000438458|68
07.11.2018 14:00:00||AKTİFBANK|10.40.25.163|||110000438458|50
07.11.2018 14:00:00||AKTİFBANK|10.40.24.141|||110000438458|72
07.11.2018 14:00:00||AKTİFBANK|10.40.25.133|||110000438458|275
07.11.2018 14:00:00||AKTİFBANK|10.40.25.128|||110000438458|70
07.11.2018 14:00:00||AKTİFBANK|10.40.25.128|||110000438458|90
07.11.2018 14:00:00||AKTİFBANK|10.40.25.128|||110000438458|90
07.11.2018 14:00:00||AKTİFBANK|10.40.25.128|||110000438458|40
07.11.2018 14:00:00||AKTİFBANK|10.40.25.128|||110000438458|70
07.11.2018 14:00:00||AKTİFBANK|10.40.25.129|||110000438458|82
07.11.2018 14:00:00||AKTİFBANK|10.40.25.129|||110000438458|78
07.11.2018 14:00:00||AKTİFBANK|10.40.25.129|||110000438458|132
07.11.2018 14:00:00||AKTİFBANK|10.40.25.129|||110000438458|100
07.11.2018 14:00:00||AKTİFBANK|10.40.25.129|||110000438458|45
07.11.2018 14:00:00||AKTİFBANK|10.40.25.129|||110000438458|95
07.11.2018 14:00:00||AKTİFBANK|10.40.25.129|||110000438458|90
07.11.2018 14:00:00||AKTİFBANK|10.40.25.130|||110000438458|73
07.11.2018 14:00:00||AKTİFBANK|10.40.25.130|||110000438458|50
07.11.2018 14:00:00||AKTİFBANK|10.40.25.130|||110000438458|75
07.11.2018 14:00:00||AKTİFBANK|10.40.25.130|||110000438458|33
07.11.2018 14:00:00||AKTİFBANK|10.40.25.130|||110000438458|60
07.11.2018 14:00:00||AKTİFBANK|10.40.25.130|||110000438458|100
07.11.2018 14:00:00||AKTİFBANK|10.40.25.130|||110000438458|83
07.11.2018 14:00:00||AKTİFBANK|10.40.25.131|||110000438458|20
07.11.2018 14:00:00||AKTİFBANK|10.40.25.131|||110000438458|85
07.11.2018 14:00:00||AKTİFBANK|10.40.25.131|||110000438458|100
07.11.2018 14:00:00||AKTİFBANK|10.40.25.131|||110000438458|110
07.11.2018 14:00:00||AKTİFBANK|10.40.25.131|||110000438458|92
07.11.2018 14:00:00||AKTİFBANK|10.40.25.131|||110000438458|80
07.11.2018 14:00:00||AKTİFBANK|10.40.25.131|||110000438458|25
07.11.2018 14:00:00||AKTİFBANK|10.40.25.131|||110000438458|120
07.11.2018 14:00:00||AKTİFBANK|10.40.25.132|||110000438458|62
07.11.2018 14:00:00||AKTİFBANK|10.40.25.132|||110000438458|80
07.11.2018 14:00:00||AKTİFBANK|10.40.25.132|||110000438458|15
07.11.2018 14:00:00||AKTİFBANK|10.40.25.132|||110000438458|120
07.11.2018 14:00:00||AKTİFBANK|10.40.25.132|||110000438458|20
07.11.2018 14:00:00||AKTİFBANK|10.40.25.143|||110000438458|317
07.11.2018 14:00:00||AKTİFBANK|10.40.25.144|||110000438458|80
07.11.2018 14:00:00||AKTİFBANK|10.40.25.144|||110000438458|50
07.11.2018 14:00:00||AKTİFBANK|10.40.25.144|||110000438458|20
07.11.2018 14:00:00||AKTİFBANK|10.40.25.154|||110000438458|10
07.11.2018 14:00:00||AKTİFBANK|10.40.25.154|||110000438458|10
07.11.2018 14:00:00||AKTİFBANK|10.40.25.154|||110000438458|10
07.11.2018 14:00:00||AKTİFBANK|10.40.25.157|||110000438458|50
07.11.2018 14:00:00||AKTİFBANK|10.40.25.157|||110000438458|70
07.11.2018 14:00:00||AKTİFBANK|10.40.25.157|||110000438458|72
07.11.2018 14:00:00||AKTİFBANK|10.40.25.157|||110000438458|85
07.11.2018 14:00:00||AKTİFBANK|10.40.25.157|||110000438458|40
07.11.2018 14:00:00||AKTİFBANK|10.40.25.159|||110000438458|60
07.11.2018 14:00:00||AKTİFBANK|10.40.25.159|||110000438458|12
07.11.2018 14:00:00||AKTİFBANK|10.40.25.159|||110000438458|92
07.11.2018 14:00:00||AKTİFBANK|10.40.25.158|||110000438458|75
07.11.2018 14:00:00||AKTİFBANK|10.40.25.158|||110000438458|48
07.11.2018 14:00:00||AKTİFBANK|10.40.25.158|||110000438458|22
07.11.2018 14:00:00||AKTİFBANK|10.40.25.158|||110000438458|52
07.11.2018 14:00:00||AKTİFBANK|10.40.25.160|||110000438458|90
07.11.2018 14:00:00||AKTİFBANK|10.40.25.161|||110000438458|80
07.11.2018 14:00:00||AKTİFBANK|10.40.25.161|||110000438458|70
07.11.2018 14:00:00||AKTİFBANK|10.40.25.161|||110000438458|50
07.11.2018 14:00:00||AKTİFBANK|10.40.25.145|||110000438458|90
07.11.2018 14:00:00||AKTİFBANK|10.40.25.145|||110000438458|70
07.11.2018 14:00:00||AKTİFBANK|10.40.25.145|||110000438458|70
07.11.2018 14:00:00||AKTİFBANK|10.40.25.145|||110000438458|30
07.11.2018 14:00:00||AKTİFBANK|10.40.25.145|||110000438458|50
07.11.2018 14:00:00||AKTİFBANK|10.40.25.147|||110000438458|90
07.11.2018 14:00:00||AKTİFBANK|10.40.25.162|||110000438458|30
07.11.2018 14:00:00||AKTİFBANK|10.40.25.162|||110000438458|30
07.11.2018 14:00:00||AKTİFBANK|10.40.25.162|||110000438458|60
07.11.2018 14:00:00||AKTİFBANK|10.40.25.164|||110000438458|60
07.11.2018 14:00:00||AKTİFBANK|10.40.25.164|||110000438458|280
07.11.2018 14:00:00||AKTİFBANK|10.40.25.164|||110000438458|50
07.11.2018 14:00:00||AKTİFBANK|10.40.25.164|||110000438458|262
07.11.2018 14:00:00||AKTİFBANK|10.40.25.164|||110000438458|270
07.11.2018 14:00:00||AKTİFBANK|10.40.25.165|||110000438458|110
07.11.2018 14:00:00||AKTİFBANK|10.40.25.165|||110000438458|70
07.11.2018 14:00:00||AKTİFBANK|10.40.25.165|||110000438458|80
07.11.2018 14:00:00||AKTİFBANK|10.40.25.165|||110000438458|103
07.11.2018 14:00:00||AKTİFBANK|10.40.25.166|||110000438458|90
07.11.2018 14:00:00||AKTİFBANK|10.40.25.166|||110000438458|10
07.11.2018 14:00:00||AKTİFBANK|10.40.25.166|||110000438458|10
07.11.2018 14:00:00||AKTİFBANK|10.40.25.166|||110000438458|40
07.11.2018 14:00:00||AKTİFBANK|10.40.25.148|||110000438458|130
07.11.2018 14:00:00||AKTİFBANK|10.40.25.148|||110000438458|52
07.11.2018 14:00:00||AKTİFBANK|10.40.25.148|||110000438458|97
07.11.2018 14:00:00||AKTİFBANK|10.40.25.148|||110000438458|130
07.11.2018 14:00:00||AKTİFBANK|10.40.25.148|||110000438458|90
07.11.2018 14:00:00||AKTİFBANK|10.40.25.148|||110000438458|92
07.11.2018 14:00:00||AKTİFBANK|10.40.25.148|||110000438458|70
07.11.2018 14:00:00||AKTİFBANK|10.40.25.148|||110000438458|65
07.11.2018 14:00:00||AKTİFBANK|10.40.25.148|||110000438458|88
07.11.2018 14:00:00||AKTİFBANK|10.40.25.148|||110000438458|48
07.11.2018 14:00:00||AKTİFBANK|10.40.25.148|||110000438458|107
07.11.2018 14:00:00||AKTİFBANK|10.40.25.148|||110000438458|63
07.11.2018 14:00:00||AKTİFBANK|10.40.25.155|||110000438458|50
07.11.2018 14:00:00||AKTİFBANK|10.40.25.155|||110000438458|70
07.11.2018 14:00:00||AKTİFBANK|10.40.25.155|||110000438458|92
07.11.2018 14:00:00||AKTİFBANK|10.40.25.155|||110000438458|108
07.11.2018 14:00:00||AKTİFBANK|10.40.25.155|||110000438458|120
07.11.2018 14:00:00||AKTİFBANK|10.40.25.155|||110000438458|108
07.11.2018 14:00:00||AKTİFBANK|10.40.25.156|||110000438458|20
07.11.2018 14:00:00||AKTİFBANK|10.40.25.156|||110000438458|23
07.11.2018 14:00:00||AKTİFBANK|10.40.25.139|||110000438458|72
07.11.2018 14:00:00||AKTİFBANK|10.40.25.139|||110000438458|82
07.11.2018 14:00:00||AKTİFBANK|10.40.25.150|||110000438458|543
07.11.2018 14:00:00||AKTİFBANK|10.40.25.129|||110000438458|65
07.11.2018 14:00:00||AKTİFBANK|10.40.25.129|||110000438458|85
07.11.2018 14:00:00||AKTİFBANK|10.40.25.129|||110000438458|142
07.11.2018 14:00:00||AKTİFBANK|10.40.25.130|||110000438458|68
07.11.2018 14:00:00||AKTİFBANK|10.40.25.130|||110000438458|128
07.11.2018 14:00:00||AKTİFBANK|10.40.25.130|||110000438458|100
07.11.2018 14:00:00||AKTİFBANK|10.40.25.131|||110000438458|43
07.11.2018 14:00:00||AKTİFBANK|10.40.25.143|||110000438458|60
07.11.2018 14:00:00||AKTİFBANK|10.40.25.143|||110000438458|243
07.11.2018 14:00:00||AKTİFBANK|10.40.25.143|||110000438458|263
07.11.2018 14:00:00||AKTİFBANK|10.40.25.158|||110000438458|103
07.11.2018 14:00:00||AKTİFBANK|10.40.25.160|||110000438458|112
07.11.2018 14:00:00||AKTİFBANK|10.40.25.162|||110000438458|30
07.11.2018 14:00:00||AKTİFBANK|10.40.25.162|||110000438458|40
07.11.2018 14:00:00||AKTİFBANK|10.40.24.140|||110000438458|160
07.11.2018 14:00:00||AKTİFBANK|10.40.24.140|||110000438458|80
07.11.2018 14:00:00||AKTİFBANK|10.40.24.140|||110000438458|40
07.11.2018 14:00:00||AKTİFBANK|10.40.24.140|||110000438458|30
07.11.2018 14:00:00||AKTİFBANK|10.40.24.140|||110000438458|30
07.11.2018 14:00:00||AKTİFBANK|10.40.24.140|||110000438458|30
07.11.2018 14:00:00||AKTİFBANK|10.40.24.149|||110000438458|80
07.11.2018 14:00:00||AKTİFBANK|10.40.24.149|||110000438458|120
07.11.2018 14:00:00||AKTİFBANK|10.40.24.149|||110000438458|92
07.11.2018 14:00:00||AKTİFBANK|10.40.24.149|||110000438458|103
07.11.2018 14:00:00||AKTİFBANK|10.40.24.149|||110000438458|57
07.11.2018 14:00:00||AKTİFBANK|10.40.24.149|||110000438458|140
07.11.2018 14:00:00||AKTİFBANK|10.40.24.149|||110000438458|90
07.11.2018 14:00:00||AKTİFBANK|10.40.24.149|||110000438458|90
07.11.2018 14:00:00||AKTİFBANK|10.40.24.149|||110000438458|93
07.11.2018 14:00:00||AKTİFBANK|10.40.24.149|||110000438458|80
07.11.2018 14:00:00||AKTİFBANK|10.40.24.133|||110000438458|142
07.11.2018 14:00:00||AKTİFBANK|10.40.24.133|||110000438458|120
07.11.2018 14:00:00||AKTİFBANK|10.40.24.133|||110000438458|85
07.11.2018 14:00:00||AKTİFBANK|10.40.24.138|||110000438458|112
07.11.2018 14:00:00||AKTİFBANK|10.40.24.138|||110000438458|140
07.11.2018 14:00:00||AKTİFBANK|10.40.24.138|||110000438458|112
07.11.2018 14:00:00||AKTİFBANK|10.40.24.138|||110000438458|30
07.11.2018 14:00:00||AKTİFBANK|10.40.24.138|||110000438458|50
07.11.2018 14:00:00||AKTİFBANK|10.40.24.139|||110000438458|160
07.11.2018 14:00:00||AKTİFBANK|10.40.24.139|||110000438458|92
07.11.2018 14:00:00||AKTİFBANK|10.40.24.139|||110000438458|122
07.11.2018 14:00:00||AKTİFBANK|10.40.24.141|||110000438458|200
07.11.2018 14:00:00||AKTİFBANK|10.40.24.141|||110000438458|100
07.11.2018 14:00:00||AKTİFBANK|10.40.24.141|||110000438458|100
07.11.2018 14:00:00||AKTİFBANK|10.40.24.141|||110000438458|63
07.11.2018 14:00:00||AKTİFBANK|10.40.24.141|||110000438458|80
07.11.2018 14:00:00||AKTİFBANK|10.40.25.152|||110000438458|122
07.11.2018 14:00:00||AKTİFBANK|10.40.25.152|||110000438458|42
07.11.2018 14:00:00||AKTİFBANK|10.40.25.152|||110000438458|127
07.11.2018 14:00:00||AKTİFBANK|10.40.25.152|||110000438458|68
07.11.2018 14:00:00||AKTİFBANK|10.40.25.152|||110000438458|95
07.11.2018 14:00:00||AKTİFBANK|10.40.25.152|||110000438458|62
07.11.2018 14:00:00||AKTİFBANK|10.40.25.152|||110000438458|55
07.11.2018 14:00:00||AKTİFBANK|10.40.25.152|||110000438458|92
07.11.2018 14:00:00||AKTİFBANK|10.40.25.152|||110000438458|30
07.11.2018 14:00:00||AKTİFBANK|10.40.25.152|||110000438458|83
07.11.2018 14:00:00||AKTİFBANK|10.40.25.152|||110000438458|30
07.11.2018 14:00:00||AKTİFBANK|10.40.24.150|||110000438458|572
07.11.2018 14:00:00||AKTİFBANK|10.40.24.151|||110000438458|547
07.11.2018 14:00:00||AKTİFBANK|10.40.24.151|||110000438458|543
07.11.2018 14:00:00||AKTİFBANK|10.40.24.128|||110000438458|60
07.11.2018 14:00:00||AKTİFBANK|10.40.24.128|||110000438458|70
07.11.2018 14:00:00||AKTİFBANK|10.40.24.128|||110000438458|100
07.11.2018 14:00:00||AKTİFBANK|10.40.24.128|||110000438458|40
07.11.2018 14:00:00||AKTİFBANK|10.40.24.128|||110000438458|70
07.11.2018 14:00:00||AKTİFBANK|10.40.24.128|||110000438458|50
07.11.2018 14:00:00||AKTİFBANK|10.40.24.129|||110000438458|100
07.11.2018 14:00:00||AKTİFBANK|10.40.24.129|||110000438458|65
07.11.2018 14:00:00||AKTİFBANK|10.40.24.129|||110000438458|100
07.11.2018 14:00:00||AKTİFBANK|10.40.24.129|||110000438458|110
07.11.2018 14:00:00||AKTİFBANK|10.40.24.129|||110000438458|47
07.11.2018 14:00:00||AKTİFBANK|10.40.24.129|||110000438458|70
07.11.2018 14:00:00||AKTİFBANK|10.40.24.129|||110000438458|75
07.11.2018 14:00:00||AKTİFBANK|10.40.24.129|||110000438458|92
07.11.2018 14:00:00||AKTİFBANK|10.40.24.129|||110000438458|90
07.11.2018 14:00:00||AKTİFBANK|10.40.24.129|||110000438458|142
07.11.2018 14:00:00||AKTİFBANK|10.40.24.130|||110000438458|58
07.11.2018 14:00:00||AKTİFBANK|10.40.24.130|||110000438458|40
07.11.2018 14:00:00||AKTİFBANK|10.40.24.130|||110000438458|70
07.11.2018 14:00:00||AKTİFBANK|10.40.24.130|||110000438458|42
07.11.2018 14:00:00||AKTİFBANK|10.40.24.130|||110000438458|60
07.11.2018 14:00:00||AKTİFBANK|10.40.24.130|||110000438458|78
07.11.2018 14:00:00||AKTİFBANK|10.40.24.130|||110000438458|85
07.11.2018 14:00:00||AKTİFBANK|10.40.24.130|||110000438458|35
07.11.2018 14:00:00||AKTİFBANK|10.40.24.130|||110000438458|130
07.11.2018 14:00:00||AKTİFBANK|10.40.24.130|||110000438458|110
07.11.2018 14:00:00||AKTİFBANK|10.40.24.131|||110000438458|92
07.11.2018 14:00:00||AKTİFBANK|10.40.24.131|||110000438458|88
07.11.2018 14:00:00||AKTİFBANK|10.40.24.131|||110000438458|110
07.11.2018 14:00:00||AKTİFBANK|10.40.24.131|||110000438458|115
07.11.2018 14:00:00||AKTİFBANK|10.40.24.131|||110000438458|40
07.11.2018 14:00:00||AKTİFBANK|10.40.24.131|||110000438458|160
07.11.2018 14:00:00||AKTİFBANK|10.40.24.131|||110000438458|60
07.11.2018 14:00:00||AKTİFBANK|10.40.24.131|||110000438458|110
07.11.2018 14:00:00||AKTİFBANK|10.40.24.132|||110000438458|32
07.11.2018 14:00:00||AKTİFBANK|10.40.24.132|||110000438458|92
07.11.2018 14:00:00||AKTİFBANK|10.40.24.132|||110000438458|52
07.11.2018 14:00:00||AKTİFBANK|10.40.24.132|||110000438458|200
07.11.2018 14:00:00||AKTİFBANK|10.40.24.132|||110000438458|65
07.11.2018 14:00:00||AKTİFBANK|10.40.24.143|||110000438458|68
07.11.2018 14:00:00||AKTİFBANK|10.40.24.143|||110000438458|270
07.11.2018 14:00:00||AKTİFBANK|10.40.24.143|||110000438458|300
07.11.2018 14:00:00||AKTİFBANK|10.40.24.143|||110000438458|213
07.11.2018 14:00:00||AKTİFBANK|10.40.24.144|||110000438458|73
07.11.2018 14:00:00||AKTİFBANK|10.40.24.144|||110000438458|110
07.11.2018 14:00:00||AKTİFBANK|10.40.24.144|||110000438458|130
07.11.2018 14:00:00||AKTİFBANK|10.40.24.148|||110000438458|62
07.11.2018 14:00:00||AKTİFBANK|10.40.24.148|||110000438458|170
07.11.2018 14:00:00||AKTİFBANK|10.40.24.148|||110000438458|83
07.11.2018 14:00:00||AKTİFBANK|10.40.24.148|||110000438458|110
07.11.2018 14:00:00||AKTİFBANK|10.40.24.148|||110000438458|80
07.11.2018 14:00:00||AKTİFBANK|10.40.24.148|||110000438458|87
07.11.2018 14:00:00||AKTİFBANK|10.40.24.148|||110000438458|93
07.11.2018 14:00:00||AKTİFBANK|10.40.24.148|||110000438458|105
07.11.2018 14:00:00||AKTİFBANK|10.40.24.148|||110000438458|83
07.11.2018 14:00:00||AKTİFBANK|10.40.24.148|||110000438458|70
07.11.2018 14:00:00||AKTİFBANK|10.40.24.148|||110000438458|33
07.11.2018 14:00:00||AKTİFBANK|10.40.24.148|||110000438458|77
07.11.2018 14:00:00||AKTİFBANK|10.40.24.153|||110000438458|10
07.11.2018 14:00:00||AKTİFBANK|10.40.24.153|||110000438458|92
07.11.2018 14:00:00||AKTİFBANK|10.40.24.153|||110000438458|73
07.11.2018 14:00:00||AKTİFBANK|10.40.24.153|||110000438458|80
07.11.2018 14:00:00||AKTİFBANK|10.40.24.157|||110000438458|32
07.11.2018 14:00:00||AKTİFBANK|10.40.24.157|||110000438458|80
07.11.2018 14:00:00||AKTİFBANK|10.40.24.157|||110000438458|60
07.11.2018 14:00:00||AKTİFBANK|10.40.24.157|||110000438458|45
07.11.2018 14:00:00||AKTİFBANK|10.40.24.157|||110000438458|80
07.11.2018 14:00:00||AKTİFBANK|10.40.24.157|||110000438458|45
07.11.2018 14:00:00||AKTİFBANK|10.40.24.158|||110000438458|80
07.11.2018 14:00:00||AKTİFBANK|10.40.24.158|||110000438458|110
07.11.2018 14:00:00||AKTİFBANK|10.40.24.159|||110000438458|132
07.11.2018 14:00:00||AKTİFBANK|10.40.24.159|||110000438458|52
07.11.2018 14:00:00||AKTİFBANK|10.40.24.159|||110000438458|185
07.11.2018 14:00:00||AKTİFBANK|10.40.24.160|||110000438458|50
07.11.2018 14:00:00||AKTİFBANK|10.40.24.160|||110000438458|90
07.11.2018 14:00:00||AKTİFBANK|10.40.24.160|||110000438458|102
07.11.2018 14:00:00||AKTİFBANK|10.40.24.161|||110000438458|200
07.11.2018 14:00:00||AKTİFBANK|10.40.24.161|||110000438458|80
07.11.2018 14:00:00||AKTİFBANK|10.40.24.161|||110000438458|40
07.11.2018 14:00:00||AKTİFBANK|10.40.24.161|||110000438458|30
07.11.2018 14:00:00||AKTİFBANK|10.40.24.161|||110000438458|30
07.11.2018 14:00:00||AKTİFBANK|10.40.24.161|||110000438458|20
07.11.2018 14:00:00||AKTİFBANK|10.40.24.161|||110000438458|90
07.11.2018 14:00:00||AKTİFBANK|10.40.24.145|||110000438458|30
07.11.2018 14:00:00||AKTİFBANK|10.40.24.145|||110000438458|70
07.11.2018 14:00:00||AKTİFBANK|10.40.24.145|||110000438458|50
07.11.2018 14:00:00||AKTİFBANK|10.40.24.147|||110000438458|90
07.11.2018 14:00:00||AKTİFBANK|10.40.24.162|||110000438458|40
07.11.2018 14:00:00||AKTİFBANK|10.40.24.162|||110000438458|40
07.11.2018 14:00:00||AKTİFBANK|10.40.24.162|||110000438458|133
07.11.2018 14:00:00||AKTİFBANK|10.40.24.162|||110000438458|10
07.11.2018 14:00:00||AKTİFBANK|10.40.24.162|||110000438458|52
07.11.2018 14:00:00||AKTİFBANK|10.40.24.163|||110000438458|30
07.11.2018 14:00:00||AKTİFBANK|10.40.24.163|||110000438458|73
07.11.2018 14:00:00||AKTİFBANK|10.40.24.164|||110000438458|55
07.11.2018 14:00:00||AKTİFBANK|10.40.24.164|||110000438458|330
07.11.2018 14:00:00||AKTİFBANK|10.40.24.164|||110000438458|218
07.11.2018 14:00:00||AKTİFBANK|10.40.24.165|||110000438458|78
07.11.2018 14:00:00||AKTİFBANK|10.40.24.165|||110000438458|80
07.11.2018 14:00:00||AKTİFBANK|10.40.24.165|||110000438458|50
07.11.2018 14:00:00||AKTİFBANK|10.40.24.165|||110000438458|125
07.11.2018 14:00:00||AKTİFBANK|10.40.24.166|||110000438458|80
07.11.2018 14:00:00||AKTİFBANK|10.40.24.166|||110000438458|90
07.11.2018 14:00:00||AKTİFBANK|10.40.24.166|||110000438458|10
07.11.2018 14:00:00||AKTİFBANK|10.40.25.168|||110000438458|90
07.11.2018 14:00:00||AKTİFBANK|10.40.25.168|||110000438458|70
07.11.2018 14:00:00||AKTİFBANK|10.40.25.168|||110000438458|50
07.11.2018 14:00:00||AKTİFBANK|10.40.25.168|||110000438458|40
07.11.2018 14:00:00||AKTİFBANK|10.40.25.168|||110000438458|60
07.11.2018 14:00:00||AKTİFBANK|10.40.24.168|||110000438458|90
07.11.2018 14:00:00||AKTİFBANK|10.40.24.168|||110000438458|80
07.11.2018 14:00:00||AKTİFBANK|10.40.24.168|||110000438458|70
07.11.2018 14:00:00||AKTİFBANK|10.40.24.168|||110000438458|70
07.11.2018 14:00:00||AKTİFBANK|10.40.24.168|||110000438458|30
07.11.2018 14:00:00||AKTİFBANK|10.40.24.154|||110000438458|70
07.11.2018 14:00:00||AKTİFBANK|10.40.24.154|||110000438458|20
07.11.2018 14:00:00||AKTİFBANK|10.40.24.154|||110000438458|10
07.11.2018 14:00:00||AKTİFBANK|10.40.24.154|||110000438458|10
07.11.2018 14:00:00||AKTİFBANK|10.40.24.154|||110000438458|10
07.11.2018 14:00:00||AKTİFBANK|10.40.24.154|||110000438458|10
07.11.2018 14:00:00||AKTİFBANK|10.40.24.155|||110000438458|60
07.11.2018 14:00:00||AKTİFBANK|10.40.24.155|||110000438458|100
07.11.2018 14:00:00||AKTİFBANK|10.40.24.155|||110000438458|132
07.11.2018 14:00:00||AKTİFBANK|10.40.24.155|||110000438458|80
07.11.2018 14:00:00||AKTİFBANK|10.40.24.155|||110000438458|112
07.11.2018 14:00:00||AKTİFBANK|10.40.24.155|||110000438458|100
07.11.2018 14:00:00||AKTİFBANK|10.40.25.169|||110000438458|92
07.11.2018 14:00:00||AKTİFBANK|10.40.25.169|||110000438458|92
07.11.2018 14:00:00||AKTİFBANK|10.40.25.169|||110000438458|70
07.11.2018 14:00:00||AKTİFBANK|10.40.25.169|||110000438458|70
07.11.2018 14:00:00||AKTİFBANK|10.40.24.169|||110000438458|68
07.11.2018 14:00:00||AKTİFBANK|10.40.24.169|||110000438458|93
07.11.2018 14:00:00||AKTİFBANK|10.40.24.169|||110000438458|72
07.11.2018 14:00:00||AKTİFBANK|10.40.24.169|||110000438458|80
07.11.2018 14:00:00||AKTİFBANK|10.40.25.170|||110000438458|30
07.11.2018 14:00:00||AKTİFBANK|10.40.25.170|||110000438458|30
07.11.2018 14:00:00||AKTİFBANK|10.40.25.170|||110000438458|67
07.11.2018 14:00:00||AKTİFBANK|10.40.25.170|||110000438458|103
07.11.2018 14:00:00||AKTİFBANK|10.40.25.170|||110000438458|82
07.11.2018 14:00:00||AKTİFBANK|10.40.25.170|||110000438458|100
07.11.2018 14:00:00||AKTİFBANK|10.40.24.170|||110000438458|60
07.11.2018 14:00:00||AKTİFBANK|10.40.24.170|||110000438458|60
07.11.2018 14:00:00||AKTİFBANK|10.40.24.170|||110000438458|348
07.11.2018 14:00:00||AKTİFBANK|10.40.24.170|||110000438458|230
07.11.2018 14:00:00||AKTİFBANK|10.40.24.170|||110000438458|77
07.11.2018 14:00:00||AKTİFBANK|10.40.24.170|||110000438458|102
07.11.2018 14:00:00||AKTİFBANK|10.40.24.170|||110000438458|70
07.11.2018 14:00:00||AKTİFBANK|10.40.25.178|||110000438458|570
07.11.2018 14:00:00||AKTİFBANK|10.40.25.178|||110000438458|567
07.11.2018 14:00:00||AKTİFBANK|10.40.25.178|||110000438458|557
07.11.2018 14:00:00||AKTİFBANK|10.40.24.178|||110000438458|568
07.11.2018 14:00:00||AKTİFBANK|10.40.24.178|||110000438458|553
07.11.2018 14:00:00||AKTİFBANK|10.40.24.178|||110000438458|555
07.11.2018 14:00:00||AKTİFBANK|10.40.25.179|||110000438458|408
07.11.2018 14:00:00||AKTİFBANK|10.40.25.179|||110000438458|375
07.11.2018 14:00:00||AKTİFBANK|10.40.25.179|||110000438458|362
07.11.2018 14:00:00||AKTİFBANK|10.40.24.179|||110000438458|338
07.11.2018 14:00:00||AKTİFBANK|10.40.24.179|||110000438458|333
07.11.2018 14:00:00||AKTİFBANK|10.40.24.179|||110000438458|335
07.11.2018 14:00:00||AKTİFBANK|10.40.24.142|||110000438458|40
07.11.2018 14:00:00||AKTİFBANK|10.40.24.156|||110000438458|50
07.11.2018 14:00:00||AKTİFBANK|10.40.24.156|||110000438458|50
07.11.2018 14:00:00||AKTİFBANK|10.40.25.186|||110000438458|90
07.11.2018 14:00:00||AKTİFBANK|10.40.25.186|||110000438458|20
07.11.2018 14:00:00||AKTİFBANK|10.40.25.186|||110000438458|70
07.11.2018 14:00:00||AKTİFBANK|10.40.24.186|||110000438458|90
07.11.2018 14:00:00||AKTİFBANK|10.40.24.186|||110000438458|30
07.11.2018 14:00:00||AKTİFBANK|10.40.24.186|||110000438458|60
07.11.2018 14:00:00||AKTİFBANK|10.40.24.186|||110000438458|40
07.11.2018 14:00:00||AKTİFBANK|10.40.24.152|||110000438458|10
07.11.2018 14:00:00||AKTİFBANK|10.40.24.152|||110000438458|50
07.11.2018 14:00:00||AKTİFBANK|10.40.24.152|||110000438458|113
07.11.2018 14:00:00||AKTİFBANK|10.40.24.152|||110000438458|97
07.11.2018 14:00:00||AKTİFBANK|10.40.24.152|||110000438458|100
07.11.2018 14:00:00||AKTİFBANK|10.40.24.152|||110000438458|103
07.11.2018 14:00:00||AKTİFBANK|10.40.24.152|||110000438458|310
07.11.2018 14:00:00||AKTİFBANK|10.40.24.152|||110000438458|73
07.11.2018 14:00:00||AKTİFBANK|10.40.24.152|||110000438458|97
07.11.2018 14:00:00||AKTİFBANK|10.40.24.152|||110000438458|30
07.11.2018 14:00:00||AKTİFBANK|10.40.24.152|||110000438458|70
07.11.2018 14:00:00||AKTİFBANK|10.40.24.152|||110000438458|30
07.11.2018 14:00:00||AKTİFBANK|10.40.25.140|||110000438458|30
07.11.2018 14:00:00||AKTİFBANK|10.40.24.141|||110000438458|50
07.11.2018 14:00:00||AKTİFBANK|10.40.25.133|||110000438458|90
07.11.2018 14:00:00||AKTİFBANK|10.40.25.133|||110000438458|147
07.11.2018 14:00:00||AKTİFBANK|10.40.25.138|||110000438458|130
07.11.2018 14:00:00||AKTİFBANK|10.40.25.138|||110000438458|73
07.11.2018 14:00:00||AKTİFBANK|10.40.25.139|||110000438458|103
07.11.2018 14:00:00||AKTİFBANK|10.40.25.138|||110000438458|12
07.11.2018 14:00:00||AKTİFBANK|10.40.24.149|||110000438458|110
07.11.2018 14:00:00||AKTİFBANK|10.40.24.150|||110000438458|565
07.11.2018 14:00:00||AKTİFBANK|10.40.25.149|||110000438458|115
07.11.2018 14:00:00||AKTİFBANK|10.40.25.149|||110000438458|90
07.11.2018 14:00:00||AKTİFBANK|10.40.25.149|||110000438458|97
07.11.2018 14:00:00||AKTİFBANK|10.40.24.151|||110000438458|535
07.11.2018 14:00:00||AKTİFBANK|10.40.25.153|||110000438458|80
07.11.2018 14:00:00||AKTİFBANK|10.40.24.149|||110000438458|90
07.11.2018 14:00:00||AKTİFBANK|10.40.24.149|||110000438458|90
07.11.2018 14:00:00||AKTİFBANK|10.40.25.149|||110000438458|83
07.11.2018 14:00:00||AKTİFBANK|10.40.25.149|||110000438458|72
07.11.2018 14:00:00||AKTİFBANK|10.40.25.149|||110000438458|130
07.11.2018 14:00:00||AKTİFBANK|10.40.24.145|||110000438458|70
07.11.2018 14:00:00||AKTİFBANK|10.40.24.149|||110000438458|160
07.11.2018 14:00:00||AKTİFBANK|10.40.25.153|||110000438458|63
07.11.2018 14:00:00||AKTİFBANK|10.40.24.150|||110000438458|557
07.11.2018 14:00:00||AKTİFBANK|10.40.24.162|||110000438458|210
07.11.2018 14:00:00||AKTİFBANK|10.40.24.162|||110000438458|30
07.11.2018 14:00:00||AKTİFBANK|10.40.24.162|||110000438458|40
07.11.2018 14:00:00||AKTİFBANK|10.40.24.133|||110000438458|90
07.11.2018 14:00:00||BARİKAT İNTERNET GÜVENLİĞİ|10.40.25.201|||110000479736|120
07.11.2018 14:00:00||BARİKAT İNTERNET GÜVENLİĞİ|10.40.25.201|||110000479736|100
07.11.2018 14:00:00||BARİKAT İNTERNET GÜVENLİĞİ|10.40.24.201|||110000479736|133
07.11.2018 14:00:00||BARİKAT İNTERNET GÜVENLİĞİ|10.40.24.201|||110000479736|90
07.11.2018 14:00:00||BOYNER|10.40.26.100|||101367941673|56
07.11.2018 14:00:00||BOYNER|10.40.26.101|||101367941673|177
07.11.2018 14:00:00||BOYNER|10.40.27.100|||101367941673|53
07.11.2018 14:00:00||BOYNER|10.40.27.101|||101367941673|182
07.11.2018 14:00:00||BOYNER|10.40.27.94|||101367941673|175
07.11.2018 14:00:00||BOYNER|10.40.27.94|||101367941673|172
07.11.2018 14:00:00||BOYNER|10.40.27.94|||101367941673|218
07.11.2018 14:00:00||BOYNER|10.40.27.94|||101367941673|90
07.11.2018 14:00:00||BOYNER|10.40.27.94|||101367941673|100
07.11.2018 14:00:00||BOYNER|10.40.27.94|||101367941673|102
07.11.2018 14:00:00||BOYNER|10.40.26.94|||101367941673|153
07.11.2018 14:00:00||BOYNER|10.40.26.94|||101367941673|182
07.11.2018 14:00:00||BOYNER|10.40.26.94|||101367941673|183
07.11.2018 14:00:00||BOYNER|10.40.26.94|||101367941673|87
07.11.2018 14:00:00||BOYNER|10.40.26.94|||101367941673|82
07.11.2018 14:00:00||BOYNER|10.40.26.94|||101367941673|77
07.11.2018 14:00:00||BOYNER|10.40.27.95|||101367941673|127
07.11.2018 14:00:00||BOYNER|10.40.27.95|||101367941673|128
07.11.2018 14:00:00||BOYNER|10.40.27.95|||101367941673|227
07.11.2018 14:00:00||BOYNER|10.40.26.95|||101367941673|112
07.11.2018 14:00:00||BOYNER|10.40.26.95|||101367941673|193
07.11.2018 14:00:00||BOYNER|10.40.26.95|||101367941673|138
07.11.2018 14:00:00||BOYNER|10.40.27.96|||101367941673|60
07.11.2018 14:00:00||BOYNER|10.40.27.96|||101367941673|50
07.11.2018 14:00:00||BOYNER|10.40.27.96|||101367941673|50
07.11.2018 14:00:00||BOYNER|10.40.27.96|||101367941673|40
07.11.2018 14:00:00||BOYNER|10.40.27.96|||101367941673|40
07.11.2018 14:00:00||BOYNER|10.40.27.96|||101367941673|150
07.11.2018 14:00:00||BOYNER|10.40.27.96|||101367941673|148
07.11.2018 14:00:00||BOYNER|10.40.27.96|||101367941673|182
07.11.2018 14:00:00||BOYNER|10.40.27.96|||101367941673|168
07.11.2018 14:00:00||BOYNER|10.40.26.96|||101367941673|30
07.11.2018 14:00:00||BOYNER|10.40.26.96|||101367941673|38
07.11.2018 14:00:00||BOYNER|10.40.26.96|||101367941673|30
07.11.2018 14:00:00||BOYNER|10.40.26.96|||101367941673|40
07.11.2018 14:00:00||BOYNER|10.40.26.96|||101367941673|40
07.11.2018 14:00:00||BOYNER|10.40.26.96|||101367941673|50
07.11.2018 14:00:00||BOYNER|10.40.26.96|||101367941673|183
07.11.2018 14:00:00||BOYNER|10.40.26.96|||101367941673|200
07.11.2018 14:00:00||BOYNER|10.40.26.96|||101367941673|172
07.11.2018 14:00:00||BOYNER|10.40.26.96|||101367941673|182
07.11.2018 14:00:00||BOYNER|10.40.27.97|||101367941673|60
07.11.2018 14:00:00||BOYNER|10.40.27.97|||101367941673|668
07.11.2018 14:00:00||BOYNER|10.40.27.97|||101367941673|675
07.11.2018 14:00:00||BOYNER|10.40.27.97|||101367941673|708
07.11.2018 14:00:00||BOYNER|10.40.27.97|||101367941673|45
07.11.2018 14:00:00||BOYNER|10.40.27.97|||101367941673|30
07.11.2018 14:00:00||BOYNER|10.40.27.97|||101367941673|52
07.11.2018 14:00:00||BOYNER|10.40.27.97|||101367941673|30
07.11.2018 14:00:00||BOYNER|10.40.27.97|||101367941673|178
07.11.2018 14:00:00||BOYNER|10.40.27.97|||101367941673|175
07.11.2018 14:00:00||BOYNER|10.40.27.97|||101367941673|187
07.11.2018 14:00:00||BOYNER|10.40.27.97|||101367941673|202
07.11.2018 14:00:00||BOYNER|10.40.26.97|||101367941673|30
07.11.2018 14:00:00||BOYNER|10.40.26.97|||101367941673|667
07.11.2018 14:00:00||BOYNER|10.40.26.97|||101367941673|660
07.11.2018 14:00:00||BOYNER|10.40.26.97|||101367941673|665
07.11.2018 14:00:00||BOYNER|10.40.26.97|||101367941673|32
07.11.2018 14:00:00||BOYNER|10.40.26.97|||101367941673|40
07.11.2018 14:00:00||BOYNER|10.40.26.97|||101367941673|50
07.11.2018 14:00:00||BOYNER|10.40.26.97|||101367941673|60
07.11.2018 14:00:00||BOYNER|10.40.26.97|||101367941673|30
07.11.2018 14:00:00||BOYNER|10.40.26.97|||101367941673|170
07.11.2018 14:00:00||BOYNER|10.40.26.97|||101367941673|177
07.11.2018 14:00:00||BOYNER|10.40.26.97|||101367941673|175
07.11.2018 14:00:00||BOYNER|10.40.26.97|||101367941673|162
07.11.2018 14:00:00||BOYNER|10.40.27.99|||101367941673|128
07.11.2018 14:00:00||BOYNER|10.40.27.99|||101367941673|87
07.11.2018 14:00:00||BOYNER|10.40.27.99|||101367941673|80
07.11.2018 14:00:00||BOYNER|10.40.26.99|||101367941673|12
07.11.2018 14:00:00||BOYNER|10.40.26.99|||101367941673|110
07.11.2018 14:00:00||BOYNER|10.40.26.99|||101367941673|112
07.11.2018 14:00:00||BOYNER|10.40.26.99|||101367941673|72
07.11.2018 14:00:00||ÇALIK HOLDİNG|10.40.24.118|||110000438407|37
07.11.2018 14:00:00||ÇALIK HOLDİNG|10.40.25.118|||110000438407|133
07.11.2018 14:00:00||ÇALIK HOLDİNG|10.40.25.99|||110000438407|141
07.11.2018 14:00:00||ÇALIK HOLDİNG|10.40.25.120|||110000438407|90
07.11.2018 14:00:00||ÇALIK HOLDİNG|10.40.25.97|||110000438407|80
07.11.2018 14:00:00||ÇALIK HOLDİNG|10.40.25.96|||110000438407|70
07.11.2018 14:00:00||ÇALIK HOLDİNG|10.40.25.96|||110000438407|90
07.11.2018 14:00:00||ÇALIK HOLDİNG|10.40.25.96|||110000438407|120
07.11.2018 14:00:00||ÇALIK HOLDİNG|10.40.25.96|||110000438407|90
07.11.2018 14:00:00||ÇALIK HOLDİNG|10.40.25.95|||110000438407|92
07.11.2018 14:00:00||ÇALIK HOLDİNG|10.40.25.95|||110000438407|60
07.11.2018 14:00:00||ÇALIK HOLDİNG|10.40.24.94|||110000438407|187
07.11.2018 14:00:00||ÇALIK HOLDİNG|10.40.25.97|||110000438407|102
07.11.2018 14:00:00||ÇALIK HOLDİNG|10.40.25.115|||110000438407|80
07.11.2018 14:00:00||ÇALIK HOLDİNG|10.40.25.115|||110000438407|65
07.11.2018 14:00:00||ÇALIK HOLDİNG|10.40.25.115|||110000438407|63
07.11.2018 14:00:00||ÇALIK HOLDİNG|10.40.24.95|||110000438407|50
07.11.2018 14:00:00||ÇALIK HOLDİNG|10.40.25.120|||110000438407|40
07.11.2018 14:00:00||ÇALIK HOLDİNG|10.40.25.96|||110000438407|90
07.11.2018 14:00:00||ÇALIK HOLDİNG|10.40.25.96|||110000438407|100
07.11.2018 14:00:00||ÇALIK HOLDİNG|10.40.25.101|||110000438407|50
07.11.2018 14:00:00||ÇALIK HOLDİNG|10.40.25.101|||110000438407|110
07.11.2018 14:00:00||ÇALIK HOLDİNG|10.40.25.101|||110000438407|30
07.11.2018 14:00:00||ÇALIK HOLDİNG|10.40.25.101|||110000438407|10
07.11.2018 14:00:00||ÇALIK HOLDİNG|10.40.25.101|||110000438407|95
07.11.2018 14:00:00||ÇALIK HOLDİNG|10.40.25.101|||110000438407|40
07.11.2018 14:00:00||ÇALIK HOLDİNG|10.40.25.101|||110000438407|40
07.11.2018 14:00:00||ÇALIK HOLDİNG|10.40.25.101|||110000438407|90
07.11.2018 14:00:00||ÇALIK HOLDİNG|10.40.25.101|||110000438407|90
07.11.2018 14:00:00||ÇALIK HOLDİNG|10.40.25.101|||110000438407|100
07.11.2018 14:00:00||ÇALIK HOLDİNG|10.40.25.94|||110000438407|190
07.11.2018 14:00:00||ÇALIK HOLDİNG|10.40.25.94|||110000438407|183
07.11.2018 14:00:00||ÇALIK HOLDİNG|10.40.25.94|||110000438407|193
07.11.2018 14:00:00||ÇALIK HOLDİNG|10.40.25.94|||110000438407|185
07.11.2018 14:00:00||ÇALIK HOLDİNG|10.40.24.94|||110000438407|192
07.11.2018 14:00:00||ÇALIK HOLDİNG|10.40.24.94|||110000438407|195
07.11.2018 14:00:00||ÇALIK HOLDİNG|10.40.24.94|||110000438407|193
07.11.2018 14:00:00||ÇALIK HOLDİNG|10.40.25.95|||110000438407|20
07.11.2018 14:00:00||ÇALIK HOLDİNG|10.40.25.95|||110000438407|350
07.11.2018 14:00:00||ÇALIK HOLDİNG|10.40.25.95|||110000438407|362
07.11.2018 14:00:00||ÇALIK HOLDİNG|10.40.25.95|||110000438407|40
07.11.2018 14:00:00||ÇALIK HOLDİNG|10.40.24.95|||110000438407|102
07.11.2018 14:00:00||ÇALIK HOLDİNG|10.40.24.95|||110000438407|98
07.11.2018 14:00:00||ÇALIK HOLDİNG|10.40.24.95|||110000438407|385
07.11.2018 14:00:00||ÇALIK HOLDİNG|10.40.24.95|||110000438407|403
07.11.2018 14:00:00||ÇALIK HOLDİNG|10.40.25.96|||110000438407|90
07.11.2018 14:00:00||ÇALIK HOLDİNG|10.40.25.96|||110000438407|95
07.11.2018 14:00:00||ÇALIK HOLDİNG|10.40.25.96|||110000438407|100
07.11.2018 14:00:00||ÇALIK HOLDİNG|10.40.25.96|||110000438407|255
07.11.2018 14:00:00||ÇALIK HOLDİNG|10.40.25.96|||110000438407|263
07.11.2018 14:00:00||ÇALIK HOLDİNG|10.40.25.96|||110000438407|100
07.11.2018 14:00:00||ÇALIK HOLDİNG|10.40.25.96|||110000438407|90
07.11.2018 14:00:00||ÇALIK HOLDİNG|10.40.25.96|||110000438407|95
07.11.2018 14:00:00||ÇALIK HOLDİNG|10.40.25.97|||110000438407|90
07.11.2018 14:00:00||ÇALIK HOLDİNG|10.40.25.97|||110000438407|80
07.11.2018 14:00:00||ÇALIK HOLDİNG|10.40.25.97|||110000438407|287
07.11.2018 14:00:00||ÇALIK HOLDİNG|10.40.25.98|||110000438407|50
07.11.2018 14:00:00||ÇALIK HOLDİNG|10.40.25.98|||110000438407|165
07.11.2018 14:00:00||ÇALIK HOLDİNG|10.40.25.98|||110000438407|160
07.11.2018 14:00:00||ÇALIK HOLDİNG|10.40.25.98|||110000438407|168
07.11.2018 14:00:00||ÇALIK HOLDİNG|10.40.25.98|||110000438407|170
07.11.2018 14:00:00||ÇALIK HOLDİNG|10.40.25.98|||110000438407|60
07.11.2018 14:00:00||ÇALIK HOLDİNG|10.40.25.98|||110000438407|210
07.11.2018 14:00:00||ÇALIK HOLDİNG|10.40.25.98|||110000438407|180
07.11.2018 14:00:00||ÇALIK HOLDİNG|10.40.25.98|||110000438407|168
07.11.2018 14:00:00||ÇALIK HOLDİNG|10.40.25.98|||110000438407|210
07.11.2018 14:00:00||ÇALIK HOLDİNG|10.40.25.98|||110000438407|70
07.11.2018 14:00:00||ÇALIK HOLDİNG|10.40.25.98|||110000438407|300
07.11.2018 14:00:00||ÇALIK HOLDİNG|10.40.24.98|||110000438407|90
07.11.2018 14:00:00||ÇALIK HOLDİNG|10.40.24.98|||110000438407|157
07.11.2018 14:00:00||ÇALIK HOLDİNG|10.40.24.98|||110000438407|200
07.11.2018 14:00:00||ÇALIK HOLDİNG|10.40.24.98|||110000438407|200
07.11.2018 14:00:00||ÇALIK HOLDİNG|10.40.24.98|||110000438407|160
07.11.2018 14:00:00||ÇALIK HOLDİNG|10.40.24.98|||110000438407|30
07.11.2018 14:00:00||ÇALIK HOLDİNG|10.40.24.98|||110000438407|160
07.11.2018 14:00:00||ÇALIK HOLDİNG|10.40.24.98|||110000438407|180
07.11.2018 14:00:00||ÇALIK HOLDİNG|10.40.24.98|||110000438407|168
07.11.2018 14:00:00||ÇALIK HOLDİNG|10.40.24.98|||110000438407|173
07.11.2018 14:00:00||ÇALIK HOLDİNG|10.40.24.98|||110000438407|20
07.11.2018 14:00:00||ÇALIK HOLDİNG|10.40.24.98|||110000438407|275
07.11.2018 14:00:00||ÇALIK HOLDİNG|10.40.25.100|||110000438407|37
07.11.2018 14:00:00||ÇALIK HOLDİNG|10.40.25.100|||110000438407|40
07.11.2018 14:00:00||ÇALIK HOLDİNG|10.40.24.101|||110000438407|60
07.11.2018 14:00:00||ÇALIK HOLDİNG|10.40.24.101|||110000438407|110
07.11.2018 14:00:00||ÇALIK HOLDİNG|10.40.24.101|||110000438407|20
07.11.2018 14:00:00||ÇALIK HOLDİNG|10.40.24.101|||110000438407|20
07.11.2018 14:00:00||ÇALIK HOLDİNG|10.40.24.101|||110000438407|40
07.11.2018 14:00:00||ÇALIK HOLDİNG|10.40.24.101|||110000438407|68
07.11.2018 14:00:00||ÇALIK HOLDİNG|10.40.24.101|||110000438407|30
07.11.2018 14:00:00||ÇALIK HOLDİNG|10.40.24.101|||110000438407|10
07.11.2018 14:00:00||ÇALIK HOLDİNG|10.40.24.101|||110000438407|20
07.11.2018 14:00:00||ÇALIK HOLDİNG|10.40.24.101|||110000438407|50
07.11.2018 14:00:00||ÇALIK HOLDİNG|10.40.24.101|||110000438407|30
07.11.2018 14:00:00||ÇALIK HOLDİNG|10.40.24.101|||110000438407|80
07.11.2018 14:00:00||ÇALIK HOLDİNG|10.40.24.101|||110000438407|80
07.11.2018 14:00:00||ÇALIK HOLDİNG|10.40.24.101|||110000438407|90
07.11.2018 14:00:00||ÇALIK HOLDİNG|10.40.25.102|||110000438407|100
07.11.2018 14:00:00||ÇALIK HOLDİNG|10.40.25.102|||110000438407|90
07.11.2018 14:00:00||ÇALIK HOLDİNG|10.40.25.102|||110000438407|150
07.11.2018 14:00:00||ÇALIK HOLDİNG|10.40.24.102|||110000438407|100
07.11.2018 14:00:00||ÇALIK HOLDİNG|10.40.24.102|||110000438407|90
07.11.2018 14:00:00||ÇALIK HOLDİNG|10.40.24.102|||110000438407|140
07.11.2018 14:00:00||ÇALIK HOLDİNG|10.40.25.103|||110000438407|90
07.11.2018 14:00:00||ÇALIK HOLDİNG|10.40.25.103|||110000438407|80
07.11.2018 14:00:00||ÇALIK HOLDİNG|10.40.25.103|||110000438407|10
07.11.2018 14:00:00||ÇALIK HOLDİNG|10.40.25.115|||110000438407|80
07.11.2018 14:00:00||ÇALIK HOLDİNG|10.40.24.103|||110000438407|100
07.11.2018 14:00:00||ÇALIK HOLDİNG|10.40.24.103|||110000438407|80
07.11.2018 14:00:00||ÇALIK HOLDİNG|10.40.24.103|||110000438407|80
07.11.2018 14:00:00||ÇALIK HOLDİNG|10.40.24.103|||110000438407|20
07.11.2018 14:00:00||ÇALIK HOLDİNG|10.40.24.103|||110000438407|10
07.11.2018 14:00:00||ÇALIK HOLDİNG|10.40.25.113|||110000438407|232
07.11.2018 14:00:00||ÇALIK HOLDİNG|10.40.25.113|||110000438407|242
07.11.2018 14:00:00||ÇALIK HOLDİNG|10.40.25.113|||110000438407|190
07.11.2018 14:00:00||ÇALIK HOLDİNG|10.40.25.113|||110000438407|195
07.11.2018 14:00:00||ÇALIK HOLDİNG|10.40.24.113|||110000438407|238
07.11.2018 14:00:00||ÇALIK HOLDİNG|10.40.24.113|||110000438407|235
07.11.2018 14:00:00||ÇALIK HOLDİNG|10.40.24.113|||110000438407|190
07.11.2018 14:00:00||ÇALIK HOLDİNG|10.40.24.113|||110000438407|158
07.11.2018 14:00:00||ÇALIK HOLDİNG|10.40.25.114|||110000438407|198
07.11.2018 14:00:00||ÇALIK HOLDİNG|10.40.25.114|||110000438407|425
07.11.2018 14:00:00||ÇALIK HOLDİNG|10.40.25.114|||110000438407|40
07.11.2018 14:00:00||ÇALIK HOLDİNG|10.40.24.114|||110000438407|20
07.11.2018 14:00:00||ÇALIK HOLDİNG|10.40.24.114|||110000438407|40
07.11.2018 14:00:00||ÇALIK HOLDİNG|10.40.24.114|||110000438407|165
07.11.2018 14:00:00||ÇALIK HOLDİNG|10.40.24.114|||110000438407|388
07.11.2018 14:00:00||ÇALIK HOLDİNG|10.40.24.115|||110000438407|150
07.11.2018 14:00:00||ÇALIK HOLDİNG|10.40.24.115|||110000438407|80
07.11.2018 14:00:00||ÇALIK HOLDİNG|10.40.24.115|||110000438407|85
07.11.2018 14:00:00||ÇALIK HOLDİNG|10.40.24.115|||110000438407|70
07.11.2018 14:00:00||ÇALIK HOLDİNG|10.40.24.115|||110000438407|80
07.11.2018 14:00:00||ÇALIK HOLDİNG|10.40.24.115|||110000438407|70
07.11.2018 14:00:00||ÇALIK HOLDİNG|10.40.25.116|||110000438407|100
07.11.2018 14:00:00||ÇALIK HOLDİNG|10.40.25.116|||110000438407|102
07.11.2018 14:00:00||ÇALIK HOLDİNG|10.40.25.116|||110000438407|292
07.11.2018 14:00:00||ÇALIK HOLDİNG|10.40.24.116|||110000438407|278
07.11.2018 14:00:00||ÇALIK HOLDİNG|10.40.24.116|||110000438407|102
07.11.2018 14:00:00||ÇALIK HOLDİNG|10.40.24.116|||110000438407|98
07.11.2018 14:00:00||ÇALIK HOLDİNG|10.40.25.117|||110000438407|250
07.11.2018 14:00:00||ÇALIK HOLDİNG|10.40.25.117|||110000438407|30
07.11.2018 14:00:00||ÇALIK HOLDİNG|10.40.25.117|||110000438407|23
07.11.2018 14:00:00||ÇALIK HOLDİNG|10.40.25.119|||110000438407|30
07.11.2018 14:00:00||ÇALIK HOLDİNG|10.40.25.119|||110000438407|30
07.11.2018 14:00:00||ÇALIK HOLDİNG|10.40.24.119|||110000438407|150
07.11.2018 14:00:00||ÇALIK HOLDİNG|10.40.24.119|||110000438407|30
07.11.2018 14:00:00||ÇALIK HOLDİNG|10.40.24.119|||110000438407|50
07.11.2018 14:00:00||ÇALIK HOLDİNG|10.40.25.120|||110000438407|108
07.11.2018 14:00:00||ÇALIK HOLDİNG|10.40.25.120|||110000438407|50
07.11.2018 14:00:00||ÇALIK HOLDİNG|10.40.25.120|||110000438407|20
07.11.2018 14:00:00||ÇALIK HOLDİNG|10.40.25.120|||110000438407|20
07.11.2018 14:00:00||ÇALIK HOLDİNG|10.40.25.120|||110000438407|30
07.11.2018 14:00:00||ÇALIK HOLDİNG|10.40.25.120|||110000438407|90
07.11.2018 14:00:00||ÇALIK HOLDİNG|10.40.25.120|||110000438407|90
07.11.2018 14:00:00||ÇALIK HOLDİNG|10.40.24.120|||110000438407|20
07.11.2018 14:00:00||ÇALIK HOLDİNG|10.40.24.120|||110000438407|30
07.11.2018 14:00:00||ÇALIK HOLDİNG|10.40.24.120|||110000438407|110
07.11.2018 14:00:00||ÇALIK HOLDİNG|10.40.24.120|||110000438407|100
07.11.2018 14:00:00||ÇALIK HOLDİNG|10.40.24.120|||110000438407|40
07.11.2018 14:00:00||ÇALIK HOLDİNG|10.40.24.120|||110000438407|82
07.11.2018 14:00:00||ÇALIK HOLDİNG|10.40.24.120|||110000438407|80
07.11.2018 14:00:00||ÇALIK HOLDİNG|10.40.24.120|||110000438407|70
07.11.2018 14:00:00||ÇALIK HOLDİNG|10.40.25.121|||110000438407|92
07.11.2018 14:00:00||ÇALIK HOLDİNG|10.40.25.121|||110000438407|100
07.11.2018 14:00:00||ÇALIK HOLDİNG|10.40.25.121|||110000438407|150
07.11.2018 14:00:00||ÇALIK HOLDİNG|10.40.24.121|||110000438407|100
07.11.2018 14:00:00||ÇALIK HOLDİNG|10.40.24.121|||110000438407|100
07.11.2018 14:00:00||ÇALIK HOLDİNG|10.40.24.121|||110000438407|140
07.11.2018 14:00:00||ÇALIK HOLDİNG|10.40.25.122|||110000438407|90
07.11.2018 14:00:00||ÇALIK HOLDİNG|10.40.25.122|||110000438407|82
07.11.2018 14:00:00||ÇALIK HOLDİNG|10.40.25.122|||110000438407|80
07.11.2018 14:00:00||ÇALIK HOLDİNG|10.40.25.122|||110000438407|30
07.11.2018 14:00:00||ÇALIK HOLDİNG|10.40.25.122|||110000438407|10
07.11.2018 14:00:00||ÇALIK HOLDİNG|10.40.24.122|||110000438407|90
07.11.2018 14:00:00||ÇALIK HOLDİNG|10.40.24.122|||110000438407|80
07.11.2018 14:00:00||ÇALIK HOLDİNG|10.40.24.122|||110000438407|87
07.11.2018 14:00:00||ÇALIK HOLDİNG|10.40.24.117|||110000438407|200
07.11.2018 14:00:00||ÇALIK HOLDİNG|10.40.24.117|||110000438407|30
07.11.2018 14:00:00||ÇALIK HOLDİNG|10.40.24.117|||110000438407|30
07.11.2018 14:00:00||ÇALIK HOLDİNG|10.40.24.97|||110000438407|100
07.11.2018 14:00:00||ÇALIK HOLDİNG|10.40.24.97|||110000438407|90
07.11.2018 14:00:00||ÇALIK HOLDİNG|10.40.24.97|||110000438407|80
07.11.2018 14:00:00||ÇALIK HOLDİNG|10.40.24.97|||110000438407|90
07.11.2018 14:00:00||ÇALIK HOLDİNG|10.40.24.97|||110000438407|307
07.11.2018 14:00:00||ÇALIK HOLDİNG|10.40.24.100|||110000438407|30
07.11.2018 14:00:00||ÇALIK HOLDİNG|10.40.24.100|||110000438407|40
07.11.2018 14:00:00||ÇALIK HOLDİNG|10.40.25.103|||110000438407|90
07.11.2018 14:00:00||ÇALIK HOLDİNG|10.40.25.115|||110000438407|160
07.11.2018 14:00:00||ÇALIK HOLDİNG|10.40.25.115|||110000438407|70
07.11.2018 14:00:00||ÇALIK HOLDİNG|10.40.25.120|||110000438407|20
07.11.2018 14:00:00||ÇALIK HOLDİNG|10.40.25.120|||110000438407|60
07.11.2018 14:00:00||FIBABANKA|10.40.26.54|||101571767266|317
07.11.2018 14:00:00||FIBABANKA|10.40.26.55|||101571767266|109
07.11.2018 14:00:00||FIBABANKA|10.40.25.56|||101571767266|98
07.11.2018 14:00:00||FIBABANKA|10.40.27.54|||101571767266|310
07.11.2018 14:00:00||FIBABANKA|10.40.27.55|||101571767266|110
07.11.2018 14:00:00||FIBABANKA|10.40.24.55|||101571767266|111
07.11.2018 14:00:00||FIBABANKA|10.40.25.54|||101571767266|329
07.11.2018 14:00:00||FIBABANKA|10.40.24.54|||101571767266|315
07.11.2018 14:00:00||FIBABANKA|10.40.25.55|||101571767266|113
07.11.2018 14:00:00||FIBABANKA|10.40.24.56|||101571767266|196
07.11.2018 14:00:00||FIBABANKA|10.40.26.51|||101571767266|20
07.11.2018 14:00:00||FIBABANKA|10.40.27.52|||101571767266|50
07.11.2018 14:00:00||FIBABANKA|10.40.27.52|||101571767266|62
07.11.2018 14:00:00||FIBABANKA|10.40.27.52|||101571767266|70
07.11.2018 14:00:00||FIBABANKA|10.40.27.53|||101571767266|58
07.11.2018 14:00:00||FIBABANKA|10.40.26.53|||101571767266|70
07.11.2018 14:00:00||FIBABANKA|10.40.26.53|||101571767266|63
07.11.2018 14:00:00||FIBABANKA|10.40.27.57|||101571767266|80
07.11.2018 14:00:00||FIBABANKA|10.40.27.53|||101571767266|67
07.11.2018 14:00:00||FIBABANKA|10.40.27.52|||101571767266|50
07.11.2018 14:00:00||FIBABANKA|10.40.27.53|||101571767266|188
07.11.2018 14:00:00||FIBABANKA|10.40.27.53|||101571767266|193
07.11.2018 14:00:00||FIBABANKA|10.40.27.57|||101571767266|85
07.11.2018 14:00:00||FIBABANKA|10.40.27.57|||101571767266|80
07.11.2018 14:00:00||FIBABANKA|10.40.26.60|||101571767266|113
07.11.2018 14:00:00||FIBABANKA|10.40.26.60|||101571767266|148
07.11.2018 14:00:00||FIBABANKA|10.40.26.60|||101571767266|33
07.11.2018 14:00:00||FIBABANKA|10.40.27.60|||101571767266|50
07.11.2018 14:00:00||FIBABANKA|10.40.27.60|||101571767266|220
07.11.2018 14:00:00||FIBABANKA|10.40.27.60|||101571767266|240
07.11.2018 14:00:00||FIBABANKA|10.40.27.60|||101571767266|48
07.11.2018 14:00:00||FIBABANKA|10.40.27.60|||101571767266|163
07.11.2018 14:00:00||FIBABANKA|10.40.27.60|||101571767266|10
07.11.2018 14:00:00||FIBABANKA|10.40.27.60|||101571767266|100
07.11.2018 14:00:00||FIBABANKA|10.40.27.60|||101571767266|113
07.11.2018 14:00:00||FIBABANKA|10.40.26.60|||101571767266|10
07.11.2018 14:00:00||FIBABANKA|10.40.26.60|||101571767266|112
07.11.2018 14:00:00||FIBABANKA|10.40.26.60|||101571767266|120
07.11.2018 14:00:00||FIBABANKA|10.40.26.60|||101571767266|233
07.11.2018 14:00:00||FIBABANKA|10.40.27.73|||101571767266|10
07.11.2018 14:00:00||FIBABANKA|10.40.27.74|||101571767266|180
07.11.2018 14:00:00||FIBABANKA|10.40.25.57|||101571767266|92
07.11.2018 14:00:00||FIBABANKA|10.40.27.60|||101571767266|50
07.11.2018 14:00:00||FIBABANKA|10.40.25.53|||101571767266|48
07.11.2018 14:00:00||FIBABANKA|10.40.25.51|||101571767266|110
07.11.2018 14:00:00||FIBABANKA|10.40.24.51|||101571767266|20
07.11.2018 14:00:00||FIBABANKA|10.40.24.51|||101571767266|70
07.11.2018 14:00:00||FIBABANKA|10.40.24.51|||101571767266|100
07.11.2018 14:00:00||FIBABANKA|10.40.24.52|||101571767266|40
07.11.2018 14:00:00||FIBABANKA|10.40.24.52|||101571767266|12
07.11.2018 14:00:00||FIBABANKA|10.40.25.51|||101571767266|40
07.11.2018 14:00:00||FIBABANKA|10.40.25.51|||101571767266|40
07.11.2018 14:00:00||FIBABANKA|10.40.25.51|||101571767266|70
07.11.2018 14:00:00||FIBABANKA|10.40.26.51|||101571767266|72
07.11.2018 14:00:00||FIBABANKA|10.40.26.52|||101571767266|30
07.11.2018 14:00:00||FIBABANKA|10.40.26.52|||101571767266|90
07.11.2018 14:00:00||FIBABANKA|10.40.26.52|||101571767266|30
07.11.2018 14:00:00||FIBABANKA|10.40.27.60|||101571767266|95
07.11.2018 14:00:00||FIBABANKA|10.40.26.73|||101571767266|40
07.11.2018 14:00:00||FIBABANKA|10.40.26.53|||101571767266|45
07.11.2018 14:00:00||FIBABANKA|10.40.26.53|||101571767266|187
07.11.2018 14:00:00||FIBABANKA|10.40.25.57|||101571767266|83
07.11.2018 14:00:00||FIBABANKA|10.40.25.76|||101571767266|10
07.11.2018 14:00:00||FIBABANKA|10.40.25.76|||101571767266|50
07.11.2018 14:00:00||FIBABANKA|10.40.26.53|||101571767266|193
07.11.2018 14:00:00||FIBABANKA|10.40.27.57|||101571767266|80
07.11.2018 14:00:00||FIBABANKA|10.40.26.60|||101571767266|10
07.11.2018 14:00:00||FIBABANKA|10.40.24.57|||101571767266|100
07.11.2018 14:00:00||FIBABANKA|10.40.24.57|||101571767266|70
07.11.2018 14:00:00||FIBABANKA|10.40.24.57|||101571767266|77
07.11.2018 14:00:00||FIBABANKA|10.40.25.53|||101571767266|30
07.11.2018 14:00:00||FIBABANKA|10.40.24.51|||101571767266|140
07.11.2018 14:00:00||FIBABANKA|10.40.24.51|||101571767266|30
07.11.2018 14:00:00||FIBABANKA|10.40.24.57|||101571767266|70
07.11.2018 14:00:00||FIBABANKA|10.40.25.59|||101571767266|70
07.11.2018 14:00:00||FIBABANKA|10.40.25.59|||101571767266|97
07.11.2018 14:00:00||FIBABANKA|10.40.25.59|||101571767266|140
07.11.2018 14:00:00||FIBABANKA|10.40.25.59|||101571767266|78
07.11.2018 14:00:00||FIBABANKA|10.40.25.59|||101571767266|53
07.11.2018 14:00:00||FIBABANKA|10.40.25.59|||101571767266|120
07.11.2018 14:00:00||FIBABANKA|10.40.25.59|||101571767266|60
07.11.2018 14:00:00||FIBABANKA|10.40.25.59|||101571767266|50
07.11.2018 14:00:00||FIBABANKA|10.40.25.59|||101571767266|148
07.11.2018 14:00:00||FIBABANKA|10.40.25.59|||101571767266|53
07.11.2018 14:00:00||FIBABANKA|10.40.24.59|||101571767266|70
07.11.2018 14:00:00||FIBABANKA|10.40.24.59|||101571767266|120
07.11.2018 14:00:00||FIBABANKA|10.40.24.59|||101571767266|80
07.11.2018 14:00:00||FIBABANKA|10.40.24.59|||101571767266|67
07.11.2018 14:00:00||FIBABANKA|10.40.24.59|||101571767266|50
07.11.2018 14:00:00||FIBABANKA|10.40.24.59|||101571767266|130
07.11.2018 14:00:00||FIBABANKA|10.40.24.59|||101571767266|70
07.11.2018 14:00:00||FIBABANKA|10.40.24.59|||101571767266|60
07.11.2018 14:00:00||FIBABANKA|10.40.24.59|||101571767266|142
07.11.2018 14:00:00||FIBABANKA|10.40.24.59|||101571767266|60
07.11.2018 14:00:00||FIBABANKA|10.40.25.60|||101571767266|100
07.11.2018 14:00:00||FIBABANKA|10.40.25.60|||101571767266|30
07.11.2018 14:00:00||FIBABANKA|10.40.25.60|||101571767266|110
07.11.2018 14:00:00||FIBABANKA|10.40.25.60|||101571767266|43
07.11.2018 14:00:00||FIBABANKA|10.40.24.60|||101571767266|110
07.11.2018 14:00:00||FIBABANKA|10.40.24.60|||101571767266|50
07.11.2018 14:00:00||FIBABANKA|10.40.24.60|||101571767266|40
07.11.2018 14:00:00||FIBABANKA|10.40.24.60|||101571767266|100
07.11.2018 14:00:00||FIBABANKA|10.40.24.60|||101571767266|50
07.11.2018 14:00:00||FIBABANKA|10.40.25.72|||101571767266|70
07.11.2018 14:00:00||FIBABANKA|10.40.25.72|||101571767266|40
07.11.2018 14:00:00||FIBABANKA|10.40.25.72|||101571767266|30
07.11.2018 14:00:00||FIBABANKA|10.40.24.72|||101571767266|140
07.11.2018 14:00:00||FIBABANKA|10.40.24.72|||101571767266|77
07.11.2018 14:00:00||FIBABANKA|10.40.24.72|||101571767266|30
07.11.2018 14:00:00||FIBABANKA|10.40.24.72|||101571767266|40
07.11.2018 14:00:00||FIBABANKA|10.40.25.74|||101571767266|33
07.11.2018 14:00:00||FIBABANKA|10.40.25.75|||101571767266|37
07.11.2018 14:00:00||FIBABANKA|10.40.25.75|||101571767266|88
07.11.2018 14:00:00||FIBABANKA|10.40.25.75|||101571767266|135
07.11.2018 14:00:00||FIBABANKA|10.40.25.75|||101571767266|178
07.11.2018 14:00:00||FIBABANKA|10.40.25.75|||101571767266|185
07.11.2018 14:00:00||FIBABANKA|10.40.25.75|||101571767266|212
07.11.2018 14:00:00||FIBABANKA|10.40.24.75|||101571767266|45
07.11.2018 14:00:00||FIBABANKA|10.40.24.75|||101571767266|50
07.11.2018 14:00:00||FIBABANKA|10.40.24.75|||101571767266|108
07.11.2018 14:00:00||FIBABANKA|10.40.24.75|||101571767266|162
07.11.2018 14:00:00||FIBABANKA|10.40.24.75|||101571767266|160
07.11.2018 14:00:00||FIBABANKA|10.40.24.76|||101571767266|50
07.11.2018 14:00:00||FIBABANKA|10.40.24.76|||101571767266|70
07.11.2018 14:00:00||FIBABANKA|10.40.24.76|||101571767266|20
07.11.2018 14:00:00||FIBABANKA|10.40.24.76|||101571767266|40
07.11.2018 14:00:00||FIBABANKA|10.40.24.76|||101571767266|10
07.11.2018 14:00:00||FIBABANKA|10.40.25.77|||101571767266|65
07.11.2018 14:00:00||FIBABANKA|10.40.25.77|||101571767266|45
07.11.2018 14:00:00||FIBABANKA|10.40.24.77|||101571767266|45
07.11.2018 14:00:00||FIBABANKA|10.40.24.77|||101571767266|33
07.11.2018 14:00:00||FIBABANKA|10.40.24.53|||101571767266|30
07.11.2018 14:00:00||FIBABANKA|10.40.24.53|||101571767266|60
07.11.2018 14:00:00||FIBABANKA|10.40.26.57|||101571767266|90
07.11.2018 14:00:00||FIBABANKA|10.40.26.57|||101571767266|88
07.11.2018 14:00:00||FIBABANKA|10.40.26.57|||101571767266|80
07.11.2018 14:00:00||FIBABANKA|10.40.26.57|||101571767266|70
07.11.2018 14:00:00||FIBABANKA|10.40.26.57|||101571767266|70
07.11.2018 14:00:00||FIBABANKA|10.40.27.72|||101571767266|40
07.11.2018 14:00:00||FIBABANKA|10.40.27.72|||101571767266|50
07.11.2018 14:00:00||FIBABANKA|10.40.27.72|||101571767266|40
07.11.2018 14:00:00||FIBABANKA|10.40.27.72|||101571767266|140
07.11.2018 14:00:00||FIBABANKA|10.40.27.72|||101571767266|60
07.11.2018 14:00:00||FIBABANKA|10.40.26.72|||101571767266|30
07.11.2018 14:00:00||FIBABANKA|10.40.26.72|||101571767266|140
07.11.2018 14:00:00||FIBABANKA|10.40.26.72|||101571767266|70
07.11.2018 14:00:00||FIBABANKA|10.40.26.72|||101571767266|30
07.11.2018 14:00:00||FIBABANKA|10.40.27.73|||101571767266|30
07.11.2018 14:00:00||FIBABANKA|10.40.27.73|||101571767266|100
07.11.2018 14:00:00||FIBABANKA|10.40.27.73|||101571767266|20
07.11.2018 14:00:00||FIBABANKA|10.40.27.73|||101571767266|40
07.11.2018 14:00:00||FIBABANKA|10.40.27.73|||101571767266|42
07.11.2018 14:00:00||FIBABANKA|10.40.27.73|||101571767266|357
07.11.2018 14:00:00||FIBABANKA|10.40.26.73|||101571767266|40
07.11.2018 14:00:00||FIBABANKA|10.40.26.73|||101571767266|70
07.11.2018 14:00:00||FIBABANKA|10.40.26.73|||101571767266|30
07.11.2018 14:00:00||FIBABANKA|10.40.26.73|||101571767266|8
07.11.2018 14:00:00||FIBABANKA|10.40.27.74|||101571767266|83
07.11.2018 14:00:00||FIBABANKA|10.40.27.74|||101571767266|170
07.11.2018 14:00:00||FIBABANKA|10.40.27.74|||101571767266|175
07.11.2018 14:00:00||FIBABANKA|10.40.26.74|||101571767266|77
07.11.2018 14:00:00||FIBABANKA|10.40.26.74|||101571767266|197
07.11.2018 14:00:00||FIBABANKA|10.40.26.74|||101571767266|195
07.11.2018 14:00:00||FIBABANKA|10.40.26.74|||101571767266|178
07.11.2018 14:00:00||FIBABANKA|10.40.27.75|||101571767266|10
07.11.2018 14:00:00||FIBABANKA|10.40.27.75|||101571767266|10
07.11.2018 14:00:00||FIBABANKA|10.40.27.75|||101571767266|60
07.11.2018 14:00:00||FIBABANKA|10.40.26.75|||101571767266|10
07.11.2018 14:00:00||FIBABANKA|10.40.27.76|||101571767266|90
07.11.2018 14:00:00||FIBABANKA|10.40.26.76|||101571767266|100
07.11.2018 14:00:00||FIBABANKA|10.40.27.79|||101571767266|10
07.11.2018 14:00:00||FIBABANKA|10.40.27.79|||101571767266|10
07.11.2018 14:00:00||FIBABANKA|10.40.27.77|||101571767266|60
07.11.2018 14:00:00||FIBABANKA|10.40.27.77|||101571767266|33
07.11.2018 14:00:00||FIBABANKA|10.40.27.77|||101571767266|162
07.11.2018 14:00:00||FIBABANKA|10.40.26.77|||101571767266|45
07.11.2018 14:00:00||FIBABANKA|10.40.26.77|||101571767266|50
07.11.2018 14:00:00||FIBABANKA|10.40.26.77|||101571767266|198
07.11.2018 14:00:00||FIBABANKA|10.40.26.77|||101571767266|220
07.11.2018 14:00:00||FIBABANKA|10.40.26.77|||101571767266|73
07.11.2018 14:00:00||FIBABANKA|10.40.26.77|||101571767266|128
07.11.2018 14:00:00||FIBABANKA|10.40.26.77|||101571767266|203
07.11.2018 14:00:00||FIBABANKA|10.40.26.77|||101571767266|187
07.11.2018 14:00:00||FIBABANKA|10.40.27.77|||101571767266|55
07.11.2018 14:00:00||FIBABANKA|10.40.27.77|||101571767266|33
07.11.2018 14:00:00||FIBABANKA|10.40.27.77|||101571767266|153
07.11.2018 14:00:00||FIBABANKA|10.40.27.57|||101571767266|78
07.11.2018 14:00:00||FIBABANKA|10.40.26.60|||101571767266|222
07.11.2018 14:00:00||FIBABANKA|10.40.25.74|||101571767266|270
07.11.2018 14:00:00||FIBABANKA|10.40.24.75|||101571767266|187
07.11.2018 14:00:00||FIBABANKA|10.40.24.75|||101571767266|142
07.11.2018 14:00:00||FIBABANKA|10.40.24.53|||101571767266|102
07.11.2018 14:00:00||FIBABANKA|10.40.24.53|||101571767266|200
07.11.2018 14:00:00||FIBABANKA|10.40.25.52|||101571767266|10
07.11.2018 14:00:00||FIBABANKA|10.40.25.52|||101571767266|50
07.11.2018 14:00:00||FIBABANKA|10.40.25.52|||101571767266|77
07.11.2018 14:00:00||FIBABANKA|10.40.25.53|||101571767266|98
07.11.2018 14:00:00||FIBABANKA|10.40.25.53|||101571767266|180
07.11.2018 14:00:00||FIBABANKA|10.40.27.51|||101571767266|30
07.11.2018 14:00:00||FIBABANKA|10.40.27.51|||101571767266|20
07.11.2018 14:00:00||FIBABANKA|10.40.27.51|||101571767266|103
07.11.2018 14:00:00||FIBABANKA|10.40.27.51|||101571767266|140
07.11.2018 14:00:00||FIBABANKA|10.40.27.51|||101571767266|70
07.11.2018 14:00:00||FIBABANKA|10.40.27.51|||101571767266|40
07.11.2018 14:00:00||FIBABANKA|10.40.27.51|||101571767266|40
07.11.2018 14:00:00||FIBABANKA|10.40.26.51|||101571767266|10
07.11.2018 14:00:00||FIBABANKA|10.40.26.51|||101571767266|110
07.11.2018 14:00:00||FIBABANKA|10.40.26.51|||101571767266|130
07.11.2018 14:00:00||FIBABANKA|10.40.26.51|||101571767266|30
07.11.2018 14:00:00||FIBABANKA|10.40.26.51|||101571767266|30
07.11.2018 14:00:00||FIBABANKA|10.40.24.74|||101571767266|32
07.11.2018 14:00:00||FIBABANKA|10.40.25.76|||101571767266|68
07.11.2018 14:00:00||FIBABANKA|10.40.25.76|||101571767266|43
07.11.2018 14:00:00||FIBABANKA|10.40.25.76|||101571767266|10
07.11.2018 14:00:00||FIBABANKA|10.40.25.52|||101571767266|42
07.11.2018 14:00:00||FIBABANKA|10.40.25.52|||101571767266|30
07.11.2018 14:00:00||FIBABANKA|10.40.25.51|||101571767266|20
07.11.2018 14:00:00||FIBABANKA|10.40.24.52|||101571767266|30
07.11.2018 14:00:00||FIBABANKA|10.40.25.51|||101571767266|140
07.11.2018 14:00:00||FIBABANKA|10.40.24.51|||101571767266|30
07.11.2018 14:00:00||FIBABANKA|10.40.25.57|||101571767266|90
07.11.2018 14:00:00||FIBABANKA|10.40.25.57|||101571767266|90
07.11.2018 14:00:00||FIBABANKA|10.40.25.57|||101571767266|90
07.11.2018 14:00:00||FIBABANKA|10.40.25.57|||101571767266|77
07.11.2018 14:00:00||FIBABANKA|10.40.25.57|||101571767266|100
07.11.2018 14:00:00||FIBABANKA|10.40.25.57|||101571767266|80
07.11.2018 14:00:00||FIBABANKA|10.40.24.57|||101571767266|90
07.11.2018 14:00:00||FIBABANKA|10.40.24.57|||101571767266|80
07.11.2018 14:00:00||FIBABANKA|10.40.24.57|||101571767266|80
07.11.2018 14:00:00||FIBABANKA|10.40.24.57|||101571767266|70
07.11.2018 14:00:00||HAVAŞ|10.40.24.48|||110000479675|760
07.11.2018 14:00:00||HAVAŞ|10.40.25.48|||110000479675|760
07.11.2018 14:00:00||HAVAŞ|10.40.24.46|||110000479675|80
07.11.2018 14:00:00||HAVAŞ|10.40.24.47|||110000479675|30
07.11.2018 14:00:00||HAVAŞ|10.40.24.47|||110000479675|97
07.11.2018 14:00:00||HAVAŞ|10.40.24.47|||110000479675|90
07.11.2018 14:00:00||HAVAŞ|10.40.25.46|||110000479675|10
07.11.2018 14:00:00||HAVAŞ|10.40.25.46|||110000479675|60
07.11.2018 14:00:00||HAVAŞ|10.40.24.48|||110000479675|767
07.11.2018 14:00:00||HAVAŞ|10.40.24.46|||110000479675|60
07.11.2018 14:00:00||HAVAŞ|10.40.24.46|||110000479675|70
07.11.2018 14:00:00||HAVAŞ|10.40.24.47|||110000479675|10
07.11.2018 14:00:00||HAVAŞ|10.40.25.45|||110000479675|103
07.11.2018 14:00:00||HAVAŞ|10.40.24.45|||110000479675|53
07.11.2018 14:00:00||HAVAŞ|10.40.24.45|||110000479675|178
07.11.2018 14:00:00||HAVAŞ|10.40.24.45|||110000479675|98
07.11.2018 14:00:00||HAVAŞ|10.40.25.47|||110000479675|70
07.11.2018 14:00:00||HAVAŞ|10.40.25.47|||110000479675|90
07.11.2018 14:00:00||HAVAŞ|10.40.25.47|||110000479675|90
07.11.2018 14:00:00||HAVAŞ|10.40.25.47|||110000479675|92
07.11.2018 14:00:00||HAVAŞ|10.40.24.46|||110000479675|10
07.11.2018 14:00:00||HAVAŞ|10.40.24.48|||110000479675|758
07.11.2018 14:00:00||HAVAŞ|10.40.24.45|||110000479675|97
07.11.2018 14:00:00||HAVAŞ|10.40.25.47|||110000479675|70
07.11.2018 14:00:00||HAVAŞ|10.40.25.48|||110000479675|757
07.11.2018 14:00:00||HAVAŞ|10.40.25.48|||110000479675|787
07.11.2018 14:00:00||HAVAŞ|10.40.25.45|||110000479675|97
07.11.2018 14:00:00||HAVAŞ|10.40.25.45|||110000479675|90
07.11.2018 14:00:00||HAVAŞ|10.40.25.46|||110000479675|10
07.11.2018 14:00:00||HAVAŞ|10.40.25.46|||110000479675|10
07.11.2018 14:00:00||HAVAŞ|10.40.25.46|||110000479675|20
07.11.2018 14:00:00||HAVAŞ|10.40.25.46|||110000479675|20
07.11.2018 14:00:00||HAVAŞ|10.40.25.46|||110000479675|50
07.11.2018 14:00:00||HAVAŞ|10.40.25.46|||110000479675|100
07.11.2018 14:00:00||HAVAŞ|10.40.25.46|||110000479675|63
07.11.2018 14:00:00||HAVAŞ|10.40.25.46|||110000479675|80
07.11.2018 14:00:00||HAVAŞ|10.40.25.46|||110000479675|70
07.11.2018 14:00:00||HAVAŞ|10.40.24.46|||110000479675|20
07.11.2018 14:00:00||HAVAŞ|10.40.24.46|||110000479675|20
07.11.2018 14:00:00||HAVAŞ|10.40.24.46|||110000479675|5
07.11.2018 14:00:00||HAVAŞ|10.40.24.46|||110000479675|10
07.11.2018 14:00:00||HAVAŞ|10.40.24.46|||110000479675|10
07.11.2018 14:00:00||HAVAŞ|10.40.24.46|||110000479675|10
07.11.2018 14:00:00||HAVAŞ|10.40.24.46|||110000479675|60
07.11.2018 14:00:00||HAVAŞ|10.40.24.46|||110000479675|110
07.11.2018 14:00:00||HAVAŞ|10.40.24.47|||110000479675|30
07.11.2018 14:00:00||HAVAŞ|10.40.24.47|||110000479675|218
07.11.2018 14:00:00||HAVAŞ|10.40.24.47|||110000479675|62
07.11.2018 14:00:00||HAVAŞ|10.40.24.47|||110000479675|58
07.11.2018 14:00:00||HAVAŞ|10.40.24.47|||110000479675|157
07.11.2018 14:00:00||HAVAŞ|10.40.24.47|||110000479675|100
07.11.2018 14:00:00||HAVAŞ|10.40.24.47|||110000479675|100
07.11.2018 14:00:00||HAVAŞ|10.40.25.45|||110000479675|65
07.11.2018 14:00:00||HAVAŞ|10.40.25.47|||110000479675|228
07.11.2018 14:00:00||HAVAŞ|10.40.25.47|||110000479675|60
07.11.2018 14:00:00||HAVAŞ|10.40.25.47|||110000479675|88
07.11.2018 14:00:00||HAVAŞ|10.40.25.47|||110000479675|92
07.11.2018 14:00:00||HAVAŞ|10.40.25.47|||110000479675|95
07.11.2018 14:00:00||HAVAŞ|10.40.25.47|||110000479675|127
07.11.2018 14:00:00||HAVAŞ|10.40.25.47|||110000479675|178
07.11.2018 14:00:00||MARS CINEMA|10.40.24.203|||110000472614|83
07.11.2018 14:00:00||MARS CINEMA|10.40.24.203|||110000472614|167
07.11.2018 14:00:00||MARS CINEMA|10.40.24.203|||110000472614|103
07.11.2018 14:00:00||MARS CINEMA|10.40.24.204|||110000472614|40
07.11.2018 14:00:00||MARS CINEMA|10.40.24.203|||110000472614|83
07.11.2018 14:00:00||MARS CINEMA|10.40.25.203|||110000472614|167
07.11.2018 14:00:00||MARS CINEMA|10.40.25.203|||110000472614|85
07.11.2018 14:00:00||MARS CINEMA|10.40.25.203|||110000472614|180
07.11.2018 14:00:00||MARS CINEMA|10.40.25.203|||110000472614|100
07.11.2018 14:00:00||MARS CINEMA|10.40.25.203|||110000472614|83
07.11.2018 14:00:00||MARS CINEMA|10.40.25.203|||110000472614|112
07.11.2018 14:00:00||MARS CINEMA|10.40.25.203|||110000472614|90
07.11.2018 14:00:00||MARS CINEMA|10.40.25.203|||110000472614|153
07.11.2018 14:00:00||MARS CINEMA|10.40.25.203|||110000472614|90
07.11.2018 14:00:00||MARS CINEMA|10.40.25.203|||110000472614|110
07.11.2018 14:00:00||MARS CINEMA|10.40.25.203|||110000472614|97
07.11.2018 14:00:00||MARS CINEMA|10.40.25.203|||110000472614|60
07.11.2018 14:00:00||MARS CINEMA|10.40.25.203|||110000472614|185
07.11.2018 14:00:00||MARS CINEMA|10.40.25.204|||110000472614|110
07.11.2018 14:00:00||MARS CINEMA|10.40.25.204|||110000472614|72
07.11.2018 14:00:00||MARS CINEMA|10.40.25.204|||110000472614|87
07.11.2018 14:00:00||MARS CINEMA|10.40.25.204|||110000472614|93
07.11.2018 14:00:00||MARS CINEMA|10.40.25.204|||110000472614|20
07.11.2018 14:00:00||MARS CINEMA|10.40.25.204|||110000472614|20
07.11.2018 14:00:00||MARS CINEMA|10.40.25.204|||110000472614|30
07.11.2018 14:00:00||MARS CINEMA|10.40.25.204|||110000472614|40
07.11.2018 14:00:00||MARS CINEMA|10.40.25.204|||110000472614|90
07.11.2018 14:00:00||MARS CINEMA|10.40.25.204|||110000472614|122
07.11.2018 14:00:00||MARS CINEMA|10.40.25.204|||110000472614|72
07.11.2018 14:00:00||MARS CINEMA|10.40.25.204|||110000472614|85
07.11.2018 14:00:00||MARS CINEMA|10.40.25.204|||110000472614|112
07.11.2018 14:00:00||MARS CINEMA|10.40.25.204|||110000472614|100
07.11.2018 14:00:00||MARS CINEMA|10.40.24.203|||110000472614|82
07.11.2018 14:00:00||MARS CINEMA|10.40.24.203|||110000472614|100
07.11.2018 14:00:00||MARS CINEMA|10.40.24.203|||110000472614|142
07.11.2018 14:00:00||MARS CINEMA|10.40.24.203|||110000472614|72
07.11.2018 14:00:00||MARS CINEMA|10.40.24.203|||110000472614|140
07.11.2018 14:00:00||MARS CINEMA|10.40.24.203|||110000472614|162
07.11.2018 14:00:00||MARS CINEMA|10.40.24.203|||110000472614|100
07.11.2018 14:00:00||MARS CINEMA|10.40.24.203|||110000472614|187
07.11.2018 14:00:00||MARS CINEMA|10.40.24.204|||110000472614|110
07.11.2018 14:00:00||MARS CINEMA|10.40.24.204|||110000472614|93
07.11.2018 14:00:00||MARS CINEMA|10.40.24.204|||110000472614|92
07.11.2018 14:00:00||MARS CINEMA|10.40.24.204|||110000472614|20
07.11.2018 14:00:00||MARS CINEMA|10.40.24.204|||110000472614|10
07.11.2018 14:00:00||MARS CINEMA|10.40.24.204|||110000472614|90
07.11.2018 14:00:00||MARS CINEMA|10.40.24.204|||110000472614|122
07.11.2018 14:00:00||MARS CINEMA|10.40.24.204|||110000472614|93
07.11.2018 14:00:00||MARS CINEMA|10.40.24.204|||110000472614|110
07.11.2018 14:00:00||MARS CINEMA|10.40.24.204|||110000472614|80
07.11.2018 14:00:00||MARS CINEMA|10.40.25.206|||110000472614|122
07.11.2018 14:00:00||MARS CINEMA|10.40.25.206|||110000472614|40
07.11.2018 14:00:00||MARS CINEMA|10.40.25.206|||110000472614|40
07.11.2018 14:00:00||MARS CINEMA|10.40.25.206|||110000472614|40
07.11.2018 14:00:00||MARS CINEMA|10.40.25.206|||110000472614|20
07.11.2018 14:00:00||MARS CINEMA|10.40.25.206|||110000472614|20
07.11.2018 14:00:00||MARS CINEMA|10.40.25.206|||110000472614|30
07.11.2018 14:00:00||MARS CINEMA|10.40.25.206|||110000472614|60
07.11.2018 14:00:00||MARS CINEMA|10.40.25.206|||110000472614|40
07.11.2018 14:00:00||MARS CINEMA|10.40.25.206|||110000472614|90
07.11.2018 14:00:00||MARS CINEMA|10.40.25.206|||110000472614|83
07.11.2018 14:00:00||MARS CINEMA|10.40.24.206|||110000472614|152
07.11.2018 14:00:00||MARS CINEMA|10.40.24.206|||110000472614|40
07.11.2018 14:00:00||MARS CINEMA|10.40.24.206|||110000472614|40
07.11.2018 14:00:00||MARS CINEMA|10.40.24.206|||110000472614|52
07.11.2018 14:00:00||MARS CINEMA|10.40.24.206|||110000472614|30
07.11.2018 14:00:00||MARS CINEMA|10.40.24.206|||110000472614|30
07.11.2018 14:00:00||MARS CINEMA|10.40.24.206|||110000472614|195
07.11.2018 14:00:00||MARS CINEMA|10.40.24.206|||110000472614|160
07.11.2018 14:00:00||MARS CINEMA|10.40.24.206|||110000472614|20
07.11.2018 14:00:00||MARS CINEMA|10.40.24.206|||110000472614|80
07.11.2018 14:00:00||MARS CINEMA|10.40.24.206|||110000472614|78
07.11.2018 14:00:00||MARS CINEMA|10.40.24.204|||110000472614|68
07.11.2018 14:00:00||MARS CINEMA|10.40.24.203|||110000472614|105
07.11.2018 14:00:00||MARS CINEMA|10.40.24.204|||110000472614|20
07.11.2018 14:00:00||MARS CINEMA|10.40.24.204|||110000472614|95
07.11.2018 14:00:00||PEGASUS|10.40.27.85|||110000423831|117
07.11.2018 14:00:00||PEGASUS|10.40.26.84|||110000423831|221
07.11.2018 14:00:00||PEGASUS|10.40.26.85|||110000423831|122
07.11.2018 14:00:00||PEGASUS|10.40.27.66|||110000423831|113
07.11.2018 14:00:00||PEGASUS|10.40.26.66|||110000423831|94
07.11.2018 14:00:00||PEGASUS|10.40.27.84|||110000423831|216
07.11.2018 14:00:00||PEGASUS|10.40.27.67|||110000423831|340
07.11.2018 14:00:00||PEGASUS|10.40.27.67|||110000423831|40
07.11.2018 14:00:00||PEGASUS|10.40.26.62|||110000423831|10
07.11.2018 14:00:00||PEGASUS|10.40.26.62|||110000423831|190
07.11.2018 14:00:00||PEGASUS|10.40.26.63|||110000423831|70
07.11.2018 14:00:00||PEGASUS|10.40.26.63|||110000423831|32
07.11.2018 14:00:00||PEGASUS|10.40.26.63|||110000423831|60
07.11.2018 14:00:00||PEGASUS|10.40.26.63|||110000423831|25
07.11.2018 14:00:00||PEGASUS|10.40.26.63|||110000423831|232
07.11.2018 14:00:00||PEGASUS|10.40.26.63|||110000423831|140
07.11.2018 14:00:00||PEGASUS|10.40.26.63|||110000423831|132
07.11.2018 14:00:00||PEGASUS|10.40.26.63|||110000423831|78
07.11.2018 14:00:00||PEGASUS|10.40.26.67|||110000423831|170
07.11.2018 14:00:00||PEGASUS|10.40.27.68|||110000423831|90
07.11.2018 14:00:00||PEGASUS|10.40.27.68|||110000423831|83
07.11.2018 14:00:00||PEGASUS|10.40.27.68|||110000423831|92
07.11.2018 14:00:00||PEGASUS|10.40.27.68|||110000423831|50
07.11.2018 14:00:00||PEGASUS|10.40.26.68|||110000423831|90
07.11.2018 14:00:00||PEGASUS|10.40.26.68|||110000423831|90
07.11.2018 14:00:00||PEGASUS|10.40.26.68|||110000423831|50
07.11.2018 14:00:00||PEGASUS|10.40.27.67|||110000423831|360
07.11.2018 14:00:00||PEGASUS|10.40.27.63|||110000423831|80
07.11.2018 14:00:00||PEGASUS|10.40.26.63|||110000423831|110
07.11.2018 14:00:00||PEGASUS|10.40.26.63|||110000423831|90
07.11.2018 14:00:00||PEGASUS|10.40.26.63|||110000423831|43
07.11.2018 14:00:00||PEGASUS|10.40.26.67|||110000423831|30
07.11.2018 14:00:00||PEGASUS|10.40.26.67|||110000423831|340
07.11.2018 14:00:00||PEGASUS|10.40.26.67|||110000423831|63
07.11.2018 14:00:00||PEGASUS|10.40.26.67|||110000423831|40
07.11.2018 14:00:00||PEGASUS|10.40.26.67|||110000423831|70
07.11.2018 14:00:00||PEGASUS|10.40.26.68|||110000423831|100
07.11.2018 14:00:00||PEGASUS|10.40.27.64|||110000423831|307
07.11.2018 14:00:00||PEGASUS|10.40.27.64|||110000423831|277
07.11.2018 14:00:00||PEGASUS|10.40.27.64|||110000423831|300
07.11.2018 14:00:00||PEGASUS|10.40.27.64|||110000423831|280
07.11.2018 14:00:00||PEGASUS|10.40.27.64|||110000423831|290
07.11.2018 14:00:00||PEGASUS|10.40.27.63|||110000423831|90
07.11.2018 14:00:00||PEGASUS|10.40.26.63|||110000423831|130
07.11.2018 14:00:00||PEGASUS|10.40.26.63|||110000423831|58
07.11.2018 14:00:00||PEGASUS|10.40.26.63|||110000423831|92
07.11.2018 14:00:00||PEGASUS|10.40.26.67|||110000423831|340
07.11.2018 14:00:00||PEGASUS|10.40.27.63|||110000423831|50
07.11.2018 14:00:00||PEGASUS|10.40.27.63|||110000423831|60
07.11.2018 14:00:00||PEGASUS|10.40.26.62|||110000423831|92
07.11.2018 14:00:00||PEGASUS|10.40.26.63|||110000423831|63
07.11.2018 14:00:00||PEGASUS|10.40.26.63|||110000423831|153
07.11.2018 14:00:00||PEGASUS|10.40.26.63|||110000423831|40
07.11.2018 14:00:00||PEGASUS|10.40.26.63|||110000423831|63
07.11.2018 14:00:00||PEGASUS|10.40.26.67|||110000423831|340
07.11.2018 14:00:00||PEGASUS|10.40.27.64|||110000423831|285
07.11.2018 14:00:00||PEGASUS|10.40.27.64|||110000423831|273
07.11.2018 14:00:00||PEGASUS|10.40.27.64|||110000423831|267
07.11.2018 14:00:00||PEGASUS|10.40.27.64|||110000423831|330
07.11.2018 14:00:00||PEGASUS|10.40.27.64|||110000423831|353
07.11.2018 14:00:00||PEGASUS|10.40.27.63|||110000423831|68
07.11.2018 14:00:00||PEGASUS|10.40.27.63|||110000423831|80
07.11.2018 14:00:00||PEGASUS|10.40.27.63|||110000423831|72
07.11.2018 14:00:00||PEGASUS|10.40.27.63|||110000423831|155
07.11.2018 14:00:00||PEGASUS|10.40.27.63|||110000423831|225
07.11.2018 14:00:00||PEGASUS|10.40.27.63|||110000423831|53
07.11.2018 14:00:00||PEGASUS|10.40.27.81|||110000423831|485
07.11.2018 14:00:00||PEGASUS|10.40.27.81|||110000423831|453
07.11.2018 14:00:00||PEGASUS|10.40.27.81|||110000423831|463
07.11.2018 14:00:00||PEGASUS|10.40.27.86|||110000423831|340
07.11.2018 14:00:00||PEGASUS|10.40.27.86|||110000423831|40
07.11.2018 14:00:00||PEGASUS|10.40.27.63|||110000423831|63
07.11.2018 14:00:00||PEGASUS|10.40.27.86|||110000423831|340
07.11.2018 14:00:00||PEGASUS|10.40.27.63|||110000423831|50
07.11.2018 14:00:00||PEGASUS|10.40.27.63|||110000423831|60
07.11.2018 14:00:00||PEGASUS|10.40.27.64|||110000423831|80
07.11.2018 14:00:00||PEGASUS|10.40.27.64|||110000423831|70
07.11.2018 14:00:00||PEGASUS|10.40.27.63|||110000423831|60
07.11.2018 14:00:00||PEGASUS|10.40.27.63|||110000423831|87
07.11.2018 14:00:00||PEGASUS|10.40.27.63|||110000423831|90
07.11.2018 14:00:00||PEGASUS|10.40.26.63|||110000423831|115
07.11.2018 14:00:00||PEGASUS|10.40.27.64|||110000423831|302
07.11.2018 14:00:00||PEGASUS|10.40.27.64|||110000423831|270
07.11.2018 14:00:00||PEGASUS|10.40.27.63|||110000423831|85
07.11.2018 14:00:00||PEGASUS|10.40.27.63|||110000423831|67
07.11.2018 14:00:00||PEGASUS|10.40.26.64|||110000423831|80
07.11.2018 14:00:00||PEGASUS|10.40.26.64|||110000423831|80
07.11.2018 14:00:00||PEGASUS|10.40.26.82|||110000423831|210
07.11.2018 14:00:00||PEGASUS|10.40.26.82|||110000423831|103
07.11.2018 14:00:00||PEGASUS|10.40.26.82|||110000423831|117
07.11.2018 14:00:00||PEGASUS|10.40.26.82|||110000423831|155
07.11.2018 14:00:00||PEGASUS|10.40.26.82|||110000423831|145
07.11.2018 14:00:00||PEGASUS|10.40.26.82|||110000423831|157
07.11.2018 14:00:00||PEGASUS|10.40.26.82|||110000423831|200
07.11.2018 14:00:00||PEGASUS|10.40.26.82|||110000423831|38
07.11.2018 14:00:00||PEGASUS|10.40.26.82|||110000423831|48
07.11.2018 14:00:00||PEGASUS|10.40.26.82|||110000423831|20
07.11.2018 14:00:00||PEGASUS|10.40.26.82|||110000423831|68
07.11.2018 14:00:00||PEGASUS|10.40.26.82|||110000423831|50
07.11.2018 14:00:00||PEGASUS|10.40.26.82|||110000423831|42
07.11.2018 14:00:00||PEGASUS|10.40.27.83|||110000423831|590
07.11.2018 14:00:00||PEGASUS|10.40.27.83|||110000423831|70
07.11.2018 14:00:00||PEGASUS|10.40.27.83|||110000423831|570
07.11.2018 14:00:00||PEGASUS|10.40.27.83|||110000423831|570
07.11.2018 14:00:00||PEGASUS|10.40.27.83|||110000423831|90
07.11.2018 14:00:00||PEGASUS|10.40.26.83|||110000423831|528
07.11.2018 14:00:00||PEGASUS|10.40.26.83|||110000423831|50
07.11.2018 14:00:00||PEGASUS|10.40.26.83|||110000423831|403
07.11.2018 14:00:00||PEGASUS|10.40.26.83|||110000423831|527
07.11.2018 14:00:00||PEGASUS|10.40.26.83|||110000423831|530
07.11.2018 14:00:00||PEGASUS|10.40.26.86|||110000423831|360
07.11.2018 14:00:00||PEGASUS|10.40.26.86|||110000423831|140
07.11.2018 14:00:00||PEGASUS|10.40.26.86|||110000423831|350
07.11.2018 14:00:00||PEGASUS|10.40.26.86|||110000423831|50
07.11.2018 14:00:00||PEGASUS|10.40.26.86|||110000423831|30
07.11.2018 14:00:00||PEGASUS|10.40.26.86|||110000423831|350
07.11.2018 14:00:00||PEGASUS|10.40.26.86|||110000423831|40
07.11.2018 14:00:00||PEGASUS|10.40.27.87|||110000423831|90
07.11.2018 14:00:00||PEGASUS|10.40.27.87|||110000423831|90
07.11.2018 14:00:00||PEGASUS|10.40.27.87|||110000423831|90
07.11.2018 14:00:00||PEGASUS|10.40.27.87|||110000423831|20
07.11.2018 14:00:00||PEGASUS|10.40.26.87|||110000423831|90
07.11.2018 14:00:00||PEGASUS|10.40.26.87|||110000423831|90
07.11.2018 14:00:00||PEGASUS|10.40.26.87|||110000423831|90
07.11.2018 14:00:00||PEGASUS|10.40.26.87|||110000423831|60
07.11.2018 14:00:00||PEGASUS|10.40.26.87|||110000423831|20
07.11.2018 14:00:00||PEGASUS|10.40.26.81|||110000423831|437
07.11.2018 14:00:00||PEGASUS|10.40.26.81|||110000423831|452
07.11.2018 14:00:00||PEGASUS|10.40.26.81|||110000423831|455
07.11.2018 14:00:00||PEGASUS|10.40.27.82|||110000423831|220
07.11.2018 14:00:00||PEGASUS|10.40.27.82|||110000423831|30
07.11.2018 14:00:00||PEGASUS|10.40.27.82|||110000423831|100
07.11.2018 14:00:00||PEGASUS|10.40.27.82|||110000423831|80
07.11.2018 14:00:00||PEGASUS|10.40.27.82|||110000423831|170
07.11.2018 14:00:00||PEGASUS|10.40.27.82|||110000423831|120
07.11.2018 14:00:00||PEGASUS|10.40.27.82|||110000423831|173
07.11.2018 14:00:00||PEGASUS|10.40.27.82|||110000423831|135
07.11.2018 14:00:00||PEGASUS|10.40.27.82|||110000423831|62
07.11.2018 14:00:00||PEGASUS|10.40.27.82|||110000423831|85
07.11.2018 14:00:00||PEGASUS|10.40.27.82|||110000423831|50
07.11.2018 14:00:00||PEGASUS|10.40.27.82|||110000423831|38
07.11.2018 14:00:00||PEGASUS|10.40.27.82|||110000423831|40
07.11.2018 14:00:00||PEGASUS|10.40.27.67|||110000423831|50
07.11.2018 14:00:00||PEGASUS|10.40.27.67|||110000423831|70
07.11.2018 14:00:00||PEGASUS|10.40.27.67|||110000423831|130
07.11.2018 14:00:00||PEGASUS|10.40.27.67|||110000423831|10
07.11.2018 14:00:00||PEGASUS|10.40.27.67|||110000423831|340
07.11.2018 14:00:00||PEGASUS|10.40.27.82|||110000423831|68
07.11.2018 14:00:00||PEGASUS|10.40.27.86|||110000423831|165
07.11.2018 14:00:00||PEGASUS|10.40.27.86|||110000423831|70
07.11.2018 14:00:00||PEGASUS|10.40.27.86|||110000423831|20
07.11.2018 14:00:00||PEGASUS|10.40.27.86|||110000423831|340
07.11.2018 14:00:00||PWC|10.40.24.66|||110000433262|90
07.11.2018 14:00:00||PWC|10.40.24.66|||110000433262|10
07.11.2018 14:00:00||PWC|10.40.24.66|||110000433262|30
07.11.2018 14:00:00||PWC|10.40.24.66|||110000433262|210
07.11.2018 14:00:00||PWC|10.40.24.66|||110000433262|210
07.11.2018 14:00:00||PWC|10.40.24.68|||110000433262|155
07.11.2018 14:00:00||PWC|10.40.24.66|||110000433262|57
07.11.2018 14:00:00||PWC|10.40.24.66|||110000433262|450
07.11.2018 14:00:00||PWC|10.40.24.66|||110000433262|40
07.11.2018 14:00:00||PWC|10.40.25.67|||110000433262|80
07.11.2018 14:00:00||PWC|10.40.25.67|||110000433262|90
07.11.2018 14:00:00||PWC|10.40.25.67|||110000433262|343
07.11.2018 14:00:00||PWC|10.40.25.67|||110000433262|247
07.11.2018 14:00:00||PWC|10.40.25.67|||110000433262|248
07.11.2018 14:00:00||PWC|10.40.25.67|||110000433262|252
07.11.2018 14:00:00||PWC|10.40.25.67|||110000433262|50
07.11.2018 14:00:00||PWC|10.40.25.67|||110000433262|40
07.11.2018 14:00:00||PWC|10.40.25.67|||110000433262|127
07.11.2018 14:00:00||PWC|10.40.24.67|||110000433262|17
07.11.2018 14:00:00||PWC|10.40.24.67|||110000433262|10
07.11.2018 14:00:00||PWC|10.40.24.67|||110000433262|387
07.11.2018 14:00:00||PWC|10.40.24.67|||110000433262|30
07.11.2018 14:00:00||PWC|10.40.24.67|||110000433262|53
07.11.2018 14:00:00||PWC|10.40.24.67|||110000433262|120
07.11.2018 14:00:00||PWC|10.40.25.68|||110000433262|135
07.11.2018 14:00:00||PWC|10.40.25.68|||110000433262|185
07.11.2018 14:00:00||PWC|10.40.25.68|||110000433262|68
07.11.2018 14:00:00||PWC|10.40.25.68|||110000433262|77
07.11.2018 14:00:00||PWC|10.40.25.68|||110000433262|150
07.11.2018 14:00:00||PWC|10.40.24.66|||110000433262|60
07.11.2018 14:00:00||PWC|10.40.24.66|||110000433262|30
07.11.2018 14:00:00||PWC|10.40.24.66|||110000433262|30
07.11.2018 14:00:00||PWC|10.40.24.68|||110000433262|93
07.11.2018 14:00:00||PWC|10.40.24.68|||110000433262|162
07.11.2018 14:00:00||PWC|10.40.24.68|||110000433262|398
07.11.2018 14:00:00||PWC|10.40.24.68|||110000433262|72
07.11.2018 14:00:00||PWC|10.40.24.68|||110000433262|65
07.11.2018 14:00:00||VSMART BİLGİ TEKNOLOJİLERİ|10.40.24.62|||110000474326|40
07.11.2018 14:00:00||VSMART BİLGİ TEKNOLOJİLERİ|10.40.24.62|||110000474326|65
07.11.2018 14:00:00||VSMART BİLGİ TEKNOLOJİLERİ|10.40.24.62|||110000474326|40
07.11.2018 14:00:00||VSMART BİLGİ TEKNOLOJİLERİ|10.40.24.62|||110000474326|10
07.11.2018 14:00:00||VSMART BİLGİ TEKNOLOJİLERİ|10.40.25.62|||110000474326|70
07.11.2018 14:00:00||VSMART BİLGİ TEKNOLOJİLERİ|10.40.24.62|||110000474326|45
07.11.2018 14:00:00||VSMART BİLGİ TEKNOLOJİLERİ|10.40.24.62|||110000474326|10
07.11.2018 14:00:00||VSMART BİLGİ TEKNOLOJİLERİ|10.40.25.62|||110000474326|10
07.11.2018 14:00:00||VSMART BİLGİ TEKNOLOJİLERİ|10.40.25.62|||110000474326|10
07.11.2018 14:00:00||VSMART BİLGİ TEKNOLOJİLERİ|10.40.25.62|||110000474326|80
07.11.2018 14:00:00||VSMART BİLGİ TEKNOLOJİLERİ|10.40.25.62|||110000474326|90
07.11.2018 14:00:00||VSMART BİLGİ TEKNOLOJİLERİ|10.40.25.62|||110000474326|108
