9/15/2018 2:00:00 AM||HAVAS|10.40.25.45|||110000479675|327
9/15/2018 2:00:00 AM||HAVAS|10.40.24.45|||110000479675|384
9/15/2018 2:00:00 AM||HAVAS|10.40.25.46|||110000479675|511
9/15/2018 2:00:00 AM||PWC|10.40.24.67|||110000433262|573
9/15/2018 2:00:00 AM||PWC|10.40.25.68|||110000433262|702
9/15/2018 2:00:00 AM||PWC|10.40.25.69|||110000433262|277
9/15/2018 2:00:00 AM||PWC|10.40.24.69|||110000433262|280
9/15/2018 2:00:00 AM||CALIK HOLDING|10.40.25.94|||110000438408|674
9/15/2018 2:00:00 AM||CALIK HOLDING|10.40.24.94|||110000438408|712
9/15/2018 2:00:00 AM||CALIK HOLDING|10.40.25.97|||110000438408|598
9/15/2018 2:00:00 AM||CALIK HOLDING|10.40.25.100|||110000438408|74
9/15/2018 2:00:00 AM||CALIK HOLDING|10.40.24.100|||110000438408|72
9/15/2018 2:00:00 AM||CALIK HOLDING|10.40.25.101|||110000438408|594
9/15/2018 2:00:00 AM||CALIK HOLDING|10.40.24.101|||110000438408|720
9/15/2018 2:00:00 AM||CALIK HOLDING|10.40.25.102|||110000438408|322
9/15/2018 2:00:00 AM||CALIK HOLDING|10.40.24.102|||110000438408|303
9/15/2018 2:00:00 AM||CALIK HOLDING|10.40.25.103|||110000438408|256
9/15/2018 2:00:00 AM||CALIK HOLDING|10.40.24.103|||110000438408|302
9/15/2018 2:00:00 AM||CALIK HOLDING|10.40.25.104|||110000438408|1118
9/15/2018 2:00:00 AM||CALIK HOLDING|10.40.24.113|||110000438408|745
9/15/2018 2:00:00 AM||CALIK HOLDING|10.40.25.115|||110000438408|518
9/15/2018 2:00:00 AM||CALIK HOLDING|10.40.24.115|||110000438408|527
9/15/2018 2:00:00 AM||CALIK HOLDING|10.40.25.116|||110000438408|460
9/15/2018 2:00:00 AM||CALIK HOLDING|10.40.24.116|||110000438408|448
9/15/2018 2:00:00 AM||CALIK HOLDING|10.40.25.117|||110000438408|280
9/15/2018 2:00:00 AM||CALIK HOLDING|10.40.24.117|||110000438408|251
9/15/2018 2:00:00 AM||CALIK HOLDING|10.40.25.119|||110000438408|68
9/15/2018 2:00:00 AM||CALIK HOLDING|10.40.24.119|||110000438408|214
9/15/2018 2:00:00 AM||CALIK HOLDING|10.40.25.120|||110000438408|553
9/15/2018 2:00:00 AM||CALIK HOLDING|10.40.24.120|||110000438408|558
9/15/2018 2:00:00 AM||CALIK HOLDING|10.40.25.121|||110000438408|308
9/15/2018 2:00:00 AM||CALIK HOLDING|10.40.24.121|||110000438408|324
9/15/2018 2:00:00 AM||CALIK HOLDING|10.40.25.122|||110000438408|256
9/15/2018 2:00:00 AM||CALIK HOLDING|10.40.24.122|||110000438408|291
9/15/2018 2:00:00 AM||AKTIFBANK|10.40.25.128|||110000438458|255
9/15/2018 2:00:00 AM||AKTIFBANK|10.40.24.128|||110000438458|478
9/15/2018 2:00:00 AM||AKTIFBANK|10.40.25.129|||110000438458|679
9/15/2018 2:00:00 AM||AKTIFBANK|10.40.25.130|||110000438458|725
9/15/2018 2:00:00 AM||AKTIFBANK|10.40.24.130|||110000438458|665
9/15/2018 2:00:00 AM||AKTIFBANK|10.40.25.131|||110000438458|603
9/15/2018 2:00:00 AM||AKTIFBANK|10.40.24.131|||110000438458|638
9/15/2018 2:00:00 AM||AKTIFBANK|10.40.25.132|||110000438458|405
9/15/2018 2:00:00 AM||AKTIFBANK|10.40.24.132|||110000438458|399
9/15/2018 2:00:00 AM||AKTIFBANK|10.40.25.133|||110000438458|374
9/15/2018 2:00:00 AM||AKTIFBANK|10.40.24.133|||110000438458|665
9/15/2018 2:00:00 AM||AKTIFBANK|10.40.25.138|||110000438458|242
9/15/2018 2:00:00 AM||AKTIFBANK|10.40.24.138|||110000438458|550
9/15/2018 2:00:00 AM||AKTIFBANK|10.40.25.139|||110000438458|152
9/15/2018 2:00:00 AM||AKTIFBANK|10.40.24.139|||110000438458|231
9/15/2018 2:00:00 AM||AKTIFBANK|10.40.25.140|||110000438458|255
9/15/2018 2:00:00 AM||AKTIFBANK|10.40.24.140|||110000438458|348
9/15/2018 2:00:00 AM||AKTIFBANK|10.40.25.141|||110000438458|482
9/15/2018 2:00:00 AM||AKTIFBANK|10.40.24.141|||110000438458|637
9/15/2018 2:00:00 AM||AKTIFBANK|10.40.25.142|||110000438458|37
9/15/2018 2:00:00 AM||AKTIFBANK|10.40.25.143|||110000438458|826
9/15/2018 2:00:00 AM||AKTIFBANK|10.40.25.144|||110000438458|174
9/15/2018 2:00:00 AM||AKTIFBANK|10.40.24.144|||110000438458|269
9/15/2018 2:00:00 AM||AKTIFBANK|10.40.25.145|||110000438458|283
9/15/2018 2:00:00 AM||AKTIFBANK|10.40.24.145|||110000438458|394
9/15/2018 2:00:00 AM||AKTIFBANK|10.40.25.147|||110000438458|85
9/15/2018 2:00:00 AM||AKTIFBANK|10.40.24.147|||110000438458|90
9/15/2018 2:00:00 AM||AKTIFBANK|10.40.25.148|||110000438458|958
9/15/2018 2:00:00 AM||AKTIFBANK|10.40.25.152|||110000438458|721
9/15/2018 2:00:00 AM||AKTIFBANK|10.40.25.153|||110000438458|206
9/15/2018 2:00:00 AM||AKTIFBANK|10.40.24.153|||110000438458|246
9/15/2018 2:00:00 AM||AKTIFBANK|10.40.25.154|||110000438458|41
9/15/2018 2:00:00 AM||AKTIFBANK|10.40.24.154|||110000438458|131
9/15/2018 2:00:00 AM||AKTIFBANK|10.40.25.155|||110000438458|465
9/15/2018 2:00:00 AM||AKTIFBANK|10.40.24.155|||110000438458|518
9/15/2018 2:00:00 AM||AKTIFBANK|10.40.25.157|||110000438458|327
9/15/2018 2:00:00 AM||AKTIFBANK|10.40.24.157|||110000438458|341
9/15/2018 2:00:00 AM||AKTIFBANK|10.40.25.158|||110000438458|153
9/15/2018 2:00:00 AM||AKTIFBANK|10.40.24.158|||110000438458|636
9/15/2018 2:00:00 AM||AKTIFBANK|10.40.25.159|||110000438458|157
9/15/2018 2:00:00 AM||AKTIFBANK|10.40.24.159|||110000438458|358
9/15/2018 2:00:00 AM||AKTIFBANK|10.40.25.160|||110000438458|189
9/15/2018 2:00:00 AM||AKTIFBANK|10.40.24.160|||110000438458|242
9/15/2018 2:00:00 AM||AKTIFBANK|10.40.25.161|||110000438458|241
9/15/2018 2:00:00 AM||AKTIFBANK|10.40.24.161|||110000438458|391
9/15/2018 2:00:00 AM||AKTIFBANK|10.40.25.162|||110000438458|197
9/15/2018 2:00:00 AM||AKTIFBANK|10.40.24.162|||110000438458|533
9/15/2018 2:00:00 AM||AKTIFBANK|10.40.25.163|||110000438458|44
9/15/2018 2:00:00 AM||AKTIFBANK|10.40.25.164|||110000438458|854
9/15/2018 2:00:00 AM||AKTIFBANK|10.40.24.164|||110000438458|841
9/15/2018 2:00:00 AM||AKTIFBANK|10.40.25.165|||110000438458|313
9/15/2018 2:00:00 AM||AKTIFBANK|10.40.24.165|||110000438458|354
9/15/2018 2:00:00 AM||AKTIFBANK|10.40.25.166|||110000438458|125
9/15/2018 2:00:00 AM||AKTIFBANK|10.40.24.166|||110000438458|223
9/15/2018 2:00:00 AM||AKTIFBANK|10.40.25.168|||110000438458|308
9/15/2018 2:00:00 AM||AKTIFBANK|10.40.24.168|||110000438458|382
9/15/2018 2:00:00 AM||AKTIFBANK|10.40.24.169|||110000438458|329
9/15/2018 2:00:00 AM||AKTIFBANK|10.40.25.170|||110000438458|564
9/15/2018 2:00:00 AM||AKTIFBANK|10.40.24.170|||110000438458|784
9/15/2018 2:00:00 AM||AKTIFBANK|10.40.25.179|||110000438458|917
9/15/2018 2:00:00 AM||AKTIFBANK|10.40.24.179|||110000438458|1024
9/15/2018 2:00:00 AM||AKTIFBANK|10.40.25.186|||110000438458|181
9/15/2018 2:00:00 AM||AKTIFBANK|10.40.24.186|||110000438458|217
9/15/2018 2:00:00 AM||MARS CINEMA|10.40.25.206|||110000472614|293
9/15/2018 2:00:00 AM||PEGASUS|10.40.26.62|||110000423831|300
9/15/2018 2:00:00 AM||PEGASUS|10.40.26.64|||110000423831|157
9/15/2018 2:00:00 AM||PEGASUS|10.40.27.67|||110000423831|1240
9/15/2018 2:00:00 AM||PEGASUS|10.40.27.68|||110000423831|320
9/15/2018 2:00:00 AM||PEGASUS|10.40.27.87|||110000423831|282
9/15/2018 2:00:00 AM||PEGASUS|10.40.26.87|||110000423831|293
9/15/2018 2:00:00 AM||BOYNER|10.40.26.95|||101367941673|413
