01.10.2018 13:00:00||AKTİFBANK|10.40.24.128|||110000438458|146
01.10.2018 13:00:00||AKTİFBANK|10.40.24.128|||110000438458|68
01.10.2018 13:00:00||AKTİFBANK|10.40.24.128|||110000438458|97
01.10.2018 13:00:00||AKTİFBANK|10.40.24.128|||110000438458|39
01.10.2018 13:00:00||AKTİFBANK|10.40.24.128|||110000438458|68
01.10.2018 13:00:00||AKTİFBANK|10.40.24.128|||110000438458|39
01.10.2018 13:00:00||AKTİFBANK|10.40.24.129|||110000438458|97
01.10.2018 13:00:00||AKTİFBANK|10.40.24.129|||110000438458|68
01.10.2018 13:00:00||AKTİFBANK|10.40.24.129|||110000438458|97
01.10.2018 13:00:00||AKTİFBANK|10.40.24.129|||110000438458|107
01.10.2018 13:00:00||AKTİFBANK|10.40.24.129|||110000438458|49
01.10.2018 13:00:00||AKTİFBANK|10.40.24.129|||110000438458|68
01.10.2018 13:00:00||AKTİFBANK|10.40.24.129|||110000438458|68
01.10.2018 13:00:00||AKTİFBANK|10.40.24.129|||110000438458|88
01.10.2018 13:00:00||AKTİFBANK|10.40.24.129|||110000438458|78
01.10.2018 13:00:00||AKTİFBANK|10.40.24.129|||110000438458|136
01.10.2018 13:00:00||AKTİFBANK|10.40.24.130|||110000438458|49
01.10.2018 13:00:00||AKTİFBANK|10.40.24.130|||110000438458|39
01.10.2018 13:00:00||AKTİFBANK|10.40.24.130|||110000438458|78
01.10.2018 13:00:00||AKTİFBANK|10.40.24.130|||110000438458|39
01.10.2018 13:00:00||AKTİFBANK|10.40.24.130|||110000438458|59
01.10.2018 13:00:00||AKTİFBANK|10.40.24.130|||110000438458|78
01.10.2018 13:00:00||AKTİFBANK|10.40.24.130|||110000438458|88
01.10.2018 13:00:00||AKTİFBANK|10.40.24.130|||110000438458|39
01.10.2018 13:00:00||AKTİFBANK|10.40.24.130|||110000438458|126
01.10.2018 13:00:00||AKTİFBANK|10.40.24.130|||110000438458|107
01.10.2018 13:00:00||AKTİFBANK|10.40.24.131|||110000438458|10
01.10.2018 13:00:00||AKTİFBANK|10.40.24.131|||110000438458|97
01.10.2018 13:00:00||AKTİFBANK|10.40.24.131|||110000438458|86
01.10.2018 13:00:00||AKTİFBANK|10.40.24.131|||110000438458|105
01.10.2018 13:00:00||AKTİFBANK|10.40.24.131|||110000438458|114
01.10.2018 13:00:00||AKTİFBANK|10.40.24.131|||110000438458|30
01.10.2018 13:00:00||AKTİFBANK|10.40.24.131|||110000438458|151
01.10.2018 13:00:00||AKTİFBANK|10.40.24.131|||110000438458|58
01.10.2018 13:00:00||AKTİFBANK|10.40.24.131|||110000438458|105
01.10.2018 13:00:00||AKTİFBANK|10.40.24.132|||110000438458|39
01.10.2018 13:00:00||AKTİFBANK|10.40.24.132|||110000438458|76
01.10.2018 13:00:00||AKTİFBANK|10.40.24.132|||110000438458|48
01.10.2018 13:00:00||AKTİFBANK|10.40.24.132|||110000438458|170
01.10.2018 13:00:00||AKTİFBANK|10.40.24.132|||110000438458|67
01.10.2018 13:00:00||AKTİFBANK|10.40.24.133|||110000438458|133
01.10.2018 13:00:00||AKTİFBANK|10.40.24.133|||110000438458|86
01.10.2018 13:00:00||AKTİFBANK|10.40.24.133|||110000438458|114
01.10.2018 13:00:00||AKTİFBANK|10.40.24.133|||110000438458|86
01.10.2018 13:00:00||AKTİFBANK|10.40.24.134|||110000438458|60
01.10.2018 13:00:00||AKTİFBANK|10.40.24.134|||110000438458|31
01.10.2018 13:00:00||AKTİFBANK|10.40.24.135|||110000438458|64
01.10.2018 13:00:00||AKTİFBANK|10.40.24.135|||110000438458|31
01.10.2018 13:00:00||AKTİFBANK|10.40.24.137|||110000438458|3
01.10.2018 13:00:00||AKTİFBANK|10.40.24.137|||110000438458|52
01.10.2018 13:00:00||AKTİFBANK|10.40.24.138|||110000438458|105
01.10.2018 13:00:00||AKTİFBANK|10.40.24.138|||110000438458|114
01.10.2018 13:00:00||AKTİFBANK|10.40.24.138|||110000438458|133
01.10.2018 13:00:00||AKTİFBANK|10.40.24.138|||110000438458|105
01.10.2018 13:00:00||AKTİFBANK|10.40.24.138|||110000438458|30
01.10.2018 13:00:00||AKTİFBANK|10.40.24.138|||110000438458|48
01.10.2018 13:00:00||AKTİFBANK|10.40.24.139|||110000438458|39
01.10.2018 13:00:00||AKTİFBANK|10.40.24.139|||110000438458|30
01.10.2018 13:00:00||AKTİFBANK|10.40.24.139|||110000438458|48
01.10.2018 13:00:00||AKTİFBANK|10.40.24.139|||110000438458|86
01.10.2018 13:00:00||AKTİFBANK|10.40.24.139|||110000438458|58
01.10.2018 13:00:00||AKTİFBANK|10.40.24.139|||110000438458|114
01.10.2018 13:00:00||AKTİFBANK|10.40.24.140|||110000438458|20
01.10.2018 13:00:00||AKTİFBANK|10.40.24.140|||110000438458|76
01.10.2018 13:00:00||AKTİFBANK|10.40.24.140|||110000438458|39
01.10.2018 13:00:00||AKTİFBANK|10.40.24.140|||110000438458|30
01.10.2018 13:00:00||AKTİFBANK|10.40.24.140|||110000438458|30
01.10.2018 13:00:00||AKTİFBANK|10.40.24.140|||110000438458|48
01.10.2018 13:00:00||AKTİFBANK|10.40.24.140|||110000438458|39
01.10.2018 13:00:00||AKTİFBANK|10.40.24.140|||110000438458|20
01.10.2018 13:00:00||AKTİFBANK|10.40.24.140|||110000438458|30
01.10.2018 13:00:00||AKTİFBANK|10.40.24.141|||110000438458|189
01.10.2018 13:00:00||AKTİFBANK|10.40.24.141|||110000438458|48
01.10.2018 13:00:00||AKTİFBANK|10.40.24.141|||110000438458|95
01.10.2018 13:00:00||AKTİFBANK|10.40.24.141|||110000438458|95
01.10.2018 13:00:00||AKTİFBANK|10.40.24.141|||110000438458|67
01.10.2018 13:00:00||AKTİFBANK|10.40.24.141|||110000438458|76
01.10.2018 13:00:00||AKTİFBANK|10.40.24.141|||110000438458|67
01.10.2018 13:00:00||AKTİFBANK|10.40.24.142|||110000438458|67
01.10.2018 13:00:00||AKTİFBANK|10.40.24.142|||110000438458|39
01.10.2018 13:00:00||AKTİFBANK|10.40.24.143|||110000438458|67
01.10.2018 13:00:00||AKTİFBANK|10.40.24.143|||110000438458|255
01.10.2018 13:00:00||AKTİFBANK|10.40.24.143|||110000438458|302
01.10.2018 13:00:00||AKTİFBANK|10.40.24.143|||110000438458|189
01.10.2018 13:00:00||AKTİFBANK|10.40.24.144|||110000438458|76
01.10.2018 13:00:00||AKTİFBANK|10.40.24.144|||110000438458|95
01.10.2018 13:00:00||AKTİFBANK|10.40.24.144|||110000438458|86
01.10.2018 13:00:00||AKTİFBANK|10.40.24.145|||110000438458|86
01.10.2018 13:00:00||AKTİFBANK|10.40.24.145|||110000438458|20
01.10.2018 13:00:00||AKTİFBANK|10.40.24.145|||110000438458|67
01.10.2018 13:00:00||AKTİFBANK|10.40.24.145|||110000438458|86
01.10.2018 13:00:00||AKTİFBANK|10.40.24.145|||110000438458|58
01.10.2018 13:00:00||AKTİFBANK|10.40.24.145|||110000438458|67
01.10.2018 13:00:00||AKTİFBANK|10.40.24.147|||110000438458|86
01.10.2018 13:00:00||AKTİFBANK|10.40.24.148|||110000438458|67
01.10.2018 13:00:00||AKTİFBANK|10.40.24.148|||110000438458|161
01.10.2018 13:00:00||AKTİFBANK|10.40.24.148|||110000438458|76
01.10.2018 13:00:00||AKTİFBANK|10.40.24.148|||110000438458|105
01.10.2018 13:00:00||AKTİFBANK|10.40.24.148|||110000438458|95
01.10.2018 13:00:00||AKTİFBANK|10.40.24.148|||110000438458|86
01.10.2018 13:00:00||AKTİFBANK|10.40.24.148|||110000438458|95
01.10.2018 13:00:00||AKTİFBANK|10.40.24.148|||110000438458|95
01.10.2018 13:00:00||AKTİFBANK|10.40.24.148|||110000438458|67
01.10.2018 13:00:00||AKTİFBANK|10.40.24.148|||110000438458|67
01.10.2018 13:00:00||AKTİFBANK|10.40.24.148|||110000438458|20
01.10.2018 13:00:00||AKTİFBANK|10.40.24.148|||110000438458|76
01.10.2018 13:00:00||AKTİFBANK|10.40.24.149|||110000438458|76
01.10.2018 13:00:00||AKTİFBANK|10.40.24.149|||110000438458|114
01.10.2018 13:00:00||AKTİFBANK|10.40.24.149|||110000438458|95
01.10.2018 13:00:00||AKTİFBANK|10.40.24.149|||110000438458|58
01.10.2018 13:00:00||AKTİFBANK|10.40.24.149|||110000438458|48
01.10.2018 13:00:00||AKTİFBANK|10.40.24.149|||110000438458|86
01.10.2018 13:00:00||AKTİFBANK|10.40.24.149|||110000438458|142
01.10.2018 13:00:00||AKTİFBANK|10.40.24.149|||110000438458|86
01.10.2018 13:00:00||AKTİFBANK|10.40.24.149|||110000438458|151
01.10.2018 13:00:00||AKTİFBANK|10.40.24.149|||110000438458|105
01.10.2018 13:00:00||AKTİFBANK|10.40.24.149|||110000438458|86
01.10.2018 13:00:00||AKTİFBANK|10.40.24.149|||110000438458|86
01.10.2018 13:00:00||AKTİFBANK|10.40.24.149|||110000438458|76
01.10.2018 13:00:00||AKTİFBANK|10.40.24.149|||110000438458|76
01.10.2018 13:00:00||AKTİFBANK|10.40.24.150|||110000438458|519
01.10.2018 13:00:00||AKTİFBANK|10.40.24.150|||110000438458|509
01.10.2018 13:00:00||AKTİFBANK|10.40.24.150|||110000438458|528
01.10.2018 13:00:00||AKTİFBANK|10.40.24.151|||110000438458|528
01.10.2018 13:00:00||AKTİFBANK|10.40.24.151|||110000438458|519
01.10.2018 13:00:00||AKTİFBANK|10.40.24.151|||110000438458|481
01.10.2018 13:00:00||AKTİFBANK|10.40.24.152|||110000438458|20
01.10.2018 13:00:00||AKTİFBANK|10.40.24.152|||110000438458|48
01.10.2018 13:00:00||AKTİFBANK|10.40.24.152|||110000438458|105
01.10.2018 13:00:00||AKTİFBANK|10.40.24.152|||110000438458|58
01.10.2018 13:00:00||AKTİFBANK|10.40.24.152|||110000438458|105
01.10.2018 13:00:00||AKTİFBANK|10.40.24.152|||110000438458|95
01.10.2018 13:00:00||AKTİFBANK|10.40.24.152|||110000438458|283
01.10.2018 13:00:00||AKTİFBANK|10.40.24.152|||110000438458|67
01.10.2018 13:00:00||AKTİFBANK|10.40.24.152|||110000438458|95
01.10.2018 13:00:00||AKTİFBANK|10.40.24.152|||110000438458|30
01.10.2018 13:00:00||AKTİFBANK|10.40.24.152|||110000438458|67
01.10.2018 13:00:00||AKTİFBANK|10.40.24.152|||110000438458|30
01.10.2018 13:00:00||AKTİFBANK|10.40.24.153|||110000438458|10
01.10.2018 13:00:00||AKTİFBANK|10.40.24.153|||110000438458|86
01.10.2018 13:00:00||AKTİFBANK|10.40.24.153|||110000438458|67
01.10.2018 13:00:00||AKTİFBANK|10.40.24.153|||110000438458|67
01.10.2018 13:00:00||AKTİFBANK|10.40.24.154|||110000438458|67
01.10.2018 13:00:00||AKTİFBANK|10.40.24.154|||110000438458|20
01.10.2018 13:00:00||AKTİFBANK|10.40.24.154|||110000438458|10
01.10.2018 13:00:00||AKTİFBANK|10.40.24.154|||110000438458|10
01.10.2018 13:00:00||AKTİFBANK|10.40.24.154|||110000438458|10
01.10.2018 13:00:00||AKTİFBANK|10.40.24.154|||110000438458|10
01.10.2018 13:00:00||AKTİFBANK|10.40.24.155|||110000438458|105
01.10.2018 13:00:00||AKTİFBANK|10.40.24.155|||110000438458|123
01.10.2018 13:00:00||AKTİFBANK|10.40.24.155|||110000438458|76
01.10.2018 13:00:00||AKTİFBANK|10.40.24.155|||110000438458|105
01.10.2018 13:00:00||AKTİFBANK|10.40.24.155|||110000438458|95
01.10.2018 13:00:00||AKTİFBANK|10.40.24.157|||110000438458|30
01.10.2018 13:00:00||AKTİFBANK|10.40.24.157|||110000438458|76
01.10.2018 13:00:00||AKTİFBANK|10.40.24.157|||110000438458|67
01.10.2018 13:00:00||AKTİFBANK|10.40.24.157|||110000438458|39
01.10.2018 13:00:00||AKTİFBANK|10.40.24.157|||110000438458|76
01.10.2018 13:00:00||AKTİFBANK|10.40.24.157|||110000438458|58
01.10.2018 13:00:00||AKTİFBANK|10.40.24.158|||110000438458|105
01.10.2018 13:00:00||AKTİFBANK|10.40.24.158|||110000438458|105
01.10.2018 13:00:00||AKTİFBANK|10.40.24.158|||110000438458|123
01.10.2018 13:00:00||AKTİFBANK|10.40.24.158|||110000438458|76
01.10.2018 13:00:00||AKTİFBANK|10.40.24.158|||110000438458|76
01.10.2018 13:00:00||AKTİFBANK|10.40.24.158|||110000438458|105
01.10.2018 13:00:00||AKTİFBANK|10.40.24.159|||110000438458|123
01.10.2018 13:00:00||AKTİFBANK|10.40.24.159|||110000438458|59
01.10.2018 13:00:00||AKTİFBANK|10.40.24.159|||110000438458|177
01.10.2018 13:00:00||AKTİFBANK|10.40.24.160|||110000438458|10
01.10.2018 13:00:00||AKTİFBANK|10.40.24.160|||110000438458|10
01.10.2018 13:00:00||AKTİFBANK|10.40.24.160|||110000438458|89
01.10.2018 13:00:00||AKTİFBANK|10.40.24.160|||110000438458|98
01.10.2018 13:00:00||AKTİFBANK|10.40.24.161|||110000438458|177
01.10.2018 13:00:00||AKTİFBANK|10.40.24.161|||110000438458|79
01.10.2018 13:00:00||AKTİFBANK|10.40.24.161|||110000438458|40
01.10.2018 13:00:00||AKTİFBANK|10.40.24.161|||110000438458|30
01.10.2018 13:00:00||AKTİFBANK|10.40.24.161|||110000438458|30
01.10.2018 13:00:00||AKTİFBANK|10.40.24.161|||110000438458|20
01.10.2018 13:00:00||AKTİFBANK|10.40.24.161|||110000438458|89
01.10.2018 13:00:00||AKTİFBANK|10.40.24.162|||110000438458|59
01.10.2018 13:00:00||AKTİFBANK|10.40.24.162|||110000438458|10
01.10.2018 13:00:00||AKTİFBANK|10.40.24.162|||110000438458|79
01.10.2018 13:00:00||AKTİFBANK|10.40.24.162|||110000438458|49
01.10.2018 13:00:00||AKTİFBANK|10.40.24.162|||110000438458|40
01.10.2018 13:00:00||AKTİFBANK|10.40.24.162|||110000438458|40
01.10.2018 13:00:00||AKTİFBANK|10.40.24.162|||110000438458|69
01.10.2018 13:00:00||AKTİFBANK|10.40.24.162|||110000438458|30
01.10.2018 13:00:00||AKTİFBANK|10.40.24.162|||110000438458|10
01.10.2018 13:00:00||AKTİFBANK|10.40.24.162|||110000438458|49
01.10.2018 13:00:00||AKTİFBANK|10.40.24.162|||110000438458|40
01.10.2018 13:00:00||AKTİFBANK|10.40.24.163|||110000438458|30
01.10.2018 13:00:00||AKTİFBANK|10.40.24.163|||110000438458|69
01.10.2018 13:00:00||AKTİFBANK|10.40.24.164|||110000438458|59
01.10.2018 13:00:00||AKTİFBANK|10.40.24.164|||110000438458|323
01.10.2018 13:00:00||AKTİFBANK|10.40.24.164|||110000438458|69
01.10.2018 13:00:00||AKTİFBANK|10.40.24.164|||110000438458|216
01.10.2018 13:00:00||AKTİFBANK|10.40.24.164|||110000438458|206
01.10.2018 13:00:00||AKTİFBANK|10.40.24.165|||110000438458|79
01.10.2018 13:00:00||AKTİFBANK|10.40.24.165|||110000438458|79
01.10.2018 13:00:00||AKTİFBANK|10.40.24.165|||110000438458|118
01.10.2018 13:00:00||AKTİFBANK|10.40.24.166|||110000438458|79
01.10.2018 13:00:00||AKTİFBANK|10.40.24.166|||110000438458|89
01.10.2018 13:00:00||AKTİFBANK|10.40.24.166|||110000438458|10
01.10.2018 13:00:00||AKTİFBANK|10.40.24.166|||110000438458|10
01.10.2018 13:00:00||AKTİFBANK|10.40.24.166|||110000438458|10
01.10.2018 13:00:00||AKTİFBANK|10.40.24.168|||110000438458|89
01.10.2018 13:00:00||AKTİFBANK|10.40.24.168|||110000438458|40
01.10.2018 13:00:00||AKTİFBANK|10.40.24.168|||110000438458|79
01.10.2018 13:00:00||AKTİFBANK|10.40.24.168|||110000438458|69
01.10.2018 13:00:00||AKTİFBANK|10.40.24.168|||110000438458|69
01.10.2018 13:00:00||AKTİFBANK|10.40.24.168|||110000438458|30
01.10.2018 13:00:00||AKTİFBANK|10.40.24.169|||110000438458|59
01.10.2018 13:00:00||AKTİFBANK|10.40.24.169|||110000438458|89
01.10.2018 13:00:00||AKTİFBANK|10.40.24.169|||110000438458|69
01.10.2018 13:00:00||AKTİFBANK|10.40.24.169|||110000438458|79
01.10.2018 13:00:00||AKTİFBANK|10.40.24.170|||110000438458|59
01.10.2018 13:00:00||AKTİFBANK|10.40.24.170|||110000438458|59
01.10.2018 13:00:00||AKTİFBANK|10.40.24.170|||110000438458|323
01.10.2018 13:00:00||AKTİFBANK|10.40.24.170|||110000438458|79
01.10.2018 13:00:00||AKTİFBANK|10.40.24.170|||110000438458|98
01.10.2018 13:00:00||AKTİFBANK|10.40.24.170|||110000438458|59
01.10.2018 13:00:00||AKTİFBANK|10.40.24.171|||110000438458|2
01.10.2018 13:00:00||AKTİFBANK|10.40.24.171|||110000438458|11
01.10.2018 13:00:00||AKTİFBANK|10.40.24.172|||110000438458|59
01.10.2018 13:00:00||AKTİFBANK|10.40.24.172|||110000438458|35
01.10.2018 13:00:00||AKTİFBANK|10.40.24.173|||110000438458|47
01.10.2018 13:00:00||AKTİFBANK|10.40.24.173|||110000438458|47
01.10.2018 13:00:00||AKTİFBANK|10.40.24.174|||110000438458|56
01.10.2018 13:00:00||AKTİFBANK|10.40.24.174|||110000438458|2
01.10.2018 13:00:00||AKTİFBANK|10.40.24.178|||110000438458|538
01.10.2018 13:00:00||AKTİFBANK|10.40.24.178|||110000438458|519
01.10.2018 13:00:00||AKTİFBANK|10.40.24.178|||110000438458|509
01.10.2018 13:00:00||AKTİFBANK|10.40.24.179|||110000438458|353
01.10.2018 13:00:00||AKTİFBANK|10.40.24.179|||110000438458|362
01.10.2018 13:00:00||AKTİFBANK|10.40.24.179|||110000438458|353
01.10.2018 13:00:00||AKTİFBANK|10.40.24.186|||110000438458|89
01.10.2018 13:00:00||AKTİFBANK|10.40.24.186|||110000438458|20
01.10.2018 13:00:00||AKTİFBANK|10.40.24.186|||110000438458|59
01.10.2018 13:00:00||AKTİFBANK|10.40.24.186|||110000438458|40
01.10.2018 13:00:00||AKTİFBANK|10.40.25.128|||110000438458|69
01.10.2018 13:00:00||AKTİFBANK|10.40.25.128|||110000438458|88
01.10.2018 13:00:00||AKTİFBANK|10.40.25.128|||110000438458|40
01.10.2018 13:00:00||AKTİFBANK|10.40.25.128|||110000438458|69
01.10.2018 13:00:00||AKTİFBANK|10.40.25.129|||110000438458|78
01.10.2018 13:00:00||AKTİFBANK|10.40.25.129|||110000438458|78
01.10.2018 13:00:00||AKTİFBANK|10.40.25.129|||110000438458|127
01.10.2018 13:00:00||AKTİFBANK|10.40.25.129|||110000438458|98
01.10.2018 13:00:00||AKTİFBANK|10.40.25.129|||110000438458|40
01.10.2018 13:00:00||AKTİFBANK|10.40.25.129|||110000438458|88
01.10.2018 13:00:00||AKTİFBANK|10.40.25.129|||110000438458|69
01.10.2018 13:00:00||AKTİFBANK|10.40.25.129|||110000438458|78
01.10.2018 13:00:00||AKTİFBANK|10.40.25.129|||110000438458|139
01.10.2018 13:00:00||AKTİFBANK|10.40.25.129|||110000438458|100
01.10.2018 13:00:00||AKTİFBANK|10.40.25.130|||110000438458|70
01.10.2018 13:00:00||AKTİFBANK|10.40.25.130|||110000438458|50
01.10.2018 13:00:00||AKTİFBANK|10.40.25.130|||110000438458|70
01.10.2018 13:00:00||AKTİFBANK|10.40.25.130|||110000438458|30
01.10.2018 13:00:00||AKTİFBANK|10.40.25.130|||110000438458|60
01.10.2018 13:00:00||AKTİFBANK|10.40.25.130|||110000438458|100
01.10.2018 13:00:00||AKTİFBANK|10.40.25.130|||110000438458|80
01.10.2018 13:00:00||AKTİFBANK|10.40.25.130|||110000438458|60
01.10.2018 13:00:00||AKTİFBANK|10.40.25.130|||110000438458|120
01.10.2018 13:00:00||AKTİFBANK|10.40.25.130|||110000438458|100
01.10.2018 13:00:00||AKTİFBANK|10.40.25.131|||110000438458|90
01.10.2018 13:00:00||AKTİFBANK|10.40.25.131|||110000438458|100
01.10.2018 13:00:00||AKTİFBANK|10.40.25.131|||110000438458|110
01.10.2018 13:00:00||AKTİFBANK|10.40.25.131|||110000438458|80
01.10.2018 13:00:00||AKTİFBANK|10.40.25.131|||110000438458|80
01.10.2018 13:00:00||AKTİFBANK|10.40.25.131|||110000438458|20
01.10.2018 13:00:00||AKTİFBANK|10.40.25.131|||110000438458|120
01.10.2018 13:00:00||AKTİFBANK|10.40.25.131|||110000438458|50
01.10.2018 13:00:00||AKTİFBANK|10.40.25.132|||110000438458|60
01.10.2018 13:00:00||AKTİFBANK|10.40.25.132|||110000438458|70
01.10.2018 13:00:00||AKTİFBANK|10.40.25.132|||110000438458|80
01.10.2018 13:00:00||AKTİFBANK|10.40.25.132|||110000438458|169
01.10.2018 13:00:00||AKTİFBANK|10.40.25.132|||110000438458|60
01.10.2018 13:00:00||AKTİFBANK|10.40.25.133|||110000438458|149
01.10.2018 13:00:00||AKTİFBANK|10.40.25.133|||110000438458|278
01.10.2018 13:00:00||AKTİFBANK|10.40.25.133|||110000438458|110
01.10.2018 13:00:00||AKTİFBANK|10.40.25.133|||110000438458|60
01.10.2018 13:00:00||AKTİFBANK|10.40.25.133|||110000438458|90
01.10.2018 13:00:00||AKTİFBANK|10.40.25.134|||110000438458|63
01.10.2018 13:00:00||AKTİFBANK|10.40.25.134|||110000438458|31
01.10.2018 13:00:00||AKTİFBANK|10.40.25.135|||110000438458|30
01.10.2018 13:00:00||AKTİFBANK|10.40.25.135|||110000438458|63
01.10.2018 13:00:00||AKTİFBANK|10.40.25.137|||110000438458|58
01.10.2018 13:00:00||AKTİFBANK|10.40.25.138|||110000438458|90
01.10.2018 13:00:00||AKTİFBANK|10.40.25.138|||110000438458|70
01.10.2018 13:00:00||AKTİFBANK|10.40.25.138|||110000438458|80
01.10.2018 13:00:00||AKTİFBANK|10.40.25.138|||110000438458|129
01.10.2018 13:00:00||AKTİFBANK|10.40.25.138|||110000438458|40
01.10.2018 13:00:00||AKTİFBANK|10.40.25.138|||110000438458|10
01.10.2018 13:00:00||AKTİFBANK|10.40.25.139|||110000438458|40
01.10.2018 13:00:00||AKTİFBANK|10.40.25.139|||110000438458|10
01.10.2018 13:00:00||AKTİFBANK|10.40.25.139|||110000438458|10
01.10.2018 13:00:00||AKTİFBANK|10.40.25.139|||110000438458|20
01.10.2018 13:00:00||AKTİFBANK|10.40.25.139|||110000438458|70
01.10.2018 13:00:00||AKTİFBANK|10.40.25.139|||110000438458|80
01.10.2018 13:00:00||AKTİFBANK|10.40.25.139|||110000438458|100
01.10.2018 13:00:00||AKTİFBANK|10.40.25.140|||110000438458|80
01.10.2018 13:00:00||AKTİFBANK|10.40.25.140|||110000438458|70
01.10.2018 13:00:00||AKTİFBANK|10.40.25.140|||110000438458|30
01.10.2018 13:00:00||AKTİFBANK|10.40.25.140|||110000438458|30
01.10.2018 13:00:00||AKTİFBANK|10.40.25.140|||110000438458|30
01.10.2018 13:00:00||AKTİFBANK|10.40.25.141|||110000438458|40
01.10.2018 13:00:00||AKTİFBANK|10.40.25.141|||110000438458|100
01.10.2018 13:00:00||AKTİFBANK|10.40.25.141|||110000438458|100
01.10.2018 13:00:00||AKTİFBANK|10.40.25.141|||110000438458|100
01.10.2018 13:00:00||AKTİFBANK|10.40.25.141|||110000438458|90
01.10.2018 13:00:00||AKTİFBANK|10.40.25.141|||110000438458|70
01.10.2018 13:00:00||AKTİFBANK|10.40.25.142|||110000438458|30
01.10.2018 13:00:00||AKTİFBANK|10.40.25.143|||110000438458|60
01.10.2018 13:00:00||AKTİFBANK|10.40.25.143|||110000438458|238
01.10.2018 13:00:00||AKTİFBANK|10.40.25.143|||110000438458|258
01.10.2018 13:00:00||AKTİFBANK|10.40.25.143|||110000438458|308
01.10.2018 13:00:00||AKTİFBANK|10.40.25.144|||110000438458|70
01.10.2018 13:00:00||AKTİFBANK|10.40.25.144|||110000438458|50
01.10.2018 13:00:00||AKTİFBANK|10.40.25.144|||110000438458|60
01.10.2018 13:00:00||AKTİFBANK|10.40.25.145|||110000438458|90
01.10.2018 13:00:00||AKTİFBANK|10.40.25.145|||110000438458|60
01.10.2018 13:00:00||AKTİFBANK|10.40.25.145|||110000438458|60
01.10.2018 13:00:00||AKTİFBANK|10.40.25.145|||110000438458|30
01.10.2018 13:00:00||AKTİFBANK|10.40.25.145|||110000438458|50
01.10.2018 13:00:00||AKTİFBANK|10.40.25.147|||110000438458|90
01.10.2018 13:00:00||AKTİFBANK|10.40.25.148|||110000438458|129
01.10.2018 13:00:00||AKTİFBANK|10.40.25.148|||110000438458|50
01.10.2018 13:00:00||AKTİFBANK|10.40.25.148|||110000438458|100
01.10.2018 13:00:00||AKTİFBANK|10.40.25.148|||110000438458|129
01.10.2018 13:00:00||AKTİFBANK|10.40.25.148|||110000438458|90
01.10.2018 13:00:00||AKTİFBANK|10.40.25.148|||110000438458|80
01.10.2018 13:00:00||AKTİFBANK|10.40.25.148|||110000438458|70
01.10.2018 13:00:00||AKTİFBANK|10.40.25.148|||110000438458|50
01.10.2018 13:00:00||AKTİFBANK|10.40.25.148|||110000438458|80
01.10.2018 13:00:00||AKTİFBANK|10.40.25.148|||110000438458|41
01.10.2018 13:00:00||AKTİFBANK|10.40.25.148|||110000438458|105
01.10.2018 13:00:00||AKTİFBANK|10.40.25.148|||110000438458|62
01.10.2018 13:00:00||AKTİFBANK|10.40.25.149|||110000438458|62
01.10.2018 13:00:00||AKTİFBANK|10.40.25.149|||110000438458|115
01.10.2018 13:00:00||AKTİFBANK|10.40.25.149|||110000438458|94
01.10.2018 13:00:00||AKTİFBANK|10.40.25.149|||110000438458|73
01.10.2018 13:00:00||AKTİFBANK|10.40.25.149|||110000438458|94
01.10.2018 13:00:00||AKTİFBANK|10.40.25.149|||110000438458|41
01.10.2018 13:00:00||AKTİFBANK|10.40.25.149|||110000438458|84
01.10.2018 13:00:00||AKTİFBANK|10.40.25.149|||110000438458|73
01.10.2018 13:00:00||AKTİFBANK|10.40.25.149|||110000438458|137
01.10.2018 13:00:00||AKTİFBANK|10.40.25.149|||110000438458|115
01.10.2018 13:00:00||AKTİFBANK|10.40.25.149|||110000438458|94
01.10.2018 13:00:00||AKTİFBANK|10.40.25.149|||110000438458|94
01.10.2018 13:00:00||AKTİFBANK|10.40.25.149|||110000438458|105
01.10.2018 13:00:00||AKTİFBANK|10.40.25.149|||110000438458|73
01.10.2018 13:00:00||AKTİFBANK|10.40.25.150|||110000438458|614
01.10.2018 13:00:00||AKTİFBANK|10.40.25.150|||110000438458|561
01.10.2018 13:00:00||AKTİFBANK|10.40.25.150|||110000438458|604
01.10.2018 13:00:00||AKTİFBANK|10.40.25.151|||110000438458|582
01.10.2018 13:00:00||AKTİFBANK|10.40.25.151|||110000438458|541
01.10.2018 13:00:00||AKTİFBANK|10.40.25.151|||110000438458|561
01.10.2018 13:00:00||AKTİFBANK|10.40.25.152|||110000438458|126
01.10.2018 13:00:00||AKTİFBANK|10.40.25.152|||110000438458|41
01.10.2018 13:00:00||AKTİFBANK|10.40.25.152|||110000438458|147
01.10.2018 13:00:00||AKTİFBANK|10.40.25.152|||110000438458|73
01.10.2018 13:00:00||AKTİFBANK|10.40.25.152|||110000438458|94
01.10.2018 13:00:00||AKTİFBANK|10.40.25.152|||110000438458|52
01.10.2018 13:00:00||AKTİFBANK|10.40.25.152|||110000438458|94
01.10.2018 13:00:00||AKTİFBANK|10.40.25.152|||110000438458|30
01.10.2018 13:00:00||AKTİFBANK|10.40.25.152|||110000438458|84
01.10.2018 13:00:00||AKTİFBANK|10.40.25.152|||110000438458|30
01.10.2018 13:00:00||AKTİFBANK|10.40.25.153|||110000438458|10
01.10.2018 13:00:00||AKTİFBANK|10.40.25.153|||110000438458|84
01.10.2018 13:00:00||AKTİFBANK|10.40.25.153|||110000438458|62
01.10.2018 13:00:00||AKTİFBANK|10.40.25.153|||110000438458|73
01.10.2018 13:00:00||AKTİFBANK|10.40.25.154|||110000438458|10
01.10.2018 13:00:00||AKTİFBANK|10.40.25.154|||110000438458|10
01.10.2018 13:00:00||AKTİFBANK|10.40.25.154|||110000438458|10
01.10.2018 13:00:00||AKTİFBANK|10.40.25.155|||110000438458|73
01.10.2018 13:00:00||AKTİFBANK|10.40.25.155|||110000438458|94
01.10.2018 13:00:00||AKTİFBANK|10.40.25.155|||110000438458|115
01.10.2018 13:00:00||AKTİFBANK|10.40.25.155|||110000438458|126
01.10.2018 13:00:00||AKTİFBANK|10.40.25.155|||110000438458|115
01.10.2018 13:00:00||AKTİFBANK|10.40.25.157|||110000438458|73
01.10.2018 13:00:00||AKTİFBANK|10.40.25.157|||110000438458|73
01.10.2018 13:00:00||AKTİFBANK|10.40.25.157|||110000438458|73
01.10.2018 13:00:00||AKTİFBANK|10.40.25.157|||110000438458|84
01.10.2018 13:00:00||AKTİFBANK|10.40.25.157|||110000438458|41
01.10.2018 13:00:00||AKTİFBANK|10.40.25.158|||110000438458|126
01.10.2018 13:00:00||AKTİFBANK|10.40.25.158|||110000438458|52
01.10.2018 13:00:00||AKTİFBANK|10.40.25.159|||110000438458|62
01.10.2018 13:00:00||AKTİFBANK|10.40.25.159|||110000438458|10
01.10.2018 13:00:00||AKTİFBANK|10.40.25.159|||110000438458|94
01.10.2018 13:00:00||AKTİFBANK|10.40.25.160|||110000438458|94
01.10.2018 13:00:00||AKTİFBANK|10.40.25.160|||110000438458|115
01.10.2018 13:00:00||AKTİFBANK|10.40.25.161|||110000438458|84
01.10.2018 13:00:00||AKTİFBANK|10.40.25.161|||110000438458|73
01.10.2018 13:00:00||AKTİFBANK|10.40.25.161|||110000438458|41
01.10.2018 13:00:00||AKTİFBANK|10.40.25.161|||110000438458|30
01.10.2018 13:00:00||AKTİFBANK|10.40.25.161|||110000438458|20
01.10.2018 13:00:00||AKTİFBANK|10.40.25.161|||110000438458|52
01.10.2018 13:00:00||AKTİFBANK|10.40.25.162|||110000438458|30
01.10.2018 13:00:00||AKTİFBANK|10.40.25.162|||110000438458|30
01.10.2018 13:00:00||AKTİFBANK|10.40.25.162|||110000438458|62
01.10.2018 13:00:00||AKTİFBANK|10.40.25.162|||110000438458|52
01.10.2018 13:00:00||AKTİFBANK|10.40.25.162|||110000438458|30
01.10.2018 13:00:00||AKTİFBANK|10.40.25.162|||110000438458|41
01.10.2018 13:00:00||AKTİFBANK|10.40.25.163|||110000438458|41
01.10.2018 13:00:00||AKTİFBANK|10.40.25.164|||110000438458|62
01.10.2018 13:00:00||AKTİFBANK|10.40.25.164|||110000438458|296
01.10.2018 13:00:00||AKTİFBANK|10.40.25.164|||110000438458|52
01.10.2018 13:00:00||AKTİFBANK|10.40.25.164|||110000438458|275
01.10.2018 13:00:00||AKTİFBANK|10.40.25.164|||110000438458|286
01.10.2018 13:00:00||AKTİFBANK|10.40.25.165|||110000438458|147
01.10.2018 13:00:00||AKTİFBANK|10.40.25.165|||110000438458|73
01.10.2018 13:00:00||AKTİFBANK|10.40.25.165|||110000438458|73
01.10.2018 13:00:00||AKTİFBANK|10.40.25.165|||110000438458|105
01.10.2018 13:00:00||AKTİFBANK|10.40.25.166|||110000438458|41
01.10.2018 13:00:00||AKTİFBANK|10.40.25.166|||110000438458|94
01.10.2018 13:00:00||AKTİFBANK|10.40.25.168|||110000438458|94
01.10.2018 13:00:00||AKTİFBANK|10.40.25.168|||110000438458|73
01.10.2018 13:00:00||AKTİFBANK|10.40.25.168|||110000438458|52
01.10.2018 13:00:00||AKTİFBANK|10.40.25.168|||110000438458|41
01.10.2018 13:00:00||AKTİFBANK|10.40.25.168|||110000438458|62
01.10.2018 13:00:00||AKTİFBANK|10.40.25.169|||110000438458|94
01.10.2018 13:00:00||AKTİFBANK|10.40.25.169|||110000438458|94
01.10.2018 13:00:00||AKTİFBANK|10.40.25.169|||110000438458|73
01.10.2018 13:00:00||AKTİFBANK|10.40.25.169|||110000438458|105
01.10.2018 13:00:00||AKTİFBANK|10.40.25.170|||110000438458|30
01.10.2018 13:00:00||AKTİFBANK|10.40.25.170|||110000438458|30
01.10.2018 13:00:00||AKTİFBANK|10.40.25.170|||110000438458|243
01.10.2018 13:00:00||AKTİFBANK|10.40.25.170|||110000438458|105
01.10.2018 13:00:00||AKTİFBANK|10.40.25.170|||110000438458|84
01.10.2018 13:00:00||AKTİFBANK|10.40.25.170|||110000438458|115
01.10.2018 13:00:00||AKTİFBANK|10.40.25.171|||110000438458|1
01.10.2018 13:00:00||AKTİFBANK|10.40.25.171|||110000438458|11
01.10.2018 13:00:00||AKTİFBANK|10.40.25.172|||110000438458|27
01.10.2018 13:00:00||AKTİFBANK|10.40.25.172|||110000438458|64
01.10.2018 13:00:00||AKTİFBANK|10.40.25.173|||110000438458|34
01.10.2018 13:00:00||AKTİFBANK|10.40.25.173|||110000438458|64
01.10.2018 13:00:00||AKTİFBANK|10.40.25.174|||110000438458|55
01.10.2018 13:00:00||AKTİFBANK|10.40.25.178|||110000438458|593
01.10.2018 13:00:00||AKTİFBANK|10.40.25.178|||110000438458|593
01.10.2018 13:00:00||AKTİFBANK|10.40.25.178|||110000438458|582
01.10.2018 13:00:00||AKTİFBANK|10.40.25.179|||110000438458|413
01.10.2018 13:00:00||AKTİFBANK|10.40.25.179|||110000438458|349
01.10.2018 13:00:00||AKTİFBANK|10.40.25.179|||110000438458|328
01.10.2018 13:00:00||AKTİFBANK|10.40.25.186|||110000438458|87
01.10.2018 13:00:00||AKTİFBANK|10.40.25.186|||110000438458|20
01.10.2018 13:00:00||AKTİFBANK|10.40.25.186|||110000438458|68
01.10.2018 13:00:00||BOYNER|10.40.26.100|||101367941673|40
01.10.2018 13:00:00||BOYNER|10.40.26.100|||101367941673|17
01.10.2018 13:00:00||BOYNER|10.40.26.101|||101367941673|26
01.10.2018 13:00:00||BOYNER|10.40.26.101|||101367941673|125
01.10.2018 13:00:00||BOYNER|10.40.26.94|||101367941673|88
01.10.2018 13:00:00||BOYNER|10.40.26.94|||101367941673|78
01.10.2018 13:00:00||BOYNER|10.40.26.94|||101367941673|78
01.10.2018 13:00:00||BOYNER|10.40.26.95|||101367941673|88
01.10.2018 13:00:00||BOYNER|10.40.26.95|||101367941673|195
01.10.2018 13:00:00||BOYNER|10.40.26.95|||101367941673|137
01.10.2018 13:00:00||BOYNER|10.40.26.96|||101367941673|30
01.10.2018 13:00:00||BOYNER|10.40.26.96|||101367941673|40
01.10.2018 13:00:00||BOYNER|10.40.26.96|||101367941673|30
01.10.2018 13:00:00||BOYNER|10.40.26.96|||101367941673|40
01.10.2018 13:00:00||BOYNER|10.40.26.96|||101367941673|40
01.10.2018 13:00:00||BOYNER|10.40.26.96|||101367941673|49
01.10.2018 13:00:00||BOYNER|10.40.26.96|||101367941673|175
01.10.2018 13:00:00||BOYNER|10.40.26.96|||101367941673|205
01.10.2018 13:00:00||BOYNER|10.40.26.96|||101367941673|156
01.10.2018 13:00:00||BOYNER|10.40.26.96|||101367941673|175
01.10.2018 13:00:00||BOYNER|10.40.26.97|||101367941673|30
01.10.2018 13:00:00||BOYNER|10.40.26.97|||101367941673|642
01.10.2018 13:00:00||BOYNER|10.40.26.97|||101367941673|632
01.10.2018 13:00:00||BOYNER|10.40.26.97|||101367941673|642
01.10.2018 13:00:00||BOYNER|10.40.26.97|||101367941673|30
01.10.2018 13:00:00||BOYNER|10.40.26.97|||101367941673|40
01.10.2018 13:00:00||BOYNER|10.40.26.97|||101367941673|49
01.10.2018 13:00:00||BOYNER|10.40.26.97|||101367941673|59
01.10.2018 13:00:00||BOYNER|10.40.26.97|||101367941673|30
01.10.2018 13:00:00||BOYNER|10.40.26.97|||101367941673|146
01.10.2018 13:00:00||BOYNER|10.40.26.97|||101367941673|175
01.10.2018 13:00:00||BOYNER|10.40.26.97|||101367941673|166
01.10.2018 13:00:00||BOYNER|10.40.26.97|||101367941673|166
01.10.2018 13:00:00||BOYNER|10.40.26.99|||101367941673|20
01.10.2018 13:00:00||BOYNER|10.40.26.99|||101367941673|108
01.10.2018 13:00:00||BOYNER|10.40.26.99|||101367941673|108
01.10.2018 13:00:00||BOYNER|10.40.26.99|||101367941673|59
01.10.2018 13:00:00||BOYNER|10.40.27.100|||101367941673|16
01.10.2018 13:00:00||BOYNER|10.40.27.100|||101367941673|36
01.10.2018 13:00:00||BOYNER|10.40.27.101|||101367941673|139
01.10.2018 13:00:00||BOYNER|10.40.27.101|||101367941673|28
01.10.2018 13:00:00||BOYNER|10.40.27.94|||101367941673|200
01.10.2018 13:00:00||BOYNER|10.40.27.94|||101367941673|87
01.10.2018 13:00:00||BOYNER|10.40.27.94|||101367941673|87
01.10.2018 13:00:00||BOYNER|10.40.27.94|||101367941673|96
01.10.2018 13:00:00||BOYNER|10.40.27.95|||101367941673|124
01.10.2018 13:00:00||BOYNER|10.40.27.95|||101367941673|124
01.10.2018 13:00:00||BOYNER|10.40.27.95|||101367941673|229
01.10.2018 13:00:00||BOYNER|10.40.27.96|||101367941673|58
01.10.2018 13:00:00||BOYNER|10.40.27.96|||101367941673|48
01.10.2018 13:00:00||BOYNER|10.40.27.96|||101367941673|48
01.10.2018 13:00:00||BOYNER|10.40.27.96|||101367941673|39
01.10.2018 13:00:00||BOYNER|10.40.27.96|||101367941673|39
01.10.2018 13:00:00||BOYNER|10.40.27.96|||101367941673|134
01.10.2018 13:00:00||BOYNER|10.40.27.96|||101367941673|134
01.10.2018 13:00:00||BOYNER|10.40.27.96|||101367941673|163
01.10.2018 13:00:00||BOYNER|10.40.27.96|||101367941673|153
01.10.2018 13:00:00||BOYNER|10.40.27.97|||101367941673|58
01.10.2018 13:00:00||BOYNER|10.40.27.97|||101367941673|629
01.10.2018 13:00:00||BOYNER|10.40.27.97|||101367941673|638
01.10.2018 13:00:00||BOYNER|10.40.27.97|||101367941673|657
01.10.2018 13:00:00||BOYNER|10.40.27.97|||101367941673|48
01.10.2018 13:00:00||BOYNER|10.40.27.97|||101367941673|39
01.10.2018 13:00:00||BOYNER|10.40.27.97|||101367941673|48
01.10.2018 13:00:00||BOYNER|10.40.27.97|||101367941673|30
01.10.2018 13:00:00||BOYNER|10.40.27.97|||101367941673|163
01.10.2018 13:00:00||BOYNER|10.40.27.97|||101367941673|172
01.10.2018 13:00:00||BOYNER|10.40.27.97|||101367941673|191
01.10.2018 13:00:00||BOYNER|10.40.27.97|||101367941673|191
01.10.2018 13:00:00||BOYNER|10.40.27.99|||101367941673|115
01.10.2018 13:00:00||BOYNER|10.40.27.99|||101367941673|96
01.10.2018 13:00:00||BOYNER|10.40.27.99|||101367941673|67
01.10.2018 13:00:00||ÇALIK HOLDİNG|10.40.24.100|||110000438408|30
01.10.2018 13:00:00||ÇALIK HOLDİNG|10.40.24.100|||110000438408|39
01.10.2018 13:00:00||ÇALIK HOLDİNG|10.40.24.101|||110000438408|59
01.10.2018 13:00:00||ÇALIK HOLDİNG|10.40.24.101|||110000438408|107
01.10.2018 13:00:00||ÇALIK HOLDİNG|10.40.24.101|||110000438408|20
01.10.2018 13:00:00||ÇALIK HOLDİNG|10.40.24.101|||110000438408|20
01.10.2018 13:00:00||ÇALIK HOLDİNG|10.40.24.101|||110000438408|39
01.10.2018 13:00:00||ÇALIK HOLDİNG|10.40.24.101|||110000438408|88
01.10.2018 13:00:00||ÇALIK HOLDİNG|10.40.24.101|||110000438408|30
01.10.2018 13:00:00||ÇALIK HOLDİNG|10.40.24.101|||110000438408|10
01.10.2018 13:00:00||ÇALIK HOLDİNG|10.40.24.101|||110000438408|20
01.10.2018 13:00:00||ÇALIK HOLDİNG|10.40.24.101|||110000438408|49
01.10.2018 13:00:00||ÇALIK HOLDİNG|10.40.24.101|||110000438408|30
01.10.2018 13:00:00||ÇALIK HOLDİNG|10.40.24.101|||110000438408|78
01.10.2018 13:00:00||ÇALIK HOLDİNG|10.40.24.101|||110000438408|78
01.10.2018 13:00:00||ÇALIK HOLDİNG|10.40.24.101|||110000438408|97
01.10.2018 13:00:00||ÇALIK HOLDİNG|10.40.24.102|||110000438408|97
01.10.2018 13:00:00||ÇALIK HOLDİNG|10.40.24.102|||110000438408|97
01.10.2018 13:00:00||ÇALIK HOLDİNG|10.40.24.102|||110000438408|136
01.10.2018 13:00:00||ÇALIK HOLDİNG|10.40.24.103|||110000438408|97
01.10.2018 13:00:00||ÇALIK HOLDİNG|10.40.24.103|||110000438408|78
01.10.2018 13:00:00||ÇALIK HOLDİNG|10.40.24.103|||110000438408|78
01.10.2018 13:00:00||ÇALIK HOLDİNG|10.40.24.103|||110000438408|20
01.10.2018 13:00:00||ÇALIK HOLDİNG|10.40.24.103|||110000438408|20
01.10.2018 13:00:00||ÇALIK HOLDİNG|10.40.24.113|||110000438408|204
01.10.2018 13:00:00||ÇALIK HOLDİNG|10.40.24.113|||110000438408|223
01.10.2018 13:00:00||ÇALIK HOLDİNG|10.40.24.113|||110000438408|194
01.10.2018 13:00:00||ÇALIK HOLDİNG|10.40.24.113|||110000438408|146
01.10.2018 13:00:00||ÇALIK HOLDİNG|10.40.24.114|||110000438408|20
01.10.2018 13:00:00||ÇALIK HOLDİNG|10.40.24.114|||110000438408|39
01.10.2018 13:00:00||ÇALIK HOLDİNG|10.40.24.114|||110000438408|175
01.10.2018 13:00:00||ÇALIK HOLDİNG|10.40.24.114|||110000438408|358
01.10.2018 13:00:00||ÇALIK HOLDİNG|10.40.24.115|||110000438408|136
01.10.2018 13:00:00||ÇALIK HOLDİNG|10.40.24.115|||110000438408|78
01.10.2018 13:00:00||ÇALIK HOLDİNG|10.40.24.115|||110000438408|88
01.10.2018 13:00:00||ÇALIK HOLDİNG|10.40.24.115|||110000438408|68
01.10.2018 13:00:00||ÇALIK HOLDİNG|10.40.24.115|||110000438408|88
01.10.2018 13:00:00||ÇALIK HOLDİNG|10.40.24.115|||110000438408|68
01.10.2018 13:00:00||ÇALIK HOLDİNG|10.40.24.116|||110000438408|261
01.10.2018 13:00:00||ÇALIK HOLDİNG|10.40.24.116|||110000438408|107
01.10.2018 13:00:00||ÇALIK HOLDİNG|10.40.24.116|||110000438408|88
01.10.2018 13:00:00||ÇALIK HOLDİNG|10.40.24.117|||110000438408|194
01.10.2018 13:00:00||ÇALIK HOLDİNG|10.40.24.117|||110000438408|30
01.10.2018 13:00:00||ÇALIK HOLDİNG|10.40.24.117|||110000438408|30
01.10.2018 13:00:00||ÇALIK HOLDİNG|10.40.24.118|||110000438408|42
01.10.2018 13:00:00||ÇALIK HOLDİNG|10.40.24.119|||110000438408|146
01.10.2018 13:00:00||ÇALIK HOLDİNG|10.40.24.119|||110000438408|30
01.10.2018 13:00:00||ÇALIK HOLDİNG|10.40.24.119|||110000438408|49
01.10.2018 13:00:00||ÇALIK HOLDİNG|10.40.24.120|||110000438408|20
01.10.2018 13:00:00||ÇALIK HOLDİNG|10.40.24.120|||110000438408|30
01.10.2018 13:00:00||ÇALIK HOLDİNG|10.40.24.120|||110000438408|107
01.10.2018 13:00:00||ÇALIK HOLDİNG|10.40.24.120|||110000438408|10
01.10.2018 13:00:00||ÇALIK HOLDİNG|10.40.24.120|||110000438408|20
01.10.2018 13:00:00||ÇALIK HOLDİNG|10.40.24.120|||110000438408|97
01.10.2018 13:00:00||ÇALIK HOLDİNG|10.40.24.120|||110000438408|39
01.10.2018 13:00:00||ÇALIK HOLDİNG|10.40.24.120|||110000438408|78
01.10.2018 13:00:00||ÇALIK HOLDİNG|10.40.24.120|||110000438408|78
01.10.2018 13:00:00||ÇALIK HOLDİNG|10.40.24.120|||110000438408|68
01.10.2018 13:00:00||ÇALIK HOLDİNG|10.40.24.121|||110000438408|97
01.10.2018 13:00:00||ÇALIK HOLDİNG|10.40.24.121|||110000438408|97
01.10.2018 13:00:00||ÇALIK HOLDİNG|10.40.24.121|||110000438408|146
01.10.2018 13:00:00||ÇALIK HOLDİNG|10.40.24.122|||110000438408|88
01.10.2018 13:00:00||ÇALIK HOLDİNG|10.40.24.122|||110000438408|78
01.10.2018 13:00:00||ÇALIK HOLDİNG|10.40.24.122|||110000438408|88
01.10.2018 13:00:00||ÇALIK HOLDİNG|10.40.24.122|||110000438408|30
01.10.2018 13:00:00||ÇALIK HOLDİNG|10.40.24.122|||110000438408|10
01.10.2018 13:00:00||ÇALIK HOLDİNG|10.40.24.94|||110000438408|221
01.10.2018 13:00:00||ÇALIK HOLDİNG|10.40.24.94|||110000438408|189
01.10.2018 13:00:00||ÇALIK HOLDİNG|10.40.24.94|||110000438408|200
01.10.2018 13:00:00||ÇALIK HOLDİNG|10.40.24.94|||110000438408|210
01.10.2018 13:00:00||ÇALIK HOLDİNG|10.40.24.95|||110000438408|105
01.10.2018 13:00:00||ÇALIK HOLDİNG|10.40.24.95|||110000438408|52
01.10.2018 13:00:00||ÇALIK HOLDİNG|10.40.24.95|||110000438408|20
01.10.2018 13:00:00||ÇALIK HOLDİNG|10.40.24.95|||110000438408|94
01.10.2018 13:00:00||ÇALIK HOLDİNG|10.40.24.95|||110000438408|463
01.10.2018 13:00:00||ÇALIK HOLDİNG|10.40.24.95|||110000438408|421
01.10.2018 13:00:00||ÇALIK HOLDİNG|10.40.24.97|||110000438408|98
01.10.2018 13:00:00||ÇALIK HOLDİNG|10.40.24.97|||110000438408|88
01.10.2018 13:00:00||ÇALIK HOLDİNG|10.40.24.97|||110000438408|78
01.10.2018 13:00:00||ÇALIK HOLDİNG|10.40.24.97|||110000438408|88
01.10.2018 13:00:00||ÇALIK HOLDİNG|10.40.24.97|||110000438408|302
01.10.2018 13:00:00||ÇALIK HOLDİNG|10.40.24.98|||110000438408|88
01.10.2018 13:00:00||ÇALIK HOLDİNG|10.40.24.98|||110000438408|146
01.10.2018 13:00:00||ÇALIK HOLDİNG|10.40.24.98|||110000438408|195
01.10.2018 13:00:00||ÇALIK HOLDİNG|10.40.24.98|||110000438408|195
01.10.2018 13:00:00||ÇALIK HOLDİNG|10.40.24.98|||110000438408|156
01.10.2018 13:00:00||ÇALIK HOLDİNG|10.40.24.98|||110000438408|30
01.10.2018 13:00:00||ÇALIK HOLDİNG|10.40.24.98|||110000438408|156
01.10.2018 13:00:00||ÇALIK HOLDİNG|10.40.24.98|||110000438408|175
01.10.2018 13:00:00||ÇALIK HOLDİNG|10.40.24.98|||110000438408|166
01.10.2018 13:00:00||ÇALIK HOLDİNG|10.40.24.98|||110000438408|175
01.10.2018 13:00:00||ÇALIK HOLDİNG|10.40.24.98|||110000438408|20
01.10.2018 13:00:00||ÇALIK HOLDİNG|10.40.24.98|||110000438408|273
01.10.2018 13:00:00||ÇALIK HOLDİNG|10.40.25.100|||110000438408|40
01.10.2018 13:00:00||ÇALIK HOLDİNG|10.40.25.100|||110000438408|40
01.10.2018 13:00:00||ÇALIK HOLDİNG|10.40.25.101|||110000438408|49
01.10.2018 13:00:00||ÇALIK HOLDİNG|10.40.25.101|||110000438408|108
01.10.2018 13:00:00||ÇALIK HOLDİNG|10.40.25.101|||110000438408|30
01.10.2018 13:00:00||ÇALIK HOLDİNG|10.40.25.101|||110000438408|10
01.10.2018 13:00:00||ÇALIK HOLDİNG|10.40.25.101|||110000438408|78
01.10.2018 13:00:00||ÇALIK HOLDİNG|10.40.25.101|||110000438408|40
01.10.2018 13:00:00||ÇALIK HOLDİNG|10.40.25.101|||110000438408|40
01.10.2018 13:00:00||ÇALIK HOLDİNG|10.40.25.101|||110000438408|88
01.10.2018 13:00:00||ÇALIK HOLDİNG|10.40.25.101|||110000438408|88
01.10.2018 13:00:00||ÇALIK HOLDİNG|10.40.25.101|||110000438408|88
01.10.2018 13:00:00||ÇALIK HOLDİNG|10.40.25.102|||110000438408|98
01.10.2018 13:00:00||ÇALIK HOLDİNG|10.40.25.102|||110000438408|98
01.10.2018 13:00:00||ÇALIK HOLDİNG|10.40.25.102|||110000438408|146
01.10.2018 13:00:00||ÇALIK HOLDİNG|10.40.25.103|||110000438408|88
01.10.2018 13:00:00||ÇALIK HOLDİNG|10.40.25.103|||110000438408|88
01.10.2018 13:00:00||ÇALIK HOLDİNG|10.40.25.103|||110000438408|78
01.10.2018 13:00:00||ÇALIK HOLDİNG|10.40.25.113|||110000438408|215
01.10.2018 13:00:00||ÇALIK HOLDİNG|10.40.25.113|||110000438408|244
01.10.2018 13:00:00||ÇALIK HOLDİNG|10.40.25.113|||110000438408|175
01.10.2018 13:00:00||ÇALIK HOLDİNG|10.40.25.113|||110000438408|195
01.10.2018 13:00:00||ÇALIK HOLDİNG|10.40.25.114|||110000438408|175
01.10.2018 13:00:00||ÇALIK HOLDİNG|10.40.25.114|||110000438408|399
01.10.2018 13:00:00||ÇALIK HOLDİNG|10.40.25.114|||110000438408|40
01.10.2018 13:00:00||ÇALIK HOLDİNG|10.40.25.115|||110000438408|146
01.10.2018 13:00:00||ÇALIK HOLDİNG|10.40.25.115|||110000438408|69
01.10.2018 13:00:00||ÇALIK HOLDİNG|10.40.25.115|||110000438408|78
01.10.2018 13:00:00||ÇALIK HOLDİNG|10.40.25.115|||110000438408|78
01.10.2018 13:00:00||ÇALIK HOLDİNG|10.40.25.115|||110000438408|69
01.10.2018 13:00:00||ÇALIK HOLDİNG|10.40.25.115|||110000438408|69
01.10.2018 13:00:00||ÇALIK HOLDİNG|10.40.25.116|||110000438408|98
01.10.2018 13:00:00||ÇALIK HOLDİNG|10.40.25.116|||110000438408|98
01.10.2018 13:00:00||ÇALIK HOLDİNG|10.40.25.116|||110000438408|282
01.10.2018 13:00:00||ÇALIK HOLDİNG|10.40.25.117|||110000438408|234
01.10.2018 13:00:00||ÇALIK HOLDİNG|10.40.25.117|||110000438408|30
01.10.2018 13:00:00||ÇALIK HOLDİNG|10.40.25.117|||110000438408|30
01.10.2018 13:00:00||ÇALIK HOLDİNG|10.40.25.118|||110000438408|156
01.10.2018 13:00:00||ÇALIK HOLDİNG|10.40.25.119|||110000438408|30
01.10.2018 13:00:00||ÇALIK HOLDİNG|10.40.25.119|||110000438408|30
01.10.2018 13:00:00||ÇALIK HOLDİNG|10.40.25.120|||110000438408|108
01.10.2018 13:00:00||ÇALIK HOLDİNG|10.40.25.120|||110000438408|49
01.10.2018 13:00:00||ÇALIK HOLDİNG|10.40.25.120|||110000438408|59
01.10.2018 13:00:00||ÇALIK HOLDİNG|10.40.25.120|||110000438408|20
01.10.2018 13:00:00||ÇALIK HOLDİNG|10.40.25.120|||110000438408|30
01.10.2018 13:00:00||ÇALIK HOLDİNG|10.40.25.120|||110000438408|40
01.10.2018 13:00:00||ÇALIK HOLDİNG|10.40.25.120|||110000438408|88
01.10.2018 13:00:00||ÇALIK HOLDİNG|10.40.25.120|||110000438408|20
01.10.2018 13:00:00||ÇALIK HOLDİNG|10.40.25.120|||110000438408|88
01.10.2018 13:00:00||ÇALIK HOLDİNG|10.40.25.120|||110000438408|88
01.10.2018 13:00:00||ÇALIK HOLDİNG|10.40.25.121|||110000438408|88
01.10.2018 13:00:00||ÇALIK HOLDİNG|10.40.25.121|||110000438408|98
01.10.2018 13:00:00||ÇALIK HOLDİNG|10.40.25.121|||110000438408|137
01.10.2018 13:00:00||ÇALIK HOLDİNG|10.40.25.122|||110000438408|88
01.10.2018 13:00:00||ÇALIK HOLDİNG|10.40.25.122|||110000438408|78
01.10.2018 13:00:00||ÇALIK HOLDİNG|10.40.25.122|||110000438408|78
01.10.2018 13:00:00||ÇALIK HOLDİNG|10.40.25.94|||110000438408|173
01.10.2018 13:00:00||ÇALIK HOLDİNG|10.40.25.94|||110000438408|173
01.10.2018 13:00:00||ÇALIK HOLDİNG|10.40.25.94|||110000438408|164
01.10.2018 13:00:00||ÇALIK HOLDİNG|10.40.25.94|||110000438408|173
01.10.2018 13:00:00||ÇALIK HOLDİNG|10.40.25.95|||110000438408|96
01.10.2018 13:00:00||ÇALIK HOLDİNG|10.40.25.95|||110000438408|77
01.10.2018 13:00:00||ÇALIK HOLDİNG|10.40.25.95|||110000438408|364
01.10.2018 13:00:00||ÇALIK HOLDİNG|10.40.25.95|||110000438408|364
01.10.2018 13:00:00||ÇALIK HOLDİNG|10.40.25.95|||110000438408|39
01.10.2018 13:00:00||ÇALIK HOLDİNG|10.40.25.96|||110000438408|68
01.10.2018 13:00:00||ÇALIK HOLDİNG|10.40.25.96|||110000438408|87
01.10.2018 13:00:00||ÇALIK HOLDİNG|10.40.25.96|||110000438408|96
01.10.2018 13:00:00||ÇALIK HOLDİNG|10.40.25.96|||110000438408|87
01.10.2018 13:00:00||ÇALIK HOLDİNG|10.40.25.96|||110000438408|125
01.10.2018 13:00:00||ÇALIK HOLDİNG|10.40.25.96|||110000438408|96
01.10.2018 13:00:00||ÇALIK HOLDİNG|10.40.25.96|||110000438408|240
01.10.2018 13:00:00||ÇALIK HOLDİNG|10.40.25.96|||110000438408|250
01.10.2018 13:00:00||ÇALIK HOLDİNG|10.40.25.96|||110000438408|86
01.10.2018 13:00:00||ÇALIK HOLDİNG|10.40.25.96|||110000438408|86
01.10.2018 13:00:00||ÇALIK HOLDİNG|10.40.25.96|||110000438408|95
01.10.2018 13:00:00||ÇALIK HOLDİNG|10.40.25.96|||110000438408|86
01.10.2018 13:00:00||ÇALIK HOLDİNG|10.40.25.96|||110000438408|95
01.10.2018 13:00:00||ÇALIK HOLDİNG|10.40.25.96|||110000438408|86
01.10.2018 13:00:00||ÇALIK HOLDİNG|10.40.25.97|||110000438408|95
01.10.2018 13:00:00||ÇALIK HOLDİNG|10.40.25.97|||110000438408|76
01.10.2018 13:00:00||ÇALIK HOLDİNG|10.40.25.97|||110000438408|86
01.10.2018 13:00:00||ÇALIK HOLDİNG|10.40.25.97|||110000438408|76
01.10.2018 13:00:00||ÇALIK HOLDİNG|10.40.25.97|||110000438408|283
01.10.2018 13:00:00||ÇALIK HOLDİNG|10.40.25.98|||110000438408|48
01.10.2018 13:00:00||ÇALIK HOLDİNG|10.40.25.98|||110000438408|151
01.10.2018 13:00:00||ÇALIK HOLDİNG|10.40.25.98|||110000438408|151
01.10.2018 13:00:00||ÇALIK HOLDİNG|10.40.25.98|||110000438408|151
01.10.2018 13:00:00||ÇALIK HOLDİNG|10.40.25.98|||110000438408|151
01.10.2018 13:00:00||ÇALIK HOLDİNG|10.40.25.98|||110000438408|58
01.10.2018 13:00:00||ÇALIK HOLDİNG|10.40.25.98|||110000438408|199
01.10.2018 13:00:00||ÇALIK HOLDİNG|10.40.25.98|||110000438408|170
01.10.2018 13:00:00||ÇALIK HOLDİNG|10.40.25.98|||110000438408|161
01.10.2018 13:00:00||ÇALIK HOLDİNG|10.40.25.98|||110000438408|199
01.10.2018 13:00:00||ÇALIK HOLDİNG|10.40.25.98|||110000438408|67
01.10.2018 13:00:00||ÇALIK HOLDİNG|10.40.25.98|||110000438408|283
01.10.2018 13:00:00||ÇALIK HOLDİNG|10.40.25.99|||110000438408|68
01.10.2018 13:00:00||ÇALIK HOLDİNG|10.40.25.99|||110000438408|63
01.10.2018 13:00:00||FIBABANKA|10.40.24.51|||101571767266|20
01.10.2018 13:00:00||FIBABANKA|10.40.24.51|||101571767266|73
01.10.2018 13:00:00||FIBABANKA|10.40.24.51|||101571767266|105
01.10.2018 13:00:00||FIBABANKA|10.40.24.51|||101571767266|146
01.10.2018 13:00:00||FIBABANKA|10.40.24.51|||101571767266|30
01.10.2018 13:00:00||FIBABANKA|10.40.24.51|||101571767266|30
01.10.2018 13:00:00||FIBABANKA|10.40.24.52|||101571767266|10
01.10.2018 13:00:00||FIBABANKA|10.40.24.53|||101571767266|30
01.10.2018 13:00:00||FIBABANKA|10.40.24.53|||101571767266|62
01.10.2018 13:00:00||FIBABANKA|10.40.24.53|||101571767266|189
01.10.2018 13:00:00||FIBABANKA|10.40.24.53|||101571767266|221
01.10.2018 13:00:00||FIBABANKA|10.40.24.54|||101571767266|201
01.10.2018 13:00:00||FIBABANKA|10.40.24.54|||101571767266|203
01.10.2018 13:00:00||FIBABANKA|10.40.24.55|||101571767266|90
01.10.2018 13:00:00||FIBABANKA|10.40.24.55|||101571767266|23
01.10.2018 13:00:00||FIBABANKA|10.40.24.56|||101571767266|11
01.10.2018 13:00:00||FIBABANKA|10.40.24.56|||101571767266|193
01.10.2018 13:00:00||FIBABANKA|10.40.24.57|||101571767266|94
01.10.2018 13:00:00||FIBABANKA|10.40.24.57|||101571767266|84
01.10.2018 13:00:00||FIBABANKA|10.40.24.57|||101571767266|84
01.10.2018 13:00:00||FIBABANKA|10.40.24.59|||101571767266|73
01.10.2018 13:00:00||FIBABANKA|10.40.24.59|||101571767266|126
01.10.2018 13:00:00||FIBABANKA|10.40.24.59|||101571767266|73
01.10.2018 13:00:00||FIBABANKA|10.40.24.59|||101571767266|52
01.10.2018 13:00:00||FIBABANKA|10.40.24.59|||101571767266|136
01.10.2018 13:00:00||FIBABANKA|10.40.24.59|||101571767266|73
01.10.2018 13:00:00||FIBABANKA|10.40.24.59|||101571767266|62
01.10.2018 13:00:00||FIBABANKA|10.40.24.59|||101571767266|168
01.10.2018 13:00:00||FIBABANKA|10.40.24.59|||101571767266|62
01.10.2018 13:00:00||FIBABANKA|10.40.24.60|||101571767266|126
01.10.2018 13:00:00||FIBABANKA|10.40.24.60|||101571767266|52
01.10.2018 13:00:00||FIBABANKA|10.40.24.60|||101571767266|41
01.10.2018 13:00:00||FIBABANKA|10.40.24.60|||101571767266|105
01.10.2018 13:00:00||FIBABANKA|10.40.24.60|||101571767266|62
01.10.2018 13:00:00||FIBABANKA|10.40.24.72|||101571767266|146
01.10.2018 13:00:00||FIBABANKA|10.40.24.72|||101571767266|73
01.10.2018 13:00:00||FIBABANKA|10.40.24.72|||101571767266|30
01.10.2018 13:00:00||FIBABANKA|10.40.24.72|||101571767266|41
01.10.2018 13:00:00||FIBABANKA|10.40.24.74|||101571767266|30
01.10.2018 13:00:00||FIBABANKA|10.40.24.74|||101571767266|30
01.10.2018 13:00:00||FIBABANKA|10.40.24.75|||101571767266|200
01.10.2018 13:00:00||FIBABANKA|10.40.24.75|||101571767266|168
01.10.2018 13:00:00||FIBABANKA|10.40.24.75|||101571767266|168
01.10.2018 13:00:00||FIBABANKA|10.40.24.76|||101571767266|41
01.10.2018 13:00:00||FIBABANKA|10.40.24.76|||101571767266|73
01.10.2018 13:00:00||FIBABANKA|10.40.24.76|||101571767266|10
01.10.2018 13:00:00||FIBABANKA|10.40.25.51|||101571767266|20
01.10.2018 13:00:00||FIBABANKA|10.40.25.51|||101571767266|106
01.10.2018 13:00:00||FIBABANKA|10.40.25.51|||101571767266|125
01.10.2018 13:00:00||FIBABANKA|10.40.25.51|||101571767266|39
01.10.2018 13:00:00||FIBABANKA|10.40.25.51|||101571767266|39
01.10.2018 13:00:00||FIBABANKA|10.40.25.51|||101571767266|68
01.10.2018 13:00:00||FIBABANKA|10.40.25.52|||101571767266|10
01.10.2018 13:00:00||FIBABANKA|10.40.25.52|||101571767266|68
01.10.2018 13:00:00||FIBABANKA|10.40.25.53|||101571767266|39
01.10.2018 13:00:00||FIBABANKA|10.40.25.53|||101571767266|48
01.10.2018 13:00:00||FIBABANKA|10.40.25.53|||101571767266|154
01.10.2018 13:00:00||FIBABANKA|10.40.25.53|||101571767266|154
01.10.2018 13:00:00||FIBABANKA|10.40.25.54|||101571767266|90
01.10.2018 13:00:00||FIBABANKA|10.40.25.54|||101571767266|157
01.10.2018 13:00:00||FIBABANKA|10.40.25.55|||101571767266|86
01.10.2018 13:00:00||FIBABANKA|10.40.25.55|||101571767266|23
01.10.2018 13:00:00||FIBABANKA|10.40.25.56|||101571767266|11
01.10.2018 13:00:00||FIBABANKA|10.40.25.56|||101571767266|186
01.10.2018 13:00:00||FIBABANKA|10.40.25.57|||101571767266|87
01.10.2018 13:00:00||FIBABANKA|10.40.25.57|||101571767266|87
01.10.2018 13:00:00||FIBABANKA|10.40.25.57|||101571767266|87
01.10.2018 13:00:00||FIBABANKA|10.40.25.59|||101571767266|68
01.10.2018 13:00:00||FIBABANKA|10.40.25.59|||101571767266|87
01.10.2018 13:00:00||FIBABANKA|10.40.25.59|||101571767266|77
01.10.2018 13:00:00||FIBABANKA|10.40.25.59|||101571767266|39
01.10.2018 13:00:00||FIBABANKA|10.40.25.59|||101571767266|125
01.10.2018 13:00:00||FIBABANKA|10.40.25.59|||101571767266|68
01.10.2018 13:00:00||FIBABANKA|10.40.25.59|||101571767266|58
01.10.2018 13:00:00||FIBABANKA|10.40.25.59|||101571767266|154
01.10.2018 13:00:00||FIBABANKA|10.40.25.59|||101571767266|58
01.10.2018 13:00:00||FIBABANKA|10.40.25.60|||101571767266|106
01.10.2018 13:00:00||FIBABANKA|10.40.25.60|||101571767266|30
01.10.2018 13:00:00||FIBABANKA|10.40.25.60|||101571767266|106
01.10.2018 13:00:00||FIBABANKA|10.40.25.60|||101571767266|39
01.10.2018 13:00:00||FIBABANKA|10.40.25.72|||101571767266|68
01.10.2018 13:00:00||FIBABANKA|10.40.25.72|||101571767266|39
01.10.2018 13:00:00||FIBABANKA|10.40.25.72|||101571767266|30
01.10.2018 13:00:00||FIBABANKA|10.40.25.74|||101571767266|39
01.10.2018 13:00:00||FIBABANKA|10.40.25.74|||101571767266|30
01.10.2018 13:00:00||FIBABANKA|10.40.25.74|||101571767266|39
01.10.2018 13:00:00||FIBABANKA|10.40.25.74|||101571767266|39
01.10.2018 13:00:00||FIBABANKA|10.40.25.74|||101571767266|39
01.10.2018 13:00:00||FIBABANKA|10.40.25.75|||101571767266|10
01.10.2018 13:00:00||FIBABANKA|10.40.25.75|||101571767266|125
01.10.2018 13:00:00||FIBABANKA|10.40.25.75|||101571767266|154
01.10.2018 13:00:00||FIBABANKA|10.40.25.75|||101571767266|173
01.10.2018 13:00:00||FIBABANKA|10.40.25.75|||101571767266|182
01.10.2018 13:00:00||FIBABANKA|10.40.25.76|||101571767266|10
01.10.2018 13:00:00||FIBABANKA|10.40.25.76|||101571767266|58
01.10.2018 13:00:00||FIBABANKA|10.40.25.76|||101571767266|39
01.10.2018 13:00:00||FIBABANKA|10.40.25.76|||101571767266|10
01.10.2018 13:00:00||FIBABANKA|10.40.26.51|||101571767266|10
01.10.2018 13:00:00||FIBABANKA|10.40.26.51|||101571767266|20
01.10.2018 13:00:00||FIBABANKA|10.40.26.51|||101571767266|105
01.10.2018 13:00:00||FIBABANKA|10.40.26.51|||101571767266|133
01.10.2018 13:00:00||FIBABANKA|10.40.26.51|||101571767266|67
01.10.2018 13:00:00||FIBABANKA|10.40.26.51|||101571767266|30
01.10.2018 13:00:00||FIBABANKA|10.40.26.51|||101571767266|30
01.10.2018 13:00:00||FIBABANKA|10.40.26.52|||101571767266|30
01.10.2018 13:00:00||FIBABANKA|10.40.26.52|||101571767266|86
01.10.2018 13:00:00||FIBABANKA|10.40.26.52|||101571767266|30
01.10.2018 13:00:00||FIBABANKA|10.40.26.53|||101571767266|58
01.10.2018 13:00:00||FIBABANKA|10.40.26.53|||101571767266|48
01.10.2018 13:00:00||FIBABANKA|10.40.26.53|||101571767266|151
01.10.2018 13:00:00||FIBABANKA|10.40.26.53|||101571767266|170
01.10.2018 13:00:00||FIBABANKA|10.40.26.54|||101571767266|165
01.10.2018 13:00:00||FIBABANKA|10.40.26.54|||101571767266|133
01.10.2018 13:00:00||FIBABANKA|10.40.26.55|||101571767266|109
01.10.2018 13:00:00||FIBABANKA|10.40.26.57|||101571767266|86
01.10.2018 13:00:00||FIBABANKA|10.40.26.57|||101571767266|86
01.10.2018 13:00:00||FIBABANKA|10.40.26.57|||101571767266|76
01.10.2018 13:00:00||FIBABANKA|10.40.26.72|||101571767266|30
01.10.2018 13:00:00||FIBABANKA|10.40.26.72|||101571767266|146
01.10.2018 13:00:00||FIBABANKA|10.40.26.72|||101571767266|69
01.10.2018 13:00:00||FIBABANKA|10.40.26.72|||101571767266|30
01.10.2018 13:00:00||FIBABANKA|10.40.26.73|||101571767266|40
01.10.2018 13:00:00||FIBABANKA|10.40.26.73|||101571767266|69
01.10.2018 13:00:00||FIBABANKA|10.40.26.73|||101571767266|30
01.10.2018 13:00:00||FIBABANKA|10.40.26.73|||101571767266|40
01.10.2018 13:00:00||FIBABANKA|10.40.26.74|||101571767266|78
01.10.2018 13:00:00||FIBABANKA|10.40.26.74|||101571767266|175
01.10.2018 13:00:00||FIBABANKA|10.40.26.74|||101571767266|185
01.10.2018 13:00:00||FIBABANKA|10.40.26.74|||101571767266|175
01.10.2018 13:00:00||FIBABANKA|10.40.26.77|||101571767266|175
01.10.2018 13:00:00||FIBABANKA|10.40.26.79|||101571767266|10
01.10.2018 13:00:00||FIBABANKA|10.40.26.79|||101571767266|10
01.10.2018 13:00:00||FIBABANKA|10.40.27.51|||101571767266|30
01.10.2018 13:00:00||FIBABANKA|10.40.27.51|||101571767266|20
01.10.2018 13:00:00||FIBABANKA|10.40.27.51|||101571767266|101
01.10.2018 13:00:00||FIBABANKA|10.40.27.51|||101571767266|132
01.10.2018 13:00:00||FIBABANKA|10.40.27.51|||101571767266|71
01.10.2018 13:00:00||FIBABANKA|10.40.27.51|||101571767266|40
01.10.2018 13:00:00||FIBABANKA|10.40.27.51|||101571767266|40
01.10.2018 13:00:00||FIBABANKA|10.40.27.52|||101571767266|50
01.10.2018 13:00:00||FIBABANKA|10.40.27.52|||101571767266|60
01.10.2018 13:00:00||FIBABANKA|10.40.27.52|||101571767266|71
01.10.2018 13:00:00||FIBABANKA|10.40.27.53|||101571767266|71
01.10.2018 13:00:00||FIBABANKA|10.40.27.53|||101571767266|60
01.10.2018 13:00:00||FIBABANKA|10.40.27.53|||101571767266|173
01.10.2018 13:00:00||FIBABANKA|10.40.27.53|||101571767266|183
01.10.2018 13:00:00||FIBABANKA|10.40.27.54|||101571767266|181
01.10.2018 13:00:00||FIBABANKA|10.40.27.54|||101571767266|130
01.10.2018 13:00:00||FIBABANKA|10.40.27.55|||101571767266|115
01.10.2018 13:00:00||FIBABANKA|10.40.27.57|||101571767266|81
01.10.2018 13:00:00||FIBABANKA|10.40.27.57|||101571767266|81
01.10.2018 13:00:00||FIBABANKA|10.40.27.57|||101571767266|81
01.10.2018 13:00:00||FIBABANKA|10.40.27.72|||101571767266|50
01.10.2018 13:00:00||FIBABANKA|10.40.27.72|||101571767266|40
01.10.2018 13:00:00||FIBABANKA|10.40.27.72|||101571767266|142
01.10.2018 13:00:00||FIBABANKA|10.40.27.72|||101571767266|60
01.10.2018 13:00:00||FIBABANKA|10.40.27.72|||101571767266|30
01.10.2018 13:00:00||FIBABANKA|10.40.27.73|||101571767266|30
01.10.2018 13:00:00||FIBABANKA|10.40.27.73|||101571767266|95
01.10.2018 13:00:00||FIBABANKA|10.40.27.73|||101571767266|30
01.10.2018 13:00:00||FIBABANKA|10.40.27.73|||101571767266|20
01.10.2018 13:00:00||FIBABANKA|10.40.27.73|||101571767266|39
01.10.2018 13:00:00||FIBABANKA|10.40.27.73|||101571767266|39
01.10.2018 13:00:00||FIBABANKA|10.40.27.73|||101571767266|39
01.10.2018 13:00:00||FIBABANKA|10.40.27.73|||101571767266|39
01.10.2018 13:00:00||FIBABANKA|10.40.27.74|||101571767266|76
01.10.2018 13:00:00||FIBABANKA|10.40.27.74|||101571767266|142
01.10.2018 13:00:00||FIBABANKA|10.40.27.74|||101571767266|170
01.10.2018 13:00:00||FIBABANKA|10.40.27.74|||101571767266|170
01.10.2018 13:00:00||FIBABANKA|10.40.27.75|||101571767266|10
01.10.2018 13:00:00||FIBABANKA|10.40.27.75|||101571767266|10
01.10.2018 13:00:00||FIBABANKA|10.40.27.77|||101571767266|161
01.10.2018 13:00:00||FIBABANKA|10.40.27.77|||101571767266|151
01.10.2018 13:00:00||FIBABANKA|10.40.27.79|||101571767266|10
01.10.2018 13:00:00||HAVAŞ|10.40.24.45|||110000479675|69
01.10.2018 13:00:00||HAVAŞ|10.40.24.45|||110000479675|157
01.10.2018 13:00:00||HAVAŞ|10.40.24.45|||110000479675|128
01.10.2018 13:00:00||HAVAŞ|10.40.24.45|||110000479675|89
01.10.2018 13:00:00||HAVAŞ|10.40.24.46|||110000479675|20
01.10.2018 13:00:00||HAVAŞ|10.40.24.46|||110000479675|20
01.10.2018 13:00:00||HAVAŞ|10.40.24.46|||110000479675|10
01.10.2018 13:00:00||HAVAŞ|10.40.24.46|||110000479675|10
01.10.2018 13:00:00||HAVAŞ|10.40.24.46|||110000479675|10
01.10.2018 13:00:00||HAVAŞ|10.40.24.46|||110000479675|10
01.10.2018 13:00:00||HAVAŞ|10.40.24.46|||110000479675|10
01.10.2018 13:00:00||HAVAŞ|10.40.24.46|||110000479675|62
01.10.2018 13:00:00||HAVAŞ|10.40.24.46|||110000479675|62
01.10.2018 13:00:00||HAVAŞ|10.40.24.46|||110000479675|115
01.10.2018 13:00:00||HAVAŞ|10.40.24.46|||110000479675|73
01.10.2018 13:00:00||HAVAŞ|10.40.24.46|||110000479675|84
01.10.2018 13:00:00||HAVAŞ|10.40.24.47|||110000479675|30
01.10.2018 13:00:00||HAVAŞ|10.40.24.47|||110000479675|30
01.10.2018 13:00:00||HAVAŞ|10.40.24.47|||110000479675|221
01.10.2018 13:00:00||HAVAŞ|10.40.24.47|||110000479675|94
01.10.2018 13:00:00||HAVAŞ|10.40.24.47|||110000479675|52
01.10.2018 13:00:00||HAVAŞ|10.40.24.47|||110000479675|52
01.10.2018 13:00:00||HAVAŞ|10.40.24.47|||110000479675|115
01.10.2018 13:00:00||HAVAŞ|10.40.24.47|||110000479675|168
01.10.2018 13:00:00||HAVAŞ|10.40.24.47|||110000479675|105
01.10.2018 13:00:00||HAVAŞ|10.40.24.47|||110000479675|105
01.10.2018 13:00:00||HAVAŞ|10.40.24.47|||110000479675|94
01.10.2018 13:00:00||HAVAŞ|10.40.24.48|||110000479675|790
01.10.2018 13:00:00||HAVAŞ|10.40.24.48|||110000479675|759
01.10.2018 13:00:00||HAVAŞ|10.40.24.48|||110000479675|790
01.10.2018 13:00:00||HAVAŞ|10.40.25.45|||110000479675|48
01.10.2018 13:00:00||HAVAŞ|10.40.25.45|||110000479675|96
01.10.2018 13:00:00||HAVAŞ|10.40.25.45|||110000479675|125
01.10.2018 13:00:00||HAVAŞ|10.40.25.45|||110000479675|87
01.10.2018 13:00:00||HAVAŞ|10.40.25.46|||110000479675|10
01.10.2018 13:00:00||HAVAŞ|10.40.25.46|||110000479675|10
01.10.2018 13:00:00||HAVAŞ|10.40.25.46|||110000479675|20
01.10.2018 13:00:00||HAVAŞ|10.40.25.46|||110000479675|20
01.10.2018 13:00:00||HAVAŞ|10.40.25.46|||110000479675|10
01.10.2018 13:00:00||HAVAŞ|10.40.25.46|||110000479675|48
01.10.2018 13:00:00||HAVAŞ|10.40.25.46|||110000479675|58
01.10.2018 13:00:00||HAVAŞ|10.40.25.46|||110000479675|96
01.10.2018 13:00:00||HAVAŞ|10.40.25.46|||110000479675|68
01.10.2018 13:00:00||HAVAŞ|10.40.25.46|||110000479675|77
01.10.2018 13:00:00||HAVAŞ|10.40.25.46|||110000479675|68
01.10.2018 13:00:00||HAVAŞ|10.40.25.47|||110000479675|68
01.10.2018 13:00:00||HAVAŞ|10.40.25.47|||110000479675|68
01.10.2018 13:00:00||HAVAŞ|10.40.25.47|||110000479675|221
01.10.2018 13:00:00||HAVAŞ|10.40.25.47|||110000479675|58
01.10.2018 13:00:00||HAVAŞ|10.40.25.47|||110000479675|87
01.10.2018 13:00:00||HAVAŞ|10.40.25.47|||110000479675|87
01.10.2018 13:00:00||HAVAŞ|10.40.25.47|||110000479675|87
01.10.2018 13:00:00||HAVAŞ|10.40.25.47|||110000479675|10
01.10.2018 13:00:00||HAVAŞ|10.40.25.47|||110000479675|173
01.10.2018 13:00:00||HAVAŞ|10.40.25.47|||110000479675|87
01.10.2018 13:00:00||HAVAŞ|10.40.25.47|||110000479675|87
01.10.2018 13:00:00||HAVAŞ|10.40.25.47|||110000479675|87
01.10.2018 13:00:00||HAVAŞ|10.40.25.48|||110000479675|710
01.10.2018 13:00:00||HAVAŞ|10.40.25.48|||110000479675|719
01.10.2018 13:00:00||HAVAŞ|10.40.25.48|||110000479675|767
01.10.2018 13:00:00||MARS CINEMA|10.40.24.203|||110000472614|59
01.10.2018 13:00:00||MARS CINEMA|10.40.24.203|||110000472614|89
01.10.2018 13:00:00||MARS CINEMA|10.40.24.203|||110000472614|98
01.10.2018 13:00:00||MARS CINEMA|10.40.24.203|||110000472614|98
01.10.2018 13:00:00||MARS CINEMA|10.40.24.203|||110000472614|138
01.10.2018 13:00:00||MARS CINEMA|10.40.24.203|||110000472614|147
01.10.2018 13:00:00||MARS CINEMA|10.40.24.203|||110000472614|167
01.10.2018 13:00:00||MARS CINEMA|10.40.24.203|||110000472614|167
01.10.2018 13:00:00||MARS CINEMA|10.40.24.203|||110000472614|98
01.10.2018 13:00:00||MARS CINEMA|10.40.24.203|||110000472614|98
01.10.2018 13:00:00||MARS CINEMA|10.40.24.203|||110000472614|89
01.10.2018 13:00:00||MARS CINEMA|10.40.24.203|||110000472614|186
01.10.2018 13:00:00||MARS CINEMA|10.40.24.204|||110000472614|108
01.10.2018 13:00:00||MARS CINEMA|10.40.24.204|||110000472614|89
01.10.2018 13:00:00||MARS CINEMA|10.40.24.204|||110000472614|89
01.10.2018 13:00:00||MARS CINEMA|10.40.24.204|||110000472614|20
01.10.2018 13:00:00||MARS CINEMA|10.40.24.204|||110000472614|89
01.10.2018 13:00:00||MARS CINEMA|10.40.24.204|||110000472614|20
01.10.2018 13:00:00||MARS CINEMA|10.40.24.204|||110000472614|10
01.10.2018 13:00:00||MARS CINEMA|10.40.24.204|||110000472614|40
01.10.2018 13:00:00||MARS CINEMA|10.40.24.204|||110000472614|89
01.10.2018 13:00:00||MARS CINEMA|10.40.24.204|||110000472614|118
01.10.2018 13:00:00||MARS CINEMA|10.40.24.204|||110000472614|49
01.10.2018 13:00:00||MARS CINEMA|10.40.24.204|||110000472614|89
01.10.2018 13:00:00||MARS CINEMA|10.40.24.204|||110000472614|108
01.10.2018 13:00:00||MARS CINEMA|10.40.24.204|||110000472614|79
01.10.2018 13:00:00||MARS CINEMA|10.40.24.206|||110000472614|40
01.10.2018 13:00:00||MARS CINEMA|10.40.24.206|||110000472614|40
01.10.2018 13:00:00||MARS CINEMA|10.40.24.206|||110000472614|49
01.10.2018 13:00:00||MARS CINEMA|10.40.24.206|||110000472614|30
01.10.2018 13:00:00||MARS CINEMA|10.40.24.206|||110000472614|30
01.10.2018 13:00:00||MARS CINEMA|10.40.24.206|||110000472614|30
01.10.2018 13:00:00||MARS CINEMA|10.40.24.206|||110000472614|196
01.10.2018 13:00:00||MARS CINEMA|10.40.24.206|||110000472614|128
01.10.2018 13:00:00||MARS CINEMA|10.40.24.206|||110000472614|20
01.10.2018 13:00:00||MARS CINEMA|10.40.24.206|||110000472614|89
01.10.2018 13:00:00||MARS CINEMA|10.40.24.206|||110000472614|79
01.10.2018 13:00:00||MARS CINEMA|10.40.25.203|||110000472614|135
01.10.2018 13:00:00||MARS CINEMA|10.40.25.203|||110000472614|68
01.10.2018 13:00:00||MARS CINEMA|10.40.25.203|||110000472614|164
01.10.2018 13:00:00||MARS CINEMA|10.40.25.203|||110000472614|87
01.10.2018 13:00:00||MARS CINEMA|10.40.25.203|||110000472614|87
01.10.2018 13:00:00||MARS CINEMA|10.40.25.203|||110000472614|106
01.10.2018 13:00:00||MARS CINEMA|10.40.25.203|||110000472614|116
01.10.2018 13:00:00||MARS CINEMA|10.40.25.203|||110000472614|144
01.10.2018 13:00:00||MARS CINEMA|10.40.25.203|||110000472614|87
01.10.2018 13:00:00||MARS CINEMA|10.40.25.203|||110000472614|87
01.10.2018 13:00:00||MARS CINEMA|10.40.25.203|||110000472614|58
01.10.2018 13:00:00||MARS CINEMA|10.40.25.203|||110000472614|182
01.10.2018 13:00:00||MARS CINEMA|10.40.25.204|||110000472614|106
01.10.2018 13:00:00||MARS CINEMA|10.40.25.204|||110000472614|68
01.10.2018 13:00:00||MARS CINEMA|10.40.25.204|||110000472614|77
01.10.2018 13:00:00||MARS CINEMA|10.40.25.204|||110000472614|96
01.10.2018 13:00:00||MARS CINEMA|10.40.25.204|||110000472614|20
01.10.2018 13:00:00||MARS CINEMA|10.40.25.204|||110000472614|20
01.10.2018 13:00:00||MARS CINEMA|10.40.25.204|||110000472614|30
01.10.2018 13:00:00||MARS CINEMA|10.40.25.204|||110000472614|39
01.10.2018 13:00:00||MARS CINEMA|10.40.25.204|||110000472614|87
01.10.2018 13:00:00||MARS CINEMA|10.40.25.204|||110000472614|106
01.10.2018 13:00:00||MARS CINEMA|10.40.25.204|||110000472614|96
01.10.2018 13:00:00||MARS CINEMA|10.40.25.204|||110000472614|116
01.10.2018 13:00:00||MARS CINEMA|10.40.25.204|||110000472614|77
01.10.2018 13:00:00||MARS CINEMA|10.40.25.204|||110000472614|77
01.10.2018 13:00:00||MARS CINEMA|10.40.25.206|||110000472614|39
01.10.2018 13:00:00||MARS CINEMA|10.40.25.206|||110000472614|39
01.10.2018 13:00:00||MARS CINEMA|10.40.25.206|||110000472614|39
01.10.2018 13:00:00||MARS CINEMA|10.40.25.206|||110000472614|20
01.10.2018 13:00:00||MARS CINEMA|10.40.25.206|||110000472614|20
01.10.2018 13:00:00||MARS CINEMA|10.40.25.206|||110000472614|30
01.10.2018 13:00:00||MARS CINEMA|10.40.25.206|||110000472614|58
01.10.2018 13:00:00||MARS CINEMA|10.40.25.206|||110000472614|39
01.10.2018 13:00:00||MARS CINEMA|10.40.25.206|||110000472614|77
01.10.2018 13:00:00||MARS CINEMA|10.40.25.206|||110000472614|77
01.10.2018 13:00:00||PEGASUS|10.40.26.62|||110000423831|86
01.10.2018 13:00:00||PEGASUS|10.40.26.62|||110000423831|10
01.10.2018 13:00:00||PEGASUS|10.40.26.62|||110000423831|180
01.10.2018 13:00:00||PEGASUS|10.40.26.63|||110000423831|105
01.10.2018 13:00:00||PEGASUS|10.40.26.63|||110000423831|274
01.10.2018 13:00:00||PEGASUS|10.40.26.63|||110000423831|105
01.10.2018 13:00:00||PEGASUS|10.40.26.63|||110000423831|86
01.10.2018 13:00:00||PEGASUS|10.40.26.63|||110000423831|67
01.10.2018 13:00:00||PEGASUS|10.40.26.63|||110000423831|123
01.10.2018 13:00:00||PEGASUS|10.40.26.63|||110000423831|58
01.10.2018 13:00:00||PEGASUS|10.40.26.63|||110000423831|95
01.10.2018 13:00:00||PEGASUS|10.40.26.63|||110000423831|30
01.10.2018 13:00:00||PEGASUS|10.40.26.63|||110000423831|58
01.10.2018 13:00:00||PEGASUS|10.40.26.63|||110000423831|20
01.10.2018 13:00:00||PEGASUS|10.40.26.63|||110000423831|209
01.10.2018 13:00:00||PEGASUS|10.40.26.63|||110000423831|133
01.10.2018 13:00:00||PEGASUS|10.40.26.63|||110000423831|48
01.10.2018 13:00:00||PEGASUS|10.40.26.63|||110000423831|142
01.10.2018 13:00:00||PEGASUS|10.40.26.63|||110000423831|39
01.10.2018 13:00:00||PEGASUS|10.40.26.63|||110000423831|58
01.10.2018 13:00:00||PEGASUS|10.40.26.63|||110000423831|58
01.10.2018 13:00:00||PEGASUS|10.40.26.63|||110000423831|39
01.10.2018 13:00:00||PEGASUS|10.40.26.64|||110000423831|76
01.10.2018 13:00:00||PEGASUS|10.40.26.64|||110000423831|76
01.10.2018 13:00:00||PEGASUS|10.40.26.66|||110000423831|56
01.10.2018 13:00:00||PEGASUS|10.40.26.66|||110000423831|47
01.10.2018 13:00:00||PEGASUS|10.40.26.67|||110000423831|30
01.10.2018 13:00:00||PEGASUS|10.40.26.67|||110000423831|321
01.10.2018 13:00:00||PEGASUS|10.40.26.67|||110000423831|321
01.10.2018 13:00:00||PEGASUS|10.40.26.67|||110000423831|58
01.10.2018 13:00:00||PEGASUS|10.40.26.67|||110000423831|39
01.10.2018 13:00:00||PEGASUS|10.40.26.67|||110000423831|161
01.10.2018 13:00:00||PEGASUS|10.40.26.67|||110000423831|67
01.10.2018 13:00:00||PEGASUS|10.40.26.67|||110000423831|321
01.10.2018 13:00:00||PEGASUS|10.40.26.68|||110000423831|95
01.10.2018 13:00:00||PEGASUS|10.40.26.68|||110000423831|86
01.10.2018 13:00:00||PEGASUS|10.40.26.68|||110000423831|86
01.10.2018 13:00:00||PEGASUS|10.40.26.68|||110000423831|48
01.10.2018 13:00:00||PEGASUS|10.40.26.81|||110000423831|418
01.10.2018 13:00:00||PEGASUS|10.40.26.81|||110000423831|438
01.10.2018 13:00:00||PEGASUS|10.40.26.81|||110000423831|447
01.10.2018 13:00:00||PEGASUS|10.40.26.82|||110000423831|205
01.10.2018 13:00:00||PEGASUS|10.40.26.82|||110000423831|108
01.10.2018 13:00:00||PEGASUS|10.40.26.82|||110000423831|78
01.10.2018 13:00:00||PEGASUS|10.40.26.82|||110000423831|146
01.10.2018 13:00:00||PEGASUS|10.40.26.82|||110000423831|137
01.10.2018 13:00:00||PEGASUS|10.40.26.82|||110000423831|137
01.10.2018 13:00:00||PEGASUS|10.40.26.82|||110000423831|175
01.10.2018 13:00:00||PEGASUS|10.40.26.82|||110000423831|30
01.10.2018 13:00:00||PEGASUS|10.40.26.82|||110000423831|40
01.10.2018 13:00:00||PEGASUS|10.40.26.82|||110000423831|20
01.10.2018 13:00:00||PEGASUS|10.40.26.82|||110000423831|69
01.10.2018 13:00:00||PEGASUS|10.40.26.82|||110000423831|49
01.10.2018 13:00:00||PEGASUS|10.40.26.82|||110000423831|40
01.10.2018 13:00:00||PEGASUS|10.40.26.83|||110000423831|525
01.10.2018 13:00:00||PEGASUS|10.40.26.83|||110000423831|49
01.10.2018 13:00:00||PEGASUS|10.40.26.83|||110000423831|389
01.10.2018 13:00:00||PEGASUS|10.40.26.83|||110000423831|146
01.10.2018 13:00:00||PEGASUS|10.40.26.83|||110000423831|98
01.10.2018 13:00:00||PEGASUS|10.40.26.83|||110000423831|525
01.10.2018 13:00:00||PEGASUS|10.40.26.83|||110000423831|108
01.10.2018 13:00:00||PEGASUS|10.40.26.83|||110000423831|535
01.10.2018 13:00:00||PEGASUS|10.40.26.84|||110000423831|40
01.10.2018 13:00:00||PEGASUS|10.40.26.84|||110000423831|178
01.10.2018 13:00:00||PEGASUS|10.40.26.85|||110000423831|23
01.10.2018 13:00:00||PEGASUS|10.40.26.85|||110000423831|96
01.10.2018 13:00:00||PEGASUS|10.40.26.86|||110000423831|350
01.10.2018 13:00:00||PEGASUS|10.40.26.86|||110000423831|127
01.10.2018 13:00:00||PEGASUS|10.40.26.86|||110000423831|340
01.10.2018 13:00:00||PEGASUS|10.40.26.86|||110000423831|49
01.10.2018 13:00:00||PEGASUS|10.40.26.86|||110000423831|30
01.10.2018 13:00:00||PEGASUS|10.40.26.86|||110000423831|340
01.10.2018 13:00:00||PEGASUS|10.40.26.86|||110000423831|40
01.10.2018 13:00:00||PEGASUS|10.40.26.86|||110000423831|49
01.10.2018 13:00:00||PEGASUS|10.40.26.87|||110000423831|88
01.10.2018 13:00:00||PEGASUS|10.40.26.87|||110000423831|88
01.10.2018 13:00:00||PEGASUS|10.40.26.87|||110000423831|88
01.10.2018 13:00:00||PEGASUS|10.40.26.87|||110000423831|20
01.10.2018 13:00:00||PEGASUS|10.40.27.63|||110000423831|91
01.10.2018 13:00:00||PEGASUS|10.40.27.63|||110000423831|60
01.10.2018 13:00:00||PEGASUS|10.40.27.63|||110000423831|71
01.10.2018 13:00:00||PEGASUS|10.40.27.63|||110000423831|50
01.10.2018 13:00:00||PEGASUS|10.40.27.63|||110000423831|60
01.10.2018 13:00:00||PEGASUS|10.40.27.63|||110000423831|60
01.10.2018 13:00:00||PEGASUS|10.40.27.63|||110000423831|81
01.10.2018 13:00:00||PEGASUS|10.40.27.63|||110000423831|81
01.10.2018 13:00:00||PEGASUS|10.40.27.63|||110000423831|81
01.10.2018 13:00:00||PEGASUS|10.40.27.63|||110000423831|213
01.10.2018 13:00:00||PEGASUS|10.40.27.63|||110000423831|60
01.10.2018 13:00:00||PEGASUS|10.40.27.63|||110000423831|60
01.10.2018 13:00:00||PEGASUS|10.40.27.63|||110000423831|71
01.10.2018 13:00:00||PEGASUS|10.40.27.63|||110000423831|91
01.10.2018 13:00:00||PEGASUS|10.40.27.63|||110000423831|71
01.10.2018 13:00:00||PEGASUS|10.40.27.63|||110000423831|60
01.10.2018 13:00:00||PEGASUS|10.40.27.63|||110000423831|81
01.10.2018 13:00:00||PEGASUS|10.40.27.64|||110000423831|71
01.10.2018 13:00:00||PEGASUS|10.40.27.64|||110000423831|71
01.10.2018 13:00:00||PEGASUS|10.40.27.64|||110000423831|275
01.10.2018 13:00:00||PEGASUS|10.40.27.64|||110000423831|295
01.10.2018 13:00:00||PEGASUS|10.40.27.64|||110000423831|264
01.10.2018 13:00:00||PEGASUS|10.40.27.64|||110000423831|346
01.10.2018 13:00:00||PEGASUS|10.40.27.64|||110000423831|305
01.10.2018 13:00:00||PEGASUS|10.40.27.64|||110000423831|326
01.10.2018 13:00:00||PEGASUS|10.40.27.64|||110000423831|275
01.10.2018 13:00:00||PEGASUS|10.40.27.64|||110000423831|295
01.10.2018 13:00:00||PEGASUS|10.40.27.64|||110000423831|264
01.10.2018 13:00:00||PEGASUS|10.40.27.64|||110000423831|275
01.10.2018 13:00:00||PEGASUS|10.40.27.64|||110000423831|254
01.10.2018 13:00:00||PEGASUS|10.40.27.64|||110000423831|254
01.10.2018 13:00:00||PEGASUS|10.40.27.66|||110000423831|42
01.10.2018 13:00:00||PEGASUS|10.40.27.66|||110000423831|57
01.10.2018 13:00:00||PEGASUS|10.40.27.67|||110000423831|50
01.10.2018 13:00:00||PEGASUS|10.40.27.67|||110000423831|366
01.10.2018 13:00:00||PEGASUS|10.40.27.67|||110000423831|71
01.10.2018 13:00:00||PEGASUS|10.40.27.67|||110000423831|132
01.10.2018 13:00:00||PEGASUS|10.40.27.67|||110000423831|10
01.10.2018 13:00:00||PEGASUS|10.40.27.67|||110000423831|346
01.10.2018 13:00:00||PEGASUS|10.40.27.67|||110000423831|40
01.10.2018 13:00:00||PEGASUS|10.40.27.67|||110000423831|346
01.10.2018 13:00:00||PEGASUS|10.40.27.68|||110000423831|91
01.10.2018 13:00:00||PEGASUS|10.40.27.68|||110000423831|81
01.10.2018 13:00:00||PEGASUS|10.40.27.68|||110000423831|91
01.10.2018 13:00:00||PEGASUS|10.40.27.68|||110000423831|60
01.10.2018 13:00:00||PEGASUS|10.40.27.81|||110000423831|471
01.10.2018 13:00:00||PEGASUS|10.40.27.81|||110000423831|424
01.10.2018 13:00:00||PEGASUS|10.40.27.81|||110000423831|387
01.10.2018 13:00:00||PEGASUS|10.40.27.82|||110000423831|208
01.10.2018 13:00:00||PEGASUS|10.40.27.82|||110000423831|30
01.10.2018 13:00:00||PEGASUS|10.40.27.82|||110000423831|95
01.10.2018 13:00:00||PEGASUS|10.40.27.82|||110000423831|76
01.10.2018 13:00:00||PEGASUS|10.40.27.82|||110000423831|142
01.10.2018 13:00:00||PEGASUS|10.40.27.82|||110000423831|114
01.10.2018 13:00:00||PEGASUS|10.40.27.82|||110000423831|161
01.10.2018 13:00:00||PEGASUS|10.40.27.82|||110000423831|114
01.10.2018 13:00:00||PEGASUS|10.40.27.82|||110000423831|58
01.10.2018 13:00:00||PEGASUS|10.40.27.82|||110000423831|67
01.10.2018 13:00:00||PEGASUS|10.40.27.82|||110000423831|48
01.10.2018 13:00:00||PEGASUS|10.40.27.82|||110000423831|30
01.10.2018 13:00:00||PEGASUS|10.40.27.82|||110000423831|58
01.10.2018 13:00:00||PEGASUS|10.40.27.82|||110000423831|39
01.10.2018 13:00:00||PEGASUS|10.40.27.83|||110000423831|555
01.10.2018 13:00:00||PEGASUS|10.40.27.83|||110000423831|67
01.10.2018 13:00:00||PEGASUS|10.40.27.83|||110000423831|480
01.10.2018 13:00:00||PEGASUS|10.40.27.83|||110000423831|95
01.10.2018 13:00:00||PEGASUS|10.40.27.83|||110000423831|142
01.10.2018 13:00:00||PEGASUS|10.40.27.83|||110000423831|76
01.10.2018 13:00:00||PEGASUS|10.40.27.83|||110000423831|471
01.10.2018 13:00:00||PEGASUS|10.40.27.83|||110000423831|67
01.10.2018 13:00:00||PEGASUS|10.40.27.84|||110000423831|166
01.10.2018 13:00:00||PEGASUS|10.40.27.84|||110000423831|39
01.10.2018 13:00:00||PEGASUS|10.40.27.85|||110000423831|90
01.10.2018 13:00:00||PEGASUS|10.40.27.85|||110000423831|22
01.10.2018 13:00:00||PEGASUS|10.40.27.86|||110000423831|321
01.10.2018 13:00:00||PEGASUS|10.40.27.86|||110000423831|321
01.10.2018 13:00:00||PEGASUS|10.40.27.86|||110000423831|151
01.10.2018 13:00:00||PEGASUS|10.40.27.86|||110000423831|67
01.10.2018 13:00:00||PEGASUS|10.40.27.86|||110000423831|39
01.10.2018 13:00:00||PEGASUS|10.40.27.86|||110000423831|20
01.10.2018 13:00:00||PEGASUS|10.40.27.86|||110000423831|330
01.10.2018 13:00:00||PEGASUS|10.40.27.87|||110000423831|86
01.10.2018 13:00:00||PEGASUS|10.40.27.87|||110000423831|86
01.10.2018 13:00:00||PEGASUS|10.40.27.87|||110000423831|86
01.10.2018 13:00:00||PEGASUS|10.40.27.87|||110000423831|20
01.10.2018 13:00:00||PETKIM|10.40.25.87|||110000437354|89
01.10.2018 13:00:00||PETKIM|10.40.25.87|||110000437354|48
01.10.2018 13:00:00||PWC|10.40.24.66|||110000433262|94
01.10.2018 13:00:00||PWC|10.40.24.66|||110000433262|10
01.10.2018 13:00:00||PWC|10.40.24.66|||110000433262|221
01.10.2018 13:00:00||PWC|10.40.24.66|||110000433262|221
01.10.2018 13:00:00||PWC|10.40.24.66|||110000433262|30
01.10.2018 13:00:00||PWC|10.40.24.66|||110000433262|52
01.10.2018 13:00:00||PWC|10.40.24.66|||110000433262|52
01.10.2018 13:00:00||PWC|10.40.24.66|||110000433262|62
01.10.2018 13:00:00||PWC|10.40.24.66|||110000433262|30
01.10.2018 13:00:00||PWC|10.40.24.66|||110000433262|41
01.10.2018 13:00:00||PWC|10.40.24.66|||110000433262|474
01.10.2018 13:00:00||PWC|10.40.24.67|||110000433262|10
01.10.2018 13:00:00||PWC|10.40.24.67|||110000433262|10
01.10.2018 13:00:00||PWC|10.40.24.67|||110000433262|400
01.10.2018 13:00:00||PWC|10.40.24.67|||110000433262|30
01.10.2018 13:00:00||PWC|10.40.24.67|||110000433262|73
01.10.2018 13:00:00||PWC|10.40.24.67|||110000433262|126
01.10.2018 13:00:00||PWC|10.40.24.68|||110000433262|105
01.10.2018 13:00:00||PWC|10.40.24.68|||110000433262|146
01.10.2018 13:00:00||PWC|10.40.24.68|||110000433262|73
01.10.2018 13:00:00||PWC|10.40.24.68|||110000433262|73
01.10.2018 13:00:00||PWC|10.40.24.68|||110000433262|157
01.10.2018 13:00:00||PWC|10.40.25.67|||110000433262|77
01.10.2018 13:00:00||PWC|10.40.25.67|||110000433262|87
01.10.2018 13:00:00||PWC|10.40.25.67|||110000433262|307
01.10.2018 13:00:00||PWC|10.40.25.67|||110000433262|240
01.10.2018 13:00:00||PWC|10.40.25.67|||110000433262|230
01.10.2018 13:00:00||PWC|10.40.25.67|||110000433262|240
01.10.2018 13:00:00||PWC|10.40.25.67|||110000433262|48
01.10.2018 13:00:00||PWC|10.40.25.67|||110000433262|30
01.10.2018 13:00:00||PWC|10.40.25.67|||110000433262|116
01.10.2018 13:00:00||PWC|10.40.25.68|||110000433262|125
01.10.2018 13:00:00||PWC|10.40.25.68|||110000433262|182
01.10.2018 13:00:00||PWC|10.40.25.68|||110000433262|374
01.10.2018 13:00:00||PWC|10.40.25.68|||110000433262|68
01.10.2018 13:00:00||PWC|10.40.25.68|||110000433262|77
01.10.2018 13:00:00||PWC|10.40.25.68|||110000433262|144
