02.10.2018 01:00:00||AKTİFBANK|10.40.24.128|||110000438458|148
02.10.2018 01:00:00||AKTİFBANK|10.40.24.128|||110000438458|69
02.10.2018 01:00:00||AKTİFBANK|10.40.24.128|||110000438458|99
02.10.2018 01:00:00||AKTİFBANK|10.40.24.128|||110000438458|40
02.10.2018 01:00:00||AKTİFBANK|10.40.24.128|||110000438458|69
02.10.2018 01:00:00||AKTİFBANK|10.40.24.128|||110000438458|40
02.10.2018 01:00:00||AKTİFBANK|10.40.24.129|||110000438458|99
02.10.2018 01:00:00||AKTİFBANK|10.40.24.129|||110000438458|69
02.10.2018 01:00:00||AKTİFBANK|10.40.24.129|||110000438458|99
02.10.2018 01:00:00||AKTİFBANK|10.40.24.129|||110000438458|109
02.10.2018 01:00:00||AKTİFBANK|10.40.24.129|||110000438458|50
02.10.2018 01:00:00||AKTİFBANK|10.40.24.129|||110000438458|69
02.10.2018 01:00:00||AKTİFBANK|10.40.24.129|||110000438458|69
02.10.2018 01:00:00||AKTİFBANK|10.40.24.129|||110000438458|89
02.10.2018 01:00:00||AKTİFBANK|10.40.24.129|||110000438458|79
02.10.2018 01:00:00||AKTİFBANK|10.40.24.129|||110000438458|138
02.10.2018 01:00:00||AKTİFBANK|10.40.24.130|||110000438458|50
02.10.2018 01:00:00||AKTİFBANK|10.40.24.130|||110000438458|40
02.10.2018 01:00:00||AKTİFBANK|10.40.24.130|||110000438458|79
02.10.2018 01:00:00||AKTİFBANK|10.40.24.130|||110000438458|40
02.10.2018 01:00:00||AKTİFBANK|10.40.24.130|||110000438458|60
02.10.2018 01:00:00||AKTİFBANK|10.40.24.130|||110000438458|79
02.10.2018 01:00:00||AKTİFBANK|10.40.24.130|||110000438458|89
02.10.2018 01:00:00||AKTİFBANK|10.40.24.130|||110000438458|40
02.10.2018 01:00:00||AKTİFBANK|10.40.24.130|||110000438458|128
02.10.2018 01:00:00||AKTİFBANK|10.40.24.130|||110000438458|109
02.10.2018 01:00:00||AKTİFBANK|10.40.24.131|||110000438458|10
02.10.2018 01:00:00||AKTİFBANK|10.40.24.131|||110000438458|99
02.10.2018 01:00:00||AKTİFBANK|10.40.24.131|||110000438458|90
02.10.2018 01:00:00||AKTİFBANK|10.40.24.131|||110000438458|110
02.10.2018 01:00:00||AKTİFBANK|10.40.24.131|||110000438458|119
02.10.2018 01:00:00||AKTİFBANK|10.40.24.131|||110000438458|30
02.10.2018 01:00:00||AKTİFBANK|10.40.24.131|||110000438458|159
02.10.2018 01:00:00||AKTİFBANK|10.40.24.131|||110000438458|60
02.10.2018 01:00:00||AKTİFBANK|10.40.24.131|||110000438458|110
02.10.2018 01:00:00||AKTİFBANK|10.40.24.132|||110000438458|40
02.10.2018 01:00:00||AKTİFBANK|10.40.24.132|||110000438458|80
02.10.2018 01:00:00||AKTİFBANK|10.40.24.132|||110000438458|50
02.10.2018 01:00:00||AKTİFBANK|10.40.24.132|||110000438458|179
02.10.2018 01:00:00||AKTİFBANK|10.40.24.132|||110000438458|70
02.10.2018 01:00:00||AKTİFBANK|10.40.24.133|||110000438458|139
02.10.2018 01:00:00||AKTİFBANK|10.40.24.133|||110000438458|90
02.10.2018 01:00:00||AKTİFBANK|10.40.24.133|||110000438458|119
02.10.2018 01:00:00||AKTİFBANK|10.40.24.133|||110000438458|90
02.10.2018 01:00:00||AKTİFBANK|10.40.24.134|||110000438458|62
02.10.2018 01:00:00||AKTİFBANK|10.40.24.134|||110000438458|31
02.10.2018 01:00:00||AKTİFBANK|10.40.24.135|||110000438458|67
02.10.2018 01:00:00||AKTİFBANK|10.40.24.135|||110000438458|31
02.10.2018 01:00:00||AKTİFBANK|10.40.24.137|||110000438458|3
02.10.2018 01:00:00||AKTİFBANK|10.40.24.137|||110000438458|54
02.10.2018 01:00:00||AKTİFBANK|10.40.24.138|||110000438458|110
02.10.2018 01:00:00||AKTİFBANK|10.40.24.138|||110000438458|119
02.10.2018 01:00:00||AKTİFBANK|10.40.24.138|||110000438458|139
02.10.2018 01:00:00||AKTİFBANK|10.40.24.138|||110000438458|110
02.10.2018 01:00:00||AKTİFBANK|10.40.24.138|||110000438458|30
02.10.2018 01:00:00||AKTİFBANK|10.40.24.138|||110000438458|50
02.10.2018 01:00:00||AKTİFBANK|10.40.24.139|||110000438458|40
02.10.2018 01:00:00||AKTİFBANK|10.40.24.139|||110000438458|30
02.10.2018 01:00:00||AKTİFBANK|10.40.24.139|||110000438458|50
02.10.2018 01:00:00||AKTİFBANK|10.40.24.139|||110000438458|90
02.10.2018 01:00:00||AKTİFBANK|10.40.24.139|||110000438458|60
02.10.2018 01:00:00||AKTİFBANK|10.40.24.139|||110000438458|119
02.10.2018 01:00:00||AKTİFBANK|10.40.24.140|||110000438458|20
02.10.2018 01:00:00||AKTİFBANK|10.40.24.140|||110000438458|80
02.10.2018 01:00:00||AKTİFBANK|10.40.24.140|||110000438458|40
02.10.2018 01:00:00||AKTİFBANK|10.40.24.140|||110000438458|30
02.10.2018 01:00:00||AKTİFBANK|10.40.24.140|||110000438458|30
02.10.2018 01:00:00||AKTİFBANK|10.40.24.140|||110000438458|50
02.10.2018 01:00:00||AKTİFBANK|10.40.24.140|||110000438458|40
02.10.2018 01:00:00||AKTİFBANK|10.40.24.140|||110000438458|20
02.10.2018 01:00:00||AKTİFBANK|10.40.24.140|||110000438458|30
02.10.2018 01:00:00||AKTİFBANK|10.40.24.141|||110000438458|199
02.10.2018 01:00:00||AKTİFBANK|10.40.24.141|||110000438458|50
02.10.2018 01:00:00||AKTİFBANK|10.40.24.141|||110000438458|100
02.10.2018 01:00:00||AKTİFBANK|10.40.24.141|||110000438458|100
02.10.2018 01:00:00||AKTİFBANK|10.40.24.141|||110000438458|70
02.10.2018 01:00:00||AKTİFBANK|10.40.24.141|||110000438458|80
02.10.2018 01:00:00||AKTİFBANK|10.40.24.141|||110000438458|70
02.10.2018 01:00:00||AKTİFBANK|10.40.24.142|||110000438458|70
02.10.2018 01:00:00||AKTİFBANK|10.40.24.142|||110000438458|40
02.10.2018 01:00:00||AKTİFBANK|10.40.24.143|||110000438458|70
02.10.2018 01:00:00||AKTİFBANK|10.40.24.143|||110000438458|268
02.10.2018 01:00:00||AKTİFBANK|10.40.24.143|||110000438458|317
02.10.2018 01:00:00||AKTİFBANK|10.40.24.143|||110000438458|199
02.10.2018 01:00:00||AKTİFBANK|10.40.24.144|||110000438458|80
02.10.2018 01:00:00||AKTİFBANK|10.40.24.144|||110000438458|100
02.10.2018 01:00:00||AKTİFBANK|10.40.24.144|||110000438458|90
02.10.2018 01:00:00||AKTİFBANK|10.40.24.145|||110000438458|90
02.10.2018 01:00:00||AKTİFBANK|10.40.24.145|||110000438458|20
02.10.2018 01:00:00||AKTİFBANK|10.40.24.145|||110000438458|70
02.10.2018 01:00:00||AKTİFBANK|10.40.24.145|||110000438458|90
02.10.2018 01:00:00||AKTİFBANK|10.40.24.145|||110000438458|60
02.10.2018 01:00:00||AKTİFBANK|10.40.24.145|||110000438458|70
02.10.2018 01:00:00||AKTİFBANK|10.40.24.147|||110000438458|90
02.10.2018 01:00:00||AKTİFBANK|10.40.24.148|||110000438458|70
02.10.2018 01:00:00||AKTİFBANK|10.40.24.148|||110000438458|169
02.10.2018 01:00:00||AKTİFBANK|10.40.24.148|||110000438458|80
02.10.2018 01:00:00||AKTİFBANK|10.40.24.148|||110000438458|110
02.10.2018 01:00:00||AKTİFBANK|10.40.24.148|||110000438458|100
02.10.2018 01:00:00||AKTİFBANK|10.40.24.148|||110000438458|90
02.10.2018 01:00:00||AKTİFBANK|10.40.24.148|||110000438458|100
02.10.2018 01:00:00||AKTİFBANK|10.40.24.148|||110000438458|100
02.10.2018 01:00:00||AKTİFBANK|10.40.24.148|||110000438458|70
02.10.2018 01:00:00||AKTİFBANK|10.40.24.148|||110000438458|70
02.10.2018 01:00:00||AKTİFBANK|10.40.24.148|||110000438458|20
02.10.2018 01:00:00||AKTİFBANK|10.40.24.148|||110000438458|80
02.10.2018 01:00:00||AKTİFBANK|10.40.24.149|||110000438458|80
02.10.2018 01:00:00||AKTİFBANK|10.40.24.149|||110000438458|119
02.10.2018 01:00:00||AKTİFBANK|10.40.24.149|||110000438458|100
02.10.2018 01:00:00||AKTİFBANK|10.40.24.149|||110000438458|60
02.10.2018 01:00:00||AKTİFBANK|10.40.24.149|||110000438458|50
02.10.2018 01:00:00||AKTİFBANK|10.40.24.149|||110000438458|90
02.10.2018 01:00:00||AKTİFBANK|10.40.24.149|||110000438458|149
02.10.2018 01:00:00||AKTİFBANK|10.40.24.149|||110000438458|90
02.10.2018 01:00:00||AKTİFBANK|10.40.24.149|||110000438458|159
02.10.2018 01:00:00||AKTİFBANK|10.40.24.149|||110000438458|110
02.10.2018 01:00:00||AKTİFBANK|10.40.24.149|||110000438458|90
02.10.2018 01:00:00||AKTİFBANK|10.40.24.149|||110000438458|90
02.10.2018 01:00:00||AKTİFBANK|10.40.24.149|||110000438458|80
02.10.2018 01:00:00||AKTİFBANK|10.40.24.149|||110000438458|80
02.10.2018 01:00:00||AKTİFBANK|10.40.24.150|||110000438458|545
02.10.2018 01:00:00||AKTİFBANK|10.40.24.150|||110000438458|535
02.10.2018 01:00:00||AKTİFBANK|10.40.24.150|||110000438458|555
02.10.2018 01:00:00||AKTİFBANK|10.40.24.151|||110000438458|555
02.10.2018 01:00:00||AKTİFBANK|10.40.24.151|||110000438458|545
02.10.2018 01:00:00||AKTİFBANK|10.40.24.151|||110000438458|506
02.10.2018 01:00:00||AKTİFBANK|10.40.24.152|||110000438458|20
02.10.2018 01:00:00||AKTİFBANK|10.40.24.152|||110000438458|50
02.10.2018 01:00:00||AKTİFBANK|10.40.24.152|||110000438458|110
02.10.2018 01:00:00||AKTİFBANK|10.40.24.152|||110000438458|60
02.10.2018 01:00:00||AKTİFBANK|10.40.24.152|||110000438458|110
02.10.2018 01:00:00||AKTİFBANK|10.40.24.152|||110000438458|100
02.10.2018 01:00:00||AKTİFBANK|10.40.24.152|||110000438458|298
02.10.2018 01:00:00||AKTİFBANK|10.40.24.152|||110000438458|70
02.10.2018 01:00:00||AKTİFBANK|10.40.24.152|||110000438458|100
02.10.2018 01:00:00||AKTİFBANK|10.40.24.152|||110000438458|30
02.10.2018 01:00:00||AKTİFBANK|10.40.24.152|||110000438458|70
02.10.2018 01:00:00||AKTİFBANK|10.40.24.152|||110000438458|30
02.10.2018 01:00:00||AKTİFBANK|10.40.24.153|||110000438458|10
02.10.2018 01:00:00||AKTİFBANK|10.40.24.153|||110000438458|90
02.10.2018 01:00:00||AKTİFBANK|10.40.24.153|||110000438458|70
02.10.2018 01:00:00||AKTİFBANK|10.40.24.153|||110000438458|70
02.10.2018 01:00:00||AKTİFBANK|10.40.24.154|||110000438458|70
02.10.2018 01:00:00||AKTİFBANK|10.40.24.154|||110000438458|20
02.10.2018 01:00:00||AKTİFBANK|10.40.24.154|||110000438458|10
02.10.2018 01:00:00||AKTİFBANK|10.40.24.154|||110000438458|10
02.10.2018 01:00:00||AKTİFBANK|10.40.24.154|||110000438458|10
02.10.2018 01:00:00||AKTİFBANK|10.40.24.154|||110000438458|10
02.10.2018 01:00:00||AKTİFBANK|10.40.24.155|||110000438458|110
02.10.2018 01:00:00||AKTİFBANK|10.40.24.155|||110000438458|129
02.10.2018 01:00:00||AKTİFBANK|10.40.24.155|||110000438458|80
02.10.2018 01:00:00||AKTİFBANK|10.40.24.155|||110000438458|110
02.10.2018 01:00:00||AKTİFBANK|10.40.24.155|||110000438458|100
02.10.2018 01:00:00||AKTİFBANK|10.40.24.157|||110000438458|30
02.10.2018 01:00:00||AKTİFBANK|10.40.24.157|||110000438458|80
02.10.2018 01:00:00||AKTİFBANK|10.40.24.157|||110000438458|70
02.10.2018 01:00:00||AKTİFBANK|10.40.24.157|||110000438458|40
02.10.2018 01:00:00||AKTİFBANK|10.40.24.157|||110000438458|80
02.10.2018 01:00:00||AKTİFBANK|10.40.24.157|||110000438458|60
02.10.2018 01:00:00||AKTİFBANK|10.40.24.158|||110000438458|110
02.10.2018 01:00:00||AKTİFBANK|10.40.24.158|||110000438458|110
02.10.2018 01:00:00||AKTİFBANK|10.40.24.158|||110000438458|129
02.10.2018 01:00:00||AKTİFBANK|10.40.24.158|||110000438458|80
02.10.2018 01:00:00||AKTİFBANK|10.40.24.158|||110000438458|80
02.10.2018 01:00:00||AKTİFBANK|10.40.24.158|||110000438458|110
02.10.2018 01:00:00||AKTİFBANK|10.40.24.159|||110000438458|129
02.10.2018 01:00:00||AKTİFBANK|10.40.24.159|||110000438458|61
02.10.2018 01:00:00||AKTİFBANK|10.40.24.159|||110000438458|184
02.10.2018 01:00:00||AKTİFBANK|10.40.24.160|||110000438458|10
02.10.2018 01:00:00||AKTİFBANK|10.40.24.160|||110000438458|10
02.10.2018 01:00:00||AKTİFBANK|10.40.24.160|||110000438458|91
02.10.2018 01:00:00||AKTİFBANK|10.40.24.160|||110000438458|102
02.10.2018 01:00:00||AKTİFBANK|10.40.24.161|||110000438458|184
02.10.2018 01:00:00||AKTİFBANK|10.40.24.161|||110000438458|81
02.10.2018 01:00:00||AKTİFBANK|10.40.24.161|||110000438458|40
02.10.2018 01:00:00||AKTİFBANK|10.40.24.161|||110000438458|30
02.10.2018 01:00:00||AKTİFBANK|10.40.24.161|||110000438458|30
02.10.2018 01:00:00||AKTİFBANK|10.40.24.161|||110000438458|20
02.10.2018 01:00:00||AKTİFBANK|10.40.24.161|||110000438458|91
02.10.2018 01:00:00||AKTİFBANK|10.40.24.162|||110000438458|61
02.10.2018 01:00:00||AKTİFBANK|10.40.24.162|||110000438458|10
02.10.2018 01:00:00||AKTİFBANK|10.40.24.162|||110000438458|81
02.10.2018 01:00:00||AKTİFBANK|10.40.24.162|||110000438458|51
02.10.2018 01:00:00||AKTİFBANK|10.40.24.162|||110000438458|40
02.10.2018 01:00:00||AKTİFBANK|10.40.24.162|||110000438458|40
02.10.2018 01:00:00||AKTİFBANK|10.40.24.162|||110000438458|71
02.10.2018 01:00:00||AKTİFBANK|10.40.24.162|||110000438458|30
02.10.2018 01:00:00||AKTİFBANK|10.40.24.162|||110000438458|10
02.10.2018 01:00:00||AKTİFBANK|10.40.24.162|||110000438458|51
02.10.2018 01:00:00||AKTİFBANK|10.40.24.162|||110000438458|40
02.10.2018 01:00:00||AKTİFBANK|10.40.24.163|||110000438458|30
02.10.2018 01:00:00||AKTİFBANK|10.40.24.163|||110000438458|71
02.10.2018 01:00:00||AKTİFBANK|10.40.24.164|||110000438458|61
02.10.2018 01:00:00||AKTİFBANK|10.40.24.164|||110000438458|337
02.10.2018 01:00:00||AKTİFBANK|10.40.24.164|||110000438458|71
02.10.2018 01:00:00||AKTİFBANK|10.40.24.164|||110000438458|224
02.10.2018 01:00:00||AKTİFBANK|10.40.24.164|||110000438458|214
02.10.2018 01:00:00||AKTİFBANK|10.40.24.165|||110000438458|81
02.10.2018 01:00:00||AKTİFBANK|10.40.24.165|||110000438458|81
02.10.2018 01:00:00||AKTİFBANK|10.40.24.165|||110000438458|122
02.10.2018 01:00:00||AKTİFBANK|10.40.24.166|||110000438458|81
02.10.2018 01:00:00||AKTİFBANK|10.40.24.166|||110000438458|91
02.10.2018 01:00:00||AKTİFBANK|10.40.24.166|||110000438458|10
02.10.2018 01:00:00||AKTİFBANK|10.40.24.166|||110000438458|10
02.10.2018 01:00:00||AKTİFBANK|10.40.24.166|||110000438458|10
02.10.2018 01:00:00||AKTİFBANK|10.40.24.168|||110000438458|91
02.10.2018 01:00:00||AKTİFBANK|10.40.24.168|||110000438458|40
02.10.2018 01:00:00||AKTİFBANK|10.40.24.168|||110000438458|81
02.10.2018 01:00:00||AKTİFBANK|10.40.24.168|||110000438458|71
02.10.2018 01:00:00||AKTİFBANK|10.40.24.168|||110000438458|71
02.10.2018 01:00:00||AKTİFBANK|10.40.24.168|||110000438458|30
02.10.2018 01:00:00||AKTİFBANK|10.40.24.169|||110000438458|61
02.10.2018 01:00:00||AKTİFBANK|10.40.24.169|||110000438458|91
02.10.2018 01:00:00||AKTİFBANK|10.40.24.169|||110000438458|71
02.10.2018 01:00:00||AKTİFBANK|10.40.24.169|||110000438458|81
02.10.2018 01:00:00||AKTİFBANK|10.40.24.170|||110000438458|61
02.10.2018 01:00:00||AKTİFBANK|10.40.24.170|||110000438458|61
02.10.2018 01:00:00||AKTİFBANK|10.40.24.170|||110000438458|337
02.10.2018 01:00:00||AKTİFBANK|10.40.24.170|||110000438458|81
02.10.2018 01:00:00||AKTİFBANK|10.40.24.170|||110000438458|102
02.10.2018 01:00:00||AKTİFBANK|10.40.24.170|||110000438458|61
02.10.2018 01:00:00||AKTİFBANK|10.40.24.171|||110000438458|2
02.10.2018 01:00:00||AKTİFBANK|10.40.24.171|||110000438458|11
02.10.2018 01:00:00||AKTİFBANK|10.40.24.172|||110000438458|61
02.10.2018 01:00:00||AKTİFBANK|10.40.24.172|||110000438458|35
02.10.2018 01:00:00||AKTİFBANK|10.40.24.173|||110000438458|49
02.10.2018 01:00:00||AKTİFBANK|10.40.24.173|||110000438458|47
02.10.2018 01:00:00||AKTİFBANK|10.40.24.174|||110000438458|58
02.10.2018 01:00:00||AKTİFBANK|10.40.24.174|||110000438458|2
02.10.2018 01:00:00||AKTİFBANK|10.40.24.178|||110000438458|562
02.10.2018 01:00:00||AKTİFBANK|10.40.24.178|||110000438458|542
02.10.2018 01:00:00||AKTİFBANK|10.40.24.178|||110000438458|532
02.10.2018 01:00:00||AKTİFBANK|10.40.24.179|||110000438458|368
02.10.2018 01:00:00||AKTİFBANK|10.40.24.179|||110000438458|378
02.10.2018 01:00:00||AKTİFBANK|10.40.24.179|||110000438458|368
02.10.2018 01:00:00||AKTİFBANK|10.40.24.186|||110000438458|91
02.10.2018 01:00:00||AKTİFBANK|10.40.24.186|||110000438458|20
02.10.2018 01:00:00||AKTİFBANK|10.40.24.186|||110000438458|61
02.10.2018 01:00:00||AKTİFBANK|10.40.24.186|||110000438458|40
02.10.2018 01:00:00||AKTİFBANK|10.40.25.128|||110000438458|71
02.10.2018 01:00:00||AKTİFBANK|10.40.25.128|||110000438458|91
02.10.2018 01:00:00||AKTİFBANK|10.40.25.128|||110000438458|40
02.10.2018 01:00:00||AKTİFBANK|10.40.25.128|||110000438458|71
02.10.2018 01:00:00||AKTİFBANK|10.40.25.129|||110000438458|81
02.10.2018 01:00:00||AKTİFBANK|10.40.25.129|||110000438458|81
02.10.2018 01:00:00||AKTİFBANK|10.40.25.129|||110000438458|132
02.10.2018 01:00:00||AKTİFBANK|10.40.25.129|||110000438458|101
02.10.2018 01:00:00||AKTİFBANK|10.40.25.129|||110000438458|40
02.10.2018 01:00:00||AKTİFBANK|10.40.25.129|||110000438458|91
02.10.2018 01:00:00||AKTİFBANK|10.40.25.129|||110000438458|71
02.10.2018 01:00:00||AKTİFBANK|10.40.25.129|||110000438458|81
02.10.2018 01:00:00||AKTİFBANK|10.40.25.129|||110000438458|138
02.10.2018 01:00:00||AKTİFBANK|10.40.25.129|||110000438458|99
02.10.2018 01:00:00||AKTİFBANK|10.40.25.130|||110000438458|69
02.10.2018 01:00:00||AKTİFBANK|10.40.25.130|||110000438458|50
02.10.2018 01:00:00||AKTİFBANK|10.40.25.130|||110000438458|69
02.10.2018 01:00:00||AKTİFBANK|10.40.25.130|||110000438458|30
02.10.2018 01:00:00||AKTİFBANK|10.40.25.130|||110000438458|60
02.10.2018 01:00:00||AKTİFBANK|10.40.25.130|||110000438458|99
02.10.2018 01:00:00||AKTİFBANK|10.40.25.130|||110000438458|79
02.10.2018 01:00:00||AKTİFBANK|10.40.25.130|||110000438458|60
02.10.2018 01:00:00||AKTİFBANK|10.40.25.130|||110000438458|119
02.10.2018 01:00:00||AKTİFBANK|10.40.25.130|||110000438458|99
02.10.2018 01:00:00||AKTİFBANK|10.40.25.131|||110000438458|89
02.10.2018 01:00:00||AKTİFBANK|10.40.25.131|||110000438458|99
02.10.2018 01:00:00||AKTİFBANK|10.40.25.131|||110000438458|109
02.10.2018 01:00:00||AKTİFBANK|10.40.25.131|||110000438458|79
02.10.2018 01:00:00||AKTİFBANK|10.40.25.131|||110000438458|79
02.10.2018 01:00:00||AKTİFBANK|10.40.25.131|||110000438458|20
02.10.2018 01:00:00||AKTİFBANK|10.40.25.131|||110000438458|119
02.10.2018 01:00:00||AKTİFBANK|10.40.25.131|||110000438458|50
02.10.2018 01:00:00||AKTİFBANK|10.40.25.132|||110000438458|60
02.10.2018 01:00:00||AKTİFBANK|10.40.25.132|||110000438458|69
02.10.2018 01:00:00||AKTİFBANK|10.40.25.132|||110000438458|79
02.10.2018 01:00:00||AKTİFBANK|10.40.25.132|||110000438458|168
02.10.2018 01:00:00||AKTİFBANK|10.40.25.132|||110000438458|60
02.10.2018 01:00:00||AKTİFBANK|10.40.25.133|||110000438458|148
02.10.2018 01:00:00||AKTİFBANK|10.40.25.133|||110000438458|276
02.10.2018 01:00:00||AKTİFBANK|10.40.25.133|||110000438458|109
02.10.2018 01:00:00||AKTİFBANK|10.40.25.133|||110000438458|60
02.10.2018 01:00:00||AKTİFBANK|10.40.25.133|||110000438458|89
02.10.2018 01:00:00||AKTİFBANK|10.40.25.134|||110000438458|63
02.10.2018 01:00:00||AKTİFBANK|10.40.25.134|||110000438458|31
02.10.2018 01:00:00||AKTİFBANK|10.40.25.135|||110000438458|30
02.10.2018 01:00:00||AKTİFBANK|10.40.25.135|||110000438458|63
02.10.2018 01:00:00||AKTİFBANK|10.40.25.137|||110000438458|58
02.10.2018 01:00:00||AKTİFBANK|10.40.25.138|||110000438458|89
02.10.2018 01:00:00||AKTİFBANK|10.40.25.138|||110000438458|69
02.10.2018 01:00:00||AKTİFBANK|10.40.25.138|||110000438458|79
02.10.2018 01:00:00||AKTİFBANK|10.40.25.138|||110000438458|128
02.10.2018 01:00:00||AKTİFBANK|10.40.25.138|||110000438458|40
02.10.2018 01:00:00||AKTİFBANK|10.40.25.138|||110000438458|10
02.10.2018 01:00:00||AKTİFBANK|10.40.25.139|||110000438458|40
02.10.2018 01:00:00||AKTİFBANK|10.40.25.139|||110000438458|10
02.10.2018 01:00:00||AKTİFBANK|10.40.25.139|||110000438458|10
02.10.2018 01:00:00||AKTİFBANK|10.40.25.139|||110000438458|20
02.10.2018 01:00:00||AKTİFBANK|10.40.25.139|||110000438458|69
02.10.2018 01:00:00||AKTİFBANK|10.40.25.139|||110000438458|79
02.10.2018 01:00:00||AKTİFBANK|10.40.25.139|||110000438458|99
02.10.2018 01:00:00||AKTİFBANK|10.40.25.140|||110000438458|79
02.10.2018 01:00:00||AKTİFBANK|10.40.25.140|||110000438458|69
02.10.2018 01:00:00||AKTİFBANK|10.40.25.140|||110000438458|30
02.10.2018 01:00:00||AKTİFBANK|10.40.25.140|||110000438458|30
02.10.2018 01:00:00||AKTİFBANK|10.40.25.140|||110000438458|30
02.10.2018 01:00:00||AKTİFBANK|10.40.25.141|||110000438458|40
02.10.2018 01:00:00||AKTİFBANK|10.40.25.141|||110000438458|99
02.10.2018 01:00:00||AKTİFBANK|10.40.25.141|||110000438458|99
02.10.2018 01:00:00||AKTİFBANK|10.40.25.141|||110000438458|99
02.10.2018 01:00:00||AKTİFBANK|10.40.25.141|||110000438458|89
02.10.2018 01:00:00||AKTİFBANK|10.40.25.141|||110000438458|69
02.10.2018 01:00:00||AKTİFBANK|10.40.25.142|||110000438458|30
02.10.2018 01:00:00||AKTİFBANK|10.40.25.143|||110000438458|60
02.10.2018 01:00:00||AKTİFBANK|10.40.25.143|||110000438458|236
02.10.2018 01:00:00||AKTİFBANK|10.40.25.143|||110000438458|256
02.10.2018 01:00:00||AKTİFBANK|10.40.25.143|||110000438458|305
02.10.2018 01:00:00||AKTİFBANK|10.40.25.144|||110000438458|69
02.10.2018 01:00:00||AKTİFBANK|10.40.25.144|||110000438458|50
02.10.2018 01:00:00||AKTİFBANK|10.40.25.144|||110000438458|60
02.10.2018 01:00:00||AKTİFBANK|10.40.25.145|||110000438458|89
02.10.2018 01:00:00||AKTİFBANK|10.40.25.145|||110000438458|60
02.10.2018 01:00:00||AKTİFBANK|10.40.25.145|||110000438458|60
02.10.2018 01:00:00||AKTİFBANK|10.40.25.145|||110000438458|30
02.10.2018 01:00:00||AKTİFBANK|10.40.25.145|||110000438458|50
02.10.2018 01:00:00||AKTİFBANK|10.40.25.147|||110000438458|89
02.10.2018 01:00:00||AKTİFBANK|10.40.25.148|||110000438458|128
02.10.2018 01:00:00||AKTİFBANK|10.40.25.148|||110000438458|50
02.10.2018 01:00:00||AKTİFBANK|10.40.25.148|||110000438458|99
02.10.2018 01:00:00||AKTİFBANK|10.40.25.148|||110000438458|128
02.10.2018 01:00:00||AKTİFBANK|10.40.25.148|||110000438458|89
02.10.2018 01:00:00||AKTİFBANK|10.40.25.148|||110000438458|79
02.10.2018 01:00:00||AKTİFBANK|10.40.25.148|||110000438458|69
02.10.2018 01:00:00||AKTİFBANK|10.40.25.148|||110000438458|50
02.10.2018 01:00:00||AKTİFBANK|10.40.25.148|||110000438458|79
02.10.2018 01:00:00||AKTİFBANK|10.40.25.148|||110000438458|41
02.10.2018 01:00:00||AKTİFBANK|10.40.25.148|||110000438458|104
02.10.2018 01:00:00||AKTİFBANK|10.40.25.148|||110000438458|62
02.10.2018 01:00:00||AKTİFBANK|10.40.25.149|||110000438458|62
02.10.2018 01:00:00||AKTİFBANK|10.40.25.149|||110000438458|114
02.10.2018 01:00:00||AKTİFBANK|10.40.25.149|||110000438458|94
02.10.2018 01:00:00||AKTİFBANK|10.40.25.149|||110000438458|73
02.10.2018 01:00:00||AKTİFBANK|10.40.25.149|||110000438458|94
02.10.2018 01:00:00||AKTİFBANK|10.40.25.149|||110000438458|41
02.10.2018 01:00:00||AKTİFBANK|10.40.25.149|||110000438458|84
02.10.2018 01:00:00||AKTİFBANK|10.40.25.149|||110000438458|73
02.10.2018 01:00:00||AKTİFBANK|10.40.25.149|||110000438458|136
02.10.2018 01:00:00||AKTİFBANK|10.40.25.149|||110000438458|114
02.10.2018 01:00:00||AKTİFBANK|10.40.25.149|||110000438458|94
02.10.2018 01:00:00||AKTİFBANK|10.40.25.149|||110000438458|94
02.10.2018 01:00:00||AKTİFBANK|10.40.25.149|||110000438458|104
02.10.2018 01:00:00||AKTİFBANK|10.40.25.149|||110000438458|73
02.10.2018 01:00:00||AKTİFBANK|10.40.25.150|||110000438458|608
02.10.2018 01:00:00||AKTİFBANK|10.40.25.150|||110000438458|556
02.10.2018 01:00:00||AKTİFBANK|10.40.25.150|||110000438458|598
02.10.2018 01:00:00||AKTİFBANK|10.40.25.151|||110000438458|577
02.10.2018 01:00:00||AKTİFBANK|10.40.25.151|||110000438458|535
02.10.2018 01:00:00||AKTİFBANK|10.40.25.151|||110000438458|556
02.10.2018 01:00:00||AKTİFBANK|10.40.25.152|||110000438458|125
02.10.2018 01:00:00||AKTİFBANK|10.40.25.152|||110000438458|41
02.10.2018 01:00:00||AKTİFBANK|10.40.25.152|||110000438458|146
02.10.2018 01:00:00||AKTİFBANK|10.40.25.152|||110000438458|73
02.10.2018 01:00:00||AKTİFBANK|10.40.25.152|||110000438458|94
02.10.2018 01:00:00||AKTİFBANK|10.40.25.152|||110000438458|52
02.10.2018 01:00:00||AKTİFBANK|10.40.25.152|||110000438458|94
02.10.2018 01:00:00||AKTİFBANK|10.40.25.152|||110000438458|30
02.10.2018 01:00:00||AKTİFBANK|10.40.25.152|||110000438458|84
02.10.2018 01:00:00||AKTİFBANK|10.40.25.152|||110000438458|30
02.10.2018 01:00:00||AKTİFBANK|10.40.25.153|||110000438458|10
02.10.2018 01:00:00||AKTİFBANK|10.40.25.153|||110000438458|84
02.10.2018 01:00:00||AKTİFBANK|10.40.25.153|||110000438458|62
02.10.2018 01:00:00||AKTİFBANK|10.40.25.153|||110000438458|73
02.10.2018 01:00:00||AKTİFBANK|10.40.25.154|||110000438458|10
02.10.2018 01:00:00||AKTİFBANK|10.40.25.154|||110000438458|10
02.10.2018 01:00:00||AKTİFBANK|10.40.25.154|||110000438458|10
02.10.2018 01:00:00||AKTİFBANK|10.40.25.155|||110000438458|73
02.10.2018 01:00:00||AKTİFBANK|10.40.25.155|||110000438458|94
02.10.2018 01:00:00||AKTİFBANK|10.40.25.155|||110000438458|114
02.10.2018 01:00:00||AKTİFBANK|10.40.25.155|||110000438458|125
02.10.2018 01:00:00||AKTİFBANK|10.40.25.155|||110000438458|114
02.10.2018 01:00:00||AKTİFBANK|10.40.25.157|||110000438458|73
02.10.2018 01:00:00||AKTİFBANK|10.40.25.157|||110000438458|73
02.10.2018 01:00:00||AKTİFBANK|10.40.25.157|||110000438458|73
02.10.2018 01:00:00||AKTİFBANK|10.40.25.157|||110000438458|84
02.10.2018 01:00:00||AKTİFBANK|10.40.25.157|||110000438458|41
02.10.2018 01:00:00||AKTİFBANK|10.40.25.158|||110000438458|125
02.10.2018 01:00:00||AKTİFBANK|10.40.25.158|||110000438458|52
02.10.2018 01:00:00||AKTİFBANK|10.40.25.159|||110000438458|62
02.10.2018 01:00:00||AKTİFBANK|10.40.25.159|||110000438458|10
02.10.2018 01:00:00||AKTİFBANK|10.40.25.159|||110000438458|94
02.10.2018 01:00:00||AKTİFBANK|10.40.25.160|||110000438458|94
02.10.2018 01:00:00||AKTİFBANK|10.40.25.160|||110000438458|114
02.10.2018 01:00:00||AKTİFBANK|10.40.25.161|||110000438458|84
02.10.2018 01:00:00||AKTİFBANK|10.40.25.161|||110000438458|73
02.10.2018 01:00:00||AKTİFBANK|10.40.25.161|||110000438458|41
02.10.2018 01:00:00||AKTİFBANK|10.40.25.161|||110000438458|30
02.10.2018 01:00:00||AKTİFBANK|10.40.25.161|||110000438458|20
02.10.2018 01:00:00||AKTİFBANK|10.40.25.161|||110000438458|52
02.10.2018 01:00:00||AKTİFBANK|10.40.25.162|||110000438458|30
02.10.2018 01:00:00||AKTİFBANK|10.40.25.162|||110000438458|30
02.10.2018 01:00:00||AKTİFBANK|10.40.25.162|||110000438458|62
02.10.2018 01:00:00||AKTİFBANK|10.40.25.162|||110000438458|52
02.10.2018 01:00:00||AKTİFBANK|10.40.25.162|||110000438458|30
02.10.2018 01:00:00||AKTİFBANK|10.40.25.162|||110000438458|41
02.10.2018 01:00:00||AKTİFBANK|10.40.25.163|||110000438458|41
02.10.2018 01:00:00||AKTİFBANK|10.40.25.164|||110000438458|62
02.10.2018 01:00:00||AKTİFBANK|10.40.25.164|||110000438458|293
02.10.2018 01:00:00||AKTİFBANK|10.40.25.164|||110000438458|52
02.10.2018 01:00:00||AKTİFBANK|10.40.25.164|||110000438458|272
02.10.2018 01:00:00||AKTİFBANK|10.40.25.164|||110000438458|283
02.10.2018 01:00:00||AKTİFBANK|10.40.25.165|||110000438458|146
02.10.2018 01:00:00||AKTİFBANK|10.40.25.165|||110000438458|73
02.10.2018 01:00:00||AKTİFBANK|10.40.25.165|||110000438458|73
02.10.2018 01:00:00||AKTİFBANK|10.40.25.165|||110000438458|104
02.10.2018 01:00:00||AKTİFBANK|10.40.25.166|||110000438458|41
02.10.2018 01:00:00||AKTİFBANK|10.40.25.166|||110000438458|94
02.10.2018 01:00:00||AKTİFBANK|10.40.25.168|||110000438458|94
02.10.2018 01:00:00||AKTİFBANK|10.40.25.168|||110000438458|73
02.10.2018 01:00:00||AKTİFBANK|10.40.25.168|||110000438458|52
02.10.2018 01:00:00||AKTİFBANK|10.40.25.168|||110000438458|41
02.10.2018 01:00:00||AKTİFBANK|10.40.25.168|||110000438458|62
02.10.2018 01:00:00||AKTİFBANK|10.40.25.169|||110000438458|94
02.10.2018 01:00:00||AKTİFBANK|10.40.25.169|||110000438458|94
02.10.2018 01:00:00||AKTİFBANK|10.40.25.169|||110000438458|73
02.10.2018 01:00:00||AKTİFBANK|10.40.25.169|||110000438458|104
02.10.2018 01:00:00||AKTİFBANK|10.40.25.170|||110000438458|30
02.10.2018 01:00:00||AKTİFBANK|10.40.25.170|||110000438458|30
02.10.2018 01:00:00||AKTİFBANK|10.40.25.170|||110000438458|241
02.10.2018 01:00:00||AKTİFBANK|10.40.25.170|||110000438458|104
02.10.2018 01:00:00||AKTİFBANK|10.40.25.170|||110000438458|84
02.10.2018 01:00:00||AKTİFBANK|10.40.25.170|||110000438458|114
02.10.2018 01:00:00||AKTİFBANK|10.40.25.171|||110000438458|1
02.10.2018 01:00:00||AKTİFBANK|10.40.25.171|||110000438458|11
02.10.2018 01:00:00||AKTİFBANK|10.40.25.172|||110000438458|27
02.10.2018 01:00:00||AKTİFBANK|10.40.25.172|||110000438458|64
02.10.2018 01:00:00||AKTİFBANK|10.40.25.173|||110000438458|34
02.10.2018 01:00:00||AKTİFBANK|10.40.25.173|||110000438458|64
02.10.2018 01:00:00||AKTİFBANK|10.40.25.174|||110000438458|55
02.10.2018 01:00:00||AKTİFBANK|10.40.25.178|||110000438458|588
02.10.2018 01:00:00||AKTİFBANK|10.40.25.178|||110000438458|588
02.10.2018 01:00:00||AKTİFBANK|10.40.25.178|||110000438458|577
02.10.2018 01:00:00||AKTİFBANK|10.40.25.179|||110000438458|409
02.10.2018 01:00:00||AKTİFBANK|10.40.25.179|||110000438458|346
02.10.2018 01:00:00||AKTİFBANK|10.40.25.179|||110000438458|325
02.10.2018 01:00:00||AKTİFBANK|10.40.25.186|||110000438458|87
02.10.2018 01:00:00||AKTİFBANK|10.40.25.186|||110000438458|20
02.10.2018 01:00:00||AKTİFBANK|10.40.25.186|||110000438458|67
02.10.2018 01:00:00||BOYNER|10.40.26.100|||101367941673|40
02.10.2018 01:00:00||BOYNER|10.40.26.100|||101367941673|17
02.10.2018 01:00:00||BOYNER|10.40.26.101|||101367941673|26
02.10.2018 01:00:00||BOYNER|10.40.26.101|||101367941673|125
02.10.2018 01:00:00||BOYNER|10.40.26.94|||101367941673|88
02.10.2018 01:00:00||BOYNER|10.40.26.94|||101367941673|78
02.10.2018 01:00:00||BOYNER|10.40.26.94|||101367941673|78
02.10.2018 01:00:00||BOYNER|10.40.26.95|||101367941673|88
02.10.2018 01:00:00||BOYNER|10.40.26.95|||101367941673|195
02.10.2018 01:00:00||BOYNER|10.40.26.95|||101367941673|137
02.10.2018 01:00:00||BOYNER|10.40.26.96|||101367941673|30
02.10.2018 01:00:00||BOYNER|10.40.26.96|||101367941673|40
02.10.2018 01:00:00||BOYNER|10.40.26.96|||101367941673|30
02.10.2018 01:00:00||BOYNER|10.40.26.96|||101367941673|40
02.10.2018 01:00:00||BOYNER|10.40.26.96|||101367941673|40
02.10.2018 01:00:00||BOYNER|10.40.26.96|||101367941673|49
02.10.2018 01:00:00||BOYNER|10.40.26.96|||101367941673|175
02.10.2018 01:00:00||BOYNER|10.40.26.96|||101367941673|204
02.10.2018 01:00:00||BOYNER|10.40.26.96|||101367941673|156
02.10.2018 01:00:00||BOYNER|10.40.26.96|||101367941673|175
02.10.2018 01:00:00||BOYNER|10.40.26.97|||101367941673|30
02.10.2018 01:00:00||BOYNER|10.40.26.97|||101367941673|640
02.10.2018 01:00:00||BOYNER|10.40.26.97|||101367941673|630
02.10.2018 01:00:00||BOYNER|10.40.26.97|||101367941673|640
02.10.2018 01:00:00||BOYNER|10.40.26.97|||101367941673|30
02.10.2018 01:00:00||BOYNER|10.40.26.97|||101367941673|40
02.10.2018 01:00:00||BOYNER|10.40.26.97|||101367941673|49
02.10.2018 01:00:00||BOYNER|10.40.26.97|||101367941673|59
02.10.2018 01:00:00||BOYNER|10.40.26.97|||101367941673|30
02.10.2018 01:00:00||BOYNER|10.40.26.97|||101367941673|146
02.10.2018 01:00:00||BOYNER|10.40.26.97|||101367941673|175
02.10.2018 01:00:00||BOYNER|10.40.26.97|||101367941673|166
02.10.2018 01:00:00||BOYNER|10.40.26.97|||101367941673|166
02.10.2018 01:00:00||BOYNER|10.40.26.99|||101367941673|20
02.10.2018 01:00:00||BOYNER|10.40.26.99|||101367941673|108
02.10.2018 01:00:00||BOYNER|10.40.26.99|||101367941673|108
02.10.2018 01:00:00||BOYNER|10.40.26.99|||101367941673|59
02.10.2018 01:00:00||BOYNER|10.40.27.100|||101367941673|16
02.10.2018 01:00:00||BOYNER|10.40.27.100|||101367941673|35
02.10.2018 01:00:00||BOYNER|10.40.27.101|||101367941673|133
02.10.2018 01:00:00||BOYNER|10.40.27.101|||101367941673|28
02.10.2018 01:00:00||BOYNER|10.40.27.94|||101367941673|208
02.10.2018 01:00:00||BOYNER|10.40.27.94|||101367941673|90
02.10.2018 01:00:00||BOYNER|10.40.27.94|||101367941673|90
02.10.2018 01:00:00||BOYNER|10.40.27.94|||101367941673|99
02.10.2018 01:00:00||BOYNER|10.40.27.95|||101367941673|129
02.10.2018 01:00:00||BOYNER|10.40.27.95|||101367941673|129
02.10.2018 01:00:00||BOYNER|10.40.27.95|||101367941673|238
02.10.2018 01:00:00||BOYNER|10.40.27.96|||101367941673|60
02.10.2018 01:00:00||BOYNER|10.40.27.96|||101367941673|50
02.10.2018 01:00:00||BOYNER|10.40.27.96|||101367941673|50
02.10.2018 01:00:00||BOYNER|10.40.27.96|||101367941673|40
02.10.2018 01:00:00||BOYNER|10.40.27.96|||101367941673|40
02.10.2018 01:00:00||BOYNER|10.40.27.96|||101367941673|139
02.10.2018 01:00:00||BOYNER|10.40.27.96|||101367941673|139
02.10.2018 01:00:00||BOYNER|10.40.27.96|||101367941673|169
02.10.2018 01:00:00||BOYNER|10.40.27.96|||101367941673|159
02.10.2018 01:00:00||BOYNER|10.40.27.97|||101367941673|60
02.10.2018 01:00:00||BOYNER|10.40.27.97|||101367941673|653
02.10.2018 01:00:00||BOYNER|10.40.27.97|||101367941673|663
02.10.2018 01:00:00||BOYNER|10.40.27.97|||101367941673|683
02.10.2018 01:00:00||BOYNER|10.40.27.97|||101367941673|50
02.10.2018 01:00:00||BOYNER|10.40.27.97|||101367941673|40
02.10.2018 01:00:00||BOYNER|10.40.27.97|||101367941673|50
02.10.2018 01:00:00||BOYNER|10.40.27.97|||101367941673|30
02.10.2018 01:00:00||BOYNER|10.40.27.97|||101367941673|169
02.10.2018 01:00:00||BOYNER|10.40.27.97|||101367941673|179
02.10.2018 01:00:00||BOYNER|10.40.27.97|||101367941673|198
02.10.2018 01:00:00||BOYNER|10.40.27.97|||101367941673|198
02.10.2018 01:00:00||BOYNER|10.40.27.99|||101367941673|119
02.10.2018 01:00:00||BOYNER|10.40.27.99|||101367941673|99
02.10.2018 01:00:00||BOYNER|10.40.27.99|||101367941673|70
02.10.2018 01:00:00||ÇALIK HOLDİNG|10.40.24.100|||110000438408|30
02.10.2018 01:00:00||ÇALIK HOLDİNG|10.40.24.100|||110000438408|40
02.10.2018 01:00:00||ÇALIK HOLDİNG|10.40.24.101|||110000438408|60
02.10.2018 01:00:00||ÇALIK HOLDİNG|10.40.24.101|||110000438408|109
02.10.2018 01:00:00||ÇALIK HOLDİNG|10.40.24.101|||110000438408|20
02.10.2018 01:00:00||ÇALIK HOLDİNG|10.40.24.101|||110000438408|20
02.10.2018 01:00:00||ÇALIK HOLDİNG|10.40.24.101|||110000438408|40
02.10.2018 01:00:00||ÇALIK HOLDİNG|10.40.24.101|||110000438408|89
02.10.2018 01:00:00||ÇALIK HOLDİNG|10.40.24.101|||110000438408|30
02.10.2018 01:00:00||ÇALIK HOLDİNG|10.40.24.101|||110000438408|10
02.10.2018 01:00:00||ÇALIK HOLDİNG|10.40.24.101|||110000438408|20
02.10.2018 01:00:00||ÇALIK HOLDİNG|10.40.24.101|||110000438408|50
02.10.2018 01:00:00||ÇALIK HOLDİNG|10.40.24.101|||110000438408|30
02.10.2018 01:00:00||ÇALIK HOLDİNG|10.40.24.101|||110000438408|79
02.10.2018 01:00:00||ÇALIK HOLDİNG|10.40.24.101|||110000438408|79
02.10.2018 01:00:00||ÇALIK HOLDİNG|10.40.24.101|||110000438408|99
02.10.2018 01:00:00||ÇALIK HOLDİNG|10.40.24.102|||110000438408|99
02.10.2018 01:00:00||ÇALIK HOLDİNG|10.40.24.102|||110000438408|99
02.10.2018 01:00:00||ÇALIK HOLDİNG|10.40.24.102|||110000438408|138
02.10.2018 01:00:00||ÇALIK HOLDİNG|10.40.24.103|||110000438408|99
02.10.2018 01:00:00||ÇALIK HOLDİNG|10.40.24.103|||110000438408|79
02.10.2018 01:00:00||ÇALIK HOLDİNG|10.40.24.103|||110000438408|79
02.10.2018 01:00:00||ÇALIK HOLDİNG|10.40.24.103|||110000438408|20
02.10.2018 01:00:00||ÇALIK HOLDİNG|10.40.24.103|||110000438408|20
02.10.2018 01:00:00||ÇALIK HOLDİNG|10.40.24.113|||110000438408|207
02.10.2018 01:00:00||ÇALIK HOLDİNG|10.40.24.113|||110000438408|226
02.10.2018 01:00:00||ÇALIK HOLDİNG|10.40.24.113|||110000438408|197
02.10.2018 01:00:00||ÇALIK HOLDİNG|10.40.24.113|||110000438408|148
02.10.2018 01:00:00||ÇALIK HOLDİNG|10.40.24.114|||110000438408|20
02.10.2018 01:00:00||ÇALIK HOLDİNG|10.40.24.114|||110000438408|40
02.10.2018 01:00:00||ÇALIK HOLDİNG|10.40.24.114|||110000438408|177
02.10.2018 01:00:00||ÇALIK HOLDİNG|10.40.24.114|||110000438408|364
02.10.2018 01:00:00||ÇALIK HOLDİNG|10.40.24.115|||110000438408|138
02.10.2018 01:00:00||ÇALIK HOLDİNG|10.40.24.115|||110000438408|79
02.10.2018 01:00:00||ÇALIK HOLDİNG|10.40.24.115|||110000438408|89
02.10.2018 01:00:00||ÇALIK HOLDİNG|10.40.24.115|||110000438408|69
02.10.2018 01:00:00||ÇALIK HOLDİNG|10.40.24.115|||110000438408|89
02.10.2018 01:00:00||ÇALIK HOLDİNG|10.40.24.115|||110000438408|69
02.10.2018 01:00:00||ÇALIK HOLDİNG|10.40.24.116|||110000438408|265
02.10.2018 01:00:00||ÇALIK HOLDİNG|10.40.24.116|||110000438408|109
02.10.2018 01:00:00||ÇALIK HOLDİNG|10.40.24.116|||110000438408|89
02.10.2018 01:00:00||ÇALIK HOLDİNG|10.40.24.117|||110000438408|197
02.10.2018 01:00:00||ÇALIK HOLDİNG|10.40.24.117|||110000438408|30
02.10.2018 01:00:00||ÇALIK HOLDİNG|10.40.24.117|||110000438408|30
02.10.2018 01:00:00||ÇALIK HOLDİNG|10.40.24.118|||110000438408|43
02.10.2018 01:00:00||ÇALIK HOLDİNG|10.40.24.119|||110000438408|148
02.10.2018 01:00:00||ÇALIK HOLDİNG|10.40.24.119|||110000438408|30
02.10.2018 01:00:00||ÇALIK HOLDİNG|10.40.24.119|||110000438408|50
02.10.2018 01:00:00||ÇALIK HOLDİNG|10.40.24.120|||110000438408|20
02.10.2018 01:00:00||ÇALIK HOLDİNG|10.40.24.120|||110000438408|30
02.10.2018 01:00:00||ÇALIK HOLDİNG|10.40.24.120|||110000438408|109
02.10.2018 01:00:00||ÇALIK HOLDİNG|10.40.24.120|||110000438408|10
02.10.2018 01:00:00||ÇALIK HOLDİNG|10.40.24.120|||110000438408|20
02.10.2018 01:00:00||ÇALIK HOLDİNG|10.40.24.120|||110000438408|99
02.10.2018 01:00:00||ÇALIK HOLDİNG|10.40.24.120|||110000438408|40
02.10.2018 01:00:00||ÇALIK HOLDİNG|10.40.24.120|||110000438408|79
02.10.2018 01:00:00||ÇALIK HOLDİNG|10.40.24.120|||110000438408|79
02.10.2018 01:00:00||ÇALIK HOLDİNG|10.40.24.120|||110000438408|69
02.10.2018 01:00:00||ÇALIK HOLDİNG|10.40.24.121|||110000438408|99
02.10.2018 01:00:00||ÇALIK HOLDİNG|10.40.24.121|||110000438408|99
02.10.2018 01:00:00||ÇALIK HOLDİNG|10.40.24.121|||110000438408|148
02.10.2018 01:00:00||ÇALIK HOLDİNG|10.40.24.122|||110000438408|89
02.10.2018 01:00:00||ÇALIK HOLDİNG|10.40.24.122|||110000438408|79
02.10.2018 01:00:00||ÇALIK HOLDİNG|10.40.24.122|||110000438408|89
02.10.2018 01:00:00||ÇALIK HOLDİNG|10.40.24.122|||110000438408|30
02.10.2018 01:00:00||ÇALIK HOLDİNG|10.40.24.122|||110000438408|10
02.10.2018 01:00:00||ÇALIK HOLDİNG|10.40.24.94|||110000438408|222
02.10.2018 01:00:00||ÇALIK HOLDİNG|10.40.24.94|||110000438408|190
02.10.2018 01:00:00||ÇALIK HOLDİNG|10.40.24.94|||110000438408|201
02.10.2018 01:00:00||ÇALIK HOLDİNG|10.40.24.94|||110000438408|211
02.10.2018 01:00:00||ÇALIK HOLDİNG|10.40.24.95|||110000438408|105
02.10.2018 01:00:00||ÇALIK HOLDİNG|10.40.24.95|||110000438408|52
02.10.2018 01:00:00||ÇALIK HOLDİNG|10.40.24.95|||110000438408|20
02.10.2018 01:00:00||ÇALIK HOLDİNG|10.40.24.95|||110000438408|94
02.10.2018 01:00:00||ÇALIK HOLDİNG|10.40.24.95|||110000438408|466
02.10.2018 01:00:00||ÇALIK HOLDİNG|10.40.24.95|||110000438408|424
02.10.2018 01:00:00||ÇALIK HOLDİNG|10.40.24.97|||110000438408|101
02.10.2018 01:00:00||ÇALIK HOLDİNG|10.40.24.97|||110000438408|91
02.10.2018 01:00:00||ÇALIK HOLDİNG|10.40.24.97|||110000438408|81
02.10.2018 01:00:00||ÇALIK HOLDİNG|10.40.24.97|||110000438408|91
02.10.2018 01:00:00||ÇALIK HOLDİNG|10.40.24.97|||110000438408|315
02.10.2018 01:00:00||ÇALIK HOLDİNG|10.40.24.98|||110000438408|91
02.10.2018 01:00:00||ÇALIK HOLDİNG|10.40.24.98|||110000438408|152
02.10.2018 01:00:00||ÇALIK HOLDİNG|10.40.24.98|||110000438408|203
02.10.2018 01:00:00||ÇALIK HOLDİNG|10.40.24.98|||110000438408|203
02.10.2018 01:00:00||ÇALIK HOLDİNG|10.40.24.98|||110000438408|162
02.10.2018 01:00:00||ÇALIK HOLDİNG|10.40.24.98|||110000438408|30
02.10.2018 01:00:00||ÇALIK HOLDİNG|10.40.24.98|||110000438408|162
02.10.2018 01:00:00||ÇALIK HOLDİNG|10.40.24.98|||110000438408|183
02.10.2018 01:00:00||ÇALIK HOLDİNG|10.40.24.98|||110000438408|172
02.10.2018 01:00:00||ÇALIK HOLDİNG|10.40.24.98|||110000438408|183
02.10.2018 01:00:00||ÇALIK HOLDİNG|10.40.24.98|||110000438408|20
02.10.2018 01:00:00||ÇALIK HOLDİNG|10.40.24.98|||110000438408|285
02.10.2018 01:00:00||ÇALIK HOLDİNG|10.40.25.100|||110000438408|40
02.10.2018 01:00:00||ÇALIK HOLDİNG|10.40.25.100|||110000438408|40
02.10.2018 01:00:00||ÇALIK HOLDİNG|10.40.25.101|||110000438408|50
02.10.2018 01:00:00||ÇALIK HOLDİNG|10.40.25.101|||110000438408|111
02.10.2018 01:00:00||ÇALIK HOLDİNG|10.40.25.101|||110000438408|30
02.10.2018 01:00:00||ÇALIK HOLDİNG|10.40.25.101|||110000438408|10
02.10.2018 01:00:00||ÇALIK HOLDİNG|10.40.25.101|||110000438408|81
02.10.2018 01:00:00||ÇALIK HOLDİNG|10.40.25.101|||110000438408|40
02.10.2018 01:00:00||ÇALIK HOLDİNG|10.40.25.101|||110000438408|40
02.10.2018 01:00:00||ÇALIK HOLDİNG|10.40.25.101|||110000438408|91
02.10.2018 01:00:00||ÇALIK HOLDİNG|10.40.25.101|||110000438408|91
02.10.2018 01:00:00||ÇALIK HOLDİNG|10.40.25.101|||110000438408|91
02.10.2018 01:00:00||ÇALIK HOLDİNG|10.40.25.102|||110000438408|101
02.10.2018 01:00:00||ÇALIK HOLDİNG|10.40.25.102|||110000438408|101
02.10.2018 01:00:00||ÇALIK HOLDİNG|10.40.25.102|||110000438408|152
02.10.2018 01:00:00||ÇALIK HOLDİNG|10.40.25.103|||110000438408|91
02.10.2018 01:00:00||ÇALIK HOLDİNG|10.40.25.103|||110000438408|91
02.10.2018 01:00:00||ÇALIK HOLDİNG|10.40.25.103|||110000438408|81
02.10.2018 01:00:00||ÇALIK HOLDİNG|10.40.25.113|||110000438408|223
02.10.2018 01:00:00||ÇALIK HOLDİNG|10.40.25.113|||110000438408|254
02.10.2018 01:00:00||ÇALIK HOLDİNG|10.40.25.113|||110000438408|183
02.10.2018 01:00:00||ÇALIK HOLDİNG|10.40.25.113|||110000438408|203
02.10.2018 01:00:00||ÇALIK HOLDİNG|10.40.25.114|||110000438408|183
02.10.2018 01:00:00||ÇALIK HOLDİNG|10.40.25.114|||110000438408|417
02.10.2018 01:00:00||ÇALIK HOLDİNG|10.40.25.114|||110000438408|40
02.10.2018 01:00:00||ÇALIK HOLDİNG|10.40.25.115|||110000438408|152
02.10.2018 01:00:00||ÇALIK HOLDİNG|10.40.25.115|||110000438408|71
02.10.2018 01:00:00||ÇALIK HOLDİNG|10.40.25.115|||110000438408|81
02.10.2018 01:00:00||ÇALIK HOLDİNG|10.40.25.115|||110000438408|81
02.10.2018 01:00:00||ÇALIK HOLDİNG|10.40.25.115|||110000438408|71
02.10.2018 01:00:00||ÇALIK HOLDİNG|10.40.25.115|||110000438408|71
02.10.2018 01:00:00||ÇALIK HOLDİNG|10.40.25.116|||110000438408|101
02.10.2018 01:00:00||ÇALIK HOLDİNG|10.40.25.116|||110000438408|101
02.10.2018 01:00:00||ÇALIK HOLDİNG|10.40.25.116|||110000438408|295
02.10.2018 01:00:00||ÇALIK HOLDİNG|10.40.25.117|||110000438408|244
02.10.2018 01:00:00||ÇALIK HOLDİNG|10.40.25.117|||110000438408|30
02.10.2018 01:00:00||ÇALIK HOLDİNG|10.40.25.117|||110000438408|30
02.10.2018 01:00:00||ÇALIK HOLDİNG|10.40.25.118|||110000438408|162
02.10.2018 01:00:00||ÇALIK HOLDİNG|10.40.25.119|||110000438408|30
02.10.2018 01:00:00||ÇALIK HOLDİNG|10.40.25.119|||110000438408|30
02.10.2018 01:00:00||ÇALIK HOLDİNG|10.40.25.120|||110000438408|111
02.10.2018 01:00:00||ÇALIK HOLDİNG|10.40.25.120|||110000438408|50
02.10.2018 01:00:00||ÇALIK HOLDİNG|10.40.25.120|||110000438408|60
02.10.2018 01:00:00||ÇALIK HOLDİNG|10.40.25.120|||110000438408|20
02.10.2018 01:00:00||ÇALIK HOLDİNG|10.40.25.120|||110000438408|30
02.10.2018 01:00:00||ÇALIK HOLDİNG|10.40.25.120|||110000438408|40
02.10.2018 01:00:00||ÇALIK HOLDİNG|10.40.25.120|||110000438408|91
02.10.2018 01:00:00||ÇALIK HOLDİNG|10.40.25.120|||110000438408|20
02.10.2018 01:00:00||ÇALIK HOLDİNG|10.40.25.120|||110000438408|91
02.10.2018 01:00:00||ÇALIK HOLDİNG|10.40.25.120|||110000438408|91
02.10.2018 01:00:00||ÇALIK HOLDİNG|10.40.25.121|||110000438408|91
02.10.2018 01:00:00||ÇALIK HOLDİNG|10.40.25.121|||110000438408|101
02.10.2018 01:00:00||ÇALIK HOLDİNG|10.40.25.121|||110000438408|142
02.10.2018 01:00:00||ÇALIK HOLDİNG|10.40.25.122|||110000438408|91
02.10.2018 01:00:00||ÇALIK HOLDİNG|10.40.25.122|||110000438408|81
02.10.2018 01:00:00||ÇALIK HOLDİNG|10.40.25.122|||110000438408|81
02.10.2018 01:00:00||ÇALIK HOLDİNG|10.40.25.94|||110000438408|172
02.10.2018 01:00:00||ÇALIK HOLDİNG|10.40.25.94|||110000438408|172
02.10.2018 01:00:00||ÇALIK HOLDİNG|10.40.25.94|||110000438408|163
02.10.2018 01:00:00||ÇALIK HOLDİNG|10.40.25.94|||110000438408|172
02.10.2018 01:00:00||ÇALIK HOLDİNG|10.40.25.95|||110000438408|96
02.10.2018 01:00:00||ÇALIK HOLDİNG|10.40.25.95|||110000438408|77
02.10.2018 01:00:00||ÇALIK HOLDİNG|10.40.25.95|||110000438408|362
02.10.2018 01:00:00||ÇALIK HOLDİNG|10.40.25.95|||110000438408|362
02.10.2018 01:00:00||ÇALIK HOLDİNG|10.40.25.95|||110000438408|39
02.10.2018 01:00:00||ÇALIK HOLDİNG|10.40.25.96|||110000438408|67
02.10.2018 01:00:00||ÇALIK HOLDİNG|10.40.25.96|||110000438408|87
02.10.2018 01:00:00||ÇALIK HOLDİNG|10.40.25.96|||110000438408|96
02.10.2018 01:00:00||ÇALIK HOLDİNG|10.40.25.96|||110000438408|87
02.10.2018 01:00:00||ÇALIK HOLDİNG|10.40.25.96|||110000438408|124
02.10.2018 01:00:00||ÇALIK HOLDİNG|10.40.25.96|||110000438408|96
02.10.2018 01:00:00||ÇALIK HOLDİNG|10.40.25.96|||110000438408|239
02.10.2018 01:00:00||ÇALIK HOLDİNG|10.40.25.96|||110000438408|248
02.10.2018 01:00:00||ÇALIK HOLDİNG|10.40.25.96|||110000438408|86
02.10.2018 01:00:00||ÇALIK HOLDİNG|10.40.25.96|||110000438408|86
02.10.2018 01:00:00||ÇALIK HOLDİNG|10.40.25.96|||110000438408|95
02.10.2018 01:00:00||ÇALIK HOLDİNG|10.40.25.96|||110000438408|86
02.10.2018 01:00:00||ÇALIK HOLDİNG|10.40.25.96|||110000438408|95
02.10.2018 01:00:00||ÇALIK HOLDİNG|10.40.25.96|||110000438408|86
02.10.2018 01:00:00||ÇALIK HOLDİNG|10.40.25.97|||110000438408|95
02.10.2018 01:00:00||ÇALIK HOLDİNG|10.40.25.97|||110000438408|76
02.10.2018 01:00:00||ÇALIK HOLDİNG|10.40.25.97|||110000438408|86
02.10.2018 01:00:00||ÇALIK HOLDİNG|10.40.25.97|||110000438408|76
02.10.2018 01:00:00||ÇALIK HOLDİNG|10.40.25.97|||110000438408|283
02.10.2018 01:00:00||ÇALIK HOLDİNG|10.40.25.98|||110000438408|48
02.10.2018 01:00:00||ÇALIK HOLDİNG|10.40.25.98|||110000438408|151
02.10.2018 01:00:00||ÇALIK HOLDİNG|10.40.25.98|||110000438408|151
02.10.2018 01:00:00||ÇALIK HOLDİNG|10.40.25.98|||110000438408|151
02.10.2018 01:00:00||ÇALIK HOLDİNG|10.40.25.98|||110000438408|151
02.10.2018 01:00:00||ÇALIK HOLDİNG|10.40.25.98|||110000438408|58
02.10.2018 01:00:00||ÇALIK HOLDİNG|10.40.25.98|||110000438408|199
02.10.2018 01:00:00||ÇALIK HOLDİNG|10.40.25.98|||110000438408|170
02.10.2018 01:00:00||ÇALIK HOLDİNG|10.40.25.98|||110000438408|161
02.10.2018 01:00:00||ÇALIK HOLDİNG|10.40.25.98|||110000438408|199
02.10.2018 01:00:00||ÇALIK HOLDİNG|10.40.25.98|||110000438408|67
02.10.2018 01:00:00||ÇALIK HOLDİNG|10.40.25.98|||110000438408|283
02.10.2018 01:00:00||ÇALIK HOLDİNG|10.40.25.99|||110000438408|68
02.10.2018 01:00:00||ÇALIK HOLDİNG|10.40.25.99|||110000438408|63
02.10.2018 01:00:00||FIBABANKA|10.40.24.51|||101571767266|20
02.10.2018 01:00:00||FIBABANKA|10.40.24.51|||101571767266|73
02.10.2018 01:00:00||FIBABANKA|10.40.24.51|||101571767266|105
02.10.2018 01:00:00||FIBABANKA|10.40.24.51|||101571767266|147
02.10.2018 01:00:00||FIBABANKA|10.40.24.51|||101571767266|30
02.10.2018 01:00:00||FIBABANKA|10.40.24.51|||101571767266|30
02.10.2018 01:00:00||FIBABANKA|10.40.24.52|||101571767266|10
02.10.2018 01:00:00||FIBABANKA|10.40.24.53|||101571767266|30
02.10.2018 01:00:00||FIBABANKA|10.40.24.53|||101571767266|62
02.10.2018 01:00:00||FIBABANKA|10.40.24.53|||101571767266|190
02.10.2018 01:00:00||FIBABANKA|10.40.24.53|||101571767266|222
02.10.2018 01:00:00||FIBABANKA|10.40.24.54|||101571767266|202
02.10.2018 01:00:00||FIBABANKA|10.40.24.54|||101571767266|204
02.10.2018 01:00:00||FIBABANKA|10.40.24.55|||101571767266|90
02.10.2018 01:00:00||FIBABANKA|10.40.24.55|||101571767266|23
02.10.2018 01:00:00||FIBABANKA|10.40.24.56|||101571767266|11
02.10.2018 01:00:00||FIBABANKA|10.40.24.56|||101571767266|194
02.10.2018 01:00:00||FIBABANKA|10.40.24.57|||101571767266|94
02.10.2018 01:00:00||FIBABANKA|10.40.24.57|||101571767266|84
02.10.2018 01:00:00||FIBABANKA|10.40.24.57|||101571767266|84
02.10.2018 01:00:00||FIBABANKA|10.40.24.59|||101571767266|73
02.10.2018 01:00:00||FIBABANKA|10.40.24.59|||101571767266|126
02.10.2018 01:00:00||FIBABANKA|10.40.24.59|||101571767266|73
02.10.2018 01:00:00||FIBABANKA|10.40.24.59|||101571767266|52
02.10.2018 01:00:00||FIBABANKA|10.40.24.59|||101571767266|137
02.10.2018 01:00:00||FIBABANKA|10.40.24.59|||101571767266|73
02.10.2018 01:00:00||FIBABANKA|10.40.24.59|||101571767266|62
02.10.2018 01:00:00||FIBABANKA|10.40.24.59|||101571767266|169
02.10.2018 01:00:00||FIBABANKA|10.40.24.59|||101571767266|62
02.10.2018 01:00:00||FIBABANKA|10.40.24.60|||101571767266|126
02.10.2018 01:00:00||FIBABANKA|10.40.24.60|||101571767266|52
02.10.2018 01:00:00||FIBABANKA|10.40.24.60|||101571767266|41
02.10.2018 01:00:00||FIBABANKA|10.40.24.60|||101571767266|105
02.10.2018 01:00:00||FIBABANKA|10.40.24.60|||101571767266|62
02.10.2018 01:00:00||FIBABANKA|10.40.24.72|||101571767266|147
02.10.2018 01:00:00||FIBABANKA|10.40.24.72|||101571767266|73
02.10.2018 01:00:00||FIBABANKA|10.40.24.72|||101571767266|30
02.10.2018 01:00:00||FIBABANKA|10.40.24.72|||101571767266|41
02.10.2018 01:00:00||FIBABANKA|10.40.24.74|||101571767266|30
02.10.2018 01:00:00||FIBABANKA|10.40.24.74|||101571767266|30
02.10.2018 01:00:00||FIBABANKA|10.40.24.75|||101571767266|201
02.10.2018 01:00:00||FIBABANKA|10.40.24.75|||101571767266|169
02.10.2018 01:00:00||FIBABANKA|10.40.24.75|||101571767266|169
02.10.2018 01:00:00||FIBABANKA|10.40.24.76|||101571767266|41
02.10.2018 01:00:00||FIBABANKA|10.40.24.76|||101571767266|73
02.10.2018 01:00:00||FIBABANKA|10.40.24.76|||101571767266|10
02.10.2018 01:00:00||FIBABANKA|10.40.25.51|||101571767266|20
02.10.2018 01:00:00||FIBABANKA|10.40.25.51|||101571767266|106
02.10.2018 01:00:00||FIBABANKA|10.40.25.51|||101571767266|124
02.10.2018 01:00:00||FIBABANKA|10.40.25.51|||101571767266|39
02.10.2018 01:00:00||FIBABANKA|10.40.25.51|||101571767266|39
02.10.2018 01:00:00||FIBABANKA|10.40.25.51|||101571767266|67
02.10.2018 01:00:00||FIBABANKA|10.40.25.52|||101571767266|10
02.10.2018 01:00:00||FIBABANKA|10.40.25.52|||101571767266|67
02.10.2018 01:00:00||FIBABANKA|10.40.25.53|||101571767266|39
02.10.2018 01:00:00||FIBABANKA|10.40.25.53|||101571767266|48
02.10.2018 01:00:00||FIBABANKA|10.40.25.53|||101571767266|153
02.10.2018 01:00:00||FIBABANKA|10.40.25.53|||101571767266|153
02.10.2018 01:00:00||FIBABANKA|10.40.25.54|||101571767266|90
02.10.2018 01:00:00||FIBABANKA|10.40.25.54|||101571767266|156
02.10.2018 01:00:00||FIBABANKA|10.40.25.55|||101571767266|86
02.10.2018 01:00:00||FIBABANKA|10.40.25.55|||101571767266|23
02.10.2018 01:00:00||FIBABANKA|10.40.25.56|||101571767266|11
02.10.2018 01:00:00||FIBABANKA|10.40.25.56|||101571767266|185
02.10.2018 01:00:00||FIBABANKA|10.40.25.57|||101571767266|87
02.10.2018 01:00:00||FIBABANKA|10.40.25.57|||101571767266|87
02.10.2018 01:00:00||FIBABANKA|10.40.25.57|||101571767266|87
02.10.2018 01:00:00||FIBABANKA|10.40.25.59|||101571767266|67
02.10.2018 01:00:00||FIBABANKA|10.40.25.59|||101571767266|87
02.10.2018 01:00:00||FIBABANKA|10.40.25.59|||101571767266|77
02.10.2018 01:00:00||FIBABANKA|10.40.25.59|||101571767266|39
02.10.2018 01:00:00||FIBABANKA|10.40.25.59|||101571767266|124
02.10.2018 01:00:00||FIBABANKA|10.40.25.59|||101571767266|67
02.10.2018 01:00:00||FIBABANKA|10.40.25.59|||101571767266|58
02.10.2018 01:00:00||FIBABANKA|10.40.25.59|||101571767266|153
02.10.2018 01:00:00||FIBABANKA|10.40.25.59|||101571767266|58
02.10.2018 01:00:00||FIBABANKA|10.40.25.60|||101571767266|106
02.10.2018 01:00:00||FIBABANKA|10.40.25.60|||101571767266|30
02.10.2018 01:00:00||FIBABANKA|10.40.25.60|||101571767266|106
02.10.2018 01:00:00||FIBABANKA|10.40.25.60|||101571767266|39
02.10.2018 01:00:00||FIBABANKA|10.40.25.72|||101571767266|67
02.10.2018 01:00:00||FIBABANKA|10.40.25.72|||101571767266|39
02.10.2018 01:00:00||FIBABANKA|10.40.25.72|||101571767266|30
02.10.2018 01:00:00||FIBABANKA|10.40.25.74|||101571767266|39
02.10.2018 01:00:00||FIBABANKA|10.40.25.74|||101571767266|30
02.10.2018 01:00:00||FIBABANKA|10.40.25.74|||101571767266|39
02.10.2018 01:00:00||FIBABANKA|10.40.25.74|||101571767266|39
02.10.2018 01:00:00||FIBABANKA|10.40.25.74|||101571767266|39
02.10.2018 01:00:00||FIBABANKA|10.40.25.75|||101571767266|10
02.10.2018 01:00:00||FIBABANKA|10.40.25.75|||101571767266|124
02.10.2018 01:00:00||FIBABANKA|10.40.25.75|||101571767266|153
02.10.2018 01:00:00||FIBABANKA|10.40.25.75|||101571767266|172
02.10.2018 01:00:00||FIBABANKA|10.40.25.75|||101571767266|181
02.10.2018 01:00:00||FIBABANKA|10.40.25.76|||101571767266|10
02.10.2018 01:00:00||FIBABANKA|10.40.25.76|||101571767266|58
02.10.2018 01:00:00||FIBABANKA|10.40.25.76|||101571767266|39
02.10.2018 01:00:00||FIBABANKA|10.40.25.76|||101571767266|10
02.10.2018 01:00:00||FIBABANKA|10.40.26.51|||101571767266|10
02.10.2018 01:00:00||FIBABANKA|10.40.26.51|||101571767266|20
02.10.2018 01:00:00||FIBABANKA|10.40.26.51|||101571767266|105
02.10.2018 01:00:00||FIBABANKA|10.40.26.51|||101571767266|133
02.10.2018 01:00:00||FIBABANKA|10.40.26.51|||101571767266|67
02.10.2018 01:00:00||FIBABANKA|10.40.26.51|||101571767266|30
02.10.2018 01:00:00||FIBABANKA|10.40.26.51|||101571767266|30
02.10.2018 01:00:00||FIBABANKA|10.40.26.52|||101571767266|30
02.10.2018 01:00:00||FIBABANKA|10.40.26.52|||101571767266|86
02.10.2018 01:00:00||FIBABANKA|10.40.26.52|||101571767266|30
02.10.2018 01:00:00||FIBABANKA|10.40.26.53|||101571767266|58
02.10.2018 01:00:00||FIBABANKA|10.40.26.53|||101571767266|48
02.10.2018 01:00:00||FIBABANKA|10.40.26.53|||101571767266|151
02.10.2018 01:00:00||FIBABANKA|10.40.26.53|||101571767266|170
02.10.2018 01:00:00||FIBABANKA|10.40.26.54|||101571767266|165
02.10.2018 01:00:00||FIBABANKA|10.40.26.54|||101571767266|133
02.10.2018 01:00:00||FIBABANKA|10.40.26.55|||101571767266|109
02.10.2018 01:00:00||FIBABANKA|10.40.26.57|||101571767266|86
02.10.2018 01:00:00||FIBABANKA|10.40.26.57|||101571767266|86
02.10.2018 01:00:00||FIBABANKA|10.40.26.57|||101571767266|76
02.10.2018 01:00:00||FIBABANKA|10.40.26.72|||101571767266|30
02.10.2018 01:00:00||FIBABANKA|10.40.26.72|||101571767266|146
02.10.2018 01:00:00||FIBABANKA|10.40.26.72|||101571767266|69
02.10.2018 01:00:00||FIBABANKA|10.40.26.72|||101571767266|30
02.10.2018 01:00:00||FIBABANKA|10.40.26.73|||101571767266|40
02.10.2018 01:00:00||FIBABANKA|10.40.26.73|||101571767266|69
02.10.2018 01:00:00||FIBABANKA|10.40.26.73|||101571767266|30
02.10.2018 01:00:00||FIBABANKA|10.40.26.73|||101571767266|40
02.10.2018 01:00:00||FIBABANKA|10.40.26.74|||101571767266|78
02.10.2018 01:00:00||FIBABANKA|10.40.26.74|||101571767266|175
02.10.2018 01:00:00||FIBABANKA|10.40.26.74|||101571767266|185
02.10.2018 01:00:00||FIBABANKA|10.40.26.74|||101571767266|175
02.10.2018 01:00:00||FIBABANKA|10.40.26.77|||101571767266|175
02.10.2018 01:00:00||FIBABANKA|10.40.26.79|||101571767266|10
02.10.2018 01:00:00||FIBABANKA|10.40.26.79|||101571767266|10
02.10.2018 01:00:00||FIBABANKA|10.40.27.51|||101571767266|30
02.10.2018 01:00:00||FIBABANKA|10.40.27.51|||101571767266|20
02.10.2018 01:00:00||FIBABANKA|10.40.27.51|||101571767266|97
02.10.2018 01:00:00||FIBABANKA|10.40.27.51|||101571767266|126
02.10.2018 01:00:00||FIBABANKA|10.40.27.51|||101571767266|68
02.10.2018 01:00:00||FIBABANKA|10.40.27.51|||101571767266|39
02.10.2018 01:00:00||FIBABANKA|10.40.27.51|||101571767266|39
02.10.2018 01:00:00||FIBABANKA|10.40.27.52|||101571767266|49
02.10.2018 01:00:00||FIBABANKA|10.40.27.52|||101571767266|59
02.10.2018 01:00:00||FIBABANKA|10.40.27.52|||101571767266|68
02.10.2018 01:00:00||FIBABANKA|10.40.27.53|||101571767266|68
02.10.2018 01:00:00||FIBABANKA|10.40.27.53|||101571767266|59
02.10.2018 01:00:00||FIBABANKA|10.40.27.53|||101571767266|165
02.10.2018 01:00:00||FIBABANKA|10.40.27.53|||101571767266|175
02.10.2018 01:00:00||FIBABANKA|10.40.27.54|||101571767266|173
02.10.2018 01:00:00||FIBABANKA|10.40.27.54|||101571767266|124
02.10.2018 01:00:00||FIBABANKA|10.40.27.55|||101571767266|110
02.10.2018 01:00:00||FIBABANKA|10.40.27.57|||101571767266|78
02.10.2018 01:00:00||FIBABANKA|10.40.27.57|||101571767266|78
02.10.2018 01:00:00||FIBABANKA|10.40.27.57|||101571767266|78
02.10.2018 01:00:00||FIBABANKA|10.40.27.72|||101571767266|49
02.10.2018 01:00:00||FIBABANKA|10.40.27.72|||101571767266|39
02.10.2018 01:00:00||FIBABANKA|10.40.27.72|||101571767266|136
02.10.2018 01:00:00||FIBABANKA|10.40.27.72|||101571767266|59
02.10.2018 01:00:00||FIBABANKA|10.40.27.72|||101571767266|30
02.10.2018 01:00:00||FIBABANKA|10.40.27.73|||101571767266|30
02.10.2018 01:00:00||FIBABANKA|10.40.27.73|||101571767266|100
02.10.2018 01:00:00||FIBABANKA|10.40.27.73|||101571767266|30
02.10.2018 01:00:00||FIBABANKA|10.40.27.73|||101571767266|20
02.10.2018 01:00:00||FIBABANKA|10.40.27.73|||101571767266|40
02.10.2018 01:00:00||FIBABANKA|10.40.27.73|||101571767266|40
02.10.2018 01:00:00||FIBABANKA|10.40.27.73|||101571767266|40
02.10.2018 01:00:00||FIBABANKA|10.40.27.73|||101571767266|40
02.10.2018 01:00:00||FIBABANKA|10.40.27.74|||101571767266|80
02.10.2018 01:00:00||FIBABANKA|10.40.27.74|||101571767266|150
02.10.2018 01:00:00||FIBABANKA|10.40.27.74|||101571767266|180
02.10.2018 01:00:00||FIBABANKA|10.40.27.74|||101571767266|180
02.10.2018 01:00:00||FIBABANKA|10.40.27.75|||101571767266|10
02.10.2018 01:00:00||FIBABANKA|10.40.27.75|||101571767266|10
02.10.2018 01:00:00||FIBABANKA|10.40.27.77|||101571767266|170
02.10.2018 01:00:00||FIBABANKA|10.40.27.77|||101571767266|160
02.10.2018 01:00:00||FIBABANKA|10.40.27.79|||101571767266|10
02.10.2018 01:00:00||HAVAŞ|10.40.24.45|||110000479675|71
02.10.2018 01:00:00||HAVAŞ|10.40.24.45|||110000479675|163
02.10.2018 01:00:00||HAVAŞ|10.40.24.45|||110000479675|133
02.10.2018 01:00:00||HAVAŞ|10.40.24.45|||110000479675|91
02.10.2018 01:00:00||HAVAŞ|10.40.24.46|||110000479675|20
02.10.2018 01:00:00||HAVAŞ|10.40.24.46|||110000479675|20
02.10.2018 01:00:00||HAVAŞ|10.40.24.46|||110000479675|10
02.10.2018 01:00:00||HAVAŞ|10.40.24.46|||110000479675|10
02.10.2018 01:00:00||HAVAŞ|10.40.24.46|||110000479675|10
02.10.2018 01:00:00||HAVAŞ|10.40.24.46|||110000479675|10
02.10.2018 01:00:00||HAVAŞ|10.40.24.46|||110000479675|10
02.10.2018 01:00:00||HAVAŞ|10.40.24.46|||110000479675|62
02.10.2018 01:00:00||HAVAŞ|10.40.24.46|||110000479675|62
02.10.2018 01:00:00||HAVAŞ|10.40.24.46|||110000479675|115
02.10.2018 01:00:00||HAVAŞ|10.40.24.46|||110000479675|73
02.10.2018 01:00:00||HAVAŞ|10.40.24.46|||110000479675|84
02.10.2018 01:00:00||HAVAŞ|10.40.24.47|||110000479675|30
02.10.2018 01:00:00||HAVAŞ|10.40.24.47|||110000479675|30
02.10.2018 01:00:00||HAVAŞ|10.40.24.47|||110000479675|222
02.10.2018 01:00:00||HAVAŞ|10.40.24.47|||110000479675|94
02.10.2018 01:00:00||HAVAŞ|10.40.24.47|||110000479675|52
02.10.2018 01:00:00||HAVAŞ|10.40.24.47|||110000479675|52
02.10.2018 01:00:00||HAVAŞ|10.40.24.47|||110000479675|115
02.10.2018 01:00:00||HAVAŞ|10.40.24.47|||110000479675|169
02.10.2018 01:00:00||HAVAŞ|10.40.24.47|||110000479675|105
02.10.2018 01:00:00||HAVAŞ|10.40.24.47|||110000479675|105
02.10.2018 01:00:00||HAVAŞ|10.40.24.47|||110000479675|94
02.10.2018 01:00:00||HAVAŞ|10.40.24.48|||110000479675|796
02.10.2018 01:00:00||HAVAŞ|10.40.24.48|||110000479675|764
02.10.2018 01:00:00||HAVAŞ|10.40.24.48|||110000479675|796
02.10.2018 01:00:00||HAVAŞ|10.40.25.45|||110000479675|48
02.10.2018 01:00:00||HAVAŞ|10.40.25.45|||110000479675|96
02.10.2018 01:00:00||HAVAŞ|10.40.25.45|||110000479675|124
02.10.2018 01:00:00||HAVAŞ|10.40.25.45|||110000479675|87
02.10.2018 01:00:00||HAVAŞ|10.40.25.46|||110000479675|10
02.10.2018 01:00:00||HAVAŞ|10.40.25.46|||110000479675|10
02.10.2018 01:00:00||HAVAŞ|10.40.25.46|||110000479675|20
02.10.2018 01:00:00||HAVAŞ|10.40.25.46|||110000479675|20
02.10.2018 01:00:00||HAVAŞ|10.40.25.46|||110000479675|10
02.10.2018 01:00:00||HAVAŞ|10.40.25.46|||110000479675|48
02.10.2018 01:00:00||HAVAŞ|10.40.25.46|||110000479675|58
02.10.2018 01:00:00||HAVAŞ|10.40.25.46|||110000479675|96
02.10.2018 01:00:00||HAVAŞ|10.40.25.46|||110000479675|67
02.10.2018 01:00:00||HAVAŞ|10.40.25.46|||110000479675|77
02.10.2018 01:00:00||HAVAŞ|10.40.25.46|||110000479675|67
02.10.2018 01:00:00||HAVAŞ|10.40.25.47|||110000479675|67
02.10.2018 01:00:00||HAVAŞ|10.40.25.47|||110000479675|67
02.10.2018 01:00:00||HAVAŞ|10.40.25.47|||110000479675|220
02.10.2018 01:00:00||HAVAŞ|10.40.25.47|||110000479675|58
02.10.2018 01:00:00||HAVAŞ|10.40.25.47|||110000479675|87
02.10.2018 01:00:00||HAVAŞ|10.40.25.47|||110000479675|87
02.10.2018 01:00:00||HAVAŞ|10.40.25.47|||110000479675|87
02.10.2018 01:00:00||HAVAŞ|10.40.25.47|||110000479675|10
02.10.2018 01:00:00||HAVAŞ|10.40.25.47|||110000479675|172
02.10.2018 01:00:00||HAVAŞ|10.40.25.47|||110000479675|87
02.10.2018 01:00:00||HAVAŞ|10.40.25.47|||110000479675|87
02.10.2018 01:00:00||HAVAŞ|10.40.25.47|||110000479675|87
02.10.2018 01:00:00||HAVAŞ|10.40.25.48|||110000479675|706
02.10.2018 01:00:00||HAVAŞ|10.40.25.48|||110000479675|715
02.10.2018 01:00:00||HAVAŞ|10.40.25.48|||110000479675|763
02.10.2018 01:00:00||MARS CINEMA|10.40.24.203|||110000472614|61
02.10.2018 01:00:00||MARS CINEMA|10.40.24.203|||110000472614|91
02.10.2018 01:00:00||MARS CINEMA|10.40.24.203|||110000472614|102
02.10.2018 01:00:00||MARS CINEMA|10.40.24.203|||110000472614|102
02.10.2018 01:00:00||MARS CINEMA|10.40.24.203|||110000472614|143
02.10.2018 01:00:00||MARS CINEMA|10.40.24.203|||110000472614|153
02.10.2018 01:00:00||MARS CINEMA|10.40.24.203|||110000472614|173
02.10.2018 01:00:00||MARS CINEMA|10.40.24.203|||110000472614|173
02.10.2018 01:00:00||MARS CINEMA|10.40.24.203|||110000472614|102
02.10.2018 01:00:00||MARS CINEMA|10.40.24.203|||110000472614|102
02.10.2018 01:00:00||MARS CINEMA|10.40.24.203|||110000472614|91
02.10.2018 01:00:00||MARS CINEMA|10.40.24.203|||110000472614|194
02.10.2018 01:00:00||MARS CINEMA|10.40.24.204|||110000472614|112
02.10.2018 01:00:00||MARS CINEMA|10.40.24.204|||110000472614|91
02.10.2018 01:00:00||MARS CINEMA|10.40.24.204|||110000472614|91
02.10.2018 01:00:00||MARS CINEMA|10.40.24.204|||110000472614|20
02.10.2018 01:00:00||MARS CINEMA|10.40.24.204|||110000472614|91
02.10.2018 01:00:00||MARS CINEMA|10.40.24.204|||110000472614|20
02.10.2018 01:00:00||MARS CINEMA|10.40.24.204|||110000472614|10
02.10.2018 01:00:00||MARS CINEMA|10.40.24.204|||110000472614|40
02.10.2018 01:00:00||MARS CINEMA|10.40.24.204|||110000472614|91
02.10.2018 01:00:00||MARS CINEMA|10.40.24.204|||110000472614|122
02.10.2018 01:00:00||MARS CINEMA|10.40.24.204|||110000472614|51
02.10.2018 01:00:00||MARS CINEMA|10.40.24.204|||110000472614|91
02.10.2018 01:00:00||MARS CINEMA|10.40.24.204|||110000472614|112
02.10.2018 01:00:00||MARS CINEMA|10.40.24.204|||110000472614|81
02.10.2018 01:00:00||MARS CINEMA|10.40.24.206|||110000472614|40
02.10.2018 01:00:00||MARS CINEMA|10.40.24.206|||110000472614|40
02.10.2018 01:00:00||MARS CINEMA|10.40.24.206|||110000472614|51
02.10.2018 01:00:00||MARS CINEMA|10.40.24.206|||110000472614|30
02.10.2018 01:00:00||MARS CINEMA|10.40.24.206|||110000472614|30
02.10.2018 01:00:00||MARS CINEMA|10.40.24.206|||110000472614|30
02.10.2018 01:00:00||MARS CINEMA|10.40.24.206|||110000472614|204
02.10.2018 01:00:00||MARS CINEMA|10.40.24.206|||110000472614|133
02.10.2018 01:00:00||MARS CINEMA|10.40.24.206|||110000472614|20
02.10.2018 01:00:00||MARS CINEMA|10.40.24.206|||110000472614|91
02.10.2018 01:00:00||MARS CINEMA|10.40.24.206|||110000472614|81
02.10.2018 01:00:00||MARS CINEMA|10.40.25.203|||110000472614|134
02.10.2018 01:00:00||MARS CINEMA|10.40.25.203|||110000472614|67
02.10.2018 01:00:00||MARS CINEMA|10.40.25.203|||110000472614|163
02.10.2018 01:00:00||MARS CINEMA|10.40.25.203|||110000472614|87
02.10.2018 01:00:00||MARS CINEMA|10.40.25.203|||110000472614|87
02.10.2018 01:00:00||MARS CINEMA|10.40.25.203|||110000472614|106
02.10.2018 01:00:00||MARS CINEMA|10.40.25.203|||110000472614|115
02.10.2018 01:00:00||MARS CINEMA|10.40.25.203|||110000472614|144
02.10.2018 01:00:00||MARS CINEMA|10.40.25.203|||110000472614|87
02.10.2018 01:00:00||MARS CINEMA|10.40.25.203|||110000472614|87
02.10.2018 01:00:00||MARS CINEMA|10.40.25.203|||110000472614|58
02.10.2018 01:00:00||MARS CINEMA|10.40.25.203|||110000472614|181
02.10.2018 01:00:00||MARS CINEMA|10.40.25.204|||110000472614|106
02.10.2018 01:00:00||MARS CINEMA|10.40.25.204|||110000472614|67
02.10.2018 01:00:00||MARS CINEMA|10.40.25.204|||110000472614|77
02.10.2018 01:00:00||MARS CINEMA|10.40.25.204|||110000472614|96
02.10.2018 01:00:00||MARS CINEMA|10.40.25.204|||110000472614|20
02.10.2018 01:00:00||MARS CINEMA|10.40.25.204|||110000472614|20
02.10.2018 01:00:00||MARS CINEMA|10.40.25.204|||110000472614|30
02.10.2018 01:00:00||MARS CINEMA|10.40.25.204|||110000472614|39
02.10.2018 01:00:00||MARS CINEMA|10.40.25.204|||110000472614|87
02.10.2018 01:00:00||MARS CINEMA|10.40.25.204|||110000472614|106
02.10.2018 01:00:00||MARS CINEMA|10.40.25.204|||110000472614|96
02.10.2018 01:00:00||MARS CINEMA|10.40.25.204|||110000472614|115
02.10.2018 01:00:00||MARS CINEMA|10.40.25.204|||110000472614|77
02.10.2018 01:00:00||MARS CINEMA|10.40.25.204|||110000472614|77
02.10.2018 01:00:00||MARS CINEMA|10.40.25.206|||110000472614|39
02.10.2018 01:00:00||MARS CINEMA|10.40.25.206|||110000472614|39
02.10.2018 01:00:00||MARS CINEMA|10.40.25.206|||110000472614|39
02.10.2018 01:00:00||MARS CINEMA|10.40.25.206|||110000472614|20
02.10.2018 01:00:00||MARS CINEMA|10.40.25.206|||110000472614|20
02.10.2018 01:00:00||MARS CINEMA|10.40.25.206|||110000472614|30
02.10.2018 01:00:00||MARS CINEMA|10.40.25.206|||110000472614|58
02.10.2018 01:00:00||MARS CINEMA|10.40.25.206|||110000472614|39
02.10.2018 01:00:00||MARS CINEMA|10.40.25.206|||110000472614|77
02.10.2018 01:00:00||MARS CINEMA|10.40.25.206|||110000472614|77
02.10.2018 01:00:00||PEGASUS|10.40.26.62|||110000423831|86
02.10.2018 01:00:00||PEGASUS|10.40.26.62|||110000423831|10
02.10.2018 01:00:00||PEGASUS|10.40.26.62|||110000423831|179
02.10.2018 01:00:00||PEGASUS|10.40.26.63|||110000423831|105
02.10.2018 01:00:00||PEGASUS|10.40.26.63|||110000423831|274
02.10.2018 01:00:00||PEGASUS|10.40.26.63|||110000423831|105
02.10.2018 01:00:00||PEGASUS|10.40.26.63|||110000423831|86
02.10.2018 01:00:00||PEGASUS|10.40.26.63|||110000423831|67
02.10.2018 01:00:00||PEGASUS|10.40.26.63|||110000423831|123
02.10.2018 01:00:00||PEGASUS|10.40.26.63|||110000423831|58
02.10.2018 01:00:00||PEGASUS|10.40.26.63|||110000423831|95
02.10.2018 01:00:00||PEGASUS|10.40.26.63|||110000423831|30
02.10.2018 01:00:00||PEGASUS|10.40.26.63|||110000423831|58
02.10.2018 01:00:00||PEGASUS|10.40.26.63|||110000423831|20
02.10.2018 01:00:00||PEGASUS|10.40.26.63|||110000423831|209
02.10.2018 01:00:00||PEGASUS|10.40.26.63|||110000423831|133
02.10.2018 01:00:00||PEGASUS|10.40.26.63|||110000423831|48
02.10.2018 01:00:00||PEGASUS|10.40.26.63|||110000423831|142
02.10.2018 01:00:00||PEGASUS|10.40.26.63|||110000423831|39
02.10.2018 01:00:00||PEGASUS|10.40.26.63|||110000423831|58
02.10.2018 01:00:00||PEGASUS|10.40.26.63|||110000423831|58
02.10.2018 01:00:00||PEGASUS|10.40.26.63|||110000423831|39
02.10.2018 01:00:00||PEGASUS|10.40.26.64|||110000423831|76
02.10.2018 01:00:00||PEGASUS|10.40.26.64|||110000423831|76
02.10.2018 01:00:00||PEGASUS|10.40.26.66|||110000423831|56
02.10.2018 01:00:00||PEGASUS|10.40.26.66|||110000423831|47
02.10.2018 01:00:00||PEGASUS|10.40.26.67|||110000423831|30
02.10.2018 01:00:00||PEGASUS|10.40.26.67|||110000423831|321
02.10.2018 01:00:00||PEGASUS|10.40.26.67|||110000423831|321
02.10.2018 01:00:00||PEGASUS|10.40.26.67|||110000423831|58
02.10.2018 01:00:00||PEGASUS|10.40.26.67|||110000423831|39
02.10.2018 01:00:00||PEGASUS|10.40.26.67|||110000423831|161
02.10.2018 01:00:00||PEGASUS|10.40.26.67|||110000423831|67
02.10.2018 01:00:00||PEGASUS|10.40.26.67|||110000423831|321
02.10.2018 01:00:00||PEGASUS|10.40.26.68|||110000423831|95
02.10.2018 01:00:00||PEGASUS|10.40.26.68|||110000423831|86
02.10.2018 01:00:00||PEGASUS|10.40.26.68|||110000423831|86
02.10.2018 01:00:00||PEGASUS|10.40.26.68|||110000423831|48
02.10.2018 01:00:00||PEGASUS|10.40.26.81|||110000423831|417
02.10.2018 01:00:00||PEGASUS|10.40.26.81|||110000423831|437
02.10.2018 01:00:00||PEGASUS|10.40.26.81|||110000423831|446
02.10.2018 01:00:00||PEGASUS|10.40.26.82|||110000423831|204
02.10.2018 01:00:00||PEGASUS|10.40.26.82|||110000423831|108
02.10.2018 01:00:00||PEGASUS|10.40.26.82|||110000423831|78
02.10.2018 01:00:00||PEGASUS|10.40.26.82|||110000423831|146
02.10.2018 01:00:00||PEGASUS|10.40.26.82|||110000423831|137
02.10.2018 01:00:00||PEGASUS|10.40.26.82|||110000423831|137
02.10.2018 01:00:00||PEGASUS|10.40.26.82|||110000423831|175
02.10.2018 01:00:00||PEGASUS|10.40.26.82|||110000423831|30
02.10.2018 01:00:00||PEGASUS|10.40.26.82|||110000423831|40
02.10.2018 01:00:00||PEGASUS|10.40.26.82|||110000423831|20
02.10.2018 01:00:00||PEGASUS|10.40.26.82|||110000423831|69
02.10.2018 01:00:00||PEGASUS|10.40.26.82|||110000423831|49
02.10.2018 01:00:00||PEGASUS|10.40.26.82|||110000423831|40
02.10.2018 01:00:00||PEGASUS|10.40.26.83|||110000423831|524
02.10.2018 01:00:00||PEGASUS|10.40.26.83|||110000423831|49
02.10.2018 01:00:00||PEGASUS|10.40.26.83|||110000423831|388
02.10.2018 01:00:00||PEGASUS|10.40.26.83|||110000423831|146
02.10.2018 01:00:00||PEGASUS|10.40.26.83|||110000423831|98
02.10.2018 01:00:00||PEGASUS|10.40.26.83|||110000423831|524
02.10.2018 01:00:00||PEGASUS|10.40.26.83|||110000423831|108
02.10.2018 01:00:00||PEGASUS|10.40.26.83|||110000423831|534
02.10.2018 01:00:00||PEGASUS|10.40.26.84|||110000423831|40
02.10.2018 01:00:00||PEGASUS|10.40.26.84|||110000423831|178
02.10.2018 01:00:00||PEGASUS|10.40.26.85|||110000423831|23
02.10.2018 01:00:00||PEGASUS|10.40.26.85|||110000423831|96
02.10.2018 01:00:00||PEGASUS|10.40.26.86|||110000423831|350
02.10.2018 01:00:00||PEGASUS|10.40.26.86|||110000423831|127
02.10.2018 01:00:00||PEGASUS|10.40.26.86|||110000423831|340
02.10.2018 01:00:00||PEGASUS|10.40.26.86|||110000423831|49
02.10.2018 01:00:00||PEGASUS|10.40.26.86|||110000423831|30
02.10.2018 01:00:00||PEGASUS|10.40.26.86|||110000423831|340
02.10.2018 01:00:00||PEGASUS|10.40.26.86|||110000423831|40
02.10.2018 01:00:00||PEGASUS|10.40.26.86|||110000423831|49
02.10.2018 01:00:00||PEGASUS|10.40.26.87|||110000423831|88
02.10.2018 01:00:00||PEGASUS|10.40.26.87|||110000423831|88
02.10.2018 01:00:00||PEGASUS|10.40.26.87|||110000423831|88
02.10.2018 01:00:00||PEGASUS|10.40.26.87|||110000423831|20
02.10.2018 01:00:00||PEGASUS|10.40.27.63|||110000423831|88
02.10.2018 01:00:00||PEGASUS|10.40.27.63|||110000423831|59
02.10.2018 01:00:00||PEGASUS|10.40.27.63|||110000423831|68
02.10.2018 01:00:00||PEGASUS|10.40.27.63|||110000423831|49
02.10.2018 01:00:00||PEGASUS|10.40.27.63|||110000423831|59
02.10.2018 01:00:00||PEGASUS|10.40.27.63|||110000423831|59
02.10.2018 01:00:00||PEGASUS|10.40.27.63|||110000423831|78
02.10.2018 01:00:00||PEGASUS|10.40.27.63|||110000423831|78
02.10.2018 01:00:00||PEGASUS|10.40.27.63|||110000423831|78
02.10.2018 01:00:00||PEGASUS|10.40.27.63|||110000423831|204
02.10.2018 01:00:00||PEGASUS|10.40.27.63|||110000423831|59
02.10.2018 01:00:00||PEGASUS|10.40.27.63|||110000423831|59
02.10.2018 01:00:00||PEGASUS|10.40.27.63|||110000423831|68
02.10.2018 01:00:00||PEGASUS|10.40.27.63|||110000423831|88
02.10.2018 01:00:00||PEGASUS|10.40.27.63|||110000423831|68
02.10.2018 01:00:00||PEGASUS|10.40.27.63|||110000423831|59
02.10.2018 01:00:00||PEGASUS|10.40.27.63|||110000423831|78
02.10.2018 01:00:00||PEGASUS|10.40.27.64|||110000423831|68
02.10.2018 01:00:00||PEGASUS|10.40.27.64|||110000423831|68
02.10.2018 01:00:00||PEGASUS|10.40.27.64|||110000423831|262
02.10.2018 01:00:00||PEGASUS|10.40.27.64|||110000423831|281
02.10.2018 01:00:00||PEGASUS|10.40.27.64|||110000423831|252
02.10.2018 01:00:00||PEGASUS|10.40.27.64|||110000423831|329
02.10.2018 01:00:00||PEGASUS|10.40.27.64|||110000423831|290
02.10.2018 01:00:00||PEGASUS|10.40.27.64|||110000423831|310
02.10.2018 01:00:00||PEGASUS|10.40.27.64|||110000423831|262
02.10.2018 01:00:00||PEGASUS|10.40.27.64|||110000423831|281
02.10.2018 01:00:00||PEGASUS|10.40.27.64|||110000423831|252
02.10.2018 01:00:00||PEGASUS|10.40.27.64|||110000423831|262
02.10.2018 01:00:00||PEGASUS|10.40.27.64|||110000423831|243
02.10.2018 01:00:00||PEGASUS|10.40.27.64|||110000423831|243
02.10.2018 01:00:00||PEGASUS|10.40.27.66|||110000423831|41
02.10.2018 01:00:00||PEGASUS|10.40.27.66|||110000423831|56
02.10.2018 01:00:00||PEGASUS|10.40.27.67|||110000423831|49
02.10.2018 01:00:00||PEGASUS|10.40.27.67|||110000423831|349
02.10.2018 01:00:00||PEGASUS|10.40.27.67|||110000423831|68
02.10.2018 01:00:00||PEGASUS|10.40.27.67|||110000423831|126
02.10.2018 01:00:00||PEGASUS|10.40.27.67|||110000423831|10
02.10.2018 01:00:00||PEGASUS|10.40.27.67|||110000423831|329
02.10.2018 01:00:00||PEGASUS|10.40.27.67|||110000423831|39
02.10.2018 01:00:00||PEGASUS|10.40.27.67|||110000423831|329
02.10.2018 01:00:00||PEGASUS|10.40.27.68|||110000423831|88
02.10.2018 01:00:00||PEGASUS|10.40.27.68|||110000423831|78
02.10.2018 01:00:00||PEGASUS|10.40.27.68|||110000423831|88
02.10.2018 01:00:00||PEGASUS|10.40.27.68|||110000423831|59
02.10.2018 01:00:00||PEGASUS|10.40.27.81|||110000423831|500
02.10.2018 01:00:00||PEGASUS|10.40.27.81|||110000423831|450
02.10.2018 01:00:00||PEGASUS|10.40.27.81|||110000423831|410
02.10.2018 01:00:00||PEGASUS|10.40.27.82|||110000423831|220
02.10.2018 01:00:00||PEGASUS|10.40.27.82|||110000423831|30
02.10.2018 01:00:00||PEGASUS|10.40.27.82|||110000423831|100
02.10.2018 01:00:00||PEGASUS|10.40.27.82|||110000423831|80
02.10.2018 01:00:00||PEGASUS|10.40.27.82|||110000423831|150
02.10.2018 01:00:00||PEGASUS|10.40.27.82|||110000423831|120
02.10.2018 01:00:00||PEGASUS|10.40.27.82|||110000423831|170
02.10.2018 01:00:00||PEGASUS|10.40.27.82|||110000423831|120
02.10.2018 01:00:00||PEGASUS|10.40.27.82|||110000423831|60
02.10.2018 01:00:00||PEGASUS|10.40.27.82|||110000423831|70
02.10.2018 01:00:00||PEGASUS|10.40.27.82|||110000423831|50
02.10.2018 01:00:00||PEGASUS|10.40.27.82|||110000423831|30
02.10.2018 01:00:00||PEGASUS|10.40.27.82|||110000423831|60
02.10.2018 01:00:00||PEGASUS|10.40.27.82|||110000423831|40
02.10.2018 01:00:00||PEGASUS|10.40.27.83|||110000423831|590
02.10.2018 01:00:00||PEGASUS|10.40.27.83|||110000423831|70
02.10.2018 01:00:00||PEGASUS|10.40.27.83|||110000423831|510
02.10.2018 01:00:00||PEGASUS|10.40.27.83|||110000423831|100
02.10.2018 01:00:00||PEGASUS|10.40.27.83|||110000423831|150
02.10.2018 01:00:00||PEGASUS|10.40.27.83|||110000423831|80
02.10.2018 01:00:00||PEGASUS|10.40.27.83|||110000423831|500
02.10.2018 01:00:00||PEGASUS|10.40.27.83|||110000423831|70
02.10.2018 01:00:00||PEGASUS|10.40.27.84|||110000423831|176
02.10.2018 01:00:00||PEGASUS|10.40.27.84|||110000423831|40
02.10.2018 01:00:00||PEGASUS|10.40.27.85|||110000423831|94
02.10.2018 01:00:00||PEGASUS|10.40.27.85|||110000423831|22
02.10.2018 01:00:00||PEGASUS|10.40.27.86|||110000423831|340
02.10.2018 01:00:00||PEGASUS|10.40.27.86|||110000423831|340
02.10.2018 01:00:00||PEGASUS|10.40.27.86|||110000423831|160
02.10.2018 01:00:00||PEGASUS|10.40.27.86|||110000423831|70
02.10.2018 01:00:00||PEGASUS|10.40.27.86|||110000423831|40
02.10.2018 01:00:00||PEGASUS|10.40.27.86|||110000423831|20
02.10.2018 01:00:00||PEGASUS|10.40.27.86|||110000423831|350
02.10.2018 01:00:00||PEGASUS|10.40.27.87|||110000423831|90
02.10.2018 01:00:00||PEGASUS|10.40.27.87|||110000423831|90
02.10.2018 01:00:00||PEGASUS|10.40.27.87|||110000423831|90
02.10.2018 01:00:00||PEGASUS|10.40.27.87|||110000423831|20
02.10.2018 01:00:00||PETKIM|10.40.25.87|||110000437354|89
02.10.2018 01:00:00||PETKIM|10.40.25.87|||110000437354|48
02.10.2018 01:00:00||PWC|10.40.24.66|||110000433262|94
02.10.2018 01:00:00||PWC|10.40.24.66|||110000433262|10
02.10.2018 01:00:00||PWC|10.40.24.66|||110000433262|222
02.10.2018 01:00:00||PWC|10.40.24.66|||110000433262|222
02.10.2018 01:00:00||PWC|10.40.24.66|||110000433262|30
02.10.2018 01:00:00||PWC|10.40.24.66|||110000433262|52
02.10.2018 01:00:00||PWC|10.40.24.66|||110000433262|52
02.10.2018 01:00:00||PWC|10.40.24.66|||110000433262|62
02.10.2018 01:00:00||PWC|10.40.24.66|||110000433262|30
02.10.2018 01:00:00||PWC|10.40.24.66|||110000433262|41
02.10.2018 01:00:00||PWC|10.40.24.66|||110000433262|477
02.10.2018 01:00:00||PWC|10.40.24.67|||110000433262|10
02.10.2018 01:00:00||PWC|10.40.24.67|||110000433262|10
02.10.2018 01:00:00||PWC|10.40.24.67|||110000433262|403
02.10.2018 01:00:00||PWC|10.40.24.67|||110000433262|30
02.10.2018 01:00:00||PWC|10.40.24.67|||110000433262|73
02.10.2018 01:00:00||PWC|10.40.24.67|||110000433262|126
02.10.2018 01:00:00||PWC|10.40.24.68|||110000433262|105
02.10.2018 01:00:00||PWC|10.40.24.68|||110000433262|147
02.10.2018 01:00:00||PWC|10.40.24.68|||110000433262|73
02.10.2018 01:00:00||PWC|10.40.24.68|||110000433262|73
02.10.2018 01:00:00||PWC|10.40.24.68|||110000433262|158
02.10.2018 01:00:00||PWC|10.40.25.67|||110000433262|77
02.10.2018 01:00:00||PWC|10.40.25.67|||110000433262|87
02.10.2018 01:00:00||PWC|10.40.25.67|||110000433262|305
02.10.2018 01:00:00||PWC|10.40.25.67|||110000433262|239
02.10.2018 01:00:00||PWC|10.40.25.67|||110000433262|229
02.10.2018 01:00:00||PWC|10.40.25.67|||110000433262|239
02.10.2018 01:00:00||PWC|10.40.25.67|||110000433262|48
02.10.2018 01:00:00||PWC|10.40.25.67|||110000433262|30
02.10.2018 01:00:00||PWC|10.40.25.67|||110000433262|115
02.10.2018 01:00:00||PWC|10.40.25.68|||110000433262|124
02.10.2018 01:00:00||PWC|10.40.25.68|||110000433262|181
02.10.2018 01:00:00||PWC|10.40.25.68|||110000433262|372
02.10.2018 01:00:00||PWC|10.40.25.68|||110000433262|67
02.10.2018 01:00:00||PWC|10.40.25.68|||110000433262|77
02.10.2018 01:00:00||PWC|10.40.25.68|||110000433262|144
