14.10.2018 22:00:00||AKTİFBANK|10.40.24.172|||110000438458|95
14.10.2018 22:00:00||AKTİFBANK|10.40.25.134|||110000438458|93
14.10.2018 22:00:00||AKTİFBANK|10.40.24.134|||110000438458|92
14.10.2018 22:00:00||AKTİFBANK|10.40.24.135|||110000438458|97
14.10.2018 22:00:00||AKTİFBANK|10.40.25.137|||110000438458|57
14.10.2018 22:00:00||AKTİFBANK|10.40.25.171|||110000438458|12
14.10.2018 22:00:00||AKTİFBANK|10.40.25.172|||110000438458|88
14.10.2018 22:00:00||AKTİFBANK|10.40.25.174|||110000438458|53
14.10.2018 22:00:00||AKTİFBANK|10.40.25.135|||110000438458|92
14.10.2018 22:00:00||AKTİFBANK|10.40.24.137|||110000438458|56
14.10.2018 22:00:00||AKTİFBANK|10.40.24.171|||110000438458|11
14.10.2018 22:00:00||AKTİFBANK|10.40.24.173|||110000438458|92
14.10.2018 22:00:00||AKTİFBANK|10.40.24.174|||110000438458|61
14.10.2018 22:00:00||AKTİFBANK|10.40.24.133|||110000438458|77
14.10.2018 22:00:00||AKTİFBANK|10.40.24.138|||110000438458|120
14.10.2018 22:00:00||AKTİFBANK|10.40.24.139|||110000438458|30
14.10.2018 22:00:00||AKTİFBANK|10.40.24.149|||110000438458|110
14.10.2018 22:00:00||AKTİFBANK|10.40.24.150|||110000438458|538
14.10.2018 22:00:00||AKTİFBANK|10.40.24.145|||110000438458|60
14.10.2018 22:00:00||AKTİFBANK|10.40.24.164|||110000438458|225
14.10.2018 22:00:00||AKTİFBANK|10.40.25.133|||110000438458|70
14.10.2018 22:00:00||AKTİFBANK|10.40.24.145|||110000438458|90
14.10.2018 22:00:00||AKTİFBANK|10.40.24.158|||110000438458|82
14.10.2018 22:00:00||AKTİFBANK|10.40.24.164|||110000438458|70
14.10.2018 22:00:00||AKTİFBANK|10.40.25.138|||110000438458|80
14.10.2018 22:00:00||AKTİFBANK|10.40.25.139|||110000438458|10
14.10.2018 22:00:00||AKTİFBANK|10.40.25.140|||110000438458|30
14.10.2018 22:00:00||AKTİFBANK|10.40.25.151|||110000438458|500
14.10.2018 22:00:00||AKTİFBANK|10.40.25.141|||110000438458|100
14.10.2018 22:00:00||AKTİFBANK|10.40.25.141|||110000438458|78
14.10.2018 22:00:00||AKTİFBANK|10.40.25.142|||110000438458|73
14.10.2018 22:00:00||AKTİFBANK|10.40.25.133|||110000438458|110
14.10.2018 22:00:00||AKTİFBANK|10.40.25.149|||110000438458|100
14.10.2018 22:00:00||AKTİFBANK|10.40.25.149|||110000438458|90
14.10.2018 22:00:00||AKTİFBANK|10.40.25.149|||110000438458|90
14.10.2018 22:00:00||AKTİFBANK|10.40.25.140|||110000438458|30
14.10.2018 22:00:00||AKTİFBANK|10.40.25.150|||110000438458|535
14.10.2018 22:00:00||AKTİFBANK|10.40.25.139|||110000438458|170
14.10.2018 22:00:00||AKTİFBANK|10.40.25.139|||110000438458|40
14.10.2018 22:00:00||AKTİFBANK|10.40.25.140|||110000438458|80
14.10.2018 22:00:00||AKTİFBANK|10.40.25.140|||110000438458|70
14.10.2018 22:00:00||AKTİFBANK|10.40.25.140|||110000438458|30
14.10.2018 22:00:00||AKTİFBANK|10.40.25.151|||110000438458|510
14.10.2018 22:00:00||AKTİFBANK|10.40.25.151|||110000438458|498
14.10.2018 22:00:00||AKTİFBANK|10.40.25.141|||110000438458|40
14.10.2018 22:00:00||AKTİFBANK|10.40.25.141|||110000438458|100
14.10.2018 22:00:00||AKTİFBANK|10.40.25.141|||110000438458|65
14.10.2018 22:00:00||AKTİFBANK|10.40.25.142|||110000438458|40
14.10.2018 22:00:00||AKTİFBANK|10.40.25.149|||110000438458|70
14.10.2018 22:00:00||AKTİFBANK|10.40.25.149|||110000438458|110
14.10.2018 22:00:00||AKTİFBANK|10.40.25.149|||110000438458|93
14.10.2018 22:00:00||AKTİFBANK|10.40.25.149|||110000438458|95
14.10.2018 22:00:00||AKTİFBANK|10.40.25.149|||110000438458|103
14.10.2018 22:00:00||AKTİFBANK|10.40.24.139|||110000438458|63
14.10.2018 22:00:00||AKTİFBANK|10.40.25.153|||110000438458|10
14.10.2018 22:00:00||AKTİFBANK|10.40.25.150|||110000438458|553
14.10.2018 22:00:00||AKTİFBANK|10.40.25.153|||110000438458|70
14.10.2018 22:00:00||AKTİFBANK|10.40.25.163|||110000438458|50
14.10.2018 22:00:00||AKTİFBANK|10.40.24.141|||110000438458|52
14.10.2018 22:00:00||AKTİFBANK|10.40.24.151|||110000438458|508
14.10.2018 22:00:00||AKTİFBANK|10.40.25.153|||110000438458|80
14.10.2018 22:00:00||AKTİFBANK|10.40.24.149|||110000438458|88
14.10.2018 22:00:00||AKTİFBANK|10.40.24.141|||110000438458|50
14.10.2018 22:00:00||AKTİFBANK|10.40.25.133|||110000438458|280
14.10.2018 22:00:00||AKTİFBANK|10.40.25.133|||110000438458|90
14.10.2018 22:00:00||AKTİFBANK|10.40.24.149|||110000438458|90
14.10.2018 22:00:00||AKTİFBANK|10.40.24.162|||110000438458|210
14.10.2018 22:00:00||AKTİFBANK|10.40.24.162|||110000438458|30
14.10.2018 22:00:00||AKTİFBANK|10.40.24.162|||110000438458|40
14.10.2018 22:00:00||AKTİFBANK|10.40.25.133|||110000438458|150
14.10.2018 22:00:00||AKTİFBANK|10.40.25.138|||110000438458|130
14.10.2018 22:00:00||AKTİFBANK|10.40.25.149|||110000438458|70
14.10.2018 22:00:00||AKTİFBANK|10.40.25.149|||110000438458|70
14.10.2018 22:00:00||AKTİFBANK|10.40.25.149|||110000438458|30
14.10.2018 22:00:00||AKTİFBANK|10.40.25.149|||110000438458|70
14.10.2018 22:00:00||AKTİFBANK|10.40.25.149|||110000438458|70
14.10.2018 22:00:00||AKTİFBANK|10.40.25.141|||110000438458|100
14.10.2018 22:00:00||AKTİFBANK|10.40.25.149|||110000438458|132
14.10.2018 22:00:00||AKTİFBANK|10.40.25.138|||110000438458|90
14.10.2018 22:00:00||AKTİFBANK|10.40.25.138|||110000438458|72
14.10.2018 22:00:00||AKTİFBANK|10.40.25.139|||110000438458|100
14.10.2018 22:00:00||AKTİFBANK|10.40.24.145|||110000438458|70
14.10.2018 22:00:00||AKTİFBANK|10.40.24.149|||110000438458|160
14.10.2018 22:00:00||AKTİFBANK|10.40.25.138|||110000438458|30
14.10.2018 22:00:00||AKTİFBANK|10.40.25.138|||110000438458|10
14.10.2018 22:00:00||AKTİFBANK|10.40.25.153|||110000438458|60
14.10.2018 22:00:00||AKTİFBANK|10.40.24.150|||110000438458|540
14.10.2018 22:00:00||AKTİFBANK|10.40.25.128|||110000438458|70
14.10.2018 22:00:00||AKTİFBANK|10.40.25.128|||110000438458|90
14.10.2018 22:00:00||AKTİFBANK|10.40.25.128|||110000438458|90
14.10.2018 22:00:00||AKTİFBANK|10.40.25.128|||110000438458|40
14.10.2018 22:00:00||AKTİFBANK|10.40.25.128|||110000438458|70
14.10.2018 22:00:00||AKTİFBANK|10.40.25.129|||110000438458|80
14.10.2018 22:00:00||AKTİFBANK|10.40.25.129|||110000438458|63
14.10.2018 22:00:00||AKTİFBANK|10.40.25.129|||110000438458|130
14.10.2018 22:00:00||AKTİFBANK|10.40.25.129|||110000438458|100
14.10.2018 22:00:00||AKTİFBANK|10.40.25.129|||110000438458|42
14.10.2018 22:00:00||AKTİFBANK|10.40.25.129|||110000438458|95
14.10.2018 22:00:00||AKTİFBANK|10.40.25.129|||110000438458|102
14.10.2018 22:00:00||AKTİFBANK|10.40.25.130|||110000438458|60
14.10.2018 22:00:00||AKTİFBANK|10.40.25.130|||110000438458|50
14.10.2018 22:00:00||AKTİFBANK|10.40.25.130|||110000438458|73
14.10.2018 22:00:00||AKTİFBANK|10.40.25.130|||110000438458|30
14.10.2018 22:00:00||AKTİFBANK|10.40.25.130|||110000438458|60
14.10.2018 22:00:00||AKTİFBANK|10.40.25.130|||110000438458|100
14.10.2018 22:00:00||AKTİFBANK|10.40.25.130|||110000438458|82
14.10.2018 22:00:00||AKTİFBANK|10.40.25.131|||110000438458|20
14.10.2018 22:00:00||AKTİFBANK|10.40.25.131|||110000438458|72
14.10.2018 22:00:00||AKTİFBANK|10.40.25.131|||110000438458|100
14.10.2018 22:00:00||AKTİFBANK|10.40.25.131|||110000438458|103
14.10.2018 22:00:00||AKTİFBANK|10.40.25.131|||110000438458|83
14.10.2018 22:00:00||AKTİFBANK|10.40.25.131|||110000438458|82
14.10.2018 22:00:00||AKTİFBANK|10.40.25.131|||110000438458|22
14.10.2018 22:00:00||AKTİFBANK|10.40.25.131|||110000438458|120
14.10.2018 22:00:00||AKTİFBANK|10.40.25.132|||110000438458|67
14.10.2018 22:00:00||AKTİFBANK|10.40.25.132|||110000438458|63
14.10.2018 22:00:00||AKTİFBANK|10.40.25.132|||110000438458|80
14.10.2018 22:00:00||AKTİFBANK|10.40.25.132|||110000438458|158
14.10.2018 22:00:00||AKTİFBANK|10.40.25.132|||110000438458|60
14.10.2018 22:00:00||AKTİFBANK|10.40.25.143|||110000438458|322
14.10.2018 22:00:00||AKTİFBANK|10.40.25.144|||110000438458|80
14.10.2018 22:00:00||AKTİFBANK|10.40.25.144|||110000438458|50
14.10.2018 22:00:00||AKTİFBANK|10.40.25.144|||110000438458|20
14.10.2018 22:00:00||AKTİFBANK|10.40.25.154|||110000438458|10
14.10.2018 22:00:00||AKTİFBANK|10.40.25.154|||110000438458|10
14.10.2018 22:00:00||AKTİFBANK|10.40.25.154|||110000438458|10
14.10.2018 22:00:00||AKTİFBANK|10.40.25.157|||110000438458|70
14.10.2018 22:00:00||AKTİFBANK|10.40.25.157|||110000438458|70
14.10.2018 22:00:00||AKTİFBANK|10.40.25.157|||110000438458|72
14.10.2018 22:00:00||AKTİFBANK|10.40.25.157|||110000438458|80
14.10.2018 22:00:00||AKTİFBANK|10.40.25.157|||110000438458|40
14.10.2018 22:00:00||AKTİFBANK|10.40.25.159|||110000438458|60
14.10.2018 22:00:00||AKTİFBANK|10.40.25.159|||110000438458|10
14.10.2018 22:00:00||AKTİFBANK|10.40.25.159|||110000438458|90
14.10.2018 22:00:00||AKTİFBANK|10.40.25.158|||110000438458|92
14.10.2018 22:00:00||AKTİFBANK|10.40.25.158|||110000438458|63
14.10.2018 22:00:00||AKTİFBANK|10.40.25.158|||110000438458|65
14.10.2018 22:00:00||AKTİFBANK|10.40.25.158|||110000438458|50
14.10.2018 22:00:00||AKTİFBANK|10.40.25.160|||110000438458|90
14.10.2018 22:00:00||AKTİFBANK|10.40.25.161|||110000438458|80
14.10.2018 22:00:00||AKTİFBANK|10.40.25.161|||110000438458|70
14.10.2018 22:00:00||AKTİFBANK|10.40.25.161|||110000438458|40
14.10.2018 22:00:00||AKTİFBANK|10.40.25.161|||110000438458|30
14.10.2018 22:00:00||AKTİFBANK|10.40.25.161|||110000438458|20
14.10.2018 22:00:00||AKTİFBANK|10.40.25.161|||110000438458|60
14.10.2018 22:00:00||AKTİFBANK|10.40.25.145|||110000438458|90
14.10.2018 22:00:00||AKTİFBANK|10.40.25.145|||110000438458|60
14.10.2018 22:00:00||AKTİFBANK|10.40.25.145|||110000438458|60
14.10.2018 22:00:00||AKTİFBANK|10.40.25.145|||110000438458|30
14.10.2018 22:00:00||AKTİFBANK|10.40.25.145|||110000438458|50
14.10.2018 22:00:00||AKTİFBANK|10.40.25.147|||110000438458|90
14.10.2018 22:00:00||AKTİFBANK|10.40.25.162|||110000438458|30
14.10.2018 22:00:00||AKTİFBANK|10.40.25.162|||110000438458|30
14.10.2018 22:00:00||AKTİFBANK|10.40.25.162|||110000438458|60
14.10.2018 22:00:00||AKTİFBANK|10.40.25.164|||110000438458|60
14.10.2018 22:00:00||AKTİFBANK|10.40.25.164|||110000438458|280
14.10.2018 22:00:00||AKTİFBANK|10.40.25.164|||110000438458|50
14.10.2018 22:00:00||AKTİFBANK|10.40.25.164|||110000438458|260
14.10.2018 22:00:00||AKTİFBANK|10.40.25.164|||110000438458|270
14.10.2018 22:00:00||AKTİFBANK|10.40.25.165|||110000438458|110
14.10.2018 22:00:00||AKTİFBANK|10.40.25.165|||110000438458|70
14.10.2018 22:00:00||AKTİFBANK|10.40.25.165|||110000438458|80
14.10.2018 22:00:00||AKTİFBANK|10.40.25.165|||110000438458|100
14.10.2018 22:00:00||AKTİFBANK|10.40.25.166|||110000438458|90
14.10.2018 22:00:00||AKTİFBANK|10.40.25.166|||110000438458|10
14.10.2018 22:00:00||AKTİFBANK|10.40.25.166|||110000438458|10
14.10.2018 22:00:00||AKTİFBANK|10.40.25.166|||110000438458|10
14.10.2018 22:00:00||AKTİFBANK|10.40.25.166|||110000438458|40
14.10.2018 22:00:00||AKTİFBANK|10.40.25.148|||110000438458|130
14.10.2018 22:00:00||AKTİFBANK|10.40.25.148|||110000438458|50
14.10.2018 22:00:00||AKTİFBANK|10.40.25.148|||110000438458|100
14.10.2018 22:00:00||AKTİFBANK|10.40.25.148|||110000438458|130
14.10.2018 22:00:00||AKTİFBANK|10.40.25.148|||110000438458|90
14.10.2018 22:00:00||AKTİFBANK|10.40.25.148|||110000438458|80
14.10.2018 22:00:00||AKTİFBANK|10.40.25.148|||110000438458|70
14.10.2018 22:00:00||AKTİFBANK|10.40.25.148|||110000438458|50
14.10.2018 22:00:00||AKTİFBANK|10.40.25.148|||110000438458|80
14.10.2018 22:00:00||AKTİFBANK|10.40.25.148|||110000438458|40
14.10.2018 22:00:00||AKTİFBANK|10.40.25.148|||110000438458|100
14.10.2018 22:00:00||AKTİFBANK|10.40.25.148|||110000438458|60
14.10.2018 22:00:00||AKTİFBANK|10.40.25.155|||110000438458|70
14.10.2018 22:00:00||AKTİFBANK|10.40.25.155|||110000438458|90
14.10.2018 22:00:00||AKTİFBANK|10.40.25.155|||110000438458|110
14.10.2018 22:00:00||AKTİFBANK|10.40.25.155|||110000438458|120
14.10.2018 22:00:00||AKTİFBANK|10.40.25.155|||110000438458|110
14.10.2018 22:00:00||AKTİFBANK|10.40.25.156|||110000438458|20
14.10.2018 22:00:00||AKTİFBANK|10.40.25.156|||110000438458|25
14.10.2018 22:00:00||AKTİFBANK|10.40.25.139|||110000438458|70
14.10.2018 22:00:00||AKTİFBANK|10.40.25.139|||110000438458|80
14.10.2018 22:00:00||AKTİFBANK|10.40.25.150|||110000438458|507
14.10.2018 22:00:00||AKTİFBANK|10.40.25.129|||110000438458|60
14.10.2018 22:00:00||AKTİFBANK|10.40.25.129|||110000438458|87
14.10.2018 22:00:00||AKTİFBANK|10.40.25.129|||110000438458|140
14.10.2018 22:00:00||AKTİFBANK|10.40.25.130|||110000438458|70
14.10.2018 22:00:00||AKTİFBANK|10.40.25.130|||110000438458|123
14.10.2018 22:00:00||AKTİFBANK|10.40.25.130|||110000438458|100
14.10.2018 22:00:00||AKTİFBANK|10.40.25.131|||110000438458|42
14.10.2018 22:00:00||AKTİFBANK|10.40.25.143|||110000438458|60
14.10.2018 22:00:00||AKTİFBANK|10.40.25.143|||110000438458|242
14.10.2018 22:00:00||AKTİFBANK|10.40.25.143|||110000438458|267
14.10.2018 22:00:00||AKTİFBANK|10.40.25.158|||110000438458|102
14.10.2018 22:00:00||AKTİFBANK|10.40.25.160|||110000438458|110
14.10.2018 22:00:00||AKTİFBANK|10.40.25.162|||110000438458|32
14.10.2018 22:00:00||AKTİFBANK|10.40.25.162|||110000438458|40
14.10.2018 22:00:00||AKTİFBANK|10.40.24.140|||110000438458|162
14.10.2018 22:00:00||AKTİFBANK|10.40.24.140|||110000438458|80
14.10.2018 22:00:00||AKTİFBANK|10.40.24.140|||110000438458|40
14.10.2018 22:00:00||AKTİFBANK|10.40.24.140|||110000438458|30
14.10.2018 22:00:00||AKTİFBANK|10.40.24.140|||110000438458|30
14.10.2018 22:00:00||AKTİFBANK|10.40.24.140|||110000438458|30
14.10.2018 22:00:00||AKTİFBANK|10.40.24.149|||110000438458|80
14.10.2018 22:00:00||AKTİFBANK|10.40.24.149|||110000438458|120
14.10.2018 22:00:00||AKTİFBANK|10.40.24.149|||110000438458|97
14.10.2018 22:00:00||AKTİFBANK|10.40.24.149|||110000438458|60
14.10.2018 22:00:00||AKTİFBANK|10.40.24.149|||110000438458|50
14.10.2018 22:00:00||AKTİFBANK|10.40.24.149|||110000438458|140
14.10.2018 22:00:00||AKTİFBANK|10.40.24.149|||110000438458|90
14.10.2018 22:00:00||AKTİFBANK|10.40.24.149|||110000438458|88
14.10.2018 22:00:00||AKTİFBANK|10.40.24.149|||110000438458|95
14.10.2018 22:00:00||AKTİFBANK|10.40.24.149|||110000438458|80
14.10.2018 22:00:00||AKTİFBANK|10.40.24.133|||110000438458|140
14.10.2018 22:00:00||AKTİFBANK|10.40.24.133|||110000438458|120
14.10.2018 22:00:00||AKTİFBANK|10.40.24.133|||110000438458|85
14.10.2018 22:00:00||AKTİFBANK|10.40.24.138|||110000438458|112
14.10.2018 22:00:00||AKTİFBANK|10.40.24.138|||110000438458|140
14.10.2018 22:00:00||AKTİFBANK|10.40.24.138|||110000438458|118
14.10.2018 22:00:00||AKTİFBANK|10.40.24.138|||110000438458|30
14.10.2018 22:00:00||AKTİFBANK|10.40.24.138|||110000438458|50
14.10.2018 22:00:00||AKTİFBANK|10.40.24.139|||110000438458|160
14.10.2018 22:00:00||AKTİFBANK|10.40.24.139|||110000438458|93
14.10.2018 22:00:00||AKTİFBANK|10.40.24.139|||110000438458|120
14.10.2018 22:00:00||AKTİFBANK|10.40.24.141|||110000438458|202
14.10.2018 22:00:00||AKTİFBANK|10.40.24.141|||110000438458|100
14.10.2018 22:00:00||AKTİFBANK|10.40.24.141|||110000438458|100
14.10.2018 22:00:00||AKTİFBANK|10.40.24.141|||110000438458|63
14.10.2018 22:00:00||AKTİFBANK|10.40.24.141|||110000438458|80
14.10.2018 22:00:00||AKTİFBANK|10.40.25.152|||110000438458|98
14.10.2018 22:00:00||AKTİFBANK|10.40.25.152|||110000438458|50
14.10.2018 22:00:00||AKTİFBANK|10.40.25.152|||110000438458|113
14.10.2018 22:00:00||AKTİFBANK|10.40.25.152|||110000438458|72
14.10.2018 22:00:00||AKTİFBANK|10.40.25.152|||110000438458|92
14.10.2018 22:00:00||AKTİFBANK|10.40.25.152|||110000438458|82
14.10.2018 22:00:00||AKTİFBANK|10.40.25.152|||110000438458|57
14.10.2018 22:00:00||AKTİFBANK|10.40.25.152|||110000438458|90
14.10.2018 22:00:00||AKTİFBANK|10.40.25.152|||110000438458|30
14.10.2018 22:00:00||AKTİFBANK|10.40.25.152|||110000438458|82
14.10.2018 22:00:00||AKTİFBANK|10.40.25.152|||110000438458|30
14.10.2018 22:00:00||AKTİFBANK|10.40.24.150|||110000438458|545
14.10.2018 22:00:00||AKTİFBANK|10.40.24.151|||110000438458|515
14.10.2018 22:00:00||AKTİFBANK|10.40.24.151|||110000438458|528
14.10.2018 22:00:00||AKTİFBANK|10.40.24.128|||110000438458|60
14.10.2018 22:00:00||AKTİFBANK|10.40.24.128|||110000438458|70
14.10.2018 22:00:00||AKTİFBANK|10.40.24.128|||110000438458|100
14.10.2018 22:00:00||AKTİFBANK|10.40.24.128|||110000438458|40
14.10.2018 22:00:00||AKTİFBANK|10.40.24.128|||110000438458|70
14.10.2018 22:00:00||AKTİFBANK|10.40.24.128|||110000438458|40
14.10.2018 22:00:00||AKTİFBANK|10.40.24.129|||110000438458|100
14.10.2018 22:00:00||AKTİFBANK|10.40.24.129|||110000438458|72
14.10.2018 22:00:00||AKTİFBANK|10.40.24.129|||110000438458|100
14.10.2018 22:00:00||AKTİFBANK|10.40.24.129|||110000438458|110
14.10.2018 22:00:00||AKTİFBANK|10.40.24.129|||110000438458|30
14.10.2018 22:00:00||AKTİFBANK|10.40.24.129|||110000438458|73
14.10.2018 22:00:00||AKTİFBANK|10.40.24.129|||110000438458|70
14.10.2018 22:00:00||AKTİFBANK|10.40.24.129|||110000438458|92
14.10.2018 22:00:00||AKTİFBANK|10.40.24.129|||110000438458|82
14.10.2018 22:00:00||AKTİFBANK|10.40.24.129|||110000438458|140
14.10.2018 22:00:00||AKTİFBANK|10.40.24.130|||110000438458|45
14.10.2018 22:00:00||AKTİFBANK|10.40.24.130|||110000438458|40
14.10.2018 22:00:00||AKTİFBANK|10.40.24.130|||110000438458|63
14.10.2018 22:00:00||AKTİFBANK|10.40.24.130|||110000438458|40
14.10.2018 22:00:00||AKTİFBANK|10.40.24.130|||110000438458|60
14.10.2018 22:00:00||AKTİFBANK|10.40.24.130|||110000438458|77
14.10.2018 22:00:00||AKTİFBANK|10.40.24.130|||110000438458|85
14.10.2018 22:00:00||AKTİFBANK|10.40.24.130|||110000438458|37
14.10.2018 22:00:00||AKTİFBANK|10.40.24.130|||110000438458|130
14.10.2018 22:00:00||AKTİFBANK|10.40.24.130|||110000438458|110
14.10.2018 22:00:00||AKTİFBANK|10.40.24.131|||110000438458|72
14.10.2018 22:00:00||AKTİFBANK|10.40.24.131|||110000438458|90
14.10.2018 22:00:00||AKTİFBANK|10.40.24.131|||110000438458|110
14.10.2018 22:00:00||AKTİFBANK|10.40.24.131|||110000438458|108
14.10.2018 22:00:00||AKTİFBANK|10.40.24.131|||110000438458|20
14.10.2018 22:00:00||AKTİFBANK|10.40.24.131|||110000438458|160
14.10.2018 22:00:00||AKTİFBANK|10.40.24.131|||110000438458|60
14.10.2018 22:00:00||AKTİFBANK|10.40.24.131|||110000438458|110
14.10.2018 22:00:00||AKTİFBANK|10.40.24.132|||110000438458|37
14.10.2018 22:00:00||AKTİFBANK|10.40.24.132|||110000438458|83
14.10.2018 22:00:00||AKTİFBANK|10.40.24.132|||110000438458|53
14.10.2018 22:00:00||AKTİFBANK|10.40.24.132|||110000438458|185
14.10.2018 22:00:00||AKTİFBANK|10.40.24.132|||110000438458|63
14.10.2018 22:00:00||AKTİFBANK|10.40.24.143|||110000438458|65
14.10.2018 22:00:00||AKTİFBANK|10.40.24.143|||110000438458|270
14.10.2018 22:00:00||AKTİFBANK|10.40.24.143|||110000438458|270
14.10.2018 22:00:00||AKTİFBANK|10.40.24.143|||110000438458|228
14.10.2018 22:00:00||AKTİFBANK|10.40.24.144|||110000438458|70
14.10.2018 22:00:00||AKTİFBANK|10.40.24.144|||110000438458|105
14.10.2018 22:00:00||AKTİFBANK|10.40.24.144|||110000438458|130
14.10.2018 22:00:00||AKTİFBANK|10.40.24.148|||110000438458|60
14.10.2018 22:00:00||AKTİFBANK|10.40.24.148|||110000438458|167
14.10.2018 22:00:00||AKTİFBANK|10.40.24.148|||110000438458|80
14.10.2018 22:00:00||AKTİFBANK|10.40.24.148|||110000438458|110
14.10.2018 22:00:00||AKTİFBANK|10.40.24.148|||110000438458|80
14.10.2018 22:00:00||AKTİFBANK|10.40.24.148|||110000438458|80
14.10.2018 22:00:00||AKTİFBANK|10.40.24.148|||110000438458|93
14.10.2018 22:00:00||AKTİFBANK|10.40.24.148|||110000438458|100
14.10.2018 22:00:00||AKTİFBANK|10.40.24.148|||110000438458|82
14.10.2018 22:00:00||AKTİFBANK|10.40.24.148|||110000438458|53
14.10.2018 22:00:00||AKTİFBANK|10.40.24.148|||110000438458|32
14.10.2018 22:00:00||AKTİFBANK|10.40.24.148|||110000438458|73
14.10.2018 22:00:00||AKTİFBANK|10.40.24.153|||110000438458|10
14.10.2018 22:00:00||AKTİFBANK|10.40.24.153|||110000438458|92
14.10.2018 22:00:00||AKTİFBANK|10.40.24.153|||110000438458|75
14.10.2018 22:00:00||AKTİFBANK|10.40.24.153|||110000438458|73
14.10.2018 22:00:00||AKTİFBANK|10.40.24.157|||110000438458|30
14.10.2018 22:00:00||AKTİFBANK|10.40.24.157|||110000438458|75
14.10.2018 22:00:00||AKTİFBANK|10.40.24.157|||110000438458|70
14.10.2018 22:00:00||AKTİFBANK|10.40.24.157|||110000438458|43
14.10.2018 22:00:00||AKTİFBANK|10.40.24.157|||110000438458|82
14.10.2018 22:00:00||AKTİFBANK|10.40.24.157|||110000438458|42
14.10.2018 22:00:00||AKTİFBANK|10.40.24.158|||110000438458|80
14.10.2018 22:00:00||AKTİFBANK|10.40.24.158|||110000438458|110
14.10.2018 22:00:00||AKTİFBANK|10.40.24.159|||110000438458|130
14.10.2018 22:00:00||AKTİFBANK|10.40.24.159|||110000438458|55
14.10.2018 22:00:00||AKTİFBANK|10.40.24.159|||110000438458|183
14.10.2018 22:00:00||AKTİFBANK|10.40.24.160|||110000438458|50
14.10.2018 22:00:00||AKTİFBANK|10.40.24.160|||110000438458|90
14.10.2018 22:00:00||AKTİFBANK|10.40.24.160|||110000438458|100
14.10.2018 22:00:00||AKTİFBANK|10.40.24.161|||110000438458|202
14.10.2018 22:00:00||AKTİFBANK|10.40.24.161|||110000438458|80
14.10.2018 22:00:00||AKTİFBANK|10.40.24.161|||110000438458|40
14.10.2018 22:00:00||AKTİFBANK|10.40.24.161|||110000438458|30
14.10.2018 22:00:00||AKTİFBANK|10.40.24.161|||110000438458|30
14.10.2018 22:00:00||AKTİFBANK|10.40.24.161|||110000438458|20
14.10.2018 22:00:00||AKTİFBANK|10.40.24.161|||110000438458|90
14.10.2018 22:00:00||AKTİFBANK|10.40.24.145|||110000438458|20
14.10.2018 22:00:00||AKTİFBANK|10.40.24.145|||110000438458|70
14.10.2018 22:00:00||AKTİFBANK|10.40.24.145|||110000438458|60
14.10.2018 22:00:00||AKTİFBANK|10.40.24.147|||110000438458|90
14.10.2018 22:00:00||AKTİFBANK|10.40.24.162|||110000438458|40
14.10.2018 22:00:00||AKTİFBANK|10.40.24.162|||110000438458|40
14.10.2018 22:00:00||AKTİFBANK|10.40.24.162|||110000438458|102
14.10.2018 22:00:00||AKTİFBANK|10.40.24.162|||110000438458|10
14.10.2018 22:00:00||AKTİFBANK|10.40.24.162|||110000438458|52
14.10.2018 22:00:00||AKTİFBANK|10.40.24.163|||110000438458|30
14.10.2018 22:00:00||AKTİFBANK|10.40.24.163|||110000438458|72
14.10.2018 22:00:00||AKTİFBANK|10.40.24.164|||110000438458|62
14.10.2018 22:00:00||AKTİFBANK|10.40.24.164|||110000438458|330
14.10.2018 22:00:00||AKTİFBANK|10.40.24.164|||110000438458|220
14.10.2018 22:00:00||AKTİFBANK|10.40.24.165|||110000438458|75
14.10.2018 22:00:00||AKTİFBANK|10.40.24.165|||110000438458|80
14.10.2018 22:00:00||AKTİFBANK|10.40.24.165|||110000438458|50
14.10.2018 22:00:00||AKTİFBANK|10.40.24.165|||110000438458|123
14.10.2018 22:00:00||AKTİFBANK|10.40.24.166|||110000438458|80
14.10.2018 22:00:00||AKTİFBANK|10.40.24.166|||110000438458|90
14.10.2018 22:00:00||AKTİFBANK|10.40.24.166|||110000438458|10
14.10.2018 22:00:00||AKTİFBANK|10.40.25.168|||110000438458|90
14.10.2018 22:00:00||AKTİFBANK|10.40.25.168|||110000438458|70
14.10.2018 22:00:00||AKTİFBANK|10.40.25.168|||110000438458|50
14.10.2018 22:00:00||AKTİFBANK|10.40.25.168|||110000438458|40
14.10.2018 22:00:00||AKTİFBANK|10.40.25.168|||110000438458|60
14.10.2018 22:00:00||AKTİFBANK|10.40.24.168|||110000438458|90
14.10.2018 22:00:00||AKTİFBANK|10.40.24.168|||110000438458|40
14.10.2018 22:00:00||AKTİFBANK|10.40.24.168|||110000438458|80
14.10.2018 22:00:00||AKTİFBANK|10.40.24.168|||110000438458|70
14.10.2018 22:00:00||AKTİFBANK|10.40.24.168|||110000438458|70
14.10.2018 22:00:00||AKTİFBANK|10.40.24.168|||110000438458|30
14.10.2018 22:00:00||AKTİFBANK|10.40.24.154|||110000438458|70
14.10.2018 22:00:00||AKTİFBANK|10.40.24.154|||110000438458|15
14.10.2018 22:00:00||AKTİFBANK|10.40.24.154|||110000438458|10
14.10.2018 22:00:00||AKTİFBANK|10.40.24.154|||110000438458|10
14.10.2018 22:00:00||AKTİFBANK|10.40.24.154|||110000438458|10
14.10.2018 22:00:00||AKTİFBANK|10.40.24.154|||110000438458|10
14.10.2018 22:00:00||AKTİFBANK|10.40.24.155|||110000438458|102
14.10.2018 22:00:00||AKTİFBANK|10.40.24.155|||110000438458|132
14.10.2018 22:00:00||AKTİFBANK|10.40.24.155|||110000438458|80
14.10.2018 22:00:00||AKTİFBANK|10.40.24.155|||110000438458|112
14.10.2018 22:00:00||AKTİFBANK|10.40.24.155|||110000438458|100
14.10.2018 22:00:00||AKTİFBANK|10.40.25.169|||110000438458|88
14.10.2018 22:00:00||AKTİFBANK|10.40.25.169|||110000438458|92
14.10.2018 22:00:00||AKTİFBANK|10.40.25.169|||110000438458|70
14.10.2018 22:00:00||AKTİFBANK|10.40.25.169|||110000438458|70
14.10.2018 22:00:00||AKTİFBANK|10.40.24.169|||110000438458|75
14.10.2018 22:00:00||AKTİFBANK|10.40.24.169|||110000438458|85
14.10.2018 22:00:00||AKTİFBANK|10.40.24.169|||110000438458|78
14.10.2018 22:00:00||AKTİFBANK|10.40.24.169|||110000438458|87
14.10.2018 22:00:00||AKTİFBANK|10.40.25.170|||110000438458|30
14.10.2018 22:00:00||AKTİFBANK|10.40.25.170|||110000438458|30
14.10.2018 22:00:00||AKTİFBANK|10.40.25.170|||110000438458|200
14.10.2018 22:00:00||AKTİFBANK|10.40.25.170|||110000438458|100
14.10.2018 22:00:00||AKTİFBANK|10.40.25.170|||110000438458|80
14.10.2018 22:00:00||AKTİFBANK|10.40.25.170|||110000438458|120
14.10.2018 22:00:00||AKTİFBANK|10.40.24.170|||110000438458|60
14.10.2018 22:00:00||AKTİFBANK|10.40.24.170|||110000438458|60
14.10.2018 22:00:00||AKTİFBANK|10.40.24.170|||110000438458|358
14.10.2018 22:00:00||AKTİFBANK|10.40.24.170|||110000438458|78
14.10.2018 22:00:00||AKTİFBANK|10.40.24.170|||110000438458|103
14.10.2018 22:00:00||AKTİFBANK|10.40.24.170|||110000438458|73
14.10.2018 22:00:00||AKTİFBANK|10.40.25.178|||110000438458|590
14.10.2018 22:00:00||AKTİFBANK|10.40.25.178|||110000438458|560
14.10.2018 22:00:00||AKTİFBANK|10.40.25.178|||110000438458|550
14.10.2018 22:00:00||AKTİFBANK|10.40.24.178|||110000438458|553
14.10.2018 22:00:00||AKTİFBANK|10.40.24.178|||110000438458|545
14.10.2018 22:00:00||AKTİFBANK|10.40.24.178|||110000438458|538
14.10.2018 22:00:00||AKTİFBANK|10.40.25.179|||110000438458|402
14.10.2018 22:00:00||AKTİFBANK|10.40.25.179|||110000438458|370
14.10.2018 22:00:00||AKTİFBANK|10.40.25.179|||110000438458|367
14.10.2018 22:00:00||AKTİFBANK|10.40.24.179|||110000438458|338
14.10.2018 22:00:00||AKTİFBANK|10.40.24.179|||110000438458|325
14.10.2018 22:00:00||AKTİFBANK|10.40.24.179|||110000438458|333
14.10.2018 22:00:00||AKTİFBANK|10.40.24.142|||110000438458|40
14.10.2018 22:00:00||AKTİFBANK|10.40.24.156|||110000438458|50
14.10.2018 22:00:00||AKTİFBANK|10.40.24.156|||110000438458|50
14.10.2018 22:00:00||AKTİFBANK|10.40.25.186|||110000438458|90
14.10.2018 22:00:00||AKTİFBANK|10.40.25.186|||110000438458|20
14.10.2018 22:00:00||AKTİFBANK|10.40.25.186|||110000438458|72
14.10.2018 22:00:00||AKTİFBANK|10.40.24.186|||110000438458|93
14.10.2018 22:00:00||AKTİFBANK|10.40.24.186|||110000438458|20
14.10.2018 22:00:00||AKTİFBANK|10.40.24.186|||110000438458|60
14.10.2018 22:00:00||AKTİFBANK|10.40.24.186|||110000438458|40
14.10.2018 22:00:00||AKTİFBANK|10.40.24.152|||110000438458|10
14.10.2018 22:00:00||AKTİFBANK|10.40.24.152|||110000438458|45
14.10.2018 22:00:00||AKTİFBANK|10.40.24.152|||110000438458|90
14.10.2018 22:00:00||AKTİFBANK|10.40.24.152|||110000438458|103
14.10.2018 22:00:00||AKTİFBANK|10.40.24.152|||110000438458|105
14.10.2018 22:00:00||AKTİFBANK|10.40.24.152|||110000438458|100
14.10.2018 22:00:00||AKTİFBANK|10.40.24.152|||110000438458|287
14.10.2018 22:00:00||AKTİFBANK|10.40.24.152|||110000438458|72
14.10.2018 22:00:00||AKTİFBANK|10.40.24.152|||110000438458|92
14.10.2018 22:00:00||AKTİFBANK|10.40.24.152|||110000438458|30
14.10.2018 22:00:00||AKTİFBANK|10.40.24.152|||110000438458|70
14.10.2018 22:00:00||AKTİFBANK|10.40.24.152|||110000438458|30
14.10.2018 22:00:00||BARİKAT İNTERNET GÜVENLİĞİ|10.40.25.201|||110000479736|118
14.10.2018 22:00:00||BARİKAT İNTERNET GÜVENLİĞİ|10.40.25.201|||110000479736|100
14.10.2018 22:00:00||BARİKAT İNTERNET GÜVENLİĞİ|10.40.24.201|||110000479736|133
14.10.2018 22:00:00||BARİKAT İNTERNET GÜVENLİĞİ|10.40.24.201|||110000479736|90
14.10.2018 22:00:00||BOYNER|10.40.26.100|||101367941673|55
14.10.2018 22:00:00||BOYNER|10.40.26.101|||101367941673|156
14.10.2018 22:00:00||BOYNER|10.40.27.100|||101367941673|51
14.10.2018 22:00:00||BOYNER|10.40.27.101|||101367941673|165
14.10.2018 22:00:00||BOYNER|10.40.27.94|||101367941673|210
14.10.2018 22:00:00||BOYNER|10.40.27.94|||101367941673|90
14.10.2018 22:00:00||BOYNER|10.40.27.94|||101367941673|90
14.10.2018 22:00:00||BOYNER|10.40.27.94|||101367941673|100
14.10.2018 22:00:00||BOYNER|10.40.26.94|||101367941673|90
14.10.2018 22:00:00||BOYNER|10.40.26.94|||101367941673|80
14.10.2018 22:00:00||BOYNER|10.40.26.94|||101367941673|80
14.10.2018 22:00:00||BOYNER|10.40.27.95|||101367941673|132
14.10.2018 22:00:00||BOYNER|10.40.27.95|||101367941673|130
14.10.2018 22:00:00||BOYNER|10.40.27.95|||101367941673|238
14.10.2018 22:00:00||BOYNER|10.40.26.95|||101367941673|100
14.10.2018 22:00:00||BOYNER|10.40.26.95|||101367941673|190
14.10.2018 22:00:00||BOYNER|10.40.26.95|||101367941673|130
14.10.2018 22:00:00||BOYNER|10.40.27.96|||101367941673|60
14.10.2018 22:00:00||BOYNER|10.40.27.96|||101367941673|60
14.10.2018 22:00:00||BOYNER|10.40.27.96|||101367941673|50
14.10.2018 22:00:00||BOYNER|10.40.27.96|||101367941673|40
14.10.2018 22:00:00||BOYNER|10.40.27.96|||101367941673|40
14.10.2018 22:00:00||BOYNER|10.40.27.96|||101367941673|140
14.10.2018 22:00:00||BOYNER|10.40.27.96|||101367941673|150
14.10.2018 22:00:00||BOYNER|10.40.27.96|||101367941673|177
14.10.2018 22:00:00||BOYNER|10.40.27.96|||101367941673|163
14.10.2018 22:00:00||BOYNER|10.40.26.96|||101367941673|30
14.10.2018 22:00:00||BOYNER|10.40.26.96|||101367941673|38
14.10.2018 22:00:00||BOYNER|10.40.26.96|||101367941673|30
14.10.2018 22:00:00||BOYNER|10.40.26.96|||101367941673|40
14.10.2018 22:00:00||BOYNER|10.40.26.96|||101367941673|40
14.10.2018 22:00:00||BOYNER|10.40.26.96|||101367941673|50
14.10.2018 22:00:00||BOYNER|10.40.26.96|||101367941673|188
14.10.2018 22:00:00||BOYNER|10.40.26.96|||101367941673|198
14.10.2018 22:00:00||BOYNER|10.40.26.96|||101367941673|168
14.10.2018 22:00:00||BOYNER|10.40.26.96|||101367941673|178
14.10.2018 22:00:00||BOYNER|10.40.27.97|||101367941673|60
14.10.2018 22:00:00||BOYNER|10.40.27.97|||101367941673|650
14.10.2018 22:00:00||BOYNER|10.40.27.97|||101367941673|652
14.10.2018 22:00:00||BOYNER|10.40.27.97|||101367941673|687
14.10.2018 22:00:00||BOYNER|10.40.27.97|||101367941673|50
14.10.2018 22:00:00||BOYNER|10.40.27.97|||101367941673|40
14.10.2018 22:00:00||BOYNER|10.40.27.97|||101367941673|58
14.10.2018 22:00:00||BOYNER|10.40.27.97|||101367941673|30
14.10.2018 22:00:00||BOYNER|10.40.27.97|||101367941673|173
14.10.2018 22:00:00||BOYNER|10.40.27.97|||101367941673|168
14.10.2018 22:00:00||BOYNER|10.40.27.97|||101367941673|185
14.10.2018 22:00:00||BOYNER|10.40.27.97|||101367941673|188
14.10.2018 22:00:00||BOYNER|10.40.26.97|||101367941673|30
14.10.2018 22:00:00||BOYNER|10.40.26.97|||101367941673|643
14.10.2018 22:00:00||BOYNER|10.40.26.97|||101367941673|647
14.10.2018 22:00:00||BOYNER|10.40.26.97|||101367941673|650
14.10.2018 22:00:00||BOYNER|10.40.26.97|||101367941673|30
14.10.2018 22:00:00||BOYNER|10.40.26.97|||101367941673|40
14.10.2018 22:00:00||BOYNER|10.40.26.97|||101367941673|50
14.10.2018 22:00:00||BOYNER|10.40.26.97|||101367941673|60
14.10.2018 22:00:00||BOYNER|10.40.26.97|||101367941673|30
14.10.2018 22:00:00||BOYNER|10.40.26.97|||101367941673|157
14.10.2018 22:00:00||BOYNER|10.40.26.97|||101367941673|175
14.10.2018 22:00:00||BOYNER|10.40.26.97|||101367941673|168
14.10.2018 22:00:00||BOYNER|10.40.26.97|||101367941673|150
14.10.2018 22:00:00||BOYNER|10.40.27.99|||101367941673|120
14.10.2018 22:00:00||BOYNER|10.40.27.99|||101367941673|80
14.10.2018 22:00:00||BOYNER|10.40.27.99|||101367941673|80
14.10.2018 22:00:00||BOYNER|10.40.26.99|||101367941673|12
14.10.2018 22:00:00||BOYNER|10.40.26.99|||101367941673|128
14.10.2018 22:00:00||BOYNER|10.40.26.99|||101367941673|105
14.10.2018 22:00:00||BOYNER|10.40.26.99|||101367941673|78
14.10.2018 22:00:00||ÇALIK HOLDİNG|10.40.24.118|||110000438407|43
14.10.2018 22:00:00||ÇALIK HOLDİNG|10.40.25.99|||110000438407|139
14.10.2018 22:00:00||ÇALIK HOLDİNG|10.40.25.118|||110000438407|161
14.10.2018 22:00:00||ÇALIK HOLDİNG|10.40.25.120|||110000438407|10
14.10.2018 22:00:00||ÇALIK HOLDİNG|10.40.25.120|||110000438407|90
14.10.2018 22:00:00||ÇALIK HOLDİNG|10.40.24.95|||110000438407|50
14.10.2018 22:00:00||ÇALIK HOLDİNG|10.40.25.97|||110000438407|80
14.10.2018 22:00:00||ÇALIK HOLDİNG|10.40.25.103|||110000438407|90
14.10.2018 22:00:00||ÇALIK HOLDİNG|10.40.25.120|||110000438407|40
14.10.2018 22:00:00||ÇALIK HOLDİNG|10.40.25.96|||110000438407|70
14.10.2018 22:00:00||ÇALIK HOLDİNG|10.40.25.96|||110000438407|90
14.10.2018 22:00:00||ÇALIK HOLDİNG|10.40.25.96|||110000438407|122
14.10.2018 22:00:00||ÇALIK HOLDİNG|10.40.25.96|||110000438407|90
14.10.2018 22:00:00||ÇALIK HOLDİNG|10.40.25.115|||110000438407|173
14.10.2018 22:00:00||ÇALIK HOLDİNG|10.40.25.115|||110000438407|80
14.10.2018 22:00:00||ÇALIK HOLDİNG|10.40.25.95|||110000438407|92
14.10.2018 22:00:00||ÇALIK HOLDİNG|10.40.25.96|||110000438407|90
14.10.2018 22:00:00||ÇALIK HOLDİNG|10.40.25.96|||110000438407|100
14.10.2018 22:00:00||ÇALIK HOLDİNG|10.40.25.120|||110000438407|20
14.10.2018 22:00:00||ÇALIK HOLDİNG|10.40.25.95|||110000438407|55
14.10.2018 22:00:00||ÇALIK HOLDİNG|10.40.24.94|||110000438407|192
14.10.2018 22:00:00||ÇALIK HOLDİNG|10.40.25.97|||110000438407|105
14.10.2018 22:00:00||ÇALIK HOLDİNG|10.40.25.120|||110000438407|60
14.10.2018 22:00:00||ÇALIK HOLDİNG|10.40.25.115|||110000438407|90
14.10.2018 22:00:00||ÇALIK HOLDİNG|10.40.25.115|||110000438407|73
14.10.2018 22:00:00||ÇALIK HOLDİNG|10.40.25.115|||110000438407|70
14.10.2018 22:00:00||ÇALIK HOLDİNG|10.40.25.101|||110000438407|50
14.10.2018 22:00:00||ÇALIK HOLDİNG|10.40.25.101|||110000438407|110
14.10.2018 22:00:00||ÇALIK HOLDİNG|10.40.25.101|||110000438407|30
14.10.2018 22:00:00||ÇALIK HOLDİNG|10.40.25.101|||110000438407|10
14.10.2018 22:00:00||ÇALIK HOLDİNG|10.40.25.101|||110000438407|75
14.10.2018 22:00:00||ÇALIK HOLDİNG|10.40.25.101|||110000438407|30
14.10.2018 22:00:00||ÇALIK HOLDİNG|10.40.25.101|||110000438407|37
14.10.2018 22:00:00||ÇALIK HOLDİNG|10.40.25.101|||110000438407|40
14.10.2018 22:00:00||ÇALIK HOLDİNG|10.40.25.101|||110000438407|90
14.10.2018 22:00:00||ÇALIK HOLDİNG|10.40.25.101|||110000438407|90
14.10.2018 22:00:00||ÇALIK HOLDİNG|10.40.25.101|||110000438407|90
14.10.2018 22:00:00||ÇALIK HOLDİNG|10.40.25.94|||110000438407|180
14.10.2018 22:00:00||ÇALIK HOLDİNG|10.40.25.94|||110000438407|180
14.10.2018 22:00:00||ÇALIK HOLDİNG|10.40.25.94|||110000438407|170
14.10.2018 22:00:00||ÇALIK HOLDİNG|10.40.25.94|||110000438407|180
14.10.2018 22:00:00||ÇALIK HOLDİNG|10.40.24.94|||110000438407|202
14.10.2018 22:00:00||ÇALIK HOLDİNG|10.40.24.94|||110000438407|182
14.10.2018 22:00:00||ÇALIK HOLDİNG|10.40.24.94|||110000438407|178
14.10.2018 22:00:00||ÇALIK HOLDİNG|10.40.25.95|||110000438407|20
14.10.2018 22:00:00||ÇALIK HOLDİNG|10.40.25.95|||110000438407|348
14.10.2018 22:00:00||ÇALIK HOLDİNG|10.40.25.95|||110000438407|350
14.10.2018 22:00:00||ÇALIK HOLDİNG|10.40.25.95|||110000438407|40
14.10.2018 22:00:00||ÇALIK HOLDİNG|10.40.24.95|||110000438407|100
14.10.2018 22:00:00||ÇALIK HOLDİNG|10.40.24.95|||110000438407|82
14.10.2018 22:00:00||ÇALIK HOLDİNG|10.40.24.95|||110000438407|383
14.10.2018 22:00:00||ÇALIK HOLDİNG|10.40.24.95|||110000438407|382
14.10.2018 22:00:00||ÇALIK HOLDİNG|10.40.25.96|||110000438407|90
14.10.2018 22:00:00||ÇALIK HOLDİNG|10.40.25.96|||110000438407|97
14.10.2018 22:00:00||ÇALIK HOLDİNG|10.40.25.96|||110000438407|100
14.10.2018 22:00:00||ÇALIK HOLDİNG|10.40.25.96|||110000438407|257
14.10.2018 22:00:00||ÇALIK HOLDİNG|10.40.25.96|||110000438407|263
14.10.2018 22:00:00||ÇALIK HOLDİNG|10.40.25.96|||110000438407|100
14.10.2018 22:00:00||ÇALIK HOLDİNG|10.40.25.96|||110000438407|90
14.10.2018 22:00:00||ÇALIK HOLDİNG|10.40.25.96|||110000438407|90
14.10.2018 22:00:00||ÇALIK HOLDİNG|10.40.25.97|||110000438407|90
14.10.2018 22:00:00||ÇALIK HOLDİNG|10.40.25.97|||110000438407|80
14.10.2018 22:00:00||ÇALIK HOLDİNG|10.40.25.97|||110000438407|297
14.10.2018 22:00:00||ÇALIK HOLDİNG|10.40.25.98|||110000438407|50
14.10.2018 22:00:00||ÇALIK HOLDİNG|10.40.25.98|||110000438407|163
14.10.2018 22:00:00||ÇALIK HOLDİNG|10.40.25.98|||110000438407|160
14.10.2018 22:00:00||ÇALIK HOLDİNG|10.40.25.98|||110000438407|170
14.10.2018 22:00:00||ÇALIK HOLDİNG|10.40.25.98|||110000438407|168
14.10.2018 22:00:00||ÇALIK HOLDİNG|10.40.25.98|||110000438407|62
14.10.2018 22:00:00||ÇALIK HOLDİNG|10.40.25.98|||110000438407|210
14.10.2018 22:00:00||ÇALIK HOLDİNG|10.40.25.98|||110000438407|180
14.10.2018 22:00:00||ÇALIK HOLDİNG|10.40.25.98|||110000438407|170
14.10.2018 22:00:00||ÇALIK HOLDİNG|10.40.25.98|||110000438407|212
14.10.2018 22:00:00||ÇALIK HOLDİNG|10.40.25.98|||110000438407|70
14.10.2018 22:00:00||ÇALIK HOLDİNG|10.40.25.98|||110000438407|348
14.10.2018 22:00:00||ÇALIK HOLDİNG|10.40.24.98|||110000438407|90
14.10.2018 22:00:00||ÇALIK HOLDİNG|10.40.24.98|||110000438407|158
14.10.2018 22:00:00||ÇALIK HOLDİNG|10.40.24.98|||110000438407|200
14.10.2018 22:00:00||ÇALIK HOLDİNG|10.40.24.98|||110000438407|200
14.10.2018 22:00:00||ÇALIK HOLDİNG|10.40.24.98|||110000438407|163
14.10.2018 22:00:00||ÇALIK HOLDİNG|10.40.24.98|||110000438407|30
14.10.2018 22:00:00||ÇALIK HOLDİNG|10.40.24.98|||110000438407|162
14.10.2018 22:00:00||ÇALIK HOLDİNG|10.40.24.98|||110000438407|180
14.10.2018 22:00:00||ÇALIK HOLDİNG|10.40.24.98|||110000438407|168
14.10.2018 22:00:00||ÇALIK HOLDİNG|10.40.24.98|||110000438407|172
14.10.2018 22:00:00||ÇALIK HOLDİNG|10.40.24.98|||110000438407|20
14.10.2018 22:00:00||ÇALIK HOLDİNG|10.40.24.98|||110000438407|315
14.10.2018 22:00:00||ÇALIK HOLDİNG|10.40.25.100|||110000438407|33
14.10.2018 22:00:00||ÇALIK HOLDİNG|10.40.25.100|||110000438407|40
14.10.2018 22:00:00||ÇALIK HOLDİNG|10.40.24.101|||110000438407|60
14.10.2018 22:00:00||ÇALIK HOLDİNG|10.40.24.101|||110000438407|110
14.10.2018 22:00:00||ÇALIK HOLDİNG|10.40.24.101|||110000438407|20
14.10.2018 22:00:00||ÇALIK HOLDİNG|10.40.24.101|||110000438407|20
14.10.2018 22:00:00||ÇALIK HOLDİNG|10.40.24.101|||110000438407|42
14.10.2018 22:00:00||ÇALIK HOLDİNG|10.40.24.101|||110000438407|83
14.10.2018 22:00:00||ÇALIK HOLDİNG|10.40.24.101|||110000438407|10
14.10.2018 22:00:00||ÇALIK HOLDİNG|10.40.24.101|||110000438407|20
14.10.2018 22:00:00||ÇALIK HOLDİNG|10.40.24.101|||110000438407|50
14.10.2018 22:00:00||ÇALIK HOLDİNG|10.40.24.101|||110000438407|30
14.10.2018 22:00:00||ÇALIK HOLDİNG|10.40.24.101|||110000438407|80
14.10.2018 22:00:00||ÇALIK HOLDİNG|10.40.24.101|||110000438407|80
14.10.2018 22:00:00||ÇALIK HOLDİNG|10.40.24.101|||110000438407|95
14.10.2018 22:00:00||ÇALIK HOLDİNG|10.40.25.102|||110000438407|100
14.10.2018 22:00:00||ÇALIK HOLDİNG|10.40.25.102|||110000438407|100
14.10.2018 22:00:00||ÇALIK HOLDİNG|10.40.25.102|||110000438407|150
14.10.2018 22:00:00||ÇALIK HOLDİNG|10.40.24.102|||110000438407|100
14.10.2018 22:00:00||ÇALIK HOLDİNG|10.40.24.102|||110000438407|100
14.10.2018 22:00:00||ÇALIK HOLDİNG|10.40.24.102|||110000438407|140
14.10.2018 22:00:00||ÇALIK HOLDİNG|10.40.25.103|||110000438407|90
14.10.2018 22:00:00||ÇALIK HOLDİNG|10.40.25.103|||110000438407|80
14.10.2018 22:00:00||ÇALIK HOLDİNG|10.40.25.103|||110000438407|20
14.10.2018 22:00:00||ÇALIK HOLDİNG|10.40.25.103|||110000438407|10
14.10.2018 22:00:00||ÇALIK HOLDİNG|10.40.25.115|||110000438407|92
14.10.2018 22:00:00||ÇALIK HOLDİNG|10.40.24.103|||110000438407|100
14.10.2018 22:00:00||ÇALIK HOLDİNG|10.40.24.103|||110000438407|80
14.10.2018 22:00:00||ÇALIK HOLDİNG|10.40.24.103|||110000438407|80
14.10.2018 22:00:00||ÇALIK HOLDİNG|10.40.24.103|||110000438407|10
14.10.2018 22:00:00||ÇALIK HOLDİNG|10.40.25.113|||110000438407|217
14.10.2018 22:00:00||ÇALIK HOLDİNG|10.40.25.113|||110000438407|228
14.10.2018 22:00:00||ÇALIK HOLDİNG|10.40.25.113|||110000438407|190
14.10.2018 22:00:00||ÇALIK HOLDİNG|10.40.25.113|||110000438407|203
14.10.2018 22:00:00||ÇALIK HOLDİNG|10.40.24.113|||110000438407|227
14.10.2018 22:00:00||ÇALIK HOLDİNG|10.40.24.113|||110000438407|218
14.10.2018 22:00:00||ÇALIK HOLDİNG|10.40.24.113|||110000438407|188
14.10.2018 22:00:00||ÇALIK HOLDİNG|10.40.24.113|||110000438407|150
14.10.2018 22:00:00||ÇALIK HOLDİNG|10.40.25.114|||110000438407|132
14.10.2018 22:00:00||ÇALIK HOLDİNG|10.40.25.114|||110000438407|423
14.10.2018 22:00:00||ÇALIK HOLDİNG|10.40.25.114|||110000438407|40
14.10.2018 22:00:00||ÇALIK HOLDİNG|10.40.24.114|||110000438407|20
14.10.2018 22:00:00||ÇALIK HOLDİNG|10.40.24.114|||110000438407|40
14.10.2018 22:00:00||ÇALIK HOLDİNG|10.40.24.114|||110000438407|155
14.10.2018 22:00:00||ÇALIK HOLDİNG|10.40.24.114|||110000438407|377
14.10.2018 22:00:00||ÇALIK HOLDİNG|10.40.24.115|||110000438407|162
14.10.2018 22:00:00||ÇALIK HOLDİNG|10.40.24.115|||110000438407|87
14.10.2018 22:00:00||ÇALIK HOLDİNG|10.40.24.115|||110000438407|92
14.10.2018 22:00:00||ÇALIK HOLDİNG|10.40.24.115|||110000438407|75
14.10.2018 22:00:00||ÇALIK HOLDİNG|10.40.24.115|||110000438407|90
14.10.2018 22:00:00||ÇALIK HOLDİNG|10.40.24.115|||110000438407|77
14.10.2018 22:00:00||ÇALIK HOLDİNG|10.40.25.116|||110000438407|105
14.10.2018 22:00:00||ÇALIK HOLDİNG|10.40.25.116|||110000438407|102
14.10.2018 22:00:00||ÇALIK HOLDİNG|10.40.25.116|||110000438407|297
14.10.2018 22:00:00||ÇALIK HOLDİNG|10.40.24.116|||110000438407|288
14.10.2018 22:00:00||ÇALIK HOLDİNG|10.40.24.116|||110000438407|100
14.10.2018 22:00:00||ÇALIK HOLDİNG|10.40.24.116|||110000438407|105
14.10.2018 22:00:00||ÇALIK HOLDİNG|10.40.25.117|||110000438407|242
14.10.2018 22:00:00||ÇALIK HOLDİNG|10.40.25.117|||110000438407|30
14.10.2018 22:00:00||ÇALIK HOLDİNG|10.40.25.117|||110000438407|23
14.10.2018 22:00:00||ÇALIK HOLDİNG|10.40.25.119|||110000438407|30
14.10.2018 22:00:00||ÇALIK HOLDİNG|10.40.25.119|||110000438407|30
14.10.2018 22:00:00||ÇALIK HOLDİNG|10.40.24.119|||110000438407|150
14.10.2018 22:00:00||ÇALIK HOLDİNG|10.40.24.119|||110000438407|30
14.10.2018 22:00:00||ÇALIK HOLDİNG|10.40.24.119|||110000438407|50
14.10.2018 22:00:00||ÇALIK HOLDİNG|10.40.25.120|||110000438407|105
14.10.2018 22:00:00||ÇALIK HOLDİNG|10.40.25.120|||110000438407|50
14.10.2018 22:00:00||ÇALIK HOLDİNG|10.40.25.120|||110000438407|20
14.10.2018 22:00:00||ÇALIK HOLDİNG|10.40.25.120|||110000438407|20
14.10.2018 22:00:00||ÇALIK HOLDİNG|10.40.25.120|||110000438407|30
14.10.2018 22:00:00||ÇALIK HOLDİNG|10.40.25.120|||110000438407|88
14.10.2018 22:00:00||ÇALIK HOLDİNG|10.40.25.120|||110000438407|90
14.10.2018 22:00:00||ÇALIK HOLDİNG|10.40.24.120|||110000438407|20
14.10.2018 22:00:00||ÇALIK HOLDİNG|10.40.24.120|||110000438407|30
14.10.2018 22:00:00||ÇALIK HOLDİNG|10.40.24.120|||110000438407|110
14.10.2018 22:00:00||ÇALIK HOLDİNG|10.40.24.120|||110000438407|100
14.10.2018 22:00:00||ÇALIK HOLDİNG|10.40.24.120|||110000438407|40
14.10.2018 22:00:00||ÇALIK HOLDİNG|10.40.24.120|||110000438407|80
14.10.2018 22:00:00||ÇALIK HOLDİNG|10.40.24.120|||110000438407|80
14.10.2018 22:00:00||ÇALIK HOLDİNG|10.40.24.120|||110000438407|70
14.10.2018 22:00:00||ÇALIK HOLDİNG|10.40.25.121|||110000438407|90
14.10.2018 22:00:00||ÇALIK HOLDİNG|10.40.25.121|||110000438407|102
14.10.2018 22:00:00||ÇALIK HOLDİNG|10.40.25.121|||110000438407|150
14.10.2018 22:00:00||ÇALIK HOLDİNG|10.40.24.121|||110000438407|100
14.10.2018 22:00:00||ÇALIK HOLDİNG|10.40.24.121|||110000438407|100
14.10.2018 22:00:00||ÇALIK HOLDİNG|10.40.24.121|||110000438407|140
14.10.2018 22:00:00||ÇALIK HOLDİNG|10.40.25.122|||110000438407|90
14.10.2018 22:00:00||ÇALIK HOLDİNG|10.40.25.122|||110000438407|80
14.10.2018 22:00:00||ÇALIK HOLDİNG|10.40.25.122|||110000438407|80
14.10.2018 22:00:00||ÇALIK HOLDİNG|10.40.25.122|||110000438407|30
14.10.2018 22:00:00||ÇALIK HOLDİNG|10.40.25.122|||110000438407|10
14.10.2018 22:00:00||ÇALIK HOLDİNG|10.40.24.122|||110000438407|90
14.10.2018 22:00:00||ÇALIK HOLDİNG|10.40.24.122|||110000438407|80
14.10.2018 22:00:00||ÇALIK HOLDİNG|10.40.24.122|||110000438407|90
14.10.2018 22:00:00||ÇALIK HOLDİNG|10.40.24.117|||110000438407|200
14.10.2018 22:00:00||ÇALIK HOLDİNG|10.40.24.117|||110000438407|30
14.10.2018 22:00:00||ÇALIK HOLDİNG|10.40.24.117|||110000438407|30
14.10.2018 22:00:00||ÇALIK HOLDİNG|10.40.24.97|||110000438407|100
14.10.2018 22:00:00||ÇALIK HOLDİNG|10.40.24.97|||110000438407|90
14.10.2018 22:00:00||ÇALIK HOLDİNG|10.40.24.97|||110000438407|80
14.10.2018 22:00:00||ÇALIK HOLDİNG|10.40.24.97|||110000438407|90
14.10.2018 22:00:00||ÇALIK HOLDİNG|10.40.24.97|||110000438407|310
14.10.2018 22:00:00||ÇALIK HOLDİNG|10.40.24.100|||110000438407|30
14.10.2018 22:00:00||ÇALIK HOLDİNG|10.40.24.100|||110000438407|40
14.10.2018 22:00:00||FIBABANKA|10.40.27.54|||101571767266|309
14.10.2018 22:00:00||FIBABANKA|10.40.26.54|||101571767266|317
14.10.2018 22:00:00||FIBABANKA|10.40.27.55|||101571767266|104
14.10.2018 22:00:00||FIBABANKA|10.40.26.55|||101571767266|103
14.10.2018 22:00:00||FIBABANKA|10.40.24.55|||101571767266|111
14.10.2018 22:00:00||FIBABANKA|10.40.25.56|||101571767266|198
14.10.2018 22:00:00||FIBABANKA|10.40.25.54|||101571767266|328
14.10.2018 22:00:00||FIBABANKA|10.40.24.54|||101571767266|314
14.10.2018 22:00:00||FIBABANKA|10.40.25.55|||101571767266|111
14.10.2018 22:00:00||FIBABANKA|10.40.24.56|||101571767266|197
14.10.2018 22:00:00||FIBABANKA|10.40.26.53|||101571767266|50
14.10.2018 22:00:00||FIBABANKA|10.40.26.53|||101571767266|155
14.10.2018 22:00:00||FIBABANKA|10.40.25.76|||101571767266|10
14.10.2018 22:00:00||FIBABANKA|10.40.27.53|||101571767266|160
14.10.2018 22:00:00||FIBABANKA|10.40.27.53|||101571767266|158
14.10.2018 22:00:00||FIBABANKA|10.40.26.53|||101571767266|137
14.10.2018 22:00:00||FIBABANKA|10.40.27.57|||101571767266|87
14.10.2018 22:00:00||FIBABANKA|10.40.27.57|||101571767266|80
14.10.2018 22:00:00||FIBABANKA|10.40.27.57|||101571767266|80
14.10.2018 22:00:00||FIBABANKA|10.40.25.57|||101571767266|90
14.10.2018 22:00:00||FIBABANKA|10.40.25.57|||101571767266|90
14.10.2018 22:00:00||FIBABANKA|10.40.25.57|||101571767266|90
14.10.2018 22:00:00||FIBABANKA|10.40.26.51|||101571767266|20
14.10.2018 22:00:00||FIBABANKA|10.40.27.52|||101571767266|50
14.10.2018 22:00:00||FIBABANKA|10.40.27.52|||101571767266|60
14.10.2018 22:00:00||FIBABANKA|10.40.27.52|||101571767266|70
14.10.2018 22:00:00||FIBABANKA|10.40.27.74|||101571767266|168
14.10.2018 22:00:00||FIBABANKA|10.40.25.53|||101571767266|32
14.10.2018 22:00:00||FIBABANKA|10.40.25.53|||101571767266|50
14.10.2018 22:00:00||FIBABANKA|10.40.27.53|||101571767266|58
14.10.2018 22:00:00||FIBABANKA|10.40.26.53|||101571767266|60
14.10.2018 22:00:00||FIBABANKA|10.40.25.51|||101571767266|20
14.10.2018 22:00:00||FIBABANKA|10.40.25.51|||101571767266|110
14.10.2018 22:00:00||FIBABANKA|10.40.24.51|||101571767266|20
14.10.2018 22:00:00||FIBABANKA|10.40.24.51|||101571767266|70
14.10.2018 22:00:00||FIBABANKA|10.40.24.51|||101571767266|102
14.10.2018 22:00:00||FIBABANKA|10.40.24.51|||101571767266|140
14.10.2018 22:00:00||FIBABANKA|10.40.24.51|||101571767266|30
14.10.2018 22:00:00||FIBABANKA|10.40.24.57|||101571767266|90
14.10.2018 22:00:00||FIBABANKA|10.40.24.57|||101571767266|80
14.10.2018 22:00:00||FIBABANKA|10.40.24.57|||101571767266|80
14.10.2018 22:00:00||FIBABANKA|10.40.24.52|||101571767266|10
14.10.2018 22:00:00||FIBABANKA|10.40.26.73|||101571767266|40
14.10.2018 22:00:00||FIBABANKA|10.40.27.53|||101571767266|62
14.10.2018 22:00:00||FIBABANKA|10.40.26.51|||101571767266|70
14.10.2018 22:00:00||FIBABANKA|10.40.26.52|||101571767266|30
14.10.2018 22:00:00||FIBABANKA|10.40.26.52|||101571767266|90
14.10.2018 22:00:00||FIBABANKA|10.40.26.52|||101571767266|30
14.10.2018 22:00:00||FIBABANKA|10.40.25.51|||101571767266|140
14.10.2018 22:00:00||FIBABANKA|10.40.25.51|||101571767266|40
14.10.2018 22:00:00||FIBABANKA|10.40.25.51|||101571767266|40
14.10.2018 22:00:00||FIBABANKA|10.40.25.51|||101571767266|70
14.10.2018 22:00:00||FIBABANKA|10.40.24.51|||101571767266|30
14.10.2018 22:00:00||FIBABANKA|10.40.25.59|||101571767266|70
14.10.2018 22:00:00||FIBABANKA|10.40.25.59|||101571767266|92
14.10.2018 22:00:00||FIBABANKA|10.40.25.59|||101571767266|103
14.10.2018 22:00:00||FIBABANKA|10.40.25.59|||101571767266|40
14.10.2018 22:00:00||FIBABANKA|10.40.25.59|||101571767266|123
14.10.2018 22:00:00||FIBABANKA|10.40.25.59|||101571767266|62
14.10.2018 22:00:00||FIBABANKA|10.40.25.59|||101571767266|50
14.10.2018 22:00:00||FIBABANKA|10.40.25.59|||101571767266|168
14.10.2018 22:00:00||FIBABANKA|10.40.25.59|||101571767266|60
14.10.2018 22:00:00||FIBABANKA|10.40.24.59|||101571767266|70
14.10.2018 22:00:00||FIBABANKA|10.40.24.59|||101571767266|122
14.10.2018 22:00:00||FIBABANKA|10.40.24.59|||101571767266|80
14.10.2018 22:00:00||FIBABANKA|10.40.24.59|||101571767266|50
14.10.2018 22:00:00||FIBABANKA|10.40.24.59|||101571767266|128
14.10.2018 22:00:00||FIBABANKA|10.40.24.59|||101571767266|70
14.10.2018 22:00:00||FIBABANKA|10.40.24.59|||101571767266|60
14.10.2018 22:00:00||FIBABANKA|10.40.24.59|||101571767266|158
14.10.2018 22:00:00||FIBABANKA|10.40.24.59|||101571767266|68
14.10.2018 22:00:00||FIBABANKA|10.40.25.60|||101571767266|112
14.10.2018 22:00:00||FIBABANKA|10.40.25.60|||101571767266|37
14.10.2018 22:00:00||FIBABANKA|10.40.25.60|||101571767266|107
14.10.2018 22:00:00||FIBABANKA|10.40.25.60|||101571767266|40
14.10.2018 22:00:00||FIBABANKA|10.40.24.60|||101571767266|120
14.10.2018 22:00:00||FIBABANKA|10.40.24.60|||101571767266|57
14.10.2018 22:00:00||FIBABANKA|10.40.24.60|||101571767266|33
14.10.2018 22:00:00||FIBABANKA|10.40.24.60|||101571767266|102
14.10.2018 22:00:00||FIBABANKA|10.40.24.60|||101571767266|50
14.10.2018 22:00:00||FIBABANKA|10.40.25.72|||101571767266|70
14.10.2018 22:00:00||FIBABANKA|10.40.25.72|||101571767266|40
14.10.2018 22:00:00||FIBABANKA|10.40.25.72|||101571767266|30
14.10.2018 22:00:00||FIBABANKA|10.40.24.72|||101571767266|140
14.10.2018 22:00:00||FIBABANKA|10.40.24.72|||101571767266|77
14.10.2018 22:00:00||FIBABANKA|10.40.24.72|||101571767266|30
14.10.2018 22:00:00||FIBABANKA|10.40.24.72|||101571767266|40
14.10.2018 22:00:00||FIBABANKA|10.40.25.74|||101571767266|32
14.10.2018 22:00:00||FIBABANKA|10.40.25.75|||101571767266|43
14.10.2018 22:00:00||FIBABANKA|10.40.25.75|||101571767266|83
14.10.2018 22:00:00||FIBABANKA|10.40.25.75|||101571767266|133
14.10.2018 22:00:00||FIBABANKA|10.40.25.75|||101571767266|168
14.10.2018 22:00:00||FIBABANKA|10.40.25.75|||101571767266|178
14.10.2018 22:00:00||FIBABANKA|10.40.25.75|||101571767266|198
14.10.2018 22:00:00||FIBABANKA|10.40.24.75|||101571767266|52
14.10.2018 22:00:00||FIBABANKA|10.40.24.75|||101571767266|57
14.10.2018 22:00:00||FIBABANKA|10.40.24.75|||101571767266|165
14.10.2018 22:00:00||FIBABANKA|10.40.24.75|||101571767266|148
14.10.2018 22:00:00||FIBABANKA|10.40.24.76|||101571767266|40
14.10.2018 22:00:00||FIBABANKA|10.40.24.76|||101571767266|65
14.10.2018 22:00:00||FIBABANKA|10.40.24.76|||101571767266|10
14.10.2018 22:00:00||FIBABANKA|10.40.24.53|||101571767266|30
14.10.2018 22:00:00||FIBABANKA|10.40.24.53|||101571767266|60
14.10.2018 22:00:00||FIBABANKA|10.40.26.57|||101571767266|90
14.10.2018 22:00:00||FIBABANKA|10.40.26.57|||101571767266|83
14.10.2018 22:00:00||FIBABANKA|10.40.26.57|||101571767266|82
14.10.2018 22:00:00||FIBABANKA|10.40.27.72|||101571767266|40
14.10.2018 22:00:00||FIBABANKA|10.40.27.72|||101571767266|50
14.10.2018 22:00:00||FIBABANKA|10.40.27.72|||101571767266|30
14.10.2018 22:00:00||FIBABANKA|10.40.27.72|||101571767266|140
14.10.2018 22:00:00||FIBABANKA|10.40.27.72|||101571767266|60
14.10.2018 22:00:00||FIBABANKA|10.40.26.72|||101571767266|30
14.10.2018 22:00:00||FIBABANKA|10.40.26.72|||101571767266|140
14.10.2018 22:00:00||FIBABANKA|10.40.26.72|||101571767266|70
14.10.2018 22:00:00||FIBABANKA|10.40.26.72|||101571767266|30
14.10.2018 22:00:00||FIBABANKA|10.40.27.73|||101571767266|32
14.10.2018 22:00:00||FIBABANKA|10.40.27.73|||101571767266|100
14.10.2018 22:00:00||FIBABANKA|10.40.27.73|||101571767266|40
14.10.2018 22:00:00||FIBABANKA|10.40.27.73|||101571767266|40
14.10.2018 22:00:00||FIBABANKA|10.40.27.73|||101571767266|200
14.10.2018 22:00:00||FIBABANKA|10.40.26.73|||101571767266|40
14.10.2018 22:00:00||FIBABANKA|10.40.26.73|||101571767266|70
14.10.2018 22:00:00||FIBABANKA|10.40.26.73|||101571767266|32
14.10.2018 22:00:00||FIBABANKA|10.40.27.74|||101571767266|77
14.10.2018 22:00:00||FIBABANKA|10.40.27.74|||101571767266|155
14.10.2018 22:00:00||FIBABANKA|10.40.27.74|||101571767266|177
14.10.2018 22:00:00||FIBABANKA|10.40.26.74|||101571767266|70
14.10.2018 22:00:00||FIBABANKA|10.40.26.74|||101571767266|173
14.10.2018 22:00:00||FIBABANKA|10.40.26.74|||101571767266|180
14.10.2018 22:00:00||FIBABANKA|10.40.26.74|||101571767266|172
14.10.2018 22:00:00||FIBABANKA|10.40.27.75|||101571767266|10
14.10.2018 22:00:00||FIBABANKA|10.40.27.75|||101571767266|10
14.10.2018 22:00:00||FIBABANKA|10.40.26.79|||101571767266|10
14.10.2018 22:00:00||FIBABANKA|10.40.27.79|||101571767266|10
14.10.2018 22:00:00||FIBABANKA|10.40.26.79|||101571767266|10
14.10.2018 22:00:00||FIBABANKA|10.40.27.77|||101571767266|155
14.10.2018 22:00:00||FIBABANKA|10.40.26.77|||101571767266|175
14.10.2018 22:00:00||FIBABANKA|10.40.27.77|||101571767266|155
14.10.2018 22:00:00||FIBABANKA|10.40.25.74|||101571767266|225
14.10.2018 22:00:00||FIBABANKA|10.40.24.75|||101571767266|183
14.10.2018 22:00:00||FIBABANKA|10.40.24.53|||101571767266|157
14.10.2018 22:00:00||FIBABANKA|10.40.24.53|||101571767266|170
14.10.2018 22:00:00||FIBABANKA|10.40.25.52|||101571767266|10
14.10.2018 22:00:00||FIBABANKA|10.40.25.52|||101571767266|63
14.10.2018 22:00:00||FIBABANKA|10.40.25.53|||101571767266|157
14.10.2018 22:00:00||FIBABANKA|10.40.25.53|||101571767266|145
14.10.2018 22:00:00||FIBABANKA|10.40.27.51|||101571767266|30
14.10.2018 22:00:00||FIBABANKA|10.40.27.51|||101571767266|20
14.10.2018 22:00:00||FIBABANKA|10.40.27.51|||101571767266|102
14.10.2018 22:00:00||FIBABANKA|10.40.27.51|||101571767266|130
14.10.2018 22:00:00||FIBABANKA|10.40.27.51|||101571767266|70
14.10.2018 22:00:00||FIBABANKA|10.40.27.51|||101571767266|40
14.10.2018 22:00:00||FIBABANKA|10.40.27.51|||101571767266|40
14.10.2018 22:00:00||FIBABANKA|10.40.26.51|||101571767266|10
14.10.2018 22:00:00||FIBABANKA|10.40.26.51|||101571767266|110
14.10.2018 22:00:00||FIBABANKA|10.40.26.51|||101571767266|140
14.10.2018 22:00:00||FIBABANKA|10.40.26.51|||101571767266|30
14.10.2018 22:00:00||FIBABANKA|10.40.26.51|||101571767266|30
14.10.2018 22:00:00||FIBABANKA|10.40.24.74|||101571767266|30
14.10.2018 22:00:00||FIBABANKA|10.40.25.76|||101571767266|60
14.10.2018 22:00:00||FIBABANKA|10.40.25.76|||101571767266|40
14.10.2018 22:00:00||FIBABANKA|10.40.25.76|||101571767266|10
14.10.2018 22:00:00||HAVAŞ|10.40.24.46|||110000479675|10
14.10.2018 22:00:00||HAVAŞ|10.40.24.48|||110000479675|760
14.10.2018 22:00:00||HAVAŞ|10.40.24.48|||110000479675|758
14.10.2018 22:00:00||HAVAŞ|10.40.25.48|||110000479675|747
14.10.2018 22:00:00||HAVAŞ|10.40.24.45|||110000479675|70
14.10.2018 22:00:00||HAVAŞ|10.40.25.45|||110000479675|65
14.10.2018 22:00:00||HAVAŞ|10.40.25.47|||110000479675|70
14.10.2018 22:00:00||HAVAŞ|10.40.24.46|||110000479675|80
14.10.2018 22:00:00||HAVAŞ|10.40.24.47|||110000479675|30
14.10.2018 22:00:00||HAVAŞ|10.40.24.47|||110000479675|92
14.10.2018 22:00:00||HAVAŞ|10.40.24.47|||110000479675|92
14.10.2018 22:00:00||HAVAŞ|10.40.25.46|||110000479675|10
14.10.2018 22:00:00||HAVAŞ|10.40.25.46|||110000479675|60
14.10.2018 22:00:00||HAVAŞ|10.40.24.48|||110000479675|755
14.10.2018 22:00:00||HAVAŞ|10.40.24.46|||110000479675|60
14.10.2018 22:00:00||HAVAŞ|10.40.24.46|||110000479675|72
14.10.2018 22:00:00||HAVAŞ|10.40.24.47|||110000479675|10
14.10.2018 22:00:00||HAVAŞ|10.40.25.48|||110000479675|747
14.10.2018 22:00:00||HAVAŞ|10.40.25.48|||110000479675|780
14.10.2018 22:00:00||HAVAŞ|10.40.25.45|||110000479675|92
14.10.2018 22:00:00||HAVAŞ|10.40.24.45|||110000479675|50
14.10.2018 22:00:00||HAVAŞ|10.40.24.45|||110000479675|170
14.10.2018 22:00:00||HAVAŞ|10.40.24.45|||110000479675|100
14.10.2018 22:00:00||HAVAŞ|10.40.25.47|||110000479675|70
14.10.2018 22:00:00||HAVAŞ|10.40.25.47|||110000479675|222
14.10.2018 22:00:00||HAVAŞ|10.40.25.47|||110000479675|57
14.10.2018 22:00:00||HAVAŞ|10.40.25.47|||110000479675|87
14.10.2018 22:00:00||HAVAŞ|10.40.25.47|||110000479675|88
14.10.2018 22:00:00||HAVAŞ|10.40.25.47|||110000479675|93
14.10.2018 22:00:00||HAVAŞ|10.40.25.47|||110000479675|110
14.10.2018 22:00:00||HAVAŞ|10.40.25.47|||110000479675|182
14.10.2018 22:00:00||HAVAŞ|10.40.25.47|||110000479675|90
14.10.2018 22:00:00||HAVAŞ|10.40.25.47|||110000479675|92
14.10.2018 22:00:00||HAVAŞ|10.40.25.47|||110000479675|93
14.10.2018 22:00:00||HAVAŞ|10.40.25.45|||110000479675|100
14.10.2018 22:00:00||HAVAŞ|10.40.25.45|||110000479675|85
14.10.2018 22:00:00||HAVAŞ|10.40.25.46|||110000479675|10
14.10.2018 22:00:00||HAVAŞ|10.40.25.46|||110000479675|10
14.10.2018 22:00:00||HAVAŞ|10.40.25.46|||110000479675|20
14.10.2018 22:00:00||HAVAŞ|10.40.25.46|||110000479675|20
14.10.2018 22:00:00||HAVAŞ|10.40.25.46|||110000479675|50
14.10.2018 22:00:00||HAVAŞ|10.40.25.46|||110000479675|100
14.10.2018 22:00:00||HAVAŞ|10.40.25.46|||110000479675|60
14.10.2018 22:00:00||HAVAŞ|10.40.25.46|||110000479675|77
14.10.2018 22:00:00||HAVAŞ|10.40.25.46|||110000479675|70
14.10.2018 22:00:00||HAVAŞ|10.40.24.46|||110000479675|20
14.10.2018 22:00:00||HAVAŞ|10.40.24.46|||110000479675|20
14.10.2018 22:00:00||HAVAŞ|10.40.24.46|||110000479675|2
14.10.2018 22:00:00||HAVAŞ|10.40.24.46|||110000479675|10
14.10.2018 22:00:00||HAVAŞ|10.40.24.46|||110000479675|10
14.10.2018 22:00:00||HAVAŞ|10.40.24.46|||110000479675|10
14.10.2018 22:00:00||HAVAŞ|10.40.24.46|||110000479675|60
14.10.2018 22:00:00||HAVAŞ|10.40.24.46|||110000479675|110
14.10.2018 22:00:00||HAVAŞ|10.40.24.47|||110000479675|30
14.10.2018 22:00:00||HAVAŞ|10.40.24.47|||110000479675|222
14.10.2018 22:00:00||HAVAŞ|10.40.24.47|||110000479675|60
14.10.2018 22:00:00||HAVAŞ|10.40.24.47|||110000479675|60
14.10.2018 22:00:00||HAVAŞ|10.40.24.47|||110000479675|155
14.10.2018 22:00:00||HAVAŞ|10.40.24.47|||110000479675|100
14.10.2018 22:00:00||HAVAŞ|10.40.24.47|||110000479675|100
14.10.2018 22:00:00||MARS CINEMA|10.40.24.203|||110000472614|103
14.10.2018 22:00:00||MARS CINEMA|10.40.24.204|||110000472614|40
14.10.2018 22:00:00||MARS CINEMA|10.40.24.203|||110000472614|93
14.10.2018 22:00:00||MARS CINEMA|10.40.24.203|||110000472614|162
14.10.2018 22:00:00||MARS CINEMA|10.40.24.203|||110000472614|80
14.10.2018 22:00:00||MARS CINEMA|10.40.24.204|||110000472614|65
14.10.2018 22:00:00||MARS CINEMA|10.40.24.203|||110000472614|102
14.10.2018 22:00:00||MARS CINEMA|10.40.24.204|||110000472614|20
14.10.2018 22:00:00||MARS CINEMA|10.40.24.204|||110000472614|90
14.10.2018 22:00:00||MARS CINEMA|10.40.25.203|||110000472614|150
14.10.2018 22:00:00||MARS CINEMA|10.40.25.203|||110000472614|80
14.10.2018 22:00:00||MARS CINEMA|10.40.25.203|||110000472614|185
14.10.2018 22:00:00||MARS CINEMA|10.40.25.203|||110000472614|97
14.10.2018 22:00:00||MARS CINEMA|10.40.25.203|||110000472614|83
14.10.2018 22:00:00||MARS CINEMA|10.40.25.203|||110000472614|110
14.10.2018 22:00:00||MARS CINEMA|10.40.25.203|||110000472614|87
14.10.2018 22:00:00||MARS CINEMA|10.40.25.203|||110000472614|152
14.10.2018 22:00:00||MARS CINEMA|10.40.25.203|||110000472614|100
14.10.2018 22:00:00||MARS CINEMA|10.40.25.203|||110000472614|112
14.10.2018 22:00:00||MARS CINEMA|10.40.25.203|||110000472614|93
14.10.2018 22:00:00||MARS CINEMA|10.40.25.203|||110000472614|67
14.10.2018 22:00:00||MARS CINEMA|10.40.25.203|||110000472614|188
14.10.2018 22:00:00||MARS CINEMA|10.40.25.204|||110000472614|110
14.10.2018 22:00:00||MARS CINEMA|10.40.25.204|||110000472614|70
14.10.2018 22:00:00||MARS CINEMA|10.40.25.204|||110000472614|80
14.10.2018 22:00:00||MARS CINEMA|10.40.25.204|||110000472614|100
14.10.2018 22:00:00||MARS CINEMA|10.40.25.204|||110000472614|20
14.10.2018 22:00:00||MARS CINEMA|10.40.25.204|||110000472614|20
14.10.2018 22:00:00||MARS CINEMA|10.40.25.204|||110000472614|30
14.10.2018 22:00:00||MARS CINEMA|10.40.25.204|||110000472614|40
14.10.2018 22:00:00||MARS CINEMA|10.40.25.204|||110000472614|90
14.10.2018 22:00:00||MARS CINEMA|10.40.25.204|||110000472614|120
14.10.2018 22:00:00||MARS CINEMA|10.40.25.204|||110000472614|80
14.10.2018 22:00:00||MARS CINEMA|10.40.25.204|||110000472614|80
14.10.2018 22:00:00||MARS CINEMA|10.40.25.204|||110000472614|110
14.10.2018 22:00:00||MARS CINEMA|10.40.25.204|||110000472614|100
14.10.2018 22:00:00||MARS CINEMA|10.40.24.203|||110000472614|78
14.10.2018 22:00:00||MARS CINEMA|10.40.24.203|||110000472614|92
14.10.2018 22:00:00||MARS CINEMA|10.40.24.203|||110000472614|143
14.10.2018 22:00:00||MARS CINEMA|10.40.24.203|||110000472614|68
14.10.2018 22:00:00||MARS CINEMA|10.40.24.203|||110000472614|140
14.10.2018 22:00:00||MARS CINEMA|10.40.24.203|||110000472614|157
14.10.2018 22:00:00||MARS CINEMA|10.40.24.203|||110000472614|100
14.10.2018 22:00:00||MARS CINEMA|10.40.24.203|||110000472614|183
14.10.2018 22:00:00||MARS CINEMA|10.40.24.204|||110000472614|110
14.10.2018 22:00:00||MARS CINEMA|10.40.24.204|||110000472614|90
14.10.2018 22:00:00||MARS CINEMA|10.40.24.204|||110000472614|90
14.10.2018 22:00:00||MARS CINEMA|10.40.24.204|||110000472614|20
14.10.2018 22:00:00||MARS CINEMA|10.40.24.204|||110000472614|10
14.10.2018 22:00:00||MARS CINEMA|10.40.24.204|||110000472614|90
14.10.2018 22:00:00||MARS CINEMA|10.40.24.204|||110000472614|118
14.10.2018 22:00:00||MARS CINEMA|10.40.24.204|||110000472614|90
14.10.2018 22:00:00||MARS CINEMA|10.40.24.204|||110000472614|105
14.10.2018 22:00:00||MARS CINEMA|10.40.24.204|||110000472614|80
14.10.2018 22:00:00||MARS CINEMA|10.40.25.206|||110000472614|122
14.10.2018 22:00:00||MARS CINEMA|10.40.25.206|||110000472614|40
14.10.2018 22:00:00||MARS CINEMA|10.40.25.206|||110000472614|40
14.10.2018 22:00:00||MARS CINEMA|10.40.25.206|||110000472614|40
14.10.2018 22:00:00||MARS CINEMA|10.40.25.206|||110000472614|20
14.10.2018 22:00:00||MARS CINEMA|10.40.25.206|||110000472614|20
14.10.2018 22:00:00||MARS CINEMA|10.40.25.206|||110000472614|30
14.10.2018 22:00:00||MARS CINEMA|10.40.25.206|||110000472614|60
14.10.2018 22:00:00||MARS CINEMA|10.40.25.206|||110000472614|40
14.10.2018 22:00:00||MARS CINEMA|10.40.25.206|||110000472614|87
14.10.2018 22:00:00||MARS CINEMA|10.40.25.206|||110000472614|83
14.10.2018 22:00:00||MARS CINEMA|10.40.24.206|||110000472614|153
14.10.2018 22:00:00||MARS CINEMA|10.40.24.206|||110000472614|40
14.10.2018 22:00:00||MARS CINEMA|10.40.24.206|||110000472614|40
14.10.2018 22:00:00||MARS CINEMA|10.40.24.206|||110000472614|40
14.10.2018 22:00:00||MARS CINEMA|10.40.24.206|||110000472614|30
14.10.2018 22:00:00||MARS CINEMA|10.40.24.206|||110000472614|30
14.10.2018 22:00:00||MARS CINEMA|10.40.24.206|||110000472614|200
14.10.2018 22:00:00||MARS CINEMA|10.40.24.206|||110000472614|160
14.10.2018 22:00:00||MARS CINEMA|10.40.24.206|||110000472614|20
14.10.2018 22:00:00||MARS CINEMA|10.40.24.206|||110000472614|80
14.10.2018 22:00:00||MARS CINEMA|10.40.24.206|||110000472614|70
14.10.2018 22:00:00||PEGASUS|10.40.26.85|||110000423831|120
14.10.2018 22:00:00||PEGASUS|10.40.27.66|||110000423831|98
14.10.2018 22:00:00||PEGASUS|10.40.26.66|||110000423831|107
14.10.2018 22:00:00||PEGASUS|10.40.26.84|||110000423831|220
14.10.2018 22:00:00||PEGASUS|10.40.27.85|||110000423831|116
14.10.2018 22:00:00||PEGASUS|10.40.27.67|||110000423831|340
14.10.2018 22:00:00||PEGASUS|10.40.27.67|||110000423831|40
14.10.2018 22:00:00||PEGASUS|10.40.26.62|||110000423831|10
14.10.2018 22:00:00||PEGASUS|10.40.26.62|||110000423831|190
14.10.2018 22:00:00||PEGASUS|10.40.26.63|||110000423831|70
14.10.2018 22:00:00||PEGASUS|10.40.26.63|||110000423831|30
14.10.2018 22:00:00||PEGASUS|10.40.26.63|||110000423831|60
14.10.2018 22:00:00||PEGASUS|10.40.26.63|||110000423831|22
14.10.2018 22:00:00||PEGASUS|10.40.26.63|||110000423831|240
14.10.2018 22:00:00||PEGASUS|10.40.26.63|||110000423831|140
14.10.2018 22:00:00||PEGASUS|10.40.26.63|||110000423831|98
14.10.2018 22:00:00||PEGASUS|10.40.26.67|||110000423831|170
14.10.2018 22:00:00||PEGASUS|10.40.27.68|||110000423831|90
14.10.2018 22:00:00||PEGASUS|10.40.27.68|||110000423831|90
14.10.2018 22:00:00||PEGASUS|10.40.27.68|||110000423831|90
14.10.2018 22:00:00||PEGASUS|10.40.27.68|||110000423831|50
14.10.2018 22:00:00||PEGASUS|10.40.26.68|||110000423831|90
14.10.2018 22:00:00||PEGASUS|10.40.26.68|||110000423831|90
14.10.2018 22:00:00||PEGASUS|10.40.26.68|||110000423831|50
14.10.2018 22:00:00||PEGASUS|10.40.27.63|||110000423831|85
14.10.2018 22:00:00||PEGASUS|10.40.27.86|||110000423831|340
14.10.2018 22:00:00||PEGASUS|10.40.27.63|||110000423831|50
14.10.2018 22:00:00||PEGASUS|10.40.27.63|||110000423831|60
14.10.2018 22:00:00||PEGASUS|10.40.27.64|||110000423831|72
14.10.2018 22:00:00||PEGASUS|10.40.27.64|||110000423831|70
14.10.2018 22:00:00||PEGASUS|10.40.27.63|||110000423831|60
14.10.2018 22:00:00||PEGASUS|10.40.27.63|||110000423831|70
14.10.2018 22:00:00||PEGASUS|10.40.27.63|||110000423831|90
14.10.2018 22:00:00||PEGASUS|10.40.26.63|||110000423831|110
14.10.2018 22:00:00||PEGASUS|10.40.27.67|||110000423831|360
14.10.2018 22:00:00||PEGASUS|10.40.27.64|||110000423831|263
14.10.2018 22:00:00||PEGASUS|10.40.27.64|||110000423831|263
14.10.2018 22:00:00||PEGASUS|10.40.27.63|||110000423831|80
14.10.2018 22:00:00||PEGASUS|10.40.27.63|||110000423831|67
14.10.2018 22:00:00||PEGASUS|10.40.27.63|||110000423831|80
14.10.2018 22:00:00||PEGASUS|10.40.26.63|||110000423831|110
14.10.2018 22:00:00||PEGASUS|10.40.26.63|||110000423831|220
14.10.2018 22:00:00||PEGASUS|10.40.27.81|||110000423831|458
14.10.2018 22:00:00||PEGASUS|10.40.27.81|||110000423831|358
14.10.2018 22:00:00||PEGASUS|10.40.26.63|||110000423831|90
14.10.2018 22:00:00||PEGASUS|10.40.26.63|||110000423831|47
14.10.2018 22:00:00||PEGASUS|10.40.26.67|||110000423831|30
14.10.2018 22:00:00||PEGASUS|10.40.26.67|||110000423831|340
14.10.2018 22:00:00||PEGASUS|10.40.26.67|||110000423831|60
14.10.2018 22:00:00||PEGASUS|10.40.26.67|||110000423831|40
14.10.2018 22:00:00||PEGASUS|10.40.26.67|||110000423831|70
14.10.2018 22:00:00||PEGASUS|10.40.26.68|||110000423831|100
14.10.2018 22:00:00||PEGASUS|10.40.27.64|||110000423831|283
14.10.2018 22:00:00||PEGASUS|10.40.27.64|||110000423831|263
14.10.2018 22:00:00||PEGASUS|10.40.27.64|||110000423831|292
14.10.2018 22:00:00||PEGASUS|10.40.27.64|||110000423831|267
14.10.2018 22:00:00||PEGASUS|10.40.27.64|||110000423831|265
14.10.2018 22:00:00||PEGASUS|10.40.27.86|||110000423831|340
14.10.2018 22:00:00||PEGASUS|10.40.27.63|||110000423831|90
14.10.2018 22:00:00||PEGASUS|10.40.26.63|||110000423831|130
14.10.2018 22:00:00||PEGASUS|10.40.26.63|||110000423831|60
14.10.2018 22:00:00||PEGASUS|10.40.26.63|||110000423831|87
14.10.2018 22:00:00||PEGASUS|10.40.26.67|||110000423831|340
14.10.2018 22:00:00||PEGASUS|10.40.27.63|||110000423831|50
14.10.2018 22:00:00||PEGASUS|10.40.27.63|||110000423831|60
14.10.2018 22:00:00||PEGASUS|10.40.27.81|||110000423831|427
14.10.2018 22:00:00||PEGASUS|10.40.26.62|||110000423831|90
14.10.2018 22:00:00||PEGASUS|10.40.26.62|||110000423831|2
14.10.2018 22:00:00||PEGASUS|10.40.26.63|||110000423831|50
14.10.2018 22:00:00||PEGASUS|10.40.26.63|||110000423831|150
14.10.2018 22:00:00||PEGASUS|10.40.26.63|||110000423831|40
14.10.2018 22:00:00||PEGASUS|10.40.26.63|||110000423831|60
14.10.2018 22:00:00||PEGASUS|10.40.26.67|||110000423831|340
14.10.2018 22:00:00||PEGASUS|10.40.27.64|||110000423831|272
14.10.2018 22:00:00||PEGASUS|10.40.27.64|||110000423831|267
14.10.2018 22:00:00||PEGASUS|10.40.27.64|||110000423831|263
14.10.2018 22:00:00||PEGASUS|10.40.27.64|||110000423831|345
14.10.2018 22:00:00||PEGASUS|10.40.27.64|||110000423831|310
14.10.2018 22:00:00||PEGASUS|10.40.27.86|||110000423831|40
14.10.2018 22:00:00||PEGASUS|10.40.27.63|||110000423831|63
14.10.2018 22:00:00||PEGASUS|10.40.27.63|||110000423831|80
14.10.2018 22:00:00||PEGASUS|10.40.27.63|||110000423831|80
14.10.2018 22:00:00||PEGASUS|10.40.27.63|||110000423831|247
14.10.2018 22:00:00||PEGASUS|10.40.27.63|||110000423831|230
14.10.2018 22:00:00||PEGASUS|10.40.27.63|||110000423831|58
14.10.2018 22:00:00||PEGASUS|10.40.26.64|||110000423831|80
14.10.2018 22:00:00||PEGASUS|10.40.26.64|||110000423831|80
14.10.2018 22:00:00||PEGASUS|10.40.26.82|||110000423831|210
14.10.2018 22:00:00||PEGASUS|10.40.26.82|||110000423831|110
14.10.2018 22:00:00||PEGASUS|10.40.26.82|||110000423831|80
14.10.2018 22:00:00||PEGASUS|10.40.26.82|||110000423831|150
14.10.2018 22:00:00||PEGASUS|10.40.26.82|||110000423831|140
14.10.2018 22:00:00||PEGASUS|10.40.26.82|||110000423831|140
14.10.2018 22:00:00||PEGASUS|10.40.26.82|||110000423831|180
14.10.2018 22:00:00||PEGASUS|10.40.26.82|||110000423831|30
14.10.2018 22:00:00||PEGASUS|10.40.26.82|||110000423831|40
14.10.2018 22:00:00||PEGASUS|10.40.26.82|||110000423831|20
14.10.2018 22:00:00||PEGASUS|10.40.26.82|||110000423831|70
14.10.2018 22:00:00||PEGASUS|10.40.26.82|||110000423831|50
14.10.2018 22:00:00||PEGASUS|10.40.26.82|||110000423831|40
14.10.2018 22:00:00||PEGASUS|10.40.27.83|||110000423831|563
14.10.2018 22:00:00||PEGASUS|10.40.27.83|||110000423831|70
14.10.2018 22:00:00||PEGASUS|10.40.27.83|||110000423831|505
14.10.2018 22:00:00||PEGASUS|10.40.27.83|||110000423831|497
14.10.2018 22:00:00||PEGASUS|10.40.27.83|||110000423831|73
14.10.2018 22:00:00||PEGASUS|10.40.26.83|||110000423831|523
14.10.2018 22:00:00||PEGASUS|10.40.26.83|||110000423831|50
14.10.2018 22:00:00||PEGASUS|10.40.26.83|||110000423831|400
14.10.2018 22:00:00||PEGASUS|10.40.26.83|||110000423831|527
14.10.2018 22:00:00||PEGASUS|10.40.26.83|||110000423831|545
14.10.2018 22:00:00||PEGASUS|10.40.26.86|||110000423831|360
14.10.2018 22:00:00||PEGASUS|10.40.26.86|||110000423831|132
14.10.2018 22:00:00||PEGASUS|10.40.26.86|||110000423831|350
14.10.2018 22:00:00||PEGASUS|10.40.26.86|||110000423831|50
14.10.2018 22:00:00||PEGASUS|10.40.26.86|||110000423831|30
14.10.2018 22:00:00||PEGASUS|10.40.26.86|||110000423831|350
14.10.2018 22:00:00||PEGASUS|10.40.26.86|||110000423831|40
14.10.2018 22:00:00||PEGASUS|10.40.26.86|||110000423831|50
14.10.2018 22:00:00||PEGASUS|10.40.27.87|||110000423831|90
14.10.2018 22:00:00||PEGASUS|10.40.27.87|||110000423831|90
14.10.2018 22:00:00||PEGASUS|10.40.27.87|||110000423831|90
14.10.2018 22:00:00||PEGASUS|10.40.27.87|||110000423831|20
14.10.2018 22:00:00||PEGASUS|10.40.26.87|||110000423831|90
14.10.2018 22:00:00||PEGASUS|10.40.26.87|||110000423831|90
14.10.2018 22:00:00||PEGASUS|10.40.26.87|||110000423831|90
14.10.2018 22:00:00||PEGASUS|10.40.26.87|||110000423831|20
14.10.2018 22:00:00||PEGASUS|10.40.26.87|||110000423831|2
14.10.2018 22:00:00||PEGASUS|10.40.26.81|||110000423831|398
14.10.2018 22:00:00||PEGASUS|10.40.26.81|||110000423831|408
14.10.2018 22:00:00||PEGASUS|10.40.26.81|||110000423831|418
14.10.2018 22:00:00||PEGASUS|10.40.27.82|||110000423831|220
14.10.2018 22:00:00||PEGASUS|10.40.27.82|||110000423831|30
14.10.2018 22:00:00||PEGASUS|10.40.27.82|||110000423831|110
14.10.2018 22:00:00||PEGASUS|10.40.27.82|||110000423831|80
14.10.2018 22:00:00||PEGASUS|10.40.27.82|||110000423831|152
14.10.2018 22:00:00||PEGASUS|10.40.27.82|||110000423831|117
14.10.2018 22:00:00||PEGASUS|10.40.27.82|||110000423831|170
14.10.2018 22:00:00||PEGASUS|10.40.27.82|||110000423831|113
14.10.2018 22:00:00||PEGASUS|10.40.27.82|||110000423831|62
14.10.2018 22:00:00||PEGASUS|10.40.27.82|||110000423831|83
14.10.2018 22:00:00||PEGASUS|10.40.27.82|||110000423831|50
14.10.2018 22:00:00||PEGASUS|10.40.27.82|||110000423831|33
14.10.2018 22:00:00||PEGASUS|10.40.27.82|||110000423831|40
14.10.2018 22:00:00||PEGASUS|10.40.27.67|||110000423831|50
14.10.2018 22:00:00||PEGASUS|10.40.27.67|||110000423831|70
14.10.2018 22:00:00||PEGASUS|10.40.27.67|||110000423831|130
14.10.2018 22:00:00||PEGASUS|10.40.27.67|||110000423831|10
14.10.2018 22:00:00||PEGASUS|10.40.27.67|||110000423831|340
14.10.2018 22:00:00||PEGASUS|10.40.27.82|||110000423831|75
14.10.2018 22:00:00||PEGASUS|10.40.27.86|||110000423831|170
14.10.2018 22:00:00||PEGASUS|10.40.27.86|||110000423831|70
14.10.2018 22:00:00||PEGASUS|10.40.27.86|||110000423831|20
14.10.2018 22:00:00||PEGASUS|10.40.27.86|||110000423831|350
14.10.2018 22:00:00||PWC|10.40.24.66|||110000433262|85
14.10.2018 22:00:00||PWC|10.40.24.66|||110000433262|10
14.10.2018 22:00:00||PWC|10.40.24.66|||110000433262|30
14.10.2018 22:00:00||PWC|10.40.24.66|||110000433262|52
14.10.2018 22:00:00||PWC|10.40.24.66|||110000433262|442
14.10.2018 22:00:00||PWC|10.40.24.68|||110000433262|163
14.10.2018 22:00:00||PWC|10.40.24.66|||110000433262|50
14.10.2018 22:00:00||PWC|10.40.24.66|||110000433262|210
14.10.2018 22:00:00||PWC|10.40.24.66|||110000433262|210
14.10.2018 22:00:00||PWC|10.40.25.67|||110000433262|80
14.10.2018 22:00:00||PWC|10.40.25.67|||110000433262|90
14.10.2018 22:00:00||PWC|10.40.25.67|||110000433262|320
14.10.2018 22:00:00||PWC|10.40.25.67|||110000433262|250
14.10.2018 22:00:00||PWC|10.40.25.67|||110000433262|240
14.10.2018 22:00:00||PWC|10.40.25.67|||110000433262|250
14.10.2018 22:00:00||PWC|10.40.25.67|||110000433262|50
14.10.2018 22:00:00||PWC|10.40.25.67|||110000433262|30
14.10.2018 22:00:00||PWC|10.40.25.67|||110000433262|120
14.10.2018 22:00:00||PWC|10.40.24.67|||110000433262|10
14.10.2018 22:00:00||PWC|10.40.24.67|||110000433262|10
14.10.2018 22:00:00||PWC|10.40.24.67|||110000433262|380
14.10.2018 22:00:00||PWC|10.40.24.67|||110000433262|30
14.10.2018 22:00:00||PWC|10.40.24.67|||110000433262|50
14.10.2018 22:00:00||PWC|10.40.24.67|||110000433262|120
14.10.2018 22:00:00||PWC|10.40.25.68|||110000433262|160
14.10.2018 22:00:00||PWC|10.40.25.68|||110000433262|220
14.10.2018 22:00:00||PWC|10.40.25.68|||110000433262|70
14.10.2018 22:00:00||PWC|10.40.25.68|||110000433262|77
14.10.2018 22:00:00||PWC|10.40.25.68|||110000433262|155
14.10.2018 22:00:00||PWC|10.40.24.66|||110000433262|60
14.10.2018 22:00:00||PWC|10.40.24.66|||110000433262|30
14.10.2018 22:00:00||PWC|10.40.24.66|||110000433262|30
14.10.2018 22:00:00||PWC|10.40.24.68|||110000433262|125
14.10.2018 22:00:00||PWC|10.40.24.68|||110000433262|185
14.10.2018 22:00:00||PWC|10.40.24.68|||110000433262|447
14.10.2018 22:00:00||PWC|10.40.24.68|||110000433262|68
14.10.2018 22:00:00||PWC|10.40.24.68|||110000433262|68
14.10.2018 22:00:00||VSMART BİLGİ TEKNOLOJİLERİ|10.40.24.62|||110000474326|42
14.10.2018 22:00:00||VSMART BİLGİ TEKNOLOJİLERİ|10.40.24.62|||110000474326|70
14.10.2018 22:00:00||VSMART BİLGİ TEKNOLOJİLERİ|10.40.24.62|||110000474326|33
14.10.2018 22:00:00||VSMART BİLGİ TEKNOLOJİLERİ|10.40.25.62|||110000474326|62
14.10.2018 22:00:00||VSMART BİLGİ TEKNOLOJİLERİ|10.40.24.62|||110000474326|40
14.10.2018 22:00:00||VSMART BİLGİ TEKNOLOJİLERİ|10.40.24.62|||110000474326|30
14.10.2018 22:00:00||VSMART BİLGİ TEKNOLOJİLERİ|10.40.24.62|||110000474326|10
14.10.2018 22:00:00||VSMART BİLGİ TEKNOLOJİLERİ|10.40.25.62|||110000474326|38
14.10.2018 22:00:00||VSMART BİLGİ TEKNOLOJİLERİ|10.40.25.62|||110000474326|10
14.10.2018 22:00:00||VSMART BİLGİ TEKNOLOJİLERİ|10.40.25.62|||110000474326|10
14.10.2018 22:00:00||VSMART BİLGİ TEKNOLOJİLERİ|10.40.25.62|||110000474326|80
14.10.2018 22:00:00||VSMART BİLGİ TEKNOLOJİLERİ|10.40.25.62|||110000474326|88
14.10.2018 22:00:00||VSMART BİLGİ TEKNOLOJİLERİ|10.40.25.62|||110000474326|100
14.10.2018 22:00:00||VSMART BİLGİ TEKNOLOJİLERİ|10.40.24.62|||110000474326|10
