08.10.2018 01:00:00||AKTİFBANK|10.40.24.172|||110000438458|95
08.10.2018 01:00:00||AKTİFBANK|10.40.25.134|||110000438458|93
08.10.2018 01:00:00||AKTİFBANK|10.40.24.134|||110000438458|93
08.10.2018 01:00:00||AKTİFBANK|10.40.24.135|||110000438458|100
08.10.2018 01:00:00||AKTİFBANK|10.40.25.137|||110000438458|57
08.10.2018 01:00:00||AKTİFBANK|10.40.25.171|||110000438458|12
08.10.2018 01:00:00||AKTİFBANK|10.40.25.172|||110000438458|90
08.10.2018 01:00:00||AKTİFBANK|10.40.25.174|||110000438458|54
08.10.2018 01:00:00||AKTİFBANK|10.40.25.135|||110000438458|96
08.10.2018 01:00:00||AKTİFBANK|10.40.24.137|||110000438458|57
08.10.2018 01:00:00||AKTİFBANK|10.40.24.171|||110000438458|16
08.10.2018 01:00:00||AKTİFBANK|10.40.24.173|||110000438458|93
08.10.2018 01:00:00||AKTİFBANK|10.40.24.174|||110000438458|61
08.10.2018 01:00:00||AKTİFBANK|10.40.24.133|||110000438458|73
08.10.2018 01:00:00||AKTİFBANK|10.40.24.138|||110000438458|120
08.10.2018 01:00:00||AKTİFBANK|10.40.24.139|||110000438458|30
08.10.2018 01:00:00||AKTİFBANK|10.40.24.149|||110000438458|110
08.10.2018 01:00:00||AKTİFBANK|10.40.24.150|||110000438458|545
08.10.2018 01:00:00||AKTİFBANK|10.40.24.145|||110000438458|70
08.10.2018 01:00:00||AKTİFBANK|10.40.24.164|||110000438458|228
08.10.2018 01:00:00||AKTİFBANK|10.40.25.133|||110000438458|60
08.10.2018 01:00:00||AKTİFBANK|10.40.24.145|||110000438458|90
08.10.2018 01:00:00||AKTİFBANK|10.40.24.158|||110000438458|80
08.10.2018 01:00:00||AKTİFBANK|10.40.24.160|||110000438458|10
08.10.2018 01:00:00||AKTİFBANK|10.40.24.164|||110000438458|70
08.10.2018 01:00:00||AKTİFBANK|10.40.25.138|||110000438458|80
08.10.2018 01:00:00||AKTİFBANK|10.40.25.139|||110000438458|10
08.10.2018 01:00:00||AKTİFBANK|10.40.25.139|||110000438458|10
08.10.2018 01:00:00||AKTİFBANK|10.40.25.139|||110000438458|20
08.10.2018 01:00:00||AKTİFBANK|10.40.25.140|||110000438458|30
08.10.2018 01:00:00||AKTİFBANK|10.40.25.151|||110000438458|498
08.10.2018 01:00:00||AKTİFBANK|10.40.25.141|||110000438458|100
08.10.2018 01:00:00||AKTİFBANK|10.40.25.141|||110000438458|78
08.10.2018 01:00:00||AKTİFBANK|10.40.25.133|||110000438458|92
08.10.2018 01:00:00||AKTİFBANK|10.40.25.149|||110000438458|103
08.10.2018 01:00:00||AKTİFBANK|10.40.25.149|||110000438458|90
08.10.2018 01:00:00||AKTİFBANK|10.40.25.149|||110000438458|90
08.10.2018 01:00:00||AKTİFBANK|10.40.25.140|||110000438458|30
08.10.2018 01:00:00||AKTİFBANK|10.40.25.150|||110000438458|543
08.10.2018 01:00:00||AKTİFBANK|10.40.25.139|||110000438458|40
08.10.2018 01:00:00||AKTİFBANK|10.40.25.140|||110000438458|80
08.10.2018 01:00:00||AKTİFBANK|10.40.25.140|||110000438458|70
08.10.2018 01:00:00||AKTİFBANK|10.40.25.140|||110000438458|30
08.10.2018 01:00:00||AKTİFBANK|10.40.25.151|||110000438458|518
08.10.2018 01:00:00||AKTİFBANK|10.40.25.151|||110000438458|500
08.10.2018 01:00:00||AKTİFBANK|10.40.25.141|||110000438458|40
08.10.2018 01:00:00||AKTİFBANK|10.40.25.141|||110000438458|100
08.10.2018 01:00:00||AKTİFBANK|10.40.25.141|||110000438458|78
08.10.2018 01:00:00||AKTİFBANK|10.40.25.142|||110000438458|40
08.10.2018 01:00:00||AKTİFBANK|10.40.25.149|||110000438458|70
08.10.2018 01:00:00||AKTİFBANK|10.40.25.149|||110000438458|110
08.10.2018 01:00:00||AKTİFBANK|10.40.25.149|||110000438458|90
08.10.2018 01:00:00||AKTİFBANK|10.40.25.149|||110000438458|90
08.10.2018 01:00:00||AKTİFBANK|10.40.25.149|||110000438458|103
08.10.2018 01:00:00||AKTİFBANK|10.40.24.139|||110000438458|60
08.10.2018 01:00:00||AKTİFBANK|10.40.25.153|||110000438458|10
08.10.2018 01:00:00||AKTİFBANK|10.40.25.150|||110000438458|543
08.10.2018 01:00:00||AKTİFBANK|10.40.25.153|||110000438458|70
08.10.2018 01:00:00||AKTİFBANK|10.40.25.163|||110000438458|50
08.10.2018 01:00:00||AKTİFBANK|10.40.24.141|||110000438458|65
08.10.2018 01:00:00||AKTİFBANK|10.40.24.151|||110000438458|507
08.10.2018 01:00:00||AKTİFBANK|10.40.24.162|||110000438458|8
08.10.2018 01:00:00||AKTİFBANK|10.40.25.153|||110000438458|80
08.10.2018 01:00:00||AKTİFBANK|10.40.24.149|||110000438458|80
08.10.2018 01:00:00||AKTİFBANK|10.40.24.141|||110000438458|50
08.10.2018 01:00:00||AKTİFBANK|10.40.25.133|||110000438458|277
08.10.2018 01:00:00||AKTİFBANK|10.40.25.133|||110000438458|90
08.10.2018 01:00:00||AKTİFBANK|10.40.24.149|||110000438458|88
08.10.2018 01:00:00||AKTİFBANK|10.40.24.162|||110000438458|57
08.10.2018 01:00:00||AKTİFBANK|10.40.24.162|||110000438458|30
08.10.2018 01:00:00||AKTİFBANK|10.40.24.162|||110000438458|40
08.10.2018 01:00:00||AKTİFBANK|10.40.25.133|||110000438458|142
08.10.2018 01:00:00||AKTİFBANK|10.40.25.138|||110000438458|130
08.10.2018 01:00:00||AKTİFBANK|10.40.25.149|||110000438458|55
08.10.2018 01:00:00||AKTİFBANK|10.40.25.149|||110000438458|70
08.10.2018 01:00:00||AKTİFBANK|10.40.25.149|||110000438458|28
08.10.2018 01:00:00||AKTİFBANK|10.40.25.149|||110000438458|65
08.10.2018 01:00:00||AKTİFBANK|10.40.25.149|||110000438458|70
08.10.2018 01:00:00||AKTİFBANK|10.40.25.141|||110000438458|100
08.10.2018 01:00:00||AKTİFBANK|10.40.25.149|||110000438458|130
08.10.2018 01:00:00||AKTİFBANK|10.40.25.138|||110000438458|92
08.10.2018 01:00:00||AKTİFBANK|10.40.25.138|||110000438458|73
08.10.2018 01:00:00||AKTİFBANK|10.40.25.139|||110000438458|107
08.10.2018 01:00:00||AKTİFBANK|10.40.24.145|||110000438458|70
08.10.2018 01:00:00||AKTİFBANK|10.40.24.149|||110000438458|160
08.10.2018 01:00:00||AKTİFBANK|10.40.25.138|||110000438458|30
08.10.2018 01:00:00||AKTİFBANK|10.40.25.138|||110000438458|10
08.10.2018 01:00:00||AKTİFBANK|10.40.25.153|||110000438458|60
08.10.2018 01:00:00||AKTİFBANK|10.40.24.150|||110000438458|547
08.10.2018 01:00:00||AKTİFBANK|10.40.25.128|||110000438458|70
08.10.2018 01:00:00||AKTİFBANK|10.40.25.128|||110000438458|90
08.10.2018 01:00:00||AKTİFBANK|10.40.25.128|||110000438458|40
08.10.2018 01:00:00||AKTİFBANK|10.40.25.128|||110000438458|70
08.10.2018 01:00:00||AKTİFBANK|10.40.25.129|||110000438458|82
08.10.2018 01:00:00||AKTİFBANK|10.40.25.129|||110000438458|65
08.10.2018 01:00:00||AKTİFBANK|10.40.25.129|||110000438458|142
08.10.2018 01:00:00||AKTİFBANK|10.40.25.129|||110000438458|107
08.10.2018 01:00:00||AKTİFBANK|10.40.25.129|||110000438458|40
08.10.2018 01:00:00||AKTİFBANK|10.40.25.129|||110000438458|95
08.10.2018 01:00:00||AKTİFBANK|10.40.25.129|||110000438458|93
08.10.2018 01:00:00||AKTİFBANK|10.40.25.130|||110000438458|60
08.10.2018 01:00:00||AKTİFBANK|10.40.25.130|||110000438458|50
08.10.2018 01:00:00||AKTİFBANK|10.40.25.130|||110000438458|73
08.10.2018 01:00:00||AKTİFBANK|10.40.25.130|||110000438458|32
08.10.2018 01:00:00||AKTİFBANK|10.40.25.130|||110000438458|60
08.10.2018 01:00:00||AKTİFBANK|10.40.25.130|||110000438458|100
08.10.2018 01:00:00||AKTİFBANK|10.40.25.130|||110000438458|85
08.10.2018 01:00:00||AKTİFBANK|10.40.25.131|||110000438458|72
08.10.2018 01:00:00||AKTİFBANK|10.40.25.131|||110000438458|100
08.10.2018 01:00:00||AKTİFBANK|10.40.25.131|||110000438458|100
08.10.2018 01:00:00||AKTİFBANK|10.40.25.131|||110000438458|83
08.10.2018 01:00:00||AKTİFBANK|10.40.25.131|||110000438458|80
08.10.2018 01:00:00||AKTİFBANK|10.40.25.131|||110000438458|23
08.10.2018 01:00:00||AKTİFBANK|10.40.25.131|||110000438458|120
08.10.2018 01:00:00||AKTİFBANK|10.40.25.132|||110000438458|60
08.10.2018 01:00:00||AKTİFBANK|10.40.25.132|||110000438458|60
08.10.2018 01:00:00||AKTİFBANK|10.40.25.132|||110000438458|87
08.10.2018 01:00:00||AKTİFBANK|10.40.25.132|||110000438458|178
08.10.2018 01:00:00||AKTİFBANK|10.40.25.132|||110000438458|60
08.10.2018 01:00:00||AKTİFBANK|10.40.25.143|||110000438458|320
08.10.2018 01:00:00||AKTİFBANK|10.40.25.144|||110000438458|70
08.10.2018 01:00:00||AKTİFBANK|10.40.25.144|||110000438458|50
08.10.2018 01:00:00||AKTİFBANK|10.40.25.144|||110000438458|65
08.10.2018 01:00:00||AKTİFBANK|10.40.25.154|||110000438458|10
08.10.2018 01:00:00||AKTİFBANK|10.40.25.154|||110000438458|10
08.10.2018 01:00:00||AKTİFBANK|10.40.25.154|||110000438458|10
08.10.2018 01:00:00||AKTİFBANK|10.40.25.157|||110000438458|72
08.10.2018 01:00:00||AKTİFBANK|10.40.25.157|||110000438458|70
08.10.2018 01:00:00||AKTİFBANK|10.40.25.157|||110000438458|72
08.10.2018 01:00:00||AKTİFBANK|10.40.25.157|||110000438458|80
08.10.2018 01:00:00||AKTİFBANK|10.40.25.157|||110000438458|40
08.10.2018 01:00:00||AKTİFBANK|10.40.25.159|||110000438458|60
08.10.2018 01:00:00||AKTİFBANK|10.40.25.159|||110000438458|10
08.10.2018 01:00:00||AKTİFBANK|10.40.25.159|||110000438458|90
08.10.2018 01:00:00||AKTİFBANK|10.40.25.158|||110000438458|50
08.10.2018 01:00:00||AKTİFBANK|10.40.25.160|||110000438458|90
08.10.2018 01:00:00||AKTİFBANK|10.40.25.161|||110000438458|80
08.10.2018 01:00:00||AKTİFBANK|10.40.25.161|||110000438458|70
08.10.2018 01:00:00||AKTİFBANK|10.40.25.161|||110000438458|40
08.10.2018 01:00:00||AKTİFBANK|10.40.25.161|||110000438458|30
08.10.2018 01:00:00||AKTİFBANK|10.40.25.161|||110000438458|20
08.10.2018 01:00:00||AKTİFBANK|10.40.25.161|||110000438458|60
08.10.2018 01:00:00||AKTİFBANK|10.40.25.145|||110000438458|90
08.10.2018 01:00:00||AKTİFBANK|10.40.25.145|||110000438458|60
08.10.2018 01:00:00||AKTİFBANK|10.40.25.145|||110000438458|60
08.10.2018 01:00:00||AKTİFBANK|10.40.25.145|||110000438458|30
08.10.2018 01:00:00||AKTİFBANK|10.40.25.145|||110000438458|50
08.10.2018 01:00:00||AKTİFBANK|10.40.25.147|||110000438458|90
08.10.2018 01:00:00||AKTİFBANK|10.40.25.162|||110000438458|30
08.10.2018 01:00:00||AKTİFBANK|10.40.25.162|||110000438458|30
08.10.2018 01:00:00||AKTİFBANK|10.40.25.162|||110000438458|60
08.10.2018 01:00:00||AKTİFBANK|10.40.25.164|||110000438458|60
08.10.2018 01:00:00||AKTİFBANK|10.40.25.164|||110000438458|280
08.10.2018 01:00:00||AKTİFBANK|10.40.25.164|||110000438458|50
08.10.2018 01:00:00||AKTİFBANK|10.40.25.164|||110000438458|260
08.10.2018 01:00:00||AKTİFBANK|10.40.25.164|||110000438458|270
08.10.2018 01:00:00||AKTİFBANK|10.40.25.165|||110000438458|143
08.10.2018 01:00:00||AKTİFBANK|10.40.25.165|||110000438458|70
08.10.2018 01:00:00||AKTİFBANK|10.40.25.165|||110000438458|70
08.10.2018 01:00:00||AKTİFBANK|10.40.25.165|||110000438458|100
08.10.2018 01:00:00||AKTİFBANK|10.40.25.166|||110000438458|40
08.10.2018 01:00:00||AKTİFBANK|10.40.25.166|||110000438458|90
08.10.2018 01:00:00||AKTİFBANK|10.40.25.148|||110000438458|130
08.10.2018 01:00:00||AKTİFBANK|10.40.25.148|||110000438458|50
08.10.2018 01:00:00||AKTİFBANK|10.40.25.148|||110000438458|100
08.10.2018 01:00:00||AKTİFBANK|10.40.25.148|||110000438458|130
08.10.2018 01:00:00||AKTİFBANK|10.40.25.148|||110000438458|90
08.10.2018 01:00:00||AKTİFBANK|10.40.25.148|||110000438458|80
08.10.2018 01:00:00||AKTİFBANK|10.40.25.148|||110000438458|70
08.10.2018 01:00:00||AKTİFBANK|10.40.25.148|||110000438458|50
08.10.2018 01:00:00||AKTİFBANK|10.40.25.148|||110000438458|80
08.10.2018 01:00:00||AKTİFBANK|10.40.25.148|||110000438458|40
08.10.2018 01:00:00||AKTİFBANK|10.40.25.148|||110000438458|100
08.10.2018 01:00:00||AKTİFBANK|10.40.25.148|||110000438458|60
08.10.2018 01:00:00||AKTİFBANK|10.40.25.155|||110000438458|70
08.10.2018 01:00:00||AKTİFBANK|10.40.25.155|||110000438458|92
08.10.2018 01:00:00||AKTİFBANK|10.40.25.155|||110000438458|112
08.10.2018 01:00:00||AKTİFBANK|10.40.25.155|||110000438458|120
08.10.2018 01:00:00||AKTİFBANK|10.40.25.155|||110000438458|103
08.10.2018 01:00:00||AKTİFBANK|10.40.25.139|||110000438458|73
08.10.2018 01:00:00||AKTİFBANK|10.40.25.139|||110000438458|80
08.10.2018 01:00:00||AKTİFBANK|10.40.25.150|||110000438458|520
08.10.2018 01:00:00||AKTİFBANK|10.40.25.129|||110000438458|63
08.10.2018 01:00:00||AKTİFBANK|10.40.25.129|||110000438458|85
08.10.2018 01:00:00||AKTİFBANK|10.40.25.129|||110000438458|140
08.10.2018 01:00:00||AKTİFBANK|10.40.25.130|||110000438458|63
08.10.2018 01:00:00||AKTİFBANK|10.40.25.130|||110000438458|123
08.10.2018 01:00:00||AKTİFBANK|10.40.25.130|||110000438458|100
08.10.2018 01:00:00||AKTİFBANK|10.40.25.131|||110000438458|42
08.10.2018 01:00:00||AKTİFBANK|10.40.25.143|||110000438458|60
08.10.2018 01:00:00||AKTİFBANK|10.40.25.143|||110000438458|240
08.10.2018 01:00:00||AKTİFBANK|10.40.25.143|||110000438458|268
08.10.2018 01:00:00||AKTİFBANK|10.40.25.158|||110000438458|102
08.10.2018 01:00:00||AKTİFBANK|10.40.25.160|||110000438458|110
08.10.2018 01:00:00||AKTİFBANK|10.40.25.162|||110000438458|40
08.10.2018 01:00:00||AKTİFBANK|10.40.25.162|||110000438458|30
08.10.2018 01:00:00||AKTİFBANK|10.40.25.162|||110000438458|40
08.10.2018 01:00:00||AKTİFBANK|10.40.24.140|||110000438458|20
08.10.2018 01:00:00||AKTİFBANK|10.40.24.140|||110000438458|80
08.10.2018 01:00:00||AKTİFBANK|10.40.24.140|||110000438458|40
08.10.2018 01:00:00||AKTİFBANK|10.40.24.140|||110000438458|30
08.10.2018 01:00:00||AKTİFBANK|10.40.24.140|||110000438458|30
08.10.2018 01:00:00||AKTİFBANK|10.40.24.140|||110000438458|50
08.10.2018 01:00:00||AKTİFBANK|10.40.24.140|||110000438458|40
08.10.2018 01:00:00||AKTİFBANK|10.40.24.140|||110000438458|20
08.10.2018 01:00:00||AKTİFBANK|10.40.24.140|||110000438458|27
08.10.2018 01:00:00||AKTİFBANK|10.40.24.149|||110000438458|80
08.10.2018 01:00:00||AKTİFBANK|10.40.24.149|||110000438458|120
08.10.2018 01:00:00||AKTİFBANK|10.40.24.149|||110000438458|92
08.10.2018 01:00:00||AKTİFBANK|10.40.24.149|||110000438458|52
08.10.2018 01:00:00||AKTİFBANK|10.40.24.149|||110000438458|52
08.10.2018 01:00:00||AKTİFBANK|10.40.24.149|||110000438458|138
08.10.2018 01:00:00||AKTİFBANK|10.40.24.149|||110000438458|90
08.10.2018 01:00:00||AKTİFBANK|10.40.24.149|||110000438458|90
08.10.2018 01:00:00||AKTİFBANK|10.40.24.149|||110000438458|93
08.10.2018 01:00:00||AKTİFBANK|10.40.24.149|||110000438458|80
08.10.2018 01:00:00||AKTİFBANK|10.40.24.133|||110000438458|142
08.10.2018 01:00:00||AKTİFBANK|10.40.24.133|||110000438458|120
08.10.2018 01:00:00||AKTİFBANK|10.40.24.133|||110000438458|88
08.10.2018 01:00:00||AKTİFBANK|10.40.24.138|||110000438458|112
08.10.2018 01:00:00||AKTİFBANK|10.40.24.138|||110000438458|138
08.10.2018 01:00:00||AKTİFBANK|10.40.24.138|||110000438458|110
08.10.2018 01:00:00||AKTİFBANK|10.40.24.138|||110000438458|30
08.10.2018 01:00:00||AKTİFBANK|10.40.24.138|||110000438458|50
08.10.2018 01:00:00||AKTİFBANK|10.40.24.139|||110000438458|40
08.10.2018 01:00:00||AKTİFBANK|10.40.24.139|||110000438458|50
08.10.2018 01:00:00||AKTİFBANK|10.40.24.139|||110000438458|92
08.10.2018 01:00:00||AKTİFBANK|10.40.24.139|||110000438458|120
08.10.2018 01:00:00||AKTİFBANK|10.40.24.141|||110000438458|200
08.10.2018 01:00:00||AKTİFBANK|10.40.24.141|||110000438458|100
08.10.2018 01:00:00||AKTİFBANK|10.40.24.141|||110000438458|100
08.10.2018 01:00:00||AKTİFBANK|10.40.24.141|||110000438458|63
08.10.2018 01:00:00||AKTİFBANK|10.40.24.141|||110000438458|80
08.10.2018 01:00:00||AKTİFBANK|10.40.25.152|||110000438458|102
08.10.2018 01:00:00||AKTİFBANK|10.40.25.152|||110000438458|40
08.10.2018 01:00:00||AKTİFBANK|10.40.25.152|||110000438458|125
08.10.2018 01:00:00||AKTİFBANK|10.40.25.152|||110000438458|72
08.10.2018 01:00:00||AKTİFBANK|10.40.25.152|||110000438458|88
08.10.2018 01:00:00||AKTİFBANK|10.40.25.152|||110000438458|33
08.10.2018 01:00:00||AKTİFBANK|10.40.25.152|||110000438458|60
08.10.2018 01:00:00||AKTİFBANK|10.40.25.152|||110000438458|90
08.10.2018 01:00:00||AKTİFBANK|10.40.25.152|||110000438458|30
08.10.2018 01:00:00||AKTİFBANK|10.40.25.152|||110000438458|82
08.10.2018 01:00:00||AKTİFBANK|10.40.25.152|||110000438458|30
08.10.2018 01:00:00||AKTİFBANK|10.40.24.150|||110000438458|555
08.10.2018 01:00:00||AKTİFBANK|10.40.24.151|||110000438458|512
08.10.2018 01:00:00||AKTİFBANK|10.40.24.151|||110000438458|522
08.10.2018 01:00:00||AKTİFBANK|10.40.24.128|||110000438458|150
08.10.2018 01:00:00||AKTİFBANK|10.40.24.128|||110000438458|70
08.10.2018 01:00:00||AKTİFBANK|10.40.24.128|||110000438458|97
08.10.2018 01:00:00||AKTİFBANK|10.40.24.128|||110000438458|40
08.10.2018 01:00:00||AKTİFBANK|10.40.24.128|||110000438458|70
08.10.2018 01:00:00||AKTİFBANK|10.40.24.128|||110000438458|40
08.10.2018 01:00:00||AKTİFBANK|10.40.24.129|||110000438458|102
08.10.2018 01:00:00||AKTİFBANK|10.40.24.129|||110000438458|68
08.10.2018 01:00:00||AKTİFBANK|10.40.24.129|||110000438458|105
08.10.2018 01:00:00||AKTİFBANK|10.40.24.129|||110000438458|115
08.10.2018 01:00:00||AKTİFBANK|10.40.24.129|||110000438458|30
08.10.2018 01:00:00||AKTİFBANK|10.40.24.129|||110000438458|72
08.10.2018 01:00:00||AKTİFBANK|10.40.24.129|||110000438458|68
08.10.2018 01:00:00||AKTİFBANK|10.40.24.129|||110000438458|92
08.10.2018 01:00:00||AKTİFBANK|10.40.24.129|||110000438458|80
08.10.2018 01:00:00||AKTİFBANK|10.40.24.129|||110000438458|142
08.10.2018 01:00:00||AKTİFBANK|10.40.24.130|||110000438458|40
08.10.2018 01:00:00||AKTİFBANK|10.40.24.130|||110000438458|40
08.10.2018 01:00:00||AKTİFBANK|10.40.24.130|||110000438458|67
08.10.2018 01:00:00||AKTİFBANK|10.40.24.130|||110000438458|40
08.10.2018 01:00:00||AKTİFBANK|10.40.24.130|||110000438458|60
08.10.2018 01:00:00||AKTİFBANK|10.40.24.130|||110000438458|75
08.10.2018 01:00:00||AKTİFBANK|10.40.24.130|||110000438458|85
08.10.2018 01:00:00||AKTİFBANK|10.40.24.130|||110000438458|38
08.10.2018 01:00:00||AKTİFBANK|10.40.24.130|||110000438458|130
08.10.2018 01:00:00||AKTİFBANK|10.40.24.130|||110000438458|110
08.10.2018 01:00:00||AKTİFBANK|10.40.24.131|||110000438458|10
08.10.2018 01:00:00||AKTİFBANK|10.40.24.131|||110000438458|85
08.10.2018 01:00:00||AKTİFBANK|10.40.24.131|||110000438458|90
08.10.2018 01:00:00||AKTİFBANK|10.40.24.131|||110000438458|110
08.10.2018 01:00:00||AKTİFBANK|10.40.24.131|||110000438458|108
08.10.2018 01:00:00||AKTİFBANK|10.40.24.131|||110000438458|20
08.10.2018 01:00:00||AKTİFBANK|10.40.24.131|||110000438458|160
08.10.2018 01:00:00||AKTİFBANK|10.40.24.131|||110000438458|60
08.10.2018 01:00:00||AKTİFBANK|10.40.24.131|||110000438458|110
08.10.2018 01:00:00||AKTİFBANK|10.40.24.132|||110000438458|40
08.10.2018 01:00:00||AKTİFBANK|10.40.24.132|||110000438458|80
08.10.2018 01:00:00||AKTİFBANK|10.40.24.132|||110000438458|50
08.10.2018 01:00:00||AKTİFBANK|10.40.24.132|||110000438458|180
08.10.2018 01:00:00||AKTİFBANK|10.40.24.132|||110000438458|70
08.10.2018 01:00:00||AKTİFBANK|10.40.24.143|||110000438458|60
08.10.2018 01:00:00||AKTİFBANK|10.40.24.143|||110000438458|270
08.10.2018 01:00:00||AKTİFBANK|10.40.24.143|||110000438458|273
08.10.2018 01:00:00||AKTİFBANK|10.40.24.143|||110000438458|225
08.10.2018 01:00:00||AKTİFBANK|10.40.24.144|||110000438458|80
08.10.2018 01:00:00||AKTİFBANK|10.40.24.144|||110000438458|102
08.10.2018 01:00:00||AKTİFBANK|10.40.24.144|||110000438458|85
08.10.2018 01:00:00||AKTİFBANK|10.40.24.148|||110000438458|58
08.10.2018 01:00:00||AKTİFBANK|10.40.24.148|||110000438458|165
08.10.2018 01:00:00||AKTİFBANK|10.40.24.148|||110000438458|80
08.10.2018 01:00:00||AKTİFBANK|10.40.24.148|||110000438458|107
08.10.2018 01:00:00||AKTİFBANK|10.40.24.148|||110000438458|80
08.10.2018 01:00:00||AKTİFBANK|10.40.24.148|||110000438458|83
08.10.2018 01:00:00||AKTİFBANK|10.40.24.148|||110000438458|90
08.10.2018 01:00:00||AKTİFBANK|10.40.24.148|||110000438458|100
08.10.2018 01:00:00||AKTİFBANK|10.40.24.148|||110000438458|80
08.10.2018 01:00:00||AKTİFBANK|10.40.24.148|||110000438458|50
08.10.2018 01:00:00||AKTİFBANK|10.40.24.148|||110000438458|25
08.10.2018 01:00:00||AKTİFBANK|10.40.24.148|||110000438458|72
08.10.2018 01:00:00||AKTİFBANK|10.40.24.153|||110000438458|10
08.10.2018 01:00:00||AKTİFBANK|10.40.24.153|||110000438458|92
08.10.2018 01:00:00||AKTİFBANK|10.40.24.153|||110000438458|70
08.10.2018 01:00:00||AKTİFBANK|10.40.24.153|||110000438458|83
08.10.2018 01:00:00||AKTİFBANK|10.40.24.157|||110000438458|30
08.10.2018 01:00:00||AKTİFBANK|10.40.24.157|||110000438458|80
08.10.2018 01:00:00||AKTİFBANK|10.40.24.157|||110000438458|70
08.10.2018 01:00:00||AKTİFBANK|10.40.24.157|||110000438458|42
08.10.2018 01:00:00||AKTİFBANK|10.40.24.157|||110000438458|80
08.10.2018 01:00:00||AKTİFBANK|10.40.24.157|||110000438458|40
08.10.2018 01:00:00||AKTİFBANK|10.40.24.158|||110000438458|110
08.10.2018 01:00:00||AKTİFBANK|10.40.24.158|||110000438458|112
08.10.2018 01:00:00||AKTİFBANK|10.40.24.158|||110000438458|130
08.10.2018 01:00:00||AKTİFBANK|10.40.24.158|||110000438458|80
08.10.2018 01:00:00||AKTİFBANK|10.40.24.158|||110000438458|113
08.10.2018 01:00:00||AKTİFBANK|10.40.24.159|||110000438458|132
08.10.2018 01:00:00||AKTİFBANK|10.40.24.159|||110000438458|52
08.10.2018 01:00:00||AKTİFBANK|10.40.24.159|||110000438458|180
08.10.2018 01:00:00||AKTİFBANK|10.40.24.160|||110000438458|10
08.10.2018 01:00:00||AKTİFBANK|10.40.24.160|||110000438458|3
08.10.2018 01:00:00||AKTİFBANK|10.40.24.160|||110000438458|90
08.10.2018 01:00:00||AKTİFBANK|10.40.24.160|||110000438458|100
08.10.2018 01:00:00||AKTİFBANK|10.40.24.161|||110000438458|182
08.10.2018 01:00:00||AKTİFBANK|10.40.24.161|||110000438458|80
08.10.2018 01:00:00||AKTİFBANK|10.40.24.161|||110000438458|40
08.10.2018 01:00:00||AKTİFBANK|10.40.24.161|||110000438458|30
08.10.2018 01:00:00||AKTİFBANK|10.40.24.161|||110000438458|30
08.10.2018 01:00:00||AKTİFBANK|10.40.24.161|||110000438458|20
08.10.2018 01:00:00||AKTİFBANK|10.40.24.161|||110000438458|90
08.10.2018 01:00:00||AKTİFBANK|10.40.24.145|||110000438458|20
08.10.2018 01:00:00||AKTİFBANK|10.40.24.145|||110000438458|90
08.10.2018 01:00:00||AKTİFBANK|10.40.24.145|||110000438458|60
08.10.2018 01:00:00||AKTİFBANK|10.40.24.147|||110000438458|90
08.10.2018 01:00:00||AKTİFBANK|10.40.24.162|||110000438458|80
08.10.2018 01:00:00||AKTİFBANK|10.40.24.162|||110000438458|53
08.10.2018 01:00:00||AKTİFBANK|10.40.24.162|||110000438458|40
08.10.2018 01:00:00||AKTİFBANK|10.40.24.162|||110000438458|40
08.10.2018 01:00:00||AKTİFBANK|10.40.24.162|||110000438458|60
08.10.2018 01:00:00||AKTİFBANK|10.40.24.162|||110000438458|10
08.10.2018 01:00:00||AKTİFBANK|10.40.24.162|||110000438458|50
08.10.2018 01:00:00||AKTİFBANK|10.40.24.163|||110000438458|30
08.10.2018 01:00:00||AKTİFBANK|10.40.24.163|||110000438458|78
08.10.2018 01:00:00||AKTİFBANK|10.40.24.164|||110000438458|55
08.10.2018 01:00:00||AKTİFBANK|10.40.24.164|||110000438458|330
08.10.2018 01:00:00||AKTİFBANK|10.40.24.164|||110000438458|212
08.10.2018 01:00:00||AKTİFBANK|10.40.24.165|||110000438458|80
08.10.2018 01:00:00||AKTİFBANK|10.40.24.165|||110000438458|80
08.10.2018 01:00:00||AKTİFBANK|10.40.24.165|||110000438458|120
08.10.2018 01:00:00||AKTİFBANK|10.40.24.166|||110000438458|80
08.10.2018 01:00:00||AKTİFBANK|10.40.24.166|||110000438458|90
08.10.2018 01:00:00||AKTİFBANK|10.40.24.166|||110000438458|10
08.10.2018 01:00:00||AKTİFBANK|10.40.24.166|||110000438458|10
08.10.2018 01:00:00||AKTİFBANK|10.40.24.166|||110000438458|10
08.10.2018 01:00:00||AKTİFBANK|10.40.25.168|||110000438458|90
08.10.2018 01:00:00||AKTİFBANK|10.40.25.168|||110000438458|70
08.10.2018 01:00:00||AKTİFBANK|10.40.25.168|||110000438458|50
08.10.2018 01:00:00||AKTİFBANK|10.40.25.168|||110000438458|40
08.10.2018 01:00:00||AKTİFBANK|10.40.25.168|||110000438458|60
08.10.2018 01:00:00||AKTİFBANK|10.40.24.168|||110000438458|90
08.10.2018 01:00:00||AKTİFBANK|10.40.24.168|||110000438458|38
08.10.2018 01:00:00||AKTİFBANK|10.40.24.168|||110000438458|80
08.10.2018 01:00:00||AKTİFBANK|10.40.24.168|||110000438458|70
08.10.2018 01:00:00||AKTİFBANK|10.40.24.168|||110000438458|70
08.10.2018 01:00:00||AKTİFBANK|10.40.24.168|||110000438458|30
08.10.2018 01:00:00||AKTİFBANK|10.40.24.154|||110000438458|70
08.10.2018 01:00:00||AKTİFBANK|10.40.24.154|||110000438458|18
08.10.2018 01:00:00||AKTİFBANK|10.40.24.154|||110000438458|10
08.10.2018 01:00:00||AKTİFBANK|10.40.24.154|||110000438458|10
08.10.2018 01:00:00||AKTİFBANK|10.40.24.154|||110000438458|10
08.10.2018 01:00:00||AKTİFBANK|10.40.24.154|||110000438458|10
08.10.2018 01:00:00||AKTİFBANK|10.40.24.155|||110000438458|102
08.10.2018 01:00:00||AKTİFBANK|10.40.24.155|||110000438458|130
08.10.2018 01:00:00||AKTİFBANK|10.40.24.155|||110000438458|80
08.10.2018 01:00:00||AKTİFBANK|10.40.24.155|||110000438458|112
08.10.2018 01:00:00||AKTİFBANK|10.40.24.155|||110000438458|100
08.10.2018 01:00:00||AKTİFBANK|10.40.25.169|||110000438458|88
08.10.2018 01:00:00||AKTİFBANK|10.40.25.169|||110000438458|115
08.10.2018 01:00:00||AKTİFBANK|10.40.25.169|||110000438458|73
08.10.2018 01:00:00||AKTİFBANK|10.40.25.169|||110000438458|73
08.10.2018 01:00:00||AKTİFBANK|10.40.24.169|||110000438458|73
08.10.2018 01:00:00||AKTİFBANK|10.40.24.169|||110000438458|85
08.10.2018 01:00:00||AKTİFBANK|10.40.24.169|||110000438458|82
08.10.2018 01:00:00||AKTİFBANK|10.40.24.169|||110000438458|80
08.10.2018 01:00:00||AKTİFBANK|10.40.25.170|||110000438458|30
08.10.2018 01:00:00||AKTİFBANK|10.40.25.170|||110000438458|30
08.10.2018 01:00:00||AKTİFBANK|10.40.25.170|||110000438458|105
08.10.2018 01:00:00||AKTİFBANK|10.40.25.170|||110000438458|27
08.10.2018 01:00:00||AKTİFBANK|10.40.25.170|||110000438458|103
08.10.2018 01:00:00||AKTİFBANK|10.40.25.170|||110000438458|82
08.10.2018 01:00:00||AKTİFBANK|10.40.25.170|||110000438458|115
08.10.2018 01:00:00||AKTİFBANK|10.40.24.170|||110000438458|60
08.10.2018 01:00:00||AKTİFBANK|10.40.24.170|||110000438458|60
08.10.2018 01:00:00||AKTİFBANK|10.40.24.170|||110000438458|320
08.10.2018 01:00:00||AKTİFBANK|10.40.24.170|||110000438458|230
08.10.2018 01:00:00||AKTİFBANK|10.40.24.170|||110000438458|80
08.10.2018 01:00:00||AKTİFBANK|10.40.24.170|||110000438458|105
08.10.2018 01:00:00||AKTİFBANK|10.40.24.170|||110000438458|65
08.10.2018 01:00:00||AKTİFBANK|10.40.25.178|||110000438458|550
08.10.2018 01:00:00||AKTİFBANK|10.40.25.178|||110000438458|545
08.10.2018 01:00:00||AKTİFBANK|10.40.25.178|||110000438458|550
08.10.2018 01:00:00||AKTİFBANK|10.40.24.178|||110000438458|542
08.10.2018 01:00:00||AKTİFBANK|10.40.24.178|||110000438458|530
08.10.2018 01:00:00||AKTİFBANK|10.40.24.178|||110000438458|528
08.10.2018 01:00:00||AKTİFBANK|10.40.25.179|||110000438458|392
08.10.2018 01:00:00||AKTİFBANK|10.40.25.179|||110000438458|313
08.10.2018 01:00:00||AKTİFBANK|10.40.25.179|||110000438458|308
08.10.2018 01:00:00||AKTİFBANK|10.40.24.179|||110000438458|372
08.10.2018 01:00:00||AKTİFBANK|10.40.24.179|||110000438458|358
08.10.2018 01:00:00||AKTİFBANK|10.40.24.179|||110000438458|367
08.10.2018 01:00:00||AKTİFBANK|10.40.24.142|||110000438458|75
08.10.2018 01:00:00||AKTİFBANK|10.40.24.142|||110000438458|40
08.10.2018 01:00:00||AKTİFBANK|10.40.25.186|||110000438458|90
08.10.2018 01:00:00||AKTİFBANK|10.40.25.186|||110000438458|20
08.10.2018 01:00:00||AKTİFBANK|10.40.25.186|||110000438458|70
08.10.2018 01:00:00||AKTİFBANK|10.40.24.186|||110000438458|92
08.10.2018 01:00:00||AKTİFBANK|10.40.24.186|||110000438458|20
08.10.2018 01:00:00||AKTİFBANK|10.40.24.186|||110000438458|60
08.10.2018 01:00:00||AKTİFBANK|10.40.24.186|||110000438458|40
08.10.2018 01:00:00||AKTİFBANK|10.40.24.152|||110000438458|20
08.10.2018 01:00:00||AKTİFBANK|10.40.24.152|||110000438458|50
08.10.2018 01:00:00||AKTİFBANK|10.40.24.152|||110000438458|92
08.10.2018 01:00:00||AKTİFBANK|10.40.24.152|||110000438458|112
08.10.2018 01:00:00||AKTİFBANK|10.40.24.152|||110000438458|100
08.10.2018 01:00:00||AKTİFBANK|10.40.24.152|||110000438458|100
08.10.2018 01:00:00||AKTİFBANK|10.40.24.152|||110000438458|307
08.10.2018 01:00:00||AKTİFBANK|10.40.24.152|||110000438458|70
08.10.2018 01:00:00||AKTİFBANK|10.40.24.152|||110000438458|92
08.10.2018 01:00:00||AKTİFBANK|10.40.24.152|||110000438458|30
08.10.2018 01:00:00||AKTİFBANK|10.40.24.152|||110000438458|72
08.10.2018 01:00:00||AKTİFBANK|10.40.24.152|||110000438458|30
08.10.2018 01:00:00||BARİKAT İNTERNET GÜVENLİĞİ|10.40.25.201|||110000479736|115
08.10.2018 01:00:00||BARİKAT İNTERNET GÜVENLİĞİ|10.40.25.201|||110000479736|100
08.10.2018 01:00:00||BARİKAT İNTERNET GÜVENLİĞİ|10.40.24.201|||110000479736|135
08.10.2018 01:00:00||BARİKAT İNTERNET GÜVENLİĞİ|10.40.24.201|||110000479736|100
08.10.2018 01:00:00||BOYNER|10.40.26.100|||101367941673|57
08.10.2018 01:00:00||BOYNER|10.40.26.101|||101367941673|164
08.10.2018 01:00:00||BOYNER|10.40.27.100|||101367941673|53
08.10.2018 01:00:00||BOYNER|10.40.27.101|||101367941673|165
08.10.2018 01:00:00||BOYNER|10.40.27.94|||101367941673|210
08.10.2018 01:00:00||BOYNER|10.40.27.94|||101367941673|90
08.10.2018 01:00:00||BOYNER|10.40.27.94|||101367941673|90
08.10.2018 01:00:00||BOYNER|10.40.27.94|||101367941673|100
08.10.2018 01:00:00||BOYNER|10.40.26.94|||101367941673|90
08.10.2018 01:00:00||BOYNER|10.40.26.94|||101367941673|80
08.10.2018 01:00:00||BOYNER|10.40.26.94|||101367941673|80
08.10.2018 01:00:00||BOYNER|10.40.27.95|||101367941673|130
08.10.2018 01:00:00||BOYNER|10.40.27.95|||101367941673|125
08.10.2018 01:00:00||BOYNER|10.40.27.95|||101367941673|233
08.10.2018 01:00:00||BOYNER|10.40.26.95|||101367941673|120
08.10.2018 01:00:00||BOYNER|10.40.26.95|||101367941673|193
08.10.2018 01:00:00||BOYNER|10.40.26.95|||101367941673|135
08.10.2018 01:00:00||BOYNER|10.40.27.96|||101367941673|60
08.10.2018 01:00:00||BOYNER|10.40.27.96|||101367941673|50
08.10.2018 01:00:00||BOYNER|10.40.27.96|||101367941673|50
08.10.2018 01:00:00||BOYNER|10.40.27.96|||101367941673|40
08.10.2018 01:00:00||BOYNER|10.40.27.96|||101367941673|40
08.10.2018 01:00:00||BOYNER|10.40.27.96|||101367941673|152
08.10.2018 01:00:00||BOYNER|10.40.27.96|||101367941673|157
08.10.2018 01:00:00||BOYNER|10.40.27.96|||101367941673|185
08.10.2018 01:00:00||BOYNER|10.40.27.96|||101367941673|165
08.10.2018 01:00:00||BOYNER|10.40.26.96|||101367941673|30
08.10.2018 01:00:00||BOYNER|10.40.26.96|||101367941673|40
08.10.2018 01:00:00||BOYNER|10.40.26.96|||101367941673|30
08.10.2018 01:00:00||BOYNER|10.40.26.96|||101367941673|40
08.10.2018 01:00:00||BOYNER|10.40.26.96|||101367941673|40
08.10.2018 01:00:00||BOYNER|10.40.26.96|||101367941673|50
08.10.2018 01:00:00||BOYNER|10.40.26.96|||101367941673|190
08.10.2018 01:00:00||BOYNER|10.40.26.96|||101367941673|203
08.10.2018 01:00:00||BOYNER|10.40.26.96|||101367941673|170
08.10.2018 01:00:00||BOYNER|10.40.26.96|||101367941673|183
08.10.2018 01:00:00||BOYNER|10.40.27.97|||101367941673|60
08.10.2018 01:00:00||BOYNER|10.40.27.97|||101367941673|645
08.10.2018 01:00:00||BOYNER|10.40.27.97|||101367941673|647
08.10.2018 01:00:00||BOYNER|10.40.27.97|||101367941673|682
08.10.2018 01:00:00||BOYNER|10.40.27.97|||101367941673|50
08.10.2018 01:00:00||BOYNER|10.40.27.97|||101367941673|30
08.10.2018 01:00:00||BOYNER|10.40.27.97|||101367941673|50
08.10.2018 01:00:00||BOYNER|10.40.27.97|||101367941673|30
08.10.2018 01:00:00||BOYNER|10.40.27.97|||101367941673|175
08.10.2018 01:00:00||BOYNER|10.40.27.97|||101367941673|173
08.10.2018 01:00:00||BOYNER|10.40.27.97|||101367941673|188
08.10.2018 01:00:00||BOYNER|10.40.27.97|||101367941673|192
08.10.2018 01:00:00||BOYNER|10.40.26.97|||101367941673|30
08.10.2018 01:00:00||BOYNER|10.40.26.97|||101367941673|642
08.10.2018 01:00:00||BOYNER|10.40.26.97|||101367941673|640
08.10.2018 01:00:00||BOYNER|10.40.26.97|||101367941673|647
08.10.2018 01:00:00||BOYNER|10.40.26.97|||101367941673|30
08.10.2018 01:00:00||BOYNER|10.40.26.97|||101367941673|40
08.10.2018 01:00:00||BOYNER|10.40.26.97|||101367941673|52
08.10.2018 01:00:00||BOYNER|10.40.26.97|||101367941673|60
08.10.2018 01:00:00||BOYNER|10.40.26.97|||101367941673|30
08.10.2018 01:00:00||BOYNER|10.40.26.97|||101367941673|163
08.10.2018 01:00:00||BOYNER|10.40.26.97|||101367941673|173
08.10.2018 01:00:00||BOYNER|10.40.26.97|||101367941673|172
08.10.2018 01:00:00||BOYNER|10.40.26.97|||101367941673|153
08.10.2018 01:00:00||BOYNER|10.40.27.99|||101367941673|127
08.10.2018 01:00:00||BOYNER|10.40.27.99|||101367941673|100
08.10.2018 01:00:00||BOYNER|10.40.27.99|||101367941673|72
08.10.2018 01:00:00||BOYNER|10.40.26.99|||101367941673|13
08.10.2018 01:00:00||BOYNER|10.40.26.99|||101367941673|118
08.10.2018 01:00:00||BOYNER|10.40.26.99|||101367941673|113
08.10.2018 01:00:00||BOYNER|10.40.26.99|||101367941673|63
08.10.2018 01:00:00||ÇALIK HOLDİNG|10.40.24.118|||110000438407|42
08.10.2018 01:00:00||ÇALIK HOLDİNG|10.40.25.99|||110000438407|140
08.10.2018 01:00:00||ÇALIK HOLDİNG|10.40.25.118|||110000438407|160
08.10.2018 01:00:00||ÇALIK HOLDİNG|10.40.25.120|||110000438407|90
08.10.2018 01:00:00||ÇALIK HOLDİNG|10.40.24.95|||110000438407|50
08.10.2018 01:00:00||ÇALIK HOLDİNG|10.40.25.97|||110000438407|80
08.10.2018 01:00:00||ÇALIK HOLDİNG|10.40.25.103|||110000438407|90
08.10.2018 01:00:00||ÇALIK HOLDİNG|10.40.25.120|||110000438407|40
08.10.2018 01:00:00||ÇALIK HOLDİNG|10.40.25.96|||110000438407|70
08.10.2018 01:00:00||ÇALIK HOLDİNG|10.40.25.96|||110000438407|90
08.10.2018 01:00:00||ÇALIK HOLDİNG|10.40.25.96|||110000438407|128
08.10.2018 01:00:00||ÇALIK HOLDİNG|10.40.25.96|||110000438407|90
08.10.2018 01:00:00||ÇALIK HOLDİNG|10.40.25.115|||110000438407|162
08.10.2018 01:00:00||ÇALIK HOLDİNG|10.40.25.115|||110000438407|70
08.10.2018 01:00:00||ÇALIK HOLDİNG|10.40.25.95|||110000438407|93
08.10.2018 01:00:00||ÇALIK HOLDİNG|10.40.25.96|||110000438407|90
08.10.2018 01:00:00||ÇALIK HOLDİNG|10.40.25.96|||110000438407|100
08.10.2018 01:00:00||ÇALIK HOLDİNG|10.40.25.120|||110000438407|20
08.10.2018 01:00:00||ÇALIK HOLDİNG|10.40.25.95|||110000438407|55
08.10.2018 01:00:00||ÇALIK HOLDİNG|10.40.24.94|||110000438407|195
08.10.2018 01:00:00||ÇALIK HOLDİNG|10.40.25.97|||110000438407|110
08.10.2018 01:00:00||ÇALIK HOLDİNG|10.40.25.120|||110000438407|60
08.10.2018 01:00:00||ÇALIK HOLDİNG|10.40.25.115|||110000438407|82
08.10.2018 01:00:00||ÇALIK HOLDİNG|10.40.25.115|||110000438407|70
08.10.2018 01:00:00||ÇALIK HOLDİNG|10.40.25.115|||110000438407|68
08.10.2018 01:00:00||ÇALIK HOLDİNG|10.40.25.101|||110000438407|50
08.10.2018 01:00:00||ÇALIK HOLDİNG|10.40.25.101|||110000438407|110
08.10.2018 01:00:00||ÇALIK HOLDİNG|10.40.25.101|||110000438407|30
08.10.2018 01:00:00||ÇALIK HOLDİNG|10.40.25.101|||110000438407|10
08.10.2018 01:00:00||ÇALIK HOLDİNG|10.40.25.101|||110000438407|73
08.10.2018 01:00:00||ÇALIK HOLDİNG|10.40.25.101|||110000438407|37
08.10.2018 01:00:00||ÇALIK HOLDİNG|10.40.25.101|||110000438407|40
08.10.2018 01:00:00||ÇALIK HOLDİNG|10.40.25.101|||110000438407|90
08.10.2018 01:00:00||ÇALIK HOLDİNG|10.40.25.101|||110000438407|90
08.10.2018 01:00:00||ÇALIK HOLDİNG|10.40.25.101|||110000438407|90
08.10.2018 01:00:00||ÇALIK HOLDİNG|10.40.25.94|||110000438407|180
08.10.2018 01:00:00||ÇALIK HOLDİNG|10.40.25.94|||110000438407|180
08.10.2018 01:00:00||ÇALIK HOLDİNG|10.40.25.94|||110000438407|170
08.10.2018 01:00:00||ÇALIK HOLDİNG|10.40.25.94|||110000438407|180
08.10.2018 01:00:00||ÇALIK HOLDİNG|10.40.24.94|||110000438407|200
08.10.2018 01:00:00||ÇALIK HOLDİNG|10.40.24.94|||110000438407|190
08.10.2018 01:00:00||ÇALIK HOLDİNG|10.40.24.94|||110000438407|200
08.10.2018 01:00:00||ÇALIK HOLDİNG|10.40.25.95|||110000438407|20
08.10.2018 01:00:00||ÇALIK HOLDİNG|10.40.25.95|||110000438407|360
08.10.2018 01:00:00||ÇALIK HOLDİNG|10.40.25.95|||110000438407|355
08.10.2018 01:00:00||ÇALIK HOLDİNG|10.40.25.95|||110000438407|40
08.10.2018 01:00:00||ÇALIK HOLDİNG|10.40.24.95|||110000438407|100
08.10.2018 01:00:00||ÇALIK HOLDİNG|10.40.24.95|||110000438407|83
08.10.2018 01:00:00||ÇALIK HOLDİNG|10.40.24.95|||110000438407|403
08.10.2018 01:00:00||ÇALIK HOLDİNG|10.40.24.95|||110000438407|383
08.10.2018 01:00:00||ÇALIK HOLDİNG|10.40.25.96|||110000438407|90
08.10.2018 01:00:00||ÇALIK HOLDİNG|10.40.25.96|||110000438407|100
08.10.2018 01:00:00||ÇALIK HOLDİNG|10.40.25.96|||110000438407|105
08.10.2018 01:00:00||ÇALIK HOLDİNG|10.40.25.96|||110000438407|275
08.10.2018 01:00:00||ÇALIK HOLDİNG|10.40.25.96|||110000438407|267
08.10.2018 01:00:00||ÇALIK HOLDİNG|10.40.25.96|||110000438407|100
08.10.2018 01:00:00||ÇALIK HOLDİNG|10.40.25.96|||110000438407|90
08.10.2018 01:00:00||ÇALIK HOLDİNG|10.40.25.96|||110000438407|100
08.10.2018 01:00:00||ÇALIK HOLDİNG|10.40.25.97|||110000438407|90
08.10.2018 01:00:00||ÇALIK HOLDİNG|10.40.25.97|||110000438407|80
08.10.2018 01:00:00||ÇALIK HOLDİNG|10.40.25.97|||110000438407|295
08.10.2018 01:00:00||ÇALIK HOLDİNG|10.40.25.98|||110000438407|50
08.10.2018 01:00:00||ÇALIK HOLDİNG|10.40.25.98|||110000438407|160
08.10.2018 01:00:00||ÇALIK HOLDİNG|10.40.25.98|||110000438407|158
08.10.2018 01:00:00||ÇALIK HOLDİNG|10.40.25.98|||110000438407|165
08.10.2018 01:00:00||ÇALIK HOLDİNG|10.40.25.98|||110000438407|165
08.10.2018 01:00:00||ÇALIK HOLDİNG|10.40.25.98|||110000438407|65
08.10.2018 01:00:00||ÇALIK HOLDİNG|10.40.25.98|||110000438407|210
08.10.2018 01:00:00||ÇALIK HOLDİNG|10.40.25.98|||110000438407|178
08.10.2018 01:00:00||ÇALIK HOLDİNG|10.40.25.98|||110000438407|170
08.10.2018 01:00:00||ÇALIK HOLDİNG|10.40.25.98|||110000438407|213
08.10.2018 01:00:00||ÇALIK HOLDİNG|10.40.25.98|||110000438407|70
08.10.2018 01:00:00||ÇALIK HOLDİNG|10.40.25.98|||110000438407|322
08.10.2018 01:00:00||ÇALIK HOLDİNG|10.40.24.98|||110000438407|90
08.10.2018 01:00:00||ÇALIK HOLDİNG|10.40.24.98|||110000438407|157
08.10.2018 01:00:00||ÇALIK HOLDİNG|10.40.24.98|||110000438407|200
08.10.2018 01:00:00||ÇALIK HOLDİNG|10.40.24.98|||110000438407|200
08.10.2018 01:00:00||ÇALIK HOLDİNG|10.40.24.98|||110000438407|160
08.10.2018 01:00:00||ÇALIK HOLDİNG|10.40.24.98|||110000438407|32
08.10.2018 01:00:00||ÇALIK HOLDİNG|10.40.24.98|||110000438407|165
08.10.2018 01:00:00||ÇALIK HOLDİNG|10.40.24.98|||110000438407|182
08.10.2018 01:00:00||ÇALIK HOLDİNG|10.40.24.98|||110000438407|170
08.10.2018 01:00:00||ÇALIK HOLDİNG|10.40.24.98|||110000438407|172
08.10.2018 01:00:00||ÇALIK HOLDİNG|10.40.24.98|||110000438407|20
08.10.2018 01:00:00||ÇALIK HOLDİNG|10.40.24.98|||110000438407|290
08.10.2018 01:00:00||ÇALIK HOLDİNG|10.40.25.100|||110000438407|37
08.10.2018 01:00:00||ÇALIK HOLDİNG|10.40.25.100|||110000438407|40
08.10.2018 01:00:00||ÇALIK HOLDİNG|10.40.24.101|||110000438407|60
08.10.2018 01:00:00||ÇALIK HOLDİNG|10.40.24.101|||110000438407|110
08.10.2018 01:00:00||ÇALIK HOLDİNG|10.40.24.101|||110000438407|20
08.10.2018 01:00:00||ÇALIK HOLDİNG|10.40.24.101|||110000438407|20
08.10.2018 01:00:00||ÇALIK HOLDİNG|10.40.24.101|||110000438407|40
08.10.2018 01:00:00||ÇALIK HOLDİNG|10.40.24.101|||110000438407|90
08.10.2018 01:00:00||ÇALIK HOLDİNG|10.40.24.101|||110000438407|30
08.10.2018 01:00:00||ÇALIK HOLDİNG|10.40.24.101|||110000438407|10
08.10.2018 01:00:00||ÇALIK HOLDİNG|10.40.24.101|||110000438407|20
08.10.2018 01:00:00||ÇALIK HOLDİNG|10.40.24.101|||110000438407|50
08.10.2018 01:00:00||ÇALIK HOLDİNG|10.40.24.101|||110000438407|30
08.10.2018 01:00:00||ÇALIK HOLDİNG|10.40.24.101|||110000438407|80
08.10.2018 01:00:00||ÇALIK HOLDİNG|10.40.24.101|||110000438407|80
08.10.2018 01:00:00||ÇALIK HOLDİNG|10.40.24.101|||110000438407|100
08.10.2018 01:00:00||ÇALIK HOLDİNG|10.40.25.102|||110000438407|100
08.10.2018 01:00:00||ÇALIK HOLDİNG|10.40.25.102|||110000438407|100
08.10.2018 01:00:00||ÇALIK HOLDİNG|10.40.25.102|||110000438407|150
08.10.2018 01:00:00||ÇALIK HOLDİNG|10.40.24.102|||110000438407|100
08.10.2018 01:00:00||ÇALIK HOLDİNG|10.40.24.102|||110000438407|100
08.10.2018 01:00:00||ÇALIK HOLDİNG|10.40.24.102|||110000438407|140
08.10.2018 01:00:00||ÇALIK HOLDİNG|10.40.25.103|||110000438407|90
08.10.2018 01:00:00||ÇALIK HOLDİNG|10.40.25.103|||110000438407|80
08.10.2018 01:00:00||ÇALIK HOLDİNG|10.40.25.115|||110000438407|85
08.10.2018 01:00:00||ÇALIK HOLDİNG|10.40.24.103|||110000438407|93
08.10.2018 01:00:00||ÇALIK HOLDİNG|10.40.24.103|||110000438407|80
08.10.2018 01:00:00||ÇALIK HOLDİNG|10.40.24.103|||110000438407|80
08.10.2018 01:00:00||ÇALIK HOLDİNG|10.40.24.103|||110000438407|20
08.10.2018 01:00:00||ÇALIK HOLDİNG|10.40.24.103|||110000438407|20
08.10.2018 01:00:00||ÇALIK HOLDİNG|10.40.25.113|||110000438407|117
08.10.2018 01:00:00||ÇALIK HOLDİNG|10.40.25.113|||110000438407|252
08.10.2018 01:00:00||ÇALIK HOLDİNG|10.40.25.113|||110000438407|185
08.10.2018 01:00:00||ÇALIK HOLDİNG|10.40.25.113|||110000438407|193
08.10.2018 01:00:00||ÇALIK HOLDİNG|10.40.24.113|||110000438407|238
08.10.2018 01:00:00||ÇALIK HOLDİNG|10.40.24.113|||110000438407|230
08.10.2018 01:00:00||ÇALIK HOLDİNG|10.40.24.113|||110000438407|190
08.10.2018 01:00:00||ÇALIK HOLDİNG|10.40.24.113|||110000438407|157
08.10.2018 01:00:00||ÇALIK HOLDİNG|10.40.25.114|||110000438407|172
08.10.2018 01:00:00||ÇALIK HOLDİNG|10.40.25.114|||110000438407|413
08.10.2018 01:00:00||ÇALIK HOLDİNG|10.40.25.114|||110000438407|40
08.10.2018 01:00:00||ÇALIK HOLDİNG|10.40.24.114|||110000438407|20
08.10.2018 01:00:00||ÇALIK HOLDİNG|10.40.24.114|||110000438407|40
08.10.2018 01:00:00||ÇALIK HOLDİNG|10.40.24.114|||110000438407|157
08.10.2018 01:00:00||ÇALIK HOLDİNG|10.40.24.114|||110000438407|373
08.10.2018 01:00:00||ÇALIK HOLDİNG|10.40.24.115|||110000438407|153
08.10.2018 01:00:00||ÇALIK HOLDİNG|10.40.24.115|||110000438407|80
08.10.2018 01:00:00||ÇALIK HOLDİNG|10.40.24.115|||110000438407|90
08.10.2018 01:00:00||ÇALIK HOLDİNG|10.40.24.115|||110000438407|70
08.10.2018 01:00:00||ÇALIK HOLDİNG|10.40.24.115|||110000438407|85
08.10.2018 01:00:00||ÇALIK HOLDİNG|10.40.24.115|||110000438407|72
08.10.2018 01:00:00||ÇALIK HOLDİNG|10.40.25.116|||110000438407|105
08.10.2018 01:00:00||ÇALIK HOLDİNG|10.40.25.116|||110000438407|102
08.10.2018 01:00:00||ÇALIK HOLDİNG|10.40.25.116|||110000438407|302
08.10.2018 01:00:00||ÇALIK HOLDİNG|10.40.24.116|||110000438407|290
08.10.2018 01:00:00||ÇALIK HOLDİNG|10.40.24.116|||110000438407|100
08.10.2018 01:00:00||ÇALIK HOLDİNG|10.40.24.116|||110000438407|102
08.10.2018 01:00:00||ÇALIK HOLDİNG|10.40.25.117|||110000438407|242
08.10.2018 01:00:00||ÇALIK HOLDİNG|10.40.25.117|||110000438407|30
08.10.2018 01:00:00||ÇALIK HOLDİNG|10.40.25.117|||110000438407|27
08.10.2018 01:00:00||ÇALIK HOLDİNG|10.40.25.119|||110000438407|30
08.10.2018 01:00:00||ÇALIK HOLDİNG|10.40.25.119|||110000438407|30
08.10.2018 01:00:00||ÇALIK HOLDİNG|10.40.24.119|||110000438407|150
08.10.2018 01:00:00||ÇALIK HOLDİNG|10.40.24.119|||110000438407|30
08.10.2018 01:00:00||ÇALIK HOLDİNG|10.40.24.119|||110000438407|50
08.10.2018 01:00:00||ÇALIK HOLDİNG|10.40.25.120|||110000438407|107
08.10.2018 01:00:00||ÇALIK HOLDİNG|10.40.25.120|||110000438407|50
08.10.2018 01:00:00||ÇALIK HOLDİNG|10.40.25.120|||110000438407|20
08.10.2018 01:00:00||ÇALIK HOLDİNG|10.40.25.120|||110000438407|30
08.10.2018 01:00:00||ÇALIK HOLDİNG|10.40.25.120|||110000438407|88
08.10.2018 01:00:00||ÇALIK HOLDİNG|10.40.25.120|||110000438407|90
08.10.2018 01:00:00||ÇALIK HOLDİNG|10.40.24.120|||110000438407|20
08.10.2018 01:00:00||ÇALIK HOLDİNG|10.40.24.120|||110000438407|30
08.10.2018 01:00:00||ÇALIK HOLDİNG|10.40.24.120|||110000438407|110
08.10.2018 01:00:00||ÇALIK HOLDİNG|10.40.24.120|||110000438407|10
08.10.2018 01:00:00||ÇALIK HOLDİNG|10.40.24.120|||110000438407|20
08.10.2018 01:00:00||ÇALIK HOLDİNG|10.40.24.120|||110000438407|100
08.10.2018 01:00:00||ÇALIK HOLDİNG|10.40.24.120|||110000438407|40
08.10.2018 01:00:00||ÇALIK HOLDİNG|10.40.24.120|||110000438407|80
08.10.2018 01:00:00||ÇALIK HOLDİNG|10.40.24.120|||110000438407|80
08.10.2018 01:00:00||ÇALIK HOLDİNG|10.40.24.120|||110000438407|70
08.10.2018 01:00:00||ÇALIK HOLDİNG|10.40.25.121|||110000438407|90
08.10.2018 01:00:00||ÇALIK HOLDİNG|10.40.25.121|||110000438407|100
08.10.2018 01:00:00||ÇALIK HOLDİNG|10.40.25.121|||110000438407|140
08.10.2018 01:00:00||ÇALIK HOLDİNG|10.40.24.121|||110000438407|100
08.10.2018 01:00:00||ÇALIK HOLDİNG|10.40.24.121|||110000438407|100
08.10.2018 01:00:00||ÇALIK HOLDİNG|10.40.24.121|||110000438407|150
08.10.2018 01:00:00||ÇALIK HOLDİNG|10.40.25.122|||110000438407|90
08.10.2018 01:00:00||ÇALIK HOLDİNG|10.40.25.122|||110000438407|80
08.10.2018 01:00:00||ÇALIK HOLDİNG|10.40.25.122|||110000438407|80
08.10.2018 01:00:00||ÇALIK HOLDİNG|10.40.24.122|||110000438407|90
08.10.2018 01:00:00||ÇALIK HOLDİNG|10.40.24.122|||110000438407|80
08.10.2018 01:00:00||ÇALIK HOLDİNG|10.40.24.122|||110000438407|88
08.10.2018 01:00:00||ÇALIK HOLDİNG|10.40.24.122|||110000438407|30
08.10.2018 01:00:00||ÇALIK HOLDİNG|10.40.24.122|||110000438407|10
08.10.2018 01:00:00||ÇALIK HOLDİNG|10.40.24.117|||110000438407|202
08.10.2018 01:00:00||ÇALIK HOLDİNG|10.40.24.117|||110000438407|30
08.10.2018 01:00:00||ÇALIK HOLDİNG|10.40.24.117|||110000438407|30
08.10.2018 01:00:00||ÇALIK HOLDİNG|10.40.24.97|||110000438407|107
08.10.2018 01:00:00||ÇALIK HOLDİNG|10.40.24.97|||110000438407|90
08.10.2018 01:00:00||ÇALIK HOLDİNG|10.40.24.97|||110000438407|80
08.10.2018 01:00:00||ÇALIK HOLDİNG|10.40.24.97|||110000438407|90
08.10.2018 01:00:00||ÇALIK HOLDİNG|10.40.24.97|||110000438407|315
08.10.2018 01:00:00||ÇALIK HOLDİNG|10.40.24.100|||110000438407|30
08.10.2018 01:00:00||ÇALIK HOLDİNG|10.40.24.100|||110000438407|40
08.10.2018 01:00:00||FIBABANKA|10.40.27.54|||101571767266|309
08.10.2018 01:00:00||FIBABANKA|10.40.26.54|||101571767266|317
08.10.2018 01:00:00||FIBABANKA|10.40.27.55|||101571767266|108
08.10.2018 01:00:00||FIBABANKA|10.40.26.55|||101571767266|106
08.10.2018 01:00:00||FIBABANKA|10.40.24.55|||101571767266|111
08.10.2018 01:00:00||FIBABANKA|10.40.25.56|||101571767266|197
08.10.2018 01:00:00||FIBABANKA|10.40.25.54|||101571767266|257
08.10.2018 01:00:00||FIBABANKA|10.40.24.54|||101571767266|385
08.10.2018 01:00:00||FIBABANKA|10.40.25.55|||101571767266|112
08.10.2018 01:00:00||FIBABANKA|10.40.24.56|||101571767266|193
08.10.2018 01:00:00||FIBABANKA|10.40.26.53|||101571767266|45
08.10.2018 01:00:00||FIBABANKA|10.40.26.53|||101571767266|150
08.10.2018 01:00:00||FIBABANKA|10.40.25.76|||101571767266|10
08.10.2018 01:00:00||FIBABANKA|10.40.27.53|||101571767266|158
08.10.2018 01:00:00||FIBABANKA|10.40.27.53|||101571767266|170
08.10.2018 01:00:00||FIBABANKA|10.40.26.53|||101571767266|153
08.10.2018 01:00:00||FIBABANKA|10.40.27.57|||101571767266|87
08.10.2018 01:00:00||FIBABANKA|10.40.27.57|||101571767266|80
08.10.2018 01:00:00||FIBABANKA|10.40.27.57|||101571767266|80
08.10.2018 01:00:00||FIBABANKA|10.40.25.57|||101571767266|90
08.10.2018 01:00:00||FIBABANKA|10.40.25.57|||101571767266|90
08.10.2018 01:00:00||FIBABANKA|10.40.25.57|||101571767266|90
08.10.2018 01:00:00||FIBABANKA|10.40.26.51|||101571767266|20
08.10.2018 01:00:00||FIBABANKA|10.40.27.52|||101571767266|50
08.10.2018 01:00:00||FIBABANKA|10.40.27.52|||101571767266|60
08.10.2018 01:00:00||FIBABANKA|10.40.27.52|||101571767266|70
08.10.2018 01:00:00||FIBABANKA|10.40.27.74|||101571767266|168
08.10.2018 01:00:00||FIBABANKA|10.40.25.53|||101571767266|32
08.10.2018 01:00:00||FIBABANKA|10.40.25.53|||101571767266|50
08.10.2018 01:00:00||FIBABANKA|10.40.27.53|||101571767266|58
08.10.2018 01:00:00||FIBABANKA|10.40.26.53|||101571767266|60
08.10.2018 01:00:00||FIBABANKA|10.40.25.51|||101571767266|20
08.10.2018 01:00:00||FIBABANKA|10.40.25.51|||101571767266|110
08.10.2018 01:00:00||FIBABANKA|10.40.24.51|||101571767266|20
08.10.2018 01:00:00||FIBABANKA|10.40.24.51|||101571767266|70
08.10.2018 01:00:00||FIBABANKA|10.40.24.51|||101571767266|110
08.10.2018 01:00:00||FIBABANKA|10.40.24.51|||101571767266|145
08.10.2018 01:00:00||FIBABANKA|10.40.24.51|||101571767266|30
08.10.2018 01:00:00||FIBABANKA|10.40.24.57|||101571767266|90
08.10.2018 01:00:00||FIBABANKA|10.40.24.57|||101571767266|80
08.10.2018 01:00:00||FIBABANKA|10.40.24.57|||101571767266|80
08.10.2018 01:00:00||FIBABANKA|10.40.24.52|||101571767266|10
08.10.2018 01:00:00||FIBABANKA|10.40.26.73|||101571767266|40
08.10.2018 01:00:00||FIBABANKA|10.40.27.53|||101571767266|67
08.10.2018 01:00:00||FIBABANKA|10.40.26.51|||101571767266|70
08.10.2018 01:00:00||FIBABANKA|10.40.26.52|||101571767266|30
08.10.2018 01:00:00||FIBABANKA|10.40.26.52|||101571767266|90
08.10.2018 01:00:00||FIBABANKA|10.40.26.52|||101571767266|30
08.10.2018 01:00:00||FIBABANKA|10.40.25.51|||101571767266|130
08.10.2018 01:00:00||FIBABANKA|10.40.25.51|||101571767266|40
08.10.2018 01:00:00||FIBABANKA|10.40.25.51|||101571767266|40
08.10.2018 01:00:00||FIBABANKA|10.40.25.51|||101571767266|73
08.10.2018 01:00:00||FIBABANKA|10.40.24.51|||101571767266|30
08.10.2018 01:00:00||FIBABANKA|10.40.25.59|||101571767266|70
08.10.2018 01:00:00||FIBABANKA|10.40.25.59|||101571767266|90
08.10.2018 01:00:00||FIBABANKA|10.40.25.59|||101571767266|82
08.10.2018 01:00:00||FIBABANKA|10.40.25.59|||101571767266|40
08.10.2018 01:00:00||FIBABANKA|10.40.25.59|||101571767266|122
08.10.2018 01:00:00||FIBABANKA|10.40.25.59|||101571767266|60
08.10.2018 01:00:00||FIBABANKA|10.40.25.59|||101571767266|50
08.10.2018 01:00:00||FIBABANKA|10.40.25.59|||101571767266|165
08.10.2018 01:00:00||FIBABANKA|10.40.25.59|||101571767266|60
08.10.2018 01:00:00||FIBABANKA|10.40.24.59|||101571767266|70
08.10.2018 01:00:00||FIBABANKA|10.40.24.59|||101571767266|122
08.10.2018 01:00:00||FIBABANKA|10.40.24.59|||101571767266|72
08.10.2018 01:00:00||FIBABANKA|10.40.24.59|||101571767266|50
08.10.2018 01:00:00||FIBABANKA|10.40.24.59|||101571767266|130
08.10.2018 01:00:00||FIBABANKA|10.40.24.59|||101571767266|70
08.10.2018 01:00:00||FIBABANKA|10.40.24.59|||101571767266|60
08.10.2018 01:00:00||FIBABANKA|10.40.24.59|||101571767266|162
08.10.2018 01:00:00||FIBABANKA|10.40.24.59|||101571767266|68
08.10.2018 01:00:00||FIBABANKA|10.40.25.60|||101571767266|108
08.10.2018 01:00:00||FIBABANKA|10.40.25.60|||101571767266|38
08.10.2018 01:00:00||FIBABANKA|10.40.25.60|||101571767266|108
08.10.2018 01:00:00||FIBABANKA|10.40.25.60|||101571767266|40
08.10.2018 01:00:00||FIBABANKA|10.40.24.60|||101571767266|112
08.10.2018 01:00:00||FIBABANKA|10.40.24.60|||101571767266|60
08.10.2018 01:00:00||FIBABANKA|10.40.24.60|||101571767266|40
08.10.2018 01:00:00||FIBABANKA|10.40.24.60|||101571767266|100
08.10.2018 01:00:00||FIBABANKA|10.40.24.60|||101571767266|60
08.10.2018 01:00:00||FIBABANKA|10.40.25.72|||101571767266|70
08.10.2018 01:00:00||FIBABANKA|10.40.25.72|||101571767266|40
08.10.2018 01:00:00||FIBABANKA|10.40.25.72|||101571767266|30
08.10.2018 01:00:00||FIBABANKA|10.40.24.72|||101571767266|140
08.10.2018 01:00:00||FIBABANKA|10.40.24.72|||101571767266|78
08.10.2018 01:00:00||FIBABANKA|10.40.24.72|||101571767266|30
08.10.2018 01:00:00||FIBABANKA|10.40.24.72|||101571767266|40
08.10.2018 01:00:00||FIBABANKA|10.40.25.74|||101571767266|40
08.10.2018 01:00:00||FIBABANKA|10.40.25.74|||101571767266|33
08.10.2018 01:00:00||FIBABANKA|10.40.25.74|||101571767266|40
08.10.2018 01:00:00||FIBABANKA|10.40.25.74|||101571767266|40
08.10.2018 01:00:00||FIBABANKA|10.40.25.74|||101571767266|40
08.10.2018 01:00:00||FIBABANKA|10.40.25.75|||101571767266|135
08.10.2018 01:00:00||FIBABANKA|10.40.25.75|||101571767266|177
08.10.2018 01:00:00||FIBABANKA|10.40.25.75|||101571767266|178
08.10.2018 01:00:00||FIBABANKA|10.40.25.75|||101571767266|210
08.10.2018 01:00:00||FIBABANKA|10.40.24.75|||101571767266|168
08.10.2018 01:00:00||FIBABANKA|10.40.24.75|||101571767266|160
08.10.2018 01:00:00||FIBABANKA|10.40.24.76|||101571767266|33
08.10.2018 01:00:00||FIBABANKA|10.40.24.76|||101571767266|68
08.10.2018 01:00:00||FIBABANKA|10.40.24.76|||101571767266|10
08.10.2018 01:00:00||FIBABANKA|10.40.24.53|||101571767266|30
08.10.2018 01:00:00||FIBABANKA|10.40.24.53|||101571767266|60
08.10.2018 01:00:00||FIBABANKA|10.40.26.57|||101571767266|93
08.10.2018 01:00:00||FIBABANKA|10.40.26.57|||101571767266|82
08.10.2018 01:00:00||FIBABANKA|10.40.26.57|||101571767266|80
08.10.2018 01:00:00||FIBABANKA|10.40.27.72|||101571767266|50
08.10.2018 01:00:00||FIBABANKA|10.40.27.72|||101571767266|40
08.10.2018 01:00:00||FIBABANKA|10.40.27.72|||101571767266|130
08.10.2018 01:00:00||FIBABANKA|10.40.27.72|||101571767266|62
08.10.2018 01:00:00||FIBABANKA|10.40.27.72|||101571767266|32
08.10.2018 01:00:00||FIBABANKA|10.40.26.72|||101571767266|30
08.10.2018 01:00:00||FIBABANKA|10.40.26.72|||101571767266|150
08.10.2018 01:00:00||FIBABANKA|10.40.26.72|||101571767266|70
08.10.2018 01:00:00||FIBABANKA|10.40.26.72|||101571767266|30
08.10.2018 01:00:00||FIBABANKA|10.40.27.73|||101571767266|32
08.10.2018 01:00:00||FIBABANKA|10.40.27.73|||101571767266|100
08.10.2018 01:00:00||FIBABANKA|10.40.27.73|||101571767266|30
08.10.2018 01:00:00||FIBABANKA|10.40.27.73|||101571767266|20
08.10.2018 01:00:00||FIBABANKA|10.40.27.73|||101571767266|40
08.10.2018 01:00:00||FIBABANKA|10.40.27.73|||101571767266|40
08.10.2018 01:00:00||FIBABANKA|10.40.27.73|||101571767266|42
08.10.2018 01:00:00||FIBABANKA|10.40.27.73|||101571767266|40
08.10.2018 01:00:00||FIBABANKA|10.40.26.73|||101571767266|40
08.10.2018 01:00:00||FIBABANKA|10.40.26.73|||101571767266|70
08.10.2018 01:00:00||FIBABANKA|10.40.26.73|||101571767266|30
08.10.2018 01:00:00||FIBABANKA|10.40.27.74|||101571767266|75
08.10.2018 01:00:00||FIBABANKA|10.40.27.74|||101571767266|150
08.10.2018 01:00:00||FIBABANKA|10.40.27.74|||101571767266|172
08.10.2018 01:00:00||FIBABANKA|10.40.26.74|||101571767266|72
08.10.2018 01:00:00||FIBABANKA|10.40.26.74|||101571767266|178
08.10.2018 01:00:00||FIBABANKA|10.40.26.74|||101571767266|182
08.10.2018 01:00:00||FIBABANKA|10.40.26.74|||101571767266|172
08.10.2018 01:00:00||FIBABANKA|10.40.27.75|||101571767266|10
08.10.2018 01:00:00||FIBABANKA|10.40.27.75|||101571767266|10
08.10.2018 01:00:00||FIBABANKA|10.40.26.79|||101571767266|10
08.10.2018 01:00:00||FIBABANKA|10.40.27.79|||101571767266|10
08.10.2018 01:00:00||FIBABANKA|10.40.26.79|||101571767266|10
08.10.2018 01:00:00||FIBABANKA|10.40.27.77|||101571767266|157
08.10.2018 01:00:00||FIBABANKA|10.40.26.77|||101571767266|178
08.10.2018 01:00:00||FIBABANKA|10.40.27.77|||101571767266|158
08.10.2018 01:00:00||FIBABANKA|10.40.24.75|||101571767266|185
08.10.2018 01:00:00||FIBABANKA|10.40.24.53|||101571767266|168
08.10.2018 01:00:00||FIBABANKA|10.40.24.53|||101571767266|183
08.10.2018 01:00:00||FIBABANKA|10.40.25.52|||101571767266|10
08.10.2018 01:00:00||FIBABANKA|10.40.25.52|||101571767266|60
08.10.2018 01:00:00||FIBABANKA|10.40.25.53|||101571767266|165
08.10.2018 01:00:00||FIBABANKA|10.40.25.53|||101571767266|155
08.10.2018 01:00:00||FIBABANKA|10.40.27.51|||101571767266|30
08.10.2018 01:00:00||FIBABANKA|10.40.27.51|||101571767266|20
08.10.2018 01:00:00||FIBABANKA|10.40.27.51|||101571767266|100
08.10.2018 01:00:00||FIBABANKA|10.40.27.51|||101571767266|130
08.10.2018 01:00:00||FIBABANKA|10.40.27.51|||101571767266|70
08.10.2018 01:00:00||FIBABANKA|10.40.27.51|||101571767266|40
08.10.2018 01:00:00||FIBABANKA|10.40.27.51|||101571767266|40
08.10.2018 01:00:00||FIBABANKA|10.40.26.51|||101571767266|10
08.10.2018 01:00:00||FIBABANKA|10.40.26.51|||101571767266|110
08.10.2018 01:00:00||FIBABANKA|10.40.26.51|||101571767266|132
08.10.2018 01:00:00||FIBABANKA|10.40.26.51|||101571767266|30
08.10.2018 01:00:00||FIBABANKA|10.40.26.51|||101571767266|30
08.10.2018 01:00:00||FIBABANKA|10.40.24.74|||101571767266|32
08.10.2018 01:00:00||FIBABANKA|10.40.24.74|||101571767266|30
08.10.2018 01:00:00||FIBABANKA|10.40.25.76|||101571767266|60
08.10.2018 01:00:00||FIBABANKA|10.40.25.76|||101571767266|40
08.10.2018 01:00:00||FIBABANKA|10.40.25.76|||101571767266|10
08.10.2018 01:00:00||HAVAŞ|10.40.24.46|||110000479675|10
08.10.2018 01:00:00||HAVAŞ|10.40.24.48|||110000479675|750
08.10.2018 01:00:00||HAVAŞ|10.40.24.48|||110000479675|743
08.10.2018 01:00:00||HAVAŞ|10.40.25.48|||110000479675|742
08.10.2018 01:00:00||HAVAŞ|10.40.24.45|||110000479675|105
08.10.2018 01:00:00||HAVAŞ|10.40.25.45|||110000479675|65
08.10.2018 01:00:00||HAVAŞ|10.40.25.47|||110000479675|70
08.10.2018 01:00:00||HAVAŞ|10.40.24.46|||110000479675|80
08.10.2018 01:00:00||HAVAŞ|10.40.24.47|||110000479675|30
08.10.2018 01:00:00||HAVAŞ|10.40.24.47|||110000479675|90
08.10.2018 01:00:00||HAVAŞ|10.40.24.47|||110000479675|90
08.10.2018 01:00:00||HAVAŞ|10.40.25.46|||110000479675|10
08.10.2018 01:00:00||HAVAŞ|10.40.25.46|||110000479675|60
08.10.2018 01:00:00||HAVAŞ|10.40.24.48|||110000479675|763
08.10.2018 01:00:00||HAVAŞ|10.40.24.46|||110000479675|60
08.10.2018 01:00:00||HAVAŞ|10.40.24.46|||110000479675|70
08.10.2018 01:00:00||HAVAŞ|10.40.24.47|||110000479675|110
08.10.2018 01:00:00||HAVAŞ|10.40.25.48|||110000479675|738
08.10.2018 01:00:00||HAVAŞ|10.40.25.48|||110000479675|773
08.10.2018 01:00:00||HAVAŞ|10.40.25.45|||110000479675|95
08.10.2018 01:00:00||HAVAŞ|10.40.24.45|||110000479675|58
08.10.2018 01:00:00||HAVAŞ|10.40.24.45|||110000479675|163
08.10.2018 01:00:00||HAVAŞ|10.40.24.45|||110000479675|97
08.10.2018 01:00:00||HAVAŞ|10.40.25.47|||110000479675|70
08.10.2018 01:00:00||HAVAŞ|10.40.25.47|||110000479675|220
08.10.2018 01:00:00||HAVAŞ|10.40.25.47|||110000479675|55
08.10.2018 01:00:00||HAVAŞ|10.40.25.47|||110000479675|88
08.10.2018 01:00:00||HAVAŞ|10.40.25.47|||110000479675|90
08.10.2018 01:00:00||HAVAŞ|10.40.25.47|||110000479675|90
08.10.2018 01:00:00||HAVAŞ|10.40.25.47|||110000479675|10
08.10.2018 01:00:00||HAVAŞ|10.40.25.47|||110000479675|180
08.10.2018 01:00:00||HAVAŞ|10.40.25.47|||110000479675|90
08.10.2018 01:00:00||HAVAŞ|10.40.25.47|||110000479675|90
08.10.2018 01:00:00||HAVAŞ|10.40.25.47|||110000479675|90
08.10.2018 01:00:00||HAVAŞ|10.40.25.45|||110000479675|98
08.10.2018 01:00:00||HAVAŞ|10.40.25.45|||110000479675|83
08.10.2018 01:00:00||HAVAŞ|10.40.25.46|||110000479675|10
08.10.2018 01:00:00||HAVAŞ|10.40.25.46|||110000479675|10
08.10.2018 01:00:00||HAVAŞ|10.40.25.46|||110000479675|20
08.10.2018 01:00:00||HAVAŞ|10.40.25.46|||110000479675|20
08.10.2018 01:00:00||HAVAŞ|10.40.25.46|||110000479675|52
08.10.2018 01:00:00||HAVAŞ|10.40.25.46|||110000479675|100
08.10.2018 01:00:00||HAVAŞ|10.40.25.46|||110000479675|58
08.10.2018 01:00:00||HAVAŞ|10.40.25.46|||110000479675|72
08.10.2018 01:00:00||HAVAŞ|10.40.25.46|||110000479675|70
08.10.2018 01:00:00||HAVAŞ|10.40.24.46|||110000479675|20
08.10.2018 01:00:00||HAVAŞ|10.40.24.46|||110000479675|20
08.10.2018 01:00:00||HAVAŞ|10.40.24.46|||110000479675|10
08.10.2018 01:00:00||HAVAŞ|10.40.24.46|||110000479675|10
08.10.2018 01:00:00||HAVAŞ|10.40.24.46|||110000479675|10
08.10.2018 01:00:00||HAVAŞ|10.40.24.46|||110000479675|10
08.10.2018 01:00:00||HAVAŞ|10.40.24.46|||110000479675|60
08.10.2018 01:00:00||HAVAŞ|10.40.24.46|||110000479675|110
08.10.2018 01:00:00||HAVAŞ|10.40.24.47|||110000479675|30
08.10.2018 01:00:00||HAVAŞ|10.40.24.47|||110000479675|220
08.10.2018 01:00:00||HAVAŞ|10.40.24.47|||110000479675|60
08.10.2018 01:00:00||HAVAŞ|10.40.24.47|||110000479675|60
08.10.2018 01:00:00||HAVAŞ|10.40.24.47|||110000479675|157
08.10.2018 01:00:00||HAVAŞ|10.40.24.47|||110000479675|100
08.10.2018 01:00:00||HAVAŞ|10.40.24.47|||110000479675|100
08.10.2018 01:00:00||MARS CINEMA|10.40.24.203|||110000472614|100
08.10.2018 01:00:00||MARS CINEMA|10.40.24.204|||110000472614|40
08.10.2018 01:00:00||MARS CINEMA|10.40.24.203|||110000472614|88
08.10.2018 01:00:00||MARS CINEMA|10.40.24.203|||110000472614|157
08.10.2018 01:00:00||MARS CINEMA|10.40.24.203|||110000472614|80
08.10.2018 01:00:00||MARS CINEMA|10.40.24.204|||110000472614|62
08.10.2018 01:00:00||MARS CINEMA|10.40.24.203|||110000472614|100
08.10.2018 01:00:00||MARS CINEMA|10.40.24.204|||110000472614|20
08.10.2018 01:00:00||MARS CINEMA|10.40.24.204|||110000472614|92
08.10.2018 01:00:00||MARS CINEMA|10.40.25.203|||110000472614|153
08.10.2018 01:00:00||MARS CINEMA|10.40.25.203|||110000472614|85
08.10.2018 01:00:00||MARS CINEMA|10.40.25.203|||110000472614|175
08.10.2018 01:00:00||MARS CINEMA|10.40.25.203|||110000472614|92
08.10.2018 01:00:00||MARS CINEMA|10.40.25.203|||110000472614|82
08.10.2018 01:00:00||MARS CINEMA|10.40.25.203|||110000472614|110
08.10.2018 01:00:00||MARS CINEMA|10.40.25.203|||110000472614|122
08.10.2018 01:00:00||MARS CINEMA|10.40.25.203|||110000472614|145
08.10.2018 01:00:00||MARS CINEMA|10.40.25.203|||110000472614|90
08.10.2018 01:00:00||MARS CINEMA|10.40.25.203|||110000472614|90
08.10.2018 01:00:00||MARS CINEMA|10.40.25.203|||110000472614|65
08.10.2018 01:00:00||MARS CINEMA|10.40.25.203|||110000472614|190
08.10.2018 01:00:00||MARS CINEMA|10.40.25.204|||110000472614|110
08.10.2018 01:00:00||MARS CINEMA|10.40.25.204|||110000472614|70
08.10.2018 01:00:00||MARS CINEMA|10.40.25.204|||110000472614|80
08.10.2018 01:00:00||MARS CINEMA|10.40.25.204|||110000472614|100
08.10.2018 01:00:00||MARS CINEMA|10.40.25.204|||110000472614|20
08.10.2018 01:00:00||MARS CINEMA|10.40.25.204|||110000472614|20
08.10.2018 01:00:00||MARS CINEMA|10.40.25.204|||110000472614|30
08.10.2018 01:00:00||MARS CINEMA|10.40.25.204|||110000472614|40
08.10.2018 01:00:00||MARS CINEMA|10.40.25.204|||110000472614|90
08.10.2018 01:00:00||MARS CINEMA|10.40.25.204|||110000472614|120
08.10.2018 01:00:00||MARS CINEMA|10.40.25.204|||110000472614|80
08.10.2018 01:00:00||MARS CINEMA|10.40.25.204|||110000472614|80
08.10.2018 01:00:00||MARS CINEMA|10.40.25.204|||110000472614|110
08.10.2018 01:00:00||MARS CINEMA|10.40.25.204|||110000472614|100
08.10.2018 01:00:00||MARS CINEMA|10.40.24.203|||110000472614|77
08.10.2018 01:00:00||MARS CINEMA|10.40.24.203|||110000472614|93
08.10.2018 01:00:00||MARS CINEMA|10.40.24.203|||110000472614|140
08.10.2018 01:00:00||MARS CINEMA|10.40.24.203|||110000472614|157
08.10.2018 01:00:00||MARS CINEMA|10.40.24.203|||110000472614|157
08.10.2018 01:00:00||MARS CINEMA|10.40.24.203|||110000472614|100
08.10.2018 01:00:00||MARS CINEMA|10.40.24.203|||110000472614|183
08.10.2018 01:00:00||MARS CINEMA|10.40.24.204|||110000472614|110
08.10.2018 01:00:00||MARS CINEMA|10.40.24.204|||110000472614|98
08.10.2018 01:00:00||MARS CINEMA|10.40.24.204|||110000472614|90
08.10.2018 01:00:00||MARS CINEMA|10.40.24.204|||110000472614|20
08.10.2018 01:00:00||MARS CINEMA|10.40.24.204|||110000472614|18
08.10.2018 01:00:00||MARS CINEMA|10.40.24.204|||110000472614|90
08.10.2018 01:00:00||MARS CINEMA|10.40.24.204|||110000472614|117
08.10.2018 01:00:00||MARS CINEMA|10.40.24.204|||110000472614|90
08.10.2018 01:00:00||MARS CINEMA|10.40.24.204|||110000472614|110
08.10.2018 01:00:00||MARS CINEMA|10.40.24.204|||110000472614|80
08.10.2018 01:00:00||MARS CINEMA|10.40.25.206|||110000472614|40
08.10.2018 01:00:00||MARS CINEMA|10.40.25.206|||110000472614|40
08.10.2018 01:00:00||MARS CINEMA|10.40.25.206|||110000472614|40
08.10.2018 01:00:00||MARS CINEMA|10.40.25.206|||110000472614|20
08.10.2018 01:00:00||MARS CINEMA|10.40.25.206|||110000472614|20
08.10.2018 01:00:00||MARS CINEMA|10.40.25.206|||110000472614|30
08.10.2018 01:00:00||MARS CINEMA|10.40.25.206|||110000472614|60
08.10.2018 01:00:00||MARS CINEMA|10.40.25.206|||110000472614|40
08.10.2018 01:00:00||MARS CINEMA|10.40.25.206|||110000472614|80
08.10.2018 01:00:00||MARS CINEMA|10.40.25.206|||110000472614|80
08.10.2018 01:00:00||MARS CINEMA|10.40.24.206|||110000472614|40
08.10.2018 01:00:00||MARS CINEMA|10.40.24.206|||110000472614|40
08.10.2018 01:00:00||MARS CINEMA|10.40.24.206|||110000472614|40
08.10.2018 01:00:00||MARS CINEMA|10.40.24.206|||110000472614|30
08.10.2018 01:00:00||MARS CINEMA|10.40.24.206|||110000472614|30
08.10.2018 01:00:00||MARS CINEMA|10.40.24.206|||110000472614|30
08.10.2018 01:00:00||MARS CINEMA|10.40.24.206|||110000472614|193
08.10.2018 01:00:00||MARS CINEMA|10.40.24.206|||110000472614|122
08.10.2018 01:00:00||MARS CINEMA|10.40.24.206|||110000472614|20
08.10.2018 01:00:00||MARS CINEMA|10.40.24.206|||110000472614|87
08.10.2018 01:00:00||MARS CINEMA|10.40.24.206|||110000472614|80
08.10.2018 01:00:00||PEGASUS|10.40.26.85|||110000423831|121
08.10.2018 01:00:00||PEGASUS|10.40.27.66|||110000423831|100
08.10.2018 01:00:00||PEGASUS|10.40.26.66|||110000423831|108
08.10.2018 01:00:00||PEGASUS|10.40.26.84|||110000423831|216
08.10.2018 01:00:00||PEGASUS|10.40.27.85|||110000423831|117
08.10.2018 01:00:00||PEGASUS|10.40.27.67|||110000423831|340
08.10.2018 01:00:00||PEGASUS|10.40.27.67|||110000423831|40
08.10.2018 01:00:00||PEGASUS|10.40.26.62|||110000423831|10
08.10.2018 01:00:00||PEGASUS|10.40.26.62|||110000423831|190
08.10.2018 01:00:00||PEGASUS|10.40.26.63|||110000423831|70
08.10.2018 01:00:00||PEGASUS|10.40.26.63|||110000423831|30
08.10.2018 01:00:00||PEGASUS|10.40.26.63|||110000423831|60
08.10.2018 01:00:00||PEGASUS|10.40.26.63|||110000423831|22
08.10.2018 01:00:00||PEGASUS|10.40.26.63|||110000423831|243
08.10.2018 01:00:00||PEGASUS|10.40.26.63|||110000423831|140
08.10.2018 01:00:00||PEGASUS|10.40.26.63|||110000423831|62
08.10.2018 01:00:00||PEGASUS|10.40.26.67|||110000423831|170
08.10.2018 01:00:00||PEGASUS|10.40.27.68|||110000423831|90
08.10.2018 01:00:00||PEGASUS|10.40.27.68|||110000423831|87
08.10.2018 01:00:00||PEGASUS|10.40.27.68|||110000423831|90
08.10.2018 01:00:00||PEGASUS|10.40.27.68|||110000423831|50
08.10.2018 01:00:00||PEGASUS|10.40.26.68|||110000423831|90
08.10.2018 01:00:00||PEGASUS|10.40.26.68|||110000423831|90
08.10.2018 01:00:00||PEGASUS|10.40.26.68|||110000423831|50
08.10.2018 01:00:00||PEGASUS|10.40.27.63|||110000423831|45
08.10.2018 01:00:00||PEGASUS|10.40.27.86|||110000423831|340
08.10.2018 01:00:00||PEGASUS|10.40.27.63|||110000423831|50
08.10.2018 01:00:00||PEGASUS|10.40.27.63|||110000423831|60
08.10.2018 01:00:00||PEGASUS|10.40.27.64|||110000423831|70
08.10.2018 01:00:00||PEGASUS|10.40.27.64|||110000423831|70
08.10.2018 01:00:00||PEGASUS|10.40.27.63|||110000423831|60
08.10.2018 01:00:00||PEGASUS|10.40.27.63|||110000423831|70
08.10.2018 01:00:00||PEGASUS|10.40.27.63|||110000423831|90
08.10.2018 01:00:00||PEGASUS|10.40.26.63|||110000423831|115
08.10.2018 01:00:00||PEGASUS|10.40.27.67|||110000423831|360
08.10.2018 01:00:00||PEGASUS|10.40.27.64|||110000423831|260
08.10.2018 01:00:00||PEGASUS|10.40.27.64|||110000423831|272
08.10.2018 01:00:00||PEGASUS|10.40.27.63|||110000423831|73
08.10.2018 01:00:00||PEGASUS|10.40.27.63|||110000423831|70
08.10.2018 01:00:00||PEGASUS|10.40.27.63|||110000423831|80
08.10.2018 01:00:00||PEGASUS|10.40.26.63|||110000423831|110
08.10.2018 01:00:00||PEGASUS|10.40.26.63|||110000423831|287
08.10.2018 01:00:00||PEGASUS|10.40.27.81|||110000423831|480
08.10.2018 01:00:00||PEGASUS|10.40.27.81|||110000423831|402
08.10.2018 01:00:00||PEGASUS|10.40.26.63|||110000423831|90
08.10.2018 01:00:00||PEGASUS|10.40.26.63|||110000423831|43
08.10.2018 01:00:00||PEGASUS|10.40.26.67|||110000423831|30
08.10.2018 01:00:00||PEGASUS|10.40.26.67|||110000423831|340
08.10.2018 01:00:00||PEGASUS|10.40.26.67|||110000423831|60
08.10.2018 01:00:00||PEGASUS|10.40.26.67|||110000423831|40
08.10.2018 01:00:00||PEGASUS|10.40.26.67|||110000423831|70
08.10.2018 01:00:00||PEGASUS|10.40.26.68|||110000423831|98
08.10.2018 01:00:00||PEGASUS|10.40.27.64|||110000423831|288
08.10.2018 01:00:00||PEGASUS|10.40.27.64|||110000423831|265
08.10.2018 01:00:00||PEGASUS|10.40.27.64|||110000423831|293
08.10.2018 01:00:00||PEGASUS|10.40.27.64|||110000423831|268
08.10.2018 01:00:00||PEGASUS|10.40.27.64|||110000423831|268
08.10.2018 01:00:00||PEGASUS|10.40.27.86|||110000423831|340
08.10.2018 01:00:00||PEGASUS|10.40.27.63|||110000423831|90
08.10.2018 01:00:00||PEGASUS|10.40.26.63|||110000423831|130
08.10.2018 01:00:00||PEGASUS|10.40.26.63|||110000423831|58
08.10.2018 01:00:00||PEGASUS|10.40.26.63|||110000423831|87
08.10.2018 01:00:00||PEGASUS|10.40.26.67|||110000423831|340
08.10.2018 01:00:00||PEGASUS|10.40.27.63|||110000423831|50
08.10.2018 01:00:00||PEGASUS|10.40.27.63|||110000423831|57
08.10.2018 01:00:00||PEGASUS|10.40.27.81|||110000423831|458
08.10.2018 01:00:00||PEGASUS|10.40.26.62|||110000423831|90
08.10.2018 01:00:00||PEGASUS|10.40.26.62|||110000423831|2
08.10.2018 01:00:00||PEGASUS|10.40.26.63|||110000423831|50
08.10.2018 01:00:00||PEGASUS|10.40.26.63|||110000423831|95
08.10.2018 01:00:00||PEGASUS|10.40.26.63|||110000423831|40
08.10.2018 01:00:00||PEGASUS|10.40.26.63|||110000423831|57
08.10.2018 01:00:00||PEGASUS|10.40.26.67|||110000423831|340
08.10.2018 01:00:00||PEGASUS|10.40.27.64|||110000423831|277
08.10.2018 01:00:00||PEGASUS|10.40.27.64|||110000423831|267
08.10.2018 01:00:00||PEGASUS|10.40.27.64|||110000423831|262
08.10.2018 01:00:00||PEGASUS|10.40.27.64|||110000423831|332
08.10.2018 01:00:00||PEGASUS|10.40.27.64|||110000423831|305
08.10.2018 01:00:00||PEGASUS|10.40.27.86|||110000423831|40
08.10.2018 01:00:00||PEGASUS|10.40.27.63|||110000423831|67
08.10.2018 01:00:00||PEGASUS|10.40.27.63|||110000423831|80
08.10.2018 01:00:00||PEGASUS|10.40.27.63|||110000423831|80
08.10.2018 01:00:00||PEGASUS|10.40.27.63|||110000423831|228
08.10.2018 01:00:00||PEGASUS|10.40.27.63|||110000423831|55
08.10.2018 01:00:00||PEGASUS|10.40.26.64|||110000423831|80
08.10.2018 01:00:00||PEGASUS|10.40.26.64|||110000423831|80
08.10.2018 01:00:00||PEGASUS|10.40.26.82|||110000423831|210
08.10.2018 01:00:00||PEGASUS|10.40.26.82|||110000423831|110
08.10.2018 01:00:00||PEGASUS|10.40.26.82|||110000423831|80
08.10.2018 01:00:00||PEGASUS|10.40.26.82|||110000423831|150
08.10.2018 01:00:00||PEGASUS|10.40.26.82|||110000423831|140
08.10.2018 01:00:00||PEGASUS|10.40.26.82|||110000423831|140
08.10.2018 01:00:00||PEGASUS|10.40.26.82|||110000423831|180
08.10.2018 01:00:00||PEGASUS|10.40.26.82|||110000423831|30
08.10.2018 01:00:00||PEGASUS|10.40.26.82|||110000423831|40
08.10.2018 01:00:00||PEGASUS|10.40.26.82|||110000423831|20
08.10.2018 01:00:00||PEGASUS|10.40.26.82|||110000423831|70
08.10.2018 01:00:00||PEGASUS|10.40.26.82|||110000423831|50
08.10.2018 01:00:00||PEGASUS|10.40.26.82|||110000423831|40
08.10.2018 01:00:00||PEGASUS|10.40.27.83|||110000423831|600
08.10.2018 01:00:00||PEGASUS|10.40.27.83|||110000423831|70
08.10.2018 01:00:00||PEGASUS|10.40.27.83|||110000423831|532
08.10.2018 01:00:00||PEGASUS|10.40.27.83|||110000423831|97
08.10.2018 01:00:00||PEGASUS|10.40.27.83|||110000423831|155
08.10.2018 01:00:00||PEGASUS|10.40.27.83|||110000423831|80
08.10.2018 01:00:00||PEGASUS|10.40.27.83|||110000423831|517
08.10.2018 01:00:00||PEGASUS|10.40.27.83|||110000423831|70
08.10.2018 01:00:00||PEGASUS|10.40.26.83|||110000423831|555
08.10.2018 01:00:00||PEGASUS|10.40.26.83|||110000423831|50
08.10.2018 01:00:00||PEGASUS|10.40.26.83|||110000423831|402
08.10.2018 01:00:00||PEGASUS|10.40.26.83|||110000423831|157
08.10.2018 01:00:00||PEGASUS|10.40.26.83|||110000423831|98
08.10.2018 01:00:00||PEGASUS|10.40.26.83|||110000423831|558
08.10.2018 01:00:00||PEGASUS|10.40.26.83|||110000423831|110
08.10.2018 01:00:00||PEGASUS|10.40.26.83|||110000423831|578
08.10.2018 01:00:00||PEGASUS|10.40.26.86|||110000423831|360
08.10.2018 01:00:00||PEGASUS|10.40.26.86|||110000423831|137
08.10.2018 01:00:00||PEGASUS|10.40.26.86|||110000423831|350
08.10.2018 01:00:00||PEGASUS|10.40.26.86|||110000423831|50
08.10.2018 01:00:00||PEGASUS|10.40.26.86|||110000423831|30
08.10.2018 01:00:00||PEGASUS|10.40.26.86|||110000423831|350
08.10.2018 01:00:00||PEGASUS|10.40.26.86|||110000423831|40
08.10.2018 01:00:00||PEGASUS|10.40.26.86|||110000423831|50
08.10.2018 01:00:00||PEGASUS|10.40.27.87|||110000423831|90
08.10.2018 01:00:00||PEGASUS|10.40.27.87|||110000423831|90
08.10.2018 01:00:00||PEGASUS|10.40.27.87|||110000423831|90
08.10.2018 01:00:00||PEGASUS|10.40.27.87|||110000423831|20
08.10.2018 01:00:00||PEGASUS|10.40.26.87|||110000423831|90
08.10.2018 01:00:00||PEGASUS|10.40.26.87|||110000423831|90
08.10.2018 01:00:00||PEGASUS|10.40.26.87|||110000423831|90
08.10.2018 01:00:00||PEGASUS|10.40.26.87|||110000423831|20
08.10.2018 01:00:00||PEGASUS|10.40.26.87|||110000423831|2
08.10.2018 01:00:00||PEGASUS|10.40.26.81|||110000423831|438
08.10.2018 01:00:00||PEGASUS|10.40.26.81|||110000423831|447
08.10.2018 01:00:00||PEGASUS|10.40.26.81|||110000423831|457
08.10.2018 01:00:00||PEGASUS|10.40.27.82|||110000423831|220
08.10.2018 01:00:00||PEGASUS|10.40.27.82|||110000423831|30
08.10.2018 01:00:00||PEGASUS|10.40.27.82|||110000423831|110
08.10.2018 01:00:00||PEGASUS|10.40.27.82|||110000423831|83
08.10.2018 01:00:00||PEGASUS|10.40.27.82|||110000423831|153
08.10.2018 01:00:00||PEGASUS|10.40.27.82|||110000423831|120
08.10.2018 01:00:00||PEGASUS|10.40.27.82|||110000423831|160
08.10.2018 01:00:00||PEGASUS|10.40.27.82|||110000423831|113
08.10.2018 01:00:00||PEGASUS|10.40.27.82|||110000423831|60
08.10.2018 01:00:00||PEGASUS|10.40.27.82|||110000423831|70
08.10.2018 01:00:00||PEGASUS|10.40.27.82|||110000423831|50
08.10.2018 01:00:00||PEGASUS|10.40.27.82|||110000423831|35
08.10.2018 01:00:00||PEGASUS|10.40.27.82|||110000423831|40
08.10.2018 01:00:00||PEGASUS|10.40.27.67|||110000423831|50
08.10.2018 01:00:00||PEGASUS|10.40.27.67|||110000423831|70
08.10.2018 01:00:00||PEGASUS|10.40.27.67|||110000423831|130
08.10.2018 01:00:00||PEGASUS|10.40.27.67|||110000423831|10
08.10.2018 01:00:00||PEGASUS|10.40.27.67|||110000423831|340
08.10.2018 01:00:00||PEGASUS|10.40.27.82|||110000423831|68
08.10.2018 01:00:00||PEGASUS|10.40.27.86|||110000423831|165
08.10.2018 01:00:00||PEGASUS|10.40.27.86|||110000423831|70
08.10.2018 01:00:00||PEGASUS|10.40.27.86|||110000423831|20
08.10.2018 01:00:00||PEGASUS|10.40.27.86|||110000423831|340
08.10.2018 01:00:00||PWC|10.40.24.66|||110000433262|87
08.10.2018 01:00:00||PWC|10.40.24.66|||110000433262|10
08.10.2018 01:00:00||PWC|10.40.24.66|||110000433262|30
08.10.2018 01:00:00||PWC|10.40.24.66|||110000433262|55
08.10.2018 01:00:00||PWC|10.40.24.66|||110000433262|440
08.10.2018 01:00:00||PWC|10.40.24.68|||110000433262|145
08.10.2018 01:00:00||PWC|10.40.24.66|||110000433262|48
08.10.2018 01:00:00||PWC|10.40.24.66|||110000433262|213
08.10.2018 01:00:00||PWC|10.40.24.66|||110000433262|210
08.10.2018 01:00:00||PWC|10.40.25.67|||110000433262|80
08.10.2018 01:00:00||PWC|10.40.25.67|||110000433262|90
08.10.2018 01:00:00||PWC|10.40.25.67|||110000433262|320
08.10.2018 01:00:00||PWC|10.40.25.67|||110000433262|250
08.10.2018 01:00:00||PWC|10.40.25.67|||110000433262|240
08.10.2018 01:00:00||PWC|10.40.25.67|||110000433262|250
08.10.2018 01:00:00||PWC|10.40.25.67|||110000433262|50
08.10.2018 01:00:00||PWC|10.40.25.67|||110000433262|30
08.10.2018 01:00:00||PWC|10.40.25.67|||110000433262|120
08.10.2018 01:00:00||PWC|10.40.24.67|||110000433262|20
08.10.2018 01:00:00||PWC|10.40.24.67|||110000433262|10
08.10.2018 01:00:00||PWC|10.40.24.67|||110000433262|365
08.10.2018 01:00:00||PWC|10.40.24.67|||110000433262|30
08.10.2018 01:00:00||PWC|10.40.24.67|||110000433262|50
08.10.2018 01:00:00||PWC|10.40.24.67|||110000433262|113
08.10.2018 01:00:00||PWC|10.40.25.68|||110000433262|95
08.10.2018 01:00:00||PWC|10.40.25.68|||110000433262|197
08.10.2018 01:00:00||PWC|10.40.25.68|||110000433262|402
08.10.2018 01:00:00||PWC|10.40.25.68|||110000433262|68
08.10.2018 01:00:00||PWC|10.40.25.68|||110000433262|70
08.10.2018 01:00:00||PWC|10.40.25.68|||110000433262|143
08.10.2018 01:00:00||PWC|10.40.24.66|||110000433262|60
08.10.2018 01:00:00||PWC|10.40.24.66|||110000433262|30
08.10.2018 01:00:00||PWC|10.40.24.66|||110000433262|40
08.10.2018 01:00:00||PWC|10.40.24.68|||110000433262|72
08.10.2018 01:00:00||PWC|10.40.24.68|||110000433262|153
08.10.2018 01:00:00||PWC|10.40.24.68|||110000433262|62
08.10.2018 01:00:00||PWC|10.40.24.68|||110000433262|60
08.10.2018 01:00:00||VSMART BİLGİ TEKNOLOJİLERİ|10.40.24.62|||110000474326|42
08.10.2018 01:00:00||VSMART BİLGİ TEKNOLOJİLERİ|10.40.24.62|||110000474326|70
08.10.2018 01:00:00||VSMART BİLGİ TEKNOLOJİLERİ|10.40.24.62|||110000474326|33
08.10.2018 01:00:00||VSMART BİLGİ TEKNOLOJİLERİ|10.40.25.62|||110000474326|60
08.10.2018 01:00:00||VSMART BİLGİ TEKNOLOJİLERİ|10.40.24.62|||110000474326|50
08.10.2018 01:00:00||VSMART BİLGİ TEKNOLOJİLERİ|10.40.24.62|||110000474326|30
08.10.2018 01:00:00||VSMART BİLGİ TEKNOLOJİLERİ|10.40.24.62|||110000474326|10
08.10.2018 01:00:00||VSMART BİLGİ TEKNOLOJİLERİ|10.40.25.62|||110000474326|37
08.10.2018 01:00:00||VSMART BİLGİ TEKNOLOJİLERİ|10.40.25.62|||110000474326|10
08.10.2018 01:00:00||VSMART BİLGİ TEKNOLOJİLERİ|10.40.25.62|||110000474326|10
08.10.2018 01:00:00||VSMART BİLGİ TEKNOLOJİLERİ|10.40.25.62|||110000474326|80
08.10.2018 01:00:00||VSMART BİLGİ TEKNOLOJİLERİ|10.40.25.62|||110000474326|83
08.10.2018 01:00:00||VSMART BİLGİ TEKNOLOJİLERİ|10.40.25.62|||110000474326|107
08.10.2018 01:00:00||VSMART BİLGİ TEKNOLOJİLERİ|10.40.24.62|||110000474326|10
