07.10.2018 00:00:00||AKTİFBANK|10.40.24.172|||110000438458|95
07.10.2018 00:00:00||AKTİFBANK|10.40.25.134|||110000438458|94
07.10.2018 00:00:00||AKTİFBANK|10.40.24.134|||110000438458|93
07.10.2018 00:00:00||AKTİFBANK|10.40.24.135|||110000438458|99
07.10.2018 00:00:00||AKTİFBANK|10.40.25.137|||110000438458|57
07.10.2018 00:00:00||AKTİFBANK|10.40.25.171|||110000438458|12
07.10.2018 00:00:00||AKTİFBANK|10.40.25.172|||110000438458|89
07.10.2018 00:00:00||AKTİFBANK|10.40.25.174|||110000438458|53
07.10.2018 00:00:00||AKTİFBANK|10.40.25.135|||110000438458|95
07.10.2018 00:00:00||AKTİFBANK|10.40.24.137|||110000438458|57
07.10.2018 00:00:00||AKTİFBANK|10.40.24.171|||110000438458|16
07.10.2018 00:00:00||AKTİFBANK|10.40.24.173|||110000438458|94
07.10.2018 00:00:00||AKTİFBANK|10.40.24.174|||110000438458|59
07.10.2018 00:00:00||AKTİFBANK|10.40.24.133|||110000438458|83
07.10.2018 00:00:00||AKTİFBANK|10.40.24.138|||110000438458|120
07.10.2018 00:00:00||AKTİFBANK|10.40.24.139|||110000438458|30
07.10.2018 00:00:00||AKTİFBANK|10.40.24.149|||110000438458|110
07.10.2018 00:00:00||AKTİFBANK|10.40.24.150|||110000438458|538
07.10.2018 00:00:00||AKTİFBANK|10.40.24.145|||110000438458|70
07.10.2018 00:00:00||AKTİFBANK|10.40.24.164|||110000438458|223
07.10.2018 00:00:00||AKTİFBANK|10.40.25.133|||110000438458|63
07.10.2018 00:00:00||AKTİFBANK|10.40.24.145|||110000438458|90
07.10.2018 00:00:00||AKTİFBANK|10.40.24.158|||110000438458|82
07.10.2018 00:00:00||AKTİFBANK|10.40.24.160|||110000438458|10
07.10.2018 00:00:00||AKTİFBANK|10.40.24.164|||110000438458|70
07.10.2018 00:00:00||AKTİFBANK|10.40.25.138|||110000438458|82
07.10.2018 00:00:00||AKTİFBANK|10.40.25.139|||110000438458|10
07.10.2018 00:00:00||AKTİFBANK|10.40.25.139|||110000438458|10
07.10.2018 00:00:00||AKTİFBANK|10.40.25.139|||110000438458|20
07.10.2018 00:00:00||AKTİFBANK|10.40.25.140|||110000438458|33
07.10.2018 00:00:00||AKTİFBANK|10.40.25.151|||110000438458|500
07.10.2018 00:00:00||AKTİFBANK|10.40.25.141|||110000438458|100
07.10.2018 00:00:00||AKTİFBANK|10.40.25.141|||110000438458|93
07.10.2018 00:00:00||AKTİFBANK|10.40.25.133|||110000438458|100
07.10.2018 00:00:00||AKTİFBANK|10.40.25.149|||110000438458|100
07.10.2018 00:00:00||AKTİFBANK|10.40.25.149|||110000438458|90
07.10.2018 00:00:00||AKTİFBANK|10.40.25.149|||110000438458|90
07.10.2018 00:00:00||AKTİFBANK|10.40.25.140|||110000438458|30
07.10.2018 00:00:00||AKTİFBANK|10.40.25.150|||110000438458|537
07.10.2018 00:00:00||AKTİFBANK|10.40.25.139|||110000438458|40
07.10.2018 00:00:00||AKTİFBANK|10.40.25.140|||110000438458|80
07.10.2018 00:00:00||AKTİFBANK|10.40.25.140|||110000438458|70
07.10.2018 00:00:00||AKTİFBANK|10.40.25.140|||110000438458|30
07.10.2018 00:00:00||AKTİFBANK|10.40.25.151|||110000438458|517
07.10.2018 00:00:00||AKTİFBANK|10.40.25.151|||110000438458|492
07.10.2018 00:00:00||AKTİFBANK|10.40.25.141|||110000438458|40
07.10.2018 00:00:00||AKTİFBANK|10.40.25.141|||110000438458|100
07.10.2018 00:00:00||AKTİFBANK|10.40.25.141|||110000438458|65
07.10.2018 00:00:00||AKTİFBANK|10.40.25.142|||110000438458|30
07.10.2018 00:00:00||AKTİFBANK|10.40.25.149|||110000438458|70
07.10.2018 00:00:00||AKTİFBANK|10.40.25.149|||110000438458|110
07.10.2018 00:00:00||AKTİFBANK|10.40.25.149|||110000438458|90
07.10.2018 00:00:00||AKTİFBANK|10.40.25.149|||110000438458|92
07.10.2018 00:00:00||AKTİFBANK|10.40.25.149|||110000438458|100
07.10.2018 00:00:00||AKTİFBANK|10.40.24.139|||110000438458|60
07.10.2018 00:00:00||AKTİFBANK|10.40.25.153|||110000438458|10
07.10.2018 00:00:00||AKTİFBANK|10.40.25.150|||110000438458|540
07.10.2018 00:00:00||AKTİFBANK|10.40.25.153|||110000438458|70
07.10.2018 00:00:00||AKTİFBANK|10.40.25.163|||110000438458|50
07.10.2018 00:00:00||AKTİFBANK|10.40.24.141|||110000438458|57
07.10.2018 00:00:00||AKTİFBANK|10.40.24.151|||110000438458|502
07.10.2018 00:00:00||AKTİFBANK|10.40.24.162|||110000438458|7
07.10.2018 00:00:00||AKTİFBANK|10.40.25.153|||110000438458|80
07.10.2018 00:00:00||AKTİFBANK|10.40.24.149|||110000438458|87
07.10.2018 00:00:00||AKTİFBANK|10.40.24.141|||110000438458|50
07.10.2018 00:00:00||AKTİFBANK|10.40.25.133|||110000438458|277
07.10.2018 00:00:00||AKTİFBANK|10.40.25.133|||110000438458|90
07.10.2018 00:00:00||AKTİFBANK|10.40.24.149|||110000438458|90
07.10.2018 00:00:00||AKTİFBANK|10.40.24.162|||110000438458|57
07.10.2018 00:00:00||AKTİFBANK|10.40.24.162|||110000438458|30
07.10.2018 00:00:00||AKTİFBANK|10.40.24.162|||110000438458|40
07.10.2018 00:00:00||AKTİFBANK|10.40.25.133|||110000438458|148
07.10.2018 00:00:00||AKTİFBANK|10.40.25.138|||110000438458|130
07.10.2018 00:00:00||AKTİFBANK|10.40.25.149|||110000438458|67
07.10.2018 00:00:00||AKTİFBANK|10.40.25.149|||110000438458|70
07.10.2018 00:00:00||AKTİFBANK|10.40.25.149|||110000438458|30
07.10.2018 00:00:00||AKTİFBANK|10.40.25.149|||110000438458|68
07.10.2018 00:00:00||AKTİFBANK|10.40.25.149|||110000438458|70
07.10.2018 00:00:00||AKTİFBANK|10.40.25.141|||110000438458|100
07.10.2018 00:00:00||AKTİFBANK|10.40.25.149|||110000438458|130
07.10.2018 00:00:00||AKTİFBANK|10.40.25.138|||110000438458|92
07.10.2018 00:00:00||AKTİFBANK|10.40.25.138|||110000438458|72
07.10.2018 00:00:00||AKTİFBANK|10.40.25.139|||110000438458|103
07.10.2018 00:00:00||AKTİFBANK|10.40.24.145|||110000438458|70
07.10.2018 00:00:00||AKTİFBANK|10.40.24.149|||110000438458|160
07.10.2018 00:00:00||AKTİFBANK|10.40.25.138|||110000438458|30
07.10.2018 00:00:00||AKTİFBANK|10.40.25.138|||110000438458|10
07.10.2018 00:00:00||AKTİFBANK|10.40.25.153|||110000438458|60
07.10.2018 00:00:00||AKTİFBANK|10.40.24.150|||110000438458|547
07.10.2018 00:00:00||AKTİFBANK|10.40.25.128|||110000438458|70
07.10.2018 00:00:00||AKTİFBANK|10.40.25.128|||110000438458|90
07.10.2018 00:00:00||AKTİFBANK|10.40.25.128|||110000438458|40
07.10.2018 00:00:00||AKTİFBANK|10.40.25.128|||110000438458|70
07.10.2018 00:00:00||AKTİFBANK|10.40.25.129|||110000438458|88
07.10.2018 00:00:00||AKTİFBANK|10.40.25.129|||110000438458|65
07.10.2018 00:00:00||AKTİFBANK|10.40.25.129|||110000438458|137
07.10.2018 00:00:00||AKTİFBANK|10.40.25.129|||110000438458|103
07.10.2018 00:00:00||AKTİFBANK|10.40.25.129|||110000438458|50
07.10.2018 00:00:00||AKTİFBANK|10.40.25.129|||110000438458|92
07.10.2018 00:00:00||AKTİFBANK|10.40.25.129|||110000438458|92
07.10.2018 00:00:00||AKTİFBANK|10.40.25.130|||110000438458|60
07.10.2018 00:00:00||AKTİFBANK|10.40.25.130|||110000438458|50
07.10.2018 00:00:00||AKTİFBANK|10.40.25.130|||110000438458|72
07.10.2018 00:00:00||AKTİFBANK|10.40.25.130|||110000438458|30
07.10.2018 00:00:00||AKTİFBANK|10.40.25.130|||110000438458|60
07.10.2018 00:00:00||AKTİFBANK|10.40.25.130|||110000438458|100
07.10.2018 00:00:00||AKTİFBANK|10.40.25.130|||110000438458|83
07.10.2018 00:00:00||AKTİFBANK|10.40.25.131|||110000438458|80
07.10.2018 00:00:00||AKTİFBANK|10.40.25.131|||110000438458|100
07.10.2018 00:00:00||AKTİFBANK|10.40.25.131|||110000438458|105
07.10.2018 00:00:00||AKTİFBANK|10.40.25.131|||110000438458|80
07.10.2018 00:00:00||AKTİFBANK|10.40.25.131|||110000438458|80
07.10.2018 00:00:00||AKTİFBANK|10.40.25.131|||110000438458|22
07.10.2018 00:00:00||AKTİFBANK|10.40.25.131|||110000438458|120
07.10.2018 00:00:00||AKTİFBANK|10.40.25.132|||110000438458|60
07.10.2018 00:00:00||AKTİFBANK|10.40.25.132|||110000438458|63
07.10.2018 00:00:00||AKTİFBANK|10.40.25.132|||110000438458|83
07.10.2018 00:00:00||AKTİFBANK|10.40.25.132|||110000438458|173
07.10.2018 00:00:00||AKTİFBANK|10.40.25.132|||110000438458|62
07.10.2018 00:00:00||AKTİFBANK|10.40.25.143|||110000438458|302
07.10.2018 00:00:00||AKTİFBANK|10.40.25.144|||110000438458|70
07.10.2018 00:00:00||AKTİFBANK|10.40.25.144|||110000438458|50
07.10.2018 00:00:00||AKTİFBANK|10.40.25.144|||110000438458|67
07.10.2018 00:00:00||AKTİFBANK|10.40.25.154|||110000438458|10
07.10.2018 00:00:00||AKTİFBANK|10.40.25.154|||110000438458|10
07.10.2018 00:00:00||AKTİFBANK|10.40.25.154|||110000438458|10
07.10.2018 00:00:00||AKTİFBANK|10.40.25.157|||110000438458|70
07.10.2018 00:00:00||AKTİFBANK|10.40.25.157|||110000438458|70
07.10.2018 00:00:00||AKTİFBANK|10.40.25.157|||110000438458|70
07.10.2018 00:00:00||AKTİFBANK|10.40.25.157|||110000438458|80
07.10.2018 00:00:00||AKTİFBANK|10.40.25.157|||110000438458|42
07.10.2018 00:00:00||AKTİFBANK|10.40.25.159|||110000438458|60
07.10.2018 00:00:00||AKTİFBANK|10.40.25.159|||110000438458|10
07.10.2018 00:00:00||AKTİFBANK|10.40.25.159|||110000438458|90
07.10.2018 00:00:00||AKTİFBANK|10.40.25.158|||110000438458|50
07.10.2018 00:00:00||AKTİFBANK|10.40.25.160|||110000438458|90
07.10.2018 00:00:00||AKTİFBANK|10.40.25.161|||110000438458|80
07.10.2018 00:00:00||AKTİFBANK|10.40.25.161|||110000438458|70
07.10.2018 00:00:00||AKTİFBANK|10.40.25.161|||110000438458|40
07.10.2018 00:00:00||AKTİFBANK|10.40.25.161|||110000438458|30
07.10.2018 00:00:00||AKTİFBANK|10.40.25.161|||110000438458|20
07.10.2018 00:00:00||AKTİFBANK|10.40.25.161|||110000438458|50
07.10.2018 00:00:00||AKTİFBANK|10.40.25.145|||110000438458|90
07.10.2018 00:00:00||AKTİFBANK|10.40.25.145|||110000438458|60
07.10.2018 00:00:00||AKTİFBANK|10.40.25.145|||110000438458|60
07.10.2018 00:00:00||AKTİFBANK|10.40.25.145|||110000438458|30
07.10.2018 00:00:00||AKTİFBANK|10.40.25.145|||110000438458|50
07.10.2018 00:00:00||AKTİFBANK|10.40.25.147|||110000438458|90
07.10.2018 00:00:00||AKTİFBANK|10.40.25.162|||110000438458|30
07.10.2018 00:00:00||AKTİFBANK|10.40.25.162|||110000438458|30
07.10.2018 00:00:00||AKTİFBANK|10.40.25.162|||110000438458|60
07.10.2018 00:00:00||AKTİFBANK|10.40.25.164|||110000438458|60
07.10.2018 00:00:00||AKTİFBANK|10.40.25.164|||110000438458|280
07.10.2018 00:00:00||AKTİFBANK|10.40.25.164|||110000438458|50
07.10.2018 00:00:00||AKTİFBANK|10.40.25.164|||110000438458|260
07.10.2018 00:00:00||AKTİFBANK|10.40.25.164|||110000438458|270
07.10.2018 00:00:00||AKTİFBANK|10.40.25.165|||110000438458|140
07.10.2018 00:00:00||AKTİFBANK|10.40.25.165|||110000438458|70
07.10.2018 00:00:00||AKTİFBANK|10.40.25.165|||110000438458|70
07.10.2018 00:00:00||AKTİFBANK|10.40.25.165|||110000438458|100
07.10.2018 00:00:00||AKTİFBANK|10.40.25.166|||110000438458|40
07.10.2018 00:00:00||AKTİFBANK|10.40.25.166|||110000438458|90
07.10.2018 00:00:00||AKTİFBANK|10.40.25.148|||110000438458|130
07.10.2018 00:00:00||AKTİFBANK|10.40.25.148|||110000438458|50
07.10.2018 00:00:00||AKTİFBANK|10.40.25.148|||110000438458|100
07.10.2018 00:00:00||AKTİFBANK|10.40.25.148|||110000438458|130
07.10.2018 00:00:00||AKTİFBANK|10.40.25.148|||110000438458|90
07.10.2018 00:00:00||AKTİFBANK|10.40.25.148|||110000438458|80
07.10.2018 00:00:00||AKTİFBANK|10.40.25.148|||110000438458|70
07.10.2018 00:00:00||AKTİFBANK|10.40.25.148|||110000438458|50
07.10.2018 00:00:00||AKTİFBANK|10.40.25.148|||110000438458|80
07.10.2018 00:00:00||AKTİFBANK|10.40.25.148|||110000438458|40
07.10.2018 00:00:00||AKTİFBANK|10.40.25.148|||110000438458|100
07.10.2018 00:00:00||AKTİFBANK|10.40.25.148|||110000438458|60
07.10.2018 00:00:00||AKTİFBANK|10.40.25.155|||110000438458|70
07.10.2018 00:00:00||AKTİFBANK|10.40.25.155|||110000438458|90
07.10.2018 00:00:00||AKTİFBANK|10.40.25.155|||110000438458|110
07.10.2018 00:00:00||AKTİFBANK|10.40.25.155|||110000438458|120
07.10.2018 00:00:00||AKTİFBANK|10.40.25.155|||110000438458|108
07.10.2018 00:00:00||AKTİFBANK|10.40.25.139|||110000438458|72
07.10.2018 00:00:00||AKTİFBANK|10.40.25.139|||110000438458|80
07.10.2018 00:00:00||AKTİFBANK|10.40.25.150|||110000438458|520
07.10.2018 00:00:00||AKTİFBANK|10.40.25.129|||110000438458|60
07.10.2018 00:00:00||AKTİFBANK|10.40.25.129|||110000438458|80
07.10.2018 00:00:00||AKTİFBANK|10.40.25.129|||110000438458|140
07.10.2018 00:00:00||AKTİFBANK|10.40.25.130|||110000438458|63
07.10.2018 00:00:00||AKTİFBANK|10.40.25.130|||110000438458|125
07.10.2018 00:00:00||AKTİFBANK|10.40.25.130|||110000438458|100
07.10.2018 00:00:00||AKTİFBANK|10.40.25.131|||110000438458|45
07.10.2018 00:00:00||AKTİFBANK|10.40.25.143|||110000438458|60
07.10.2018 00:00:00||AKTİFBANK|10.40.25.143|||110000438458|240
07.10.2018 00:00:00||AKTİFBANK|10.40.25.143|||110000438458|255
07.10.2018 00:00:00||AKTİFBANK|10.40.25.158|||110000438458|102
07.10.2018 00:00:00||AKTİFBANK|10.40.25.160|||110000438458|110
07.10.2018 00:00:00||AKTİFBANK|10.40.25.162|||110000438458|42
07.10.2018 00:00:00||AKTİFBANK|10.40.25.162|||110000438458|30
07.10.2018 00:00:00||AKTİFBANK|10.40.25.162|||110000438458|40
07.10.2018 00:00:00||AKTİFBANK|10.40.24.140|||110000438458|20
07.10.2018 00:00:00||AKTİFBANK|10.40.24.140|||110000438458|80
07.10.2018 00:00:00||AKTİFBANK|10.40.24.140|||110000438458|40
07.10.2018 00:00:00||AKTİFBANK|10.40.24.140|||110000438458|30
07.10.2018 00:00:00||AKTİFBANK|10.40.24.140|||110000438458|30
07.10.2018 00:00:00||AKTİFBANK|10.40.24.140|||110000438458|50
07.10.2018 00:00:00||AKTİFBANK|10.40.24.140|||110000438458|40
07.10.2018 00:00:00||AKTİFBANK|10.40.24.140|||110000438458|18
07.10.2018 00:00:00||AKTİFBANK|10.40.24.140|||110000438458|27
07.10.2018 00:00:00||AKTİFBANK|10.40.24.149|||110000438458|80
07.10.2018 00:00:00||AKTİFBANK|10.40.24.149|||110000438458|115
07.10.2018 00:00:00||AKTİFBANK|10.40.24.149|||110000438458|90
07.10.2018 00:00:00||AKTİFBANK|10.40.24.149|||110000438458|53
07.10.2018 00:00:00||AKTİFBANK|10.40.24.149|||110000438458|50
07.10.2018 00:00:00||AKTİFBANK|10.40.24.149|||110000438458|140
07.10.2018 00:00:00||AKTİFBANK|10.40.24.149|||110000438458|90
07.10.2018 00:00:00||AKTİFBANK|10.40.24.149|||110000438458|88
07.10.2018 00:00:00||AKTİFBANK|10.40.24.149|||110000438458|90
07.10.2018 00:00:00||AKTİFBANK|10.40.24.149|||110000438458|80
07.10.2018 00:00:00||AKTİFBANK|10.40.24.133|||110000438458|143
07.10.2018 00:00:00||AKTİFBANK|10.40.24.133|||110000438458|120
07.10.2018 00:00:00||AKTİFBANK|10.40.24.133|||110000438458|85
07.10.2018 00:00:00||AKTİFBANK|10.40.24.138|||110000438458|110
07.10.2018 00:00:00||AKTİFBANK|10.40.24.138|||110000438458|140
07.10.2018 00:00:00||AKTİFBANK|10.40.24.138|||110000438458|112
07.10.2018 00:00:00||AKTİFBANK|10.40.24.138|||110000438458|32
07.10.2018 00:00:00||AKTİFBANK|10.40.24.138|||110000438458|50
07.10.2018 00:00:00||AKTİFBANK|10.40.24.139|||110000438458|40
07.10.2018 00:00:00||AKTİFBANK|10.40.24.139|||110000438458|50
07.10.2018 00:00:00||AKTİFBANK|10.40.24.139|||110000438458|92
07.10.2018 00:00:00||AKTİFBANK|10.40.24.139|||110000438458|120
07.10.2018 00:00:00||AKTİFBANK|10.40.24.141|||110000438458|200
07.10.2018 00:00:00||AKTİFBANK|10.40.24.141|||110000438458|102
07.10.2018 00:00:00||AKTİFBANK|10.40.24.141|||110000438458|100
07.10.2018 00:00:00||AKTİFBANK|10.40.24.141|||110000438458|63
07.10.2018 00:00:00||AKTİFBANK|10.40.24.141|||110000438458|80
07.10.2018 00:00:00||AKTİFBANK|10.40.25.152|||110000438458|100
07.10.2018 00:00:00||AKTİFBANK|10.40.25.152|||110000438458|42
07.10.2018 00:00:00||AKTİFBANK|10.40.25.152|||110000438458|113
07.10.2018 00:00:00||AKTİFBANK|10.40.25.152|||110000438458|75
07.10.2018 00:00:00||AKTİFBANK|10.40.25.152|||110000438458|92
07.10.2018 00:00:00||AKTİFBANK|10.40.25.152|||110000438458|32
07.10.2018 00:00:00||AKTİFBANK|10.40.25.152|||110000438458|60
07.10.2018 00:00:00||AKTİFBANK|10.40.25.152|||110000438458|90
07.10.2018 00:00:00||AKTİFBANK|10.40.25.152|||110000438458|30
07.10.2018 00:00:00||AKTİFBANK|10.40.25.152|||110000438458|80
07.10.2018 00:00:00||AKTİFBANK|10.40.25.152|||110000438458|30
07.10.2018 00:00:00||AKTİFBANK|10.40.24.150|||110000438458|550
07.10.2018 00:00:00||AKTİFBANK|10.40.24.151|||110000438458|507
07.10.2018 00:00:00||AKTİFBANK|10.40.24.151|||110000438458|522
07.10.2018 00:00:00||AKTİFBANK|10.40.24.128|||110000438458|150
07.10.2018 00:00:00||AKTİFBANK|10.40.24.128|||110000438458|70
07.10.2018 00:00:00||AKTİFBANK|10.40.24.128|||110000438458|100
07.10.2018 00:00:00||AKTİFBANK|10.40.24.128|||110000438458|38
07.10.2018 00:00:00||AKTİFBANK|10.40.24.128|||110000438458|70
07.10.2018 00:00:00||AKTİFBANK|10.40.24.128|||110000438458|45
07.10.2018 00:00:00||AKTİFBANK|10.40.24.129|||110000438458|100
07.10.2018 00:00:00||AKTİFBANK|10.40.24.129|||110000438458|65
07.10.2018 00:00:00||AKTİFBANK|10.40.24.129|||110000438458|105
07.10.2018 00:00:00||AKTİFBANK|10.40.24.129|||110000438458|115
07.10.2018 00:00:00||AKTİFBANK|10.40.24.129|||110000438458|28
07.10.2018 00:00:00||AKTİFBANK|10.40.24.129|||110000438458|72
07.10.2018 00:00:00||AKTİFBANK|10.40.24.129|||110000438458|70
07.10.2018 00:00:00||AKTİFBANK|10.40.24.129|||110000438458|90
07.10.2018 00:00:00||AKTİFBANK|10.40.24.129|||110000438458|82
07.10.2018 00:00:00||AKTİFBANK|10.40.24.129|||110000438458|140
07.10.2018 00:00:00||AKTİFBANK|10.40.24.130|||110000438458|40
07.10.2018 00:00:00||AKTİFBANK|10.40.24.130|||110000438458|40
07.10.2018 00:00:00||AKTİFBANK|10.40.24.130|||110000438458|65
07.10.2018 00:00:00||AKTİFBANK|10.40.24.130|||110000438458|47
07.10.2018 00:00:00||AKTİFBANK|10.40.24.130|||110000438458|60
07.10.2018 00:00:00||AKTİFBANK|10.40.24.130|||110000438458|78
07.10.2018 00:00:00||AKTİFBANK|10.40.24.130|||110000438458|87
07.10.2018 00:00:00||AKTİFBANK|10.40.24.130|||110000438458|40
07.10.2018 00:00:00||AKTİFBANK|10.40.24.130|||110000438458|130
07.10.2018 00:00:00||AKTİFBANK|10.40.24.130|||110000438458|110
07.10.2018 00:00:00||AKTİFBANK|10.40.24.131|||110000438458|10
07.10.2018 00:00:00||AKTİFBANK|10.40.24.131|||110000438458|88
07.10.2018 00:00:00||AKTİFBANK|10.40.24.131|||110000438458|90
07.10.2018 00:00:00||AKTİFBANK|10.40.24.131|||110000438458|110
07.10.2018 00:00:00||AKTİFBANK|10.40.24.131|||110000438458|110
07.10.2018 00:00:00||AKTİFBANK|10.40.24.131|||110000438458|20
07.10.2018 00:00:00||AKTİFBANK|10.40.24.131|||110000438458|160
07.10.2018 00:00:00||AKTİFBANK|10.40.24.131|||110000438458|60
07.10.2018 00:00:00||AKTİFBANK|10.40.24.131|||110000438458|110
07.10.2018 00:00:00||AKTİFBANK|10.40.24.132|||110000438458|40
07.10.2018 00:00:00||AKTİFBANK|10.40.24.132|||110000438458|80
07.10.2018 00:00:00||AKTİFBANK|10.40.24.132|||110000438458|50
07.10.2018 00:00:00||AKTİFBANK|10.40.24.132|||110000438458|180
07.10.2018 00:00:00||AKTİFBANK|10.40.24.132|||110000438458|70
07.10.2018 00:00:00||AKTİFBANK|10.40.24.143|||110000438458|63
07.10.2018 00:00:00||AKTİFBANK|10.40.24.143|||110000438458|270
07.10.2018 00:00:00||AKTİFBANK|10.40.24.143|||110000438458|327
07.10.2018 00:00:00||AKTİFBANK|10.40.24.143|||110000438458|205
07.10.2018 00:00:00||AKTİFBANK|10.40.24.144|||110000438458|80
07.10.2018 00:00:00||AKTİFBANK|10.40.24.144|||110000438458|103
07.10.2018 00:00:00||AKTİFBANK|10.40.24.144|||110000438458|90
07.10.2018 00:00:00||AKTİFBANK|10.40.24.148|||110000438458|60
07.10.2018 00:00:00||AKTİFBANK|10.40.24.148|||110000438458|168
07.10.2018 00:00:00||AKTİFBANK|10.40.24.148|||110000438458|80
07.10.2018 00:00:00||AKTİFBANK|10.40.24.148|||110000438458|113
07.10.2018 00:00:00||AKTİFBANK|10.40.24.148|||110000438458|80
07.10.2018 00:00:00||AKTİFBANK|10.40.24.148|||110000438458|80
07.10.2018 00:00:00||AKTİFBANK|10.40.24.148|||110000438458|92
07.10.2018 00:00:00||AKTİFBANK|10.40.24.148|||110000438458|102
07.10.2018 00:00:00||AKTİFBANK|10.40.24.148|||110000438458|78
07.10.2018 00:00:00||AKTİFBANK|10.40.24.148|||110000438458|50
07.10.2018 00:00:00||AKTİFBANK|10.40.24.148|||110000438458|33
07.10.2018 00:00:00||AKTİFBANK|10.40.24.148|||110000438458|73
07.10.2018 00:00:00||AKTİFBANK|10.40.24.153|||110000438458|10
07.10.2018 00:00:00||AKTİFBANK|10.40.24.153|||110000438458|90
07.10.2018 00:00:00||AKTİFBANK|10.40.24.153|||110000438458|70
07.10.2018 00:00:00||AKTİFBANK|10.40.24.153|||110000438458|77
07.10.2018 00:00:00||AKTİFBANK|10.40.24.157|||110000438458|30
07.10.2018 00:00:00||AKTİFBANK|10.40.24.157|||110000438458|78
07.10.2018 00:00:00||AKTİFBANK|10.40.24.157|||110000438458|70
07.10.2018 00:00:00||AKTİFBANK|10.40.24.157|||110000438458|45
07.10.2018 00:00:00||AKTİFBANK|10.40.24.157|||110000438458|80
07.10.2018 00:00:00||AKTİFBANK|10.40.24.157|||110000438458|42
07.10.2018 00:00:00||AKTİFBANK|10.40.24.158|||110000438458|110
07.10.2018 00:00:00||AKTİFBANK|10.40.24.158|||110000438458|112
07.10.2018 00:00:00||AKTİFBANK|10.40.24.158|||110000438458|130
07.10.2018 00:00:00||AKTİFBANK|10.40.24.158|||110000438458|80
07.10.2018 00:00:00||AKTİFBANK|10.40.24.158|||110000438458|113
07.10.2018 00:00:00||AKTİFBANK|10.40.24.159|||110000438458|130
07.10.2018 00:00:00||AKTİFBANK|10.40.24.159|||110000438458|52
07.10.2018 00:00:00||AKTİFBANK|10.40.24.159|||110000438458|180
07.10.2018 00:00:00||AKTİFBANK|10.40.24.160|||110000438458|10
07.10.2018 00:00:00||AKTİFBANK|10.40.24.160|||110000438458|3
07.10.2018 00:00:00||AKTİFBANK|10.40.24.160|||110000438458|92
07.10.2018 00:00:00||AKTİFBANK|10.40.24.160|||110000438458|105
07.10.2018 00:00:00||AKTİFBANK|10.40.24.161|||110000438458|180
07.10.2018 00:00:00||AKTİFBANK|10.40.24.161|||110000438458|80
07.10.2018 00:00:00||AKTİFBANK|10.40.24.161|||110000438458|40
07.10.2018 00:00:00||AKTİFBANK|10.40.24.161|||110000438458|30
07.10.2018 00:00:00||AKTİFBANK|10.40.24.161|||110000438458|30
07.10.2018 00:00:00||AKTİFBANK|10.40.24.161|||110000438458|20
07.10.2018 00:00:00||AKTİFBANK|10.40.24.161|||110000438458|90
07.10.2018 00:00:00||AKTİFBANK|10.40.24.145|||110000438458|20
07.10.2018 00:00:00||AKTİFBANK|10.40.24.145|||110000438458|90
07.10.2018 00:00:00||AKTİFBANK|10.40.24.145|||110000438458|60
07.10.2018 00:00:00||AKTİFBANK|10.40.24.147|||110000438458|90
07.10.2018 00:00:00||AKTİFBANK|10.40.24.162|||110000438458|80
07.10.2018 00:00:00||AKTİFBANK|10.40.24.162|||110000438458|50
07.10.2018 00:00:00||AKTİFBANK|10.40.24.162|||110000438458|40
07.10.2018 00:00:00||AKTİFBANK|10.40.24.162|||110000438458|40
07.10.2018 00:00:00||AKTİFBANK|10.40.24.162|||110000438458|60
07.10.2018 00:00:00||AKTİFBANK|10.40.24.162|||110000438458|10
07.10.2018 00:00:00||AKTİFBANK|10.40.24.162|||110000438458|48
07.10.2018 00:00:00||AKTİFBANK|10.40.24.163|||110000438458|30
07.10.2018 00:00:00||AKTİFBANK|10.40.24.163|||110000438458|82
07.10.2018 00:00:00||AKTİFBANK|10.40.24.164|||110000438458|53
07.10.2018 00:00:00||AKTİFBANK|10.40.24.164|||110000438458|330
07.10.2018 00:00:00||AKTİFBANK|10.40.24.164|||110000438458|210
07.10.2018 00:00:00||AKTİFBANK|10.40.24.165|||110000438458|80
07.10.2018 00:00:00||AKTİFBANK|10.40.24.165|||110000438458|80
07.10.2018 00:00:00||AKTİFBANK|10.40.24.165|||110000438458|120
07.10.2018 00:00:00||AKTİFBANK|10.40.24.166|||110000438458|80
07.10.2018 00:00:00||AKTİFBANK|10.40.24.166|||110000438458|90
07.10.2018 00:00:00||AKTİFBANK|10.40.24.166|||110000438458|10
07.10.2018 00:00:00||AKTİFBANK|10.40.24.166|||110000438458|10
07.10.2018 00:00:00||AKTİFBANK|10.40.24.166|||110000438458|10
07.10.2018 00:00:00||AKTİFBANK|10.40.25.168|||110000438458|90
07.10.2018 00:00:00||AKTİFBANK|10.40.25.168|||110000438458|70
07.10.2018 00:00:00||AKTİFBANK|10.40.25.168|||110000438458|50
07.10.2018 00:00:00||AKTİFBANK|10.40.25.168|||110000438458|40
07.10.2018 00:00:00||AKTİFBANK|10.40.25.168|||110000438458|60
07.10.2018 00:00:00||AKTİFBANK|10.40.24.168|||110000438458|90
07.10.2018 00:00:00||AKTİFBANK|10.40.24.168|||110000438458|33
07.10.2018 00:00:00||AKTİFBANK|10.40.24.168|||110000438458|80
07.10.2018 00:00:00||AKTİFBANK|10.40.24.168|||110000438458|70
07.10.2018 00:00:00||AKTİFBANK|10.40.24.168|||110000438458|70
07.10.2018 00:00:00||AKTİFBANK|10.40.24.168|||110000438458|30
07.10.2018 00:00:00||AKTİFBANK|10.40.24.154|||110000438458|70
07.10.2018 00:00:00||AKTİFBANK|10.40.24.154|||110000438458|17
07.10.2018 00:00:00||AKTİFBANK|10.40.24.154|||110000438458|10
07.10.2018 00:00:00||AKTİFBANK|10.40.24.154|||110000438458|10
07.10.2018 00:00:00||AKTİFBANK|10.40.24.154|||110000438458|10
07.10.2018 00:00:00||AKTİFBANK|10.40.24.154|||110000438458|10
07.10.2018 00:00:00||AKTİFBANK|10.40.24.155|||110000438458|102
07.10.2018 00:00:00||AKTİFBANK|10.40.24.155|||110000438458|130
07.10.2018 00:00:00||AKTİFBANK|10.40.24.155|||110000438458|80
07.10.2018 00:00:00||AKTİFBANK|10.40.24.155|||110000438458|113
07.10.2018 00:00:00||AKTİFBANK|10.40.24.155|||110000438458|100
07.10.2018 00:00:00||AKTİFBANK|10.40.25.169|||110000438458|87
07.10.2018 00:00:00||AKTİFBANK|10.40.25.169|||110000438458|90
07.10.2018 00:00:00||AKTİFBANK|10.40.25.169|||110000438458|70
07.10.2018 00:00:00||AKTİFBANK|10.40.25.169|||110000438458|75
07.10.2018 00:00:00||AKTİFBANK|10.40.24.169|||110000438458|85
07.10.2018 00:00:00||AKTİFBANK|10.40.24.169|||110000438458|85
07.10.2018 00:00:00||AKTİFBANK|10.40.24.169|||110000438458|70
07.10.2018 00:00:00||AKTİFBANK|10.40.24.169|||110000438458|80
07.10.2018 00:00:00||AKTİFBANK|10.40.25.170|||110000438458|30
07.10.2018 00:00:00||AKTİFBANK|10.40.25.170|||110000438458|30
07.10.2018 00:00:00||AKTİFBANK|10.40.25.170|||110000438458|153
07.10.2018 00:00:00||AKTİFBANK|10.40.25.170|||110000438458|153
07.10.2018 00:00:00||AKTİFBANK|10.40.25.170|||110000438458|103
07.10.2018 00:00:00||AKTİFBANK|10.40.25.170|||110000438458|80
07.10.2018 00:00:00||AKTİFBANK|10.40.25.170|||110000438458|123
07.10.2018 00:00:00||AKTİFBANK|10.40.24.170|||110000438458|60
07.10.2018 00:00:00||AKTİFBANK|10.40.24.170|||110000438458|60
07.10.2018 00:00:00||AKTİFBANK|10.40.24.170|||110000438458|288
07.10.2018 00:00:00||AKTİFBANK|10.40.24.170|||110000438458|153
07.10.2018 00:00:00||AKTİFBANK|10.40.24.170|||110000438458|80
07.10.2018 00:00:00||AKTİFBANK|10.40.24.170|||110000438458|105
07.10.2018 00:00:00||AKTİFBANK|10.40.24.170|||110000438458|70
07.10.2018 00:00:00||AKTİFBANK|10.40.25.178|||110000438458|538
07.10.2018 00:00:00||AKTİFBANK|10.40.25.178|||110000438458|548
07.10.2018 00:00:00||AKTİFBANK|10.40.25.178|||110000438458|547
07.10.2018 00:00:00||AKTİFBANK|10.40.24.178|||110000438458|543
07.10.2018 00:00:00||AKTİFBANK|10.40.24.178|||110000438458|525
07.10.2018 00:00:00||AKTİFBANK|10.40.24.178|||110000438458|525
07.10.2018 00:00:00||AKTİFBANK|10.40.25.179|||110000438458|392
07.10.2018 00:00:00||AKTİFBANK|10.40.25.179|||110000438458|312
07.10.2018 00:00:00||AKTİFBANK|10.40.25.179|||110000438458|315
07.10.2018 00:00:00||AKTİFBANK|10.40.24.179|||110000438458|367
07.10.2018 00:00:00||AKTİFBANK|10.40.24.179|||110000438458|365
07.10.2018 00:00:00||AKTİFBANK|10.40.24.179|||110000438458|362
07.10.2018 00:00:00||AKTİFBANK|10.40.24.142|||110000438458|73
07.10.2018 00:00:00||AKTİFBANK|10.40.24.142|||110000438458|40
07.10.2018 00:00:00||AKTİFBANK|10.40.25.186|||110000438458|90
07.10.2018 00:00:00||AKTİFBANK|10.40.25.186|||110000438458|20
07.10.2018 00:00:00||AKTİFBANK|10.40.25.186|||110000438458|70
07.10.2018 00:00:00||AKTİFBANK|10.40.24.186|||110000438458|90
07.10.2018 00:00:00||AKTİFBANK|10.40.24.186|||110000438458|22
07.10.2018 00:00:00||AKTİFBANK|10.40.24.186|||110000438458|57
07.10.2018 00:00:00||AKTİFBANK|10.40.24.186|||110000438458|40
07.10.2018 00:00:00||AKTİFBANK|10.40.24.152|||110000438458|20
07.10.2018 00:00:00||AKTİFBANK|10.40.24.152|||110000438458|50
07.10.2018 00:00:00||AKTİFBANK|10.40.24.152|||110000438458|82
07.10.2018 00:00:00||AKTİFBANK|10.40.24.152|||110000438458|105
07.10.2018 00:00:00||AKTİFBANK|10.40.24.152|||110000438458|98
07.10.2018 00:00:00||AKTİFBANK|10.40.24.152|||110000438458|100
07.10.2018 00:00:00||AKTİFBANK|10.40.24.152|||110000438458|357
07.10.2018 00:00:00||AKTİFBANK|10.40.24.152|||110000438458|73
07.10.2018 00:00:00||AKTİFBANK|10.40.24.152|||110000438458|90
07.10.2018 00:00:00||AKTİFBANK|10.40.24.152|||110000438458|30
07.10.2018 00:00:00||AKTİFBANK|10.40.24.152|||110000438458|72
07.10.2018 00:00:00||AKTİFBANK|10.40.24.152|||110000438458|30
07.10.2018 00:00:00||BARİKAT İNTERNET GÜVENLİĞİ|10.40.25.201|||110000479736|117
07.10.2018 00:00:00||BARİKAT İNTERNET GÜVENLİĞİ|10.40.25.201|||110000479736|100
07.10.2018 00:00:00||BARİKAT İNTERNET GÜVENLİĞİ|10.40.24.201|||110000479736|132
07.10.2018 00:00:00||BARİKAT İNTERNET GÜVENLİĞİ|10.40.24.201|||110000479736|95
07.10.2018 00:00:00||BOYNER|10.40.26.100|||101367941673|57
07.10.2018 00:00:00||BOYNER|10.40.26.101|||101367941673|160
07.10.2018 00:00:00||BOYNER|10.40.27.100|||101367941673|51
07.10.2018 00:00:00||BOYNER|10.40.27.101|||101367941673|165
07.10.2018 00:00:00||BOYNER|10.40.27.94|||101367941673|210
07.10.2018 00:00:00||BOYNER|10.40.27.94|||101367941673|90
07.10.2018 00:00:00||BOYNER|10.40.27.94|||101367941673|90
07.10.2018 00:00:00||BOYNER|10.40.27.94|||101367941673|100
07.10.2018 00:00:00||BOYNER|10.40.26.94|||101367941673|90
07.10.2018 00:00:00||BOYNER|10.40.26.94|||101367941673|80
07.10.2018 00:00:00||BOYNER|10.40.26.94|||101367941673|80
07.10.2018 00:00:00||BOYNER|10.40.27.95|||101367941673|143
07.10.2018 00:00:00||BOYNER|10.40.27.95|||101367941673|128
07.10.2018 00:00:00||BOYNER|10.40.27.95|||101367941673|235
07.10.2018 00:00:00||BOYNER|10.40.26.95|||101367941673|132
07.10.2018 00:00:00||BOYNER|10.40.26.95|||101367941673|198
07.10.2018 00:00:00||BOYNER|10.40.26.95|||101367941673|140
07.10.2018 00:00:00||BOYNER|10.40.27.96|||101367941673|60
07.10.2018 00:00:00||BOYNER|10.40.27.96|||101367941673|52
07.10.2018 00:00:00||BOYNER|10.40.27.96|||101367941673|50
07.10.2018 00:00:00||BOYNER|10.40.27.96|||101367941673|40
07.10.2018 00:00:00||BOYNER|10.40.27.96|||101367941673|40
07.10.2018 00:00:00||BOYNER|10.40.27.96|||101367941673|155
07.10.2018 00:00:00||BOYNER|10.40.27.96|||101367941673|152
07.10.2018 00:00:00||BOYNER|10.40.27.96|||101367941673|183
07.10.2018 00:00:00||BOYNER|10.40.27.96|||101367941673|170
07.10.2018 00:00:00||BOYNER|10.40.26.96|||101367941673|30
07.10.2018 00:00:00||BOYNER|10.40.26.96|||101367941673|40
07.10.2018 00:00:00||BOYNER|10.40.26.96|||101367941673|32
07.10.2018 00:00:00||BOYNER|10.40.26.96|||101367941673|40
07.10.2018 00:00:00||BOYNER|10.40.26.96|||101367941673|40
07.10.2018 00:00:00||BOYNER|10.40.26.96|||101367941673|50
07.10.2018 00:00:00||BOYNER|10.40.26.96|||101367941673|190
07.10.2018 00:00:00||BOYNER|10.40.26.96|||101367941673|200
07.10.2018 00:00:00||BOYNER|10.40.26.96|||101367941673|162
07.10.2018 00:00:00||BOYNER|10.40.26.96|||101367941673|180
07.10.2018 00:00:00||BOYNER|10.40.27.97|||101367941673|60
07.10.2018 00:00:00||BOYNER|10.40.27.97|||101367941673|655
07.10.2018 00:00:00||BOYNER|10.40.27.97|||101367941673|653
07.10.2018 00:00:00||BOYNER|10.40.27.97|||101367941673|688
07.10.2018 00:00:00||BOYNER|10.40.27.97|||101367941673|50
07.10.2018 00:00:00||BOYNER|10.40.27.97|||101367941673|35
07.10.2018 00:00:00||BOYNER|10.40.27.97|||101367941673|50
07.10.2018 00:00:00||BOYNER|10.40.27.97|||101367941673|30
07.10.2018 00:00:00||BOYNER|10.40.27.97|||101367941673|173
07.10.2018 00:00:00||BOYNER|10.40.27.97|||101367941673|172
07.10.2018 00:00:00||BOYNER|10.40.27.97|||101367941673|187
07.10.2018 00:00:00||BOYNER|10.40.27.97|||101367941673|198
07.10.2018 00:00:00||BOYNER|10.40.26.97|||101367941673|30
07.10.2018 00:00:00||BOYNER|10.40.26.97|||101367941673|650
07.10.2018 00:00:00||BOYNER|10.40.26.97|||101367941673|648
07.10.2018 00:00:00||BOYNER|10.40.26.97|||101367941673|655
07.10.2018 00:00:00||BOYNER|10.40.26.97|||101367941673|30
07.10.2018 00:00:00||BOYNER|10.40.26.97|||101367941673|40
07.10.2018 00:00:00||BOYNER|10.40.26.97|||101367941673|52
07.10.2018 00:00:00||BOYNER|10.40.26.97|||101367941673|60
07.10.2018 00:00:00||BOYNER|10.40.26.97|||101367941673|32
07.10.2018 00:00:00||BOYNER|10.40.26.97|||101367941673|165
07.10.2018 00:00:00||BOYNER|10.40.26.97|||101367941673|180
07.10.2018 00:00:00||BOYNER|10.40.26.97|||101367941673|173
07.10.2018 00:00:00||BOYNER|10.40.26.97|||101367941673|163
07.10.2018 00:00:00||BOYNER|10.40.27.99|||101367941673|123
07.10.2018 00:00:00||BOYNER|10.40.27.99|||101367941673|92
07.10.2018 00:00:00||BOYNER|10.40.27.99|||101367941673|77
07.10.2018 00:00:00||BOYNER|10.40.26.99|||101367941673|10
07.10.2018 00:00:00||BOYNER|10.40.26.99|||101367941673|118
07.10.2018 00:00:00||BOYNER|10.40.26.99|||101367941673|97
07.10.2018 00:00:00||BOYNER|10.40.26.99|||101367941673|73
07.10.2018 00:00:00||ÇALIK HOLDİNG|10.40.24.118|||110000438407|43
07.10.2018 00:00:00||ÇALIK HOLDİNG|10.40.25.99|||110000438407|137
07.10.2018 00:00:00||ÇALIK HOLDİNG|10.40.25.118|||110000438407|160
07.10.2018 00:00:00||ÇALIK HOLDİNG|10.40.25.120|||110000438407|90
07.10.2018 00:00:00||ÇALIK HOLDİNG|10.40.24.95|||110000438407|50
07.10.2018 00:00:00||ÇALIK HOLDİNG|10.40.25.97|||110000438407|80
07.10.2018 00:00:00||ÇALIK HOLDİNG|10.40.25.103|||110000438407|90
07.10.2018 00:00:00||ÇALIK HOLDİNG|10.40.25.120|||110000438407|48
07.10.2018 00:00:00||ÇALIK HOLDİNG|10.40.25.96|||110000438407|70
07.10.2018 00:00:00||ÇALIK HOLDİNG|10.40.25.96|||110000438407|90
07.10.2018 00:00:00||ÇALIK HOLDİNG|10.40.25.96|||110000438407|120
07.10.2018 00:00:00||ÇALIK HOLDİNG|10.40.25.96|||110000438407|90
07.10.2018 00:00:00||ÇALIK HOLDİNG|10.40.25.115|||110000438407|158
07.10.2018 00:00:00||ÇALIK HOLDİNG|10.40.25.115|||110000438407|70
07.10.2018 00:00:00||ÇALIK HOLDİNG|10.40.25.95|||110000438407|92
07.10.2018 00:00:00||ÇALIK HOLDİNG|10.40.25.96|||110000438407|90
07.10.2018 00:00:00||ÇALIK HOLDİNG|10.40.25.96|||110000438407|100
07.10.2018 00:00:00||ÇALIK HOLDİNG|10.40.25.120|||110000438407|20
07.10.2018 00:00:00||ÇALIK HOLDİNG|10.40.25.95|||110000438407|55
07.10.2018 00:00:00||ÇALIK HOLDİNG|10.40.24.94|||110000438407|200
07.10.2018 00:00:00||ÇALIK HOLDİNG|10.40.25.97|||110000438407|110
07.10.2018 00:00:00||ÇALIK HOLDİNG|10.40.25.120|||110000438407|60
07.10.2018 00:00:00||ÇALIK HOLDİNG|10.40.25.115|||110000438407|80
07.10.2018 00:00:00||ÇALIK HOLDİNG|10.40.25.115|||110000438407|68
07.10.2018 00:00:00||ÇALIK HOLDİNG|10.40.25.115|||110000438407|67
07.10.2018 00:00:00||ÇALIK HOLDİNG|10.40.25.101|||110000438407|50
07.10.2018 00:00:00||ÇALIK HOLDİNG|10.40.25.101|||110000438407|110
07.10.2018 00:00:00||ÇALIK HOLDİNG|10.40.25.101|||110000438407|30
07.10.2018 00:00:00||ÇALIK HOLDİNG|10.40.25.101|||110000438407|10
07.10.2018 00:00:00||ÇALIK HOLDİNG|10.40.25.101|||110000438407|87
07.10.2018 00:00:00||ÇALIK HOLDİNG|10.40.25.101|||110000438407|33
07.10.2018 00:00:00||ÇALIK HOLDİNG|10.40.25.101|||110000438407|40
07.10.2018 00:00:00||ÇALIK HOLDİNG|10.40.25.101|||110000438407|90
07.10.2018 00:00:00||ÇALIK HOLDİNG|10.40.25.101|||110000438407|90
07.10.2018 00:00:00||ÇALIK HOLDİNG|10.40.25.101|||110000438407|90
07.10.2018 00:00:00||ÇALIK HOLDİNG|10.40.25.94|||110000438407|180
07.10.2018 00:00:00||ÇALIK HOLDİNG|10.40.25.94|||110000438407|180
07.10.2018 00:00:00||ÇALIK HOLDİNG|10.40.25.94|||110000438407|170
07.10.2018 00:00:00||ÇALIK HOLDİNG|10.40.25.94|||110000438407|180
07.10.2018 00:00:00||ÇALIK HOLDİNG|10.40.24.94|||110000438407|210
07.10.2018 00:00:00||ÇALIK HOLDİNG|10.40.24.94|||110000438407|197
07.10.2018 00:00:00||ÇALIK HOLDİNG|10.40.24.94|||110000438407|202
07.10.2018 00:00:00||ÇALIK HOLDİNG|10.40.25.95|||110000438407|20
07.10.2018 00:00:00||ÇALIK HOLDİNG|10.40.25.95|||110000438407|367
07.10.2018 00:00:00||ÇALIK HOLDİNG|10.40.25.95|||110000438407|358
07.10.2018 00:00:00||ÇALIK HOLDİNG|10.40.25.95|||110000438407|40
07.10.2018 00:00:00||ÇALIK HOLDİNG|10.40.24.95|||110000438407|100
07.10.2018 00:00:00||ÇALIK HOLDİNG|10.40.24.95|||110000438407|78
07.10.2018 00:00:00||ÇALIK HOLDİNG|10.40.24.95|||110000438407|405
07.10.2018 00:00:00||ÇALIK HOLDİNG|10.40.24.95|||110000438407|397
07.10.2018 00:00:00||ÇALIK HOLDİNG|10.40.25.96|||110000438407|90
07.10.2018 00:00:00||ÇALIK HOLDİNG|10.40.25.96|||110000438407|93
07.10.2018 00:00:00||ÇALIK HOLDİNG|10.40.25.96|||110000438407|100
07.10.2018 00:00:00||ÇALIK HOLDİNG|10.40.25.96|||110000438407|257
07.10.2018 00:00:00||ÇALIK HOLDİNG|10.40.25.96|||110000438407|262
07.10.2018 00:00:00||ÇALIK HOLDİNG|10.40.25.96|||110000438407|100
07.10.2018 00:00:00||ÇALIK HOLDİNG|10.40.25.96|||110000438407|90
07.10.2018 00:00:00||ÇALIK HOLDİNG|10.40.25.96|||110000438407|95
07.10.2018 00:00:00||ÇALIK HOLDİNG|10.40.25.97|||110000438407|88
07.10.2018 00:00:00||ÇALIK HOLDİNG|10.40.25.97|||110000438407|80
07.10.2018 00:00:00||ÇALIK HOLDİNG|10.40.25.97|||110000438407|307
07.10.2018 00:00:00||ÇALIK HOLDİNG|10.40.25.98|||110000438407|50
07.10.2018 00:00:00||ÇALIK HOLDİNG|10.40.25.98|||110000438407|165
07.10.2018 00:00:00||ÇALIK HOLDİNG|10.40.25.98|||110000438407|158
07.10.2018 00:00:00||ÇALIK HOLDİNG|10.40.25.98|||110000438407|167
07.10.2018 00:00:00||ÇALIK HOLDİNG|10.40.25.98|||110000438407|165
07.10.2018 00:00:00||ÇALIK HOLDİNG|10.40.25.98|||110000438407|67
07.10.2018 00:00:00||ÇALIK HOLDİNG|10.40.25.98|||110000438407|210
07.10.2018 00:00:00||ÇALIK HOLDİNG|10.40.25.98|||110000438407|180
07.10.2018 00:00:00||ÇALIK HOLDİNG|10.40.25.98|||110000438407|170
07.10.2018 00:00:00||ÇALIK HOLDİNG|10.40.25.98|||110000438407|213
07.10.2018 00:00:00||ÇALIK HOLDİNG|10.40.25.98|||110000438407|70
07.10.2018 00:00:00||ÇALIK HOLDİNG|10.40.25.98|||110000438407|315
07.10.2018 00:00:00||ÇALIK HOLDİNG|10.40.24.98|||110000438407|90
07.10.2018 00:00:00||ÇALIK HOLDİNG|10.40.24.98|||110000438407|153
07.10.2018 00:00:00||ÇALIK HOLDİNG|10.40.24.98|||110000438407|200
07.10.2018 00:00:00||ÇALIK HOLDİNG|10.40.24.98|||110000438407|200
07.10.2018 00:00:00||ÇALIK HOLDİNG|10.40.24.98|||110000438407|160
07.10.2018 00:00:00||ÇALIK HOLDİNG|10.40.24.98|||110000438407|32
07.10.2018 00:00:00||ÇALIK HOLDİNG|10.40.24.98|||110000438407|162
07.10.2018 00:00:00||ÇALIK HOLDİNG|10.40.24.98|||110000438407|180
07.10.2018 00:00:00||ÇALIK HOLDİNG|10.40.24.98|||110000438407|168
07.10.2018 00:00:00||ÇALIK HOLDİNG|10.40.24.98|||110000438407|173
07.10.2018 00:00:00||ÇALIK HOLDİNG|10.40.24.98|||110000438407|20
07.10.2018 00:00:00||ÇALIK HOLDİNG|10.40.24.98|||110000438407|288
07.10.2018 00:00:00||ÇALIK HOLDİNG|10.40.25.100|||110000438407|33
07.10.2018 00:00:00||ÇALIK HOLDİNG|10.40.25.100|||110000438407|40
07.10.2018 00:00:00||ÇALIK HOLDİNG|10.40.24.101|||110000438407|60
07.10.2018 00:00:00||ÇALIK HOLDİNG|10.40.24.101|||110000438407|110
07.10.2018 00:00:00||ÇALIK HOLDİNG|10.40.24.101|||110000438407|20
07.10.2018 00:00:00||ÇALIK HOLDİNG|10.40.24.101|||110000438407|20
07.10.2018 00:00:00||ÇALIK HOLDİNG|10.40.24.101|||110000438407|43
07.10.2018 00:00:00||ÇALIK HOLDİNG|10.40.24.101|||110000438407|85
07.10.2018 00:00:00||ÇALIK HOLDİNG|10.40.24.101|||110000438407|30
07.10.2018 00:00:00||ÇALIK HOLDİNG|10.40.24.101|||110000438407|10
07.10.2018 00:00:00||ÇALIK HOLDİNG|10.40.24.101|||110000438407|20
07.10.2018 00:00:00||ÇALIK HOLDİNG|10.40.24.101|||110000438407|50
07.10.2018 00:00:00||ÇALIK HOLDİNG|10.40.24.101|||110000438407|30
07.10.2018 00:00:00||ÇALIK HOLDİNG|10.40.24.101|||110000438407|80
07.10.2018 00:00:00||ÇALIK HOLDİNG|10.40.24.101|||110000438407|80
07.10.2018 00:00:00||ÇALIK HOLDİNG|10.40.24.101|||110000438407|100
07.10.2018 00:00:00||ÇALIK HOLDİNG|10.40.25.102|||110000438407|100
07.10.2018 00:00:00||ÇALIK HOLDİNG|10.40.25.102|||110000438407|100
07.10.2018 00:00:00||ÇALIK HOLDİNG|10.40.25.102|||110000438407|150
07.10.2018 00:00:00||ÇALIK HOLDİNG|10.40.24.102|||110000438407|100
07.10.2018 00:00:00||ÇALIK HOLDİNG|10.40.24.102|||110000438407|100
07.10.2018 00:00:00||ÇALIK HOLDİNG|10.40.24.102|||110000438407|140
07.10.2018 00:00:00||ÇALIK HOLDİNG|10.40.25.103|||110000438407|90
07.10.2018 00:00:00||ÇALIK HOLDİNG|10.40.25.103|||110000438407|80
07.10.2018 00:00:00||ÇALIK HOLDİNG|10.40.25.115|||110000438407|80
07.10.2018 00:00:00||ÇALIK HOLDİNG|10.40.24.103|||110000438407|98
07.10.2018 00:00:00||ÇALIK HOLDİNG|10.40.24.103|||110000438407|80
07.10.2018 00:00:00||ÇALIK HOLDİNG|10.40.24.103|||110000438407|80
07.10.2018 00:00:00||ÇALIK HOLDİNG|10.40.24.103|||110000438407|20
07.10.2018 00:00:00||ÇALIK HOLDİNG|10.40.24.103|||110000438407|20
07.10.2018 00:00:00||ÇALIK HOLDİNG|10.40.25.113|||110000438407|117
07.10.2018 00:00:00||ÇALIK HOLDİNG|10.40.25.113|||110000438407|245
07.10.2018 00:00:00||ÇALIK HOLDİNG|10.40.25.113|||110000438407|192
07.10.2018 00:00:00||ÇALIK HOLDİNG|10.40.25.113|||110000438407|205
07.10.2018 00:00:00||ÇALIK HOLDİNG|10.40.24.113|||110000438407|243
07.10.2018 00:00:00||ÇALIK HOLDİNG|10.40.24.113|||110000438407|242
07.10.2018 00:00:00||ÇALIK HOLDİNG|10.40.24.113|||110000438407|192
07.10.2018 00:00:00||ÇALIK HOLDİNG|10.40.24.113|||110000438407|160
07.10.2018 00:00:00||ÇALIK HOLDİNG|10.40.25.114|||110000438407|183
07.10.2018 00:00:00||ÇALIK HOLDİNG|10.40.25.114|||110000438407|413
07.10.2018 00:00:00||ÇALIK HOLDİNG|10.40.25.114|||110000438407|40
07.10.2018 00:00:00||ÇALIK HOLDİNG|10.40.24.114|||110000438407|20
07.10.2018 00:00:00||ÇALIK HOLDİNG|10.40.24.114|||110000438407|40
07.10.2018 00:00:00||ÇALIK HOLDİNG|10.40.24.114|||110000438407|147
07.10.2018 00:00:00||ÇALIK HOLDİNG|10.40.24.114|||110000438407|368
07.10.2018 00:00:00||ÇALIK HOLDİNG|10.40.24.115|||110000438407|145
07.10.2018 00:00:00||ÇALIK HOLDİNG|10.40.24.115|||110000438407|80
07.10.2018 00:00:00||ÇALIK HOLDİNG|10.40.24.115|||110000438407|90
07.10.2018 00:00:00||ÇALIK HOLDİNG|10.40.24.115|||110000438407|70
07.10.2018 00:00:00||ÇALIK HOLDİNG|10.40.24.115|||110000438407|80
07.10.2018 00:00:00||ÇALIK HOLDİNG|10.40.24.115|||110000438407|70
07.10.2018 00:00:00||ÇALIK HOLDİNG|10.40.25.116|||110000438407|107
07.10.2018 00:00:00||ÇALIK HOLDİNG|10.40.25.116|||110000438407|107
07.10.2018 00:00:00||ÇALIK HOLDİNG|10.40.25.116|||110000438407|305
07.10.2018 00:00:00||ÇALIK HOLDİNG|10.40.24.116|||110000438407|295
07.10.2018 00:00:00||ÇALIK HOLDİNG|10.40.24.116|||110000438407|100
07.10.2018 00:00:00||ÇALIK HOLDİNG|10.40.24.116|||110000438407|107
07.10.2018 00:00:00||ÇALIK HOLDİNG|10.40.25.117|||110000438407|242
07.10.2018 00:00:00||ÇALIK HOLDİNG|10.40.25.117|||110000438407|30
07.10.2018 00:00:00||ÇALIK HOLDİNG|10.40.25.117|||110000438407|23
07.10.2018 00:00:00||ÇALIK HOLDİNG|10.40.25.119|||110000438407|30
07.10.2018 00:00:00||ÇALIK HOLDİNG|10.40.25.119|||110000438407|30
07.10.2018 00:00:00||ÇALIK HOLDİNG|10.40.24.119|||110000438407|150
07.10.2018 00:00:00||ÇALIK HOLDİNG|10.40.24.119|||110000438407|30
07.10.2018 00:00:00||ÇALIK HOLDİNG|10.40.24.119|||110000438407|50
07.10.2018 00:00:00||ÇALIK HOLDİNG|10.40.25.120|||110000438407|105
07.10.2018 00:00:00||ÇALIK HOLDİNG|10.40.25.120|||110000438407|50
07.10.2018 00:00:00||ÇALIK HOLDİNG|10.40.25.120|||110000438407|20
07.10.2018 00:00:00||ÇALIK HOLDİNG|10.40.25.120|||110000438407|30
07.10.2018 00:00:00||ÇALIK HOLDİNG|10.40.25.120|||110000438407|90
07.10.2018 00:00:00||ÇALIK HOLDİNG|10.40.25.120|||110000438407|90
07.10.2018 00:00:00||ÇALIK HOLDİNG|10.40.24.120|||110000438407|20
07.10.2018 00:00:00||ÇALIK HOLDİNG|10.40.24.120|||110000438407|30
07.10.2018 00:00:00||ÇALIK HOLDİNG|10.40.24.120|||110000438407|110
07.10.2018 00:00:00||ÇALIK HOLDİNG|10.40.24.120|||110000438407|10
07.10.2018 00:00:00||ÇALIK HOLDİNG|10.40.24.120|||110000438407|20
07.10.2018 00:00:00||ÇALIK HOLDİNG|10.40.24.120|||110000438407|100
07.10.2018 00:00:00||ÇALIK HOLDİNG|10.40.24.120|||110000438407|40
07.10.2018 00:00:00||ÇALIK HOLDİNG|10.40.24.120|||110000438407|80
07.10.2018 00:00:00||ÇALIK HOLDİNG|10.40.24.120|||110000438407|80
07.10.2018 00:00:00||ÇALIK HOLDİNG|10.40.24.120|||110000438407|70
07.10.2018 00:00:00||ÇALIK HOLDİNG|10.40.25.121|||110000438407|92
07.10.2018 00:00:00||ÇALIK HOLDİNG|10.40.25.121|||110000438407|100
07.10.2018 00:00:00||ÇALIK HOLDİNG|10.40.25.121|||110000438407|140
07.10.2018 00:00:00||ÇALIK HOLDİNG|10.40.24.121|||110000438407|100
07.10.2018 00:00:00||ÇALIK HOLDİNG|10.40.24.121|||110000438407|100
07.10.2018 00:00:00||ÇALIK HOLDİNG|10.40.24.121|||110000438407|150
07.10.2018 00:00:00||ÇALIK HOLDİNG|10.40.25.122|||110000438407|90
07.10.2018 00:00:00||ÇALIK HOLDİNG|10.40.25.122|||110000438407|80
07.10.2018 00:00:00||ÇALIK HOLDİNG|10.40.25.122|||110000438407|80
07.10.2018 00:00:00||ÇALIK HOLDİNG|10.40.24.122|||110000438407|90
07.10.2018 00:00:00||ÇALIK HOLDİNG|10.40.24.122|||110000438407|80
07.10.2018 00:00:00||ÇALIK HOLDİNG|10.40.24.122|||110000438407|88
07.10.2018 00:00:00||ÇALIK HOLDİNG|10.40.24.122|||110000438407|30
07.10.2018 00:00:00||ÇALIK HOLDİNG|10.40.24.122|||110000438407|10
07.10.2018 00:00:00||ÇALIK HOLDİNG|10.40.24.117|||110000438407|200
07.10.2018 00:00:00||ÇALIK HOLDİNG|10.40.24.117|||110000438407|30
07.10.2018 00:00:00||ÇALIK HOLDİNG|10.40.24.117|||110000438407|30
07.10.2018 00:00:00||ÇALIK HOLDİNG|10.40.24.97|||110000438407|103
07.10.2018 00:00:00||ÇALIK HOLDİNG|10.40.24.97|||110000438407|90
07.10.2018 00:00:00||ÇALIK HOLDİNG|10.40.24.97|||110000438407|80
07.10.2018 00:00:00||ÇALIK HOLDİNG|10.40.24.97|||110000438407|90
07.10.2018 00:00:00||ÇALIK HOLDİNG|10.40.24.97|||110000438407|325
07.10.2018 00:00:00||ÇALIK HOLDİNG|10.40.24.100|||110000438407|30
07.10.2018 00:00:00||ÇALIK HOLDİNG|10.40.24.100|||110000438407|40
07.10.2018 00:00:00||FIBABANKA|10.40.27.54|||101571767266|312
07.10.2018 00:00:00||FIBABANKA|10.40.26.54|||101571767266|317
07.10.2018 00:00:00||FIBABANKA|10.40.27.55|||101571767266|109
07.10.2018 00:00:00||FIBABANKA|10.40.26.55|||101571767266|108
07.10.2018 00:00:00||FIBABANKA|10.40.24.55|||101571767266|111
07.10.2018 00:00:00||FIBABANKA|10.40.25.56|||101571767266|198
07.10.2018 00:00:00||FIBABANKA|10.40.25.54|||101571767266|257
07.10.2018 00:00:00||FIBABANKA|10.40.24.54|||101571767266|385
07.10.2018 00:00:00||FIBABANKA|10.40.25.55|||101571767266|113
07.10.2018 00:00:00||FIBABANKA|10.40.24.56|||101571767266|194
07.10.2018 00:00:00||FIBABANKA|10.40.26.53|||101571767266|48
07.10.2018 00:00:00||FIBABANKA|10.40.26.53|||101571767266|157
07.10.2018 00:00:00||FIBABANKA|10.40.25.76|||101571767266|10
07.10.2018 00:00:00||FIBABANKA|10.40.27.53|||101571767266|162
07.10.2018 00:00:00||FIBABANKA|10.40.27.53|||101571767266|167
07.10.2018 00:00:00||FIBABANKA|10.40.26.53|||101571767266|158
07.10.2018 00:00:00||FIBABANKA|10.40.27.57|||101571767266|80
07.10.2018 00:00:00||FIBABANKA|10.40.27.57|||101571767266|80
07.10.2018 00:00:00||FIBABANKA|10.40.27.57|||101571767266|80
07.10.2018 00:00:00||FIBABANKA|10.40.25.57|||101571767266|90
07.10.2018 00:00:00||FIBABANKA|10.40.25.57|||101571767266|90
07.10.2018 00:00:00||FIBABANKA|10.40.25.57|||101571767266|90
07.10.2018 00:00:00||FIBABANKA|10.40.26.51|||101571767266|20
07.10.2018 00:00:00||FIBABANKA|10.40.27.52|||101571767266|50
07.10.2018 00:00:00||FIBABANKA|10.40.27.52|||101571767266|60
07.10.2018 00:00:00||FIBABANKA|10.40.27.52|||101571767266|70
07.10.2018 00:00:00||FIBABANKA|10.40.27.74|||101571767266|162
07.10.2018 00:00:00||FIBABANKA|10.40.25.53|||101571767266|30
07.10.2018 00:00:00||FIBABANKA|10.40.25.53|||101571767266|48
07.10.2018 00:00:00||FIBABANKA|10.40.27.53|||101571767266|60
07.10.2018 00:00:00||FIBABANKA|10.40.26.53|||101571767266|60
07.10.2018 00:00:00||FIBABANKA|10.40.25.51|||101571767266|20
07.10.2018 00:00:00||FIBABANKA|10.40.25.51|||101571767266|110
07.10.2018 00:00:00||FIBABANKA|10.40.24.51|||101571767266|20
07.10.2018 00:00:00||FIBABANKA|10.40.24.51|||101571767266|70
07.10.2018 00:00:00||FIBABANKA|10.40.24.51|||101571767266|110
07.10.2018 00:00:00||FIBABANKA|10.40.24.51|||101571767266|143
07.10.2018 00:00:00||FIBABANKA|10.40.24.51|||101571767266|30
07.10.2018 00:00:00||FIBABANKA|10.40.24.57|||101571767266|90
07.10.2018 00:00:00||FIBABANKA|10.40.24.57|||101571767266|80
07.10.2018 00:00:00||FIBABANKA|10.40.24.57|||101571767266|80
07.10.2018 00:00:00||FIBABANKA|10.40.24.52|||101571767266|10
07.10.2018 00:00:00||FIBABANKA|10.40.26.73|||101571767266|40
07.10.2018 00:00:00||FIBABANKA|10.40.27.53|||101571767266|60
07.10.2018 00:00:00||FIBABANKA|10.40.26.51|||101571767266|70
07.10.2018 00:00:00||FIBABANKA|10.40.26.52|||101571767266|30
07.10.2018 00:00:00||FIBABANKA|10.40.26.52|||101571767266|90
07.10.2018 00:00:00||FIBABANKA|10.40.26.52|||101571767266|30
07.10.2018 00:00:00||FIBABANKA|10.40.25.51|||101571767266|130
07.10.2018 00:00:00||FIBABANKA|10.40.25.51|||101571767266|40
07.10.2018 00:00:00||FIBABANKA|10.40.25.51|||101571767266|40
07.10.2018 00:00:00||FIBABANKA|10.40.25.51|||101571767266|70
07.10.2018 00:00:00||FIBABANKA|10.40.24.51|||101571767266|30
07.10.2018 00:00:00||FIBABANKA|10.40.25.59|||101571767266|70
07.10.2018 00:00:00||FIBABANKA|10.40.25.59|||101571767266|92
07.10.2018 00:00:00||FIBABANKA|10.40.25.59|||101571767266|95
07.10.2018 00:00:00||FIBABANKA|10.40.25.59|||101571767266|40
07.10.2018 00:00:00||FIBABANKA|10.40.25.59|||101571767266|128
07.10.2018 00:00:00||FIBABANKA|10.40.25.59|||101571767266|70
07.10.2018 00:00:00||FIBABANKA|10.40.25.59|||101571767266|52
07.10.2018 00:00:00||FIBABANKA|10.40.25.59|||101571767266|172
07.10.2018 00:00:00||FIBABANKA|10.40.25.59|||101571767266|62
07.10.2018 00:00:00||FIBABANKA|10.40.24.59|||101571767266|70
07.10.2018 00:00:00||FIBABANKA|10.40.24.59|||101571767266|120
07.10.2018 00:00:00||FIBABANKA|10.40.24.59|||101571767266|73
07.10.2018 00:00:00||FIBABANKA|10.40.24.59|||101571767266|50
07.10.2018 00:00:00||FIBABANKA|10.40.24.59|||101571767266|130
07.10.2018 00:00:00||FIBABANKA|10.40.24.59|||101571767266|70
07.10.2018 00:00:00||FIBABANKA|10.40.24.59|||101571767266|60
07.10.2018 00:00:00||FIBABANKA|10.40.24.59|||101571767266|163
07.10.2018 00:00:00||FIBABANKA|10.40.24.59|||101571767266|70
07.10.2018 00:00:00||FIBABANKA|10.40.25.60|||101571767266|122
07.10.2018 00:00:00||FIBABANKA|10.40.25.60|||101571767266|40
07.10.2018 00:00:00||FIBABANKA|10.40.25.60|||101571767266|108
07.10.2018 00:00:00||FIBABANKA|10.40.25.60|||101571767266|40
07.10.2018 00:00:00||FIBABANKA|10.40.24.60|||101571767266|122
07.10.2018 00:00:00||FIBABANKA|10.40.24.60|||101571767266|60
07.10.2018 00:00:00||FIBABANKA|10.40.24.60|||101571767266|40
07.10.2018 00:00:00||FIBABANKA|10.40.24.60|||101571767266|100
07.10.2018 00:00:00||FIBABANKA|10.40.24.60|||101571767266|58
07.10.2018 00:00:00||FIBABANKA|10.40.25.72|||101571767266|70
07.10.2018 00:00:00||FIBABANKA|10.40.25.72|||101571767266|40
07.10.2018 00:00:00||FIBABANKA|10.40.25.72|||101571767266|30
07.10.2018 00:00:00||FIBABANKA|10.40.24.72|||101571767266|140
07.10.2018 00:00:00||FIBABANKA|10.40.24.72|||101571767266|73
07.10.2018 00:00:00||FIBABANKA|10.40.24.72|||101571767266|30
07.10.2018 00:00:00||FIBABANKA|10.40.24.72|||101571767266|40
07.10.2018 00:00:00||FIBABANKA|10.40.25.74|||101571767266|40
07.10.2018 00:00:00||FIBABANKA|10.40.25.74|||101571767266|30
07.10.2018 00:00:00||FIBABANKA|10.40.25.74|||101571767266|40
07.10.2018 00:00:00||FIBABANKA|10.40.25.74|||101571767266|40
07.10.2018 00:00:00||FIBABANKA|10.40.25.74|||101571767266|40
07.10.2018 00:00:00||FIBABANKA|10.40.25.75|||101571767266|2
07.10.2018 00:00:00||FIBABANKA|10.40.25.75|||101571767266|3
07.10.2018 00:00:00||FIBABANKA|10.40.25.75|||101571767266|132
07.10.2018 00:00:00||FIBABANKA|10.40.25.75|||101571767266|163
07.10.2018 00:00:00||FIBABANKA|10.40.25.75|||101571767266|170
07.10.2018 00:00:00||FIBABANKA|10.40.25.75|||101571767266|188
07.10.2018 00:00:00||FIBABANKA|10.40.24.75|||101571767266|153
07.10.2018 00:00:00||FIBABANKA|10.40.24.75|||101571767266|140
07.10.2018 00:00:00||FIBABANKA|10.40.24.76|||101571767266|33
07.10.2018 00:00:00||FIBABANKA|10.40.24.76|||101571767266|68
07.10.2018 00:00:00||FIBABANKA|10.40.24.76|||101571767266|10
07.10.2018 00:00:00||FIBABANKA|10.40.24.53|||101571767266|30
07.10.2018 00:00:00||FIBABANKA|10.40.24.53|||101571767266|58
07.10.2018 00:00:00||FIBABANKA|10.40.26.57|||101571767266|90
07.10.2018 00:00:00||FIBABANKA|10.40.26.57|||101571767266|83
07.10.2018 00:00:00||FIBABANKA|10.40.26.57|||101571767266|80
07.10.2018 00:00:00||FIBABANKA|10.40.27.72|||101571767266|50
07.10.2018 00:00:00||FIBABANKA|10.40.27.72|||101571767266|40
07.10.2018 00:00:00||FIBABANKA|10.40.27.72|||101571767266|132
07.10.2018 00:00:00||FIBABANKA|10.40.27.72|||101571767266|60
07.10.2018 00:00:00||FIBABANKA|10.40.27.72|||101571767266|32
07.10.2018 00:00:00||FIBABANKA|10.40.26.72|||101571767266|30
07.10.2018 00:00:00||FIBABANKA|10.40.26.72|||101571767266|150
07.10.2018 00:00:00||FIBABANKA|10.40.26.72|||101571767266|70
07.10.2018 00:00:00||FIBABANKA|10.40.26.72|||101571767266|30
07.10.2018 00:00:00||FIBABANKA|10.40.27.73|||101571767266|30
07.10.2018 00:00:00||FIBABANKA|10.40.27.73|||101571767266|100
07.10.2018 00:00:00||FIBABANKA|10.40.27.73|||101571767266|30
07.10.2018 00:00:00||FIBABANKA|10.40.27.73|||101571767266|20
07.10.2018 00:00:00||FIBABANKA|10.40.27.73|||101571767266|40
07.10.2018 00:00:00||FIBABANKA|10.40.27.73|||101571767266|40
07.10.2018 00:00:00||FIBABANKA|10.40.27.73|||101571767266|40
07.10.2018 00:00:00||FIBABANKA|10.40.27.73|||101571767266|40
07.10.2018 00:00:00||FIBABANKA|10.40.26.73|||101571767266|40
07.10.2018 00:00:00||FIBABANKA|10.40.26.73|||101571767266|70
07.10.2018 00:00:00||FIBABANKA|10.40.26.73|||101571767266|30
07.10.2018 00:00:00||FIBABANKA|10.40.27.74|||101571767266|80
07.10.2018 00:00:00||FIBABANKA|10.40.27.74|||101571767266|147
07.10.2018 00:00:00||FIBABANKA|10.40.27.74|||101571767266|167
07.10.2018 00:00:00||FIBABANKA|10.40.26.74|||101571767266|75
07.10.2018 00:00:00||FIBABANKA|10.40.26.74|||101571767266|175
07.10.2018 00:00:00||FIBABANKA|10.40.26.74|||101571767266|175
07.10.2018 00:00:00||FIBABANKA|10.40.26.74|||101571767266|168
07.10.2018 00:00:00||FIBABANKA|10.40.27.75|||101571767266|10
07.10.2018 00:00:00||FIBABANKA|10.40.27.75|||101571767266|10
07.10.2018 00:00:00||FIBABANKA|10.40.26.79|||101571767266|10
07.10.2018 00:00:00||FIBABANKA|10.40.27.79|||101571767266|10
07.10.2018 00:00:00||FIBABANKA|10.40.26.79|||101571767266|10
07.10.2018 00:00:00||FIBABANKA|10.40.27.77|||101571767266|168
07.10.2018 00:00:00||FIBABANKA|10.40.26.77|||101571767266|188
07.10.2018 00:00:00||FIBABANKA|10.40.27.77|||101571767266|168
07.10.2018 00:00:00||FIBABANKA|10.40.24.75|||101571767266|183
07.10.2018 00:00:00||FIBABANKA|10.40.24.53|||101571767266|177
07.10.2018 00:00:00||FIBABANKA|10.40.24.53|||101571767266|180
07.10.2018 00:00:00||FIBABANKA|10.40.25.52|||101571767266|10
07.10.2018 00:00:00||FIBABANKA|10.40.25.52|||101571767266|63
07.10.2018 00:00:00||FIBABANKA|10.40.25.53|||101571767266|165
07.10.2018 00:00:00||FIBABANKA|10.40.25.53|||101571767266|152
07.10.2018 00:00:00||FIBABANKA|10.40.27.51|||101571767266|30
07.10.2018 00:00:00||FIBABANKA|10.40.27.51|||101571767266|20
07.10.2018 00:00:00||FIBABANKA|10.40.27.51|||101571767266|102
07.10.2018 00:00:00||FIBABANKA|10.40.27.51|||101571767266|130
07.10.2018 00:00:00||FIBABANKA|10.40.27.51|||101571767266|68
07.10.2018 00:00:00||FIBABANKA|10.40.27.51|||101571767266|40
07.10.2018 00:00:00||FIBABANKA|10.40.27.51|||101571767266|40
07.10.2018 00:00:00||FIBABANKA|10.40.26.51|||101571767266|10
07.10.2018 00:00:00||FIBABANKA|10.40.26.51|||101571767266|110
07.10.2018 00:00:00||FIBABANKA|10.40.26.51|||101571767266|130
07.10.2018 00:00:00||FIBABANKA|10.40.26.51|||101571767266|30
07.10.2018 00:00:00||FIBABANKA|10.40.26.51|||101571767266|30
07.10.2018 00:00:00||FIBABANKA|10.40.24.74|||101571767266|32
07.10.2018 00:00:00||FIBABANKA|10.40.24.74|||101571767266|30
07.10.2018 00:00:00||FIBABANKA|10.40.25.76|||101571767266|60
07.10.2018 00:00:00||FIBABANKA|10.40.25.76|||101571767266|40
07.10.2018 00:00:00||FIBABANKA|10.40.25.76|||101571767266|10
07.10.2018 00:00:00||HAVAŞ|10.40.24.46|||110000479675|10
07.10.2018 00:00:00||HAVAŞ|10.40.24.48|||110000479675|750
07.10.2018 00:00:00||HAVAŞ|10.40.24.48|||110000479675|752
07.10.2018 00:00:00||HAVAŞ|10.40.25.48|||110000479675|740
07.10.2018 00:00:00||HAVAŞ|10.40.24.45|||110000479675|87
07.10.2018 00:00:00||HAVAŞ|10.40.25.45|||110000479675|60
07.10.2018 00:00:00||HAVAŞ|10.40.25.47|||110000479675|70
07.10.2018 00:00:00||HAVAŞ|10.40.24.46|||110000479675|80
07.10.2018 00:00:00||HAVAŞ|10.40.24.47|||110000479675|30
07.10.2018 00:00:00||HAVAŞ|10.40.24.47|||110000479675|93
07.10.2018 00:00:00||HAVAŞ|10.40.24.47|||110000479675|90
07.10.2018 00:00:00||HAVAŞ|10.40.25.46|||110000479675|10
07.10.2018 00:00:00||HAVAŞ|10.40.25.46|||110000479675|60
07.10.2018 00:00:00||HAVAŞ|10.40.24.48|||110000479675|752
07.10.2018 00:00:00||HAVAŞ|10.40.24.46|||110000479675|60
07.10.2018 00:00:00||HAVAŞ|10.40.24.46|||110000479675|70
07.10.2018 00:00:00||HAVAŞ|10.40.24.47|||110000479675|113
07.10.2018 00:00:00||HAVAŞ|10.40.25.48|||110000479675|743
07.10.2018 00:00:00||HAVAŞ|10.40.25.48|||110000479675|770
07.10.2018 00:00:00||HAVAŞ|10.40.25.45|||110000479675|95
07.10.2018 00:00:00||HAVAŞ|10.40.24.45|||110000479675|53
07.10.2018 00:00:00||HAVAŞ|10.40.24.45|||110000479675|165
07.10.2018 00:00:00||HAVAŞ|10.40.24.45|||110000479675|92
07.10.2018 00:00:00||HAVAŞ|10.40.25.47|||110000479675|70
07.10.2018 00:00:00||HAVAŞ|10.40.25.47|||110000479675|222
07.10.2018 00:00:00||HAVAŞ|10.40.25.47|||110000479675|57
07.10.2018 00:00:00||HAVAŞ|10.40.25.47|||110000479675|88
07.10.2018 00:00:00||HAVAŞ|10.40.25.47|||110000479675|90
07.10.2018 00:00:00||HAVAŞ|10.40.25.47|||110000479675|92
07.10.2018 00:00:00||HAVAŞ|10.40.25.47|||110000479675|10
07.10.2018 00:00:00||HAVAŞ|10.40.25.47|||110000479675|178
07.10.2018 00:00:00||HAVAŞ|10.40.25.47|||110000479675|90
07.10.2018 00:00:00||HAVAŞ|10.40.25.47|||110000479675|90
07.10.2018 00:00:00||HAVAŞ|10.40.25.47|||110000479675|90
07.10.2018 00:00:00||HAVAŞ|10.40.25.45|||110000479675|93
07.10.2018 00:00:00||HAVAŞ|10.40.25.45|||110000479675|80
07.10.2018 00:00:00||HAVAŞ|10.40.25.46|||110000479675|10
07.10.2018 00:00:00||HAVAŞ|10.40.25.46|||110000479675|10
07.10.2018 00:00:00||HAVAŞ|10.40.25.46|||110000479675|20
07.10.2018 00:00:00||HAVAŞ|10.40.25.46|||110000479675|20
07.10.2018 00:00:00||HAVAŞ|10.40.25.46|||110000479675|50
07.10.2018 00:00:00||HAVAŞ|10.40.25.46|||110000479675|100
07.10.2018 00:00:00||HAVAŞ|10.40.25.46|||110000479675|57
07.10.2018 00:00:00||HAVAŞ|10.40.25.46|||110000479675|70
07.10.2018 00:00:00||HAVAŞ|10.40.25.46|||110000479675|70
07.10.2018 00:00:00||HAVAŞ|10.40.24.46|||110000479675|20
07.10.2018 00:00:00||HAVAŞ|10.40.24.46|||110000479675|20
07.10.2018 00:00:00||HAVAŞ|10.40.24.46|||110000479675|10
07.10.2018 00:00:00||HAVAŞ|10.40.24.46|||110000479675|10
07.10.2018 00:00:00||HAVAŞ|10.40.24.46|||110000479675|10
07.10.2018 00:00:00||HAVAŞ|10.40.24.46|||110000479675|10
07.10.2018 00:00:00||HAVAŞ|10.40.24.46|||110000479675|60
07.10.2018 00:00:00||HAVAŞ|10.40.24.46|||110000479675|110
07.10.2018 00:00:00||HAVAŞ|10.40.24.47|||110000479675|30
07.10.2018 00:00:00||HAVAŞ|10.40.24.47|||110000479675|218
07.10.2018 00:00:00||HAVAŞ|10.40.24.47|||110000479675|60
07.10.2018 00:00:00||HAVAŞ|10.40.24.47|||110000479675|58
07.10.2018 00:00:00||HAVAŞ|10.40.24.47|||110000479675|157
07.10.2018 00:00:00||HAVAŞ|10.40.24.47|||110000479675|100
07.10.2018 00:00:00||HAVAŞ|10.40.24.47|||110000479675|100
07.10.2018 00:00:00||MARS CINEMA|10.40.24.203|||110000472614|103
07.10.2018 00:00:00||MARS CINEMA|10.40.24.204|||110000472614|40
07.10.2018 00:00:00||MARS CINEMA|10.40.24.203|||110000472614|83
07.10.2018 00:00:00||MARS CINEMA|10.40.24.203|||110000472614|172
07.10.2018 00:00:00||MARS CINEMA|10.40.24.203|||110000472614|83
07.10.2018 00:00:00||MARS CINEMA|10.40.24.204|||110000472614|62
07.10.2018 00:00:00||MARS CINEMA|10.40.24.203|||110000472614|100
07.10.2018 00:00:00||MARS CINEMA|10.40.24.204|||110000472614|20
07.10.2018 00:00:00||MARS CINEMA|10.40.24.204|||110000472614|95
07.10.2018 00:00:00||MARS CINEMA|10.40.25.203|||110000472614|140
07.10.2018 00:00:00||MARS CINEMA|10.40.25.203|||110000472614|93
07.10.2018 00:00:00||MARS CINEMA|10.40.25.203|||110000472614|177
07.10.2018 00:00:00||MARS CINEMA|10.40.25.203|||110000472614|97
07.10.2018 00:00:00||MARS CINEMA|10.40.25.203|||110000472614|83
07.10.2018 00:00:00||MARS CINEMA|10.40.25.203|||110000472614|110
07.10.2018 00:00:00||MARS CINEMA|10.40.25.203|||110000472614|120
07.10.2018 00:00:00||MARS CINEMA|10.40.25.203|||110000472614|147
07.10.2018 00:00:00||MARS CINEMA|10.40.25.203|||110000472614|92
07.10.2018 00:00:00||MARS CINEMA|10.40.25.203|||110000472614|93
07.10.2018 00:00:00||MARS CINEMA|10.40.25.203|||110000472614|60
07.10.2018 00:00:00||MARS CINEMA|10.40.25.203|||110000472614|185
07.10.2018 00:00:00||MARS CINEMA|10.40.25.204|||110000472614|110
07.10.2018 00:00:00||MARS CINEMA|10.40.25.204|||110000472614|70
07.10.2018 00:00:00||MARS CINEMA|10.40.25.204|||110000472614|80
07.10.2018 00:00:00||MARS CINEMA|10.40.25.204|||110000472614|100
07.10.2018 00:00:00||MARS CINEMA|10.40.25.204|||110000472614|20
07.10.2018 00:00:00||MARS CINEMA|10.40.25.204|||110000472614|20
07.10.2018 00:00:00||MARS CINEMA|10.40.25.204|||110000472614|30
07.10.2018 00:00:00||MARS CINEMA|10.40.25.204|||110000472614|40
07.10.2018 00:00:00||MARS CINEMA|10.40.25.204|||110000472614|90
07.10.2018 00:00:00||MARS CINEMA|10.40.25.204|||110000472614|120
07.10.2018 00:00:00||MARS CINEMA|10.40.25.204|||110000472614|80
07.10.2018 00:00:00||MARS CINEMA|10.40.25.204|||110000472614|80
07.10.2018 00:00:00||MARS CINEMA|10.40.25.204|||110000472614|110
07.10.2018 00:00:00||MARS CINEMA|10.40.25.204|||110000472614|100
07.10.2018 00:00:00||MARS CINEMA|10.40.24.203|||110000472614|80
07.10.2018 00:00:00||MARS CINEMA|10.40.24.203|||110000472614|90
07.10.2018 00:00:00||MARS CINEMA|10.40.24.203|||110000472614|140
07.10.2018 00:00:00||MARS CINEMA|10.40.24.203|||110000472614|152
07.10.2018 00:00:00||MARS CINEMA|10.40.24.203|||110000472614|163
07.10.2018 00:00:00||MARS CINEMA|10.40.24.203|||110000472614|100
07.10.2018 00:00:00||MARS CINEMA|10.40.24.203|||110000472614|185
07.10.2018 00:00:00||MARS CINEMA|10.40.24.204|||110000472614|110
07.10.2018 00:00:00||MARS CINEMA|10.40.24.204|||110000472614|90
07.10.2018 00:00:00||MARS CINEMA|10.40.24.204|||110000472614|90
07.10.2018 00:00:00||MARS CINEMA|10.40.24.204|||110000472614|20
07.10.2018 00:00:00||MARS CINEMA|10.40.24.204|||110000472614|10
07.10.2018 00:00:00||MARS CINEMA|10.40.24.204|||110000472614|90
07.10.2018 00:00:00||MARS CINEMA|10.40.24.204|||110000472614|120
07.10.2018 00:00:00||MARS CINEMA|10.40.24.204|||110000472614|90
07.10.2018 00:00:00||MARS CINEMA|10.40.24.204|||110000472614|110
07.10.2018 00:00:00||MARS CINEMA|10.40.24.204|||110000472614|80
07.10.2018 00:00:00||MARS CINEMA|10.40.25.206|||110000472614|40
07.10.2018 00:00:00||MARS CINEMA|10.40.25.206|||110000472614|40
07.10.2018 00:00:00||MARS CINEMA|10.40.25.206|||110000472614|40
07.10.2018 00:00:00||MARS CINEMA|10.40.25.206|||110000472614|20
07.10.2018 00:00:00||MARS CINEMA|10.40.25.206|||110000472614|20
07.10.2018 00:00:00||MARS CINEMA|10.40.25.206|||110000472614|30
07.10.2018 00:00:00||MARS CINEMA|10.40.25.206|||110000472614|60
07.10.2018 00:00:00||MARS CINEMA|10.40.25.206|||110000472614|40
07.10.2018 00:00:00||MARS CINEMA|10.40.25.206|||110000472614|80
07.10.2018 00:00:00||MARS CINEMA|10.40.25.206|||110000472614|80
07.10.2018 00:00:00||MARS CINEMA|10.40.24.206|||110000472614|40
07.10.2018 00:00:00||MARS CINEMA|10.40.24.206|||110000472614|40
07.10.2018 00:00:00||MARS CINEMA|10.40.24.206|||110000472614|40
07.10.2018 00:00:00||MARS CINEMA|10.40.24.206|||110000472614|30
07.10.2018 00:00:00||MARS CINEMA|10.40.24.206|||110000472614|30
07.10.2018 00:00:00||MARS CINEMA|10.40.24.206|||110000472614|30
07.10.2018 00:00:00||MARS CINEMA|10.40.24.206|||110000472614|193
07.10.2018 00:00:00||MARS CINEMA|10.40.24.206|||110000472614|120
07.10.2018 00:00:00||MARS CINEMA|10.40.24.206|||110000472614|20
07.10.2018 00:00:00||MARS CINEMA|10.40.24.206|||110000472614|90
07.10.2018 00:00:00||MARS CINEMA|10.40.24.206|||110000472614|80
07.10.2018 00:00:00||PEGASUS|10.40.26.85|||110000423831|122
07.10.2018 00:00:00||PEGASUS|10.40.27.66|||110000423831|99
07.10.2018 00:00:00||PEGASUS|10.40.26.66|||110000423831|108
07.10.2018 00:00:00||PEGASUS|10.40.26.84|||110000423831|216
07.10.2018 00:00:00||PEGASUS|10.40.27.85|||110000423831|118
07.10.2018 00:00:00||PEGASUS|10.40.27.67|||110000423831|340
07.10.2018 00:00:00||PEGASUS|10.40.27.67|||110000423831|40
07.10.2018 00:00:00||PEGASUS|10.40.26.62|||110000423831|10
07.10.2018 00:00:00||PEGASUS|10.40.26.62|||110000423831|190
07.10.2018 00:00:00||PEGASUS|10.40.26.63|||110000423831|70
07.10.2018 00:00:00||PEGASUS|10.40.26.63|||110000423831|30
07.10.2018 00:00:00||PEGASUS|10.40.26.63|||110000423831|60
07.10.2018 00:00:00||PEGASUS|10.40.26.63|||110000423831|23
07.10.2018 00:00:00||PEGASUS|10.40.26.63|||110000423831|242
07.10.2018 00:00:00||PEGASUS|10.40.26.63|||110000423831|140
07.10.2018 00:00:00||PEGASUS|10.40.26.63|||110000423831|60
07.10.2018 00:00:00||PEGASUS|10.40.26.67|||110000423831|170
07.10.2018 00:00:00||PEGASUS|10.40.27.68|||110000423831|90
07.10.2018 00:00:00||PEGASUS|10.40.27.68|||110000423831|85
07.10.2018 00:00:00||PEGASUS|10.40.27.68|||110000423831|90
07.10.2018 00:00:00||PEGASUS|10.40.27.68|||110000423831|52
07.10.2018 00:00:00||PEGASUS|10.40.26.68|||110000423831|90
07.10.2018 00:00:00||PEGASUS|10.40.26.68|||110000423831|90
07.10.2018 00:00:00||PEGASUS|10.40.26.68|||110000423831|50
07.10.2018 00:00:00||PEGASUS|10.40.27.63|||110000423831|40
07.10.2018 00:00:00||PEGASUS|10.40.27.86|||110000423831|340
07.10.2018 00:00:00||PEGASUS|10.40.27.63|||110000423831|50
07.10.2018 00:00:00||PEGASUS|10.40.27.63|||110000423831|60
07.10.2018 00:00:00||PEGASUS|10.40.27.64|||110000423831|70
07.10.2018 00:00:00||PEGASUS|10.40.27.64|||110000423831|70
07.10.2018 00:00:00||PEGASUS|10.40.27.63|||110000423831|60
07.10.2018 00:00:00||PEGASUS|10.40.27.63|||110000423831|70
07.10.2018 00:00:00||PEGASUS|10.40.27.63|||110000423831|90
07.10.2018 00:00:00||PEGASUS|10.40.26.63|||110000423831|115
07.10.2018 00:00:00||PEGASUS|10.40.27.67|||110000423831|362
07.10.2018 00:00:00||PEGASUS|10.40.27.64|||110000423831|257
07.10.2018 00:00:00||PEGASUS|10.40.27.64|||110000423831|263
07.10.2018 00:00:00||PEGASUS|10.40.27.63|||110000423831|73
07.10.2018 00:00:00||PEGASUS|10.40.27.63|||110000423831|70
07.10.2018 00:00:00||PEGASUS|10.40.27.63|||110000423831|80
07.10.2018 00:00:00||PEGASUS|10.40.26.63|||110000423831|112
07.10.2018 00:00:00||PEGASUS|10.40.26.63|||110000423831|283
07.10.2018 00:00:00||PEGASUS|10.40.27.81|||110000423831|470
07.10.2018 00:00:00||PEGASUS|10.40.27.81|||110000423831|395
07.10.2018 00:00:00||PEGASUS|10.40.26.63|||110000423831|90
07.10.2018 00:00:00||PEGASUS|10.40.26.63|||110000423831|48
07.10.2018 00:00:00||PEGASUS|10.40.26.67|||110000423831|30
07.10.2018 00:00:00||PEGASUS|10.40.26.67|||110000423831|340
07.10.2018 00:00:00||PEGASUS|10.40.26.67|||110000423831|60
07.10.2018 00:00:00||PEGASUS|10.40.26.67|||110000423831|40
07.10.2018 00:00:00||PEGASUS|10.40.26.67|||110000423831|70
07.10.2018 00:00:00||PEGASUS|10.40.26.68|||110000423831|100
07.10.2018 00:00:00||PEGASUS|10.40.27.64|||110000423831|292
07.10.2018 00:00:00||PEGASUS|10.40.27.64|||110000423831|268
07.10.2018 00:00:00||PEGASUS|10.40.27.64|||110000423831|288
07.10.2018 00:00:00||PEGASUS|10.40.27.64|||110000423831|262
07.10.2018 00:00:00||PEGASUS|10.40.27.64|||110000423831|273
07.10.2018 00:00:00||PEGASUS|10.40.27.86|||110000423831|340
07.10.2018 00:00:00||PEGASUS|10.40.27.63|||110000423831|90
07.10.2018 00:00:00||PEGASUS|10.40.26.63|||110000423831|130
07.10.2018 00:00:00||PEGASUS|10.40.26.63|||110000423831|60
07.10.2018 00:00:00||PEGASUS|10.40.26.63|||110000423831|95
07.10.2018 00:00:00||PEGASUS|10.40.26.67|||110000423831|340
07.10.2018 00:00:00||PEGASUS|10.40.27.63|||110000423831|50
07.10.2018 00:00:00||PEGASUS|10.40.27.63|||110000423831|60
07.10.2018 00:00:00||PEGASUS|10.40.27.81|||110000423831|453
07.10.2018 00:00:00||PEGASUS|10.40.26.62|||110000423831|90
07.10.2018 00:00:00||PEGASUS|10.40.26.62|||110000423831|2
07.10.2018 00:00:00||PEGASUS|10.40.26.63|||110000423831|50
07.10.2018 00:00:00||PEGASUS|10.40.26.63|||110000423831|95
07.10.2018 00:00:00||PEGASUS|10.40.26.63|||110000423831|40
07.10.2018 00:00:00||PEGASUS|10.40.26.63|||110000423831|50
07.10.2018 00:00:00||PEGASUS|10.40.26.67|||110000423831|340
07.10.2018 00:00:00||PEGASUS|10.40.27.64|||110000423831|275
07.10.2018 00:00:00||PEGASUS|10.40.27.64|||110000423831|265
07.10.2018 00:00:00||PEGASUS|10.40.27.64|||110000423831|260
07.10.2018 00:00:00||PEGASUS|10.40.27.64|||110000423831|283
07.10.2018 00:00:00||PEGASUS|10.40.27.64|||110000423831|298
07.10.2018 00:00:00||PEGASUS|10.40.27.86|||110000423831|40
07.10.2018 00:00:00||PEGASUS|10.40.27.63|||110000423831|72
07.10.2018 00:00:00||PEGASUS|10.40.27.63|||110000423831|80
07.10.2018 00:00:00||PEGASUS|10.40.27.63|||110000423831|80
07.10.2018 00:00:00||PEGASUS|10.40.27.63|||110000423831|225
07.10.2018 00:00:00||PEGASUS|10.40.27.63|||110000423831|55
07.10.2018 00:00:00||PEGASUS|10.40.26.64|||110000423831|80
07.10.2018 00:00:00||PEGASUS|10.40.26.64|||110000423831|80
07.10.2018 00:00:00||PEGASUS|10.40.26.82|||110000423831|210
07.10.2018 00:00:00||PEGASUS|10.40.26.82|||110000423831|110
07.10.2018 00:00:00||PEGASUS|10.40.26.82|||110000423831|80
07.10.2018 00:00:00||PEGASUS|10.40.26.82|||110000423831|150
07.10.2018 00:00:00||PEGASUS|10.40.26.82|||110000423831|140
07.10.2018 00:00:00||PEGASUS|10.40.26.82|||110000423831|140
07.10.2018 00:00:00||PEGASUS|10.40.26.82|||110000423831|180
07.10.2018 00:00:00||PEGASUS|10.40.26.82|||110000423831|30
07.10.2018 00:00:00||PEGASUS|10.40.26.82|||110000423831|40
07.10.2018 00:00:00||PEGASUS|10.40.26.82|||110000423831|20
07.10.2018 00:00:00||PEGASUS|10.40.26.82|||110000423831|70
07.10.2018 00:00:00||PEGASUS|10.40.26.82|||110000423831|50
07.10.2018 00:00:00||PEGASUS|10.40.26.82|||110000423831|40
07.10.2018 00:00:00||PEGASUS|10.40.27.83|||110000423831|580
07.10.2018 00:00:00||PEGASUS|10.40.27.83|||110000423831|70
07.10.2018 00:00:00||PEGASUS|10.40.27.83|||110000423831|512
07.10.2018 00:00:00||PEGASUS|10.40.27.83|||110000423831|100
07.10.2018 00:00:00||PEGASUS|10.40.27.83|||110000423831|177
07.10.2018 00:00:00||PEGASUS|10.40.27.83|||110000423831|85
07.10.2018 00:00:00||PEGASUS|10.40.27.83|||110000423831|495
07.10.2018 00:00:00||PEGASUS|10.40.27.83|||110000423831|73
07.10.2018 00:00:00||PEGASUS|10.40.26.83|||110000423831|528
07.10.2018 00:00:00||PEGASUS|10.40.26.83|||110000423831|50
07.10.2018 00:00:00||PEGASUS|10.40.26.83|||110000423831|400
07.10.2018 00:00:00||PEGASUS|10.40.26.83|||110000423831|188
07.10.2018 00:00:00||PEGASUS|10.40.26.83|||110000423831|108
07.10.2018 00:00:00||PEGASUS|10.40.26.83|||110000423831|530
07.10.2018 00:00:00||PEGASUS|10.40.26.83|||110000423831|117
07.10.2018 00:00:00||PEGASUS|10.40.26.83|||110000423831|548
07.10.2018 00:00:00||PEGASUS|10.40.26.86|||110000423831|360
07.10.2018 00:00:00||PEGASUS|10.40.26.86|||110000423831|138
07.10.2018 00:00:00||PEGASUS|10.40.26.86|||110000423831|350
07.10.2018 00:00:00||PEGASUS|10.40.26.86|||110000423831|50
07.10.2018 00:00:00||PEGASUS|10.40.26.86|||110000423831|30
07.10.2018 00:00:00||PEGASUS|10.40.26.86|||110000423831|350
07.10.2018 00:00:00||PEGASUS|10.40.26.86|||110000423831|40
07.10.2018 00:00:00||PEGASUS|10.40.26.86|||110000423831|50
07.10.2018 00:00:00||PEGASUS|10.40.27.87|||110000423831|90
07.10.2018 00:00:00||PEGASUS|10.40.27.87|||110000423831|90
07.10.2018 00:00:00||PEGASUS|10.40.27.87|||110000423831|90
07.10.2018 00:00:00||PEGASUS|10.40.27.87|||110000423831|20
07.10.2018 00:00:00||PEGASUS|10.40.26.87|||110000423831|90
07.10.2018 00:00:00||PEGASUS|10.40.26.87|||110000423831|90
07.10.2018 00:00:00||PEGASUS|10.40.26.87|||110000423831|90
07.10.2018 00:00:00||PEGASUS|10.40.26.87|||110000423831|20
07.10.2018 00:00:00||PEGASUS|10.40.26.81|||110000423831|418
07.10.2018 00:00:00||PEGASUS|10.40.26.81|||110000423831|430
07.10.2018 00:00:00||PEGASUS|10.40.26.81|||110000423831|445
07.10.2018 00:00:00||PEGASUS|10.40.27.82|||110000423831|220
07.10.2018 00:00:00||PEGASUS|10.40.27.82|||110000423831|30
07.10.2018 00:00:00||PEGASUS|10.40.27.82|||110000423831|108
07.10.2018 00:00:00||PEGASUS|10.40.27.82|||110000423831|92
07.10.2018 00:00:00||PEGASUS|10.40.27.82|||110000423831|150
07.10.2018 00:00:00||PEGASUS|10.40.27.82|||110000423831|120
07.10.2018 00:00:00||PEGASUS|10.40.27.82|||110000423831|167
07.10.2018 00:00:00||PEGASUS|10.40.27.82|||110000423831|110
07.10.2018 00:00:00||PEGASUS|10.40.27.82|||110000423831|62
07.10.2018 00:00:00||PEGASUS|10.40.27.82|||110000423831|68
07.10.2018 00:00:00||PEGASUS|10.40.27.82|||110000423831|50
07.10.2018 00:00:00||PEGASUS|10.40.27.82|||110000423831|35
07.10.2018 00:00:00||PEGASUS|10.40.27.82|||110000423831|40
07.10.2018 00:00:00||PEGASUS|10.40.27.67|||110000423831|50
07.10.2018 00:00:00||PEGASUS|10.40.27.67|||110000423831|70
07.10.2018 00:00:00||PEGASUS|10.40.27.67|||110000423831|130
07.10.2018 00:00:00||PEGASUS|10.40.27.67|||110000423831|10
07.10.2018 00:00:00||PEGASUS|10.40.27.67|||110000423831|340
07.10.2018 00:00:00||PEGASUS|10.40.27.82|||110000423831|75
07.10.2018 00:00:00||PEGASUS|10.40.27.86|||110000423831|163
07.10.2018 00:00:00||PEGASUS|10.40.27.86|||110000423831|70
07.10.2018 00:00:00||PEGASUS|10.40.27.86|||110000423831|20
07.10.2018 00:00:00||PEGASUS|10.40.27.86|||110000423831|340
07.10.2018 00:00:00||PWC|10.40.24.66|||110000433262|80
07.10.2018 00:00:00||PWC|10.40.24.66|||110000433262|10
07.10.2018 00:00:00||PWC|10.40.24.66|||110000433262|30
07.10.2018 00:00:00||PWC|10.40.24.66|||110000433262|53
07.10.2018 00:00:00||PWC|10.40.24.66|||110000433262|440
07.10.2018 00:00:00||PWC|10.40.24.68|||110000433262|153
07.10.2018 00:00:00||PWC|10.40.24.66|||110000433262|43
07.10.2018 00:00:00||PWC|10.40.24.66|||110000433262|212
07.10.2018 00:00:00||PWC|10.40.24.66|||110000433262|210
07.10.2018 00:00:00||PWC|10.40.25.67|||110000433262|80
07.10.2018 00:00:00||PWC|10.40.25.67|||110000433262|90
07.10.2018 00:00:00||PWC|10.40.25.67|||110000433262|320
07.10.2018 00:00:00||PWC|10.40.25.67|||110000433262|250
07.10.2018 00:00:00||PWC|10.40.25.67|||110000433262|240
07.10.2018 00:00:00||PWC|10.40.25.67|||110000433262|250
07.10.2018 00:00:00||PWC|10.40.25.67|||110000433262|50
07.10.2018 00:00:00||PWC|10.40.25.67|||110000433262|30
07.10.2018 00:00:00||PWC|10.40.25.67|||110000433262|120
07.10.2018 00:00:00||PWC|10.40.24.67|||110000433262|20
07.10.2018 00:00:00||PWC|10.40.24.67|||110000433262|10
07.10.2018 00:00:00||PWC|10.40.24.67|||110000433262|373
07.10.2018 00:00:00||PWC|10.40.24.67|||110000433262|35
07.10.2018 00:00:00||PWC|10.40.24.67|||110000433262|50
07.10.2018 00:00:00||PWC|10.40.24.67|||110000433262|115
07.10.2018 00:00:00||PWC|10.40.25.68|||110000433262|120
07.10.2018 00:00:00||PWC|10.40.25.68|||110000433262|177
07.10.2018 00:00:00||PWC|10.40.25.68|||110000433262|373
07.10.2018 00:00:00||PWC|10.40.25.68|||110000433262|70
07.10.2018 00:00:00||PWC|10.40.25.68|||110000433262|70
07.10.2018 00:00:00||PWC|10.40.25.68|||110000433262|143
07.10.2018 00:00:00||PWC|10.40.24.66|||110000433262|60
07.10.2018 00:00:00||PWC|10.40.24.66|||110000433262|30
07.10.2018 00:00:00||PWC|10.40.24.66|||110000433262|40
07.10.2018 00:00:00||PWC|10.40.24.68|||110000433262|100
07.10.2018 00:00:00||PWC|10.40.24.68|||110000433262|132
07.10.2018 00:00:00||PWC|10.40.24.68|||110000433262|62
07.10.2018 00:00:00||PWC|10.40.24.68|||110000433262|60
07.10.2018 00:00:00||VSMART BİLGİ TEKNOLOJİLERİ|10.40.24.62|||110000474326|43
07.10.2018 00:00:00||VSMART BİLGİ TEKNOLOJİLERİ|10.40.24.62|||110000474326|70
07.10.2018 00:00:00||VSMART BİLGİ TEKNOLOJİLERİ|10.40.24.62|||110000474326|37
07.10.2018 00:00:00||VSMART BİLGİ TEKNOLOJİLERİ|10.40.25.62|||110000474326|63
07.10.2018 00:00:00||VSMART BİLGİ TEKNOLOJİLERİ|10.40.24.62|||110000474326|50
07.10.2018 00:00:00||VSMART BİLGİ TEKNOLOJİLERİ|10.40.24.62|||110000474326|30
07.10.2018 00:00:00||VSMART BİLGİ TEKNOLOJİLERİ|10.40.24.62|||110000474326|10
07.10.2018 00:00:00||VSMART BİLGİ TEKNOLOJİLERİ|10.40.25.62|||110000474326|35
07.10.2018 00:00:00||VSMART BİLGİ TEKNOLOJİLERİ|10.40.25.62|||110000474326|10
07.10.2018 00:00:00||VSMART BİLGİ TEKNOLOJİLERİ|10.40.25.62|||110000474326|10
07.10.2018 00:00:00||VSMART BİLGİ TEKNOLOJİLERİ|10.40.25.62|||110000474326|80
07.10.2018 00:00:00||VSMART BİLGİ TEKNOLOJİLERİ|10.40.25.62|||110000474326|80
07.10.2018 00:00:00||VSMART BİLGİ TEKNOLOJİLERİ|10.40.25.62|||110000474326|103
07.10.2018 00:00:00||VSMART BİLGİ TEKNOLOJİLERİ|10.40.24.62|||110000474326|10
