9/13/2018 6:00:00 PM||HAVAS|10.40.25.45|||110000479675|325
9/13/2018 6:00:00 PM||HAVAS|10.40.24.45|||110000479675|398
9/13/2018 6:00:00 PM||HAVAS|10.40.25.46|||110000479675|470
9/13/2018 6:00:00 PM||PWC|10.40.24.67|||110000433262|564
9/13/2018 6:00:00 PM||PWC|10.40.25.68|||110000433262|718
9/13/2018 6:00:00 PM||PWC|10.40.25.69|||110000433262|288
9/13/2018 6:00:00 PM||PWC|10.40.24.69|||110000433262|280
9/13/2018 6:00:00 PM||CALIK HOLDING|10.40.25.94|||110000438408|632
9/13/2018 6:00:00 PM||CALIK HOLDING|10.40.24.94|||110000438408|696
9/13/2018 6:00:00 PM||CALIK HOLDING|10.40.25.97|||110000438408|618
9/13/2018 6:00:00 PM||CALIK HOLDING|10.40.25.100|||110000438408|77
9/13/2018 6:00:00 PM||CALIK HOLDING|10.40.24.100|||110000438408|75
9/13/2018 6:00:00 PM||CALIK HOLDING|10.40.25.101|||110000438408|618
9/13/2018 6:00:00 PM||CALIK HOLDING|10.40.24.101|||110000438408|721
9/13/2018 6:00:00 PM||CALIK HOLDING|10.40.25.102|||110000438408|333
9/13/2018 6:00:00 PM||CALIK HOLDING|10.40.24.102|||110000438408|314
9/13/2018 6:00:00 PM||CALIK HOLDING|10.40.25.103|||110000438408|266
9/13/2018 6:00:00 PM||CALIK HOLDING|10.40.24.103|||110000438408|291
9/13/2018 6:00:00 PM||CALIK HOLDING|10.40.25.104|||110000438408|1161
9/13/2018 6:00:00 PM||CALIK HOLDING|10.40.24.113|||110000438408|724
9/13/2018 6:00:00 PM||CALIK HOLDING|10.40.24.114|||110000438408|596
9/13/2018 6:00:00 PM||CALIK HOLDING|10.40.25.115|||110000438408|531
9/13/2018 6:00:00 PM||CALIK HOLDING|10.40.24.115|||110000438408|542
9/13/2018 6:00:00 PM||CALIK HOLDING|10.40.25.116|||110000438408|473
9/13/2018 6:00:00 PM||CALIK HOLDING|10.40.24.116|||110000438408|460
9/13/2018 6:00:00 PM||CALIK HOLDING|10.40.25.117|||110000438408|305
9/13/2018 6:00:00 PM||CALIK HOLDING|10.40.24.117|||110000438408|268
9/13/2018 6:00:00 PM||CALIK HOLDING|10.40.25.119|||110000438408|71
9/13/2018 6:00:00 PM||CALIK HOLDING|10.40.24.119|||110000438408|223
9/13/2018 6:00:00 PM||CALIK HOLDING|10.40.25.120|||110000438408|558
9/13/2018 6:00:00 PM||CALIK HOLDING|10.40.24.120|||110000438408|579
9/13/2018 6:00:00 PM||CALIK HOLDING|10.40.25.121|||110000438408|320
9/13/2018 6:00:00 PM||CALIK HOLDING|10.40.24.121|||110000438408|313
9/13/2018 6:00:00 PM||CALIK HOLDING|10.40.25.122|||110000438408|256
9/13/2018 6:00:00 PM||CALIK HOLDING|10.40.24.122|||110000438408|291
9/13/2018 6:00:00 PM||AKTIFBANK|10.40.25.128|||110000438458|257
9/13/2018 6:00:00 PM||AKTIFBANK|10.40.24.128|||110000438458|460
9/13/2018 6:00:00 PM||AKTIFBANK|10.40.25.129|||110000438458|695
9/13/2018 6:00:00 PM||AKTIFBANK|10.40.25.130|||110000438458|756
9/13/2018 6:00:00 PM||AKTIFBANK|10.40.24.130|||110000438458|669
9/13/2018 6:00:00 PM||AKTIFBANK|10.40.25.131|||110000438458|626
9/13/2018 6:00:00 PM||AKTIFBANK|10.40.24.131|||110000438458|625
9/13/2018 6:00:00 PM||AKTIFBANK|10.40.25.132|||110000438458|425
9/13/2018 6:00:00 PM||AKTIFBANK|10.40.24.132|||110000438458|419
9/13/2018 6:00:00 PM||AKTIFBANK|10.40.25.133|||110000438458|400
9/13/2018 6:00:00 PM||AKTIFBANK|10.40.24.133|||110000438458|677
9/13/2018 6:00:00 PM||AKTIFBANK|10.40.25.138|||110000438458|254
9/13/2018 6:00:00 PM||AKTIFBANK|10.40.24.138|||110000438458|540
9/13/2018 6:00:00 PM||AKTIFBANK|10.40.25.139|||110000438458|162
9/13/2018 6:00:00 PM||AKTIFBANK|10.40.24.139|||110000438458|243
9/13/2018 6:00:00 PM||AKTIFBANK|10.40.25.140|||110000438458|254
9/13/2018 6:00:00 PM||AKTIFBANK|10.40.24.140|||110000438458|363
9/13/2018 6:00:00 PM||AKTIFBANK|10.40.25.141|||110000438458|502
9/13/2018 6:00:00 PM||AKTIFBANK|10.40.24.141|||110000438458|637
9/13/2018 6:00:00 PM||AKTIFBANK|10.40.25.142|||110000438458|38
9/13/2018 6:00:00 PM||AKTIFBANK|10.40.25.143|||110000438458|858
9/13/2018 6:00:00 PM||AKTIFBANK|10.40.25.144|||110000438458|180
9/13/2018 6:00:00 PM||AKTIFBANK|10.40.24.144|||110000438458|259
9/13/2018 6:00:00 PM||AKTIFBANK|10.40.25.145|||110000438458|283
9/13/2018 6:00:00 PM||AKTIFBANK|10.40.24.145|||110000438458|408
9/13/2018 6:00:00 PM||AKTIFBANK|10.40.25.147|||110000438458|88
9/13/2018 6:00:00 PM||AKTIFBANK|10.40.24.147|||110000438458|90
9/13/2018 6:00:00 PM||AKTIFBANK|10.40.25.148|||110000438458|990
9/13/2018 6:00:00 PM||AKTIFBANK|10.40.25.152|||110000438458|735
9/13/2018 6:00:00 PM||AKTIFBANK|10.40.25.153|||110000438458|207
9/13/2018 6:00:00 PM||AKTIFBANK|10.40.24.153|||110000438458|248
9/13/2018 6:00:00 PM||AKTIFBANK|10.40.25.154|||110000438458|42
9/13/2018 6:00:00 PM||AKTIFBANK|10.40.24.154|||110000438458|136
9/13/2018 6:00:00 PM||AKTIFBANK|10.40.25.155|||110000438458|469
9/13/2018 6:00:00 PM||AKTIFBANK|10.40.24.155|||110000438458|505
9/13/2018 6:00:00 PM||AKTIFBANK|10.40.25.157|||110000438458|338
9/13/2018 6:00:00 PM||AKTIFBANK|10.40.24.157|||110000438458|339
9/13/2018 6:00:00 PM||AKTIFBANK|10.40.25.158|||110000438458|161
9/13/2018 6:00:00 PM||AKTIFBANK|10.40.24.158|||110000438458|617
9/13/2018 6:00:00 PM||AKTIFBANK|10.40.25.159|||110000438458|163
9/13/2018 6:00:00 PM||AKTIFBANK|10.40.24.159|||110000438458|346
9/13/2018 6:00:00 PM||AKTIFBANK|10.40.25.160|||110000438458|196
9/13/2018 6:00:00 PM||AKTIFBANK|10.40.24.160|||110000438458|233
9/13/2018 6:00:00 PM||AKTIFBANK|10.40.25.161|||110000438458|242
9/13/2018 6:00:00 PM||AKTIFBANK|10.40.24.161|||110000438458|392
9/13/2018 6:00:00 PM||AKTIFBANK|10.40.25.162|||110000438458|197
9/13/2018 6:00:00 PM||AKTIFBANK|10.40.24.162|||110000438458|520
9/13/2018 6:00:00 PM||AKTIFBANK|10.40.25.163|||110000438458|46
9/13/2018 6:00:00 PM||AKTIFBANK|10.40.25.164|||110000438458|892
9/13/2018 6:00:00 PM||AKTIFBANK|10.40.24.164|||110000438458|840
9/13/2018 6:00:00 PM||AKTIFBANK|10.40.25.165|||110000438458|316
9/13/2018 6:00:00 PM||AKTIFBANK|10.40.24.165|||110000438458|357
9/13/2018 6:00:00 PM||AKTIFBANK|10.40.25.166|||110000438458|129
9/13/2018 6:00:00 PM||AKTIFBANK|10.40.24.166|||110000438458|231
9/13/2018 6:00:00 PM||AKTIFBANK|10.40.25.168|||110000438458|319
9/13/2018 6:00:00 PM||AKTIFBANK|10.40.24.168|||110000438458|368
9/13/2018 6:00:00 PM||AKTIFBANK|10.40.25.169|||110000438458|336
9/13/2018 6:00:00 PM||AKTIFBANK|10.40.24.169|||110000438458|301
9/13/2018 6:00:00 PM||AKTIFBANK|10.40.25.170|||110000438458|362
9/13/2018 6:00:00 PM||AKTIFBANK|10.40.24.170|||110000438458|890
9/13/2018 6:00:00 PM||AKTIFBANK|10.40.25.179|||110000438458|920
9/13/2018 6:00:00 PM||AKTIFBANK|10.40.24.179|||110000438458|990
9/13/2018 6:00:00 PM||AKTIFBANK|10.40.25.186|||110000438458|188
9/13/2018 6:00:00 PM||AKTIFBANK|10.40.24.186|||110000438458|209
9/13/2018 6:00:00 PM||MARS CINEMA|10.40.25.206|||110000472614|306
9/13/2018 6:00:00 PM||PEGASUS|10.40.26.63|||110000423831|1710
9/13/2018 6:00:00 PM||PEGASUS|10.40.26.64|||110000423831|157
9/13/2018 6:00:00 PM||PEGASUS|10.40.27.67|||110000423831|1235
9/13/2018 6:00:00 PM||PEGASUS|10.40.27.68|||110000423831|319
9/13/2018 6:00:00 PM||PEGASUS|10.40.27.87|||110000423831|271
9/13/2018 6:00:00 PM||PEGASUS|10.40.26.87|||110000423831|293
9/13/2018 6:00:00 PM||BOYNER|10.40.26.95|||101367941673|399
