03.10.2018 03:00:00||AKTİFBANK|10.40.24.128|||110000438458|153
03.10.2018 03:00:00||AKTİFBANK|10.40.24.128|||110000438458|71
03.10.2018 03:00:00||AKTİFBANK|10.40.24.128|||110000438458|102
03.10.2018 03:00:00||AKTİFBANK|10.40.24.128|||110000438458|40
03.10.2018 03:00:00||AKTİFBANK|10.40.24.128|||110000438458|71
03.10.2018 03:00:00||AKTİFBANK|10.40.24.128|||110000438458|40
03.10.2018 03:00:00||AKTİFBANK|10.40.24.129|||110000438458|102
03.10.2018 03:00:00||AKTİFBANK|10.40.24.129|||110000438458|71
03.10.2018 03:00:00||AKTİFBANK|10.40.24.129|||110000438458|102
03.10.2018 03:00:00||AKTİFBANK|10.40.24.129|||110000438458|112
03.10.2018 03:00:00||AKTİFBANK|10.40.24.129|||110000438458|51
03.10.2018 03:00:00||AKTİFBANK|10.40.24.129|||110000438458|71
03.10.2018 03:00:00||AKTİFBANK|10.40.24.129|||110000438458|71
03.10.2018 03:00:00||AKTİFBANK|10.40.24.129|||110000438458|92
03.10.2018 03:00:00||AKTİFBANK|10.40.24.129|||110000438458|82
03.10.2018 03:00:00||AKTİFBANK|10.40.24.129|||110000438458|143
03.10.2018 03:00:00||AKTİFBANK|10.40.24.130|||110000438458|51
03.10.2018 03:00:00||AKTİFBANK|10.40.24.130|||110000438458|40
03.10.2018 03:00:00||AKTİFBANK|10.40.24.130|||110000438458|82
03.10.2018 03:00:00||AKTİFBANK|10.40.24.130|||110000438458|40
03.10.2018 03:00:00||AKTİFBANK|10.40.24.130|||110000438458|61
03.10.2018 03:00:00||AKTİFBANK|10.40.24.130|||110000438458|82
03.10.2018 03:00:00||AKTİFBANK|10.40.24.130|||110000438458|92
03.10.2018 03:00:00||AKTİFBANK|10.40.24.130|||110000438458|40
03.10.2018 03:00:00||AKTİFBANK|10.40.24.130|||110000438458|133
03.10.2018 03:00:00||AKTİFBANK|10.40.24.130|||110000438458|112
03.10.2018 03:00:00||AKTİFBANK|10.40.24.131|||110000438458|10
03.10.2018 03:00:00||AKTİFBANK|10.40.24.131|||110000438458|102
03.10.2018 03:00:00||AKTİFBANK|10.40.24.131|||110000438458|94
03.10.2018 03:00:00||AKTİFBANK|10.40.24.131|||110000438458|115
03.10.2018 03:00:00||AKTİFBANK|10.40.24.131|||110000438458|126
03.10.2018 03:00:00||AKTİFBANK|10.40.24.131|||110000438458|30
03.10.2018 03:00:00||AKTİFBANK|10.40.24.131|||110000438458|169
03.10.2018 03:00:00||AKTİFBANK|10.40.24.131|||110000438458|62
03.10.2018 03:00:00||AKTİFBANK|10.40.24.131|||110000438458|115
03.10.2018 03:00:00||AKTİFBANK|10.40.24.132|||110000438458|41
03.10.2018 03:00:00||AKTİFBANK|10.40.24.132|||110000438458|84
03.10.2018 03:00:00||AKTİFBANK|10.40.24.132|||110000438458|52
03.10.2018 03:00:00||AKTİFBANK|10.40.24.132|||110000438458|190
03.10.2018 03:00:00||AKTİFBANK|10.40.24.132|||110000438458|73
03.10.2018 03:00:00||AKTİFBANK|10.40.24.133|||110000438458|147
03.10.2018 03:00:00||AKTİFBANK|10.40.24.133|||110000438458|94
03.10.2018 03:00:00||AKTİFBANK|10.40.24.133|||110000438458|126
03.10.2018 03:00:00||AKTİFBANK|10.40.24.133|||110000438458|94
03.10.2018 03:00:00||AKTİFBANK|10.40.24.134|||110000438458|64
03.10.2018 03:00:00||AKTİFBANK|10.40.24.134|||110000438458|31
03.10.2018 03:00:00||AKTİFBANK|10.40.24.135|||110000438458|70
03.10.2018 03:00:00||AKTİFBANK|10.40.24.135|||110000438458|31
03.10.2018 03:00:00||AKTİFBANK|10.40.24.137|||110000438458|3
03.10.2018 03:00:00||AKTİFBANK|10.40.24.137|||110000438458|56
03.10.2018 03:00:00||AKTİFBANK|10.40.24.138|||110000438458|115
03.10.2018 03:00:00||AKTİFBANK|10.40.24.138|||110000438458|126
03.10.2018 03:00:00||AKTİFBANK|10.40.24.138|||110000438458|147
03.10.2018 03:00:00||AKTİFBANK|10.40.24.138|||110000438458|115
03.10.2018 03:00:00||AKTİFBANK|10.40.24.138|||110000438458|30
03.10.2018 03:00:00||AKTİFBANK|10.40.24.138|||110000438458|52
03.10.2018 03:00:00||AKTİFBANK|10.40.24.139|||110000438458|41
03.10.2018 03:00:00||AKTİFBANK|10.40.24.139|||110000438458|30
03.10.2018 03:00:00||AKTİFBANK|10.40.24.139|||110000438458|52
03.10.2018 03:00:00||AKTİFBANK|10.40.24.139|||110000438458|94
03.10.2018 03:00:00||AKTİFBANK|10.40.24.139|||110000438458|62
03.10.2018 03:00:00||AKTİFBANK|10.40.24.139|||110000438458|126
03.10.2018 03:00:00||AKTİFBANK|10.40.24.140|||110000438458|20
03.10.2018 03:00:00||AKTİFBANK|10.40.24.140|||110000438458|84
03.10.2018 03:00:00||AKTİFBANK|10.40.24.140|||110000438458|41
03.10.2018 03:00:00||AKTİFBANK|10.40.24.140|||110000438458|30
03.10.2018 03:00:00||AKTİFBANK|10.40.24.140|||110000438458|30
03.10.2018 03:00:00||AKTİFBANK|10.40.24.140|||110000438458|52
03.10.2018 03:00:00||AKTİFBANK|10.40.24.140|||110000438458|41
03.10.2018 03:00:00||AKTİFBANK|10.40.24.140|||110000438458|20
03.10.2018 03:00:00||AKTİFBANK|10.40.24.140|||110000438458|30
03.10.2018 03:00:00||AKTİFBANK|10.40.24.141|||110000438458|211
03.10.2018 03:00:00||AKTİFBANK|10.40.24.141|||110000438458|52
03.10.2018 03:00:00||AKTİFBANK|10.40.24.141|||110000438458|105
03.10.2018 03:00:00||AKTİFBANK|10.40.24.141|||110000438458|105
03.10.2018 03:00:00||AKTİFBANK|10.40.24.141|||110000438458|73
03.10.2018 03:00:00||AKTİFBANK|10.40.24.141|||110000438458|84
03.10.2018 03:00:00||AKTİFBANK|10.40.24.141|||110000438458|73
03.10.2018 03:00:00||AKTİFBANK|10.40.24.142|||110000438458|73
03.10.2018 03:00:00||AKTİFBANK|10.40.24.142|||110000438458|41
03.10.2018 03:00:00||AKTİFBANK|10.40.24.143|||110000438458|73
03.10.2018 03:00:00||AKTİFBANK|10.40.24.143|||110000438458|285
03.10.2018 03:00:00||AKTİFBANK|10.40.24.143|||110000438458|338
03.10.2018 03:00:00||AKTİFBANK|10.40.24.143|||110000438458|211
03.10.2018 03:00:00||AKTİFBANK|10.40.24.144|||110000438458|84
03.10.2018 03:00:00||AKTİFBANK|10.40.24.144|||110000438458|105
03.10.2018 03:00:00||AKTİFBANK|10.40.24.144|||110000438458|94
03.10.2018 03:00:00||AKTİFBANK|10.40.24.145|||110000438458|94
03.10.2018 03:00:00||AKTİFBANK|10.40.24.145|||110000438458|20
03.10.2018 03:00:00||AKTİFBANK|10.40.24.145|||110000438458|73
03.10.2018 03:00:00||AKTİFBANK|10.40.24.145|||110000438458|94
03.10.2018 03:00:00||AKTİFBANK|10.40.24.145|||110000438458|62
03.10.2018 03:00:00||AKTİFBANK|10.40.24.145|||110000438458|73
03.10.2018 03:00:00||AKTİFBANK|10.40.24.147|||110000438458|94
03.10.2018 03:00:00||AKTİFBANK|10.40.24.148|||110000438458|73
03.10.2018 03:00:00||AKTİFBANK|10.40.24.148|||110000438458|179
03.10.2018 03:00:00||AKTİFBANK|10.40.24.148|||110000438458|84
03.10.2018 03:00:00||AKTİFBANK|10.40.24.148|||110000438458|115
03.10.2018 03:00:00||AKTİFBANK|10.40.24.148|||110000438458|105
03.10.2018 03:00:00||AKTİFBANK|10.40.24.148|||110000438458|94
03.10.2018 03:00:00||AKTİFBANK|10.40.24.148|||110000438458|105
03.10.2018 03:00:00||AKTİFBANK|10.40.24.148|||110000438458|105
03.10.2018 03:00:00||AKTİFBANK|10.40.24.148|||110000438458|73
03.10.2018 03:00:00||AKTİFBANK|10.40.24.148|||110000438458|73
03.10.2018 03:00:00||AKTİFBANK|10.40.24.148|||110000438458|20
03.10.2018 03:00:00||AKTİFBANK|10.40.24.148|||110000438458|84
03.10.2018 03:00:00||AKTİFBANK|10.40.24.149|||110000438458|84
03.10.2018 03:00:00||AKTİFBANK|10.40.24.149|||110000438458|126
03.10.2018 03:00:00||AKTİFBANK|10.40.24.149|||110000438458|105
03.10.2018 03:00:00||AKTİFBANK|10.40.24.149|||110000438458|62
03.10.2018 03:00:00||AKTİFBANK|10.40.24.149|||110000438458|52
03.10.2018 03:00:00||AKTİFBANK|10.40.24.149|||110000438458|94
03.10.2018 03:00:00||AKTİFBANK|10.40.24.149|||110000438458|158
03.10.2018 03:00:00||AKTİFBANK|10.40.24.149|||110000438458|94
03.10.2018 03:00:00||AKTİFBANK|10.40.24.149|||110000438458|169
03.10.2018 03:00:00||AKTİFBANK|10.40.24.149|||110000438458|115
03.10.2018 03:00:00||AKTİFBANK|10.40.24.149|||110000438458|94
03.10.2018 03:00:00||AKTİFBANK|10.40.24.149|||110000438458|94
03.10.2018 03:00:00||AKTİFBANK|10.40.24.149|||110000438458|84
03.10.2018 03:00:00||AKTİFBANK|10.40.24.149|||110000438458|84
03.10.2018 03:00:00||AKTİFBANK|10.40.24.150|||110000438458|581
03.10.2018 03:00:00||AKTİFBANK|10.40.24.150|||110000438458|571
03.10.2018 03:00:00||AKTİFBANK|10.40.24.150|||110000438458|592
03.10.2018 03:00:00||AKTİFBANK|10.40.24.151|||110000438458|592
03.10.2018 03:00:00||AKTİFBANK|10.40.24.151|||110000438458|581
03.10.2018 03:00:00||AKTİFBANK|10.40.24.151|||110000438458|539
03.10.2018 03:00:00||AKTİFBANK|10.40.24.152|||110000438458|20
03.10.2018 03:00:00||AKTİFBANK|10.40.24.152|||110000438458|52
03.10.2018 03:00:00||AKTİFBANK|10.40.24.152|||110000438458|115
03.10.2018 03:00:00||AKTİFBANK|10.40.24.152|||110000438458|62
03.10.2018 03:00:00||AKTİFBANK|10.40.24.152|||110000438458|115
03.10.2018 03:00:00||AKTİFBANK|10.40.24.152|||110000438458|105
03.10.2018 03:00:00||AKTİFBANK|10.40.24.152|||110000438458|317
03.10.2018 03:00:00||AKTİFBANK|10.40.24.152|||110000438458|73
03.10.2018 03:00:00||AKTİFBANK|10.40.24.152|||110000438458|105
03.10.2018 03:00:00||AKTİFBANK|10.40.24.152|||110000438458|30
03.10.2018 03:00:00||AKTİFBANK|10.40.24.152|||110000438458|73
03.10.2018 03:00:00||AKTİFBANK|10.40.24.152|||110000438458|30
03.10.2018 03:00:00||AKTİFBANK|10.40.24.153|||110000438458|10
03.10.2018 03:00:00||AKTİFBANK|10.40.24.153|||110000438458|94
03.10.2018 03:00:00||AKTİFBANK|10.40.24.153|||110000438458|73
03.10.2018 03:00:00||AKTİFBANK|10.40.24.153|||110000438458|73
03.10.2018 03:00:00||AKTİFBANK|10.40.24.154|||110000438458|73
03.10.2018 03:00:00||AKTİFBANK|10.40.24.154|||110000438458|20
03.10.2018 03:00:00||AKTİFBANK|10.40.24.154|||110000438458|10
03.10.2018 03:00:00||AKTİFBANK|10.40.24.154|||110000438458|10
03.10.2018 03:00:00||AKTİFBANK|10.40.24.154|||110000438458|10
03.10.2018 03:00:00||AKTİFBANK|10.40.24.154|||110000438458|10
03.10.2018 03:00:00||AKTİFBANK|10.40.24.155|||110000438458|115
03.10.2018 03:00:00||AKTİFBANK|10.40.24.155|||110000438458|137
03.10.2018 03:00:00||AKTİFBANK|10.40.24.155|||110000438458|84
03.10.2018 03:00:00||AKTİFBANK|10.40.24.155|||110000438458|115
03.10.2018 03:00:00||AKTİFBANK|10.40.24.155|||110000438458|105
03.10.2018 03:00:00||AKTİFBANK|10.40.24.157|||110000438458|30
03.10.2018 03:00:00||AKTİFBANK|10.40.24.157|||110000438458|84
03.10.2018 03:00:00||AKTİFBANK|10.40.24.157|||110000438458|73
03.10.2018 03:00:00||AKTİFBANK|10.40.24.157|||110000438458|41
03.10.2018 03:00:00||AKTİFBANK|10.40.24.157|||110000438458|84
03.10.2018 03:00:00||AKTİFBANK|10.40.24.157|||110000438458|62
03.10.2018 03:00:00||AKTİFBANK|10.40.24.158|||110000438458|115
03.10.2018 03:00:00||AKTİFBANK|10.40.24.158|||110000438458|115
03.10.2018 03:00:00||AKTİFBANK|10.40.24.158|||110000438458|137
03.10.2018 03:00:00||AKTİFBANK|10.40.24.158|||110000438458|84
03.10.2018 03:00:00||AKTİFBANK|10.40.24.158|||110000438458|84
03.10.2018 03:00:00||AKTİFBANK|10.40.24.158|||110000438458|115
03.10.2018 03:00:00||AKTİFBANK|10.40.24.159|||110000438458|137
03.10.2018 03:00:00||AKTİFBANK|10.40.24.159|||110000438458|58
03.10.2018 03:00:00||AKTİFBANK|10.40.24.159|||110000438458|170
03.10.2018 03:00:00||AKTİFBANK|10.40.24.160|||110000438458|10
03.10.2018 03:00:00||AKTİFBANK|10.40.24.160|||110000438458|10
03.10.2018 03:00:00||AKTİFBANK|10.40.24.160|||110000438458|86
03.10.2018 03:00:00||AKTİFBANK|10.40.24.160|||110000438458|95
03.10.2018 03:00:00||AKTİFBANK|10.40.24.161|||110000438458|170
03.10.2018 03:00:00||AKTİFBANK|10.40.24.161|||110000438458|76
03.10.2018 03:00:00||AKTİFBANK|10.40.24.161|||110000438458|39
03.10.2018 03:00:00||AKTİFBANK|10.40.24.161|||110000438458|30
03.10.2018 03:00:00||AKTİFBANK|10.40.24.161|||110000438458|30
03.10.2018 03:00:00||AKTİFBANK|10.40.24.161|||110000438458|20
03.10.2018 03:00:00||AKTİFBANK|10.40.24.161|||110000438458|86
03.10.2018 03:00:00||AKTİFBANK|10.40.24.162|||110000438458|58
03.10.2018 03:00:00||AKTİFBANK|10.40.24.162|||110000438458|10
03.10.2018 03:00:00||AKTİFBANK|10.40.24.162|||110000438458|76
03.10.2018 03:00:00||AKTİFBANK|10.40.24.162|||110000438458|48
03.10.2018 03:00:00||AKTİFBANK|10.40.24.162|||110000438458|39
03.10.2018 03:00:00||AKTİFBANK|10.40.24.162|||110000438458|39
03.10.2018 03:00:00||AKTİFBANK|10.40.24.162|||110000438458|67
03.10.2018 03:00:00||AKTİFBANK|10.40.24.162|||110000438458|30
03.10.2018 03:00:00||AKTİFBANK|10.40.24.162|||110000438458|10
03.10.2018 03:00:00||AKTİFBANK|10.40.24.162|||110000438458|48
03.10.2018 03:00:00||AKTİFBANK|10.40.24.162|||110000438458|39
03.10.2018 03:00:00||AKTİFBANK|10.40.24.163|||110000438458|30
03.10.2018 03:00:00||AKTİFBANK|10.40.24.163|||110000438458|67
03.10.2018 03:00:00||AKTİFBANK|10.40.24.164|||110000438458|58
03.10.2018 03:00:00||AKTİFBANK|10.40.24.164|||110000438458|312
03.10.2018 03:00:00||AKTİFBANK|10.40.24.164|||110000438458|67
03.10.2018 03:00:00||AKTİFBANK|10.40.24.164|||110000438458|208
03.10.2018 03:00:00||AKTİFBANK|10.40.24.164|||110000438458|198
03.10.2018 03:00:00||AKTİFBANK|10.40.24.165|||110000438458|76
03.10.2018 03:00:00||AKTİFBANK|10.40.24.165|||110000438458|76
03.10.2018 03:00:00||AKTİFBANK|10.40.24.165|||110000438458|114
03.10.2018 03:00:00||AKTİFBANK|10.40.24.166|||110000438458|76
03.10.2018 03:00:00||AKTİFBANK|10.40.24.166|||110000438458|86
03.10.2018 03:00:00||AKTİFBANK|10.40.24.166|||110000438458|10
03.10.2018 03:00:00||AKTİFBANK|10.40.24.166|||110000438458|10
03.10.2018 03:00:00||AKTİFBANK|10.40.24.166|||110000438458|10
03.10.2018 03:00:00||AKTİFBANK|10.40.24.168|||110000438458|86
03.10.2018 03:00:00||AKTİFBANK|10.40.24.168|||110000438458|39
03.10.2018 03:00:00||AKTİFBANK|10.40.24.168|||110000438458|76
03.10.2018 03:00:00||AKTİFBANK|10.40.24.168|||110000438458|67
03.10.2018 03:00:00||AKTİFBANK|10.40.24.168|||110000438458|67
03.10.2018 03:00:00||AKTİFBANK|10.40.24.168|||110000438458|30
03.10.2018 03:00:00||AKTİFBANK|10.40.24.169|||110000438458|58
03.10.2018 03:00:00||AKTİFBANK|10.40.24.169|||110000438458|86
03.10.2018 03:00:00||AKTİFBANK|10.40.24.169|||110000438458|67
03.10.2018 03:00:00||AKTİFBANK|10.40.24.169|||110000438458|76
03.10.2018 03:00:00||AKTİFBANK|10.40.24.170|||110000438458|58
03.10.2018 03:00:00||AKTİFBANK|10.40.24.170|||110000438458|58
03.10.2018 03:00:00||AKTİFBANK|10.40.24.170|||110000438458|312
03.10.2018 03:00:00||AKTİFBANK|10.40.24.170|||110000438458|76
03.10.2018 03:00:00||AKTİFBANK|10.40.24.170|||110000438458|95
03.10.2018 03:00:00||AKTİFBANK|10.40.24.170|||110000438458|58
03.10.2018 03:00:00||AKTİFBANK|10.40.24.171|||110000438458|2
03.10.2018 03:00:00||AKTİFBANK|10.40.24.171|||110000438458|11
03.10.2018 03:00:00||AKTİFBANK|10.40.24.172|||110000438458|58
03.10.2018 03:00:00||AKTİFBANK|10.40.24.172|||110000438458|34
03.10.2018 03:00:00||AKTİFBANK|10.40.24.173|||110000438458|46
03.10.2018 03:00:00||AKTİFBANK|10.40.24.173|||110000438458|46
03.10.2018 03:00:00||AKTİFBANK|10.40.24.174|||110000438458|55
03.10.2018 03:00:00||AKTİFBANK|10.40.24.174|||110000438458|2
03.10.2018 03:00:00||AKTİFBANK|10.40.24.178|||110000438458|519
03.10.2018 03:00:00||AKTİFBANK|10.40.24.178|||110000438458|500
03.10.2018 03:00:00||AKTİFBANK|10.40.24.178|||110000438458|491
03.10.2018 03:00:00||AKTİFBANK|10.40.24.179|||110000438458|340
03.10.2018 03:00:00||AKTİFBANK|10.40.24.179|||110000438458|349
03.10.2018 03:00:00||AKTİFBANK|10.40.24.179|||110000438458|340
03.10.2018 03:00:00||AKTİFBANK|10.40.24.186|||110000438458|86
03.10.2018 03:00:00||AKTİFBANK|10.40.24.186|||110000438458|20
03.10.2018 03:00:00||AKTİFBANK|10.40.24.186|||110000438458|58
03.10.2018 03:00:00||AKTİFBANK|10.40.24.186|||110000438458|39
03.10.2018 03:00:00||AKTİFBANK|10.40.25.128|||110000438458|70
03.10.2018 03:00:00||AKTİFBANK|10.40.25.128|||110000438458|90
03.10.2018 03:00:00||AKTİFBANK|10.40.25.128|||110000438458|40
03.10.2018 03:00:00||AKTİFBANK|10.40.25.128|||110000438458|70
03.10.2018 03:00:00||AKTİFBANK|10.40.25.129|||110000438458|80
03.10.2018 03:00:00||AKTİFBANK|10.40.25.129|||110000438458|80
03.10.2018 03:00:00||AKTİFBANK|10.40.25.129|||110000438458|129
03.10.2018 03:00:00||AKTİFBANK|10.40.25.129|||110000438458|99
03.10.2018 03:00:00||AKTİFBANK|10.40.25.129|||110000438458|40
03.10.2018 03:00:00||AKTİFBANK|10.40.25.129|||110000438458|90
03.10.2018 03:00:00||AKTİFBANK|10.40.25.129|||110000438458|70
03.10.2018 03:00:00||AKTİFBANK|10.40.25.129|||110000438458|80
03.10.2018 03:00:00||AKTİFBANK|10.40.25.129|||110000438458|138
03.10.2018 03:00:00||AKTİFBANK|10.40.25.129|||110000438458|99
03.10.2018 03:00:00||AKTİFBANK|10.40.25.130|||110000438458|69
03.10.2018 03:00:00||AKTİFBANK|10.40.25.130|||110000438458|50
03.10.2018 03:00:00||AKTİFBANK|10.40.25.130|||110000438458|69
03.10.2018 03:00:00||AKTİFBANK|10.40.25.130|||110000438458|30
03.10.2018 03:00:00||AKTİFBANK|10.40.25.130|||110000438458|60
03.10.2018 03:00:00||AKTİFBANK|10.40.25.130|||110000438458|99
03.10.2018 03:00:00||AKTİFBANK|10.40.25.130|||110000438458|79
03.10.2018 03:00:00||AKTİFBANK|10.40.25.130|||110000438458|60
03.10.2018 03:00:00||AKTİFBANK|10.40.25.130|||110000438458|119
03.10.2018 03:00:00||AKTİFBANK|10.40.25.130|||110000438458|99
03.10.2018 03:00:00||AKTİFBANK|10.40.25.131|||110000438458|89
03.10.2018 03:00:00||AKTİFBANK|10.40.25.131|||110000438458|99
03.10.2018 03:00:00||AKTİFBANK|10.40.25.131|||110000438458|109
03.10.2018 03:00:00||AKTİFBANK|10.40.25.131|||110000438458|79
03.10.2018 03:00:00||AKTİFBANK|10.40.25.131|||110000438458|79
03.10.2018 03:00:00||AKTİFBANK|10.40.25.131|||110000438458|20
03.10.2018 03:00:00||AKTİFBANK|10.40.25.131|||110000438458|119
03.10.2018 03:00:00||AKTİFBANK|10.40.25.131|||110000438458|50
03.10.2018 03:00:00||AKTİFBANK|10.40.25.132|||110000438458|60
03.10.2018 03:00:00||AKTİFBANK|10.40.25.132|||110000438458|69
03.10.2018 03:00:00||AKTİFBANK|10.40.25.132|||110000438458|79
03.10.2018 03:00:00||AKTİFBANK|10.40.25.132|||110000438458|168
03.10.2018 03:00:00||AKTİFBANK|10.40.25.132|||110000438458|60
03.10.2018 03:00:00||AKTİFBANK|10.40.25.133|||110000438458|148
03.10.2018 03:00:00||AKTİFBANK|10.40.25.133|||110000438458|276
03.10.2018 03:00:00||AKTİFBANK|10.40.25.133|||110000438458|109
03.10.2018 03:00:00||AKTİFBANK|10.40.25.133|||110000438458|60
03.10.2018 03:00:00||AKTİFBANK|10.40.25.133|||110000438458|89
03.10.2018 03:00:00||AKTİFBANK|10.40.25.134|||110000438458|63
03.10.2018 03:00:00||AKTİFBANK|10.40.25.134|||110000438458|31
03.10.2018 03:00:00||AKTİFBANK|10.40.25.135|||110000438458|30
03.10.2018 03:00:00||AKTİFBANK|10.40.25.135|||110000438458|63
03.10.2018 03:00:00||AKTİFBANK|10.40.25.137|||110000438458|58
03.10.2018 03:00:00||AKTİFBANK|10.40.25.138|||110000438458|89
03.10.2018 03:00:00||AKTİFBANK|10.40.25.138|||110000438458|69
03.10.2018 03:00:00||AKTİFBANK|10.40.25.138|||110000438458|79
03.10.2018 03:00:00||AKTİFBANK|10.40.25.138|||110000438458|128
03.10.2018 03:00:00||AKTİFBANK|10.40.25.138|||110000438458|40
03.10.2018 03:00:00||AKTİFBANK|10.40.25.138|||110000438458|10
03.10.2018 03:00:00||AKTİFBANK|10.40.25.139|||110000438458|40
03.10.2018 03:00:00||AKTİFBANK|10.40.25.139|||110000438458|10
03.10.2018 03:00:00||AKTİFBANK|10.40.25.139|||110000438458|10
03.10.2018 03:00:00||AKTİFBANK|10.40.25.139|||110000438458|20
03.10.2018 03:00:00||AKTİFBANK|10.40.25.139|||110000438458|69
03.10.2018 03:00:00||AKTİFBANK|10.40.25.139|||110000438458|79
03.10.2018 03:00:00||AKTİFBANK|10.40.25.139|||110000438458|99
03.10.2018 03:00:00||AKTİFBANK|10.40.25.140|||110000438458|79
03.10.2018 03:00:00||AKTİFBANK|10.40.25.140|||110000438458|69
03.10.2018 03:00:00||AKTİFBANK|10.40.25.140|||110000438458|30
03.10.2018 03:00:00||AKTİFBANK|10.40.25.140|||110000438458|30
03.10.2018 03:00:00||AKTİFBANK|10.40.25.140|||110000438458|30
03.10.2018 03:00:00||AKTİFBANK|10.40.25.141|||110000438458|40
03.10.2018 03:00:00||AKTİFBANK|10.40.25.141|||110000438458|99
03.10.2018 03:00:00||AKTİFBANK|10.40.25.141|||110000438458|99
03.10.2018 03:00:00||AKTİFBANK|10.40.25.141|||110000438458|99
03.10.2018 03:00:00||AKTİFBANK|10.40.25.141|||110000438458|89
03.10.2018 03:00:00||AKTİFBANK|10.40.25.141|||110000438458|69
03.10.2018 03:00:00||AKTİFBANK|10.40.25.142|||110000438458|30
03.10.2018 03:00:00||AKTİFBANK|10.40.25.143|||110000438458|60
03.10.2018 03:00:00||AKTİFBANK|10.40.25.143|||110000438458|236
03.10.2018 03:00:00||AKTİFBANK|10.40.25.143|||110000438458|256
03.10.2018 03:00:00||AKTİFBANK|10.40.25.143|||110000438458|305
03.10.2018 03:00:00||AKTİFBANK|10.40.25.144|||110000438458|69
03.10.2018 03:00:00||AKTİFBANK|10.40.25.144|||110000438458|50
03.10.2018 03:00:00||AKTİFBANK|10.40.25.144|||110000438458|60
03.10.2018 03:00:00||AKTİFBANK|10.40.25.145|||110000438458|89
03.10.2018 03:00:00||AKTİFBANK|10.40.25.145|||110000438458|60
03.10.2018 03:00:00||AKTİFBANK|10.40.25.145|||110000438458|60
03.10.2018 03:00:00||AKTİFBANK|10.40.25.145|||110000438458|30
03.10.2018 03:00:00||AKTİFBANK|10.40.25.145|||110000438458|50
03.10.2018 03:00:00||AKTİFBANK|10.40.25.147|||110000438458|89
03.10.2018 03:00:00||AKTİFBANK|10.40.25.148|||110000438458|128
03.10.2018 03:00:00||AKTİFBANK|10.40.25.148|||110000438458|50
03.10.2018 03:00:00||AKTİFBANK|10.40.25.148|||110000438458|99
03.10.2018 03:00:00||AKTİFBANK|10.40.25.148|||110000438458|128
03.10.2018 03:00:00||AKTİFBANK|10.40.25.148|||110000438458|89
03.10.2018 03:00:00||AKTİFBANK|10.40.25.148|||110000438458|79
03.10.2018 03:00:00||AKTİFBANK|10.40.25.148|||110000438458|69
03.10.2018 03:00:00||AKTİFBANK|10.40.25.148|||110000438458|50
03.10.2018 03:00:00||AKTİFBANK|10.40.25.148|||110000438458|79
03.10.2018 03:00:00||AKTİFBANK|10.40.25.148|||110000438458|40
03.10.2018 03:00:00||AKTİFBANK|10.40.25.148|||110000438458|98
03.10.2018 03:00:00||AKTİFBANK|10.40.25.148|||110000438458|59
03.10.2018 03:00:00||AKTİFBANK|10.40.25.149|||110000438458|59
03.10.2018 03:00:00||AKTİFBANK|10.40.25.149|||110000438458|108
03.10.2018 03:00:00||AKTİFBANK|10.40.25.149|||110000438458|89
03.10.2018 03:00:00||AKTİFBANK|10.40.25.149|||110000438458|69
03.10.2018 03:00:00||AKTİFBANK|10.40.25.149|||110000438458|89
03.10.2018 03:00:00||AKTİFBANK|10.40.25.149|||110000438458|40
03.10.2018 03:00:00||AKTİFBANK|10.40.25.149|||110000438458|79
03.10.2018 03:00:00||AKTİFBANK|10.40.25.149|||110000438458|69
03.10.2018 03:00:00||AKTİFBANK|10.40.25.149|||110000438458|127
03.10.2018 03:00:00||AKTİFBANK|10.40.25.149|||110000438458|108
03.10.2018 03:00:00||AKTİFBANK|10.40.25.149|||110000438458|89
03.10.2018 03:00:00||AKTİFBANK|10.40.25.149|||110000438458|89
03.10.2018 03:00:00||AKTİFBANK|10.40.25.149|||110000438458|98
03.10.2018 03:00:00||AKTİFBANK|10.40.25.149|||110000438458|69
03.10.2018 03:00:00||AKTİFBANK|10.40.25.150|||110000438458|566
03.10.2018 03:00:00||AKTİFBANK|10.40.25.150|||110000438458|517
03.10.2018 03:00:00||AKTİFBANK|10.40.25.150|||110000438458|556
03.10.2018 03:00:00||AKTİFBANK|10.40.25.151|||110000438458|537
03.10.2018 03:00:00||AKTİFBANK|10.40.25.151|||110000438458|498
03.10.2018 03:00:00||AKTİFBANK|10.40.25.151|||110000438458|517
03.10.2018 03:00:00||AKTİFBANK|10.40.25.152|||110000438458|118
03.10.2018 03:00:00||AKTİFBANK|10.40.25.152|||110000438458|40
03.10.2018 03:00:00||AKTİFBANK|10.40.25.152|||110000438458|137
03.10.2018 03:00:00||AKTİFBANK|10.40.25.152|||110000438458|69
03.10.2018 03:00:00||AKTİFBANK|10.40.25.152|||110000438458|89
03.10.2018 03:00:00||AKTİFBANK|10.40.25.152|||110000438458|49
03.10.2018 03:00:00||AKTİFBANK|10.40.25.152|||110000438458|89
03.10.2018 03:00:00||AKTİFBANK|10.40.25.152|||110000438458|30
03.10.2018 03:00:00||AKTİFBANK|10.40.25.152|||110000438458|79
03.10.2018 03:00:00||AKTİFBANK|10.40.25.152|||110000438458|30
03.10.2018 03:00:00||AKTİFBANK|10.40.25.153|||110000438458|10
03.10.2018 03:00:00||AKTİFBANK|10.40.25.153|||110000438458|79
03.10.2018 03:00:00||AKTİFBANK|10.40.25.153|||110000438458|59
03.10.2018 03:00:00||AKTİFBANK|10.40.25.153|||110000438458|69
03.10.2018 03:00:00||AKTİFBANK|10.40.25.154|||110000438458|10
03.10.2018 03:00:00||AKTİFBANK|10.40.25.154|||110000438458|10
03.10.2018 03:00:00||AKTİFBANK|10.40.25.154|||110000438458|10
03.10.2018 03:00:00||AKTİFBANK|10.40.25.155|||110000438458|69
03.10.2018 03:00:00||AKTİFBANK|10.40.25.155|||110000438458|89
03.10.2018 03:00:00||AKTİFBANK|10.40.25.155|||110000438458|108
03.10.2018 03:00:00||AKTİFBANK|10.40.25.155|||110000438458|118
03.10.2018 03:00:00||AKTİFBANK|10.40.25.155|||110000438458|108
03.10.2018 03:00:00||AKTİFBANK|10.40.25.157|||110000438458|69
03.10.2018 03:00:00||AKTİFBANK|10.40.25.157|||110000438458|69
03.10.2018 03:00:00||AKTİFBANK|10.40.25.157|||110000438458|69
03.10.2018 03:00:00||AKTİFBANK|10.40.25.157|||110000438458|79
03.10.2018 03:00:00||AKTİFBANK|10.40.25.157|||110000438458|40
03.10.2018 03:00:00||AKTİFBANK|10.40.25.158|||110000438458|118
03.10.2018 03:00:00||AKTİFBANK|10.40.25.158|||110000438458|49
03.10.2018 03:00:00||AKTİFBANK|10.40.25.159|||110000438458|59
03.10.2018 03:00:00||AKTİFBANK|10.40.25.159|||110000438458|10
03.10.2018 03:00:00||AKTİFBANK|10.40.25.159|||110000438458|89
03.10.2018 03:00:00||AKTİFBANK|10.40.25.160|||110000438458|89
03.10.2018 03:00:00||AKTİFBANK|10.40.25.160|||110000438458|108
03.10.2018 03:00:00||AKTİFBANK|10.40.25.161|||110000438458|79
03.10.2018 03:00:00||AKTİFBANK|10.40.25.161|||110000438458|69
03.10.2018 03:00:00||AKTİFBANK|10.40.25.161|||110000438458|40
03.10.2018 03:00:00||AKTİFBANK|10.40.25.161|||110000438458|30
03.10.2018 03:00:00||AKTİFBANK|10.40.25.161|||110000438458|20
03.10.2018 03:00:00||AKTİFBANK|10.40.25.161|||110000438458|49
03.10.2018 03:00:00||AKTİFBANK|10.40.25.162|||110000438458|30
03.10.2018 03:00:00||AKTİFBANK|10.40.25.162|||110000438458|30
03.10.2018 03:00:00||AKTİFBANK|10.40.25.162|||110000438458|59
03.10.2018 03:00:00||AKTİFBANK|10.40.25.162|||110000438458|49
03.10.2018 03:00:00||AKTİFBANK|10.40.25.162|||110000438458|30
03.10.2018 03:00:00||AKTİFBANK|10.40.25.162|||110000438458|40
03.10.2018 03:00:00||AKTİFBANK|10.40.25.163|||110000438458|40
03.10.2018 03:00:00||AKTİFBANK|10.40.25.164|||110000438458|59
03.10.2018 03:00:00||AKTİFBANK|10.40.25.164|||110000438458|274
03.10.2018 03:00:00||AKTİFBANK|10.40.25.164|||110000438458|49
03.10.2018 03:00:00||AKTİFBANK|10.40.25.164|||110000438458|254
03.10.2018 03:00:00||AKTİFBANK|10.40.25.164|||110000438458|264
03.10.2018 03:00:00||AKTİFBANK|10.40.25.165|||110000438458|137
03.10.2018 03:00:00||AKTİFBANK|10.40.25.165|||110000438458|69
03.10.2018 03:00:00||AKTİFBANK|10.40.25.165|||110000438458|69
03.10.2018 03:00:00||AKTİFBANK|10.40.25.165|||110000438458|98
03.10.2018 03:00:00||AKTİFBANK|10.40.25.166|||110000438458|40
03.10.2018 03:00:00||AKTİFBANK|10.40.25.166|||110000438458|89
03.10.2018 03:00:00||AKTİFBANK|10.40.25.168|||110000438458|89
03.10.2018 03:00:00||AKTİFBANK|10.40.25.168|||110000438458|69
03.10.2018 03:00:00||AKTİFBANK|10.40.25.168|||110000438458|49
03.10.2018 03:00:00||AKTİFBANK|10.40.25.168|||110000438458|40
03.10.2018 03:00:00||AKTİFBANK|10.40.25.168|||110000438458|59
03.10.2018 03:00:00||AKTİFBANK|10.40.25.169|||110000438458|89
03.10.2018 03:00:00||AKTİFBANK|10.40.25.169|||110000438458|89
03.10.2018 03:00:00||AKTİFBANK|10.40.25.169|||110000438458|69
03.10.2018 03:00:00||AKTİFBANK|10.40.25.169|||110000438458|98
03.10.2018 03:00:00||AKTİFBANK|10.40.25.170|||110000438458|30
03.10.2018 03:00:00||AKTİFBANK|10.40.25.170|||110000438458|30
03.10.2018 03:00:00||AKTİFBANK|10.40.25.170|||110000438458|225
03.10.2018 03:00:00||AKTİFBANK|10.40.25.170|||110000438458|98
03.10.2018 03:00:00||AKTİFBANK|10.40.25.170|||110000438458|79
03.10.2018 03:00:00||AKTİFBANK|10.40.25.170|||110000438458|108
03.10.2018 03:00:00||AKTİFBANK|10.40.25.171|||110000438458|1
03.10.2018 03:00:00||AKTİFBANK|10.40.25.171|||110000438458|11
03.10.2018 03:00:00||AKTİFBANK|10.40.25.172|||110000438458|27
03.10.2018 03:00:00||AKTİFBANK|10.40.25.172|||110000438458|61
03.10.2018 03:00:00||AKTİFBANK|10.40.25.173|||110000438458|33
03.10.2018 03:00:00||AKTİFBANK|10.40.25.173|||110000438458|61
03.10.2018 03:00:00||AKTİFBANK|10.40.25.174|||110000438458|52
03.10.2018 03:00:00||AKTİFBANK|10.40.25.178|||110000438458|547
03.10.2018 03:00:00||AKTİFBANK|10.40.25.178|||110000438458|547
03.10.2018 03:00:00||AKTİFBANK|10.40.25.178|||110000438458|537
03.10.2018 03:00:00||AKTİFBANK|10.40.25.179|||110000438458|381
03.10.2018 03:00:00||AKTİFBANK|10.40.25.179|||110000438458|323
03.10.2018 03:00:00||AKTİFBANK|10.40.25.179|||110000438458|303
03.10.2018 03:00:00||AKTİFBANK|10.40.25.186|||110000438458|94
03.10.2018 03:00:00||AKTİFBANK|10.40.25.186|||110000438458|20
03.10.2018 03:00:00||AKTİFBANK|10.40.25.186|||110000438458|73
03.10.2018 03:00:00||BOYNER|10.40.26.100|||101367941673|41
03.10.2018 03:00:00||BOYNER|10.40.26.100|||101367941673|17
03.10.2018 03:00:00||BOYNER|10.40.26.101|||101367941673|26
03.10.2018 03:00:00||BOYNER|10.40.26.101|||101367941673|132
03.10.2018 03:00:00||BOYNER|10.40.26.94|||101367941673|88
03.10.2018 03:00:00||BOYNER|10.40.26.94|||101367941673|78
03.10.2018 03:00:00||BOYNER|10.40.26.94|||101367941673|78
03.10.2018 03:00:00||BOYNER|10.40.26.95|||101367941673|88
03.10.2018 03:00:00||BOYNER|10.40.26.95|||101367941673|194
03.10.2018 03:00:00||BOYNER|10.40.26.95|||101367941673|136
03.10.2018 03:00:00||BOYNER|10.40.26.96|||101367941673|30
03.10.2018 03:00:00||BOYNER|10.40.26.96|||101367941673|39
03.10.2018 03:00:00||BOYNER|10.40.26.96|||101367941673|30
03.10.2018 03:00:00||BOYNER|10.40.26.96|||101367941673|39
03.10.2018 03:00:00||BOYNER|10.40.26.96|||101367941673|39
03.10.2018 03:00:00||BOYNER|10.40.26.96|||101367941673|49
03.10.2018 03:00:00||BOYNER|10.40.26.96|||101367941673|175
03.10.2018 03:00:00||BOYNER|10.40.26.96|||101367941673|204
03.10.2018 03:00:00||BOYNER|10.40.26.96|||101367941673|155
03.10.2018 03:00:00||BOYNER|10.40.26.96|||101367941673|175
03.10.2018 03:00:00||BOYNER|10.40.26.97|||101367941673|30
03.10.2018 03:00:00||BOYNER|10.40.26.97|||101367941673|640
03.10.2018 03:00:00||BOYNER|10.40.26.97|||101367941673|630
03.10.2018 03:00:00||BOYNER|10.40.26.97|||101367941673|640
03.10.2018 03:00:00||BOYNER|10.40.26.97|||101367941673|30
03.10.2018 03:00:00||BOYNER|10.40.26.97|||101367941673|39
03.10.2018 03:00:00||BOYNER|10.40.26.97|||101367941673|49
03.10.2018 03:00:00||BOYNER|10.40.26.97|||101367941673|59
03.10.2018 03:00:00||BOYNER|10.40.26.97|||101367941673|30
03.10.2018 03:00:00||BOYNER|10.40.26.97|||101367941673|146
03.10.2018 03:00:00||BOYNER|10.40.26.97|||101367941673|175
03.10.2018 03:00:00||BOYNER|10.40.26.97|||101367941673|165
03.10.2018 03:00:00||BOYNER|10.40.26.97|||101367941673|165
03.10.2018 03:00:00||BOYNER|10.40.26.99|||101367941673|20
03.10.2018 03:00:00||BOYNER|10.40.26.99|||101367941673|107
03.10.2018 03:00:00||BOYNER|10.40.26.99|||101367941673|107
03.10.2018 03:00:00||BOYNER|10.40.26.99|||101367941673|59
03.10.2018 03:00:00||BOYNER|10.40.27.100|||101367941673|16
03.10.2018 03:00:00||BOYNER|10.40.27.100|||101367941673|35
03.10.2018 03:00:00||BOYNER|10.40.27.101|||101367941673|130
03.10.2018 03:00:00||BOYNER|10.40.27.101|||101367941673|28
03.10.2018 03:00:00||BOYNER|10.40.27.94|||101367941673|217
03.10.2018 03:00:00||BOYNER|10.40.27.94|||101367941673|92
03.10.2018 03:00:00||BOYNER|10.40.27.94|||101367941673|92
03.10.2018 03:00:00||BOYNER|10.40.27.94|||101367941673|103
03.10.2018 03:00:00||BOYNER|10.40.27.95|||101367941673|134
03.10.2018 03:00:00||BOYNER|10.40.27.95|||101367941673|134
03.10.2018 03:00:00||BOYNER|10.40.27.95|||101367941673|248
03.10.2018 03:00:00||BOYNER|10.40.27.96|||101367941673|61
03.10.2018 03:00:00||BOYNER|10.40.27.96|||101367941673|51
03.10.2018 03:00:00||BOYNER|10.40.27.96|||101367941673|51
03.10.2018 03:00:00||BOYNER|10.40.27.96|||101367941673|41
03.10.2018 03:00:00||BOYNER|10.40.27.96|||101367941673|41
03.10.2018 03:00:00||BOYNER|10.40.27.96|||101367941673|144
03.10.2018 03:00:00||BOYNER|10.40.27.96|||101367941673|144
03.10.2018 03:00:00||BOYNER|10.40.27.96|||101367941673|175
03.10.2018 03:00:00||BOYNER|10.40.27.96|||101367941673|165
03.10.2018 03:00:00||BOYNER|10.40.27.97|||101367941673|61
03.10.2018 03:00:00||BOYNER|10.40.27.97|||101367941673|682
03.10.2018 03:00:00||BOYNER|10.40.27.97|||101367941673|692
03.10.2018 03:00:00||BOYNER|10.40.27.97|||101367941673|713
03.10.2018 03:00:00||BOYNER|10.40.27.97|||101367941673|51
03.10.2018 03:00:00||BOYNER|10.40.27.97|||101367941673|41
03.10.2018 03:00:00||BOYNER|10.40.27.97|||101367941673|51
03.10.2018 03:00:00||BOYNER|10.40.27.97|||101367941673|30
03.10.2018 03:00:00||BOYNER|10.40.27.97|||101367941673|175
03.10.2018 03:00:00||BOYNER|10.40.27.97|||101367941673|185
03.10.2018 03:00:00||BOYNER|10.40.27.97|||101367941673|206
03.10.2018 03:00:00||BOYNER|10.40.27.97|||101367941673|206
03.10.2018 03:00:00||BOYNER|10.40.27.99|||101367941673|123
03.10.2018 03:00:00||BOYNER|10.40.27.99|||101367941673|103
03.10.2018 03:00:00||BOYNER|10.40.27.99|||101367941673|72
03.10.2018 03:00:00||ÇALIK HOLDİNG|10.40.24.100|||110000438408|30
03.10.2018 03:00:00||ÇALIK HOLDİNG|10.40.24.100|||110000438408|40
03.10.2018 03:00:00||ÇALIK HOLDİNG|10.40.24.101|||110000438408|61
03.10.2018 03:00:00||ÇALIK HOLDİNG|10.40.24.101|||110000438408|112
03.10.2018 03:00:00||ÇALIK HOLDİNG|10.40.24.101|||110000438408|20
03.10.2018 03:00:00||ÇALIK HOLDİNG|10.40.24.101|||110000438408|20
03.10.2018 03:00:00||ÇALIK HOLDİNG|10.40.24.101|||110000438408|40
03.10.2018 03:00:00||ÇALIK HOLDİNG|10.40.24.101|||110000438408|92
03.10.2018 03:00:00||ÇALIK HOLDİNG|10.40.24.101|||110000438408|30
03.10.2018 03:00:00||ÇALIK HOLDİNG|10.40.24.101|||110000438408|10
03.10.2018 03:00:00||ÇALIK HOLDİNG|10.40.24.101|||110000438408|20
03.10.2018 03:00:00||ÇALIK HOLDİNG|10.40.24.101|||110000438408|51
03.10.2018 03:00:00||ÇALIK HOLDİNG|10.40.24.101|||110000438408|30
03.10.2018 03:00:00||ÇALIK HOLDİNG|10.40.24.101|||110000438408|82
03.10.2018 03:00:00||ÇALIK HOLDİNG|10.40.24.101|||110000438408|82
03.10.2018 03:00:00||ÇALIK HOLDİNG|10.40.24.101|||110000438408|102
03.10.2018 03:00:00||ÇALIK HOLDİNG|10.40.24.102|||110000438408|102
03.10.2018 03:00:00||ÇALIK HOLDİNG|10.40.24.102|||110000438408|102
03.10.2018 03:00:00||ÇALIK HOLDİNG|10.40.24.102|||110000438408|143
03.10.2018 03:00:00||ÇALIK HOLDİNG|10.40.24.103|||110000438408|102
03.10.2018 03:00:00||ÇALIK HOLDİNG|10.40.24.103|||110000438408|82
03.10.2018 03:00:00||ÇALIK HOLDİNG|10.40.24.103|||110000438408|82
03.10.2018 03:00:00||ÇALIK HOLDİNG|10.40.24.103|||110000438408|20
03.10.2018 03:00:00||ÇALIK HOLDİNG|10.40.24.103|||110000438408|20
03.10.2018 03:00:00||ÇALIK HOLDİNG|10.40.24.113|||110000438408|215
03.10.2018 03:00:00||ÇALIK HOLDİNG|10.40.24.113|||110000438408|235
03.10.2018 03:00:00||ÇALIK HOLDİNG|10.40.24.113|||110000438408|205
03.10.2018 03:00:00||ÇALIK HOLDİNG|10.40.24.113|||110000438408|153
03.10.2018 03:00:00||ÇALIK HOLDİNG|10.40.24.114|||110000438408|20
03.10.2018 03:00:00||ÇALIK HOLDİNG|10.40.24.114|||110000438408|40
03.10.2018 03:00:00||ÇALIK HOLDİNG|10.40.24.114|||110000438408|184
03.10.2018 03:00:00||ÇALIK HOLDİNG|10.40.24.114|||110000438408|379
03.10.2018 03:00:00||ÇALIK HOLDİNG|10.40.24.115|||110000438408|143
03.10.2018 03:00:00||ÇALIK HOLDİNG|10.40.24.115|||110000438408|82
03.10.2018 03:00:00||ÇALIK HOLDİNG|10.40.24.115|||110000438408|92
03.10.2018 03:00:00||ÇALIK HOLDİNG|10.40.24.115|||110000438408|71
03.10.2018 03:00:00||ÇALIK HOLDİNG|10.40.24.115|||110000438408|92
03.10.2018 03:00:00||ÇALIK HOLDİNG|10.40.24.115|||110000438408|71
03.10.2018 03:00:00||ÇALIK HOLDİNG|10.40.24.116|||110000438408|277
03.10.2018 03:00:00||ÇALIK HOLDİNG|10.40.24.116|||110000438408|112
03.10.2018 03:00:00||ÇALIK HOLDİNG|10.40.24.116|||110000438408|92
03.10.2018 03:00:00||ÇALIK HOLDİNG|10.40.24.117|||110000438408|205
03.10.2018 03:00:00||ÇALIK HOLDİNG|10.40.24.117|||110000438408|30
03.10.2018 03:00:00||ÇALIK HOLDİNG|10.40.24.117|||110000438408|30
03.10.2018 03:00:00||ÇALIK HOLDİNG|10.40.24.118|||110000438408|43
03.10.2018 03:00:00||ÇALIK HOLDİNG|10.40.24.119|||110000438408|153
03.10.2018 03:00:00||ÇALIK HOLDİNG|10.40.24.119|||110000438408|30
03.10.2018 03:00:00||ÇALIK HOLDİNG|10.40.24.119|||110000438408|51
03.10.2018 03:00:00||ÇALIK HOLDİNG|10.40.24.120|||110000438408|20
03.10.2018 03:00:00||ÇALIK HOLDİNG|10.40.24.120|||110000438408|30
03.10.2018 03:00:00||ÇALIK HOLDİNG|10.40.24.120|||110000438408|112
03.10.2018 03:00:00||ÇALIK HOLDİNG|10.40.24.120|||110000438408|10
03.10.2018 03:00:00||ÇALIK HOLDİNG|10.40.24.120|||110000438408|20
03.10.2018 03:00:00||ÇALIK HOLDİNG|10.40.24.120|||110000438408|102
03.10.2018 03:00:00||ÇALIK HOLDİNG|10.40.24.120|||110000438408|40
03.10.2018 03:00:00||ÇALIK HOLDİNG|10.40.24.120|||110000438408|82
03.10.2018 03:00:00||ÇALIK HOLDİNG|10.40.24.120|||110000438408|82
03.10.2018 03:00:00||ÇALIK HOLDİNG|10.40.24.120|||110000438408|71
03.10.2018 03:00:00||ÇALIK HOLDİNG|10.40.24.121|||110000438408|102
03.10.2018 03:00:00||ÇALIK HOLDİNG|10.40.24.121|||110000438408|102
03.10.2018 03:00:00||ÇALIK HOLDİNG|10.40.24.121|||110000438408|153
03.10.2018 03:00:00||ÇALIK HOLDİNG|10.40.24.122|||110000438408|92
03.10.2018 03:00:00||ÇALIK HOLDİNG|10.40.24.122|||110000438408|82
03.10.2018 03:00:00||ÇALIK HOLDİNG|10.40.24.122|||110000438408|92
03.10.2018 03:00:00||ÇALIK HOLDİNG|10.40.24.122|||110000438408|30
03.10.2018 03:00:00||ÇALIK HOLDİNG|10.40.24.122|||110000438408|10
03.10.2018 03:00:00||ÇALIK HOLDİNG|10.40.24.94|||110000438408|204
03.10.2018 03:00:00||ÇALIK HOLDİNG|10.40.24.94|||110000438408|175
03.10.2018 03:00:00||ÇALIK HOLDİNG|10.40.24.94|||110000438408|184
03.10.2018 03:00:00||ÇALIK HOLDİNG|10.40.24.94|||110000438408|194
03.10.2018 03:00:00||ÇALIK HOLDİNG|10.40.24.95|||110000438408|97
03.10.2018 03:00:00||ÇALIK HOLDİNG|10.40.24.95|||110000438408|49
03.10.2018 03:00:00||ÇALIK HOLDİNG|10.40.24.95|||110000438408|20
03.10.2018 03:00:00||ÇALIK HOLDİNG|10.40.24.95|||110000438408|88
03.10.2018 03:00:00||ÇALIK HOLDİNG|10.40.24.95|||110000438408|427
03.10.2018 03:00:00||ÇALIK HOLDİNG|10.40.24.95|||110000438408|388
03.10.2018 03:00:00||ÇALIK HOLDİNG|10.40.24.97|||110000438408|99
03.10.2018 03:00:00||ÇALIK HOLDİNG|10.40.24.97|||110000438408|90
03.10.2018 03:00:00||ÇALIK HOLDİNG|10.40.24.97|||110000438408|80
03.10.2018 03:00:00||ÇALIK HOLDİNG|10.40.24.97|||110000438408|90
03.10.2018 03:00:00||ÇALIK HOLDİNG|10.40.24.97|||110000438408|307
03.10.2018 03:00:00||ÇALIK HOLDİNG|10.40.24.98|||110000438408|90
03.10.2018 03:00:00||ÇALIK HOLDİNG|10.40.24.98|||110000438408|149
03.10.2018 03:00:00||ÇALIK HOLDİNG|10.40.24.98|||110000438408|198
03.10.2018 03:00:00||ÇALIK HOLDİNG|10.40.24.98|||110000438408|198
03.10.2018 03:00:00||ÇALIK HOLDİNG|10.40.24.98|||110000438408|159
03.10.2018 03:00:00||ÇALIK HOLDİNG|10.40.24.98|||110000438408|30
03.10.2018 03:00:00||ÇALIK HOLDİNG|10.40.24.98|||110000438408|159
03.10.2018 03:00:00||ÇALIK HOLDİNG|10.40.24.98|||110000438408|178
03.10.2018 03:00:00||ÇALIK HOLDİNG|10.40.24.98|||110000438408|169
03.10.2018 03:00:00||ÇALIK HOLDİNG|10.40.24.98|||110000438408|178
03.10.2018 03:00:00||ÇALIK HOLDİNG|10.40.24.98|||110000438408|20
03.10.2018 03:00:00||ÇALIK HOLDİNG|10.40.24.98|||110000438408|277
03.10.2018 03:00:00||ÇALIK HOLDİNG|10.40.25.100|||110000438408|40
03.10.2018 03:00:00||ÇALIK HOLDİNG|10.40.25.100|||110000438408|40
03.10.2018 03:00:00||ÇALIK HOLDİNG|10.40.25.101|||110000438408|50
03.10.2018 03:00:00||ÇALIK HOLDİNG|10.40.25.101|||110000438408|109
03.10.2018 03:00:00||ÇALIK HOLDİNG|10.40.25.101|||110000438408|30
03.10.2018 03:00:00||ÇALIK HOLDİNG|10.40.25.101|||110000438408|10
03.10.2018 03:00:00||ÇALIK HOLDİNG|10.40.25.101|||110000438408|80
03.10.2018 03:00:00||ÇALIK HOLDİNG|10.40.25.101|||110000438408|40
03.10.2018 03:00:00||ÇALIK HOLDİNG|10.40.25.101|||110000438408|40
03.10.2018 03:00:00||ÇALIK HOLDİNG|10.40.25.101|||110000438408|90
03.10.2018 03:00:00||ÇALIK HOLDİNG|10.40.25.101|||110000438408|90
03.10.2018 03:00:00||ÇALIK HOLDİNG|10.40.25.101|||110000438408|90
03.10.2018 03:00:00||ÇALIK HOLDİNG|10.40.25.102|||110000438408|99
03.10.2018 03:00:00||ÇALIK HOLDİNG|10.40.25.102|||110000438408|99
03.10.2018 03:00:00||ÇALIK HOLDİNG|10.40.25.102|||110000438408|149
03.10.2018 03:00:00||ÇALIK HOLDİNG|10.40.25.103|||110000438408|90
03.10.2018 03:00:00||ÇALIK HOLDİNG|10.40.25.103|||110000438408|90
03.10.2018 03:00:00||ÇALIK HOLDİNG|10.40.25.103|||110000438408|80
03.10.2018 03:00:00||ÇALIK HOLDİNG|10.40.25.113|||110000438408|218
03.10.2018 03:00:00||ÇALIK HOLDİNG|10.40.25.113|||110000438408|248
03.10.2018 03:00:00||ÇALIK HOLDİNG|10.40.25.113|||110000438408|178
03.10.2018 03:00:00||ÇALIK HOLDİNG|10.40.25.113|||110000438408|198
03.10.2018 03:00:00||ÇALIK HOLDİNG|10.40.25.114|||110000438408|178
03.10.2018 03:00:00||ÇALIK HOLDİNG|10.40.25.114|||110000438408|406
03.10.2018 03:00:00||ÇALIK HOLDİNG|10.40.25.114|||110000438408|40
03.10.2018 03:00:00||ÇALIK HOLDİNG|10.40.25.115|||110000438408|149
03.10.2018 03:00:00||ÇALIK HOLDİNG|10.40.25.115|||110000438408|70
03.10.2018 03:00:00||ÇALIK HOLDİNG|10.40.25.115|||110000438408|80
03.10.2018 03:00:00||ÇALIK HOLDİNG|10.40.25.115|||110000438408|80
03.10.2018 03:00:00||ÇALIK HOLDİNG|10.40.25.115|||110000438408|70
03.10.2018 03:00:00||ÇALIK HOLDİNG|10.40.25.115|||110000438408|70
03.10.2018 03:00:00||ÇALIK HOLDİNG|10.40.25.116|||110000438408|99
03.10.2018 03:00:00||ÇALIK HOLDİNG|10.40.25.116|||110000438408|99
03.10.2018 03:00:00||ÇALIK HOLDİNG|10.40.25.116|||110000438408|287
03.10.2018 03:00:00||ÇALIK HOLDİNG|10.40.25.117|||110000438408|238
03.10.2018 03:00:00||ÇALIK HOLDİNG|10.40.25.117|||110000438408|30
03.10.2018 03:00:00||ÇALIK HOLDİNG|10.40.25.117|||110000438408|30
03.10.2018 03:00:00||ÇALIK HOLDİNG|10.40.25.118|||110000438408|159
03.10.2018 03:00:00||ÇALIK HOLDİNG|10.40.25.119|||110000438408|30
03.10.2018 03:00:00||ÇALIK HOLDİNG|10.40.25.119|||110000438408|30
03.10.2018 03:00:00||ÇALIK HOLDİNG|10.40.25.120|||110000438408|109
03.10.2018 03:00:00||ÇALIK HOLDİNG|10.40.25.120|||110000438408|50
03.10.2018 03:00:00||ÇALIK HOLDİNG|10.40.25.120|||110000438408|60
03.10.2018 03:00:00||ÇALIK HOLDİNG|10.40.25.120|||110000438408|20
03.10.2018 03:00:00||ÇALIK HOLDİNG|10.40.25.120|||110000438408|30
03.10.2018 03:00:00||ÇALIK HOLDİNG|10.40.25.120|||110000438408|40
03.10.2018 03:00:00||ÇALIK HOLDİNG|10.40.25.120|||110000438408|90
03.10.2018 03:00:00||ÇALIK HOLDİNG|10.40.25.120|||110000438408|20
03.10.2018 03:00:00||ÇALIK HOLDİNG|10.40.25.120|||110000438408|90
03.10.2018 03:00:00||ÇALIK HOLDİNG|10.40.25.120|||110000438408|90
03.10.2018 03:00:00||ÇALIK HOLDİNG|10.40.25.121|||110000438408|90
03.10.2018 03:00:00||ÇALIK HOLDİNG|10.40.25.121|||110000438408|99
03.10.2018 03:00:00||ÇALIK HOLDİNG|10.40.25.121|||110000438408|139
03.10.2018 03:00:00||ÇALIK HOLDİNG|10.40.25.122|||110000438408|90
03.10.2018 03:00:00||ÇALIK HOLDİNG|10.40.25.122|||110000438408|80
03.10.2018 03:00:00||ÇALIK HOLDİNG|10.40.25.122|||110000438408|80
03.10.2018 03:00:00||ÇALIK HOLDİNG|10.40.25.94|||110000438408|189
03.10.2018 03:00:00||ÇALIK HOLDİNG|10.40.25.94|||110000438408|189
03.10.2018 03:00:00||ÇALIK HOLDİNG|10.40.25.94|||110000438408|178
03.10.2018 03:00:00||ÇALIK HOLDİNG|10.40.25.94|||110000438408|189
03.10.2018 03:00:00||ÇALIK HOLDİNG|10.40.25.95|||110000438408|105
03.10.2018 03:00:00||ÇALIK HOLDİNG|10.40.25.95|||110000438408|84
03.10.2018 03:00:00||ÇALIK HOLDİNG|10.40.25.95|||110000438408|400
03.10.2018 03:00:00||ÇALIK HOLDİNG|10.40.25.95|||110000438408|400
03.10.2018 03:00:00||ÇALIK HOLDİNG|10.40.25.95|||110000438408|41
03.10.2018 03:00:00||ÇALIK HOLDİNG|10.40.25.96|||110000438408|73
03.10.2018 03:00:00||ÇALIK HOLDİNG|10.40.25.96|||110000438408|94
03.10.2018 03:00:00||ÇALIK HOLDİNG|10.40.25.96|||110000438408|105
03.10.2018 03:00:00||ÇALIK HOLDİNG|10.40.25.96|||110000438408|94
03.10.2018 03:00:00||ÇALIK HOLDİNG|10.40.25.96|||110000438408|136
03.10.2018 03:00:00||ÇALIK HOLDİNG|10.40.25.96|||110000438408|105
03.10.2018 03:00:00||ÇALIK HOLDİNG|10.40.25.96|||110000438408|263
03.10.2018 03:00:00||ÇALIK HOLDİNG|10.40.25.96|||110000438408|273
03.10.2018 03:00:00||ÇALIK HOLDİNG|10.40.25.96|||110000438408|90
03.10.2018 03:00:00||ÇALIK HOLDİNG|10.40.25.96|||110000438408|90
03.10.2018 03:00:00||ÇALIK HOLDİNG|10.40.25.96|||110000438408|100
03.10.2018 03:00:00||ÇALIK HOLDİNG|10.40.25.96|||110000438408|90
03.10.2018 03:00:00||ÇALIK HOLDİNG|10.40.25.96|||110000438408|100
03.10.2018 03:00:00||ÇALIK HOLDİNG|10.40.25.96|||110000438408|90
03.10.2018 03:00:00||ÇALIK HOLDİNG|10.40.25.97|||110000438408|100
03.10.2018 03:00:00||ÇALIK HOLDİNG|10.40.25.97|||110000438408|80
03.10.2018 03:00:00||ÇALIK HOLDİNG|10.40.25.97|||110000438408|90
03.10.2018 03:00:00||ÇALIK HOLDİNG|10.40.25.97|||110000438408|80
03.10.2018 03:00:00||ÇALIK HOLDİNG|10.40.25.97|||110000438408|302
03.10.2018 03:00:00||ÇALIK HOLDİNG|10.40.25.98|||110000438408|50
03.10.2018 03:00:00||ÇALIK HOLDİNG|10.40.25.98|||110000438408|161
03.10.2018 03:00:00||ÇALIK HOLDİNG|10.40.25.98|||110000438408|161
03.10.2018 03:00:00||ÇALIK HOLDİNG|10.40.25.98|||110000438408|161
03.10.2018 03:00:00||ÇALIK HOLDİNG|10.40.25.98|||110000438408|161
03.10.2018 03:00:00||ÇALIK HOLDİNG|10.40.25.98|||110000438408|60
03.10.2018 03:00:00||ÇALIK HOLDİNG|10.40.25.98|||110000438408|211
03.10.2018 03:00:00||ÇALIK HOLDİNG|10.40.25.98|||110000438408|181
03.10.2018 03:00:00||ÇALIK HOLDİNG|10.40.25.98|||110000438408|171
03.10.2018 03:00:00||ÇALIK HOLDİNG|10.40.25.98|||110000438408|211
03.10.2018 03:00:00||ÇALIK HOLDİNG|10.40.25.98|||110000438408|70
03.10.2018 03:00:00||ÇALIK HOLDİNG|10.40.25.98|||110000438408|302
03.10.2018 03:00:00||ÇALIK HOLDİNG|10.40.25.99|||110000438408|71
03.10.2018 03:00:00||ÇALIK HOLDİNG|10.40.25.99|||110000438408|66
03.10.2018 03:00:00||FIBABANKA|10.40.24.51|||101571767266|20
03.10.2018 03:00:00||FIBABANKA|10.40.24.51|||101571767266|68
03.10.2018 03:00:00||FIBABANKA|10.40.24.51|||101571767266|97
03.10.2018 03:00:00||FIBABANKA|10.40.24.51|||101571767266|136
03.10.2018 03:00:00||FIBABANKA|10.40.24.51|||101571767266|30
03.10.2018 03:00:00||FIBABANKA|10.40.24.51|||101571767266|30
03.10.2018 03:00:00||FIBABANKA|10.40.24.52|||101571767266|10
03.10.2018 03:00:00||FIBABANKA|10.40.24.53|||101571767266|30
03.10.2018 03:00:00||FIBABANKA|10.40.24.53|||101571767266|59
03.10.2018 03:00:00||FIBABANKA|10.40.24.53|||101571767266|175
03.10.2018 03:00:00||FIBABANKA|10.40.24.53|||101571767266|204
03.10.2018 03:00:00||FIBABANKA|10.40.24.54|||101571767266|185
03.10.2018 03:00:00||FIBABANKA|10.40.24.54|||101571767266|187
03.10.2018 03:00:00||FIBABANKA|10.40.24.55|||101571767266|84
03.10.2018 03:00:00||FIBABANKA|10.40.24.55|||101571767266|23
03.10.2018 03:00:00||FIBABANKA|10.40.24.56|||101571767266|11
03.10.2018 03:00:00||FIBABANKA|10.40.24.56|||101571767266|179
03.10.2018 03:00:00||FIBABANKA|10.40.24.57|||101571767266|88
03.10.2018 03:00:00||FIBABANKA|10.40.24.57|||101571767266|78
03.10.2018 03:00:00||FIBABANKA|10.40.24.57|||101571767266|78
03.10.2018 03:00:00||FIBABANKA|10.40.24.59|||101571767266|68
03.10.2018 03:00:00||FIBABANKA|10.40.24.59|||101571767266|117
03.10.2018 03:00:00||FIBABANKA|10.40.24.59|||101571767266|68
03.10.2018 03:00:00||FIBABANKA|10.40.24.59|||101571767266|49
03.10.2018 03:00:00||FIBABANKA|10.40.24.59|||101571767266|126
03.10.2018 03:00:00||FIBABANKA|10.40.24.59|||101571767266|68
03.10.2018 03:00:00||FIBABANKA|10.40.24.59|||101571767266|59
03.10.2018 03:00:00||FIBABANKA|10.40.24.59|||101571767266|155
03.10.2018 03:00:00||FIBABANKA|10.40.24.59|||101571767266|59
03.10.2018 03:00:00||FIBABANKA|10.40.24.60|||101571767266|117
03.10.2018 03:00:00||FIBABANKA|10.40.24.60|||101571767266|49
03.10.2018 03:00:00||FIBABANKA|10.40.24.60|||101571767266|39
03.10.2018 03:00:00||FIBABANKA|10.40.24.60|||101571767266|97
03.10.2018 03:00:00||FIBABANKA|10.40.24.60|||101571767266|59
03.10.2018 03:00:00||FIBABANKA|10.40.24.72|||101571767266|136
03.10.2018 03:00:00||FIBABANKA|10.40.24.72|||101571767266|68
03.10.2018 03:00:00||FIBABANKA|10.40.24.72|||101571767266|30
03.10.2018 03:00:00||FIBABANKA|10.40.24.72|||101571767266|39
03.10.2018 03:00:00||FIBABANKA|10.40.24.74|||101571767266|30
03.10.2018 03:00:00||FIBABANKA|10.40.24.74|||101571767266|30
03.10.2018 03:00:00||FIBABANKA|10.40.24.75|||101571767266|184
03.10.2018 03:00:00||FIBABANKA|10.40.24.75|||101571767266|155
03.10.2018 03:00:00||FIBABANKA|10.40.24.75|||101571767266|155
03.10.2018 03:00:00||FIBABANKA|10.40.24.76|||101571767266|39
03.10.2018 03:00:00||FIBABANKA|10.40.24.76|||101571767266|68
03.10.2018 03:00:00||FIBABANKA|10.40.24.76|||101571767266|10
03.10.2018 03:00:00||FIBABANKA|10.40.25.51|||101571767266|20
03.10.2018 03:00:00||FIBABANKA|10.40.25.51|||101571767266|115
03.10.2018 03:00:00||FIBABANKA|10.40.25.51|||101571767266|136
03.10.2018 03:00:00||FIBABANKA|10.40.25.51|||101571767266|41
03.10.2018 03:00:00||FIBABANKA|10.40.25.51|||101571767266|41
03.10.2018 03:00:00||FIBABANKA|10.40.25.51|||101571767266|73
03.10.2018 03:00:00||FIBABANKA|10.40.25.52|||101571767266|10
03.10.2018 03:00:00||FIBABANKA|10.40.25.52|||101571767266|73
03.10.2018 03:00:00||FIBABANKA|10.40.25.53|||101571767266|41
03.10.2018 03:00:00||FIBABANKA|10.40.25.53|||101571767266|52
03.10.2018 03:00:00||FIBABANKA|10.40.25.53|||101571767266|168
03.10.2018 03:00:00||FIBABANKA|10.40.25.53|||101571767266|168
03.10.2018 03:00:00||FIBABANKA|10.40.25.54|||101571767266|97
03.10.2018 03:00:00||FIBABANKA|10.40.25.54|||101571767266|171
03.10.2018 03:00:00||FIBABANKA|10.40.25.55|||101571767266|93
03.10.2018 03:00:00||FIBABANKA|10.40.25.55|||101571767266|23
03.10.2018 03:00:00||FIBABANKA|10.40.25.56|||101571767266|11
03.10.2018 03:00:00||FIBABANKA|10.40.25.56|||101571767266|204
03.10.2018 03:00:00||FIBABANKA|10.40.25.57|||101571767266|94
03.10.2018 03:00:00||FIBABANKA|10.40.25.57|||101571767266|94
03.10.2018 03:00:00||FIBABANKA|10.40.25.57|||101571767266|94
03.10.2018 03:00:00||FIBABANKA|10.40.25.59|||101571767266|73
03.10.2018 03:00:00||FIBABANKA|10.40.25.59|||101571767266|94
03.10.2018 03:00:00||FIBABANKA|10.40.25.59|||101571767266|84
03.10.2018 03:00:00||FIBABANKA|10.40.25.59|||101571767266|41
03.10.2018 03:00:00||FIBABANKA|10.40.25.59|||101571767266|136
03.10.2018 03:00:00||FIBABANKA|10.40.25.59|||101571767266|73
03.10.2018 03:00:00||FIBABANKA|10.40.25.59|||101571767266|62
03.10.2018 03:00:00||FIBABANKA|10.40.25.59|||101571767266|168
03.10.2018 03:00:00||FIBABANKA|10.40.25.59|||101571767266|62
03.10.2018 03:00:00||FIBABANKA|10.40.25.60|||101571767266|115
03.10.2018 03:00:00||FIBABANKA|10.40.25.60|||101571767266|30
03.10.2018 03:00:00||FIBABANKA|10.40.25.60|||101571767266|115
03.10.2018 03:00:00||FIBABANKA|10.40.25.60|||101571767266|41
03.10.2018 03:00:00||FIBABANKA|10.40.25.72|||101571767266|73
03.10.2018 03:00:00||FIBABANKA|10.40.25.72|||101571767266|41
03.10.2018 03:00:00||FIBABANKA|10.40.25.72|||101571767266|30
03.10.2018 03:00:00||FIBABANKA|10.40.25.74|||101571767266|41
03.10.2018 03:00:00||FIBABANKA|10.40.25.74|||101571767266|30
03.10.2018 03:00:00||FIBABANKA|10.40.25.74|||101571767266|41
03.10.2018 03:00:00||FIBABANKA|10.40.25.74|||101571767266|41
03.10.2018 03:00:00||FIBABANKA|10.40.25.74|||101571767266|41
03.10.2018 03:00:00||FIBABANKA|10.40.25.75|||101571767266|10
03.10.2018 03:00:00||FIBABANKA|10.40.25.75|||101571767266|136
03.10.2018 03:00:00||FIBABANKA|10.40.25.75|||101571767266|168
03.10.2018 03:00:00||FIBABANKA|10.40.25.75|||101571767266|189
03.10.2018 03:00:00||FIBABANKA|10.40.25.75|||101571767266|200
03.10.2018 03:00:00||FIBABANKA|10.40.25.76|||101571767266|10
03.10.2018 03:00:00||FIBABANKA|10.40.25.76|||101571767266|62
03.10.2018 03:00:00||FIBABANKA|10.40.25.76|||101571767266|41
03.10.2018 03:00:00||FIBABANKA|10.40.25.76|||101571767266|10
03.10.2018 03:00:00||FIBABANKA|10.40.26.51|||101571767266|10
03.10.2018 03:00:00||FIBABANKA|10.40.26.51|||101571767266|20
03.10.2018 03:00:00||FIBABANKA|10.40.26.51|||101571767266|110
03.10.2018 03:00:00||FIBABANKA|10.40.26.51|||101571767266|140
03.10.2018 03:00:00||FIBABANKA|10.40.26.51|||101571767266|70
03.10.2018 03:00:00||FIBABANKA|10.40.26.51|||101571767266|30
03.10.2018 03:00:00||FIBABANKA|10.40.26.51|||101571767266|30
03.10.2018 03:00:00||FIBABANKA|10.40.26.52|||101571767266|30
03.10.2018 03:00:00||FIBABANKA|10.40.26.52|||101571767266|90
03.10.2018 03:00:00||FIBABANKA|10.40.26.52|||101571767266|30
03.10.2018 03:00:00||FIBABANKA|10.40.26.53|||101571767266|60
03.10.2018 03:00:00||FIBABANKA|10.40.26.53|||101571767266|50
03.10.2018 03:00:00||FIBABANKA|10.40.26.53|||101571767266|161
03.10.2018 03:00:00||FIBABANKA|10.40.26.53|||101571767266|181
03.10.2018 03:00:00||FIBABANKA|10.40.26.54|||101571767266|176
03.10.2018 03:00:00||FIBABANKA|10.40.26.54|||101571767266|140
03.10.2018 03:00:00||FIBABANKA|10.40.26.55|||101571767266|115
03.10.2018 03:00:00||FIBABANKA|10.40.26.57|||101571767266|90
03.10.2018 03:00:00||FIBABANKA|10.40.26.57|||101571767266|90
03.10.2018 03:00:00||FIBABANKA|10.40.26.57|||101571767266|80
03.10.2018 03:00:00||FIBABANKA|10.40.26.72|||101571767266|30
03.10.2018 03:00:00||FIBABANKA|10.40.26.72|||101571767266|146
03.10.2018 03:00:00||FIBABANKA|10.40.26.72|||101571767266|68
03.10.2018 03:00:00||FIBABANKA|10.40.26.72|||101571767266|30
03.10.2018 03:00:00||FIBABANKA|10.40.26.73|||101571767266|39
03.10.2018 03:00:00||FIBABANKA|10.40.26.73|||101571767266|68
03.10.2018 03:00:00||FIBABANKA|10.40.26.73|||101571767266|30
03.10.2018 03:00:00||FIBABANKA|10.40.26.73|||101571767266|39
03.10.2018 03:00:00||FIBABANKA|10.40.26.74|||101571767266|78
03.10.2018 03:00:00||FIBABANKA|10.40.26.74|||101571767266|175
03.10.2018 03:00:00||FIBABANKA|10.40.26.74|||101571767266|184
03.10.2018 03:00:00||FIBABANKA|10.40.26.74|||101571767266|175
03.10.2018 03:00:00||FIBABANKA|10.40.26.77|||101571767266|175
03.10.2018 03:00:00||FIBABANKA|10.40.26.79|||101571767266|10
03.10.2018 03:00:00||FIBABANKA|10.40.26.79|||101571767266|10
03.10.2018 03:00:00||FIBABANKA|10.40.27.51|||101571767266|30
03.10.2018 03:00:00||FIBABANKA|10.40.27.51|||101571767266|20
03.10.2018 03:00:00||FIBABANKA|10.40.27.51|||101571767266|95
03.10.2018 03:00:00||FIBABANKA|10.40.27.51|||101571767266|123
03.10.2018 03:00:00||FIBABANKA|10.40.27.51|||101571767266|67
03.10.2018 03:00:00||FIBABANKA|10.40.27.51|||101571767266|39
03.10.2018 03:00:00||FIBABANKA|10.40.27.51|||101571767266|39
03.10.2018 03:00:00||FIBABANKA|10.40.27.52|||101571767266|48
03.10.2018 03:00:00||FIBABANKA|10.40.27.52|||101571767266|58
03.10.2018 03:00:00||FIBABANKA|10.40.27.52|||101571767266|67
03.10.2018 03:00:00||FIBABANKA|10.40.27.53|||101571767266|67
03.10.2018 03:00:00||FIBABANKA|10.40.27.53|||101571767266|58
03.10.2018 03:00:00||FIBABANKA|10.40.27.53|||101571767266|161
03.10.2018 03:00:00||FIBABANKA|10.40.27.53|||101571767266|171
03.10.2018 03:00:00||FIBABANKA|10.40.27.54|||101571767266|169
03.10.2018 03:00:00||FIBABANKA|10.40.27.54|||101571767266|121
03.10.2018 03:00:00||FIBABANKA|10.40.27.55|||101571767266|107
03.10.2018 03:00:00||FIBABANKA|10.40.27.57|||101571767266|76
03.10.2018 03:00:00||FIBABANKA|10.40.27.57|||101571767266|76
03.10.2018 03:00:00||FIBABANKA|10.40.27.57|||101571767266|76
03.10.2018 03:00:00||FIBABANKA|10.40.27.72|||101571767266|48
03.10.2018 03:00:00||FIBABANKA|10.40.27.72|||101571767266|39
03.10.2018 03:00:00||FIBABANKA|10.40.27.72|||101571767266|133
03.10.2018 03:00:00||FIBABANKA|10.40.27.72|||101571767266|58
03.10.2018 03:00:00||FIBABANKA|10.40.27.72|||101571767266|30
03.10.2018 03:00:00||FIBABANKA|10.40.27.73|||101571767266|30
03.10.2018 03:00:00||FIBABANKA|10.40.27.73|||101571767266|99
03.10.2018 03:00:00||FIBABANKA|10.40.27.73|||101571767266|30
03.10.2018 03:00:00||FIBABANKA|10.40.27.73|||101571767266|20
03.10.2018 03:00:00||FIBABANKA|10.40.27.73|||101571767266|40
03.10.2018 03:00:00||FIBABANKA|10.40.27.73|||101571767266|40
03.10.2018 03:00:00||FIBABANKA|10.40.27.73|||101571767266|40
03.10.2018 03:00:00||FIBABANKA|10.40.27.73|||101571767266|40
03.10.2018 03:00:00||FIBABANKA|10.40.27.74|||101571767266|79
03.10.2018 03:00:00||FIBABANKA|10.40.27.74|||101571767266|148
03.10.2018 03:00:00||FIBABANKA|10.40.27.74|||101571767266|178
03.10.2018 03:00:00||FIBABANKA|10.40.27.74|||101571767266|178
03.10.2018 03:00:00||FIBABANKA|10.40.27.75|||101571767266|10
03.10.2018 03:00:00||FIBABANKA|10.40.27.75|||101571767266|10
03.10.2018 03:00:00||FIBABANKA|10.40.27.77|||101571767266|168
03.10.2018 03:00:00||FIBABANKA|10.40.27.77|||101571767266|158
03.10.2018 03:00:00||FIBABANKA|10.40.27.79|||101571767266|10
03.10.2018 03:00:00||HAVAŞ|10.40.24.45|||110000479675|67
03.10.2018 03:00:00||HAVAŞ|10.40.24.45|||110000479675|151
03.10.2018 03:00:00||HAVAŞ|10.40.24.45|||110000479675|123
03.10.2018 03:00:00||HAVAŞ|10.40.24.45|||110000479675|86
03.10.2018 03:00:00||HAVAŞ|10.40.24.46|||110000479675|20
03.10.2018 03:00:00||HAVAŞ|10.40.24.46|||110000479675|20
03.10.2018 03:00:00||HAVAŞ|10.40.24.46|||110000479675|10
03.10.2018 03:00:00||HAVAŞ|10.40.24.46|||110000479675|10
03.10.2018 03:00:00||HAVAŞ|10.40.24.46|||110000479675|10
03.10.2018 03:00:00||HAVAŞ|10.40.24.46|||110000479675|10
03.10.2018 03:00:00||HAVAŞ|10.40.24.46|||110000479675|10
03.10.2018 03:00:00||HAVAŞ|10.40.24.46|||110000479675|59
03.10.2018 03:00:00||HAVAŞ|10.40.24.46|||110000479675|59
03.10.2018 03:00:00||HAVAŞ|10.40.24.46|||110000479675|107
03.10.2018 03:00:00||HAVAŞ|10.40.24.46|||110000479675|68
03.10.2018 03:00:00||HAVAŞ|10.40.24.46|||110000479675|78
03.10.2018 03:00:00||HAVAŞ|10.40.24.47|||110000479675|30
03.10.2018 03:00:00||HAVAŞ|10.40.24.47|||110000479675|30
03.10.2018 03:00:00||HAVAŞ|10.40.24.47|||110000479675|204
03.10.2018 03:00:00||HAVAŞ|10.40.24.47|||110000479675|88
03.10.2018 03:00:00||HAVAŞ|10.40.24.47|||110000479675|49
03.10.2018 03:00:00||HAVAŞ|10.40.24.47|||110000479675|49
03.10.2018 03:00:00||HAVAŞ|10.40.24.47|||110000479675|107
03.10.2018 03:00:00||HAVAŞ|10.40.24.47|||110000479675|155
03.10.2018 03:00:00||HAVAŞ|10.40.24.47|||110000479675|97
03.10.2018 03:00:00||HAVAŞ|10.40.24.47|||110000479675|97
03.10.2018 03:00:00||HAVAŞ|10.40.24.47|||110000479675|88
03.10.2018 03:00:00||HAVAŞ|10.40.24.48|||110000479675|726
03.10.2018 03:00:00||HAVAŞ|10.40.24.48|||110000479675|697
03.10.2018 03:00:00||HAVAŞ|10.40.24.48|||110000479675|726
03.10.2018 03:00:00||HAVAŞ|10.40.25.45|||110000479675|52
03.10.2018 03:00:00||HAVAŞ|10.40.25.45|||110000479675|105
03.10.2018 03:00:00||HAVAŞ|10.40.25.45|||110000479675|136
03.10.2018 03:00:00||HAVAŞ|10.40.25.45|||110000479675|94
03.10.2018 03:00:00||HAVAŞ|10.40.25.46|||110000479675|10
03.10.2018 03:00:00||HAVAŞ|10.40.25.46|||110000479675|10
03.10.2018 03:00:00||HAVAŞ|10.40.25.46|||110000479675|20
03.10.2018 03:00:00||HAVAŞ|10.40.25.46|||110000479675|20
03.10.2018 03:00:00||HAVAŞ|10.40.25.46|||110000479675|10
03.10.2018 03:00:00||HAVAŞ|10.40.25.46|||110000479675|52
03.10.2018 03:00:00||HAVAŞ|10.40.25.46|||110000479675|62
03.10.2018 03:00:00||HAVAŞ|10.40.25.46|||110000479675|105
03.10.2018 03:00:00||HAVAŞ|10.40.25.46|||110000479675|73
03.10.2018 03:00:00||HAVAŞ|10.40.25.46|||110000479675|84
03.10.2018 03:00:00||HAVAŞ|10.40.25.46|||110000479675|73
03.10.2018 03:00:00||HAVAŞ|10.40.25.47|||110000479675|73
03.10.2018 03:00:00||HAVAŞ|10.40.25.47|||110000479675|73
03.10.2018 03:00:00||HAVAŞ|10.40.25.47|||110000479675|242
03.10.2018 03:00:00||HAVAŞ|10.40.25.47|||110000479675|62
03.10.2018 03:00:00||HAVAŞ|10.40.25.47|||110000479675|94
03.10.2018 03:00:00||HAVAŞ|10.40.25.47|||110000479675|94
03.10.2018 03:00:00||HAVAŞ|10.40.25.47|||110000479675|94
03.10.2018 03:00:00||HAVAŞ|10.40.25.47|||110000479675|10
03.10.2018 03:00:00||HAVAŞ|10.40.25.47|||110000479675|189
03.10.2018 03:00:00||HAVAŞ|10.40.25.47|||110000479675|94
03.10.2018 03:00:00||HAVAŞ|10.40.25.47|||110000479675|94
03.10.2018 03:00:00||HAVAŞ|10.40.25.47|||110000479675|94
03.10.2018 03:00:00||HAVAŞ|10.40.25.48|||110000479675|779
03.10.2018 03:00:00||HAVAŞ|10.40.25.48|||110000479675|790
03.10.2018 03:00:00||HAVAŞ|10.40.25.48|||110000479675|843
03.10.2018 03:00:00||MARS CINEMA|10.40.24.203|||110000472614|58
03.10.2018 03:00:00||MARS CINEMA|10.40.24.203|||110000472614|86
03.10.2018 03:00:00||MARS CINEMA|10.40.24.203|||110000472614|95
03.10.2018 03:00:00||MARS CINEMA|10.40.24.203|||110000472614|95
03.10.2018 03:00:00||MARS CINEMA|10.40.24.203|||110000472614|133
03.10.2018 03:00:00||MARS CINEMA|10.40.24.203|||110000472614|142
03.10.2018 03:00:00||MARS CINEMA|10.40.24.203|||110000472614|161
03.10.2018 03:00:00||MARS CINEMA|10.40.24.203|||110000472614|161
03.10.2018 03:00:00||MARS CINEMA|10.40.24.203|||110000472614|95
03.10.2018 03:00:00||MARS CINEMA|10.40.24.203|||110000472614|95
03.10.2018 03:00:00||MARS CINEMA|10.40.24.203|||110000472614|86
03.10.2018 03:00:00||MARS CINEMA|10.40.24.203|||110000472614|179
03.10.2018 03:00:00||MARS CINEMA|10.40.24.204|||110000472614|105
03.10.2018 03:00:00||MARS CINEMA|10.40.24.204|||110000472614|86
03.10.2018 03:00:00||MARS CINEMA|10.40.24.204|||110000472614|86
03.10.2018 03:00:00||MARS CINEMA|10.40.24.204|||110000472614|20
03.10.2018 03:00:00||MARS CINEMA|10.40.24.204|||110000472614|86
03.10.2018 03:00:00||MARS CINEMA|10.40.24.204|||110000472614|20
03.10.2018 03:00:00||MARS CINEMA|10.40.24.204|||110000472614|10
03.10.2018 03:00:00||MARS CINEMA|10.40.24.204|||110000472614|39
03.10.2018 03:00:00||MARS CINEMA|10.40.24.204|||110000472614|86
03.10.2018 03:00:00||MARS CINEMA|10.40.24.204|||110000472614|114
03.10.2018 03:00:00||MARS CINEMA|10.40.24.204|||110000472614|48
03.10.2018 03:00:00||MARS CINEMA|10.40.24.204|||110000472614|86
03.10.2018 03:00:00||MARS CINEMA|10.40.24.204|||110000472614|105
03.10.2018 03:00:00||MARS CINEMA|10.40.24.204|||110000472614|76
03.10.2018 03:00:00||MARS CINEMA|10.40.24.206|||110000472614|39
03.10.2018 03:00:00||MARS CINEMA|10.40.24.206|||110000472614|39
03.10.2018 03:00:00||MARS CINEMA|10.40.24.206|||110000472614|48
03.10.2018 03:00:00||MARS CINEMA|10.40.24.206|||110000472614|30
03.10.2018 03:00:00||MARS CINEMA|10.40.24.206|||110000472614|30
03.10.2018 03:00:00||MARS CINEMA|10.40.24.206|||110000472614|30
03.10.2018 03:00:00||MARS CINEMA|10.40.24.206|||110000472614|189
03.10.2018 03:00:00||MARS CINEMA|10.40.24.206|||110000472614|123
03.10.2018 03:00:00||MARS CINEMA|10.40.24.206|||110000472614|20
03.10.2018 03:00:00||MARS CINEMA|10.40.24.206|||110000472614|86
03.10.2018 03:00:00||MARS CINEMA|10.40.24.206|||110000472614|76
03.10.2018 03:00:00||MARS CINEMA|10.40.25.203|||110000472614|146
03.10.2018 03:00:00||MARS CINEMA|10.40.25.203|||110000472614|73
03.10.2018 03:00:00||MARS CINEMA|10.40.25.203|||110000472614|178
03.10.2018 03:00:00||MARS CINEMA|10.40.25.203|||110000472614|94
03.10.2018 03:00:00||MARS CINEMA|10.40.25.203|||110000472614|94
03.10.2018 03:00:00||MARS CINEMA|10.40.25.203|||110000472614|115
03.10.2018 03:00:00||MARS CINEMA|10.40.25.203|||110000472614|126
03.10.2018 03:00:00||MARS CINEMA|10.40.25.203|||110000472614|157
03.10.2018 03:00:00||MARS CINEMA|10.40.25.203|||110000472614|94
03.10.2018 03:00:00||MARS CINEMA|10.40.25.203|||110000472614|94
03.10.2018 03:00:00||MARS CINEMA|10.40.25.203|||110000472614|62
03.10.2018 03:00:00||MARS CINEMA|10.40.25.203|||110000472614|200
03.10.2018 03:00:00||MARS CINEMA|10.40.25.204|||110000472614|115
03.10.2018 03:00:00||MARS CINEMA|10.40.25.204|||110000472614|73
03.10.2018 03:00:00||MARS CINEMA|10.40.25.204|||110000472614|84
03.10.2018 03:00:00||MARS CINEMA|10.40.25.204|||110000472614|105
03.10.2018 03:00:00||MARS CINEMA|10.40.25.204|||110000472614|20
03.10.2018 03:00:00||MARS CINEMA|10.40.25.204|||110000472614|20
03.10.2018 03:00:00||MARS CINEMA|10.40.25.204|||110000472614|30
03.10.2018 03:00:00||MARS CINEMA|10.40.25.204|||110000472614|41
03.10.2018 03:00:00||MARS CINEMA|10.40.25.204|||110000472614|94
03.10.2018 03:00:00||MARS CINEMA|10.40.25.204|||110000472614|115
03.10.2018 03:00:00||MARS CINEMA|10.40.25.204|||110000472614|105
03.10.2018 03:00:00||MARS CINEMA|10.40.25.204|||110000472614|126
03.10.2018 03:00:00||MARS CINEMA|10.40.25.204|||110000472614|84
03.10.2018 03:00:00||MARS CINEMA|10.40.25.204|||110000472614|84
03.10.2018 03:00:00||MARS CINEMA|10.40.25.206|||110000472614|41
03.10.2018 03:00:00||MARS CINEMA|10.40.25.206|||110000472614|41
03.10.2018 03:00:00||MARS CINEMA|10.40.25.206|||110000472614|41
03.10.2018 03:00:00||MARS CINEMA|10.40.25.206|||110000472614|20
03.10.2018 03:00:00||MARS CINEMA|10.40.25.206|||110000472614|20
03.10.2018 03:00:00||MARS CINEMA|10.40.25.206|||110000472614|30
03.10.2018 03:00:00||MARS CINEMA|10.40.25.206|||110000472614|62
03.10.2018 03:00:00||MARS CINEMA|10.40.25.206|||110000472614|41
03.10.2018 03:00:00||MARS CINEMA|10.40.25.206|||110000472614|84
03.10.2018 03:00:00||MARS CINEMA|10.40.25.206|||110000472614|84
03.10.2018 03:00:00||PEGASUS|10.40.26.62|||110000423831|90
03.10.2018 03:00:00||PEGASUS|10.40.26.62|||110000423831|10
03.10.2018 03:00:00||PEGASUS|10.40.26.62|||110000423831|191
03.10.2018 03:00:00||PEGASUS|10.40.26.63|||110000423831|110
03.10.2018 03:00:00||PEGASUS|10.40.26.63|||110000423831|292
03.10.2018 03:00:00||PEGASUS|10.40.26.63|||110000423831|110
03.10.2018 03:00:00||PEGASUS|10.40.26.63|||110000423831|90
03.10.2018 03:00:00||PEGASUS|10.40.26.63|||110000423831|70
03.10.2018 03:00:00||PEGASUS|10.40.26.63|||110000423831|130
03.10.2018 03:00:00||PEGASUS|10.40.26.63|||110000423831|60
03.10.2018 03:00:00||PEGASUS|10.40.26.63|||110000423831|100
03.10.2018 03:00:00||PEGASUS|10.40.26.63|||110000423831|30
03.10.2018 03:00:00||PEGASUS|10.40.26.63|||110000423831|60
03.10.2018 03:00:00||PEGASUS|10.40.26.63|||110000423831|20
03.10.2018 03:00:00||PEGASUS|10.40.26.63|||110000423831|221
03.10.2018 03:00:00||PEGASUS|10.40.26.63|||110000423831|140
03.10.2018 03:00:00||PEGASUS|10.40.26.63|||110000423831|50
03.10.2018 03:00:00||PEGASUS|10.40.26.63|||110000423831|151
03.10.2018 03:00:00||PEGASUS|10.40.26.63|||110000423831|40
03.10.2018 03:00:00||PEGASUS|10.40.26.63|||110000423831|60
03.10.2018 03:00:00||PEGASUS|10.40.26.63|||110000423831|60
03.10.2018 03:00:00||PEGASUS|10.40.26.63|||110000423831|40
03.10.2018 03:00:00||PEGASUS|10.40.26.64|||110000423831|80
03.10.2018 03:00:00||PEGASUS|10.40.26.64|||110000423831|80
03.10.2018 03:00:00||PEGASUS|10.40.26.66|||110000423831|58
03.10.2018 03:00:00||PEGASUS|10.40.26.66|||110000423831|49
03.10.2018 03:00:00||PEGASUS|10.40.26.67|||110000423831|30
03.10.2018 03:00:00||PEGASUS|10.40.26.67|||110000423831|342
03.10.2018 03:00:00||PEGASUS|10.40.26.67|||110000423831|342
03.10.2018 03:00:00||PEGASUS|10.40.26.67|||110000423831|60
03.10.2018 03:00:00||PEGASUS|10.40.26.67|||110000423831|40
03.10.2018 03:00:00||PEGASUS|10.40.26.67|||110000423831|171
03.10.2018 03:00:00||PEGASUS|10.40.26.67|||110000423831|70
03.10.2018 03:00:00||PEGASUS|10.40.26.67|||110000423831|342
03.10.2018 03:00:00||PEGASUS|10.40.26.68|||110000423831|100
03.10.2018 03:00:00||PEGASUS|10.40.26.68|||110000423831|90
03.10.2018 03:00:00||PEGASUS|10.40.26.68|||110000423831|90
03.10.2018 03:00:00||PEGASUS|10.40.26.68|||110000423831|50
03.10.2018 03:00:00||PEGASUS|10.40.26.81|||110000423831|417
03.10.2018 03:00:00||PEGASUS|10.40.26.81|||110000423831|436
03.10.2018 03:00:00||PEGASUS|10.40.26.81|||110000423831|446
03.10.2018 03:00:00||PEGASUS|10.40.26.82|||110000423831|204
03.10.2018 03:00:00||PEGASUS|10.40.26.82|||110000423831|107
03.10.2018 03:00:00||PEGASUS|10.40.26.82|||110000423831|78
03.10.2018 03:00:00||PEGASUS|10.40.26.82|||110000423831|146
03.10.2018 03:00:00||PEGASUS|10.40.26.82|||110000423831|136
03.10.2018 03:00:00||PEGASUS|10.40.26.82|||110000423831|136
03.10.2018 03:00:00||PEGASUS|10.40.26.82|||110000423831|175
03.10.2018 03:00:00||PEGASUS|10.40.26.82|||110000423831|30
03.10.2018 03:00:00||PEGASUS|10.40.26.82|||110000423831|39
03.10.2018 03:00:00||PEGASUS|10.40.26.82|||110000423831|20
03.10.2018 03:00:00||PEGASUS|10.40.26.82|||110000423831|68
03.10.2018 03:00:00||PEGASUS|10.40.26.82|||110000423831|49
03.10.2018 03:00:00||PEGASUS|10.40.26.82|||110000423831|39
03.10.2018 03:00:00||PEGASUS|10.40.26.83|||110000423831|523
03.10.2018 03:00:00||PEGASUS|10.40.26.83|||110000423831|49
03.10.2018 03:00:00||PEGASUS|10.40.26.83|||110000423831|388
03.10.2018 03:00:00||PEGASUS|10.40.26.83|||110000423831|146
03.10.2018 03:00:00||PEGASUS|10.40.26.83|||110000423831|97
03.10.2018 03:00:00||PEGASUS|10.40.26.83|||110000423831|523
03.10.2018 03:00:00||PEGASUS|10.40.26.83|||110000423831|107
03.10.2018 03:00:00||PEGASUS|10.40.26.83|||110000423831|533
03.10.2018 03:00:00||PEGASUS|10.40.26.84|||110000423831|39
03.10.2018 03:00:00||PEGASUS|10.40.26.84|||110000423831|178
03.10.2018 03:00:00||PEGASUS|10.40.26.85|||110000423831|23
03.10.2018 03:00:00||PEGASUS|10.40.26.85|||110000423831|95
03.10.2018 03:00:00||PEGASUS|10.40.26.86|||110000423831|349
03.10.2018 03:00:00||PEGASUS|10.40.26.86|||110000423831|126
03.10.2018 03:00:00||PEGASUS|10.40.26.86|||110000423831|339
03.10.2018 03:00:00||PEGASUS|10.40.26.86|||110000423831|49
03.10.2018 03:00:00||PEGASUS|10.40.26.86|||110000423831|30
03.10.2018 03:00:00||PEGASUS|10.40.26.86|||110000423831|339
03.10.2018 03:00:00||PEGASUS|10.40.26.86|||110000423831|39
03.10.2018 03:00:00||PEGASUS|10.40.26.86|||110000423831|49
03.10.2018 03:00:00||PEGASUS|10.40.26.87|||110000423831|88
03.10.2018 03:00:00||PEGASUS|10.40.26.87|||110000423831|88
03.10.2018 03:00:00||PEGASUS|10.40.26.87|||110000423831|88
03.10.2018 03:00:00||PEGASUS|10.40.26.87|||110000423831|20
03.10.2018 03:00:00||PEGASUS|10.40.27.63|||110000423831|86
03.10.2018 03:00:00||PEGASUS|10.40.27.63|||110000423831|58
03.10.2018 03:00:00||PEGASUS|10.40.27.63|||110000423831|67
03.10.2018 03:00:00||PEGASUS|10.40.27.63|||110000423831|48
03.10.2018 03:00:00||PEGASUS|10.40.27.63|||110000423831|58
03.10.2018 03:00:00||PEGASUS|10.40.27.63|||110000423831|58
03.10.2018 03:00:00||PEGASUS|10.40.27.63|||110000423831|76
03.10.2018 03:00:00||PEGASUS|10.40.27.63|||110000423831|76
03.10.2018 03:00:00||PEGASUS|10.40.27.63|||110000423831|76
03.10.2018 03:00:00||PEGASUS|10.40.27.63|||110000423831|199
03.10.2018 03:00:00||PEGASUS|10.40.27.63|||110000423831|58
03.10.2018 03:00:00||PEGASUS|10.40.27.63|||110000423831|58
03.10.2018 03:00:00||PEGASUS|10.40.27.63|||110000423831|67
03.10.2018 03:00:00||PEGASUS|10.40.27.63|||110000423831|86
03.10.2018 03:00:00||PEGASUS|10.40.27.63|||110000423831|67
03.10.2018 03:00:00||PEGASUS|10.40.27.63|||110000423831|58
03.10.2018 03:00:00||PEGASUS|10.40.27.63|||110000423831|76
03.10.2018 03:00:00||PEGASUS|10.40.27.64|||110000423831|67
03.10.2018 03:00:00||PEGASUS|10.40.27.64|||110000423831|67
03.10.2018 03:00:00||PEGASUS|10.40.27.64|||110000423831|255
03.10.2018 03:00:00||PEGASUS|10.40.27.64|||110000423831|274
03.10.2018 03:00:00||PEGASUS|10.40.27.64|||110000423831|246
03.10.2018 03:00:00||PEGASUS|10.40.27.64|||110000423831|321
03.10.2018 03:00:00||PEGASUS|10.40.27.64|||110000423831|283
03.10.2018 03:00:00||PEGASUS|10.40.27.64|||110000423831|302
03.10.2018 03:00:00||PEGASUS|10.40.27.64|||110000423831|255
03.10.2018 03:00:00||PEGASUS|10.40.27.64|||110000423831|274
03.10.2018 03:00:00||PEGASUS|10.40.27.64|||110000423831|246
03.10.2018 03:00:00||PEGASUS|10.40.27.64|||110000423831|255
03.10.2018 03:00:00||PEGASUS|10.40.27.64|||110000423831|237
03.10.2018 03:00:00||PEGASUS|10.40.27.64|||110000423831|237
03.10.2018 03:00:00||PEGASUS|10.40.27.66|||110000423831|41
03.10.2018 03:00:00||PEGASUS|10.40.27.66|||110000423831|55
03.10.2018 03:00:00||PEGASUS|10.40.27.67|||110000423831|48
03.10.2018 03:00:00||PEGASUS|10.40.27.67|||110000423831|341
03.10.2018 03:00:00||PEGASUS|10.40.27.67|||110000423831|67
03.10.2018 03:00:00||PEGASUS|10.40.27.67|||110000423831|123
03.10.2018 03:00:00||PEGASUS|10.40.27.67|||110000423831|10
03.10.2018 03:00:00||PEGASUS|10.40.27.67|||110000423831|321
03.10.2018 03:00:00||PEGASUS|10.40.27.67|||110000423831|39
03.10.2018 03:00:00||PEGASUS|10.40.27.67|||110000423831|321
03.10.2018 03:00:00||PEGASUS|10.40.27.68|||110000423831|86
03.10.2018 03:00:00||PEGASUS|10.40.27.68|||110000423831|76
03.10.2018 03:00:00||PEGASUS|10.40.27.68|||110000423831|86
03.10.2018 03:00:00||PEGASUS|10.40.27.68|||110000423831|58
03.10.2018 03:00:00||PEGASUS|10.40.27.81|||110000423831|492
03.10.2018 03:00:00||PEGASUS|10.40.27.81|||110000423831|443
03.10.2018 03:00:00||PEGASUS|10.40.27.81|||110000423831|404
03.10.2018 03:00:00||PEGASUS|10.40.27.82|||110000423831|217
03.10.2018 03:00:00||PEGASUS|10.40.27.82|||110000423831|30
03.10.2018 03:00:00||PEGASUS|10.40.27.82|||110000423831|99
03.10.2018 03:00:00||PEGASUS|10.40.27.82|||110000423831|79
03.10.2018 03:00:00||PEGASUS|10.40.27.82|||110000423831|148
03.10.2018 03:00:00||PEGASUS|10.40.27.82|||110000423831|119
03.10.2018 03:00:00||PEGASUS|10.40.27.82|||110000423831|168
03.10.2018 03:00:00||PEGASUS|10.40.27.82|||110000423831|119
03.10.2018 03:00:00||PEGASUS|10.40.27.82|||110000423831|60
03.10.2018 03:00:00||PEGASUS|10.40.27.82|||110000423831|69
03.10.2018 03:00:00||PEGASUS|10.40.27.82|||110000423831|50
03.10.2018 03:00:00||PEGASUS|10.40.27.82|||110000423831|30
03.10.2018 03:00:00||PEGASUS|10.40.27.82|||110000423831|60
03.10.2018 03:00:00||PEGASUS|10.40.27.82|||110000423831|40
03.10.2018 03:00:00||PEGASUS|10.40.27.83|||110000423831|581
03.10.2018 03:00:00||PEGASUS|10.40.27.83|||110000423831|69
03.10.2018 03:00:00||PEGASUS|10.40.27.83|||110000423831|502
03.10.2018 03:00:00||PEGASUS|10.40.27.83|||110000423831|99
03.10.2018 03:00:00||PEGASUS|10.40.27.83|||110000423831|148
03.10.2018 03:00:00||PEGASUS|10.40.27.83|||110000423831|79
03.10.2018 03:00:00||PEGASUS|10.40.27.83|||110000423831|492
03.10.2018 03:00:00||PEGASUS|10.40.27.83|||110000423831|69
03.10.2018 03:00:00||PEGASUS|10.40.27.84|||110000423831|174
03.10.2018 03:00:00||PEGASUS|10.40.27.84|||110000423831|40
03.10.2018 03:00:00||PEGASUS|10.40.27.85|||110000423831|93
03.10.2018 03:00:00||PEGASUS|10.40.27.85|||110000423831|22
03.10.2018 03:00:00||PEGASUS|10.40.27.86|||110000423831|335
03.10.2018 03:00:00||PEGASUS|10.40.27.86|||110000423831|335
03.10.2018 03:00:00||PEGASUS|10.40.27.86|||110000423831|158
03.10.2018 03:00:00||PEGASUS|10.40.27.86|||110000423831|69
03.10.2018 03:00:00||PEGASUS|10.40.27.86|||110000423831|40
03.10.2018 03:00:00||PEGASUS|10.40.27.86|||110000423831|20
03.10.2018 03:00:00||PEGASUS|10.40.27.86|||110000423831|345
03.10.2018 03:00:00||PEGASUS|10.40.27.87|||110000423831|89
03.10.2018 03:00:00||PEGASUS|10.40.27.87|||110000423831|89
03.10.2018 03:00:00||PEGASUS|10.40.27.87|||110000423831|89
03.10.2018 03:00:00||PEGASUS|10.40.27.87|||110000423831|20
03.10.2018 03:00:00||PETKIM|10.40.25.87|||110000437354|96
03.10.2018 03:00:00||PETKIM|10.40.25.87|||110000437354|52
03.10.2018 03:00:00||PWC|10.40.24.66|||110000433262|88
03.10.2018 03:00:00||PWC|10.40.24.66|||110000433262|10
03.10.2018 03:00:00||PWC|10.40.24.66|||110000433262|204
03.10.2018 03:00:00||PWC|10.40.24.66|||110000433262|204
03.10.2018 03:00:00||PWC|10.40.24.66|||110000433262|30
03.10.2018 03:00:00||PWC|10.40.24.66|||110000433262|49
03.10.2018 03:00:00||PWC|10.40.24.66|||110000433262|49
03.10.2018 03:00:00||PWC|10.40.24.66|||110000433262|59
03.10.2018 03:00:00||PWC|10.40.24.66|||110000433262|30
03.10.2018 03:00:00||PWC|10.40.24.66|||110000433262|39
03.10.2018 03:00:00||PWC|10.40.24.66|||110000433262|436
03.10.2018 03:00:00||PWC|10.40.24.67|||110000433262|10
03.10.2018 03:00:00||PWC|10.40.24.67|||110000433262|10
03.10.2018 03:00:00||PWC|10.40.24.67|||110000433262|368
03.10.2018 03:00:00||PWC|10.40.24.67|||110000433262|30
03.10.2018 03:00:00||PWC|10.40.24.67|||110000433262|68
03.10.2018 03:00:00||PWC|10.40.24.67|||110000433262|117
03.10.2018 03:00:00||PWC|10.40.24.68|||110000433262|97
03.10.2018 03:00:00||PWC|10.40.24.68|||110000433262|136
03.10.2018 03:00:00||PWC|10.40.24.68|||110000433262|68
03.10.2018 03:00:00||PWC|10.40.24.68|||110000433262|68
03.10.2018 03:00:00||PWC|10.40.24.68|||110000433262|146
03.10.2018 03:00:00||PWC|10.40.25.67|||110000433262|84
03.10.2018 03:00:00||PWC|10.40.25.67|||110000433262|94
03.10.2018 03:00:00||PWC|10.40.25.67|||110000433262|337
03.10.2018 03:00:00||PWC|10.40.25.67|||110000433262|263
03.10.2018 03:00:00||PWC|10.40.25.67|||110000433262|253
03.10.2018 03:00:00||PWC|10.40.25.67|||110000433262|263
03.10.2018 03:00:00||PWC|10.40.25.67|||110000433262|52
03.10.2018 03:00:00||PWC|10.40.25.67|||110000433262|30
03.10.2018 03:00:00||PWC|10.40.25.67|||110000433262|126
03.10.2018 03:00:00||PWC|10.40.25.68|||110000433262|136
03.10.2018 03:00:00||PWC|10.40.25.68|||110000433262|200
03.10.2018 03:00:00||PWC|10.40.25.68|||110000433262|410
03.10.2018 03:00:00||PWC|10.40.25.68|||110000433262|73
03.10.2018 03:00:00||PWC|10.40.25.68|||110000433262|84
03.10.2018 03:00:00||PWC|10.40.25.68|||110000433262|157
