9/18/2018 1:00:00 AM||HAVAS|10.40.25.45|||110000479675|313
9/18/2018 1:00:00 AM||HAVAS|10.40.24.45|||110000479675|372
9/18/2018 1:00:00 AM||HAVAS|10.40.25.46|||110000479675|493
9/18/2018 1:00:00 AM||PWC|10.40.25.68|||110000433262|903
9/18/2018 1:00:00 AM||PWC|10.40.24.68|||110000433262|471
9/18/2018 1:00:00 AM||PWC|10.40.25.69|||110000433262|276
9/18/2018 1:00:00 AM||PWC|10.40.24.69|||110000433262|280
9/18/2018 1:00:00 AM||CALIK HOLDING|10.40.25.94|||110000438408|672
9/18/2018 1:00:00 AM||CALIK HOLDING|10.40.24.94|||110000438408|712
9/18/2018 1:00:00 AM||CALIK HOLDING|10.40.25.97|||110000438408|597
9/18/2018 1:00:00 AM||CALIK HOLDING|10.40.25.100|||110000438408|74
9/18/2018 1:00:00 AM||CALIK HOLDING|10.40.24.100|||110000438408|71
9/18/2018 1:00:00 AM||CALIK HOLDING|10.40.25.101|||110000438408|591
9/18/2018 1:00:00 AM||CALIK HOLDING|10.40.25.102|||110000438408|321
9/18/2018 1:00:00 AM||CALIK HOLDING|10.40.24.102|||110000438408|303
9/18/2018 1:00:00 AM||CALIK HOLDING|10.40.25.103|||110000438408|255
9/18/2018 1:00:00 AM||CALIK HOLDING|10.40.24.103|||110000438408|303
9/18/2018 1:00:00 AM||CALIK HOLDING|10.40.25.104|||110000438408|1113
9/18/2018 1:00:00 AM||CALIK HOLDING|10.40.24.104|||110000438408|1125
9/18/2018 1:00:00 AM||CALIK HOLDING|10.40.24.113|||110000438408|707
9/18/2018 1:00:00 AM||CALIK HOLDING|10.40.25.115|||110000438408|551
9/18/2018 1:00:00 AM||CALIK HOLDING|10.40.24.115|||110000438408|560
9/18/2018 1:00:00 AM||CALIK HOLDING|10.40.25.116|||110000438408|459
9/18/2018 1:00:00 AM||CALIK HOLDING|10.40.24.116|||110000438408|448
9/18/2018 1:00:00 AM||CALIK HOLDING|10.40.25.117|||110000438408|337
9/18/2018 1:00:00 AM||CALIK HOLDING|10.40.24.117|||110000438408|308
9/18/2018 1:00:00 AM||CALIK HOLDING|10.40.25.119|||110000438408|69
9/18/2018 1:00:00 AM||CALIK HOLDING|10.40.24.119|||110000438408|214
9/18/2018 1:00:00 AM||CALIK HOLDING|10.40.25.120|||110000438408|572
9/18/2018 1:00:00 AM||CALIK HOLDING|10.40.24.120|||110000438408|558
9/18/2018 1:00:00 AM||CALIK HOLDING|10.40.25.121|||110000438408|308
9/18/2018 1:00:00 AM||CALIK HOLDING|10.40.24.121|||110000438408|324
9/18/2018 1:00:00 AM||CALIK HOLDING|10.40.25.122|||110000438408|246
9/18/2018 1:00:00 AM||CALIK HOLDING|10.40.24.122|||110000438408|291
9/18/2018 1:00:00 AM||AKTIFBANK|10.40.25.128|||110000438458|272
9/18/2018 1:00:00 AM||AKTIFBANK|10.40.24.128|||110000438458|445
9/18/2018 1:00:00 AM||AKTIFBANK|10.40.25.129|||110000438458|873
9/18/2018 1:00:00 AM||AKTIFBANK|10.40.25.130|||110000438458|722
9/18/2018 1:00:00 AM||AKTIFBANK|10.40.24.130|||110000438458|666
9/18/2018 1:00:00 AM||AKTIFBANK|10.40.25.131|||110000438458|609
9/18/2018 1:00:00 AM||AKTIFBANK|10.40.24.131|||110000438458|620
9/18/2018 1:00:00 AM||AKTIFBANK|10.40.25.132|||110000438458|411
9/18/2018 1:00:00 AM||AKTIFBANK|10.40.24.132|||110000438458|405
9/18/2018 1:00:00 AM||AKTIFBANK|10.40.25.133|||110000438458|374
9/18/2018 1:00:00 AM||AKTIFBANK|10.40.24.133|||110000438458|667
9/18/2018 1:00:00 AM||AKTIFBANK|10.40.25.138|||110000438458|243
9/18/2018 1:00:00 AM||AKTIFBANK|10.40.24.138|||110000438458|549
9/18/2018 1:00:00 AM||AKTIFBANK|10.40.25.139|||110000438458|152
9/18/2018 1:00:00 AM||AKTIFBANK|10.40.24.139|||110000438458|231
9/18/2018 1:00:00 AM||AKTIFBANK|10.40.25.140|||110000438458|255
9/18/2018 1:00:00 AM||AKTIFBANK|10.40.24.140|||110000438458|348
9/18/2018 1:00:00 AM||AKTIFBANK|10.40.25.141|||110000438458|477
9/18/2018 1:00:00 AM||AKTIFBANK|10.40.24.141|||110000438458|635
9/18/2018 1:00:00 AM||AKTIFBANK|10.40.25.142|||110000438458|37
9/18/2018 1:00:00 AM||AKTIFBANK|10.40.24.142|||110000438458|110
9/18/2018 1:00:00 AM||AKTIFBANK|10.40.24.143|||110000438458|777
9/18/2018 1:00:00 AM||AKTIFBANK|10.40.25.144|||110000438458|177
9/18/2018 1:00:00 AM||AKTIFBANK|10.40.24.144|||110000438458|262
9/18/2018 1:00:00 AM||AKTIFBANK|10.40.25.145|||110000438458|283
9/18/2018 1:00:00 AM||AKTIFBANK|10.40.24.145|||110000438458|394
9/18/2018 1:00:00 AM||AKTIFBANK|10.40.25.147|||110000438458|85
9/18/2018 1:00:00 AM||AKTIFBANK|10.40.25.148|||110000438458|951
9/18/2018 1:00:00 AM||AKTIFBANK|10.40.25.152|||110000438458|705
9/18/2018 1:00:00 AM||AKTIFBANK|10.40.25.153|||110000438458|206
9/18/2018 1:00:00 AM||AKTIFBANK|10.40.24.153|||110000438458|247
9/18/2018 1:00:00 AM||AKTIFBANK|10.40.25.154|||110000438458|41
9/18/2018 1:00:00 AM||AKTIFBANK|10.40.24.154|||110000438458|131
9/18/2018 1:00:00 AM||AKTIFBANK|10.40.25.155|||110000438458|466
9/18/2018 1:00:00 AM||AKTIFBANK|10.40.24.155|||110000438458|518
9/18/2018 1:00:00 AM||AKTIFBANK|10.40.25.157|||110000438458|326
9/18/2018 1:00:00 AM||AKTIFBANK|10.40.24.157|||110000438458|338
9/18/2018 1:00:00 AM||AKTIFBANK|10.40.25.158|||110000438458|153
9/18/2018 1:00:00 AM||AKTIFBANK|10.40.24.158|||110000438458|637
9/18/2018 1:00:00 AM||AKTIFBANK|10.40.25.159|||110000438458|158
9/18/2018 1:00:00 AM||AKTIFBANK|10.40.24.159|||110000438458|359
9/18/2018 1:00:00 AM||AKTIFBANK|10.40.25.160|||110000438458|189
9/18/2018 1:00:00 AM||AKTIFBANK|10.40.24.160|||110000438458|242
9/18/2018 1:00:00 AM||AKTIFBANK|10.40.25.161|||110000438458|242
9/18/2018 1:00:00 AM||AKTIFBANK|10.40.24.161|||110000438458|399
9/18/2018 1:00:00 AM||AKTIFBANK|10.40.25.162|||110000438458|199
9/18/2018 1:00:00 AM||AKTIFBANK|10.40.24.162|||110000438458|509
9/18/2018 1:00:00 AM||AKTIFBANK|10.40.25.163|||110000438458|45
9/18/2018 1:00:00 AM||AKTIFBANK|10.40.24.163|||110000438458|241
9/18/2018 1:00:00 AM||AKTIFBANK|10.40.25.164|||110000438458|854
9/18/2018 1:00:00 AM||AKTIFBANK|10.40.24.164|||110000438458|841
9/18/2018 1:00:00 AM||AKTIFBANK|10.40.25.165|||110000438458|310
9/18/2018 1:00:00 AM||AKTIFBANK|10.40.24.165|||110000438458|352
9/18/2018 1:00:00 AM||AKTIFBANK|10.40.25.166|||110000438458|125
9/18/2018 1:00:00 AM||AKTIFBANK|10.40.24.166|||110000438458|221
9/18/2018 1:00:00 AM||AKTIFBANK|10.40.25.168|||110000438458|308
9/18/2018 1:00:00 AM||AKTIFBANK|10.40.24.168|||110000438458|368
9/18/2018 1:00:00 AM||AKTIFBANK|10.40.24.169|||110000438458|310
9/18/2018 1:00:00 AM||AKTIFBANK|10.40.25.170|||110000438458|536
9/18/2018 1:00:00 AM||AKTIFBANK|10.40.24.170|||110000438458|823
9/18/2018 1:00:00 AM||AKTIFBANK|10.40.25.179|||110000438458|920
9/18/2018 1:00:00 AM||AKTIFBANK|10.40.24.179|||110000438458|1028
9/18/2018 1:00:00 AM||AKTIFBANK|10.40.25.186|||110000438458|181
9/18/2018 1:00:00 AM||AKTIFBANK|10.40.24.186|||110000438458|210
9/18/2018 1:00:00 AM||MARS CINEMA|10.40.25.203|||110000472614|283
9/18/2018 1:00:00 AM||MARS CINEMA|10.40.24.203|||110000472614|259
9/18/2018 1:00:00 AM||MARS CINEMA|10.40.25.206|||110000472614|292
9/18/2018 1:00:00 AM||PEGASUS|10.40.26.62|||110000423831|300
9/18/2018 1:00:00 AM||PEGASUS|10.40.26.64|||110000423831|151
9/18/2018 1:00:00 AM||PEGASUS|10.40.27.67|||110000423831|1235
9/18/2018 1:00:00 AM||PEGASUS|10.40.27.68|||110000423831|306
9/18/2018 1:00:00 AM||PEGASUS|10.40.27.87|||110000423831|270
9/18/2018 1:00:00 AM||PEGASUS|10.40.26.87|||110000423831|293
9/18/2018 1:00:00 AM||BOYNER|10.40.26.95|||101367941673|404
