13.10.2018 15:00:00||AKTİFBANK|10.40.24.172|||110000438458|96
13.10.2018 15:00:00||AKTİFBANK|10.40.25.134|||110000438458|95
13.10.2018 15:00:00||AKTİFBANK|10.40.24.134|||110000438458|93
13.10.2018 15:00:00||AKTİFBANK|10.40.24.135|||110000438458|96
13.10.2018 15:00:00||AKTİFBANK|10.40.25.137|||110000438458|57
13.10.2018 15:00:00||AKTİFBANK|10.40.25.171|||110000438458|12
13.10.2018 15:00:00||AKTİFBANK|10.40.25.172|||110000438458|90
13.10.2018 15:00:00||AKTİFBANK|10.40.25.174|||110000438458|53
13.10.2018 15:00:00||AKTİFBANK|10.40.25.135|||110000438458|92
13.10.2018 15:00:00||AKTİFBANK|10.40.24.137|||110000438458|57
13.10.2018 15:00:00||AKTİFBANK|10.40.24.171|||110000438458|11
13.10.2018 15:00:00||AKTİFBANK|10.40.24.173|||110000438458|90
13.10.2018 15:00:00||AKTİFBANK|10.40.24.174|||110000438458|60
13.10.2018 15:00:00||AKTİFBANK|10.40.24.133|||110000438458|85
13.10.2018 15:00:00||AKTİFBANK|10.40.24.138|||110000438458|120
13.10.2018 15:00:00||AKTİFBANK|10.40.24.139|||110000438458|30
13.10.2018 15:00:00||AKTİFBANK|10.40.24.149|||110000438458|110
13.10.2018 15:00:00||AKTİFBANK|10.40.24.150|||110000438458|543
13.10.2018 15:00:00||AKTİFBANK|10.40.24.145|||110000438458|60
13.10.2018 15:00:00||AKTİFBANK|10.40.24.164|||110000438458|228
13.10.2018 15:00:00||AKTİFBANK|10.40.25.133|||110000438458|70
13.10.2018 15:00:00||AKTİFBANK|10.40.24.145|||110000438458|90
13.10.2018 15:00:00||AKTİFBANK|10.40.24.158|||110000438458|80
13.10.2018 15:00:00||AKTİFBANK|10.40.24.164|||110000438458|62
13.10.2018 15:00:00||AKTİFBANK|10.40.25.138|||110000438458|80
13.10.2018 15:00:00||AKTİFBANK|10.40.25.139|||110000438458|10
13.10.2018 15:00:00||AKTİFBANK|10.40.25.140|||110000438458|32
13.10.2018 15:00:00||AKTİFBANK|10.40.25.151|||110000438458|507
13.10.2018 15:00:00||AKTİFBANK|10.40.25.141|||110000438458|100
13.10.2018 15:00:00||AKTİFBANK|10.40.25.141|||110000438458|85
13.10.2018 15:00:00||AKTİFBANK|10.40.25.142|||110000438458|72
13.10.2018 15:00:00||AKTİFBANK|10.40.25.133|||110000438458|110
13.10.2018 15:00:00||AKTİFBANK|10.40.25.149|||110000438458|102
13.10.2018 15:00:00||AKTİFBANK|10.40.25.149|||110000438458|90
13.10.2018 15:00:00||AKTİFBANK|10.40.25.149|||110000438458|92
13.10.2018 15:00:00||AKTİFBANK|10.40.25.140|||110000438458|33
13.10.2018 15:00:00||AKTİFBANK|10.40.25.150|||110000438458|538
13.10.2018 15:00:00||AKTİFBANK|10.40.25.139|||110000438458|170
13.10.2018 15:00:00||AKTİFBANK|10.40.25.139|||110000438458|40
13.10.2018 15:00:00||AKTİFBANK|10.40.25.140|||110000438458|80
13.10.2018 15:00:00||AKTİFBANK|10.40.25.140|||110000438458|70
13.10.2018 15:00:00||AKTİFBANK|10.40.25.140|||110000438458|30
13.10.2018 15:00:00||AKTİFBANK|10.40.25.151|||110000438458|513
13.10.2018 15:00:00||AKTİFBANK|10.40.25.151|||110000438458|493
13.10.2018 15:00:00||AKTİFBANK|10.40.25.141|||110000438458|40
13.10.2018 15:00:00||AKTİFBANK|10.40.25.141|||110000438458|100
13.10.2018 15:00:00||AKTİFBANK|10.40.25.141|||110000438458|72
13.10.2018 15:00:00||AKTİFBANK|10.40.25.142|||110000438458|40
13.10.2018 15:00:00||AKTİFBANK|10.40.25.149|||110000438458|70
13.10.2018 15:00:00||AKTİFBANK|10.40.25.149|||110000438458|110
13.10.2018 15:00:00||AKTİFBANK|10.40.25.149|||110000438458|90
13.10.2018 15:00:00||AKTİFBANK|10.40.25.149|||110000438458|90
13.10.2018 15:00:00||AKTİFBANK|10.40.25.149|||110000438458|100
13.10.2018 15:00:00||AKTİFBANK|10.40.24.139|||110000438458|60
13.10.2018 15:00:00||AKTİFBANK|10.40.25.153|||110000438458|10
13.10.2018 15:00:00||AKTİFBANK|10.40.25.150|||110000438458|543
13.10.2018 15:00:00||AKTİFBANK|10.40.25.153|||110000438458|70
13.10.2018 15:00:00||AKTİFBANK|10.40.25.163|||110000438458|50
13.10.2018 15:00:00||AKTİFBANK|10.40.24.141|||110000438458|77
13.10.2018 15:00:00||AKTİFBANK|10.40.24.151|||110000438458|502
13.10.2018 15:00:00||AKTİFBANK|10.40.25.153|||110000438458|80
13.10.2018 15:00:00||AKTİFBANK|10.40.24.149|||110000438458|80
13.10.2018 15:00:00||AKTİFBANK|10.40.24.141|||110000438458|50
13.10.2018 15:00:00||AKTİFBANK|10.40.25.133|||110000438458|280
13.10.2018 15:00:00||AKTİFBANK|10.40.25.133|||110000438458|90
13.10.2018 15:00:00||AKTİFBANK|10.40.24.149|||110000438458|90
13.10.2018 15:00:00||AKTİFBANK|10.40.24.162|||110000438458|210
13.10.2018 15:00:00||AKTİFBANK|10.40.24.162|||110000438458|30
13.10.2018 15:00:00||AKTİFBANK|10.40.24.162|||110000438458|40
13.10.2018 15:00:00||AKTİFBANK|10.40.25.133|||110000438458|150
13.10.2018 15:00:00||AKTİFBANK|10.40.25.138|||110000438458|132
13.10.2018 15:00:00||AKTİFBANK|10.40.25.149|||110000438458|73
13.10.2018 15:00:00||AKTİFBANK|10.40.25.149|||110000438458|70
13.10.2018 15:00:00||AKTİFBANK|10.40.25.149|||110000438458|30
13.10.2018 15:00:00||AKTİFBANK|10.40.25.149|||110000438458|77
13.10.2018 15:00:00||AKTİFBANK|10.40.25.149|||110000438458|70
13.10.2018 15:00:00||AKTİFBANK|10.40.25.141|||110000438458|100
13.10.2018 15:00:00||AKTİFBANK|10.40.25.149|||110000438458|130
13.10.2018 15:00:00||AKTİFBANK|10.40.25.138|||110000438458|92
13.10.2018 15:00:00||AKTİFBANK|10.40.25.138|||110000438458|73
13.10.2018 15:00:00||AKTİFBANK|10.40.25.139|||110000438458|100
13.10.2018 15:00:00||AKTİFBANK|10.40.24.145|||110000438458|70
13.10.2018 15:00:00||AKTİFBANK|10.40.24.149|||110000438458|160
13.10.2018 15:00:00||AKTİFBANK|10.40.25.138|||110000438458|30
13.10.2018 15:00:00||AKTİFBANK|10.40.25.138|||110000438458|10
13.10.2018 15:00:00||AKTİFBANK|10.40.25.153|||110000438458|60
13.10.2018 15:00:00||AKTİFBANK|10.40.24.150|||110000438458|542
13.10.2018 15:00:00||AKTİFBANK|10.40.25.128|||110000438458|70
13.10.2018 15:00:00||AKTİFBANK|10.40.25.128|||110000438458|90
13.10.2018 15:00:00||AKTİFBANK|10.40.25.128|||110000438458|90
13.10.2018 15:00:00||AKTİFBANK|10.40.25.128|||110000438458|40
13.10.2018 15:00:00||AKTİFBANK|10.40.25.128|||110000438458|70
13.10.2018 15:00:00||AKTİFBANK|10.40.25.129|||110000438458|82
13.10.2018 15:00:00||AKTİFBANK|10.40.25.129|||110000438458|70
13.10.2018 15:00:00||AKTİFBANK|10.40.25.129|||110000438458|130
13.10.2018 15:00:00||AKTİFBANK|10.40.25.129|||110000438458|100
13.10.2018 15:00:00||AKTİFBANK|10.40.25.129|||110000438458|40
13.10.2018 15:00:00||AKTİFBANK|10.40.25.129|||110000438458|93
13.10.2018 15:00:00||AKTİFBANK|10.40.25.129|||110000438458|93
13.10.2018 15:00:00||AKTİFBANK|10.40.25.130|||110000438458|62
13.10.2018 15:00:00||AKTİFBANK|10.40.25.130|||110000438458|50
13.10.2018 15:00:00||AKTİFBANK|10.40.25.130|||110000438458|72
13.10.2018 15:00:00||AKTİFBANK|10.40.25.130|||110000438458|32
13.10.2018 15:00:00||AKTİFBANK|10.40.25.130|||110000438458|60
13.10.2018 15:00:00||AKTİFBANK|10.40.25.130|||110000438458|102
13.10.2018 15:00:00||AKTİFBANK|10.40.25.130|||110000438458|82
13.10.2018 15:00:00||AKTİFBANK|10.40.25.131|||110000438458|20
13.10.2018 15:00:00||AKTİFBANK|10.40.25.131|||110000438458|67
13.10.2018 15:00:00||AKTİFBANK|10.40.25.131|||110000438458|100
13.10.2018 15:00:00||AKTİFBANK|10.40.25.131|||110000438458|102
13.10.2018 15:00:00||AKTİFBANK|10.40.25.131|||110000438458|92
13.10.2018 15:00:00||AKTİFBANK|10.40.25.131|||110000438458|80
13.10.2018 15:00:00||AKTİFBANK|10.40.25.131|||110000438458|22
13.10.2018 15:00:00||AKTİFBANK|10.40.25.131|||110000438458|120
13.10.2018 15:00:00||AKTİFBANK|10.40.25.132|||110000438458|65
13.10.2018 15:00:00||AKTİFBANK|10.40.25.132|||110000438458|68
13.10.2018 15:00:00||AKTİFBANK|10.40.25.132|||110000438458|85
13.10.2018 15:00:00||AKTİFBANK|10.40.25.132|||110000438458|170
13.10.2018 15:00:00||AKTİFBANK|10.40.25.132|||110000438458|58
13.10.2018 15:00:00||AKTİFBANK|10.40.25.143|||110000438458|315
13.10.2018 15:00:00||AKTİFBANK|10.40.25.144|||110000438458|80
13.10.2018 15:00:00||AKTİFBANK|10.40.25.144|||110000438458|50
13.10.2018 15:00:00||AKTİFBANK|10.40.25.144|||110000438458|20
13.10.2018 15:00:00||AKTİFBANK|10.40.25.154|||110000438458|10
13.10.2018 15:00:00||AKTİFBANK|10.40.25.154|||110000438458|10
13.10.2018 15:00:00||AKTİFBANK|10.40.25.154|||110000438458|10
13.10.2018 15:00:00||AKTİFBANK|10.40.25.157|||110000438458|70
13.10.2018 15:00:00||AKTİFBANK|10.40.25.157|||110000438458|70
13.10.2018 15:00:00||AKTİFBANK|10.40.25.157|||110000438458|70
13.10.2018 15:00:00||AKTİFBANK|10.40.25.157|||110000438458|80
13.10.2018 15:00:00||AKTİFBANK|10.40.25.157|||110000438458|40
13.10.2018 15:00:00||AKTİFBANK|10.40.25.159|||110000438458|60
13.10.2018 15:00:00||AKTİFBANK|10.40.25.159|||110000438458|10
13.10.2018 15:00:00||AKTİFBANK|10.40.25.159|||110000438458|90
13.10.2018 15:00:00||AKTİFBANK|10.40.25.158|||110000438458|73
13.10.2018 15:00:00||AKTİFBANK|10.40.25.158|||110000438458|55
13.10.2018 15:00:00||AKTİFBANK|10.40.25.158|||110000438458|22
13.10.2018 15:00:00||AKTİFBANK|10.40.25.158|||110000438458|50
13.10.2018 15:00:00||AKTİFBANK|10.40.25.160|||110000438458|90
13.10.2018 15:00:00||AKTİFBANK|10.40.25.161|||110000438458|80
13.10.2018 15:00:00||AKTİFBANK|10.40.25.161|||110000438458|70
13.10.2018 15:00:00||AKTİFBANK|10.40.25.161|||110000438458|40
13.10.2018 15:00:00||AKTİFBANK|10.40.25.161|||110000438458|30
13.10.2018 15:00:00||AKTİFBANK|10.40.25.161|||110000438458|20
13.10.2018 15:00:00||AKTİFBANK|10.40.25.161|||110000438458|57
13.10.2018 15:00:00||AKTİFBANK|10.40.25.145|||110000438458|90
13.10.2018 15:00:00||AKTİFBANK|10.40.25.145|||110000438458|60
13.10.2018 15:00:00||AKTİFBANK|10.40.25.145|||110000438458|60
13.10.2018 15:00:00||AKTİFBANK|10.40.25.145|||110000438458|30
13.10.2018 15:00:00||AKTİFBANK|10.40.25.145|||110000438458|50
13.10.2018 15:00:00||AKTİFBANK|10.40.25.147|||110000438458|90
13.10.2018 15:00:00||AKTİFBANK|10.40.25.162|||110000438458|30
13.10.2018 15:00:00||AKTİFBANK|10.40.25.162|||110000438458|30
13.10.2018 15:00:00||AKTİFBANK|10.40.25.162|||110000438458|60
13.10.2018 15:00:00||AKTİFBANK|10.40.25.164|||110000438458|60
13.10.2018 15:00:00||AKTİFBANK|10.40.25.164|||110000438458|280
13.10.2018 15:00:00||AKTİFBANK|10.40.25.164|||110000438458|50
13.10.2018 15:00:00||AKTİFBANK|10.40.25.164|||110000438458|260
13.10.2018 15:00:00||AKTİFBANK|10.40.25.164|||110000438458|270
13.10.2018 15:00:00||AKTİFBANK|10.40.25.165|||110000438458|110
13.10.2018 15:00:00||AKTİFBANK|10.40.25.165|||110000438458|70
13.10.2018 15:00:00||AKTİFBANK|10.40.25.165|||110000438458|80
13.10.2018 15:00:00||AKTİFBANK|10.40.25.165|||110000438458|102
13.10.2018 15:00:00||AKTİFBANK|10.40.25.166|||110000438458|90
13.10.2018 15:00:00||AKTİFBANK|10.40.25.166|||110000438458|10
13.10.2018 15:00:00||AKTİFBANK|10.40.25.166|||110000438458|10
13.10.2018 15:00:00||AKTİFBANK|10.40.25.166|||110000438458|10
13.10.2018 15:00:00||AKTİFBANK|10.40.25.166|||110000438458|40
13.10.2018 15:00:00||AKTİFBANK|10.40.25.148|||110000438458|130
13.10.2018 15:00:00||AKTİFBANK|10.40.25.148|||110000438458|50
13.10.2018 15:00:00||AKTİFBANK|10.40.25.148|||110000438458|100
13.10.2018 15:00:00||AKTİFBANK|10.40.25.148|||110000438458|130
13.10.2018 15:00:00||AKTİFBANK|10.40.25.148|||110000438458|90
13.10.2018 15:00:00||AKTİFBANK|10.40.25.148|||110000438458|80
13.10.2018 15:00:00||AKTİFBANK|10.40.25.148|||110000438458|70
13.10.2018 15:00:00||AKTİFBANK|10.40.25.148|||110000438458|50
13.10.2018 15:00:00||AKTİFBANK|10.40.25.148|||110000438458|80
13.10.2018 15:00:00||AKTİFBANK|10.40.25.148|||110000438458|40
13.10.2018 15:00:00||AKTİFBANK|10.40.25.148|||110000438458|100
13.10.2018 15:00:00||AKTİFBANK|10.40.25.148|||110000438458|60
13.10.2018 15:00:00||AKTİFBANK|10.40.25.155|||110000438458|70
13.10.2018 15:00:00||AKTİFBANK|10.40.25.155|||110000438458|90
13.10.2018 15:00:00||AKTİFBANK|10.40.25.155|||110000438458|110
13.10.2018 15:00:00||AKTİFBANK|10.40.25.155|||110000438458|120
13.10.2018 15:00:00||AKTİFBANK|10.40.25.155|||110000438458|110
13.10.2018 15:00:00||AKTİFBANK|10.40.25.156|||110000438458|20
13.10.2018 15:00:00||AKTİFBANK|10.40.25.156|||110000438458|25
13.10.2018 15:00:00||AKTİFBANK|10.40.25.139|||110000438458|70
13.10.2018 15:00:00||AKTİFBANK|10.40.25.139|||110000438458|80
13.10.2018 15:00:00||AKTİFBANK|10.40.25.150|||110000438458|498
13.10.2018 15:00:00||AKTİFBANK|10.40.25.129|||110000438458|60
13.10.2018 15:00:00||AKTİFBANK|10.40.25.129|||110000438458|87
13.10.2018 15:00:00||AKTİFBANK|10.40.25.129|||110000438458|140
13.10.2018 15:00:00||AKTİFBANK|10.40.25.130|||110000438458|67
13.10.2018 15:00:00||AKTİFBANK|10.40.25.130|||110000438458|123
13.10.2018 15:00:00||AKTİFBANK|10.40.25.130|||110000438458|100
13.10.2018 15:00:00||AKTİFBANK|10.40.25.131|||110000438458|42
13.10.2018 15:00:00||AKTİFBANK|10.40.25.143|||110000438458|60
13.10.2018 15:00:00||AKTİFBANK|10.40.25.143|||110000438458|242
13.10.2018 15:00:00||AKTİFBANK|10.40.25.143|||110000438458|263
13.10.2018 15:00:00||AKTİFBANK|10.40.25.158|||110000438458|103
13.10.2018 15:00:00||AKTİFBANK|10.40.25.160|||110000438458|110
13.10.2018 15:00:00||AKTİFBANK|10.40.25.162|||110000438458|33
13.10.2018 15:00:00||AKTİFBANK|10.40.25.162|||110000438458|40
13.10.2018 15:00:00||AKTİFBANK|10.40.24.140|||110000438458|160
13.10.2018 15:00:00||AKTİFBANK|10.40.24.140|||110000438458|80
13.10.2018 15:00:00||AKTİFBANK|10.40.24.140|||110000438458|40
13.10.2018 15:00:00||AKTİFBANK|10.40.24.140|||110000438458|30
13.10.2018 15:00:00||AKTİFBANK|10.40.24.140|||110000438458|30
13.10.2018 15:00:00||AKTİFBANK|10.40.24.140|||110000438458|27
13.10.2018 15:00:00||AKTİFBANK|10.40.24.149|||110000438458|80
13.10.2018 15:00:00||AKTİFBANK|10.40.24.149|||110000438458|120
13.10.2018 15:00:00||AKTİFBANK|10.40.24.149|||110000438458|90
13.10.2018 15:00:00||AKTİFBANK|10.40.24.149|||110000438458|72
13.10.2018 15:00:00||AKTİFBANK|10.40.24.149|||110000438458|50
13.10.2018 15:00:00||AKTİFBANK|10.40.24.149|||110000438458|140
13.10.2018 15:00:00||AKTİFBANK|10.40.24.149|||110000438458|90
13.10.2018 15:00:00||AKTİFBANK|10.40.24.149|||110000438458|90
13.10.2018 15:00:00||AKTİFBANK|10.40.24.149|||110000438458|97
13.10.2018 15:00:00||AKTİFBANK|10.40.24.149|||110000438458|80
13.10.2018 15:00:00||AKTİFBANK|10.40.24.133|||110000438458|140
13.10.2018 15:00:00||AKTİFBANK|10.40.24.133|||110000438458|120
13.10.2018 15:00:00||AKTİFBANK|10.40.24.133|||110000438458|88
13.10.2018 15:00:00||AKTİFBANK|10.40.24.138|||110000438458|112
13.10.2018 15:00:00||AKTİFBANK|10.40.24.138|||110000438458|138
13.10.2018 15:00:00||AKTİFBANK|10.40.24.138|||110000438458|113
13.10.2018 15:00:00||AKTİFBANK|10.40.24.138|||110000438458|30
13.10.2018 15:00:00||AKTİFBANK|10.40.24.138|||110000438458|50
13.10.2018 15:00:00||AKTİFBANK|10.40.24.139|||110000438458|160
13.10.2018 15:00:00||AKTİFBANK|10.40.24.139|||110000438458|90
13.10.2018 15:00:00||AKTİFBANK|10.40.24.139|||110000438458|122
13.10.2018 15:00:00||AKTİFBANK|10.40.24.141|||110000438458|200
13.10.2018 15:00:00||AKTİFBANK|10.40.24.141|||110000438458|100
13.10.2018 15:00:00||AKTİFBANK|10.40.24.141|||110000438458|100
13.10.2018 15:00:00||AKTİFBANK|10.40.24.141|||110000438458|60
13.10.2018 15:00:00||AKTİFBANK|10.40.24.141|||110000438458|80
13.10.2018 15:00:00||AKTİFBANK|10.40.25.152|||110000438458|107
13.10.2018 15:00:00||AKTİFBANK|10.40.25.152|||110000438458|48
13.10.2018 15:00:00||AKTİFBANK|10.40.25.152|||110000438458|120
13.10.2018 15:00:00||AKTİFBANK|10.40.25.152|||110000438458|70
13.10.2018 15:00:00||AKTİFBANK|10.40.25.152|||110000438458|90
13.10.2018 15:00:00||AKTİFBANK|10.40.25.152|||110000438458|33
13.10.2018 15:00:00||AKTİFBANK|10.40.25.152|||110000438458|53
13.10.2018 15:00:00||AKTİFBANK|10.40.25.152|||110000438458|90
13.10.2018 15:00:00||AKTİFBANK|10.40.25.152|||110000438458|30
13.10.2018 15:00:00||AKTİFBANK|10.40.25.152|||110000438458|80
13.10.2018 15:00:00||AKTİFBANK|10.40.25.152|||110000438458|30
13.10.2018 15:00:00||AKTİFBANK|10.40.24.150|||110000438458|550
13.10.2018 15:00:00||AKTİFBANK|10.40.24.151|||110000438458|513
13.10.2018 15:00:00||AKTİFBANK|10.40.24.151|||110000438458|528
13.10.2018 15:00:00||AKTİFBANK|10.40.24.128|||110000438458|60
13.10.2018 15:00:00||AKTİFBANK|10.40.24.128|||110000438458|70
13.10.2018 15:00:00||AKTİFBANK|10.40.24.128|||110000438458|100
13.10.2018 15:00:00||AKTİFBANK|10.40.24.128|||110000438458|40
13.10.2018 15:00:00||AKTİFBANK|10.40.24.128|||110000438458|70
13.10.2018 15:00:00||AKTİFBANK|10.40.24.128|||110000438458|40
13.10.2018 15:00:00||AKTİFBANK|10.40.24.129|||110000438458|100
13.10.2018 15:00:00||AKTİFBANK|10.40.24.129|||110000438458|65
13.10.2018 15:00:00||AKTİFBANK|10.40.24.129|||110000438458|100
13.10.2018 15:00:00||AKTİFBANK|10.40.24.129|||110000438458|110
13.10.2018 15:00:00||AKTİFBANK|10.40.24.129|||110000438458|37
13.10.2018 15:00:00||AKTİFBANK|10.40.24.129|||110000438458|72
13.10.2018 15:00:00||AKTİFBANK|10.40.24.129|||110000438458|70
13.10.2018 15:00:00||AKTİFBANK|10.40.24.129|||110000438458|93
13.10.2018 15:00:00||AKTİFBANK|10.40.24.129|||110000438458|80
13.10.2018 15:00:00||AKTİFBANK|10.40.24.129|||110000438458|140
13.10.2018 15:00:00||AKTİFBANK|10.40.24.130|||110000438458|43
13.10.2018 15:00:00||AKTİFBANK|10.40.24.130|||110000438458|40
13.10.2018 15:00:00||AKTİFBANK|10.40.24.130|||110000438458|67
13.10.2018 15:00:00||AKTİFBANK|10.40.24.130|||110000438458|40
13.10.2018 15:00:00||AKTİFBANK|10.40.24.130|||110000438458|60
13.10.2018 15:00:00||AKTİFBANK|10.40.24.130|||110000438458|80
13.10.2018 15:00:00||AKTİFBANK|10.40.24.130|||110000438458|87
13.10.2018 15:00:00||AKTİFBANK|10.40.24.130|||110000438458|35
13.10.2018 15:00:00||AKTİFBANK|10.40.24.130|||110000438458|130
13.10.2018 15:00:00||AKTİFBANK|10.40.24.130|||110000438458|110
13.10.2018 15:00:00||AKTİFBANK|10.40.24.131|||110000438458|85
13.10.2018 15:00:00||AKTİFBANK|10.40.24.131|||110000438458|90
13.10.2018 15:00:00||AKTİFBANK|10.40.24.131|||110000438458|113
13.10.2018 15:00:00||AKTİFBANK|10.40.24.131|||110000438458|110
13.10.2018 15:00:00||AKTİFBANK|10.40.24.131|||110000438458|20
13.10.2018 15:00:00||AKTİFBANK|10.40.24.131|||110000438458|160
13.10.2018 15:00:00||AKTİFBANK|10.40.24.131|||110000438458|60
13.10.2018 15:00:00||AKTİFBANK|10.40.24.131|||110000438458|110
13.10.2018 15:00:00||AKTİFBANK|10.40.24.132|||110000438458|33
13.10.2018 15:00:00||AKTİFBANK|10.40.24.132|||110000438458|85
13.10.2018 15:00:00||AKTİFBANK|10.40.24.132|||110000438458|53
13.10.2018 15:00:00||AKTİFBANK|10.40.24.132|||110000438458|198
13.10.2018 15:00:00||AKTİFBANK|10.40.24.132|||110000438458|67
13.10.2018 15:00:00||AKTİFBANK|10.40.24.143|||110000438458|67
13.10.2018 15:00:00||AKTİFBANK|10.40.24.143|||110000438458|270
13.10.2018 15:00:00||AKTİFBANK|10.40.24.143|||110000438458|295
13.10.2018 15:00:00||AKTİFBANK|10.40.24.143|||110000438458|218
13.10.2018 15:00:00||AKTİFBANK|10.40.24.144|||110000438458|70
13.10.2018 15:00:00||AKTİFBANK|10.40.24.144|||110000438458|105
13.10.2018 15:00:00||AKTİFBANK|10.40.24.144|||110000438458|130
13.10.2018 15:00:00||AKTİFBANK|10.40.24.148|||110000438458|63
13.10.2018 15:00:00||AKTİFBANK|10.40.24.148|||110000438458|172
13.10.2018 15:00:00||AKTİFBANK|10.40.24.148|||110000438458|80
13.10.2018 15:00:00||AKTİFBANK|10.40.24.148|||110000438458|110
13.10.2018 15:00:00||AKTİFBANK|10.40.24.148|||110000438458|80
13.10.2018 15:00:00||AKTİFBANK|10.40.24.148|||110000438458|82
13.10.2018 15:00:00||AKTİFBANK|10.40.24.148|||110000438458|93
13.10.2018 15:00:00||AKTİFBANK|10.40.24.148|||110000438458|97
13.10.2018 15:00:00||AKTİFBANK|10.40.24.148|||110000438458|82
13.10.2018 15:00:00||AKTİFBANK|10.40.24.148|||110000438458|60
13.10.2018 15:00:00||AKTİFBANK|10.40.24.148|||110000438458|33
13.10.2018 15:00:00||AKTİFBANK|10.40.24.148|||110000438458|70
13.10.2018 15:00:00||AKTİFBANK|10.40.24.153|||110000438458|10
13.10.2018 15:00:00||AKTİFBANK|10.40.24.153|||110000438458|90
13.10.2018 15:00:00||AKTİFBANK|10.40.24.153|||110000438458|70
13.10.2018 15:00:00||AKTİFBANK|10.40.24.153|||110000438458|75
13.10.2018 15:00:00||AKTİFBANK|10.40.24.157|||110000438458|30
13.10.2018 15:00:00||AKTİFBANK|10.40.24.157|||110000438458|78
13.10.2018 15:00:00||AKTİFBANK|10.40.24.157|||110000438458|72
13.10.2018 15:00:00||AKTİFBANK|10.40.24.157|||110000438458|47
13.10.2018 15:00:00||AKTİFBANK|10.40.24.157|||110000438458|80
13.10.2018 15:00:00||AKTİFBANK|10.40.24.157|||110000438458|40
13.10.2018 15:00:00||AKTİFBANK|10.40.24.158|||110000438458|80
13.10.2018 15:00:00||AKTİFBANK|10.40.24.158|||110000438458|113
13.10.2018 15:00:00||AKTİFBANK|10.40.24.159|||110000438458|132
13.10.2018 15:00:00||AKTİFBANK|10.40.24.159|||110000438458|50
13.10.2018 15:00:00||AKTİFBANK|10.40.24.159|||110000438458|183
13.10.2018 15:00:00||AKTİFBANK|10.40.24.160|||110000438458|50
13.10.2018 15:00:00||AKTİFBANK|10.40.24.160|||110000438458|90
13.10.2018 15:00:00||AKTİFBANK|10.40.24.160|||110000438458|103
13.10.2018 15:00:00||AKTİFBANK|10.40.24.161|||110000438458|200
13.10.2018 15:00:00||AKTİFBANK|10.40.24.161|||110000438458|80
13.10.2018 15:00:00||AKTİFBANK|10.40.24.161|||110000438458|40
13.10.2018 15:00:00||AKTİFBANK|10.40.24.161|||110000438458|30
13.10.2018 15:00:00||AKTİFBANK|10.40.24.161|||110000438458|30
13.10.2018 15:00:00||AKTİFBANK|10.40.24.161|||110000438458|20
13.10.2018 15:00:00||AKTİFBANK|10.40.24.161|||110000438458|90
13.10.2018 15:00:00||AKTİFBANK|10.40.24.145|||110000438458|20
13.10.2018 15:00:00||AKTİFBANK|10.40.24.145|||110000438458|70
13.10.2018 15:00:00||AKTİFBANK|10.40.24.145|||110000438458|60
13.10.2018 15:00:00||AKTİFBANK|10.40.24.147|||110000438458|90
13.10.2018 15:00:00||AKTİFBANK|10.40.24.162|||110000438458|40
13.10.2018 15:00:00||AKTİFBANK|10.40.24.162|||110000438458|40
13.10.2018 15:00:00||AKTİFBANK|10.40.24.162|||110000438458|102
13.10.2018 15:00:00||AKTİFBANK|10.40.24.162|||110000438458|10
13.10.2018 15:00:00||AKTİFBANK|10.40.24.162|||110000438458|50
13.10.2018 15:00:00||AKTİFBANK|10.40.24.163|||110000438458|30
13.10.2018 15:00:00||AKTİFBANK|10.40.24.163|||110000438458|77
13.10.2018 15:00:00||AKTİFBANK|10.40.24.164|||110000438458|60
13.10.2018 15:00:00||AKTİFBANK|10.40.24.164|||110000438458|330
13.10.2018 15:00:00||AKTİFBANK|10.40.24.164|||110000438458|220
13.10.2018 15:00:00||AKTİFBANK|10.40.24.165|||110000438458|73
13.10.2018 15:00:00||AKTİFBANK|10.40.24.165|||110000438458|80
13.10.2018 15:00:00||AKTİFBANK|10.40.24.165|||110000438458|50
13.10.2018 15:00:00||AKTİFBANK|10.40.24.165|||110000438458|122
13.10.2018 15:00:00||AKTİFBANK|10.40.24.166|||110000438458|80
13.10.2018 15:00:00||AKTİFBANK|10.40.24.166|||110000438458|90
13.10.2018 15:00:00||AKTİFBANK|10.40.24.166|||110000438458|10
13.10.2018 15:00:00||AKTİFBANK|10.40.25.168|||110000438458|90
13.10.2018 15:00:00||AKTİFBANK|10.40.25.168|||110000438458|70
13.10.2018 15:00:00||AKTİFBANK|10.40.25.168|||110000438458|50
13.10.2018 15:00:00||AKTİFBANK|10.40.25.168|||110000438458|40
13.10.2018 15:00:00||AKTİFBANK|10.40.25.168|||110000438458|60
13.10.2018 15:00:00||AKTİFBANK|10.40.24.168|||110000438458|90
13.10.2018 15:00:00||AKTİFBANK|10.40.24.168|||110000438458|38
13.10.2018 15:00:00||AKTİFBANK|10.40.24.168|||110000438458|80
13.10.2018 15:00:00||AKTİFBANK|10.40.24.168|||110000438458|70
13.10.2018 15:00:00||AKTİFBANK|10.40.24.168|||110000438458|70
13.10.2018 15:00:00||AKTİFBANK|10.40.24.168|||110000438458|30
13.10.2018 15:00:00||AKTİFBANK|10.40.24.154|||110000438458|70
13.10.2018 15:00:00||AKTİFBANK|10.40.24.154|||110000438458|15
13.10.2018 15:00:00||AKTİFBANK|10.40.24.154|||110000438458|10
13.10.2018 15:00:00||AKTİFBANK|10.40.24.154|||110000438458|10
13.10.2018 15:00:00||AKTİFBANK|10.40.24.154|||110000438458|10
13.10.2018 15:00:00||AKTİFBANK|10.40.24.154|||110000438458|10
13.10.2018 15:00:00||AKTİFBANK|10.40.24.155|||110000438458|102
13.10.2018 15:00:00||AKTİFBANK|10.40.24.155|||110000438458|130
13.10.2018 15:00:00||AKTİFBANK|10.40.24.155|||110000438458|80
13.10.2018 15:00:00||AKTİFBANK|10.40.24.155|||110000438458|112
13.10.2018 15:00:00||AKTİFBANK|10.40.24.155|||110000438458|100
13.10.2018 15:00:00||AKTİFBANK|10.40.25.169|||110000438458|85
13.10.2018 15:00:00||AKTİFBANK|10.40.25.169|||110000438458|90
13.10.2018 15:00:00||AKTİFBANK|10.40.25.169|||110000438458|70
13.10.2018 15:00:00||AKTİFBANK|10.40.25.169|||110000438458|73
13.10.2018 15:00:00||AKTİFBANK|10.40.24.169|||110000438458|77
13.10.2018 15:00:00||AKTİFBANK|10.40.24.169|||110000438458|88
13.10.2018 15:00:00||AKTİFBANK|10.40.24.169|||110000438458|63
13.10.2018 15:00:00||AKTİFBANK|10.40.24.169|||110000438458|80
13.10.2018 15:00:00||AKTİFBANK|10.40.25.170|||110000438458|30
13.10.2018 15:00:00||AKTİFBANK|10.40.25.170|||110000438458|30
13.10.2018 15:00:00||AKTİFBANK|10.40.25.170|||110000438458|200
13.10.2018 15:00:00||AKTİFBANK|10.40.25.170|||110000438458|100
13.10.2018 15:00:00||AKTİFBANK|10.40.25.170|||110000438458|80
13.10.2018 15:00:00||AKTİFBANK|10.40.25.170|||110000438458|120
13.10.2018 15:00:00||AKTİFBANK|10.40.24.170|||110000438458|60
13.10.2018 15:00:00||AKTİFBANK|10.40.24.170|||110000438458|60
13.10.2018 15:00:00||AKTİFBANK|10.40.24.170|||110000438458|347
13.10.2018 15:00:00||AKTİFBANK|10.40.24.170|||110000438458|232
13.10.2018 15:00:00||AKTİFBANK|10.40.24.170|||110000438458|78
13.10.2018 15:00:00||AKTİFBANK|10.40.24.170|||110000438458|100
13.10.2018 15:00:00||AKTİFBANK|10.40.24.170|||110000438458|73
13.10.2018 15:00:00||AKTİFBANK|10.40.25.178|||110000438458|552
13.10.2018 15:00:00||AKTİFBANK|10.40.25.178|||110000438458|552
13.10.2018 15:00:00||AKTİFBANK|10.40.25.178|||110000438458|553
13.10.2018 15:00:00||AKTİFBANK|10.40.24.178|||110000438458|553
13.10.2018 15:00:00||AKTİFBANK|10.40.24.178|||110000438458|542
13.10.2018 15:00:00||AKTİFBANK|10.40.24.178|||110000438458|538
13.10.2018 15:00:00||AKTİFBANK|10.40.25.179|||110000438458|402
13.10.2018 15:00:00||AKTİFBANK|10.40.25.179|||110000438458|367
13.10.2018 15:00:00||AKTİFBANK|10.40.25.179|||110000438458|363
13.10.2018 15:00:00||AKTİFBANK|10.40.24.179|||110000438458|335
13.10.2018 15:00:00||AKTİFBANK|10.40.24.179|||110000438458|327
13.10.2018 15:00:00||AKTİFBANK|10.40.24.179|||110000438458|325
13.10.2018 15:00:00||AKTİFBANK|10.40.24.142|||110000438458|40
13.10.2018 15:00:00||AKTİFBANK|10.40.24.156|||110000438458|50
13.10.2018 15:00:00||AKTİFBANK|10.40.24.156|||110000438458|50
13.10.2018 15:00:00||AKTİFBANK|10.40.25.186|||110000438458|90
13.10.2018 15:00:00||AKTİFBANK|10.40.25.186|||110000438458|20
13.10.2018 15:00:00||AKTİFBANK|10.40.25.186|||110000438458|70
13.10.2018 15:00:00||AKTİFBANK|10.40.24.186|||110000438458|92
13.10.2018 15:00:00||AKTİFBANK|10.40.24.186|||110000438458|22
13.10.2018 15:00:00||AKTİFBANK|10.40.24.186|||110000438458|57
13.10.2018 15:00:00||AKTİFBANK|10.40.24.186|||110000438458|40
13.10.2018 15:00:00||AKTİFBANK|10.40.24.152|||110000438458|10
13.10.2018 15:00:00||AKTİFBANK|10.40.24.152|||110000438458|48
13.10.2018 15:00:00||AKTİFBANK|10.40.24.152|||110000438458|97
13.10.2018 15:00:00||AKTİFBANK|10.40.24.152|||110000438458|105
13.10.2018 15:00:00||AKTİFBANK|10.40.24.152|||110000438458|98
13.10.2018 15:00:00||AKTİFBANK|10.40.24.152|||110000438458|108
13.10.2018 15:00:00||AKTİFBANK|10.40.24.152|||110000438458|293
13.10.2018 15:00:00||AKTİFBANK|10.40.24.152|||110000438458|73
13.10.2018 15:00:00||AKTİFBANK|10.40.24.152|||110000438458|93
13.10.2018 15:00:00||AKTİFBANK|10.40.24.152|||110000438458|30
13.10.2018 15:00:00||AKTİFBANK|10.40.24.152|||110000438458|72
13.10.2018 15:00:00||AKTİFBANK|10.40.24.152|||110000438458|30
13.10.2018 15:00:00||BARİKAT İNTERNET GÜVENLİĞİ|10.40.25.201|||110000479736|113
13.10.2018 15:00:00||BARİKAT İNTERNET GÜVENLİĞİ|10.40.25.201|||110000479736|100
13.10.2018 15:00:00||BARİKAT İNTERNET GÜVENLİĞİ|10.40.24.201|||110000479736|135
13.10.2018 15:00:00||BARİKAT İNTERNET GÜVENLİĞİ|10.40.24.201|||110000479736|95
13.10.2018 15:00:00||BOYNER|10.40.26.100|||101367941673|56
13.10.2018 15:00:00||BOYNER|10.40.26.101|||101367941673|154
13.10.2018 15:00:00||BOYNER|10.40.27.100|||101367941673|52
13.10.2018 15:00:00||BOYNER|10.40.27.101|||101367941673|165
13.10.2018 15:00:00||BOYNER|10.40.27.94|||101367941673|210
13.10.2018 15:00:00||BOYNER|10.40.27.94|||101367941673|90
13.10.2018 15:00:00||BOYNER|10.40.27.94|||101367941673|90
13.10.2018 15:00:00||BOYNER|10.40.27.94|||101367941673|100
13.10.2018 15:00:00||BOYNER|10.40.26.94|||101367941673|90
13.10.2018 15:00:00||BOYNER|10.40.26.94|||101367941673|80
13.10.2018 15:00:00||BOYNER|10.40.26.94|||101367941673|80
13.10.2018 15:00:00||BOYNER|10.40.27.95|||101367941673|125
13.10.2018 15:00:00||BOYNER|10.40.27.95|||101367941673|128
13.10.2018 15:00:00||BOYNER|10.40.27.95|||101367941673|235
13.10.2018 15:00:00||BOYNER|10.40.26.95|||101367941673|110
13.10.2018 15:00:00||BOYNER|10.40.26.95|||101367941673|193
13.10.2018 15:00:00||BOYNER|10.40.26.95|||101367941673|138
13.10.2018 15:00:00||BOYNER|10.40.27.96|||101367941673|60
13.10.2018 15:00:00||BOYNER|10.40.27.96|||101367941673|60
13.10.2018 15:00:00||BOYNER|10.40.27.96|||101367941673|50
13.10.2018 15:00:00||BOYNER|10.40.27.96|||101367941673|40
13.10.2018 15:00:00||BOYNER|10.40.27.96|||101367941673|40
13.10.2018 15:00:00||BOYNER|10.40.27.96|||101367941673|150
13.10.2018 15:00:00||BOYNER|10.40.27.96|||101367941673|152
13.10.2018 15:00:00||BOYNER|10.40.27.96|||101367941673|170
13.10.2018 15:00:00||BOYNER|10.40.27.96|||101367941673|163
13.10.2018 15:00:00||BOYNER|10.40.26.96|||101367941673|30
13.10.2018 15:00:00||BOYNER|10.40.26.96|||101367941673|40
13.10.2018 15:00:00||BOYNER|10.40.26.96|||101367941673|30
13.10.2018 15:00:00||BOYNER|10.40.26.96|||101367941673|40
13.10.2018 15:00:00||BOYNER|10.40.26.96|||101367941673|40
13.10.2018 15:00:00||BOYNER|10.40.26.96|||101367941673|50
13.10.2018 15:00:00||BOYNER|10.40.26.96|||101367941673|182
13.10.2018 15:00:00||BOYNER|10.40.26.96|||101367941673|202
13.10.2018 15:00:00||BOYNER|10.40.26.96|||101367941673|163
13.10.2018 15:00:00||BOYNER|10.40.26.96|||101367941673|172
13.10.2018 15:00:00||BOYNER|10.40.27.97|||101367941673|60
13.10.2018 15:00:00||BOYNER|10.40.27.97|||101367941673|645
13.10.2018 15:00:00||BOYNER|10.40.27.97|||101367941673|648
13.10.2018 15:00:00||BOYNER|10.40.27.97|||101367941673|685
13.10.2018 15:00:00||BOYNER|10.40.27.97|||101367941673|50
13.10.2018 15:00:00||BOYNER|10.40.27.97|||101367941673|40
13.10.2018 15:00:00||BOYNER|10.40.27.97|||101367941673|60
13.10.2018 15:00:00||BOYNER|10.40.27.97|||101367941673|30
13.10.2018 15:00:00||BOYNER|10.40.27.97|||101367941673|173
13.10.2018 15:00:00||BOYNER|10.40.27.97|||101367941673|170
13.10.2018 15:00:00||BOYNER|10.40.27.97|||101367941673|183
13.10.2018 15:00:00||BOYNER|10.40.27.97|||101367941673|190
13.10.2018 15:00:00||BOYNER|10.40.26.97|||101367941673|30
13.10.2018 15:00:00||BOYNER|10.40.26.97|||101367941673|645
13.10.2018 15:00:00||BOYNER|10.40.26.97|||101367941673|643
13.10.2018 15:00:00||BOYNER|10.40.26.97|||101367941673|650
13.10.2018 15:00:00||BOYNER|10.40.26.97|||101367941673|30
13.10.2018 15:00:00||BOYNER|10.40.26.97|||101367941673|40
13.10.2018 15:00:00||BOYNER|10.40.26.97|||101367941673|52
13.10.2018 15:00:00||BOYNER|10.40.26.97|||101367941673|60
13.10.2018 15:00:00||BOYNER|10.40.26.97|||101367941673|30
13.10.2018 15:00:00||BOYNER|10.40.26.97|||101367941673|153
13.10.2018 15:00:00||BOYNER|10.40.26.97|||101367941673|172
13.10.2018 15:00:00||BOYNER|10.40.26.97|||101367941673|172
13.10.2018 15:00:00||BOYNER|10.40.26.97|||101367941673|153
13.10.2018 15:00:00||BOYNER|10.40.27.99|||101367941673|127
13.10.2018 15:00:00||BOYNER|10.40.27.99|||101367941673|80
13.10.2018 15:00:00||BOYNER|10.40.27.99|||101367941673|72
13.10.2018 15:00:00||BOYNER|10.40.26.99|||101367941673|10
13.10.2018 15:00:00||BOYNER|10.40.26.99|||101367941673|118
13.10.2018 15:00:00||BOYNER|10.40.26.99|||101367941673|98
13.10.2018 15:00:00||BOYNER|10.40.26.99|||101367941673|68
13.10.2018 15:00:00||ÇALIK HOLDİNG|10.40.24.118|||110000438407|43
13.10.2018 15:00:00||ÇALIK HOLDİNG|10.40.25.99|||110000438407|135
13.10.2018 15:00:00||ÇALIK HOLDİNG|10.40.25.118|||110000438407|160
13.10.2018 15:00:00||ÇALIK HOLDİNG|10.40.25.120|||110000438407|10
13.10.2018 15:00:00||ÇALIK HOLDİNG|10.40.25.120|||110000438407|90
13.10.2018 15:00:00||ÇALIK HOLDİNG|10.40.24.95|||110000438407|48
13.10.2018 15:00:00||ÇALIK HOLDİNG|10.40.25.97|||110000438407|80
13.10.2018 15:00:00||ÇALIK HOLDİNG|10.40.25.103|||110000438407|90
13.10.2018 15:00:00||ÇALIK HOLDİNG|10.40.25.120|||110000438407|40
13.10.2018 15:00:00||ÇALIK HOLDİNG|10.40.25.96|||110000438407|70
13.10.2018 15:00:00||ÇALIK HOLDİNG|10.40.25.96|||110000438407|90
13.10.2018 15:00:00||ÇALIK HOLDİNG|10.40.25.96|||110000438407|120
13.10.2018 15:00:00||ÇALIK HOLDİNG|10.40.25.96|||110000438407|90
13.10.2018 15:00:00||ÇALIK HOLDİNG|10.40.25.115|||110000438407|162
13.10.2018 15:00:00||ÇALIK HOLDİNG|10.40.25.115|||110000438407|70
13.10.2018 15:00:00||ÇALIK HOLDİNG|10.40.25.95|||110000438407|90
13.10.2018 15:00:00||ÇALIK HOLDİNG|10.40.25.96|||110000438407|90
13.10.2018 15:00:00||ÇALIK HOLDİNG|10.40.25.96|||110000438407|100
13.10.2018 15:00:00||ÇALIK HOLDİNG|10.40.25.120|||110000438407|20
13.10.2018 15:00:00||ÇALIK HOLDİNG|10.40.25.95|||110000438407|50
13.10.2018 15:00:00||ÇALIK HOLDİNG|10.40.24.94|||110000438407|193
13.10.2018 15:00:00||ÇALIK HOLDİNG|10.40.25.97|||110000438407|102
13.10.2018 15:00:00||ÇALIK HOLDİNG|10.40.25.120|||110000438407|60
13.10.2018 15:00:00||ÇALIK HOLDİNG|10.40.25.115|||110000438407|80
13.10.2018 15:00:00||ÇALIK HOLDİNG|10.40.25.115|||110000438407|67
13.10.2018 15:00:00||ÇALIK HOLDİNG|10.40.25.115|||110000438407|60
13.10.2018 15:00:00||ÇALIK HOLDİNG|10.40.25.101|||110000438407|50
13.10.2018 15:00:00||ÇALIK HOLDİNG|10.40.25.101|||110000438407|110
13.10.2018 15:00:00||ÇALIK HOLDİNG|10.40.25.101|||110000438407|30
13.10.2018 15:00:00||ÇALIK HOLDİNG|10.40.25.101|||110000438407|10
13.10.2018 15:00:00||ÇALIK HOLDİNG|10.40.25.101|||110000438407|78
13.10.2018 15:00:00||ÇALIK HOLDİNG|10.40.25.101|||110000438407|30
13.10.2018 15:00:00||ÇALIK HOLDİNG|10.40.25.101|||110000438407|38
13.10.2018 15:00:00||ÇALIK HOLDİNG|10.40.25.101|||110000438407|40
13.10.2018 15:00:00||ÇALIK HOLDİNG|10.40.25.101|||110000438407|90
13.10.2018 15:00:00||ÇALIK HOLDİNG|10.40.25.101|||110000438407|90
13.10.2018 15:00:00||ÇALIK HOLDİNG|10.40.25.101|||110000438407|90
13.10.2018 15:00:00||ÇALIK HOLDİNG|10.40.25.94|||110000438407|180
13.10.2018 15:00:00||ÇALIK HOLDİNG|10.40.25.94|||110000438407|180
13.10.2018 15:00:00||ÇALIK HOLDİNG|10.40.25.94|||110000438407|170
13.10.2018 15:00:00||ÇALIK HOLDİNG|10.40.25.94|||110000438407|180
13.10.2018 15:00:00||ÇALIK HOLDİNG|10.40.24.94|||110000438407|193
13.10.2018 15:00:00||ÇALIK HOLDİNG|10.40.24.94|||110000438407|185
13.10.2018 15:00:00||ÇALIK HOLDİNG|10.40.24.94|||110000438407|195
13.10.2018 15:00:00||ÇALIK HOLDİNG|10.40.25.95|||110000438407|20
13.10.2018 15:00:00||ÇALIK HOLDİNG|10.40.25.95|||110000438407|350
13.10.2018 15:00:00||ÇALIK HOLDİNG|10.40.25.95|||110000438407|357
13.10.2018 15:00:00||ÇALIK HOLDİNG|10.40.25.95|||110000438407|40
13.10.2018 15:00:00||ÇALIK HOLDİNG|10.40.24.95|||110000438407|102
13.10.2018 15:00:00||ÇALIK HOLDİNG|10.40.24.95|||110000438407|83
13.10.2018 15:00:00||ÇALIK HOLDİNG|10.40.24.95|||110000438407|388
13.10.2018 15:00:00||ÇALIK HOLDİNG|10.40.24.95|||110000438407|390
13.10.2018 15:00:00||ÇALIK HOLDİNG|10.40.25.96|||110000438407|90
13.10.2018 15:00:00||ÇALIK HOLDİNG|10.40.25.96|||110000438407|100
13.10.2018 15:00:00||ÇALIK HOLDİNG|10.40.25.96|||110000438407|100
13.10.2018 15:00:00||ÇALIK HOLDİNG|10.40.25.96|||110000438407|252
13.10.2018 15:00:00||ÇALIK HOLDİNG|10.40.25.96|||110000438407|262
13.10.2018 15:00:00||ÇALIK HOLDİNG|10.40.25.96|||110000438407|100
13.10.2018 15:00:00||ÇALIK HOLDİNG|10.40.25.96|||110000438407|90
13.10.2018 15:00:00||ÇALIK HOLDİNG|10.40.25.96|||110000438407|93
13.10.2018 15:00:00||ÇALIK HOLDİNG|10.40.25.97|||110000438407|90
13.10.2018 15:00:00||ÇALIK HOLDİNG|10.40.25.97|||110000438407|80
13.10.2018 15:00:00||ÇALIK HOLDİNG|10.40.25.97|||110000438407|290
13.10.2018 15:00:00||ÇALIK HOLDİNG|10.40.25.98|||110000438407|55
13.10.2018 15:00:00||ÇALIK HOLDİNG|10.40.25.98|||110000438407|162
13.10.2018 15:00:00||ÇALIK HOLDİNG|10.40.25.98|||110000438407|158
13.10.2018 15:00:00||ÇALIK HOLDİNG|10.40.25.98|||110000438407|167
13.10.2018 15:00:00||ÇALIK HOLDİNG|10.40.25.98|||110000438407|170
13.10.2018 15:00:00||ÇALIK HOLDİNG|10.40.25.98|||110000438407|67
13.10.2018 15:00:00||ÇALIK HOLDİNG|10.40.25.98|||110000438407|210
13.10.2018 15:00:00||ÇALIK HOLDİNG|10.40.25.98|||110000438407|180
13.10.2018 15:00:00||ÇALIK HOLDİNG|10.40.25.98|||110000438407|170
13.10.2018 15:00:00||ÇALIK HOLDİNG|10.40.25.98|||110000438407|210
13.10.2018 15:00:00||ÇALIK HOLDİNG|10.40.25.98|||110000438407|70
13.10.2018 15:00:00||ÇALIK HOLDİNG|10.40.25.98|||110000438407|300
13.10.2018 15:00:00||ÇALIK HOLDİNG|10.40.24.98|||110000438407|90
13.10.2018 15:00:00||ÇALIK HOLDİNG|10.40.24.98|||110000438407|155
13.10.2018 15:00:00||ÇALIK HOLDİNG|10.40.24.98|||110000438407|200
13.10.2018 15:00:00||ÇALIK HOLDİNG|10.40.24.98|||110000438407|200
13.10.2018 15:00:00||ÇALIK HOLDİNG|10.40.24.98|||110000438407|160
13.10.2018 15:00:00||ÇALIK HOLDİNG|10.40.24.98|||110000438407|30
13.10.2018 15:00:00||ÇALIK HOLDİNG|10.40.24.98|||110000438407|163
13.10.2018 15:00:00||ÇALIK HOLDİNG|10.40.24.98|||110000438407|180
13.10.2018 15:00:00||ÇALIK HOLDİNG|10.40.24.98|||110000438407|167
13.10.2018 15:00:00||ÇALIK HOLDİNG|10.40.24.98|||110000438407|172
13.10.2018 15:00:00||ÇALIK HOLDİNG|10.40.24.98|||110000438407|20
13.10.2018 15:00:00||ÇALIK HOLDİNG|10.40.24.98|||110000438407|277
13.10.2018 15:00:00||ÇALIK HOLDİNG|10.40.25.100|||110000438407|38
13.10.2018 15:00:00||ÇALIK HOLDİNG|10.40.25.100|||110000438407|40
13.10.2018 15:00:00||ÇALIK HOLDİNG|10.40.24.101|||110000438407|60
13.10.2018 15:00:00||ÇALIK HOLDİNG|10.40.24.101|||110000438407|110
13.10.2018 15:00:00||ÇALIK HOLDİNG|10.40.24.101|||110000438407|20
13.10.2018 15:00:00||ÇALIK HOLDİNG|10.40.24.101|||110000438407|20
13.10.2018 15:00:00||ÇALIK HOLDİNG|10.40.24.101|||110000438407|40
13.10.2018 15:00:00||ÇALIK HOLDİNG|10.40.24.101|||110000438407|80
13.10.2018 15:00:00||ÇALIK HOLDİNG|10.40.24.101|||110000438407|10
13.10.2018 15:00:00||ÇALIK HOLDİNG|10.40.24.101|||110000438407|20
13.10.2018 15:00:00||ÇALIK HOLDİNG|10.40.24.101|||110000438407|50
13.10.2018 15:00:00||ÇALIK HOLDİNG|10.40.24.101|||110000438407|30
13.10.2018 15:00:00||ÇALIK HOLDİNG|10.40.24.101|||110000438407|80
13.10.2018 15:00:00||ÇALIK HOLDİNG|10.40.24.101|||110000438407|80
13.10.2018 15:00:00||ÇALIK HOLDİNG|10.40.24.101|||110000438407|100
13.10.2018 15:00:00||ÇALIK HOLDİNG|10.40.25.102|||110000438407|100
13.10.2018 15:00:00||ÇALIK HOLDİNG|10.40.25.102|||110000438407|100
13.10.2018 15:00:00||ÇALIK HOLDİNG|10.40.25.102|||110000438407|150
13.10.2018 15:00:00||ÇALIK HOLDİNG|10.40.24.102|||110000438407|100
13.10.2018 15:00:00||ÇALIK HOLDİNG|10.40.24.102|||110000438407|100
13.10.2018 15:00:00||ÇALIK HOLDİNG|10.40.24.102|||110000438407|140
13.10.2018 15:00:00||ÇALIK HOLDİNG|10.40.25.103|||110000438407|90
13.10.2018 15:00:00||ÇALIK HOLDİNG|10.40.25.103|||110000438407|80
13.10.2018 15:00:00||ÇALIK HOLDİNG|10.40.25.103|||110000438407|20
13.10.2018 15:00:00||ÇALIK HOLDİNG|10.40.25.103|||110000438407|10
13.10.2018 15:00:00||ÇALIK HOLDİNG|10.40.25.115|||110000438407|82
13.10.2018 15:00:00||ÇALIK HOLDİNG|10.40.24.103|||110000438407|95
13.10.2018 15:00:00||ÇALIK HOLDİNG|10.40.24.103|||110000438407|80
13.10.2018 15:00:00||ÇALIK HOLDİNG|10.40.24.103|||110000438407|80
13.10.2018 15:00:00||ÇALIK HOLDİNG|10.40.24.103|||110000438407|10
13.10.2018 15:00:00||ÇALIK HOLDİNG|10.40.25.113|||110000438407|218
13.10.2018 15:00:00||ÇALIK HOLDİNG|10.40.25.113|||110000438407|230
13.10.2018 15:00:00||ÇALIK HOLDİNG|10.40.25.113|||110000438407|182
13.10.2018 15:00:00||ÇALIK HOLDİNG|10.40.25.113|||110000438407|195
13.10.2018 15:00:00||ÇALIK HOLDİNG|10.40.24.113|||110000438407|225
13.10.2018 15:00:00||ÇALIK HOLDİNG|10.40.24.113|||110000438407|217
13.10.2018 15:00:00||ÇALIK HOLDİNG|10.40.24.113|||110000438407|187
13.10.2018 15:00:00||ÇALIK HOLDİNG|10.40.24.113|||110000438407|150
13.10.2018 15:00:00||ÇALIK HOLDİNG|10.40.25.114|||110000438407|165
13.10.2018 15:00:00||ÇALIK HOLDİNG|10.40.25.114|||110000438407|423
13.10.2018 15:00:00||ÇALIK HOLDİNG|10.40.25.114|||110000438407|40
13.10.2018 15:00:00||ÇALIK HOLDİNG|10.40.24.114|||110000438407|20
13.10.2018 15:00:00||ÇALIK HOLDİNG|10.40.24.114|||110000438407|40
13.10.2018 15:00:00||ÇALIK HOLDİNG|10.40.24.114|||110000438407|155
13.10.2018 15:00:00||ÇALIK HOLDİNG|10.40.24.114|||110000438407|372
13.10.2018 15:00:00||ÇALIK HOLDİNG|10.40.24.115|||110000438407|152
13.10.2018 15:00:00||ÇALIK HOLDİNG|10.40.24.115|||110000438407|80
13.10.2018 15:00:00||ÇALIK HOLDİNG|10.40.24.115|||110000438407|85
13.10.2018 15:00:00||ÇALIK HOLDİNG|10.40.24.115|||110000438407|70
13.10.2018 15:00:00||ÇALIK HOLDİNG|10.40.24.115|||110000438407|82
13.10.2018 15:00:00||ÇALIK HOLDİNG|10.40.24.115|||110000438407|70
13.10.2018 15:00:00||ÇALIK HOLDİNG|10.40.25.116|||110000438407|100
13.10.2018 15:00:00||ÇALIK HOLDİNG|10.40.25.116|||110000438407|107
13.10.2018 15:00:00||ÇALIK HOLDİNG|10.40.25.116|||110000438407|280
13.10.2018 15:00:00||ÇALIK HOLDİNG|10.40.24.116|||110000438407|272
13.10.2018 15:00:00||ÇALIK HOLDİNG|10.40.24.116|||110000438407|103
13.10.2018 15:00:00||ÇALIK HOLDİNG|10.40.24.116|||110000438407|100
13.10.2018 15:00:00||ÇALIK HOLDİNG|10.40.25.117|||110000438407|242
13.10.2018 15:00:00||ÇALIK HOLDİNG|10.40.25.117|||110000438407|30
13.10.2018 15:00:00||ÇALIK HOLDİNG|10.40.25.117|||110000438407|30
13.10.2018 15:00:00||ÇALIK HOLDİNG|10.40.25.119|||110000438407|30
13.10.2018 15:00:00||ÇALIK HOLDİNG|10.40.25.119|||110000438407|30
13.10.2018 15:00:00||ÇALIK HOLDİNG|10.40.24.119|||110000438407|150
13.10.2018 15:00:00||ÇALIK HOLDİNG|10.40.24.119|||110000438407|30
13.10.2018 15:00:00||ÇALIK HOLDİNG|10.40.24.119|||110000438407|50
13.10.2018 15:00:00||ÇALIK HOLDİNG|10.40.25.120|||110000438407|105
13.10.2018 15:00:00||ÇALIK HOLDİNG|10.40.25.120|||110000438407|50
13.10.2018 15:00:00||ÇALIK HOLDİNG|10.40.25.120|||110000438407|20
13.10.2018 15:00:00||ÇALIK HOLDİNG|10.40.25.120|||110000438407|20
13.10.2018 15:00:00||ÇALIK HOLDİNG|10.40.25.120|||110000438407|30
13.10.2018 15:00:00||ÇALIK HOLDİNG|10.40.25.120|||110000438407|90
13.10.2018 15:00:00||ÇALIK HOLDİNG|10.40.25.120|||110000438407|90
13.10.2018 15:00:00||ÇALIK HOLDİNG|10.40.24.120|||110000438407|20
13.10.2018 15:00:00||ÇALIK HOLDİNG|10.40.24.120|||110000438407|30
13.10.2018 15:00:00||ÇALIK HOLDİNG|10.40.24.120|||110000438407|110
13.10.2018 15:00:00||ÇALIK HOLDİNG|10.40.24.120|||110000438407|100
13.10.2018 15:00:00||ÇALIK HOLDİNG|10.40.24.120|||110000438407|40
13.10.2018 15:00:00||ÇALIK HOLDİNG|10.40.24.120|||110000438407|80
13.10.2018 15:00:00||ÇALIK HOLDİNG|10.40.24.120|||110000438407|80
13.10.2018 15:00:00||ÇALIK HOLDİNG|10.40.24.120|||110000438407|70
13.10.2018 15:00:00||ÇALIK HOLDİNG|10.40.25.121|||110000438407|90
13.10.2018 15:00:00||ÇALIK HOLDİNG|10.40.25.121|||110000438407|100
13.10.2018 15:00:00||ÇALIK HOLDİNG|10.40.25.121|||110000438407|150
13.10.2018 15:00:00||ÇALIK HOLDİNG|10.40.24.121|||110000438407|100
13.10.2018 15:00:00||ÇALIK HOLDİNG|10.40.24.121|||110000438407|100
13.10.2018 15:00:00||ÇALIK HOLDİNG|10.40.24.121|||110000438407|140
13.10.2018 15:00:00||ÇALIK HOLDİNG|10.40.25.122|||110000438407|90
13.10.2018 15:00:00||ÇALIK HOLDİNG|10.40.25.122|||110000438407|82
13.10.2018 15:00:00||ÇALIK HOLDİNG|10.40.25.122|||110000438407|80
13.10.2018 15:00:00||ÇALIK HOLDİNG|10.40.25.122|||110000438407|30
13.10.2018 15:00:00||ÇALIK HOLDİNG|10.40.25.122|||110000438407|10
13.10.2018 15:00:00||ÇALIK HOLDİNG|10.40.24.122|||110000438407|90
13.10.2018 15:00:00||ÇALIK HOLDİNG|10.40.24.122|||110000438407|80
13.10.2018 15:00:00||ÇALIK HOLDİNG|10.40.24.122|||110000438407|90
13.10.2018 15:00:00||ÇALIK HOLDİNG|10.40.24.117|||110000438407|200
13.10.2018 15:00:00||ÇALIK HOLDİNG|10.40.24.117|||110000438407|30
13.10.2018 15:00:00||ÇALIK HOLDİNG|10.40.24.117|||110000438407|30
13.10.2018 15:00:00||ÇALIK HOLDİNG|10.40.24.97|||110000438407|97
13.10.2018 15:00:00||ÇALIK HOLDİNG|10.40.24.97|||110000438407|90
13.10.2018 15:00:00||ÇALIK HOLDİNG|10.40.24.97|||110000438407|80
13.10.2018 15:00:00||ÇALIK HOLDİNG|10.40.24.97|||110000438407|90
13.10.2018 15:00:00||ÇALIK HOLDİNG|10.40.24.97|||110000438407|313
13.10.2018 15:00:00||ÇALIK HOLDİNG|10.40.24.100|||110000438407|30
13.10.2018 15:00:00||ÇALIK HOLDİNG|10.40.24.100|||110000438407|40
13.10.2018 15:00:00||FIBABANKA|10.40.27.54|||101571767266|308
13.10.2018 15:00:00||FIBABANKA|10.40.26.54|||101571767266|317
13.10.2018 15:00:00||FIBABANKA|10.40.27.55|||101571767266|103
13.10.2018 15:00:00||FIBABANKA|10.40.26.55|||101571767266|103
13.10.2018 15:00:00||FIBABANKA|10.40.24.55|||101571767266|111
13.10.2018 15:00:00||FIBABANKA|10.40.25.56|||101571767266|195
13.10.2018 15:00:00||FIBABANKA|10.40.25.54|||101571767266|329
13.10.2018 15:00:00||FIBABANKA|10.40.24.54|||101571767266|314
13.10.2018 15:00:00||FIBABANKA|10.40.25.55|||101571767266|111
13.10.2018 15:00:00||FIBABANKA|10.40.24.56|||101571767266|200
13.10.2018 15:00:00||FIBABANKA|10.40.26.53|||101571767266|45
13.10.2018 15:00:00||FIBABANKA|10.40.26.53|||101571767266|147
13.10.2018 15:00:00||FIBABANKA|10.40.25.76|||101571767266|10
13.10.2018 15:00:00||FIBABANKA|10.40.27.53|||101571767266|142
13.10.2018 15:00:00||FIBABANKA|10.40.27.53|||101571767266|152
13.10.2018 15:00:00||FIBABANKA|10.40.26.53|||101571767266|135
13.10.2018 15:00:00||FIBABANKA|10.40.27.57|||101571767266|80
13.10.2018 15:00:00||FIBABANKA|10.40.27.57|||101571767266|85
13.10.2018 15:00:00||FIBABANKA|10.40.27.57|||101571767266|80
13.10.2018 15:00:00||FIBABANKA|10.40.25.57|||101571767266|90
13.10.2018 15:00:00||FIBABANKA|10.40.25.57|||101571767266|90
13.10.2018 15:00:00||FIBABANKA|10.40.25.57|||101571767266|90
13.10.2018 15:00:00||FIBABANKA|10.40.26.51|||101571767266|20
13.10.2018 15:00:00||FIBABANKA|10.40.27.52|||101571767266|50
13.10.2018 15:00:00||FIBABANKA|10.40.27.52|||101571767266|60
13.10.2018 15:00:00||FIBABANKA|10.40.27.52|||101571767266|70
13.10.2018 15:00:00||FIBABANKA|10.40.27.74|||101571767266|175
13.10.2018 15:00:00||FIBABANKA|10.40.25.53|||101571767266|30
13.10.2018 15:00:00||FIBABANKA|10.40.25.53|||101571767266|50
13.10.2018 15:00:00||FIBABANKA|10.40.27.53|||101571767266|60
13.10.2018 15:00:00||FIBABANKA|10.40.26.53|||101571767266|60
13.10.2018 15:00:00||FIBABANKA|10.40.25.51|||101571767266|20
13.10.2018 15:00:00||FIBABANKA|10.40.25.51|||101571767266|110
13.10.2018 15:00:00||FIBABANKA|10.40.24.51|||101571767266|20
13.10.2018 15:00:00||FIBABANKA|10.40.24.51|||101571767266|70
13.10.2018 15:00:00||FIBABANKA|10.40.24.51|||101571767266|100
13.10.2018 15:00:00||FIBABANKA|10.40.24.51|||101571767266|140
13.10.2018 15:00:00||FIBABANKA|10.40.24.51|||101571767266|30
13.10.2018 15:00:00||FIBABANKA|10.40.24.57|||101571767266|90
13.10.2018 15:00:00||FIBABANKA|10.40.24.57|||101571767266|80
13.10.2018 15:00:00||FIBABANKA|10.40.24.57|||101571767266|80
13.10.2018 15:00:00||FIBABANKA|10.40.24.52|||101571767266|10
13.10.2018 15:00:00||FIBABANKA|10.40.26.73|||101571767266|40
13.10.2018 15:00:00||FIBABANKA|10.40.27.53|||101571767266|68
13.10.2018 15:00:00||FIBABANKA|10.40.26.51|||101571767266|70
13.10.2018 15:00:00||FIBABANKA|10.40.26.52|||101571767266|30
13.10.2018 15:00:00||FIBABANKA|10.40.26.52|||101571767266|90
13.10.2018 15:00:00||FIBABANKA|10.40.26.52|||101571767266|30
13.10.2018 15:00:00||FIBABANKA|10.40.25.51|||101571767266|140
13.10.2018 15:00:00||FIBABANKA|10.40.25.51|||101571767266|40
13.10.2018 15:00:00||FIBABANKA|10.40.25.51|||101571767266|40
13.10.2018 15:00:00||FIBABANKA|10.40.25.51|||101571767266|70
13.10.2018 15:00:00||FIBABANKA|10.40.24.51|||101571767266|30
13.10.2018 15:00:00||FIBABANKA|10.40.25.59|||101571767266|70
13.10.2018 15:00:00||FIBABANKA|10.40.25.59|||101571767266|98
13.10.2018 15:00:00||FIBABANKA|10.40.25.59|||101571767266|98
13.10.2018 15:00:00||FIBABANKA|10.40.25.59|||101571767266|40
13.10.2018 15:00:00||FIBABANKA|10.40.25.59|||101571767266|127
13.10.2018 15:00:00||FIBABANKA|10.40.25.59|||101571767266|63
13.10.2018 15:00:00||FIBABANKA|10.40.25.59|||101571767266|50
13.10.2018 15:00:00||FIBABANKA|10.40.25.59|||101571767266|170
13.10.2018 15:00:00||FIBABANKA|10.40.25.59|||101571767266|60
13.10.2018 15:00:00||FIBABANKA|10.40.24.59|||101571767266|70
13.10.2018 15:00:00||FIBABANKA|10.40.24.59|||101571767266|128
13.10.2018 15:00:00||FIBABANKA|10.40.24.59|||101571767266|80
13.10.2018 15:00:00||FIBABANKA|10.40.24.59|||101571767266|50
13.10.2018 15:00:00||FIBABANKA|10.40.24.59|||101571767266|130
13.10.2018 15:00:00||FIBABANKA|10.40.24.59|||101571767266|70
13.10.2018 15:00:00||FIBABANKA|10.40.24.59|||101571767266|60
13.10.2018 15:00:00||FIBABANKA|10.40.24.59|||101571767266|162
13.10.2018 15:00:00||FIBABANKA|10.40.24.59|||101571767266|67
13.10.2018 15:00:00||FIBABANKA|10.40.25.60|||101571767266|117
13.10.2018 15:00:00||FIBABANKA|10.40.25.60|||101571767266|35
13.10.2018 15:00:00||FIBABANKA|10.40.25.60|||101571767266|108
13.10.2018 15:00:00||FIBABANKA|10.40.25.60|||101571767266|40
13.10.2018 15:00:00||FIBABANKA|10.40.24.60|||101571767266|122
13.10.2018 15:00:00||FIBABANKA|10.40.24.60|||101571767266|60
13.10.2018 15:00:00||FIBABANKA|10.40.24.60|||101571767266|32
13.10.2018 15:00:00||FIBABANKA|10.40.24.60|||101571767266|100
13.10.2018 15:00:00||FIBABANKA|10.40.24.60|||101571767266|50
13.10.2018 15:00:00||FIBABANKA|10.40.25.72|||101571767266|70
13.10.2018 15:00:00||FIBABANKA|10.40.25.72|||101571767266|40
13.10.2018 15:00:00||FIBABANKA|10.40.25.72|||101571767266|30
13.10.2018 15:00:00||FIBABANKA|10.40.24.72|||101571767266|140
13.10.2018 15:00:00||FIBABANKA|10.40.24.72|||101571767266|78
13.10.2018 15:00:00||FIBABANKA|10.40.24.72|||101571767266|30
13.10.2018 15:00:00||FIBABANKA|10.40.24.72|||101571767266|40
13.10.2018 15:00:00||FIBABANKA|10.40.25.74|||101571767266|37
13.10.2018 15:00:00||FIBABANKA|10.40.25.75|||101571767266|40
13.10.2018 15:00:00||FIBABANKA|10.40.25.75|||101571767266|83
13.10.2018 15:00:00||FIBABANKA|10.40.25.75|||101571767266|132
13.10.2018 15:00:00||FIBABANKA|10.40.25.75|||101571767266|168
13.10.2018 15:00:00||FIBABANKA|10.40.25.75|||101571767266|182
13.10.2018 15:00:00||FIBABANKA|10.40.25.75|||101571767266|195
13.10.2018 15:00:00||FIBABANKA|10.40.24.75|||101571767266|50
13.10.2018 15:00:00||FIBABANKA|10.40.24.75|||101571767266|50
13.10.2018 15:00:00||FIBABANKA|10.40.24.75|||101571767266|170
13.10.2018 15:00:00||FIBABANKA|10.40.24.75|||101571767266|150
13.10.2018 15:00:00||FIBABANKA|10.40.24.76|||101571767266|35
13.10.2018 15:00:00||FIBABANKA|10.40.24.76|||101571767266|67
13.10.2018 15:00:00||FIBABANKA|10.40.24.76|||101571767266|10
13.10.2018 15:00:00||FIBABANKA|10.40.24.53|||101571767266|30
13.10.2018 15:00:00||FIBABANKA|10.40.24.53|||101571767266|60
13.10.2018 15:00:00||FIBABANKA|10.40.26.57|||101571767266|90
13.10.2018 15:00:00||FIBABANKA|10.40.26.57|||101571767266|83
13.10.2018 15:00:00||FIBABANKA|10.40.26.57|||101571767266|80
13.10.2018 15:00:00||FIBABANKA|10.40.27.72|||101571767266|40
13.10.2018 15:00:00||FIBABANKA|10.40.27.72|||101571767266|50
13.10.2018 15:00:00||FIBABANKA|10.40.27.72|||101571767266|30
13.10.2018 15:00:00||FIBABANKA|10.40.27.72|||101571767266|140
13.10.2018 15:00:00||FIBABANKA|10.40.27.72|||101571767266|62
13.10.2018 15:00:00||FIBABANKA|10.40.26.72|||101571767266|30
13.10.2018 15:00:00||FIBABANKA|10.40.26.72|||101571767266|140
13.10.2018 15:00:00||FIBABANKA|10.40.26.72|||101571767266|70
13.10.2018 15:00:00||FIBABANKA|10.40.26.72|||101571767266|30
13.10.2018 15:00:00||FIBABANKA|10.40.27.73|||101571767266|30
13.10.2018 15:00:00||FIBABANKA|10.40.27.73|||101571767266|100
13.10.2018 15:00:00||FIBABANKA|10.40.27.73|||101571767266|40
13.10.2018 15:00:00||FIBABANKA|10.40.27.73|||101571767266|43
13.10.2018 15:00:00||FIBABANKA|10.40.27.73|||101571767266|200
13.10.2018 15:00:00||FIBABANKA|10.40.26.73|||101571767266|40
13.10.2018 15:00:00||FIBABANKA|10.40.26.73|||101571767266|70
13.10.2018 15:00:00||FIBABANKA|10.40.26.73|||101571767266|30
13.10.2018 15:00:00||FIBABANKA|10.40.27.74|||101571767266|73
13.10.2018 15:00:00||FIBABANKA|10.40.27.74|||101571767266|157
13.10.2018 15:00:00||FIBABANKA|10.40.27.74|||101571767266|170
13.10.2018 15:00:00||FIBABANKA|10.40.26.74|||101571767266|72
13.10.2018 15:00:00||FIBABANKA|10.40.26.74|||101571767266|183
13.10.2018 15:00:00||FIBABANKA|10.40.26.74|||101571767266|182
13.10.2018 15:00:00||FIBABANKA|10.40.26.74|||101571767266|172
13.10.2018 15:00:00||FIBABANKA|10.40.27.75|||101571767266|10
13.10.2018 15:00:00||FIBABANKA|10.40.27.75|||101571767266|10
13.10.2018 15:00:00||FIBABANKA|10.40.26.79|||101571767266|10
13.10.2018 15:00:00||FIBABANKA|10.40.27.79|||101571767266|10
13.10.2018 15:00:00||FIBABANKA|10.40.26.79|||101571767266|10
13.10.2018 15:00:00||FIBABANKA|10.40.27.77|||101571767266|162
13.10.2018 15:00:00||FIBABANKA|10.40.26.77|||101571767266|187
13.10.2018 15:00:00||FIBABANKA|10.40.27.77|||101571767266|167
13.10.2018 15:00:00||FIBABANKA|10.40.25.74|||101571767266|227
13.10.2018 15:00:00||FIBABANKA|10.40.24.75|||101571767266|173
13.10.2018 15:00:00||FIBABANKA|10.40.24.53|||101571767266|160
13.10.2018 15:00:00||FIBABANKA|10.40.24.53|||101571767266|165
13.10.2018 15:00:00||FIBABANKA|10.40.25.52|||101571767266|10
13.10.2018 15:00:00||FIBABANKA|10.40.25.52|||101571767266|60
13.10.2018 15:00:00||FIBABANKA|10.40.25.53|||101571767266|140
13.10.2018 15:00:00||FIBABANKA|10.40.25.53|||101571767266|137
13.10.2018 15:00:00||FIBABANKA|10.40.27.51|||101571767266|30
13.10.2018 15:00:00||FIBABANKA|10.40.27.51|||101571767266|20
13.10.2018 15:00:00||FIBABANKA|10.40.27.51|||101571767266|100
13.10.2018 15:00:00||FIBABANKA|10.40.27.51|||101571767266|130
13.10.2018 15:00:00||FIBABANKA|10.40.27.51|||101571767266|68
13.10.2018 15:00:00||FIBABANKA|10.40.27.51|||101571767266|40
13.10.2018 15:00:00||FIBABANKA|10.40.27.51|||101571767266|40
13.10.2018 15:00:00||FIBABANKA|10.40.26.51|||101571767266|10
13.10.2018 15:00:00||FIBABANKA|10.40.26.51|||101571767266|110
13.10.2018 15:00:00||FIBABANKA|10.40.26.51|||101571767266|140
13.10.2018 15:00:00||FIBABANKA|10.40.26.51|||101571767266|30
13.10.2018 15:00:00||FIBABANKA|10.40.26.51|||101571767266|30
13.10.2018 15:00:00||FIBABANKA|10.40.24.74|||101571767266|30
13.10.2018 15:00:00||FIBABANKA|10.40.25.76|||101571767266|60
13.10.2018 15:00:00||FIBABANKA|10.40.25.76|||101571767266|40
13.10.2018 15:00:00||FIBABANKA|10.40.25.76|||101571767266|10
13.10.2018 15:00:00||HAVAŞ|10.40.24.46|||110000479675|10
13.10.2018 15:00:00||HAVAŞ|10.40.24.48|||110000479675|758
13.10.2018 15:00:00||HAVAŞ|10.40.24.48|||110000479675|753
13.10.2018 15:00:00||HAVAŞ|10.40.25.48|||110000479675|757
13.10.2018 15:00:00||HAVAŞ|10.40.24.45|||110000479675|90
13.10.2018 15:00:00||HAVAŞ|10.40.25.45|||110000479675|70
13.10.2018 15:00:00||HAVAŞ|10.40.25.47|||110000479675|70
13.10.2018 15:00:00||HAVAŞ|10.40.24.46|||110000479675|80
13.10.2018 15:00:00||HAVAŞ|10.40.24.47|||110000479675|30
13.10.2018 15:00:00||HAVAŞ|10.40.24.47|||110000479675|90
13.10.2018 15:00:00||HAVAŞ|10.40.24.47|||110000479675|90
13.10.2018 15:00:00||HAVAŞ|10.40.25.46|||110000479675|10
13.10.2018 15:00:00||HAVAŞ|10.40.25.46|||110000479675|60
13.10.2018 15:00:00||HAVAŞ|10.40.24.48|||110000479675|758
13.10.2018 15:00:00||HAVAŞ|10.40.24.46|||110000479675|60
13.10.2018 15:00:00||HAVAŞ|10.40.24.46|||110000479675|72
13.10.2018 15:00:00||HAVAŞ|10.40.24.47|||110000479675|12
13.10.2018 15:00:00||HAVAŞ|10.40.25.48|||110000479675|757
13.10.2018 15:00:00||HAVAŞ|10.40.25.48|||110000479675|787
13.10.2018 15:00:00||HAVAŞ|10.40.25.45|||110000479675|97
13.10.2018 15:00:00||HAVAŞ|10.40.24.45|||110000479675|50
13.10.2018 15:00:00||HAVAŞ|10.40.24.45|||110000479675|165
13.10.2018 15:00:00||HAVAŞ|10.40.24.45|||110000479675|100
13.10.2018 15:00:00||HAVAŞ|10.40.25.47|||110000479675|70
13.10.2018 15:00:00||HAVAŞ|10.40.25.47|||110000479675|220
13.10.2018 15:00:00||HAVAŞ|10.40.25.47|||110000479675|57
13.10.2018 15:00:00||HAVAŞ|10.40.25.47|||110000479675|90
13.10.2018 15:00:00||HAVAŞ|10.40.25.47|||110000479675|90
13.10.2018 15:00:00||HAVAŞ|10.40.25.47|||110000479675|90
13.10.2018 15:00:00||HAVAŞ|10.40.25.47|||110000479675|110
13.10.2018 15:00:00||HAVAŞ|10.40.25.47|||110000479675|180
13.10.2018 15:00:00||HAVAŞ|10.40.25.47|||110000479675|90
13.10.2018 15:00:00||HAVAŞ|10.40.25.47|||110000479675|90
13.10.2018 15:00:00||HAVAŞ|10.40.25.47|||110000479675|92
13.10.2018 15:00:00||HAVAŞ|10.40.25.45|||110000479675|98
13.10.2018 15:00:00||HAVAŞ|10.40.25.45|||110000479675|88
13.10.2018 15:00:00||HAVAŞ|10.40.25.46|||110000479675|10
13.10.2018 15:00:00||HAVAŞ|10.40.25.46|||110000479675|10
13.10.2018 15:00:00||HAVAŞ|10.40.25.46|||110000479675|20
13.10.2018 15:00:00||HAVAŞ|10.40.25.46|||110000479675|20
13.10.2018 15:00:00||HAVAŞ|10.40.25.46|||110000479675|55
13.10.2018 15:00:00||HAVAŞ|10.40.25.46|||110000479675|100
13.10.2018 15:00:00||HAVAŞ|10.40.25.46|||110000479675|58
13.10.2018 15:00:00||HAVAŞ|10.40.25.46|||110000479675|77
13.10.2018 15:00:00||HAVAŞ|10.40.25.46|||110000479675|70
13.10.2018 15:00:00||HAVAŞ|10.40.24.46|||110000479675|20
13.10.2018 15:00:00||HAVAŞ|10.40.24.46|||110000479675|20
13.10.2018 15:00:00||HAVAŞ|10.40.24.46|||110000479675|10
13.10.2018 15:00:00||HAVAŞ|10.40.24.46|||110000479675|10
13.10.2018 15:00:00||HAVAŞ|10.40.24.46|||110000479675|10
13.10.2018 15:00:00||HAVAŞ|10.40.24.46|||110000479675|60
13.10.2018 15:00:00||HAVAŞ|10.40.24.46|||110000479675|110
13.10.2018 15:00:00||HAVAŞ|10.40.24.47|||110000479675|30
13.10.2018 15:00:00||HAVAŞ|10.40.24.47|||110000479675|220
13.10.2018 15:00:00||HAVAŞ|10.40.24.47|||110000479675|60
13.10.2018 15:00:00||HAVAŞ|10.40.24.47|||110000479675|60
13.10.2018 15:00:00||HAVAŞ|10.40.24.47|||110000479675|158
13.10.2018 15:00:00||HAVAŞ|10.40.24.47|||110000479675|100
13.10.2018 15:00:00||HAVAŞ|10.40.24.47|||110000479675|100
13.10.2018 15:00:00||MARS CINEMA|10.40.24.203|||110000472614|103
13.10.2018 15:00:00||MARS CINEMA|10.40.24.204|||110000472614|40
13.10.2018 15:00:00||MARS CINEMA|10.40.24.203|||110000472614|75
13.10.2018 15:00:00||MARS CINEMA|10.40.24.203|||110000472614|170
13.10.2018 15:00:00||MARS CINEMA|10.40.24.203|||110000472614|82
13.10.2018 15:00:00||MARS CINEMA|10.40.24.204|||110000472614|67
13.10.2018 15:00:00||MARS CINEMA|10.40.24.203|||110000472614|102
13.10.2018 15:00:00||MARS CINEMA|10.40.24.204|||110000472614|20
13.10.2018 15:00:00||MARS CINEMA|10.40.24.204|||110000472614|90
13.10.2018 15:00:00||MARS CINEMA|10.40.25.203|||110000472614|152
13.10.2018 15:00:00||MARS CINEMA|10.40.25.203|||110000472614|82
13.10.2018 15:00:00||MARS CINEMA|10.40.25.203|||110000472614|180
13.10.2018 15:00:00||MARS CINEMA|10.40.25.203|||110000472614|102
13.10.2018 15:00:00||MARS CINEMA|10.40.25.203|||110000472614|87
13.10.2018 15:00:00||MARS CINEMA|10.40.25.203|||110000472614|112
13.10.2018 15:00:00||MARS CINEMA|10.40.25.203|||110000472614|78
13.10.2018 15:00:00||MARS CINEMA|10.40.25.203|||110000472614|160
13.10.2018 15:00:00||MARS CINEMA|10.40.25.203|||110000472614|90
13.10.2018 15:00:00||MARS CINEMA|10.40.25.203|||110000472614|130
13.10.2018 15:00:00||MARS CINEMA|10.40.25.203|||110000472614|90
13.10.2018 15:00:00||MARS CINEMA|10.40.25.203|||110000472614|62
13.10.2018 15:00:00||MARS CINEMA|10.40.25.203|||110000472614|190
13.10.2018 15:00:00||MARS CINEMA|10.40.25.204|||110000472614|110
13.10.2018 15:00:00||MARS CINEMA|10.40.25.204|||110000472614|70
13.10.2018 15:00:00||MARS CINEMA|10.40.25.204|||110000472614|80
13.10.2018 15:00:00||MARS CINEMA|10.40.25.204|||110000472614|100
13.10.2018 15:00:00||MARS CINEMA|10.40.25.204|||110000472614|20
13.10.2018 15:00:00||MARS CINEMA|10.40.25.204|||110000472614|20
13.10.2018 15:00:00||MARS CINEMA|10.40.25.204|||110000472614|30
13.10.2018 15:00:00||MARS CINEMA|10.40.25.204|||110000472614|40
13.10.2018 15:00:00||MARS CINEMA|10.40.25.204|||110000472614|90
13.10.2018 15:00:00||MARS CINEMA|10.40.25.204|||110000472614|120
13.10.2018 15:00:00||MARS CINEMA|10.40.25.204|||110000472614|80
13.10.2018 15:00:00||MARS CINEMA|10.40.25.204|||110000472614|80
13.10.2018 15:00:00||MARS CINEMA|10.40.25.204|||110000472614|110
13.10.2018 15:00:00||MARS CINEMA|10.40.25.204|||110000472614|100
13.10.2018 15:00:00||MARS CINEMA|10.40.24.203|||110000472614|80
13.10.2018 15:00:00||MARS CINEMA|10.40.24.203|||110000472614|100
13.10.2018 15:00:00||MARS CINEMA|10.40.24.203|||110000472614|147
13.10.2018 15:00:00||MARS CINEMA|10.40.24.203|||110000472614|62
13.10.2018 15:00:00||MARS CINEMA|10.40.24.203|||110000472614|162
13.10.2018 15:00:00||MARS CINEMA|10.40.24.203|||110000472614|150
13.10.2018 15:00:00||MARS CINEMA|10.40.24.203|||110000472614|102
13.10.2018 15:00:00||MARS CINEMA|10.40.24.203|||110000472614|190
13.10.2018 15:00:00||MARS CINEMA|10.40.24.204|||110000472614|110
13.10.2018 15:00:00||MARS CINEMA|10.40.24.204|||110000472614|92
13.10.2018 15:00:00||MARS CINEMA|10.40.24.204|||110000472614|108
13.10.2018 15:00:00||MARS CINEMA|10.40.24.204|||110000472614|20
13.10.2018 15:00:00||MARS CINEMA|10.40.24.204|||110000472614|12
13.10.2018 15:00:00||MARS CINEMA|10.40.24.204|||110000472614|90
13.10.2018 15:00:00||MARS CINEMA|10.40.24.204|||110000472614|120
13.10.2018 15:00:00||MARS CINEMA|10.40.24.204|||110000472614|92
13.10.2018 15:00:00||MARS CINEMA|10.40.24.204|||110000472614|107
13.10.2018 15:00:00||MARS CINEMA|10.40.24.204|||110000472614|85
13.10.2018 15:00:00||MARS CINEMA|10.40.25.206|||110000472614|123
13.10.2018 15:00:00||MARS CINEMA|10.40.25.206|||110000472614|40
13.10.2018 15:00:00||MARS CINEMA|10.40.25.206|||110000472614|40
13.10.2018 15:00:00||MARS CINEMA|10.40.25.206|||110000472614|40
13.10.2018 15:00:00||MARS CINEMA|10.40.25.206|||110000472614|20
13.10.2018 15:00:00||MARS CINEMA|10.40.25.206|||110000472614|20
13.10.2018 15:00:00||MARS CINEMA|10.40.25.206|||110000472614|30
13.10.2018 15:00:00||MARS CINEMA|10.40.25.206|||110000472614|60
13.10.2018 15:00:00||MARS CINEMA|10.40.25.206|||110000472614|40
13.10.2018 15:00:00||MARS CINEMA|10.40.25.206|||110000472614|90
13.10.2018 15:00:00||MARS CINEMA|10.40.25.206|||110000472614|88
13.10.2018 15:00:00||MARS CINEMA|10.40.24.206|||110000472614|158
13.10.2018 15:00:00||MARS CINEMA|10.40.24.206|||110000472614|40
13.10.2018 15:00:00||MARS CINEMA|10.40.24.206|||110000472614|40
13.10.2018 15:00:00||MARS CINEMA|10.40.24.206|||110000472614|45
13.10.2018 15:00:00||MARS CINEMA|10.40.24.206|||110000472614|30
13.10.2018 15:00:00||MARS CINEMA|10.40.24.206|||110000472614|30
13.10.2018 15:00:00||MARS CINEMA|10.40.24.206|||110000472614|200
13.10.2018 15:00:00||MARS CINEMA|10.40.24.206|||110000472614|162
13.10.2018 15:00:00||MARS CINEMA|10.40.24.206|||110000472614|20
13.10.2018 15:00:00||MARS CINEMA|10.40.24.206|||110000472614|82
13.10.2018 15:00:00||MARS CINEMA|10.40.24.206|||110000472614|72
13.10.2018 15:00:00||PEGASUS|10.40.26.85|||110000423831|121
13.10.2018 15:00:00||PEGASUS|10.40.27.66|||110000423831|98
13.10.2018 15:00:00||PEGASUS|10.40.26.66|||110000423831|107
13.10.2018 15:00:00||PEGASUS|10.40.26.84|||110000423831|220
13.10.2018 15:00:00||PEGASUS|10.40.27.85|||110000423831|116
13.10.2018 15:00:00||PEGASUS|10.40.27.67|||110000423831|340
13.10.2018 15:00:00||PEGASUS|10.40.27.67|||110000423831|40
13.10.2018 15:00:00||PEGASUS|10.40.26.62|||110000423831|10
13.10.2018 15:00:00||PEGASUS|10.40.26.62|||110000423831|190
13.10.2018 15:00:00||PEGASUS|10.40.26.63|||110000423831|70
13.10.2018 15:00:00||PEGASUS|10.40.26.63|||110000423831|30
13.10.2018 15:00:00||PEGASUS|10.40.26.63|||110000423831|60
13.10.2018 15:00:00||PEGASUS|10.40.26.63|||110000423831|23
13.10.2018 15:00:00||PEGASUS|10.40.26.63|||110000423831|233
13.10.2018 15:00:00||PEGASUS|10.40.26.63|||110000423831|140
13.10.2018 15:00:00||PEGASUS|10.40.26.63|||110000423831|82
13.10.2018 15:00:00||PEGASUS|10.40.26.67|||110000423831|170
13.10.2018 15:00:00||PEGASUS|10.40.27.68|||110000423831|90
13.10.2018 15:00:00||PEGASUS|10.40.27.68|||110000423831|85
13.10.2018 15:00:00||PEGASUS|10.40.27.68|||110000423831|90
13.10.2018 15:00:00||PEGASUS|10.40.27.68|||110000423831|52
13.10.2018 15:00:00||PEGASUS|10.40.26.68|||110000423831|90
13.10.2018 15:00:00||PEGASUS|10.40.26.68|||110000423831|90
13.10.2018 15:00:00||PEGASUS|10.40.26.68|||110000423831|50
13.10.2018 15:00:00||PEGASUS|10.40.27.63|||110000423831|62
13.10.2018 15:00:00||PEGASUS|10.40.27.86|||110000423831|340
13.10.2018 15:00:00||PEGASUS|10.40.27.63|||110000423831|50
13.10.2018 15:00:00||PEGASUS|10.40.27.63|||110000423831|60
13.10.2018 15:00:00||PEGASUS|10.40.27.64|||110000423831|72
13.10.2018 15:00:00||PEGASUS|10.40.27.64|||110000423831|70
13.10.2018 15:00:00||PEGASUS|10.40.27.63|||110000423831|60
13.10.2018 15:00:00||PEGASUS|10.40.27.63|||110000423831|70
13.10.2018 15:00:00||PEGASUS|10.40.27.63|||110000423831|90
13.10.2018 15:00:00||PEGASUS|10.40.26.63|||110000423831|113
13.10.2018 15:00:00||PEGASUS|10.40.27.67|||110000423831|360
13.10.2018 15:00:00||PEGASUS|10.40.27.64|||110000423831|263
13.10.2018 15:00:00||PEGASUS|10.40.27.64|||110000423831|265
13.10.2018 15:00:00||PEGASUS|10.40.27.63|||110000423831|72
13.10.2018 15:00:00||PEGASUS|10.40.27.63|||110000423831|62
13.10.2018 15:00:00||PEGASUS|10.40.27.63|||110000423831|80
13.10.2018 15:00:00||PEGASUS|10.40.26.63|||110000423831|110
13.10.2018 15:00:00||PEGASUS|10.40.26.63|||110000423831|213
13.10.2018 15:00:00||PEGASUS|10.40.27.81|||110000423831|452
13.10.2018 15:00:00||PEGASUS|10.40.27.81|||110000423831|363
13.10.2018 15:00:00||PEGASUS|10.40.26.63|||110000423831|90
13.10.2018 15:00:00||PEGASUS|10.40.26.63|||110000423831|45
13.10.2018 15:00:00||PEGASUS|10.40.26.67|||110000423831|30
13.10.2018 15:00:00||PEGASUS|10.40.26.67|||110000423831|340
13.10.2018 15:00:00||PEGASUS|10.40.26.67|||110000423831|60
13.10.2018 15:00:00||PEGASUS|10.40.26.67|||110000423831|42
13.10.2018 15:00:00||PEGASUS|10.40.26.67|||110000423831|70
13.10.2018 15:00:00||PEGASUS|10.40.26.68|||110000423831|100
13.10.2018 15:00:00||PEGASUS|10.40.27.64|||110000423831|282
13.10.2018 15:00:00||PEGASUS|10.40.27.64|||110000423831|263
13.10.2018 15:00:00||PEGASUS|10.40.27.64|||110000423831|295
13.10.2018 15:00:00||PEGASUS|10.40.27.64|||110000423831|267
13.10.2018 15:00:00||PEGASUS|10.40.27.64|||110000423831|268
13.10.2018 15:00:00||PEGASUS|10.40.27.86|||110000423831|340
13.10.2018 15:00:00||PEGASUS|10.40.27.63|||110000423831|90
13.10.2018 15:00:00||PEGASUS|10.40.26.63|||110000423831|130
13.10.2018 15:00:00||PEGASUS|10.40.26.63|||110000423831|57
13.10.2018 15:00:00||PEGASUS|10.40.26.63|||110000423831|90
13.10.2018 15:00:00||PEGASUS|10.40.26.67|||110000423831|340
13.10.2018 15:00:00||PEGASUS|10.40.27.63|||110000423831|50
13.10.2018 15:00:00||PEGASUS|10.40.27.63|||110000423831|57
13.10.2018 15:00:00||PEGASUS|10.40.27.81|||110000423831|418
13.10.2018 15:00:00||PEGASUS|10.40.26.62|||110000423831|90
13.10.2018 15:00:00||PEGASUS|10.40.26.62|||110000423831|3
13.10.2018 15:00:00||PEGASUS|10.40.26.63|||110000423831|50
13.10.2018 15:00:00||PEGASUS|10.40.26.63|||110000423831|163
13.10.2018 15:00:00||PEGASUS|10.40.26.63|||110000423831|40
13.10.2018 15:00:00||PEGASUS|10.40.26.63|||110000423831|52
13.10.2018 15:00:00||PEGASUS|10.40.26.67|||110000423831|340
13.10.2018 15:00:00||PEGASUS|10.40.27.64|||110000423831|267
13.10.2018 15:00:00||PEGASUS|10.40.27.64|||110000423831|268
13.10.2018 15:00:00||PEGASUS|10.40.27.64|||110000423831|263
13.10.2018 15:00:00||PEGASUS|10.40.27.64|||110000423831|337
13.10.2018 15:00:00||PEGASUS|10.40.27.64|||110000423831|303
13.10.2018 15:00:00||PEGASUS|10.40.27.86|||110000423831|40
13.10.2018 15:00:00||PEGASUS|10.40.27.63|||110000423831|78
13.10.2018 15:00:00||PEGASUS|10.40.27.63|||110000423831|80
13.10.2018 15:00:00||PEGASUS|10.40.27.63|||110000423831|80
13.10.2018 15:00:00||PEGASUS|10.40.27.63|||110000423831|250
13.10.2018 15:00:00||PEGASUS|10.40.27.63|||110000423831|223
13.10.2018 15:00:00||PEGASUS|10.40.27.63|||110000423831|58
13.10.2018 15:00:00||PEGASUS|10.40.26.64|||110000423831|80
13.10.2018 15:00:00||PEGASUS|10.40.26.64|||110000423831|80
13.10.2018 15:00:00||PEGASUS|10.40.26.82|||110000423831|210
13.10.2018 15:00:00||PEGASUS|10.40.26.82|||110000423831|110
13.10.2018 15:00:00||PEGASUS|10.40.26.82|||110000423831|80
13.10.2018 15:00:00||PEGASUS|10.40.26.82|||110000423831|150
13.10.2018 15:00:00||PEGASUS|10.40.26.82|||110000423831|140
13.10.2018 15:00:00||PEGASUS|10.40.26.82|||110000423831|140
13.10.2018 15:00:00||PEGASUS|10.40.26.82|||110000423831|180
13.10.2018 15:00:00||PEGASUS|10.40.26.82|||110000423831|30
13.10.2018 15:00:00||PEGASUS|10.40.26.82|||110000423831|40
13.10.2018 15:00:00||PEGASUS|10.40.26.82|||110000423831|20
13.10.2018 15:00:00||PEGASUS|10.40.26.82|||110000423831|70
13.10.2018 15:00:00||PEGASUS|10.40.26.82|||110000423831|50
13.10.2018 15:00:00||PEGASUS|10.40.26.82|||110000423831|40
13.10.2018 15:00:00||PEGASUS|10.40.27.83|||110000423831|567
13.10.2018 15:00:00||PEGASUS|10.40.27.83|||110000423831|70
13.10.2018 15:00:00||PEGASUS|10.40.27.83|||110000423831|502
13.10.2018 15:00:00||PEGASUS|10.40.27.83|||110000423831|498
13.10.2018 15:00:00||PEGASUS|10.40.27.83|||110000423831|80
13.10.2018 15:00:00||PEGASUS|10.40.26.83|||110000423831|523
13.10.2018 15:00:00||PEGASUS|10.40.26.83|||110000423831|50
13.10.2018 15:00:00||PEGASUS|10.40.26.83|||110000423831|402
13.10.2018 15:00:00||PEGASUS|10.40.26.83|||110000423831|532
13.10.2018 15:00:00||PEGASUS|10.40.26.83|||110000423831|547
13.10.2018 15:00:00||PEGASUS|10.40.26.86|||110000423831|360
13.10.2018 15:00:00||PEGASUS|10.40.26.86|||110000423831|138
13.10.2018 15:00:00||PEGASUS|10.40.26.86|||110000423831|350
13.10.2018 15:00:00||PEGASUS|10.40.26.86|||110000423831|45
13.10.2018 15:00:00||PEGASUS|10.40.26.86|||110000423831|30
13.10.2018 15:00:00||PEGASUS|10.40.26.86|||110000423831|350
13.10.2018 15:00:00||PEGASUS|10.40.26.86|||110000423831|40
13.10.2018 15:00:00||PEGASUS|10.40.26.86|||110000423831|50
13.10.2018 15:00:00||PEGASUS|10.40.27.87|||110000423831|90
13.10.2018 15:00:00||PEGASUS|10.40.27.87|||110000423831|90
13.10.2018 15:00:00||PEGASUS|10.40.27.87|||110000423831|90
13.10.2018 15:00:00||PEGASUS|10.40.27.87|||110000423831|20
13.10.2018 15:00:00||PEGASUS|10.40.26.87|||110000423831|90
13.10.2018 15:00:00||PEGASUS|10.40.26.87|||110000423831|90
13.10.2018 15:00:00||PEGASUS|10.40.26.87|||110000423831|90
13.10.2018 15:00:00||PEGASUS|10.40.26.87|||110000423831|20
13.10.2018 15:00:00||PEGASUS|10.40.26.87|||110000423831|3
13.10.2018 15:00:00||PEGASUS|10.40.26.81|||110000423831|397
13.10.2018 15:00:00||PEGASUS|10.40.26.81|||110000423831|412
13.10.2018 15:00:00||PEGASUS|10.40.26.81|||110000423831|415
13.10.2018 15:00:00||PEGASUS|10.40.27.82|||110000423831|220
13.10.2018 15:00:00||PEGASUS|10.40.27.82|||110000423831|30
13.10.2018 15:00:00||PEGASUS|10.40.27.82|||110000423831|100
13.10.2018 15:00:00||PEGASUS|10.40.27.82|||110000423831|80
13.10.2018 15:00:00||PEGASUS|10.40.27.82|||110000423831|152
13.10.2018 15:00:00||PEGASUS|10.40.27.82|||110000423831|113
13.10.2018 15:00:00||PEGASUS|10.40.27.82|||110000423831|172
13.10.2018 15:00:00||PEGASUS|10.40.27.82|||110000423831|115
13.10.2018 15:00:00||PEGASUS|10.40.27.82|||110000423831|60
13.10.2018 15:00:00||PEGASUS|10.40.27.82|||110000423831|80
13.10.2018 15:00:00||PEGASUS|10.40.27.82|||110000423831|50
13.10.2018 15:00:00||PEGASUS|10.40.27.82|||110000423831|38
13.10.2018 15:00:00||PEGASUS|10.40.27.82|||110000423831|40
13.10.2018 15:00:00||PEGASUS|10.40.27.67|||110000423831|50
13.10.2018 15:00:00||PEGASUS|10.40.27.67|||110000423831|70
13.10.2018 15:00:00||PEGASUS|10.40.27.67|||110000423831|130
13.10.2018 15:00:00||PEGASUS|10.40.27.67|||110000423831|10
13.10.2018 15:00:00||PEGASUS|10.40.27.67|||110000423831|340
13.10.2018 15:00:00||PEGASUS|10.40.27.82|||110000423831|72
13.10.2018 15:00:00||PEGASUS|10.40.27.86|||110000423831|168
13.10.2018 15:00:00||PEGASUS|10.40.27.86|||110000423831|70
13.10.2018 15:00:00||PEGASUS|10.40.27.86|||110000423831|20
13.10.2018 15:00:00||PEGASUS|10.40.27.86|||110000423831|350
13.10.2018 15:00:00||PWC|10.40.24.66|||110000433262|82
13.10.2018 15:00:00||PWC|10.40.24.66|||110000433262|10
13.10.2018 15:00:00||PWC|10.40.24.66|||110000433262|30
13.10.2018 15:00:00||PWC|10.40.24.66|||110000433262|53
13.10.2018 15:00:00||PWC|10.40.24.66|||110000433262|442
13.10.2018 15:00:00||PWC|10.40.24.68|||110000433262|150
13.10.2018 15:00:00||PWC|10.40.24.66|||110000433262|50
13.10.2018 15:00:00||PWC|10.40.24.66|||110000433262|213
13.10.2018 15:00:00||PWC|10.40.24.66|||110000433262|210
13.10.2018 15:00:00||PWC|10.40.25.67|||110000433262|80
13.10.2018 15:00:00||PWC|10.40.25.67|||110000433262|90
13.10.2018 15:00:00||PWC|10.40.25.67|||110000433262|320
13.10.2018 15:00:00||PWC|10.40.25.67|||110000433262|250
13.10.2018 15:00:00||PWC|10.40.25.67|||110000433262|240
13.10.2018 15:00:00||PWC|10.40.25.67|||110000433262|250
13.10.2018 15:00:00||PWC|10.40.25.67|||110000433262|50
13.10.2018 15:00:00||PWC|10.40.25.67|||110000433262|30
13.10.2018 15:00:00||PWC|10.40.25.67|||110000433262|120
13.10.2018 15:00:00||PWC|10.40.24.67|||110000433262|15
13.10.2018 15:00:00||PWC|10.40.24.67|||110000433262|10
13.10.2018 15:00:00||PWC|10.40.24.67|||110000433262|375
13.10.2018 15:00:00||PWC|10.40.24.67|||110000433262|30
13.10.2018 15:00:00||PWC|10.40.24.67|||110000433262|50
13.10.2018 15:00:00||PWC|10.40.24.67|||110000433262|120
13.10.2018 15:00:00||PWC|10.40.25.68|||110000433262|137
13.10.2018 15:00:00||PWC|10.40.25.68|||110000433262|193
13.10.2018 15:00:00||PWC|10.40.25.68|||110000433262|70
13.10.2018 15:00:00||PWC|10.40.25.68|||110000433262|77
13.10.2018 15:00:00||PWC|10.40.25.68|||110000433262|150
13.10.2018 15:00:00||PWC|10.40.24.66|||110000433262|60
13.10.2018 15:00:00||PWC|10.40.24.66|||110000433262|30
13.10.2018 15:00:00||PWC|10.40.24.66|||110000433262|30
13.10.2018 15:00:00||PWC|10.40.24.68|||110000433262|112
13.10.2018 15:00:00||PWC|10.40.24.68|||110000433262|153
13.10.2018 15:00:00||PWC|10.40.24.68|||110000433262|403
13.10.2018 15:00:00||PWC|10.40.24.68|||110000433262|72
13.10.2018 15:00:00||PWC|10.40.24.68|||110000433262|65
13.10.2018 15:00:00||VSMART BİLGİ TEKNOLOJİLERİ|10.40.24.62|||110000474326|40
13.10.2018 15:00:00||VSMART BİLGİ TEKNOLOJİLERİ|10.40.24.62|||110000474326|70
13.10.2018 15:00:00||VSMART BİLGİ TEKNOLOJİLERİ|10.40.24.62|||110000474326|32
13.10.2018 15:00:00||VSMART BİLGİ TEKNOLOJİLERİ|10.40.25.62|||110000474326|60
13.10.2018 15:00:00||VSMART BİLGİ TEKNOLOJİLERİ|10.40.24.62|||110000474326|40
13.10.2018 15:00:00||VSMART BİLGİ TEKNOLOJİLERİ|10.40.24.62|||110000474326|32
13.10.2018 15:00:00||VSMART BİLGİ TEKNOLOJİLERİ|10.40.24.62|||110000474326|10
13.10.2018 15:00:00||VSMART BİLGİ TEKNOLOJİLERİ|10.40.25.62|||110000474326|40
13.10.2018 15:00:00||VSMART BİLGİ TEKNOLOJİLERİ|10.40.25.62|||110000474326|10
13.10.2018 15:00:00||VSMART BİLGİ TEKNOLOJİLERİ|10.40.25.62|||110000474326|10
13.10.2018 15:00:00||VSMART BİLGİ TEKNOLOJİLERİ|10.40.25.62|||110000474326|80
13.10.2018 15:00:00||VSMART BİLGİ TEKNOLOJİLERİ|10.40.25.62|||110000474326|88
13.10.2018 15:00:00||VSMART BİLGİ TEKNOLOJİLERİ|10.40.25.62|||110000474326|103
13.10.2018 15:00:00||VSMART BİLGİ TEKNOLOJİLERİ|10.40.24.62|||110000474326|10
