9/24/2018 2:00:00 AM||HAVAS|10.40.24.45|||110000479675|405
9/24/2018 2:00:00 AM||HAVAS|10.40.25.46|||110000479675|489
9/24/2018 2:00:00 AM||HAVAS|10.40.24.47|||110000479675|1030
9/24/2018 2:00:00 AM||PWC|10.40.24.67|||110000433262|588
9/24/2018 2:00:00 AM||PWC|10.40.25.68|||110000433262|874
9/24/2018 2:00:00 AM||PWC|10.40.24.68|||110000433262|475
9/24/2018 2:00:00 AM||PWC|10.40.25.69|||110000433262|288
9/24/2018 2:00:00 AM||PWC|10.40.24.69|||110000433262|290
9/24/2018 2:00:00 AM||CALIK HOLDING|10.40.25.94|||110000438408|618
9/24/2018 2:00:00 AM||CALIK HOLDING|10.40.24.94|||110000438408|659
9/24/2018 2:00:00 AM||CALIK HOLDING|10.40.25.97|||110000438408|598
9/24/2018 2:00:00 AM||CALIK HOLDING|10.40.25.100|||110000438408|76
9/24/2018 2:00:00 AM||CALIK HOLDING|10.40.24.100|||110000438408|74
9/24/2018 2:00:00 AM||CALIK HOLDING|10.40.25.101|||110000438408|589
9/24/2018 2:00:00 AM||CALIK HOLDING|10.40.25.102|||110000438408|333
9/24/2018 2:00:00 AM||CALIK HOLDING|10.40.24.102|||110000438408|313
9/24/2018 2:00:00 AM||CALIK HOLDING|10.40.25.103|||110000438408|265
9/24/2018 2:00:00 AM||CALIK HOLDING|10.40.24.103|||110000438408|291
9/24/2018 2:00:00 AM||CALIK HOLDING|10.40.25.104|||110000438408|1151
9/24/2018 2:00:00 AM||CALIK HOLDING|10.40.25.115|||110000438408|555
9/24/2018 2:00:00 AM||CALIK HOLDING|10.40.24.115|||110000438408|562
9/24/2018 2:00:00 AM||CALIK HOLDING|10.40.25.116|||110000438408|466
9/24/2018 2:00:00 AM||CALIK HOLDING|10.40.24.116|||110000438408|451
9/24/2018 2:00:00 AM||CALIK HOLDING|10.40.25.117|||110000438408|306
9/24/2018 2:00:00 AM||CALIK HOLDING|10.40.24.117|||110000438408|262
9/24/2018 2:00:00 AM||CALIK HOLDING|10.40.25.119|||110000438408|70
9/24/2018 2:00:00 AM||CALIK HOLDING|10.40.24.119|||110000438408|222
9/24/2018 2:00:00 AM||CALIK HOLDING|10.40.25.120|||110000438408|571
9/24/2018 2:00:00 AM||CALIK HOLDING|10.40.24.120|||110000438408|576
9/24/2018 2:00:00 AM||CALIK HOLDING|10.40.25.121|||110000438408|318
9/24/2018 2:00:00 AM||CALIK HOLDING|10.40.24.121|||110000438408|312
9/24/2018 2:00:00 AM||CALIK HOLDING|10.40.25.122|||110000438408|245
9/24/2018 2:00:00 AM||CALIK HOLDING|10.40.24.122|||110000438408|301
9/24/2018 2:00:00 AM||AKTIFBANK|10.40.25.128|||110000438458|281
9/24/2018 2:00:00 AM||AKTIFBANK|10.40.24.128|||110000438458|443
9/24/2018 2:00:00 AM||AKTIFBANK|10.40.25.130|||110000438458|745
9/24/2018 2:00:00 AM||AKTIFBANK|10.40.24.130|||110000438458|662
9/24/2018 2:00:00 AM||AKTIFBANK|10.40.25.131|||110000438458|620
9/24/2018 2:00:00 AM||AKTIFBANK|10.40.24.131|||110000438458|613
9/24/2018 2:00:00 AM||AKTIFBANK|10.40.25.132|||110000438458|443
9/24/2018 2:00:00 AM||AKTIFBANK|10.40.24.132|||110000438458|438
9/24/2018 2:00:00 AM||AKTIFBANK|10.40.25.133|||110000438458|370
9/24/2018 2:00:00 AM||AKTIFBANK|10.40.24.133|||110000438458|658
9/24/2018 2:00:00 AM||AKTIFBANK|10.40.25.138|||110000438458|256
9/24/2018 2:00:00 AM||AKTIFBANK|10.40.24.138|||110000438458|564
9/24/2018 2:00:00 AM||AKTIFBANK|10.40.25.139|||110000438458|159
9/24/2018 2:00:00 AM||AKTIFBANK|10.40.24.139|||110000438458|240
9/24/2018 2:00:00 AM||AKTIFBANK|10.40.25.140|||110000438458|264
9/24/2018 2:00:00 AM||AKTIFBANK|10.40.24.140|||110000438458|358
9/24/2018 2:00:00 AM||AKTIFBANK|10.40.25.141|||110000438458|470
9/24/2018 2:00:00 AM||AKTIFBANK|10.40.24.141|||110000438458|636
9/24/2018 2:00:00 AM||AKTIFBANK|10.40.25.142|||110000438458|38
9/24/2018 2:00:00 AM||AKTIFBANK|10.40.24.142|||110000438458|109
9/24/2018 2:00:00 AM||AKTIFBANK|10.40.24.143|||110000438458|771
9/24/2018 2:00:00 AM||AKTIFBANK|10.40.25.144|||110000438458|183
9/24/2018 2:00:00 AM||AKTIFBANK|10.40.24.144|||110000438458|261
9/24/2018 2:00:00 AM||AKTIFBANK|10.40.25.145|||110000438458|293
9/24/2018 2:00:00 AM||AKTIFBANK|10.40.24.145|||110000438458|393
9/24/2018 2:00:00 AM||AKTIFBANK|10.40.25.147|||110000438458|87
9/24/2018 2:00:00 AM||AKTIFBANK|10.40.24.147|||110000438458|89
9/24/2018 2:00:00 AM||AKTIFBANK|10.40.25.148|||110000438458|984
9/24/2018 2:00:00 AM||AKTIFBANK|10.40.25.152|||110000438458|724
9/24/2018 2:00:00 AM||AKTIFBANK|10.40.25.153|||110000438458|222
9/24/2018 2:00:00 AM||AKTIFBANK|10.40.24.153|||110000438458|247
9/24/2018 2:00:00 AM||AKTIFBANK|10.40.25.154|||110000438458|42
9/24/2018 2:00:00 AM||AKTIFBANK|10.40.24.154|||110000438458|136
9/24/2018 2:00:00 AM||AKTIFBANK|10.40.25.155|||110000438458|483
9/24/2018 2:00:00 AM||AKTIFBANK|10.40.24.155|||110000438458|513
9/24/2018 2:00:00 AM||AKTIFBANK|10.40.25.157|||110000438458|334
9/24/2018 2:00:00 AM||AKTIFBANK|10.40.24.157|||110000438458|341
9/24/2018 2:00:00 AM||AKTIFBANK|10.40.25.158|||110000438458|158
9/24/2018 2:00:00 AM||AKTIFBANK|10.40.24.158|||110000438458|635
9/24/2018 2:00:00 AM||AKTIFBANK|10.40.25.159|||110000438458|164
9/24/2018 2:00:00 AM||AKTIFBANK|10.40.24.159|||110000438458|343
9/24/2018 2:00:00 AM||AKTIFBANK|10.40.25.160|||110000438458|195
9/24/2018 2:00:00 AM||AKTIFBANK|10.40.24.160|||110000438458|232
9/24/2018 2:00:00 AM||AKTIFBANK|10.40.25.161|||110000438458|250
9/24/2018 2:00:00 AM||AKTIFBANK|10.40.24.161|||110000438458|413
9/24/2018 2:00:00 AM||AKTIFBANK|10.40.25.162|||110000438458|247
9/24/2018 2:00:00 AM||AKTIFBANK|10.40.24.162|||110000438458|470
9/24/2018 2:00:00 AM||AKTIFBANK|10.40.25.163|||110000438458|47
9/24/2018 2:00:00 AM||AKTIFBANK|10.40.24.163|||110000438458|236
9/24/2018 2:00:00 AM||AKTIFBANK|10.40.25.164|||110000438458|883
9/24/2018 2:00:00 AM||AKTIFBANK|10.40.24.164|||110000438458|836
9/24/2018 2:00:00 AM||AKTIFBANK|10.40.25.165|||110000438458|321
9/24/2018 2:00:00 AM||AKTIFBANK|10.40.24.165|||110000438458|348
9/24/2018 2:00:00 AM||AKTIFBANK|10.40.25.166|||110000438458|136
9/24/2018 2:00:00 AM||AKTIFBANK|10.40.24.166|||110000438458|208
9/24/2018 2:00:00 AM||AKTIFBANK|10.40.25.168|||110000438458|318
9/24/2018 2:00:00 AM||AKTIFBANK|10.40.24.168|||110000438458|366
9/24/2018 2:00:00 AM||AKTIFBANK|10.40.25.169|||110000438458|351
9/24/2018 2:00:00 AM||AKTIFBANK|10.40.24.169|||110000438458|315
9/24/2018 2:00:00 AM||AKTIFBANK|10.40.25.170|||110000438458|430
9/24/2018 2:00:00 AM||AKTIFBANK|10.40.24.170|||110000438458|885
9/24/2018 2:00:00 AM||AKTIFBANK|10.40.25.179|||110000438458|916
9/24/2018 2:00:00 AM||AKTIFBANK|10.40.24.179|||110000438458|984
9/24/2018 2:00:00 AM||AKTIFBANK|10.40.25.186|||110000438458|186
9/24/2018 2:00:00 AM||AKTIFBANK|10.40.24.186|||110000438458|209
9/24/2018 2:00:00 AM||MARS CINEMA|10.40.25.203|||110000472614|1335
9/24/2018 2:00:00 AM||MARS CINEMA|10.40.24.203|||110000472614|1336
9/24/2018 2:00:00 AM||MARS CINEMA|10.40.25.206|||110000472614|439
9/24/2018 2:00:00 AM||PEGASUS|10.40.26.62|||110000423831|304
9/24/2018 2:00:00 AM||PEGASUS|10.40.26.63|||110000423831|1749
9/24/2018 2:00:00 AM||PEGASUS|10.40.26.64|||110000423831|162
9/24/2018 2:00:00 AM||PEGASUS|10.40.27.67|||110000423831|1286
9/24/2018 2:00:00 AM||PEGASUS|10.40.27.68|||110000423831|308
9/24/2018 2:00:00 AM||PEGASUS|10.40.27.87|||110000423831|281
9/24/2018 2:00:00 AM||PEGASUS|10.40.26.87|||110000423831|304
9/24/2018 2:00:00 AM||BOYNER|10.40.27.95|||101367941673|475
9/24/2018 2:00:00 AM||BOYNER|10.40.26.95|||101367941673|440
9/24/2018 2:00:00 AM||BOYNER|10.40.27.96|||101367941673|858
9/24/2018 2:00:00 AM||BOYNER|10.40.26.96|||101367941673|936
9/24/2018 2:00:00 AM||BOYNER|10.40.27.99|||101367941673|283
9/24/2018 2:00:00 AM||BOYNER|10.40.26.99|||101367941673|297
