23.10.2018 23:00:00||AKTİFBANK|10.40.24.172|||110000438458|95
23.10.2018 23:00:00||AKTİFBANK|10.40.25.134|||110000438458|93
23.10.2018 23:00:00||AKTİFBANK|10.40.24.134|||110000438458|94
23.10.2018 23:00:00||AKTİFBANK|10.40.24.135|||110000438458|96
23.10.2018 23:00:00||AKTİFBANK|10.40.25.137|||110000438458|57
23.10.2018 23:00:00||AKTİFBANK|10.40.25.171|||110000438458|12
23.10.2018 23:00:00||AKTİFBANK|10.40.25.172|||110000438458|88
23.10.2018 23:00:00||AKTİFBANK|10.40.25.174|||110000438458|53
23.10.2018 23:00:00||AKTİFBANK|10.40.25.135|||110000438458|93
23.10.2018 23:00:00||AKTİFBANK|10.40.24.137|||110000438458|57
23.10.2018 23:00:00||AKTİFBANK|10.40.24.171|||110000438458|11
23.10.2018 23:00:00||AKTİFBANK|10.40.25.173|||110000438458|94
23.10.2018 23:00:00||AKTİFBANK|10.40.24.173|||110000438458|92
23.10.2018 23:00:00||AKTİFBANK|10.40.24.174|||110000438458|60
23.10.2018 23:00:00||AKTİFBANK|10.40.24.133|||110000438458|77
23.10.2018 23:00:00||AKTİFBANK|10.40.24.138|||110000438458|122
23.10.2018 23:00:00||AKTİFBANK|10.40.24.139|||110000438458|30
23.10.2018 23:00:00||AKTİFBANK|10.40.24.149|||110000438458|110
23.10.2018 23:00:00||AKTİFBANK|10.40.24.150|||110000438458|540
23.10.2018 23:00:00||AKTİFBANK|10.40.24.145|||110000438458|60
23.10.2018 23:00:00||AKTİFBANK|10.40.24.164|||110000438458|230
23.10.2018 23:00:00||AKTİFBANK|10.40.25.133|||110000438458|70
23.10.2018 23:00:00||AKTİFBANK|10.40.24.145|||110000438458|90
23.10.2018 23:00:00||AKTİFBANK|10.40.24.158|||110000438458|83
23.10.2018 23:00:00||AKTİFBANK|10.40.24.164|||110000438458|70
23.10.2018 23:00:00||AKTİFBANK|10.40.25.138|||110000438458|80
23.10.2018 23:00:00||AKTİFBANK|10.40.25.139|||110000438458|10
23.10.2018 23:00:00||AKTİFBANK|10.40.25.140|||110000438458|32
23.10.2018 23:00:00||AKTİFBANK|10.40.25.151|||110000438458|507
23.10.2018 23:00:00||AKTİFBANK|10.40.25.141|||110000438458|100
23.10.2018 23:00:00||AKTİFBANK|10.40.25.141|||110000438458|87
23.10.2018 23:00:00||AKTİFBANK|10.40.25.142|||110000438458|73
23.10.2018 23:00:00||AKTİFBANK|10.40.25.133|||110000438458|110
23.10.2018 23:00:00||AKTİFBANK|10.40.25.149|||110000438458|102
23.10.2018 23:00:00||AKTİFBANK|10.40.25.149|||110000438458|90
23.10.2018 23:00:00||AKTİFBANK|10.40.25.149|||110000438458|90
23.10.2018 23:00:00||AKTİFBANK|10.40.25.140|||110000438458|30
23.10.2018 23:00:00||AKTİFBANK|10.40.25.150|||110000438458|543
23.10.2018 23:00:00||AKTİFBANK|10.40.25.139|||110000438458|170
23.10.2018 23:00:00||AKTİFBANK|10.40.25.139|||110000438458|40
23.10.2018 23:00:00||AKTİFBANK|10.40.25.140|||110000438458|80
23.10.2018 23:00:00||AKTİFBANK|10.40.25.140|||110000438458|70
23.10.2018 23:00:00||AKTİFBANK|10.40.25.140|||110000438458|30
23.10.2018 23:00:00||AKTİFBANK|10.40.25.151|||110000438458|508
23.10.2018 23:00:00||AKTİFBANK|10.40.25.151|||110000438458|502
23.10.2018 23:00:00||AKTİFBANK|10.40.25.141|||110000438458|40
23.10.2018 23:00:00||AKTİFBANK|10.40.25.141|||110000438458|100
23.10.2018 23:00:00||AKTİFBANK|10.40.25.141|||110000438458|67
23.10.2018 23:00:00||AKTİFBANK|10.40.25.142|||110000438458|40
23.10.2018 23:00:00||AKTİFBANK|10.40.25.149|||110000438458|70
23.10.2018 23:00:00||AKTİFBANK|10.40.25.149|||110000438458|110
23.10.2018 23:00:00||AKTİFBANK|10.40.25.149|||110000438458|90
23.10.2018 23:00:00||AKTİFBANK|10.40.25.149|||110000438458|97
23.10.2018 23:00:00||AKTİFBANK|10.40.25.149|||110000438458|107
23.10.2018 23:00:00||AKTİFBANK|10.40.24.139|||110000438458|62
23.10.2018 23:00:00||AKTİFBANK|10.40.25.153|||110000438458|10
23.10.2018 23:00:00||AKTİFBANK|10.40.25.150|||110000438458|552
23.10.2018 23:00:00||AKTİFBANK|10.40.25.153|||110000438458|70
23.10.2018 23:00:00||AKTİFBANK|10.40.25.163|||110000438458|45
23.10.2018 23:00:00||AKTİFBANK|10.40.24.141|||110000438458|63
23.10.2018 23:00:00||AKTİFBANK|10.40.24.151|||110000438458|510
23.10.2018 23:00:00||AKTİFBANK|10.40.25.153|||110000438458|80
23.10.2018 23:00:00||AKTİFBANK|10.40.24.149|||110000438458|90
23.10.2018 23:00:00||AKTİFBANK|10.40.24.141|||110000438458|50
23.10.2018 23:00:00||AKTİFBANK|10.40.25.133|||110000438458|280
23.10.2018 23:00:00||AKTİFBANK|10.40.25.133|||110000438458|90
23.10.2018 23:00:00||AKTİFBANK|10.40.24.149|||110000438458|88
23.10.2018 23:00:00||AKTİFBANK|10.40.24.162|||110000438458|213
23.10.2018 23:00:00||AKTİFBANK|10.40.24.162|||110000438458|30
23.10.2018 23:00:00||AKTİFBANK|10.40.24.162|||110000438458|40
23.10.2018 23:00:00||AKTİFBANK|10.40.25.133|||110000438458|150
23.10.2018 23:00:00||AKTİFBANK|10.40.25.138|||110000438458|130
23.10.2018 23:00:00||AKTİFBANK|10.40.25.149|||110000438458|70
23.10.2018 23:00:00||AKTİFBANK|10.40.25.149|||110000438458|70
23.10.2018 23:00:00||AKTİFBANK|10.40.25.149|||110000438458|25
23.10.2018 23:00:00||AKTİFBANK|10.40.25.149|||110000438458|72
23.10.2018 23:00:00||AKTİFBANK|10.40.25.149|||110000438458|70
23.10.2018 23:00:00||AKTİFBANK|10.40.25.141|||110000438458|100
23.10.2018 23:00:00||AKTİFBANK|10.40.25.149|||110000438458|130
23.10.2018 23:00:00||AKTİFBANK|10.40.25.138|||110000438458|90
23.10.2018 23:00:00||AKTİFBANK|10.40.25.138|||110000438458|72
23.10.2018 23:00:00||AKTİFBANK|10.40.25.139|||110000438458|100
23.10.2018 23:00:00||AKTİFBANK|10.40.24.145|||110000438458|70
23.10.2018 23:00:00||AKTİFBANK|10.40.24.149|||110000438458|160
23.10.2018 23:00:00||AKTİFBANK|10.40.25.138|||110000438458|30
23.10.2018 23:00:00||AKTİFBANK|10.40.25.138|||110000438458|10
23.10.2018 23:00:00||AKTİFBANK|10.40.25.153|||110000438458|60
23.10.2018 23:00:00||AKTİFBANK|10.40.24.150|||110000438458|547
23.10.2018 23:00:00||AKTİFBANK|10.40.25.128|||110000438458|70
23.10.2018 23:00:00||AKTİFBANK|10.40.25.128|||110000438458|90
23.10.2018 23:00:00||AKTİFBANK|10.40.25.128|||110000438458|90
23.10.2018 23:00:00||AKTİFBANK|10.40.25.128|||110000438458|40
23.10.2018 23:00:00||AKTİFBANK|10.40.25.128|||110000438458|55
23.10.2018 23:00:00||AKTİFBANK|10.40.25.129|||110000438458|83
23.10.2018 23:00:00||AKTİFBANK|10.40.25.129|||110000438458|73
23.10.2018 23:00:00||AKTİFBANK|10.40.25.129|||110000438458|130
23.10.2018 23:00:00||AKTİFBANK|10.40.25.129|||110000438458|100
23.10.2018 23:00:00||AKTİFBANK|10.40.25.129|||110000438458|40
23.10.2018 23:00:00||AKTİFBANK|10.40.25.129|||110000438458|92
23.10.2018 23:00:00||AKTİFBANK|10.40.25.129|||110000438458|92
23.10.2018 23:00:00||AKTİFBANK|10.40.25.130|||110000438458|60
23.10.2018 23:00:00||AKTİFBANK|10.40.25.130|||110000438458|55
23.10.2018 23:00:00||AKTİFBANK|10.40.25.130|||110000438458|73
23.10.2018 23:00:00||AKTİFBANK|10.40.25.130|||110000438458|33
23.10.2018 23:00:00||AKTİFBANK|10.40.25.130|||110000438458|60
23.10.2018 23:00:00||AKTİFBANK|10.40.25.130|||110000438458|100
23.10.2018 23:00:00||AKTİFBANK|10.40.25.130|||110000438458|80
23.10.2018 23:00:00||AKTİFBANK|10.40.25.131|||110000438458|20
23.10.2018 23:00:00||AKTİFBANK|10.40.25.131|||110000438458|78
23.10.2018 23:00:00||AKTİFBANK|10.40.25.131|||110000438458|100
23.10.2018 23:00:00||AKTİFBANK|10.40.25.131|||110000438458|103
23.10.2018 23:00:00||AKTİFBANK|10.40.25.131|||110000438458|82
23.10.2018 23:00:00||AKTİFBANK|10.40.25.131|||110000438458|80
23.10.2018 23:00:00||AKTİFBANK|10.40.25.131|||110000438458|22
23.10.2018 23:00:00||AKTİFBANK|10.40.25.131|||110000438458|120
23.10.2018 23:00:00||AKTİFBANK|10.40.25.132|||110000438458|60
23.10.2018 23:00:00||AKTİFBANK|10.40.25.132|||110000438458|67
23.10.2018 23:00:00||AKTİFBANK|10.40.25.132|||110000438458|87
23.10.2018 23:00:00||AKTİFBANK|10.40.25.132|||110000438458|162
23.10.2018 23:00:00||AKTİFBANK|10.40.25.132|||110000438458|65
23.10.2018 23:00:00||AKTİFBANK|10.40.25.143|||110000438458|320
23.10.2018 23:00:00||AKTİFBANK|10.40.25.144|||110000438458|80
23.10.2018 23:00:00||AKTİFBANK|10.40.25.144|||110000438458|50
23.10.2018 23:00:00||AKTİFBANK|10.40.25.144|||110000438458|20
23.10.2018 23:00:00||AKTİFBANK|10.40.25.154|||110000438458|10
23.10.2018 23:00:00||AKTİFBANK|10.40.25.154|||110000438458|10
23.10.2018 23:00:00||AKTİFBANK|10.40.25.154|||110000438458|10
23.10.2018 23:00:00||AKTİFBANK|10.40.25.157|||110000438458|70
23.10.2018 23:00:00||AKTİFBANK|10.40.25.157|||110000438458|70
23.10.2018 23:00:00||AKTİFBANK|10.40.25.157|||110000438458|70
23.10.2018 23:00:00||AKTİFBANK|10.40.25.157|||110000438458|80
23.10.2018 23:00:00||AKTİFBANK|10.40.25.157|||110000438458|40
23.10.2018 23:00:00||AKTİFBANK|10.40.25.159|||110000438458|60
23.10.2018 23:00:00||AKTİFBANK|10.40.25.159|||110000438458|10
23.10.2018 23:00:00||AKTİFBANK|10.40.25.159|||110000438458|90
23.10.2018 23:00:00||AKTİFBANK|10.40.25.158|||110000438458|92
23.10.2018 23:00:00||AKTİFBANK|10.40.25.158|||110000438458|37
23.10.2018 23:00:00||AKTİFBANK|10.40.25.158|||110000438458|45
23.10.2018 23:00:00||AKTİFBANK|10.40.25.158|||110000438458|50
23.10.2018 23:00:00||AKTİFBANK|10.40.25.160|||110000438458|90
23.10.2018 23:00:00||AKTİFBANK|10.40.25.161|||110000438458|80
23.10.2018 23:00:00||AKTİFBANK|10.40.25.161|||110000438458|70
23.10.2018 23:00:00||AKTİFBANK|10.40.25.161|||110000438458|40
23.10.2018 23:00:00||AKTİFBANK|10.40.25.161|||110000438458|30
23.10.2018 23:00:00||AKTİFBANK|10.40.25.161|||110000438458|20
23.10.2018 23:00:00||AKTİFBANK|10.40.25.161|||110000438458|52
23.10.2018 23:00:00||AKTİFBANK|10.40.25.145|||110000438458|90
23.10.2018 23:00:00||AKTİFBANK|10.40.25.145|||110000438458|60
23.10.2018 23:00:00||AKTİFBANK|10.40.25.145|||110000438458|60
23.10.2018 23:00:00||AKTİFBANK|10.40.25.145|||110000438458|30
23.10.2018 23:00:00||AKTİFBANK|10.40.25.145|||110000438458|50
23.10.2018 23:00:00||AKTİFBANK|10.40.25.147|||110000438458|90
23.10.2018 23:00:00||AKTİFBANK|10.40.25.162|||110000438458|30
23.10.2018 23:00:00||AKTİFBANK|10.40.25.162|||110000438458|30
23.10.2018 23:00:00||AKTİFBANK|10.40.25.162|||110000438458|60
23.10.2018 23:00:00||AKTİFBANK|10.40.25.164|||110000438458|60
23.10.2018 23:00:00||AKTİFBANK|10.40.25.164|||110000438458|280
23.10.2018 23:00:00||AKTİFBANK|10.40.25.164|||110000438458|50
23.10.2018 23:00:00||AKTİFBANK|10.40.25.164|||110000438458|260
23.10.2018 23:00:00||AKTİFBANK|10.40.25.164|||110000438458|270
23.10.2018 23:00:00||AKTİFBANK|10.40.25.165|||110000438458|110
23.10.2018 23:00:00||AKTİFBANK|10.40.25.165|||110000438458|70
23.10.2018 23:00:00||AKTİFBANK|10.40.25.165|||110000438458|80
23.10.2018 23:00:00||AKTİFBANK|10.40.25.165|||110000438458|100
23.10.2018 23:00:00||AKTİFBANK|10.40.25.166|||110000438458|90
23.10.2018 23:00:00||AKTİFBANK|10.40.25.166|||110000438458|10
23.10.2018 23:00:00||AKTİFBANK|10.40.25.166|||110000438458|10
23.10.2018 23:00:00||AKTİFBANK|10.40.25.166|||110000438458|40
23.10.2018 23:00:00||AKTİFBANK|10.40.25.148|||110000438458|130
23.10.2018 23:00:00||AKTİFBANK|10.40.25.148|||110000438458|50
23.10.2018 23:00:00||AKTİFBANK|10.40.25.148|||110000438458|100
23.10.2018 23:00:00||AKTİFBANK|10.40.25.148|||110000438458|130
23.10.2018 23:00:00||AKTİFBANK|10.40.25.148|||110000438458|90
23.10.2018 23:00:00||AKTİFBANK|10.40.25.148|||110000438458|80
23.10.2018 23:00:00||AKTİFBANK|10.40.25.148|||110000438458|70
23.10.2018 23:00:00||AKTİFBANK|10.40.25.148|||110000438458|50
23.10.2018 23:00:00||AKTİFBANK|10.40.25.148|||110000438458|80
23.10.2018 23:00:00||AKTİFBANK|10.40.25.148|||110000438458|40
23.10.2018 23:00:00||AKTİFBANK|10.40.25.148|||110000438458|100
23.10.2018 23:00:00||AKTİFBANK|10.40.25.148|||110000438458|60
23.10.2018 23:00:00||AKTİFBANK|10.40.25.155|||110000438458|70
23.10.2018 23:00:00||AKTİFBANK|10.40.25.155|||110000438458|90
23.10.2018 23:00:00||AKTİFBANK|10.40.25.155|||110000438458|110
23.10.2018 23:00:00||AKTİFBANK|10.40.25.155|||110000438458|120
23.10.2018 23:00:00||AKTİFBANK|10.40.25.155|||110000438458|110
23.10.2018 23:00:00||AKTİFBANK|10.40.25.156|||110000438458|20
23.10.2018 23:00:00||AKTİFBANK|10.40.25.156|||110000438458|27
23.10.2018 23:00:00||AKTİFBANK|10.40.25.139|||110000438458|70
23.10.2018 23:00:00||AKTİFBANK|10.40.25.139|||110000438458|80
23.10.2018 23:00:00||AKTİFBANK|10.40.25.150|||110000438458|510
23.10.2018 23:00:00||AKTİFBANK|10.40.25.129|||110000438458|60
23.10.2018 23:00:00||AKTİFBANK|10.40.25.129|||110000438458|87
23.10.2018 23:00:00||AKTİFBANK|10.40.25.129|||110000438458|140
23.10.2018 23:00:00||AKTİFBANK|10.40.25.130|||110000438458|63
23.10.2018 23:00:00||AKTİFBANK|10.40.25.130|||110000438458|127
23.10.2018 23:00:00||AKTİFBANK|10.40.25.130|||110000438458|100
23.10.2018 23:00:00||AKTİFBANK|10.40.25.131|||110000438458|43
23.10.2018 23:00:00||AKTİFBANK|10.40.25.143|||110000438458|60
23.10.2018 23:00:00||AKTİFBANK|10.40.25.143|||110000438458|242
23.10.2018 23:00:00||AKTİFBANK|10.40.25.143|||110000438458|263
23.10.2018 23:00:00||AKTİFBANK|10.40.25.158|||110000438458|102
23.10.2018 23:00:00||AKTİFBANK|10.40.25.160|||110000438458|112
23.10.2018 23:00:00||AKTİFBANK|10.40.25.162|||110000438458|32
23.10.2018 23:00:00||AKTİFBANK|10.40.25.162|||110000438458|40
23.10.2018 23:00:00||AKTİFBANK|10.40.24.140|||110000438458|160
23.10.2018 23:00:00||AKTİFBANK|10.40.24.140|||110000438458|80
23.10.2018 23:00:00||AKTİFBANK|10.40.24.140|||110000438458|40
23.10.2018 23:00:00||AKTİFBANK|10.40.24.140|||110000438458|30
23.10.2018 23:00:00||AKTİFBANK|10.40.24.140|||110000438458|30
23.10.2018 23:00:00||AKTİFBANK|10.40.24.140|||110000438458|30
23.10.2018 23:00:00||AKTİFBANK|10.40.24.149|||110000438458|80
23.10.2018 23:00:00||AKTİFBANK|10.40.24.149|||110000438458|120
23.10.2018 23:00:00||AKTİFBANK|10.40.24.149|||110000438458|90
23.10.2018 23:00:00||AKTİFBANK|10.40.24.149|||110000438458|63
23.10.2018 23:00:00||AKTİFBANK|10.40.24.149|||110000438458|48
23.10.2018 23:00:00||AKTİFBANK|10.40.24.149|||110000438458|142
23.10.2018 23:00:00||AKTİFBANK|10.40.24.149|||110000438458|90
23.10.2018 23:00:00||AKTİFBANK|10.40.24.149|||110000438458|90
23.10.2018 23:00:00||AKTİFBANK|10.40.24.149|||110000438458|92
23.10.2018 23:00:00||AKTİFBANK|10.40.24.149|||110000438458|80
23.10.2018 23:00:00||AKTİFBANK|10.40.24.133|||110000438458|145
23.10.2018 23:00:00||AKTİFBANK|10.40.24.133|||110000438458|277
23.10.2018 23:00:00||AKTİFBANK|10.40.24.133|||110000438458|120
23.10.2018 23:00:00||AKTİFBANK|10.40.24.133|||110000438458|87
23.10.2018 23:00:00||AKTİFBANK|10.40.24.138|||110000438458|112
23.10.2018 23:00:00||AKTİFBANK|10.40.24.138|||110000438458|140
23.10.2018 23:00:00||AKTİFBANK|10.40.24.138|||110000438458|120
23.10.2018 23:00:00||AKTİFBANK|10.40.24.138|||110000438458|33
23.10.2018 23:00:00||AKTİFBANK|10.40.24.138|||110000438458|50
23.10.2018 23:00:00||AKTİFBANK|10.40.24.139|||110000438458|160
23.10.2018 23:00:00||AKTİFBANK|10.40.24.139|||110000438458|90
23.10.2018 23:00:00||AKTİFBANK|10.40.24.139|||110000438458|120
23.10.2018 23:00:00||AKTİFBANK|10.40.24.141|||110000438458|200
23.10.2018 23:00:00||AKTİFBANK|10.40.24.141|||110000438458|100
23.10.2018 23:00:00||AKTİFBANK|10.40.24.141|||110000438458|100
23.10.2018 23:00:00||AKTİFBANK|10.40.24.141|||110000438458|65
23.10.2018 23:00:00||AKTİFBANK|10.40.24.141|||110000438458|80
23.10.2018 23:00:00||AKTİFBANK|10.40.25.152|||110000438458|110
23.10.2018 23:00:00||AKTİFBANK|10.40.25.152|||110000438458|50
23.10.2018 23:00:00||AKTİFBANK|10.40.25.152|||110000438458|140
23.10.2018 23:00:00||AKTİFBANK|10.40.25.152|||110000438458|70
23.10.2018 23:00:00||AKTİFBANK|10.40.25.152|||110000438458|90
23.10.2018 23:00:00||AKTİFBANK|10.40.25.152|||110000438458|160
23.10.2018 23:00:00||AKTİFBANK|10.40.25.152|||110000438458|50
23.10.2018 23:00:00||AKTİFBANK|10.40.25.152|||110000438458|90
23.10.2018 23:00:00||AKTİFBANK|10.40.25.152|||110000438458|30
23.10.2018 23:00:00||AKTİFBANK|10.40.25.152|||110000438458|80
23.10.2018 23:00:00||AKTİFBANK|10.40.25.152|||110000438458|30
23.10.2018 23:00:00||AKTİFBANK|10.40.24.150|||110000438458|558
23.10.2018 23:00:00||AKTİFBANK|10.40.24.151|||110000438458|515
23.10.2018 23:00:00||AKTİFBANK|10.40.24.151|||110000438458|533
23.10.2018 23:00:00||AKTİFBANK|10.40.24.128|||110000438458|60
23.10.2018 23:00:00||AKTİFBANK|10.40.24.128|||110000438458|70
23.10.2018 23:00:00||AKTİFBANK|10.40.24.128|||110000438458|100
23.10.2018 23:00:00||AKTİFBANK|10.40.24.128|||110000438458|40
23.10.2018 23:00:00||AKTİFBANK|10.40.24.128|||110000438458|70
23.10.2018 23:00:00||AKTİFBANK|10.40.24.128|||110000438458|53
23.10.2018 23:00:00||AKTİFBANK|10.40.24.129|||110000438458|100
23.10.2018 23:00:00||AKTİFBANK|10.40.24.129|||110000438458|70
23.10.2018 23:00:00||AKTİFBANK|10.40.24.129|||110000438458|110
23.10.2018 23:00:00||AKTİFBANK|10.40.24.129|||110000438458|120
23.10.2018 23:00:00||AKTİFBANK|10.40.24.129|||110000438458|40
23.10.2018 23:00:00||AKTİFBANK|10.40.24.129|||110000438458|70
23.10.2018 23:00:00||AKTİFBANK|10.40.24.129|||110000438458|70
23.10.2018 23:00:00||AKTİFBANK|10.40.24.129|||110000438458|90
23.10.2018 23:00:00||AKTİFBANK|10.40.24.129|||110000438458|80
23.10.2018 23:00:00||AKTİFBANK|10.40.24.129|||110000438458|140
23.10.2018 23:00:00||AKTİFBANK|10.40.24.130|||110000438458|40
23.10.2018 23:00:00||AKTİFBANK|10.40.24.130|||110000438458|42
23.10.2018 23:00:00||AKTİFBANK|10.40.24.130|||110000438458|70
23.10.2018 23:00:00||AKTİFBANK|10.40.24.130|||110000438458|40
23.10.2018 23:00:00||AKTİFBANK|10.40.24.130|||110000438458|60
23.10.2018 23:00:00||AKTİFBANK|10.40.24.130|||110000438458|80
23.10.2018 23:00:00||AKTİFBANK|10.40.24.130|||110000438458|88
23.10.2018 23:00:00||AKTİFBANK|10.40.24.130|||110000438458|37
23.10.2018 23:00:00||AKTİFBANK|10.40.24.130|||110000438458|130
23.10.2018 23:00:00||AKTİFBANK|10.40.24.130|||110000438458|110
23.10.2018 23:00:00||AKTİFBANK|10.40.24.131|||110000438458|85
23.10.2018 23:00:00||AKTİFBANK|10.40.24.131|||110000438458|90
23.10.2018 23:00:00||AKTİFBANK|10.40.24.131|||110000438458|110
23.10.2018 23:00:00||AKTİFBANK|10.40.24.131|||110000438458|110
23.10.2018 23:00:00||AKTİFBANK|10.40.24.131|||110000438458|22
23.10.2018 23:00:00||AKTİFBANK|10.40.24.131|||110000438458|160
23.10.2018 23:00:00||AKTİFBANK|10.40.24.131|||110000438458|60
23.10.2018 23:00:00||AKTİFBANK|10.40.24.131|||110000438458|110
23.10.2018 23:00:00||AKTİFBANK|10.40.24.132|||110000438458|30
23.10.2018 23:00:00||AKTİFBANK|10.40.24.132|||110000438458|80
23.10.2018 23:00:00||AKTİFBANK|10.40.24.132|||110000438458|50
23.10.2018 23:00:00||AKTİFBANK|10.40.24.132|||110000438458|188
23.10.2018 23:00:00||AKTİFBANK|10.40.24.132|||110000438458|73
23.10.2018 23:00:00||AKTİFBANK|10.40.24.143|||110000438458|70
23.10.2018 23:00:00||AKTİFBANK|10.40.24.143|||110000438458|270
23.10.2018 23:00:00||AKTİFBANK|10.40.24.143|||110000438458|280
23.10.2018 23:00:00||AKTİFBANK|10.40.24.143|||110000438458|220
23.10.2018 23:00:00||AKTİFBANK|10.40.24.144|||110000438458|70
23.10.2018 23:00:00||AKTİFBANK|10.40.24.144|||110000438458|107
23.10.2018 23:00:00||AKTİFBANK|10.40.24.144|||110000438458|133
23.10.2018 23:00:00||AKTİFBANK|10.40.24.148|||110000438458|63
23.10.2018 23:00:00||AKTİFBANK|10.40.24.148|||110000438458|172
23.10.2018 23:00:00||AKTİFBANK|10.40.24.148|||110000438458|80
23.10.2018 23:00:00||AKTİFBANK|10.40.24.148|||110000438458|110
23.10.2018 23:00:00||AKTİFBANK|10.40.24.148|||110000438458|82
23.10.2018 23:00:00||AKTİFBANK|10.40.24.148|||110000438458|82
23.10.2018 23:00:00||AKTİFBANK|10.40.24.148|||110000438458|93
23.10.2018 23:00:00||AKTİFBANK|10.40.24.148|||110000438458|102
23.10.2018 23:00:00||AKTİFBANK|10.40.24.148|||110000438458|77
23.10.2018 23:00:00||AKTİFBANK|10.40.24.148|||110000438458|60
23.10.2018 23:00:00||AKTİFBANK|10.40.24.148|||110000438458|32
23.10.2018 23:00:00||AKTİFBANK|10.40.24.148|||110000438458|70
23.10.2018 23:00:00||AKTİFBANK|10.40.24.153|||110000438458|10
23.10.2018 23:00:00||AKTİFBANK|10.40.24.153|||110000438458|92
23.10.2018 23:00:00||AKTİFBANK|10.40.24.153|||110000438458|70
23.10.2018 23:00:00||AKTİFBANK|10.40.24.153|||110000438458|78
23.10.2018 23:00:00||AKTİFBANK|10.40.24.157|||110000438458|30
23.10.2018 23:00:00||AKTİFBANK|10.40.24.157|||110000438458|77
23.10.2018 23:00:00||AKTİFBANK|10.40.24.157|||110000438458|72
23.10.2018 23:00:00||AKTİFBANK|10.40.24.157|||110000438458|40
23.10.2018 23:00:00||AKTİFBANK|10.40.24.157|||110000438458|80
23.10.2018 23:00:00||AKTİFBANK|10.40.24.157|||110000438458|45
23.10.2018 23:00:00||AKTİFBANK|10.40.24.158|||110000438458|80
23.10.2018 23:00:00||AKTİFBANK|10.40.24.158|||110000438458|110
23.10.2018 23:00:00||AKTİFBANK|10.40.24.159|||110000438458|133
23.10.2018 23:00:00||AKTİFBANK|10.40.24.159|||110000438458|50
23.10.2018 23:00:00||AKTİFBANK|10.40.24.159|||110000438458|182
23.10.2018 23:00:00||AKTİFBANK|10.40.24.160|||110000438458|50
23.10.2018 23:00:00||AKTİFBANK|10.40.24.160|||110000438458|90
23.10.2018 23:00:00||AKTİFBANK|10.40.24.160|||110000438458|102
23.10.2018 23:00:00||AKTİFBANK|10.40.24.161|||110000438458|200
23.10.2018 23:00:00||AKTİFBANK|10.40.24.161|||110000438458|80
23.10.2018 23:00:00||AKTİFBANK|10.40.24.161|||110000438458|40
23.10.2018 23:00:00||AKTİFBANK|10.40.24.161|||110000438458|30
23.10.2018 23:00:00||AKTİFBANK|10.40.24.161|||110000438458|30
23.10.2018 23:00:00||AKTİFBANK|10.40.24.161|||110000438458|20
23.10.2018 23:00:00||AKTİFBANK|10.40.24.161|||110000438458|90
23.10.2018 23:00:00||AKTİFBANK|10.40.24.145|||110000438458|30
23.10.2018 23:00:00||AKTİFBANK|10.40.24.145|||110000438458|70
23.10.2018 23:00:00||AKTİFBANK|10.40.24.145|||110000438458|50
23.10.2018 23:00:00||AKTİFBANK|10.40.24.147|||110000438458|90
23.10.2018 23:00:00||AKTİFBANK|10.40.24.162|||110000438458|40
23.10.2018 23:00:00||AKTİFBANK|10.40.24.162|||110000438458|40
23.10.2018 23:00:00||AKTİFBANK|10.40.24.162|||110000438458|107
23.10.2018 23:00:00||AKTİFBANK|10.40.24.162|||110000438458|10
23.10.2018 23:00:00||AKTİFBANK|10.40.24.162|||110000438458|48
23.10.2018 23:00:00||AKTİFBANK|10.40.24.163|||110000438458|30
23.10.2018 23:00:00||AKTİFBANK|10.40.24.163|||110000438458|70
23.10.2018 23:00:00||AKTİFBANK|10.40.24.164|||110000438458|58
23.10.2018 23:00:00||AKTİFBANK|10.40.24.164|||110000438458|330
23.10.2018 23:00:00||AKTİFBANK|10.40.24.164|||110000438458|213
23.10.2018 23:00:00||AKTİFBANK|10.40.24.165|||110000438458|78
23.10.2018 23:00:00||AKTİFBANK|10.40.24.165|||110000438458|80
23.10.2018 23:00:00||AKTİFBANK|10.40.24.165|||110000438458|50
23.10.2018 23:00:00||AKTİFBANK|10.40.24.165|||110000438458|123
23.10.2018 23:00:00||AKTİFBANK|10.40.24.166|||110000438458|80
23.10.2018 23:00:00||AKTİFBANK|10.40.24.166|||110000438458|90
23.10.2018 23:00:00||AKTİFBANK|10.40.24.166|||110000438458|10
23.10.2018 23:00:00||AKTİFBANK|10.40.25.168|||110000438458|90
23.10.2018 23:00:00||AKTİFBANK|10.40.25.168|||110000438458|70
23.10.2018 23:00:00||AKTİFBANK|10.40.25.168|||110000438458|50
23.10.2018 23:00:00||AKTİFBANK|10.40.25.168|||110000438458|40
23.10.2018 23:00:00||AKTİFBANK|10.40.25.168|||110000438458|60
23.10.2018 23:00:00||AKTİFBANK|10.40.24.168|||110000438458|90
23.10.2018 23:00:00||AKTİFBANK|10.40.24.168|||110000438458|80
23.10.2018 23:00:00||AKTİFBANK|10.40.24.168|||110000438458|70
23.10.2018 23:00:00||AKTİFBANK|10.40.24.168|||110000438458|70
23.10.2018 23:00:00||AKTİFBANK|10.40.24.168|||110000438458|30
23.10.2018 23:00:00||AKTİFBANK|10.40.24.154|||110000438458|70
23.10.2018 23:00:00||AKTİFBANK|10.40.24.154|||110000438458|20
23.10.2018 23:00:00||AKTİFBANK|10.40.24.154|||110000438458|10
23.10.2018 23:00:00||AKTİFBANK|10.40.24.154|||110000438458|10
23.10.2018 23:00:00||AKTİFBANK|10.40.24.154|||110000438458|10
23.10.2018 23:00:00||AKTİFBANK|10.40.24.154|||110000438458|10
23.10.2018 23:00:00||AKTİFBANK|10.40.24.155|||110000438458|58
23.10.2018 23:00:00||AKTİFBANK|10.40.24.155|||110000438458|100
23.10.2018 23:00:00||AKTİFBANK|10.40.24.155|||110000438458|130
23.10.2018 23:00:00||AKTİFBANK|10.40.24.155|||110000438458|80
23.10.2018 23:00:00||AKTİFBANK|10.40.24.155|||110000438458|110
23.10.2018 23:00:00||AKTİFBANK|10.40.24.155|||110000438458|100
23.10.2018 23:00:00||AKTİFBANK|10.40.25.169|||110000438458|85
23.10.2018 23:00:00||AKTİFBANK|10.40.25.169|||110000438458|93
23.10.2018 23:00:00||AKTİFBANK|10.40.25.169|||110000438458|72
23.10.2018 23:00:00||AKTİFBANK|10.40.25.169|||110000438458|78
23.10.2018 23:00:00||AKTİFBANK|10.40.24.169|||110000438458|68
23.10.2018 23:00:00||AKTİFBANK|10.40.24.169|||110000438458|82
23.10.2018 23:00:00||AKTİFBANK|10.40.24.169|||110000438458|65
23.10.2018 23:00:00||AKTİFBANK|10.40.24.169|||110000438458|80
23.10.2018 23:00:00||AKTİFBANK|10.40.25.170|||110000438458|30
23.10.2018 23:00:00||AKTİFBANK|10.40.25.170|||110000438458|30
23.10.2018 23:00:00||AKTİFBANK|10.40.25.170|||110000438458|200
23.10.2018 23:00:00||AKTİFBANK|10.40.25.170|||110000438458|100
23.10.2018 23:00:00||AKTİFBANK|10.40.25.170|||110000438458|80
23.10.2018 23:00:00||AKTİFBANK|10.40.25.170|||110000438458|120
23.10.2018 23:00:00||AKTİFBANK|10.40.24.170|||110000438458|60
23.10.2018 23:00:00||AKTİFBANK|10.40.24.170|||110000438458|60
23.10.2018 23:00:00||AKTİFBANK|10.40.24.170|||110000438458|372
23.10.2018 23:00:00||AKTİFBANK|10.40.24.170|||110000438458|242
23.10.2018 23:00:00||AKTİFBANK|10.40.24.170|||110000438458|80
23.10.2018 23:00:00||AKTİFBANK|10.40.24.170|||110000438458|102
23.10.2018 23:00:00||AKTİFBANK|10.40.24.170|||110000438458|80
23.10.2018 23:00:00||AKTİFBANK|10.40.25.178|||110000438458|590
23.10.2018 23:00:00||AKTİFBANK|10.40.25.178|||110000438458|560
23.10.2018 23:00:00||AKTİFBANK|10.40.25.178|||110000438458|550
23.10.2018 23:00:00||AKTİFBANK|10.40.24.178|||110000438458|567
23.10.2018 23:00:00||AKTİFBANK|10.40.24.178|||110000438458|560
23.10.2018 23:00:00||AKTİFBANK|10.40.24.178|||110000438458|542
23.10.2018 23:00:00||AKTİFBANK|10.40.25.179|||110000438458|390
23.10.2018 23:00:00||AKTİFBANK|10.40.25.179|||110000438458|362
23.10.2018 23:00:00||AKTİFBANK|10.40.25.179|||110000438458|363
23.10.2018 23:00:00||AKTİFBANK|10.40.24.179|||110000438458|320
23.10.2018 23:00:00||AKTİFBANK|10.40.24.179|||110000438458|330
23.10.2018 23:00:00||AKTİFBANK|10.40.24.179|||110000438458|320
23.10.2018 23:00:00||AKTİFBANK|10.40.24.142|||110000438458|40
23.10.2018 23:00:00||AKTİFBANK|10.40.24.156|||110000438458|50
23.10.2018 23:00:00||AKTİFBANK|10.40.24.156|||110000438458|50
23.10.2018 23:00:00||AKTİFBANK|10.40.25.186|||110000438458|90
23.10.2018 23:00:00||AKTİFBANK|10.40.25.186|||110000438458|20
23.10.2018 23:00:00||AKTİFBANK|10.40.25.186|||110000438458|70
23.10.2018 23:00:00||AKTİFBANK|10.40.24.186|||110000438458|90
23.10.2018 23:00:00||AKTİFBANK|10.40.24.186|||110000438458|30
23.10.2018 23:00:00||AKTİFBANK|10.40.24.186|||110000438458|58
23.10.2018 23:00:00||AKTİFBANK|10.40.24.186|||110000438458|40
23.10.2018 23:00:00||AKTİFBANK|10.40.24.152|||110000438458|10
23.10.2018 23:00:00||AKTİFBANK|10.40.24.152|||110000438458|50
23.10.2018 23:00:00||AKTİFBANK|10.40.24.152|||110000438458|83
23.10.2018 23:00:00||AKTİFBANK|10.40.24.152|||110000438458|117
23.10.2018 23:00:00||AKTİFBANK|10.40.24.152|||110000438458|100
23.10.2018 23:00:00||AKTİFBANK|10.40.24.152|||110000438458|103
23.10.2018 23:00:00||AKTİFBANK|10.40.24.152|||110000438458|258
23.10.2018 23:00:00||AKTİFBANK|10.40.24.152|||110000438458|75
23.10.2018 23:00:00||AKTİFBANK|10.40.24.152|||110000438458|90
23.10.2018 23:00:00||AKTİFBANK|10.40.24.152|||110000438458|30
23.10.2018 23:00:00||AKTİFBANK|10.40.24.152|||110000438458|72
23.10.2018 23:00:00||AKTİFBANK|10.40.24.152|||110000438458|30
23.10.2018 23:00:00||BARİKAT İNTERNET GÜVENLİĞİ|10.40.25.201|||110000479736|113
23.10.2018 23:00:00||BARİKAT İNTERNET GÜVENLİĞİ|10.40.25.201|||110000479736|100
23.10.2018 23:00:00||BARİKAT İNTERNET GÜVENLİĞİ|10.40.24.201|||110000479736|132
23.10.2018 23:00:00||BARİKAT İNTERNET GÜVENLİĞİ|10.40.24.201|||110000479736|97
23.10.2018 23:00:00||BOYNER|10.40.26.100|||101367941673|57
23.10.2018 23:00:00||BOYNER|10.40.26.101|||101367941673|159
23.10.2018 23:00:00||BOYNER|10.40.27.100|||101367941673|53
23.10.2018 23:00:00||BOYNER|10.40.27.101|||101367941673|165
23.10.2018 23:00:00||BOYNER|10.40.27.94|||101367941673|210
23.10.2018 23:00:00||BOYNER|10.40.27.94|||101367941673|90
23.10.2018 23:00:00||BOYNER|10.40.27.94|||101367941673|90
23.10.2018 23:00:00||BOYNER|10.40.27.94|||101367941673|100
23.10.2018 23:00:00||BOYNER|10.40.26.94|||101367941673|90
23.10.2018 23:00:00||BOYNER|10.40.26.94|||101367941673|80
23.10.2018 23:00:00||BOYNER|10.40.26.94|||101367941673|80
23.10.2018 23:00:00||BOYNER|10.40.27.95|||101367941673|147
23.10.2018 23:00:00||BOYNER|10.40.27.95|||101367941673|132
23.10.2018 23:00:00||BOYNER|10.40.27.95|||101367941673|238
23.10.2018 23:00:00||BOYNER|10.40.26.95|||101367941673|133
23.10.2018 23:00:00||BOYNER|10.40.26.95|||101367941673|200
23.10.2018 23:00:00||BOYNER|10.40.26.95|||101367941673|142
23.10.2018 23:00:00||BOYNER|10.40.27.96|||101367941673|60
23.10.2018 23:00:00||BOYNER|10.40.27.96|||101367941673|50
23.10.2018 23:00:00||BOYNER|10.40.27.96|||101367941673|50
23.10.2018 23:00:00||BOYNER|10.40.27.96|||101367941673|40
23.10.2018 23:00:00||BOYNER|10.40.27.96|||101367941673|40
23.10.2018 23:00:00||BOYNER|10.40.27.96|||101367941673|155
23.10.2018 23:00:00||BOYNER|10.40.27.96|||101367941673|153
23.10.2018 23:00:00||BOYNER|10.40.27.96|||101367941673|173
23.10.2018 23:00:00||BOYNER|10.40.27.96|||101367941673|167
23.10.2018 23:00:00||BOYNER|10.40.26.96|||101367941673|30
23.10.2018 23:00:00||BOYNER|10.40.26.96|||101367941673|40
23.10.2018 23:00:00||BOYNER|10.40.26.96|||101367941673|30
23.10.2018 23:00:00||BOYNER|10.40.26.96|||101367941673|40
23.10.2018 23:00:00||BOYNER|10.40.26.96|||101367941673|42
23.10.2018 23:00:00||BOYNER|10.40.26.96|||101367941673|50
23.10.2018 23:00:00||BOYNER|10.40.26.96|||101367941673|188
23.10.2018 23:00:00||BOYNER|10.40.26.96|||101367941673|203
23.10.2018 23:00:00||BOYNER|10.40.26.96|||101367941673|160
23.10.2018 23:00:00||BOYNER|10.40.26.96|||101367941673|178
23.10.2018 23:00:00||BOYNER|10.40.27.97|||101367941673|60
23.10.2018 23:00:00||BOYNER|10.40.27.97|||101367941673|650
23.10.2018 23:00:00||BOYNER|10.40.27.97|||101367941673|652
23.10.2018 23:00:00||BOYNER|10.40.27.97|||101367941673|687
23.10.2018 23:00:00||BOYNER|10.40.27.97|||101367941673|40
23.10.2018 23:00:00||BOYNER|10.40.27.97|||101367941673|30
23.10.2018 23:00:00||BOYNER|10.40.27.97|||101367941673|50
23.10.2018 23:00:00||BOYNER|10.40.27.97|||101367941673|30
23.10.2018 23:00:00||BOYNER|10.40.27.97|||101367941673|175
23.10.2018 23:00:00||BOYNER|10.40.27.97|||101367941673|175
23.10.2018 23:00:00||BOYNER|10.40.27.97|||101367941673|183
23.10.2018 23:00:00||BOYNER|10.40.27.97|||101367941673|193
23.10.2018 23:00:00||BOYNER|10.40.26.97|||101367941673|30
23.10.2018 23:00:00||BOYNER|10.40.26.97|||101367941673|647
23.10.2018 23:00:00||BOYNER|10.40.26.97|||101367941673|643
23.10.2018 23:00:00||BOYNER|10.40.26.97|||101367941673|653
23.10.2018 23:00:00||BOYNER|10.40.26.97|||101367941673|30
23.10.2018 23:00:00||BOYNER|10.40.26.97|||101367941673|40
23.10.2018 23:00:00||BOYNER|10.40.26.97|||101367941673|50
23.10.2018 23:00:00||BOYNER|10.40.26.97|||101367941673|60
23.10.2018 23:00:00||BOYNER|10.40.26.97|||101367941673|30
23.10.2018 23:00:00||BOYNER|10.40.26.97|||101367941673|162
23.10.2018 23:00:00||BOYNER|10.40.26.97|||101367941673|172
23.10.2018 23:00:00||BOYNER|10.40.26.97|||101367941673|170
23.10.2018 23:00:00||BOYNER|10.40.26.97|||101367941673|152
23.10.2018 23:00:00||BOYNER|10.40.27.99|||101367941673|132
23.10.2018 23:00:00||BOYNER|10.40.27.99|||101367941673|102
23.10.2018 23:00:00||BOYNER|10.40.27.99|||101367941673|80
23.10.2018 23:00:00||BOYNER|10.40.26.99|||101367941673|12
23.10.2018 23:00:00||BOYNER|10.40.26.99|||101367941673|113
23.10.2018 23:00:00||BOYNER|10.40.26.99|||101367941673|108
23.10.2018 23:00:00||BOYNER|10.40.26.99|||101367941673|78
23.10.2018 23:00:00||ÇALIK HOLDİNG|10.40.24.118|||110000438407|43
23.10.2018 23:00:00||ÇALIK HOLDİNG|10.40.25.99|||110000438407|137
23.10.2018 23:00:00||ÇALIK HOLDİNG|10.40.25.118|||110000438407|161
23.10.2018 23:00:00||ÇALIK HOLDİNG|10.40.25.120|||110000438407|90
23.10.2018 23:00:00||ÇALIK HOLDİNG|10.40.24.95|||110000438407|50
23.10.2018 23:00:00||ÇALIK HOLDİNG|10.40.25.97|||110000438407|80
23.10.2018 23:00:00||ÇALIK HOLDİNG|10.40.25.103|||110000438407|90
23.10.2018 23:00:00||ÇALIK HOLDİNG|10.40.25.120|||110000438407|40
23.10.2018 23:00:00||ÇALIK HOLDİNG|10.40.25.96|||110000438407|70
23.10.2018 23:00:00||ÇALIK HOLDİNG|10.40.25.96|||110000438407|90
23.10.2018 23:00:00||ÇALIK HOLDİNG|10.40.25.96|||110000438407|120
23.10.2018 23:00:00||ÇALIK HOLDİNG|10.40.25.96|||110000438407|90
23.10.2018 23:00:00||ÇALIK HOLDİNG|10.40.25.115|||110000438407|170
23.10.2018 23:00:00||ÇALIK HOLDİNG|10.40.25.115|||110000438407|73
23.10.2018 23:00:00||ÇALIK HOLDİNG|10.40.25.95|||110000438407|92
23.10.2018 23:00:00||ÇALIK HOLDİNG|10.40.25.96|||110000438407|90
23.10.2018 23:00:00||ÇALIK HOLDİNG|10.40.25.96|||110000438407|100
23.10.2018 23:00:00||ÇALIK HOLDİNG|10.40.25.120|||110000438407|20
23.10.2018 23:00:00||ÇALIK HOLDİNG|10.40.25.95|||110000438407|50
23.10.2018 23:00:00||ÇALIK HOLDİNG|10.40.24.94|||110000438407|200
23.10.2018 23:00:00||ÇALIK HOLDİNG|10.40.25.97|||110000438407|102
23.10.2018 23:00:00||ÇALIK HOLDİNG|10.40.25.120|||110000438407|60
23.10.2018 23:00:00||ÇALIK HOLDİNG|10.40.25.115|||110000438407|80
23.10.2018 23:00:00||ÇALIK HOLDİNG|10.40.25.115|||110000438407|70
23.10.2018 23:00:00||ÇALIK HOLDİNG|10.40.25.115|||110000438407|68
23.10.2018 23:00:00||ÇALIK HOLDİNG|10.40.25.101|||110000438407|50
23.10.2018 23:00:00||ÇALIK HOLDİNG|10.40.25.101|||110000438407|110
23.10.2018 23:00:00||ÇALIK HOLDİNG|10.40.25.101|||110000438407|30
23.10.2018 23:00:00||ÇALIK HOLDİNG|10.40.25.101|||110000438407|10
23.10.2018 23:00:00||ÇALIK HOLDİNG|10.40.25.101|||110000438407|90
23.10.2018 23:00:00||ÇALIK HOLDİNG|10.40.25.101|||110000438407|30
23.10.2018 23:00:00||ÇALIK HOLDİNG|10.40.25.101|||110000438407|40
23.10.2018 23:00:00||ÇALIK HOLDİNG|10.40.25.101|||110000438407|40
23.10.2018 23:00:00||ÇALIK HOLDİNG|10.40.25.101|||110000438407|90
23.10.2018 23:00:00||ÇALIK HOLDİNG|10.40.25.101|||110000438407|90
23.10.2018 23:00:00||ÇALIK HOLDİNG|10.40.25.101|||110000438407|90
23.10.2018 23:00:00||ÇALIK HOLDİNG|10.40.25.94|||110000438407|180
23.10.2018 23:00:00||ÇALIK HOLDİNG|10.40.25.94|||110000438407|180
23.10.2018 23:00:00||ÇALIK HOLDİNG|10.40.25.94|||110000438407|170
23.10.2018 23:00:00||ÇALIK HOLDİNG|10.40.25.94|||110000438407|180
23.10.2018 23:00:00||ÇALIK HOLDİNG|10.40.24.94|||110000438407|203
23.10.2018 23:00:00||ÇALIK HOLDİNG|10.40.24.94|||110000438407|192
23.10.2018 23:00:00||ÇALIK HOLDİNG|10.40.24.94|||110000438407|195
23.10.2018 23:00:00||ÇALIK HOLDİNG|10.40.25.95|||110000438407|20
23.10.2018 23:00:00||ÇALIK HOLDİNG|10.40.25.95|||110000438407|347
23.10.2018 23:00:00||ÇALIK HOLDİNG|10.40.25.95|||110000438407|350
23.10.2018 23:00:00||ÇALIK HOLDİNG|10.40.25.95|||110000438407|40
23.10.2018 23:00:00||ÇALIK HOLDİNG|10.40.24.95|||110000438407|100
23.10.2018 23:00:00||ÇALIK HOLDİNG|10.40.24.95|||110000438407|90
23.10.2018 23:00:00||ÇALIK HOLDİNG|10.40.24.95|||110000438407|385
23.10.2018 23:00:00||ÇALIK HOLDİNG|10.40.24.95|||110000438407|387
23.10.2018 23:00:00||ÇALIK HOLDİNG|10.40.25.96|||110000438407|90
23.10.2018 23:00:00||ÇALIK HOLDİNG|10.40.25.96|||110000438407|100
23.10.2018 23:00:00||ÇALIK HOLDİNG|10.40.25.96|||110000438407|100
23.10.2018 23:00:00||ÇALIK HOLDİNG|10.40.25.96|||110000438407|258
23.10.2018 23:00:00||ÇALIK HOLDİNG|10.40.25.96|||110000438407|260
23.10.2018 23:00:00||ÇALIK HOLDİNG|10.40.25.96|||110000438407|100
23.10.2018 23:00:00||ÇALIK HOLDİNG|10.40.25.96|||110000438407|90
23.10.2018 23:00:00||ÇALIK HOLDİNG|10.40.25.96|||110000438407|93
23.10.2018 23:00:00||ÇALIK HOLDİNG|10.40.25.97|||110000438407|90
23.10.2018 23:00:00||ÇALIK HOLDİNG|10.40.25.97|||110000438407|80
23.10.2018 23:00:00||ÇALIK HOLDİNG|10.40.25.97|||110000438407|307
23.10.2018 23:00:00||ÇALIK HOLDİNG|10.40.25.98|||110000438407|50
23.10.2018 23:00:00||ÇALIK HOLDİNG|10.40.25.98|||110000438407|163
23.10.2018 23:00:00||ÇALIK HOLDİNG|10.40.25.98|||110000438407|160
23.10.2018 23:00:00||ÇALIK HOLDİNG|10.40.25.98|||110000438407|167
23.10.2018 23:00:00||ÇALIK HOLDİNG|10.40.25.98|||110000438407|168
23.10.2018 23:00:00||ÇALIK HOLDİNG|10.40.25.98|||110000438407|60
23.10.2018 23:00:00||ÇALIK HOLDİNG|10.40.25.98|||110000438407|210
23.10.2018 23:00:00||ÇALIK HOLDİNG|10.40.25.98|||110000438407|180
23.10.2018 23:00:00||ÇALIK HOLDİNG|10.40.25.98|||110000438407|170
23.10.2018 23:00:00||ÇALIK HOLDİNG|10.40.25.98|||110000438407|212
23.10.2018 23:00:00||ÇALIK HOLDİNG|10.40.25.98|||110000438407|70
23.10.2018 23:00:00||ÇALIK HOLDİNG|10.40.25.98|||110000438407|345
23.10.2018 23:00:00||ÇALIK HOLDİNG|10.40.24.98|||110000438407|90
23.10.2018 23:00:00||ÇALIK HOLDİNG|10.40.24.98|||110000438407|153
23.10.2018 23:00:00||ÇALIK HOLDİNG|10.40.24.98|||110000438407|200
23.10.2018 23:00:00||ÇALIK HOLDİNG|10.40.24.98|||110000438407|200
23.10.2018 23:00:00||ÇALIK HOLDİNG|10.40.24.98|||110000438407|162
23.10.2018 23:00:00||ÇALIK HOLDİNG|10.40.24.98|||110000438407|30
23.10.2018 23:00:00||ÇALIK HOLDİNG|10.40.24.98|||110000438407|163
23.10.2018 23:00:00||ÇALIK HOLDİNG|10.40.24.98|||110000438407|180
23.10.2018 23:00:00||ÇALIK HOLDİNG|10.40.24.98|||110000438407|170
23.10.2018 23:00:00||ÇALIK HOLDİNG|10.40.24.98|||110000438407|173
23.10.2018 23:00:00||ÇALIK HOLDİNG|10.40.24.98|||110000438407|20
23.10.2018 23:00:00||ÇALIK HOLDİNG|10.40.24.98|||110000438407|315
23.10.2018 23:00:00||ÇALIK HOLDİNG|10.40.25.100|||110000438407|37
23.10.2018 23:00:00||ÇALIK HOLDİNG|10.40.25.100|||110000438407|40
23.10.2018 23:00:00||ÇALIK HOLDİNG|10.40.24.101|||110000438407|60
23.10.2018 23:00:00||ÇALIK HOLDİNG|10.40.24.101|||110000438407|110
23.10.2018 23:00:00||ÇALIK HOLDİNG|10.40.24.101|||110000438407|20
23.10.2018 23:00:00||ÇALIK HOLDİNG|10.40.24.101|||110000438407|20
23.10.2018 23:00:00||ÇALIK HOLDİNG|10.40.24.101|||110000438407|40
23.10.2018 23:00:00||ÇALIK HOLDİNG|10.40.24.101|||110000438407|83
23.10.2018 23:00:00||ÇALIK HOLDİNG|10.40.24.101|||110000438407|30
23.10.2018 23:00:00||ÇALIK HOLDİNG|10.40.24.101|||110000438407|10
23.10.2018 23:00:00||ÇALIK HOLDİNG|10.40.24.101|||110000438407|20
23.10.2018 23:00:00||ÇALIK HOLDİNG|10.40.24.101|||110000438407|50
23.10.2018 23:00:00||ÇALIK HOLDİNG|10.40.24.101|||110000438407|30
23.10.2018 23:00:00||ÇALIK HOLDİNG|10.40.24.101|||110000438407|80
23.10.2018 23:00:00||ÇALIK HOLDİNG|10.40.24.101|||110000438407|80
23.10.2018 23:00:00||ÇALIK HOLDİNG|10.40.24.101|||110000438407|90
23.10.2018 23:00:00||ÇALIK HOLDİNG|10.40.25.102|||110000438407|100
23.10.2018 23:00:00||ÇALIK HOLDİNG|10.40.25.102|||110000438407|90
23.10.2018 23:00:00||ÇALIK HOLDİNG|10.40.25.102|||110000438407|150
23.10.2018 23:00:00||ÇALIK HOLDİNG|10.40.24.102|||110000438407|100
23.10.2018 23:00:00||ÇALIK HOLDİNG|10.40.24.102|||110000438407|90
23.10.2018 23:00:00||ÇALIK HOLDİNG|10.40.24.102|||110000438407|140
23.10.2018 23:00:00||ÇALIK HOLDİNG|10.40.25.103|||110000438407|90
23.10.2018 23:00:00||ÇALIK HOLDİNG|10.40.25.103|||110000438407|80
23.10.2018 23:00:00||ÇALIK HOLDİNG|10.40.25.103|||110000438407|10
23.10.2018 23:00:00||ÇALIK HOLDİNG|10.40.25.115|||110000438407|88
23.10.2018 23:00:00||ÇALIK HOLDİNG|10.40.24.103|||110000438407|100
23.10.2018 23:00:00||ÇALIK HOLDİNG|10.40.24.103|||110000438407|80
23.10.2018 23:00:00||ÇALIK HOLDİNG|10.40.24.103|||110000438407|80
23.10.2018 23:00:00||ÇALIK HOLDİNG|10.40.24.103|||110000438407|20
23.10.2018 23:00:00||ÇALIK HOLDİNG|10.40.24.103|||110000438407|10
23.10.2018 23:00:00||ÇALIK HOLDİNG|10.40.25.113|||110000438407|120
23.10.2018 23:00:00||ÇALIK HOLDİNG|10.40.25.113|||110000438407|248
23.10.2018 23:00:00||ÇALIK HOLDİNG|10.40.25.113|||110000438407|193
23.10.2018 23:00:00||ÇALIK HOLDİNG|10.40.25.113|||110000438407|207
23.10.2018 23:00:00||ÇALIK HOLDİNG|10.40.24.113|||110000438407|235
23.10.2018 23:00:00||ÇALIK HOLDİNG|10.40.24.113|||110000438407|233
23.10.2018 23:00:00||ÇALIK HOLDİNG|10.40.24.113|||110000438407|190
23.10.2018 23:00:00||ÇALIK HOLDİNG|10.40.24.113|||110000438407|155
23.10.2018 23:00:00||ÇALIK HOLDİNG|10.40.25.114|||110000438407|187
23.10.2018 23:00:00||ÇALIK HOLDİNG|10.40.25.114|||110000438407|405
23.10.2018 23:00:00||ÇALIK HOLDİNG|10.40.25.114|||110000438407|40
23.10.2018 23:00:00||ÇALIK HOLDİNG|10.40.24.114|||110000438407|20
23.10.2018 23:00:00||ÇALIK HOLDİNG|10.40.24.114|||110000438407|40
23.10.2018 23:00:00||ÇALIK HOLDİNG|10.40.24.114|||110000438407|168
23.10.2018 23:00:00||ÇALIK HOLDİNG|10.40.24.114|||110000438407|360
23.10.2018 23:00:00||ÇALIK HOLDİNG|10.40.24.115|||110000438407|163
23.10.2018 23:00:00||ÇALIK HOLDİNG|10.40.24.115|||110000438407|82
23.10.2018 23:00:00||ÇALIK HOLDİNG|10.40.24.115|||110000438407|92
23.10.2018 23:00:00||ÇALIK HOLDİNG|10.40.24.115|||110000438407|70
23.10.2018 23:00:00||ÇALIK HOLDİNG|10.40.24.115|||110000438407|88
23.10.2018 23:00:00||ÇALIK HOLDİNG|10.40.24.115|||110000438407|73
23.10.2018 23:00:00||ÇALIK HOLDİNG|10.40.25.116|||110000438407|103
23.10.2018 23:00:00||ÇALIK HOLDİNG|10.40.25.116|||110000438407|100
23.10.2018 23:00:00||ÇALIK HOLDİNG|10.40.25.116|||110000438407|300
23.10.2018 23:00:00||ÇALIK HOLDİNG|10.40.24.116|||110000438407|280
23.10.2018 23:00:00||ÇALIK HOLDİNG|10.40.24.116|||110000438407|100
23.10.2018 23:00:00||ÇALIK HOLDİNG|10.40.24.116|||110000438407|100
23.10.2018 23:00:00||ÇALIK HOLDİNG|10.40.25.117|||110000438407|250
23.10.2018 23:00:00||ÇALIK HOLDİNG|10.40.25.117|||110000438407|30
23.10.2018 23:00:00||ÇALIK HOLDİNG|10.40.25.117|||110000438407|25
23.10.2018 23:00:00||ÇALIK HOLDİNG|10.40.25.119|||110000438407|30
23.10.2018 23:00:00||ÇALIK HOLDİNG|10.40.25.119|||110000438407|30
23.10.2018 23:00:00||ÇALIK HOLDİNG|10.40.24.119|||110000438407|150
23.10.2018 23:00:00||ÇALIK HOLDİNG|10.40.24.119|||110000438407|30
23.10.2018 23:00:00||ÇALIK HOLDİNG|10.40.24.119|||110000438407|50
23.10.2018 23:00:00||ÇALIK HOLDİNG|10.40.25.120|||110000438407|105
23.10.2018 23:00:00||ÇALIK HOLDİNG|10.40.25.120|||110000438407|50
23.10.2018 23:00:00||ÇALIK HOLDİNG|10.40.25.120|||110000438407|20
23.10.2018 23:00:00||ÇALIK HOLDİNG|10.40.25.120|||110000438407|20
23.10.2018 23:00:00||ÇALIK HOLDİNG|10.40.25.120|||110000438407|30
23.10.2018 23:00:00||ÇALIK HOLDİNG|10.40.25.120|||110000438407|87
23.10.2018 23:00:00||ÇALIK HOLDİNG|10.40.25.120|||110000438407|90
23.10.2018 23:00:00||ÇALIK HOLDİNG|10.40.24.120|||110000438407|20
23.10.2018 23:00:00||ÇALIK HOLDİNG|10.40.24.120|||110000438407|37
23.10.2018 23:00:00||ÇALIK HOLDİNG|10.40.24.120|||110000438407|110
23.10.2018 23:00:00||ÇALIK HOLDİNG|10.40.24.120|||110000438407|100
23.10.2018 23:00:00||ÇALIK HOLDİNG|10.40.24.120|||110000438407|40
23.10.2018 23:00:00||ÇALIK HOLDİNG|10.40.24.120|||110000438407|80
23.10.2018 23:00:00||ÇALIK HOLDİNG|10.40.24.120|||110000438407|80
23.10.2018 23:00:00||ÇALIK HOLDİNG|10.40.24.120|||110000438407|70
23.10.2018 23:00:00||ÇALIK HOLDİNG|10.40.25.121|||110000438407|90
23.10.2018 23:00:00||ÇALIK HOLDİNG|10.40.25.121|||110000438407|100
23.10.2018 23:00:00||ÇALIK HOLDİNG|10.40.25.121|||110000438407|150
23.10.2018 23:00:00||ÇALIK HOLDİNG|10.40.24.121|||110000438407|100
23.10.2018 23:00:00||ÇALIK HOLDİNG|10.40.24.121|||110000438407|100
23.10.2018 23:00:00||ÇALIK HOLDİNG|10.40.24.121|||110000438407|140
23.10.2018 23:00:00||ÇALIK HOLDİNG|10.40.25.122|||110000438407|90
23.10.2018 23:00:00||ÇALIK HOLDİNG|10.40.25.122|||110000438407|80
23.10.2018 23:00:00||ÇALIK HOLDİNG|10.40.25.122|||110000438407|80
23.10.2018 23:00:00||ÇALIK HOLDİNG|10.40.25.122|||110000438407|30
23.10.2018 23:00:00||ÇALIK HOLDİNG|10.40.25.122|||110000438407|10
23.10.2018 23:00:00||ÇALIK HOLDİNG|10.40.24.122|||110000438407|90
23.10.2018 23:00:00||ÇALIK HOLDİNG|10.40.24.122|||110000438407|80
23.10.2018 23:00:00||ÇALIK HOLDİNG|10.40.24.122|||110000438407|88
23.10.2018 23:00:00||ÇALIK HOLDİNG|10.40.24.117|||110000438407|200
23.10.2018 23:00:00||ÇALIK HOLDİNG|10.40.24.117|||110000438407|30
23.10.2018 23:00:00||ÇALIK HOLDİNG|10.40.24.117|||110000438407|30
23.10.2018 23:00:00||ÇALIK HOLDİNG|10.40.24.97|||110000438407|98
23.10.2018 23:00:00||ÇALIK HOLDİNG|10.40.24.97|||110000438407|90
23.10.2018 23:00:00||ÇALIK HOLDİNG|10.40.24.97|||110000438407|80
23.10.2018 23:00:00||ÇALIK HOLDİNG|10.40.24.97|||110000438407|90
23.10.2018 23:00:00||ÇALIK HOLDİNG|10.40.24.97|||110000438407|317
23.10.2018 23:00:00||ÇALIK HOLDİNG|10.40.24.100|||110000438407|30
23.10.2018 23:00:00||ÇALIK HOLDİNG|10.40.24.100|||110000438407|40
23.10.2018 23:00:00||FIBABANKA|10.40.27.54|||101571767266|308
23.10.2018 23:00:00||FIBABANKA|10.40.26.54|||101571767266|317
23.10.2018 23:00:00||FIBABANKA|10.40.27.55|||101571767266|103
23.10.2018 23:00:00||FIBABANKA|10.40.26.55|||101571767266|102
23.10.2018 23:00:00||FIBABANKA|10.40.24.55|||101571767266|111
23.10.2018 23:00:00||FIBABANKA|10.40.25.56|||101571767266|197
23.10.2018 23:00:00||FIBABANKA|10.40.25.54|||101571767266|330
23.10.2018 23:00:00||FIBABANKA|10.40.24.54|||101571767266|316
23.10.2018 23:00:00||FIBABANKA|10.40.25.55|||101571767266|111
23.10.2018 23:00:00||FIBABANKA|10.40.24.56|||101571767266|194
23.10.2018 23:00:00||FIBABANKA|10.40.26.53|||101571767266|45
23.10.2018 23:00:00||FIBABANKA|10.40.26.53|||101571767266|170
23.10.2018 23:00:00||FIBABANKA|10.40.25.76|||101571767266|10
23.10.2018 23:00:00||FIBABANKA|10.40.27.53|||101571767266|170
23.10.2018 23:00:00||FIBABANKA|10.40.27.53|||101571767266|173
23.10.2018 23:00:00||FIBABANKA|10.40.26.53|||101571767266|158
23.10.2018 23:00:00||FIBABANKA|10.40.27.57|||101571767266|83
23.10.2018 23:00:00||FIBABANKA|10.40.27.57|||101571767266|80
23.10.2018 23:00:00||FIBABANKA|10.40.27.57|||101571767266|80
23.10.2018 23:00:00||FIBABANKA|10.40.25.57|||101571767266|90
23.10.2018 23:00:00||FIBABANKA|10.40.25.57|||101571767266|90
23.10.2018 23:00:00||FIBABANKA|10.40.25.57|||101571767266|90
23.10.2018 23:00:00||FIBABANKA|10.40.26.51|||101571767266|20
23.10.2018 23:00:00||FIBABANKA|10.40.27.52|||101571767266|50
23.10.2018 23:00:00||FIBABANKA|10.40.27.52|||101571767266|60
23.10.2018 23:00:00||FIBABANKA|10.40.27.52|||101571767266|70
23.10.2018 23:00:00||FIBABANKA|10.40.27.73|||101571767266|10
23.10.2018 23:00:00||FIBABANKA|10.40.27.74|||101571767266|167
23.10.2018 23:00:00||FIBABANKA|10.40.25.53|||101571767266|30
23.10.2018 23:00:00||FIBABANKA|10.40.25.53|||101571767266|48
23.10.2018 23:00:00||FIBABANKA|10.40.27.53|||101571767266|55
23.10.2018 23:00:00||FIBABANKA|10.40.26.53|||101571767266|60
23.10.2018 23:00:00||FIBABANKA|10.40.25.51|||101571767266|20
23.10.2018 23:00:00||FIBABANKA|10.40.25.51|||101571767266|110
23.10.2018 23:00:00||FIBABANKA|10.40.24.51|||101571767266|20
23.10.2018 23:00:00||FIBABANKA|10.40.24.51|||101571767266|70
23.10.2018 23:00:00||FIBABANKA|10.40.24.51|||101571767266|100
23.10.2018 23:00:00||FIBABANKA|10.40.24.51|||101571767266|140
23.10.2018 23:00:00||FIBABANKA|10.40.24.51|||101571767266|30
23.10.2018 23:00:00||FIBABANKA|10.40.24.57|||101571767266|90
23.10.2018 23:00:00||FIBABANKA|10.40.24.57|||101571767266|80
23.10.2018 23:00:00||FIBABANKA|10.40.24.57|||101571767266|80
23.10.2018 23:00:00||FIBABANKA|10.40.24.52|||101571767266|40
23.10.2018 23:00:00||FIBABANKA|10.40.24.52|||101571767266|10
23.10.2018 23:00:00||FIBABANKA|10.40.26.73|||101571767266|40
23.10.2018 23:00:00||FIBABANKA|10.40.27.53|||101571767266|70
23.10.2018 23:00:00||FIBABANKA|10.40.26.51|||101571767266|70
23.10.2018 23:00:00||FIBABANKA|10.40.26.52|||101571767266|30
23.10.2018 23:00:00||FIBABANKA|10.40.26.52|||101571767266|90
23.10.2018 23:00:00||FIBABANKA|10.40.26.52|||101571767266|30
23.10.2018 23:00:00||FIBABANKA|10.40.25.51|||101571767266|140
23.10.2018 23:00:00||FIBABANKA|10.40.25.51|||101571767266|40
23.10.2018 23:00:00||FIBABANKA|10.40.25.51|||101571767266|40
23.10.2018 23:00:00||FIBABANKA|10.40.25.51|||101571767266|70
23.10.2018 23:00:00||FIBABANKA|10.40.24.51|||101571767266|30
23.10.2018 23:00:00||FIBABANKA|10.40.24.58|||101571767266|10
23.10.2018 23:00:00||FIBABANKA|10.40.24.58|||101571767266|10
23.10.2018 23:00:00||FIBABANKA|10.40.25.59|||101571767266|70
23.10.2018 23:00:00||FIBABANKA|10.40.25.59|||101571767266|100
23.10.2018 23:00:00||FIBABANKA|10.40.25.59|||101571767266|63
23.10.2018 23:00:00||FIBABANKA|10.40.25.59|||101571767266|40
23.10.2018 23:00:00||FIBABANKA|10.40.25.59|||101571767266|120
23.10.2018 23:00:00||FIBABANKA|10.40.25.59|||101571767266|63
23.10.2018 23:00:00||FIBABANKA|10.40.25.59|||101571767266|58
23.10.2018 23:00:00||FIBABANKA|10.40.25.59|||101571767266|142
23.10.2018 23:00:00||FIBABANKA|10.40.25.59|||101571767266|50
23.10.2018 23:00:00||FIBABANKA|10.40.24.59|||101571767266|70
23.10.2018 23:00:00||FIBABANKA|10.40.24.59|||101571767266|123
23.10.2018 23:00:00||FIBABANKA|10.40.24.59|||101571767266|50
23.10.2018 23:00:00||FIBABANKA|10.40.24.59|||101571767266|50
23.10.2018 23:00:00||FIBABANKA|10.40.24.59|||101571767266|130
23.10.2018 23:00:00||FIBABANKA|10.40.24.59|||101571767266|70
23.10.2018 23:00:00||FIBABANKA|10.40.24.59|||101571767266|60
23.10.2018 23:00:00||FIBABANKA|10.40.24.59|||101571767266|143
23.10.2018 23:00:00||FIBABANKA|10.40.24.59|||101571767266|62
23.10.2018 23:00:00||FIBABANKA|10.40.25.60|||101571767266|100
23.10.2018 23:00:00||FIBABANKA|10.40.25.60|||101571767266|33
23.10.2018 23:00:00||FIBABANKA|10.40.25.60|||101571767266|107
23.10.2018 23:00:00||FIBABANKA|10.40.25.60|||101571767266|40
23.10.2018 23:00:00||FIBABANKA|10.40.24.60|||101571767266|110
23.10.2018 23:00:00||FIBABANKA|10.40.24.60|||101571767266|57
23.10.2018 23:00:00||FIBABANKA|10.40.24.60|||101571767266|40
23.10.2018 23:00:00||FIBABANKA|10.40.24.60|||101571767266|100
23.10.2018 23:00:00||FIBABANKA|10.40.24.60|||101571767266|50
23.10.2018 23:00:00||FIBABANKA|10.40.25.72|||101571767266|70
23.10.2018 23:00:00||FIBABANKA|10.40.25.72|||101571767266|40
23.10.2018 23:00:00||FIBABANKA|10.40.25.72|||101571767266|30
23.10.2018 23:00:00||FIBABANKA|10.40.24.72|||101571767266|140
23.10.2018 23:00:00||FIBABANKA|10.40.24.72|||101571767266|80
23.10.2018 23:00:00||FIBABANKA|10.40.24.72|||101571767266|30
23.10.2018 23:00:00||FIBABANKA|10.40.24.72|||101571767266|40
23.10.2018 23:00:00||FIBABANKA|10.40.25.74|||101571767266|30
23.10.2018 23:00:00||FIBABANKA|10.40.25.75|||101571767266|38
23.10.2018 23:00:00||FIBABANKA|10.40.25.75|||101571767266|85
23.10.2018 23:00:00||FIBABANKA|10.40.25.75|||101571767266|138
23.10.2018 23:00:00||FIBABANKA|10.40.25.75|||101571767266|167
23.10.2018 23:00:00||FIBABANKA|10.40.25.75|||101571767266|190
23.10.2018 23:00:00||FIBABANKA|10.40.25.75|||101571767266|202
23.10.2018 23:00:00||FIBABANKA|10.40.24.75|||101571767266|48
23.10.2018 23:00:00||FIBABANKA|10.40.24.75|||101571767266|53
23.10.2018 23:00:00||FIBABANKA|10.40.24.75|||101571767266|173
23.10.2018 23:00:00||FIBABANKA|10.40.24.75|||101571767266|148
23.10.2018 23:00:00||FIBABANKA|10.40.24.76|||101571767266|32
23.10.2018 23:00:00||FIBABANKA|10.40.24.76|||101571767266|68
23.10.2018 23:00:00||FIBABANKA|10.40.24.76|||101571767266|20
23.10.2018 23:00:00||FIBABANKA|10.40.24.76|||101571767266|40
23.10.2018 23:00:00||FIBABANKA|10.40.24.76|||101571767266|10
23.10.2018 23:00:00||FIBABANKA|10.40.24.53|||101571767266|30
23.10.2018 23:00:00||FIBABANKA|10.40.24.53|||101571767266|60
23.10.2018 23:00:00||FIBABANKA|10.40.26.57|||101571767266|90
23.10.2018 23:00:00||FIBABANKA|10.40.26.57|||101571767266|90
23.10.2018 23:00:00||FIBABANKA|10.40.26.57|||101571767266|80
23.10.2018 23:00:00||FIBABANKA|10.40.27.72|||101571767266|40
23.10.2018 23:00:00||FIBABANKA|10.40.27.72|||101571767266|50
23.10.2018 23:00:00||FIBABANKA|10.40.27.72|||101571767266|40
23.10.2018 23:00:00||FIBABANKA|10.40.27.72|||101571767266|140
23.10.2018 23:00:00||FIBABANKA|10.40.27.72|||101571767266|62
23.10.2018 23:00:00||FIBABANKA|10.40.26.72|||101571767266|30
23.10.2018 23:00:00||FIBABANKA|10.40.26.72|||101571767266|140
23.10.2018 23:00:00||FIBABANKA|10.40.26.72|||101571767266|70
23.10.2018 23:00:00||FIBABANKA|10.40.26.72|||101571767266|30
23.10.2018 23:00:00||FIBABANKA|10.40.27.73|||101571767266|30
23.10.2018 23:00:00||FIBABANKA|10.40.27.73|||101571767266|100
23.10.2018 23:00:00||FIBABANKA|10.40.27.73|||101571767266|40
23.10.2018 23:00:00||FIBABANKA|10.40.27.73|||101571767266|42
23.10.2018 23:00:00||FIBABANKA|10.40.27.73|||101571767266|260
23.10.2018 23:00:00||FIBABANKA|10.40.26.73|||101571767266|40
23.10.2018 23:00:00||FIBABANKA|10.40.26.73|||101571767266|70
23.10.2018 23:00:00||FIBABANKA|10.40.26.73|||101571767266|30
23.10.2018 23:00:00||FIBABANKA|10.40.26.73|||101571767266|7
23.10.2018 23:00:00||FIBABANKA|10.40.27.74|||101571767266|83
23.10.2018 23:00:00||FIBABANKA|10.40.27.74|||101571767266|163
23.10.2018 23:00:00||FIBABANKA|10.40.27.74|||101571767266|175
23.10.2018 23:00:00||FIBABANKA|10.40.26.74|||101571767266|77
23.10.2018 23:00:00||FIBABANKA|10.40.26.74|||101571767266|2
23.10.2018 23:00:00||FIBABANKA|10.40.26.74|||101571767266|202
23.10.2018 23:00:00||FIBABANKA|10.40.26.74|||101571767266|192
23.10.2018 23:00:00||FIBABANKA|10.40.26.74|||101571767266|180
23.10.2018 23:00:00||FIBABANKA|10.40.27.75|||101571767266|10
23.10.2018 23:00:00||FIBABANKA|10.40.27.75|||101571767266|10
23.10.2018 23:00:00||FIBABANKA|10.40.26.79|||101571767266|10
23.10.2018 23:00:00||FIBABANKA|10.40.27.79|||101571767266|10
23.10.2018 23:00:00||FIBABANKA|10.40.27.79|||101571767266|10
23.10.2018 23:00:00||FIBABANKA|10.40.26.79|||101571767266|10
23.10.2018 23:00:00||FIBABANKA|10.40.27.77|||101571767266|160
23.10.2018 23:00:00||FIBABANKA|10.40.26.77|||101571767266|180
23.10.2018 23:00:00||FIBABANKA|10.40.27.77|||101571767266|155
23.10.2018 23:00:00||FIBABANKA|10.40.25.74|||101571767266|230
23.10.2018 23:00:00||FIBABANKA|10.40.24.75|||101571767266|190
23.10.2018 23:00:00||FIBABANKA|10.40.24.53|||101571767266|168
23.10.2018 23:00:00||FIBABANKA|10.40.24.53|||101571767266|177
23.10.2018 23:00:00||FIBABANKA|10.40.25.52|||101571767266|10
23.10.2018 23:00:00||FIBABANKA|10.40.25.52|||101571767266|50
23.10.2018 23:00:00||FIBABANKA|10.40.25.52|||101571767266|60
23.10.2018 23:00:00||FIBABANKA|10.40.25.53|||101571767266|152
23.10.2018 23:00:00||FIBABANKA|10.40.25.53|||101571767266|147
23.10.2018 23:00:00||FIBABANKA|10.40.27.51|||101571767266|30
23.10.2018 23:00:00||FIBABANKA|10.40.27.51|||101571767266|20
23.10.2018 23:00:00||FIBABANKA|10.40.27.51|||101571767266|102
23.10.2018 23:00:00||FIBABANKA|10.40.27.51|||101571767266|140
23.10.2018 23:00:00||FIBABANKA|10.40.27.51|||101571767266|70
23.10.2018 23:00:00||FIBABANKA|10.40.27.51|||101571767266|40
23.10.2018 23:00:00||FIBABANKA|10.40.27.51|||101571767266|40
23.10.2018 23:00:00||FIBABANKA|10.40.26.51|||101571767266|10
23.10.2018 23:00:00||FIBABANKA|10.40.26.51|||101571767266|110
23.10.2018 23:00:00||FIBABANKA|10.40.26.51|||101571767266|130
23.10.2018 23:00:00||FIBABANKA|10.40.26.51|||101571767266|30
23.10.2018 23:00:00||FIBABANKA|10.40.26.51|||101571767266|30
23.10.2018 23:00:00||FIBABANKA|10.40.24.74|||101571767266|30
23.10.2018 23:00:00||FIBABANKA|10.40.25.76|||101571767266|60
23.10.2018 23:00:00||FIBABANKA|10.40.25.76|||101571767266|40
23.10.2018 23:00:00||FIBABANKA|10.40.25.76|||101571767266|10
23.10.2018 23:00:00||HAVAŞ|10.40.24.46|||110000479675|10
23.10.2018 23:00:00||HAVAŞ|10.40.24.48|||110000479675|752
23.10.2018 23:00:00||HAVAŞ|10.40.24.48|||110000479675|755
23.10.2018 23:00:00||HAVAŞ|10.40.25.48|||110000479675|742
23.10.2018 23:00:00||HAVAŞ|10.40.24.45|||110000479675|70
23.10.2018 23:00:00||HAVAŞ|10.40.25.45|||110000479675|63
23.10.2018 23:00:00||HAVAŞ|10.40.25.47|||110000479675|70
23.10.2018 23:00:00||HAVAŞ|10.40.24.46|||110000479675|80
23.10.2018 23:00:00||HAVAŞ|10.40.24.47|||110000479675|30
23.10.2018 23:00:00||HAVAŞ|10.40.24.47|||110000479675|90
23.10.2018 23:00:00||HAVAŞ|10.40.24.47|||110000479675|90
23.10.2018 23:00:00||HAVAŞ|10.40.25.46|||110000479675|10
23.10.2018 23:00:00||HAVAŞ|10.40.25.46|||110000479675|60
23.10.2018 23:00:00||HAVAŞ|10.40.24.48|||110000479675|765
23.10.2018 23:00:00||HAVAŞ|10.40.24.46|||110000479675|60
23.10.2018 23:00:00||HAVAŞ|10.40.24.46|||110000479675|70
23.10.2018 23:00:00||HAVAŞ|10.40.24.47|||110000479675|20
23.10.2018 23:00:00||HAVAŞ|10.40.25.48|||110000479675|753
23.10.2018 23:00:00||HAVAŞ|10.40.25.48|||110000479675|792
23.10.2018 23:00:00||HAVAŞ|10.40.25.45|||110000479675|93
23.10.2018 23:00:00||HAVAŞ|10.40.24.45|||110000479675|50
23.10.2018 23:00:00||HAVAŞ|10.40.24.45|||110000479675|170
23.10.2018 23:00:00||HAVAŞ|10.40.24.45|||110000479675|100
23.10.2018 23:00:00||HAVAŞ|10.40.25.47|||110000479675|70
23.10.2018 23:00:00||HAVAŞ|10.40.25.47|||110000479675|225
23.10.2018 23:00:00||HAVAŞ|10.40.25.47|||110000479675|57
23.10.2018 23:00:00||HAVAŞ|10.40.25.47|||110000479675|90
23.10.2018 23:00:00||HAVAŞ|10.40.25.47|||110000479675|88
23.10.2018 23:00:00||HAVAŞ|10.40.25.47|||110000479675|90
23.10.2018 23:00:00||HAVAŞ|10.40.25.47|||110000479675|110
23.10.2018 23:00:00||HAVAŞ|10.40.25.47|||110000479675|178
23.10.2018 23:00:00||HAVAŞ|10.40.25.47|||110000479675|90
23.10.2018 23:00:00||HAVAŞ|10.40.25.47|||110000479675|90
23.10.2018 23:00:00||HAVAŞ|10.40.25.47|||110000479675|92
23.10.2018 23:00:00||HAVAŞ|10.40.25.45|||110000479675|112
23.10.2018 23:00:00||HAVAŞ|10.40.25.45|||110000479675|87
23.10.2018 23:00:00||HAVAŞ|10.40.25.46|||110000479675|10
23.10.2018 23:00:00||HAVAŞ|10.40.25.46|||110000479675|10
23.10.2018 23:00:00||HAVAŞ|10.40.25.46|||110000479675|20
23.10.2018 23:00:00||HAVAŞ|10.40.25.46|||110000479675|20
23.10.2018 23:00:00||HAVAŞ|10.40.25.46|||110000479675|50
23.10.2018 23:00:00||HAVAŞ|10.40.25.46|||110000479675|100
23.10.2018 23:00:00||HAVAŞ|10.40.25.46|||110000479675|57
23.10.2018 23:00:00||HAVAŞ|10.40.25.46|||110000479675|72
23.10.2018 23:00:00||HAVAŞ|10.40.25.46|||110000479675|70
23.10.2018 23:00:00||HAVAŞ|10.40.24.46|||110000479675|20
23.10.2018 23:00:00||HAVAŞ|10.40.24.46|||110000479675|20
23.10.2018 23:00:00||HAVAŞ|10.40.24.46|||110000479675|2
23.10.2018 23:00:00||HAVAŞ|10.40.24.46|||110000479675|10
23.10.2018 23:00:00||HAVAŞ|10.40.24.46|||110000479675|10
23.10.2018 23:00:00||HAVAŞ|10.40.24.46|||110000479675|10
23.10.2018 23:00:00||HAVAŞ|10.40.24.46|||110000479675|60
23.10.2018 23:00:00||HAVAŞ|10.40.24.46|||110000479675|110
23.10.2018 23:00:00||HAVAŞ|10.40.24.47|||110000479675|30
23.10.2018 23:00:00||HAVAŞ|10.40.24.47|||110000479675|213
23.10.2018 23:00:00||HAVAŞ|10.40.24.47|||110000479675|60
23.10.2018 23:00:00||HAVAŞ|10.40.24.47|||110000479675|58
23.10.2018 23:00:00||HAVAŞ|10.40.24.47|||110000479675|158
23.10.2018 23:00:00||HAVAŞ|10.40.24.47|||110000479675|100
23.10.2018 23:00:00||HAVAŞ|10.40.24.47|||110000479675|100
23.10.2018 23:00:00||MARS CINEMA|10.40.24.203|||110000472614|102
23.10.2018 23:00:00||MARS CINEMA|10.40.24.204|||110000472614|40
23.10.2018 23:00:00||MARS CINEMA|10.40.24.203|||110000472614|95
23.10.2018 23:00:00||MARS CINEMA|10.40.24.203|||110000472614|158
23.10.2018 23:00:00||MARS CINEMA|10.40.24.203|||110000472614|80
23.10.2018 23:00:00||MARS CINEMA|10.40.24.204|||110000472614|62
23.10.2018 23:00:00||MARS CINEMA|10.40.24.203|||110000472614|103
23.10.2018 23:00:00||MARS CINEMA|10.40.24.204|||110000472614|20
23.10.2018 23:00:00||MARS CINEMA|10.40.24.204|||110000472614|88
23.10.2018 23:00:00||MARS CINEMA|10.40.25.203|||110000472614|153
23.10.2018 23:00:00||MARS CINEMA|10.40.25.203|||110000472614|90
23.10.2018 23:00:00||MARS CINEMA|10.40.25.203|||110000472614|187
23.10.2018 23:00:00||MARS CINEMA|10.40.25.203|||110000472614|90
23.10.2018 23:00:00||MARS CINEMA|10.40.25.203|||110000472614|80
23.10.2018 23:00:00||MARS CINEMA|10.40.25.203|||110000472614|110
23.10.2018 23:00:00||MARS CINEMA|10.40.25.203|||110000472614|80
23.10.2018 23:00:00||MARS CINEMA|10.40.25.203|||110000472614|148
23.10.2018 23:00:00||MARS CINEMA|10.40.25.203|||110000472614|92
23.10.2018 23:00:00||MARS CINEMA|10.40.25.203|||110000472614|110
23.10.2018 23:00:00||MARS CINEMA|10.40.25.203|||110000472614|92
23.10.2018 23:00:00||MARS CINEMA|10.40.25.203|||110000472614|63
23.10.2018 23:00:00||MARS CINEMA|10.40.25.203|||110000472614|188
23.10.2018 23:00:00||MARS CINEMA|10.40.25.204|||110000472614|110
23.10.2018 23:00:00||MARS CINEMA|10.40.25.204|||110000472614|70
23.10.2018 23:00:00||MARS CINEMA|10.40.25.204|||110000472614|80
23.10.2018 23:00:00||MARS CINEMA|10.40.25.204|||110000472614|100
23.10.2018 23:00:00||MARS CINEMA|10.40.25.204|||110000472614|20
23.10.2018 23:00:00||MARS CINEMA|10.40.25.204|||110000472614|20
23.10.2018 23:00:00||MARS CINEMA|10.40.25.204|||110000472614|30
23.10.2018 23:00:00||MARS CINEMA|10.40.25.204|||110000472614|40
23.10.2018 23:00:00||MARS CINEMA|10.40.25.204|||110000472614|90
23.10.2018 23:00:00||MARS CINEMA|10.40.25.204|||110000472614|120
23.10.2018 23:00:00||MARS CINEMA|10.40.25.204|||110000472614|80
23.10.2018 23:00:00||MARS CINEMA|10.40.25.204|||110000472614|80
23.10.2018 23:00:00||MARS CINEMA|10.40.25.204|||110000472614|110
23.10.2018 23:00:00||MARS CINEMA|10.40.25.204|||110000472614|100
23.10.2018 23:00:00||MARS CINEMA|10.40.24.203|||110000472614|80
23.10.2018 23:00:00||MARS CINEMA|10.40.24.203|||110000472614|90
23.10.2018 23:00:00||MARS CINEMA|10.40.24.203|||110000472614|152
23.10.2018 23:00:00||MARS CINEMA|10.40.24.203|||110000472614|53
23.10.2018 23:00:00||MARS CINEMA|10.40.24.203|||110000472614|140
23.10.2018 23:00:00||MARS CINEMA|10.40.24.203|||110000472614|152
23.10.2018 23:00:00||MARS CINEMA|10.40.24.203|||110000472614|102
23.10.2018 23:00:00||MARS CINEMA|10.40.24.203|||110000472614|182
23.10.2018 23:00:00||MARS CINEMA|10.40.24.204|||110000472614|110
23.10.2018 23:00:00||MARS CINEMA|10.40.24.204|||110000472614|97
23.10.2018 23:00:00||MARS CINEMA|10.40.24.204|||110000472614|90
23.10.2018 23:00:00||MARS CINEMA|10.40.24.204|||110000472614|20
23.10.2018 23:00:00||MARS CINEMA|10.40.24.204|||110000472614|10
23.10.2018 23:00:00||MARS CINEMA|10.40.24.204|||110000472614|92
23.10.2018 23:00:00||MARS CINEMA|10.40.24.204|||110000472614|118
23.10.2018 23:00:00||MARS CINEMA|10.40.24.204|||110000472614|90
23.10.2018 23:00:00||MARS CINEMA|10.40.24.204|||110000472614|107
23.10.2018 23:00:00||MARS CINEMA|10.40.24.204|||110000472614|80
23.10.2018 23:00:00||MARS CINEMA|10.40.25.206|||110000472614|120
23.10.2018 23:00:00||MARS CINEMA|10.40.25.206|||110000472614|40
23.10.2018 23:00:00||MARS CINEMA|10.40.25.206|||110000472614|40
23.10.2018 23:00:00||MARS CINEMA|10.40.25.206|||110000472614|40
23.10.2018 23:00:00||MARS CINEMA|10.40.25.206|||110000472614|20
23.10.2018 23:00:00||MARS CINEMA|10.40.25.206|||110000472614|20
23.10.2018 23:00:00||MARS CINEMA|10.40.25.206|||110000472614|30
23.10.2018 23:00:00||MARS CINEMA|10.40.25.206|||110000472614|60
23.10.2018 23:00:00||MARS CINEMA|10.40.25.206|||110000472614|40
23.10.2018 23:00:00||MARS CINEMA|10.40.25.206|||110000472614|85
23.10.2018 23:00:00||MARS CINEMA|10.40.25.206|||110000472614|90
23.10.2018 23:00:00||MARS CINEMA|10.40.24.206|||110000472614|153
23.10.2018 23:00:00||MARS CINEMA|10.40.24.206|||110000472614|40
23.10.2018 23:00:00||MARS CINEMA|10.40.24.206|||110000472614|40
23.10.2018 23:00:00||MARS CINEMA|10.40.24.206|||110000472614|42
23.10.2018 23:00:00||MARS CINEMA|10.40.24.206|||110000472614|30
23.10.2018 23:00:00||MARS CINEMA|10.40.24.206|||110000472614|30
23.10.2018 23:00:00||MARS CINEMA|10.40.24.206|||110000472614|195
23.10.2018 23:00:00||MARS CINEMA|10.40.24.206|||110000472614|160
23.10.2018 23:00:00||MARS CINEMA|10.40.24.206|||110000472614|20
23.10.2018 23:00:00||MARS CINEMA|10.40.24.206|||110000472614|80
23.10.2018 23:00:00||MARS CINEMA|10.40.24.206|||110000472614|77
23.10.2018 23:00:00||PEGASUS|10.40.27.84|||110000423831|216
23.10.2018 23:00:00||PEGASUS|10.40.26.85|||110000423831|121
23.10.2018 23:00:00||PEGASUS|10.40.27.66|||110000423831|113
23.10.2018 23:00:00||PEGASUS|10.40.26.66|||110000423831|93
23.10.2018 23:00:00||PEGASUS|10.40.26.84|||110000423831|219
23.10.2018 23:00:00||PEGASUS|10.40.27.85|||110000423831|118
23.10.2018 23:00:00||PEGASUS|10.40.27.67|||110000423831|338
23.10.2018 23:00:00||PEGASUS|10.40.27.67|||110000423831|40
23.10.2018 23:00:00||PEGASUS|10.40.26.62|||110000423831|10
23.10.2018 23:00:00||PEGASUS|10.40.26.62|||110000423831|190
23.10.2018 23:00:00||PEGASUS|10.40.26.63|||110000423831|70
23.10.2018 23:00:00||PEGASUS|10.40.26.63|||110000423831|30
23.10.2018 23:00:00||PEGASUS|10.40.26.63|||110000423831|60
23.10.2018 23:00:00||PEGASUS|10.40.26.63|||110000423831|30
23.10.2018 23:00:00||PEGASUS|10.40.26.63|||110000423831|230
23.10.2018 23:00:00||PEGASUS|10.40.26.63|||110000423831|140
23.10.2018 23:00:00||PEGASUS|10.40.26.63|||110000423831|110
23.10.2018 23:00:00||PEGASUS|10.40.26.63|||110000423831|60
23.10.2018 23:00:00||PEGASUS|10.40.26.67|||110000423831|170
23.10.2018 23:00:00||PEGASUS|10.40.27.68|||110000423831|90
23.10.2018 23:00:00||PEGASUS|10.40.27.68|||110000423831|83
23.10.2018 23:00:00||PEGASUS|10.40.27.68|||110000423831|90
23.10.2018 23:00:00||PEGASUS|10.40.27.68|||110000423831|50
23.10.2018 23:00:00||PEGASUS|10.40.26.68|||110000423831|90
23.10.2018 23:00:00||PEGASUS|10.40.26.68|||110000423831|90
23.10.2018 23:00:00||PEGASUS|10.40.26.68|||110000423831|50
23.10.2018 23:00:00||PEGASUS|10.40.27.63|||110000423831|100
23.10.2018 23:00:00||PEGASUS|10.40.27.86|||110000423831|340
23.10.2018 23:00:00||PEGASUS|10.40.27.63|||110000423831|50
23.10.2018 23:00:00||PEGASUS|10.40.27.63|||110000423831|60
23.10.2018 23:00:00||PEGASUS|10.40.27.64|||110000423831|80
23.10.2018 23:00:00||PEGASUS|10.40.27.64|||110000423831|70
23.10.2018 23:00:00||PEGASUS|10.40.27.63|||110000423831|60
23.10.2018 23:00:00||PEGASUS|10.40.27.63|||110000423831|145
23.10.2018 23:00:00||PEGASUS|10.40.27.63|||110000423831|90
23.10.2018 23:00:00||PEGASUS|10.40.26.63|||110000423831|110
23.10.2018 23:00:00||PEGASUS|10.40.27.67|||110000423831|360
23.10.2018 23:00:00||PEGASUS|10.40.27.64|||110000423831|268
23.10.2018 23:00:00||PEGASUS|10.40.27.64|||110000423831|267
23.10.2018 23:00:00||PEGASUS|10.40.27.63|||110000423831|77
23.10.2018 23:00:00||PEGASUS|10.40.27.63|||110000423831|63
23.10.2018 23:00:00||PEGASUS|10.40.27.63|||110000423831|80
23.10.2018 23:00:00||PEGASUS|10.40.26.63|||110000423831|110
23.10.2018 23:00:00||PEGASUS|10.40.26.63|||110000423831|110
23.10.2018 23:00:00||PEGASUS|10.40.27.81|||110000423831|452
23.10.2018 23:00:00||PEGASUS|10.40.27.81|||110000423831|427
23.10.2018 23:00:00||PEGASUS|10.40.26.63|||110000423831|90
23.10.2018 23:00:00||PEGASUS|10.40.26.63|||110000423831|60
23.10.2018 23:00:00||PEGASUS|10.40.26.67|||110000423831|30
23.10.2018 23:00:00||PEGASUS|10.40.26.67|||110000423831|340
23.10.2018 23:00:00||PEGASUS|10.40.26.67|||110000423831|60
23.10.2018 23:00:00||PEGASUS|10.40.26.67|||110000423831|40
23.10.2018 23:00:00||PEGASUS|10.40.26.67|||110000423831|70
23.10.2018 23:00:00||PEGASUS|10.40.26.68|||110000423831|100
23.10.2018 23:00:00||PEGASUS|10.40.27.64|||110000423831|290
23.10.2018 23:00:00||PEGASUS|10.40.27.64|||110000423831|263
23.10.2018 23:00:00||PEGASUS|10.40.27.64|||110000423831|285
23.10.2018 23:00:00||PEGASUS|10.40.27.64|||110000423831|265
23.10.2018 23:00:00||PEGASUS|10.40.27.64|||110000423831|268
23.10.2018 23:00:00||PEGASUS|10.40.27.86|||110000423831|340
23.10.2018 23:00:00||PEGASUS|10.40.27.63|||110000423831|90
23.10.2018 23:00:00||PEGASUS|10.40.26.63|||110000423831|130
23.10.2018 23:00:00||PEGASUS|10.40.26.63|||110000423831|60
23.10.2018 23:00:00||PEGASUS|10.40.26.63|||110000423831|80
23.10.2018 23:00:00||PEGASUS|10.40.26.67|||110000423831|340
23.10.2018 23:00:00||PEGASUS|10.40.27.63|||110000423831|50
23.10.2018 23:00:00||PEGASUS|10.40.27.63|||110000423831|60
23.10.2018 23:00:00||PEGASUS|10.40.27.81|||110000423831|425
23.10.2018 23:00:00||PEGASUS|10.40.26.62|||110000423831|90
23.10.2018 23:00:00||PEGASUS|10.40.26.63|||110000423831|50
23.10.2018 23:00:00||PEGASUS|10.40.26.63|||110000423831|100
23.10.2018 23:00:00||PEGASUS|10.40.26.63|||110000423831|40
23.10.2018 23:00:00||PEGASUS|10.40.26.63|||110000423831|70
23.10.2018 23:00:00||PEGASUS|10.40.26.67|||110000423831|340
23.10.2018 23:00:00||PEGASUS|10.40.27.64|||110000423831|277
23.10.2018 23:00:00||PEGASUS|10.40.27.64|||110000423831|273
23.10.2018 23:00:00||PEGASUS|10.40.27.64|||110000423831|263
23.10.2018 23:00:00||PEGASUS|10.40.27.64|||110000423831|287
23.10.2018 23:00:00||PEGASUS|10.40.27.64|||110000423831|323
23.10.2018 23:00:00||PEGASUS|10.40.27.86|||110000423831|40
23.10.2018 23:00:00||PEGASUS|10.40.27.63|||110000423831|73
23.10.2018 23:00:00||PEGASUS|10.40.27.63|||110000423831|80
23.10.2018 23:00:00||PEGASUS|10.40.27.63|||110000423831|72
23.10.2018 23:00:00||PEGASUS|10.40.27.63|||110000423831|90
23.10.2018 23:00:00||PEGASUS|10.40.27.63|||110000423831|157
23.10.2018 23:00:00||PEGASUS|10.40.27.63|||110000423831|222
23.10.2018 23:00:00||PEGASUS|10.40.27.63|||110000423831|57
23.10.2018 23:00:00||PEGASUS|10.40.26.64|||110000423831|80
23.10.2018 23:00:00||PEGASUS|10.40.26.64|||110000423831|80
23.10.2018 23:00:00||PEGASUS|10.40.26.82|||110000423831|210
23.10.2018 23:00:00||PEGASUS|10.40.26.82|||110000423831|110
23.10.2018 23:00:00||PEGASUS|10.40.26.82|||110000423831|115
23.10.2018 23:00:00||PEGASUS|10.40.26.82|||110000423831|157
23.10.2018 23:00:00||PEGASUS|10.40.26.82|||110000423831|150
23.10.2018 23:00:00||PEGASUS|10.40.26.82|||110000423831|140
23.10.2018 23:00:00||PEGASUS|10.40.26.82|||110000423831|180
23.10.2018 23:00:00||PEGASUS|10.40.26.82|||110000423831|33
23.10.2018 23:00:00||PEGASUS|10.40.26.82|||110000423831|60
23.10.2018 23:00:00||PEGASUS|10.40.26.82|||110000423831|20
23.10.2018 23:00:00||PEGASUS|10.40.26.82|||110000423831|67
23.10.2018 23:00:00||PEGASUS|10.40.26.82|||110000423831|50
23.10.2018 23:00:00||PEGASUS|10.40.26.82|||110000423831|43
23.10.2018 23:00:00||PEGASUS|10.40.27.83|||110000423831|585
23.10.2018 23:00:00||PEGASUS|10.40.27.83|||110000423831|70
23.10.2018 23:00:00||PEGASUS|10.40.27.83|||110000423831|572
23.10.2018 23:00:00||PEGASUS|10.40.27.83|||110000423831|557
23.10.2018 23:00:00||PEGASUS|10.40.27.83|||110000423831|73
23.10.2018 23:00:00||PEGASUS|10.40.26.83|||110000423831|513
23.10.2018 23:00:00||PEGASUS|10.40.26.83|||110000423831|50
23.10.2018 23:00:00||PEGASUS|10.40.26.83|||110000423831|400
23.10.2018 23:00:00||PEGASUS|10.40.26.83|||110000423831|510
23.10.2018 23:00:00||PEGASUS|10.40.26.83|||110000423831|505
23.10.2018 23:00:00||PEGASUS|10.40.26.86|||110000423831|360
23.10.2018 23:00:00||PEGASUS|10.40.26.86|||110000423831|135
23.10.2018 23:00:00||PEGASUS|10.40.26.86|||110000423831|350
23.10.2018 23:00:00||PEGASUS|10.40.26.86|||110000423831|50
23.10.2018 23:00:00||PEGASUS|10.40.26.86|||110000423831|30
23.10.2018 23:00:00||PEGASUS|10.40.26.86|||110000423831|350
23.10.2018 23:00:00||PEGASUS|10.40.26.86|||110000423831|40
23.10.2018 23:00:00||PEGASUS|10.40.27.87|||110000423831|90
23.10.2018 23:00:00||PEGASUS|10.40.27.87|||110000423831|88
23.10.2018 23:00:00||PEGASUS|10.40.27.87|||110000423831|90
23.10.2018 23:00:00||PEGASUS|10.40.27.87|||110000423831|20
23.10.2018 23:00:00||PEGASUS|10.40.26.87|||110000423831|90
23.10.2018 23:00:00||PEGASUS|10.40.26.87|||110000423831|90
23.10.2018 23:00:00||PEGASUS|10.40.26.87|||110000423831|90
23.10.2018 23:00:00||PEGASUS|10.40.26.87|||110000423831|60
23.10.2018 23:00:00||PEGASUS|10.40.26.87|||110000423831|20
23.10.2018 23:00:00||PEGASUS|10.40.26.81|||110000423831|395
23.10.2018 23:00:00||PEGASUS|10.40.26.81|||110000423831|407
23.10.2018 23:00:00||PEGASUS|10.40.26.81|||110000423831|413
23.10.2018 23:00:00||PEGASUS|10.40.27.82|||110000423831|220
23.10.2018 23:00:00||PEGASUS|10.40.27.82|||110000423831|30
23.10.2018 23:00:00||PEGASUS|10.40.27.82|||110000423831|108
23.10.2018 23:00:00||PEGASUS|10.40.27.82|||110000423831|88
23.10.2018 23:00:00||PEGASUS|10.40.27.82|||110000423831|155
23.10.2018 23:00:00||PEGASUS|10.40.27.82|||110000423831|123
23.10.2018 23:00:00||PEGASUS|10.40.27.82|||110000423831|167
23.10.2018 23:00:00||PEGASUS|10.40.27.82|||110000423831|120
23.10.2018 23:00:00||PEGASUS|10.40.27.82|||110000423831|60
23.10.2018 23:00:00||PEGASUS|10.40.27.82|||110000423831|83
23.10.2018 23:00:00||PEGASUS|10.40.27.82|||110000423831|50
23.10.2018 23:00:00||PEGASUS|10.40.27.82|||110000423831|37
23.10.2018 23:00:00||PEGASUS|10.40.27.82|||110000423831|40
23.10.2018 23:00:00||PEGASUS|10.40.27.67|||110000423831|50
23.10.2018 23:00:00||PEGASUS|10.40.27.67|||110000423831|70
23.10.2018 23:00:00||PEGASUS|10.40.27.67|||110000423831|132
23.10.2018 23:00:00||PEGASUS|10.40.27.67|||110000423831|10
23.10.2018 23:00:00||PEGASUS|10.40.27.67|||110000423831|340
23.10.2018 23:00:00||PEGASUS|10.40.27.82|||110000423831|63
23.10.2018 23:00:00||PEGASUS|10.40.27.86|||110000423831|170
23.10.2018 23:00:00||PEGASUS|10.40.27.86|||110000423831|70
23.10.2018 23:00:00||PEGASUS|10.40.27.86|||110000423831|20
23.10.2018 23:00:00||PEGASUS|10.40.27.86|||110000423831|350
23.10.2018 23:00:00||PETKIM|10.40.25.87|||110000437354|142
23.10.2018 23:00:00||PWC|10.40.24.66|||110000433262|87
23.10.2018 23:00:00||PWC|10.40.24.66|||110000433262|10
23.10.2018 23:00:00||PWC|10.40.24.66|||110000433262|30
23.10.2018 23:00:00||PWC|10.40.24.66|||110000433262|52
23.10.2018 23:00:00||PWC|10.40.24.66|||110000433262|442
23.10.2018 23:00:00||PWC|10.40.24.68|||110000433262|177
23.10.2018 23:00:00||PWC|10.40.24.66|||110000433262|50
23.10.2018 23:00:00||PWC|10.40.24.66|||110000433262|210
23.10.2018 23:00:00||PWC|10.40.24.66|||110000433262|210
23.10.2018 23:00:00||PWC|10.40.25.67|||110000433262|80
23.10.2018 23:00:00||PWC|10.40.25.67|||110000433262|90
23.10.2018 23:00:00||PWC|10.40.25.67|||110000433262|320
23.10.2018 23:00:00||PWC|10.40.25.67|||110000433262|250
23.10.2018 23:00:00||PWC|10.40.25.67|||110000433262|240
23.10.2018 23:00:00||PWC|10.40.25.67|||110000433262|250
23.10.2018 23:00:00||PWC|10.40.25.67|||110000433262|50
23.10.2018 23:00:00||PWC|10.40.25.67|||110000433262|30
23.10.2018 23:00:00||PWC|10.40.25.67|||110000433262|120
23.10.2018 23:00:00||PWC|10.40.24.67|||110000433262|10
23.10.2018 23:00:00||PWC|10.40.24.67|||110000433262|10
23.10.2018 23:00:00||PWC|10.40.24.67|||110000433262|370
23.10.2018 23:00:00||PWC|10.40.24.67|||110000433262|30
23.10.2018 23:00:00||PWC|10.40.24.67|||110000433262|70
23.10.2018 23:00:00||PWC|10.40.24.67|||110000433262|120
23.10.2018 23:00:00||PWC|10.40.25.68|||110000433262|135
23.10.2018 23:00:00||PWC|10.40.25.68|||110000433262|193
23.10.2018 23:00:00||PWC|10.40.25.68|||110000433262|75
23.10.2018 23:00:00||PWC|10.40.25.68|||110000433262|80
23.10.2018 23:00:00||PWC|10.40.25.68|||110000433262|167
23.10.2018 23:00:00||PWC|10.40.24.66|||110000433262|60
23.10.2018 23:00:00||PWC|10.40.24.66|||110000433262|30
23.10.2018 23:00:00||PWC|10.40.24.66|||110000433262|30
23.10.2018 23:00:00||PWC|10.40.24.68|||110000433262|107
23.10.2018 23:00:00||PWC|10.40.24.68|||110000433262|140
23.10.2018 23:00:00||PWC|10.40.24.68|||110000433262|397
23.10.2018 23:00:00||PWC|10.40.24.68|||110000433262|77
23.10.2018 23:00:00||PWC|10.40.24.68|||110000433262|70
23.10.2018 23:00:00||VSMART BİLGİ TEKNOLOJİLERİ|10.40.24.62|||110000474326|42
23.10.2018 23:00:00||VSMART BİLGİ TEKNOLOJİLERİ|10.40.24.62|||110000474326|67
23.10.2018 23:00:00||VSMART BİLGİ TEKNOLOJİLERİ|10.40.24.62|||110000474326|38
23.10.2018 23:00:00||VSMART BİLGİ TEKNOLOJİLERİ|10.40.25.62|||110000474326|73
23.10.2018 23:00:00||VSMART BİLGİ TEKNOLOJİLERİ|10.40.24.62|||110000474326|40
23.10.2018 23:00:00||VSMART BİLGİ TEKNOLOJİLERİ|10.40.24.62|||110000474326|30
23.10.2018 23:00:00||VSMART BİLGİ TEKNOLOJİLERİ|10.40.24.62|||110000474326|10
23.10.2018 23:00:00||VSMART BİLGİ TEKNOLOJİLERİ|10.40.25.62|||110000474326|40
23.10.2018 23:00:00||VSMART BİLGİ TEKNOLOJİLERİ|10.40.25.62|||110000474326|10
23.10.2018 23:00:00||VSMART BİLGİ TEKNOLOJİLERİ|10.40.25.62|||110000474326|10
23.10.2018 23:00:00||VSMART BİLGİ TEKNOLOJİLERİ|10.40.25.62|||110000474326|80
23.10.2018 23:00:00||VSMART BİLGİ TEKNOLOJİLERİ|10.40.25.62|||110000474326|88
23.10.2018 23:00:00||VSMART BİLGİ TEKNOLOJİLERİ|10.40.25.62|||110000474326|103
23.10.2018 23:00:00||VSMART BİLGİ TEKNOLOJİLERİ|10.40.24.62|||110000474326|10
