9/27/2018 6:00:00 AM||HAVAS|10.40.24.45|||110000479675|387
9/27/2018 6:00:00 AM||HAVAS|10.40.25.46|||110000479675|489
9/27/2018 6:00:00 AM||HAVAS|10.40.24.47|||110000479675|990
9/27/2018 6:00:00 AM||PWC|10.40.24.67|||110000433262|584
9/27/2018 6:00:00 AM||PWC|10.40.25.68|||110000433262|892
9/27/2018 6:00:00 AM||PWC|10.40.25.69|||110000433262|277
9/27/2018 6:00:00 AM||PWC|10.40.24.69|||110000433262|281
9/27/2018 6:00:00 AM||CALIK HOLDING|10.40.25.94|||110000438408|684
9/27/2018 6:00:00 AM||CALIK HOLDING|10.40.24.94|||110000438408|700
9/27/2018 6:00:00 AM||CALIK HOLDING|10.40.25.97|||110000438408|610
9/27/2018 6:00:00 AM||CALIK HOLDING|10.40.25.100|||110000438408|74
9/27/2018 6:00:00 AM||CALIK HOLDING|10.40.24.100|||110000438408|72
9/27/2018 6:00:00 AM||CALIK HOLDING|10.40.25.102|||110000438408|320
9/27/2018 6:00:00 AM||CALIK HOLDING|10.40.24.102|||110000438408|302
9/27/2018 6:00:00 AM||CALIK HOLDING|10.40.25.103|||110000438408|256
9/27/2018 6:00:00 AM||CALIK HOLDING|10.40.24.103|||110000438408|291
9/27/2018 6:00:00 AM||CALIK HOLDING|10.40.25.104|||110000438408|1106
9/27/2018 6:00:00 AM||CALIK HOLDING|10.40.25.115|||110000438408|510
9/27/2018 6:00:00 AM||CALIK HOLDING|10.40.24.115|||110000438408|520
9/27/2018 6:00:00 AM||CALIK HOLDING|10.40.25.116|||110000438408|453
9/27/2018 6:00:00 AM||CALIK HOLDING|10.40.24.116|||110000438408|456
9/27/2018 6:00:00 AM||CALIK HOLDING|10.40.25.117|||110000438408|294
9/27/2018 6:00:00 AM||CALIK HOLDING|10.40.24.117|||110000438408|247
9/27/2018 6:00:00 AM||CALIK HOLDING|10.40.25.119|||110000438408|67
9/27/2018 6:00:00 AM||CALIK HOLDING|10.40.24.119|||110000438408|215
9/27/2018 6:00:00 AM||CALIK HOLDING|10.40.25.120|||110000438408|551
9/27/2018 6:00:00 AM||CALIK HOLDING|10.40.24.120|||110000438408|577
9/27/2018 6:00:00 AM||CALIK HOLDING|10.40.25.121|||110000438408|306
9/27/2018 6:00:00 AM||CALIK HOLDING|10.40.24.121|||110000438408|312
9/27/2018 6:00:00 AM||CALIK HOLDING|10.40.25.122|||110000438408|254
9/27/2018 6:00:00 AM||CALIK HOLDING|10.40.24.122|||110000438408|291
9/27/2018 6:00:00 AM||AKTIFBANK|10.40.25.128|||110000438458|271
9/27/2018 6:00:00 AM||AKTIFBANK|10.40.24.128|||110000438458|459
9/27/2018 6:00:00 AM||AKTIFBANK|10.40.24.130|||110000438458|686
9/27/2018 6:00:00 AM||AKTIFBANK|10.40.25.131|||110000438458|598
9/27/2018 6:00:00 AM||AKTIFBANK|10.40.24.131|||110000438458|614
9/27/2018 6:00:00 AM||AKTIFBANK|10.40.25.132|||110000438458|408
9/27/2018 6:00:00 AM||AKTIFBANK|10.40.24.132|||110000438458|400
9/27/2018 6:00:00 AM||AKTIFBANK|10.40.25.133|||110000438458|391
9/27/2018 6:00:00 AM||AKTIFBANK|10.40.24.133|||110000438458|662
9/27/2018 6:00:00 AM||AKTIFBANK|10.40.25.138|||110000438458|248
9/27/2018 6:00:00 AM||AKTIFBANK|10.40.24.138|||110000438458|542
9/27/2018 6:00:00 AM||AKTIFBANK|10.40.25.139|||110000438458|151
9/27/2018 6:00:00 AM||AKTIFBANK|10.40.24.139|||110000438458|230
9/27/2018 6:00:00 AM||AKTIFBANK|10.40.25.140|||110000438458|255
9/27/2018 6:00:00 AM||AKTIFBANK|10.40.24.140|||110000438458|345
9/27/2018 6:00:00 AM||AKTIFBANK|10.40.25.141|||110000438458|474
9/27/2018 6:00:00 AM||AKTIFBANK|10.40.24.141|||110000438458|629
9/27/2018 6:00:00 AM||AKTIFBANK|10.40.25.142|||110000438458|37
9/27/2018 6:00:00 AM||AKTIFBANK|10.40.24.142|||110000438458|113
9/27/2018 6:00:00 AM||AKTIFBANK|10.40.24.143|||110000438458|800
9/27/2018 6:00:00 AM||AKTIFBANK|10.40.25.144|||110000438458|182
9/27/2018 6:00:00 AM||AKTIFBANK|10.40.24.144|||110000438458|261
9/27/2018 6:00:00 AM||AKTIFBANK|10.40.25.145|||110000438458|293
9/27/2018 6:00:00 AM||AKTIFBANK|10.40.24.145|||110000438458|392
9/27/2018 6:00:00 AM||AKTIFBANK|10.40.25.147|||110000438458|84
9/27/2018 6:00:00 AM||AKTIFBANK|10.40.24.147|||110000438458|86
9/27/2018 6:00:00 AM||AKTIFBANK|10.40.25.148|||110000438458|986
9/27/2018 6:00:00 AM||AKTIFBANK|10.40.25.152|||110000438458|716
9/27/2018 6:00:00 AM||AKTIFBANK|10.40.25.153|||110000438458|222
9/27/2018 6:00:00 AM||AKTIFBANK|10.40.24.153|||110000438458|239
9/27/2018 6:00:00 AM||AKTIFBANK|10.40.25.154|||110000438458|40
9/27/2018 6:00:00 AM||AKTIFBANK|10.40.24.154|||110000438458|131
9/27/2018 6:00:00 AM||AKTIFBANK|10.40.25.155|||110000438458|462
9/27/2018 6:00:00 AM||AKTIFBANK|10.40.24.155|||110000438458|510
9/27/2018 6:00:00 AM||AKTIFBANK|10.40.25.157|||110000438458|320
9/27/2018 6:00:00 AM||AKTIFBANK|10.40.24.157|||110000438458|342
9/27/2018 6:00:00 AM||AKTIFBANK|10.40.25.158|||110000438458|156
9/27/2018 6:00:00 AM||AKTIFBANK|10.40.24.158|||110000438458|606
9/27/2018 6:00:00 AM||AKTIFBANK|10.40.25.159|||110000438458|158
9/27/2018 6:00:00 AM||AKTIFBANK|10.40.24.159|||110000438458|342
9/27/2018 6:00:00 AM||AKTIFBANK|10.40.25.160|||110000438458|190
9/27/2018 6:00:00 AM||AKTIFBANK|10.40.24.160|||110000438458|239
9/27/2018 6:00:00 AM||AKTIFBANK|10.40.25.161|||110000438458|304
9/27/2018 6:00:00 AM||AKTIFBANK|10.40.25.162|||110000438458|240
9/27/2018 6:00:00 AM||AKTIFBANK|10.40.24.162|||110000438458|488
9/27/2018 6:00:00 AM||AKTIFBANK|10.40.25.163|||110000438458|45
9/27/2018 6:00:00 AM||AKTIFBANK|10.40.24.163|||110000438458|232
9/27/2018 6:00:00 AM||AKTIFBANK|10.40.25.164|||110000438458|880
9/27/2018 6:00:00 AM||AKTIFBANK|10.40.24.164|||110000438458|831
9/27/2018 6:00:00 AM||AKTIFBANK|10.40.25.165|||110000438458|309
9/27/2018 6:00:00 AM||AKTIFBANK|10.40.24.165|||110000438458|346
9/27/2018 6:00:00 AM||AKTIFBANK|10.40.25.166|||110000438458|132
9/27/2018 6:00:00 AM||AKTIFBANK|10.40.24.166|||110000438458|201
9/27/2018 6:00:00 AM||AKTIFBANK|10.40.25.168|||110000438458|318
9/27/2018 6:00:00 AM||AKTIFBANK|10.40.24.168|||110000438458|366
9/27/2018 6:00:00 AM||AKTIFBANK|10.40.25.169|||110000438458|321
9/27/2018 6:00:00 AM||AKTIFBANK|10.40.24.169|||110000438458|309
9/27/2018 6:00:00 AM||AKTIFBANK|10.40.25.170|||110000438458|417
9/27/2018 6:00:00 AM||AKTIFBANK|10.40.24.170|||110000438458|823
9/27/2018 6:00:00 AM||AKTIFBANK|10.40.25.179|||110000438458|916
9/27/2018 6:00:00 AM||AKTIFBANK|10.40.24.179|||110000438458|990
9/27/2018 6:00:00 AM||AKTIFBANK|10.40.25.186|||110000438458|180
9/27/2018 6:00:00 AM||AKTIFBANK|10.40.24.186|||110000438458|217
9/27/2018 6:00:00 AM||MARS CINEMA|10.40.25.203|||110000472614|1306
9/27/2018 6:00:00 AM||MARS CINEMA|10.40.24.203|||110000472614|1352
9/27/2018 6:00:00 AM||MARS CINEMA|10.40.25.206|||110000472614|446
9/27/2018 6:00:00 AM||PEGASUS|10.40.26.62|||110000423831|300
9/27/2018 6:00:00 AM||PEGASUS|10.40.26.64|||110000423831|157
9/27/2018 6:00:00 AM||PEGASUS|10.40.27.67|||110000423831|1244
9/27/2018 6:00:00 AM||PEGASUS|10.40.27.68|||110000423831|307
9/27/2018 6:00:00 AM||PEGASUS|10.40.27.87|||110000423831|281
9/27/2018 6:00:00 AM||PEGASUS|10.40.26.87|||110000423831|293
9/27/2018 6:00:00 AM||BOYNER|10.40.27.95|||101367941673|452
9/27/2018 6:00:00 AM||BOYNER|10.40.26.95|||101367941673|432
9/27/2018 6:00:00 AM||BOYNER|10.40.27.96|||101367941673|832
9/27/2018 6:00:00 AM||BOYNER|10.40.26.96|||101367941673|909
9/27/2018 6:00:00 AM||BOYNER|10.40.27.99|||101367941673|267
9/27/2018 6:00:00 AM||BOYNER|10.40.26.99|||101367941673|304
