9/26/2018 12:00:00 AM||HAVAS|10.40.24.45|||110000479675|378
9/26/2018 12:00:00 AM||HAVAS|10.40.25.46|||110000479675|508
9/26/2018 12:00:00 AM||HAVAS|10.40.24.47|||110000479675|999
9/26/2018 12:00:00 AM||PWC|10.40.24.67|||110000433262|570
9/26/2018 12:00:00 AM||PWC|10.40.25.68|||110000433262|945
9/26/2018 12:00:00 AM||PWC|10.40.25.69|||110000433262|277
9/26/2018 12:00:00 AM||PWC|10.40.24.69|||110000433262|280
9/26/2018 12:00:00 AM||CALIK HOLDING|10.40.25.94|||110000438408|703
9/26/2018 12:00:00 AM||CALIK HOLDING|10.40.24.94|||110000438408|741
9/26/2018 12:00:00 AM||CALIK HOLDING|10.40.25.97|||110000438408|631
9/26/2018 12:00:00 AM||CALIK HOLDING|10.40.25.100|||110000438408|74
9/26/2018 12:00:00 AM||CALIK HOLDING|10.40.24.100|||110000438408|71
9/26/2018 12:00:00 AM||CALIK HOLDING|10.40.25.101|||110000438408|608
9/26/2018 12:00:00 AM||CALIK HOLDING|10.40.25.102|||110000438408|320
9/26/2018 12:00:00 AM||CALIK HOLDING|10.40.24.102|||110000438408|302
9/26/2018 12:00:00 AM||CALIK HOLDING|10.40.25.103|||110000438408|257
9/26/2018 12:00:00 AM||CALIK HOLDING|10.40.24.103|||110000438408|300
9/26/2018 12:00:00 AM||CALIK HOLDING|10.40.25.104|||110000438408|1105
9/26/2018 12:00:00 AM||CALIK HOLDING|10.40.25.115|||110000438408|513
9/26/2018 12:00:00 AM||CALIK HOLDING|10.40.24.115|||110000438408|522
9/26/2018 12:00:00 AM||CALIK HOLDING|10.40.25.116|||110000438408|499
9/26/2018 12:00:00 AM||CALIK HOLDING|10.40.24.116|||110000438408|486
9/26/2018 12:00:00 AM||CALIK HOLDING|10.40.25.117|||110000438408|283
9/26/2018 12:00:00 AM||CALIK HOLDING|10.40.24.117|||110000438408|256
9/26/2018 12:00:00 AM||CALIK HOLDING|10.40.25.119|||110000438408|68
9/26/2018 12:00:00 AM||CALIK HOLDING|10.40.24.119|||110000438408|214
9/26/2018 12:00:00 AM||CALIK HOLDING|10.40.25.120|||110000438408|550
9/26/2018 12:00:00 AM||CALIK HOLDING|10.40.24.120|||110000438408|556
9/26/2018 12:00:00 AM||CALIK HOLDING|10.40.25.121|||110000438408|307
9/26/2018 12:00:00 AM||CALIK HOLDING|10.40.24.121|||110000438408|323
9/26/2018 12:00:00 AM||CALIK HOLDING|10.40.25.122|||110000438408|253
9/26/2018 12:00:00 AM||CALIK HOLDING|10.40.24.122|||110000438408|291
9/26/2018 12:00:00 AM||AKTIFBANK|10.40.25.128|||110000438458|271
9/26/2018 12:00:00 AM||AKTIFBANK|10.40.24.128|||110000438458|459
9/26/2018 12:00:00 AM||AKTIFBANK|10.40.25.130|||110000438458|721
9/26/2018 12:00:00 AM||AKTIFBANK|10.40.24.130|||110000438458|690
9/26/2018 12:00:00 AM||AKTIFBANK|10.40.25.131|||110000438458|607
9/26/2018 12:00:00 AM||AKTIFBANK|10.40.24.131|||110000438458|645
9/26/2018 12:00:00 AM||AKTIFBANK|10.40.25.132|||110000438458|406
9/26/2018 12:00:00 AM||AKTIFBANK|10.40.24.132|||110000438458|399
9/26/2018 12:00:00 AM||AKTIFBANK|10.40.25.133|||110000438458|388
9/26/2018 12:00:00 AM||AKTIFBANK|10.40.24.133|||110000438458|685
9/26/2018 12:00:00 AM||AKTIFBANK|10.40.25.138|||110000438458|250
9/26/2018 12:00:00 AM||AKTIFBANK|10.40.24.138|||110000438458|540
9/26/2018 12:00:00 AM||AKTIFBANK|10.40.25.139|||110000438458|152
9/26/2018 12:00:00 AM||AKTIFBANK|10.40.24.139|||110000438458|229
9/26/2018 12:00:00 AM||AKTIFBANK|10.40.25.140|||110000438458|255
9/26/2018 12:00:00 AM||AKTIFBANK|10.40.24.140|||110000438458|345
9/26/2018 12:00:00 AM||AKTIFBANK|10.40.25.141|||110000438458|491
9/26/2018 12:00:00 AM||AKTIFBANK|10.40.24.141|||110000438458|654
9/26/2018 12:00:00 AM||AKTIFBANK|10.40.25.142|||110000438458|36
9/26/2018 12:00:00 AM||AKTIFBANK|10.40.24.142|||110000438458|113
9/26/2018 12:00:00 AM||AKTIFBANK|10.40.24.143|||110000438458|802
9/26/2018 12:00:00 AM||AKTIFBANK|10.40.25.144|||110000438458|176
9/26/2018 12:00:00 AM||AKTIFBANK|10.40.24.144|||110000438458|271
9/26/2018 12:00:00 AM||AKTIFBANK|10.40.25.145|||110000438458|282
9/26/2018 12:00:00 AM||AKTIFBANK|10.40.24.145|||110000438458|406
9/26/2018 12:00:00 AM||AKTIFBANK|10.40.25.147|||110000438458|84
9/26/2018 12:00:00 AM||AKTIFBANK|10.40.24.147|||110000438458|86
9/26/2018 12:00:00 AM||AKTIFBANK|10.40.25.148|||110000438458|953
9/26/2018 12:00:00 AM||AKTIFBANK|10.40.25.152|||110000438458|716
9/26/2018 12:00:00 AM||AKTIFBANK|10.40.25.153|||110000438458|215
9/26/2018 12:00:00 AM||AKTIFBANK|10.40.24.153|||110000438458|239
9/26/2018 12:00:00 AM||AKTIFBANK|10.40.25.154|||110000438458|40
9/26/2018 12:00:00 AM||AKTIFBANK|10.40.24.154|||110000438458|132
9/26/2018 12:00:00 AM||AKTIFBANK|10.40.25.155|||110000438458|465
9/26/2018 12:00:00 AM||AKTIFBANK|10.40.24.155|||110000438458|496
9/26/2018 12:00:00 AM||AKTIFBANK|10.40.25.157|||110000438458|321
9/26/2018 12:00:00 AM||AKTIFBANK|10.40.24.157|||110000438458|353
9/26/2018 12:00:00 AM||AKTIFBANK|10.40.25.158|||110000438458|157
9/26/2018 12:00:00 AM||AKTIFBANK|10.40.24.158|||110000438458|609
9/26/2018 12:00:00 AM||AKTIFBANK|10.40.25.159|||110000438458|158
9/26/2018 12:00:00 AM||AKTIFBANK|10.40.24.159|||110000438458|356
9/26/2018 12:00:00 AM||AKTIFBANK|10.40.25.160|||110000438458|189
9/26/2018 12:00:00 AM||AKTIFBANK|10.40.24.160|||110000438458|231
9/26/2018 12:00:00 AM||AKTIFBANK|10.40.25.161|||110000438458|296
9/26/2018 12:00:00 AM||AKTIFBANK|10.40.24.161|||110000438458|499
9/26/2018 12:00:00 AM||AKTIFBANK|10.40.25.162|||110000438458|239
9/26/2018 12:00:00 AM||AKTIFBANK|10.40.24.162|||110000438458|488
9/26/2018 12:00:00 AM||AKTIFBANK|10.40.25.163|||110000438458|45
9/26/2018 12:00:00 AM||AKTIFBANK|10.40.24.163|||110000438458|239
9/26/2018 12:00:00 AM||AKTIFBANK|10.40.25.164|||110000438458|847
9/26/2018 12:00:00 AM||AKTIFBANK|10.40.24.164|||110000438458|862
9/26/2018 12:00:00 AM||AKTIFBANK|10.40.25.165|||110000438458|309
9/26/2018 12:00:00 AM||AKTIFBANK|10.40.24.165|||110000438458|360
9/26/2018 12:00:00 AM||AKTIFBANK|10.40.25.166|||110000438458|131
9/26/2018 12:00:00 AM||AKTIFBANK|10.40.24.166|||110000438458|201
9/26/2018 12:00:00 AM||AKTIFBANK|10.40.25.168|||110000438458|307
9/26/2018 12:00:00 AM||AKTIFBANK|10.40.24.168|||110000438458|380
9/26/2018 12:00:00 AM||AKTIFBANK|10.40.25.169|||110000438458|323
9/26/2018 12:00:00 AM||AKTIFBANK|10.40.24.169|||110000438458|310
9/26/2018 12:00:00 AM||AKTIFBANK|10.40.25.170|||110000438458|369
9/26/2018 12:00:00 AM||AKTIFBANK|10.40.24.170|||110000438458|879
9/26/2018 12:00:00 AM||AKTIFBANK|10.40.25.179|||110000438458|951
9/26/2018 12:00:00 AM||AKTIFBANK|10.40.24.179|||110000438458|989
9/26/2018 12:00:00 AM||AKTIFBANK|10.40.25.186|||110000438458|180
9/26/2018 12:00:00 AM||AKTIFBANK|10.40.24.186|||110000438458|217
9/26/2018 12:00:00 AM||MARS CINEMA|10.40.25.203|||110000472614|1308
9/26/2018 12:00:00 AM||MARS CINEMA|10.40.24.203|||110000472614|1401
9/26/2018 12:00:00 AM||MARS CINEMA|10.40.25.206|||110000472614|459
9/26/2018 12:00:00 AM||PEGASUS|10.40.26.64|||110000423831|157
9/26/2018 12:00:00 AM||PEGASUS|10.40.27.67|||110000423831|1238
9/26/2018 12:00:00 AM||PEGASUS|10.40.27.68|||110000423831|310
9/26/2018 12:00:00 AM||PEGASUS|10.40.27.87|||110000423831|271
9/26/2018 12:00:00 AM||PEGASUS|10.40.26.87|||110000423831|293
9/26/2018 12:00:00 AM||BOYNER|10.40.27.95|||101367941673|439
9/26/2018 12:00:00 AM||BOYNER|10.40.26.95|||101367941673|408
9/26/2018 12:00:00 AM||BOYNER|10.40.27.96|||101367941673|834
9/26/2018 12:00:00 AM||BOYNER|10.40.26.96|||101367941673|909
9/26/2018 12:00:00 AM||BOYNER|10.40.27.99|||101367941673|273
9/26/2018 12:00:00 AM||BOYNER|10.40.26.99|||101367941673|310
