05.10.2018 03:00:00||AKTİFBANK|10.40.24.128|||110000438458|152
05.10.2018 03:00:00||AKTİFBANK|10.40.24.128|||110000438458|71
05.10.2018 03:00:00||AKTİFBANK|10.40.24.128|||110000438458|101
05.10.2018 03:00:00||AKTİFBANK|10.40.24.128|||110000438458|40
05.10.2018 03:00:00||AKTİFBANK|10.40.24.128|||110000438458|71
05.10.2018 03:00:00||AKTİFBANK|10.40.24.128|||110000438458|40
05.10.2018 03:00:00||AKTİFBANK|10.40.24.129|||110000438458|101
05.10.2018 03:00:00||AKTİFBANK|10.40.24.129|||110000438458|71
05.10.2018 03:00:00||AKTİFBANK|10.40.24.129|||110000438458|101
05.10.2018 03:00:00||AKTİFBANK|10.40.24.129|||110000438458|111
05.10.2018 03:00:00||AKTİFBANK|10.40.24.129|||110000438458|50
05.10.2018 03:00:00||AKTİFBANK|10.40.24.129|||110000438458|71
05.10.2018 03:00:00||AKTİFBANK|10.40.24.129|||110000438458|71
05.10.2018 03:00:00||AKTİFBANK|10.40.24.129|||110000438458|91
05.10.2018 03:00:00||AKTİFBANK|10.40.24.129|||110000438458|81
05.10.2018 03:00:00||AKTİFBANK|10.40.24.129|||110000438458|142
05.10.2018 03:00:00||AKTİFBANK|10.40.24.130|||110000438458|50
05.10.2018 03:00:00||AKTİFBANK|10.40.24.130|||110000438458|40
05.10.2018 03:00:00||AKTİFBANK|10.40.24.130|||110000438458|81
05.10.2018 03:00:00||AKTİFBANK|10.40.24.130|||110000438458|40
05.10.2018 03:00:00||AKTİFBANK|10.40.24.130|||110000438458|60
05.10.2018 03:00:00||AKTİFBANK|10.40.24.130|||110000438458|81
05.10.2018 03:00:00||AKTİFBANK|10.40.24.130|||110000438458|91
05.10.2018 03:00:00||AKTİFBANK|10.40.24.130|||110000438458|40
05.10.2018 03:00:00||AKTİFBANK|10.40.24.130|||110000438458|132
05.10.2018 03:00:00||AKTİFBANK|10.40.24.130|||110000438458|111
05.10.2018 03:00:00||AKTİFBANK|10.40.24.131|||110000438458|10
05.10.2018 03:00:00||AKTİFBANK|10.40.24.131|||110000438458|101
05.10.2018 03:00:00||AKTİFBANK|10.40.24.131|||110000438458|87
05.10.2018 03:00:00||AKTİFBANK|10.40.24.131|||110000438458|106
05.10.2018 03:00:00||AKTİFBANK|10.40.24.131|||110000438458|115
05.10.2018 03:00:00||AKTİFBANK|10.40.24.131|||110000438458|30
05.10.2018 03:00:00||AKTİFBANK|10.40.24.131|||110000438458|153
05.10.2018 03:00:00||AKTİFBANK|10.40.24.131|||110000438458|58
05.10.2018 03:00:00||AKTİFBANK|10.40.24.131|||110000438458|106
05.10.2018 03:00:00||AKTİFBANK|10.40.24.132|||110000438458|39
05.10.2018 03:00:00||AKTİFBANK|10.40.24.132|||110000438458|77
05.10.2018 03:00:00||AKTİFBANK|10.40.24.132|||110000438458|48
05.10.2018 03:00:00||AKTİFBANK|10.40.24.132|||110000438458|172
05.10.2018 03:00:00||AKTİFBANK|10.40.24.132|||110000438458|67
05.10.2018 03:00:00||AKTİFBANK|10.40.24.133|||110000438458|134
05.10.2018 03:00:00||AKTİFBANK|10.40.24.133|||110000438458|87
05.10.2018 03:00:00||AKTİFBANK|10.40.24.133|||110000438458|115
05.10.2018 03:00:00||AKTİFBANK|10.40.24.133|||110000438458|87
05.10.2018 03:00:00||AKTİFBANK|10.40.24.134|||110000438458|60
05.10.2018 03:00:00||AKTİFBANK|10.40.24.134|||110000438458|31
05.10.2018 03:00:00||AKTİFBANK|10.40.24.135|||110000438458|64
05.10.2018 03:00:00||AKTİFBANK|10.40.24.135|||110000438458|31
05.10.2018 03:00:00||AKTİFBANK|10.40.24.137|||110000438458|3
05.10.2018 03:00:00||AKTİFBANK|10.40.24.137|||110000438458|52
05.10.2018 03:00:00||AKTİFBANK|10.40.24.138|||110000438458|106
05.10.2018 03:00:00||AKTİFBANK|10.40.24.138|||110000438458|115
05.10.2018 03:00:00||AKTİFBANK|10.40.24.138|||110000438458|134
05.10.2018 03:00:00||AKTİFBANK|10.40.24.138|||110000438458|106
05.10.2018 03:00:00||AKTİFBANK|10.40.24.138|||110000438458|30
05.10.2018 03:00:00||AKTİFBANK|10.40.24.138|||110000438458|48
05.10.2018 03:00:00||AKTİFBANK|10.40.24.139|||110000438458|39
05.10.2018 03:00:00||AKTİFBANK|10.40.24.139|||110000438458|30
05.10.2018 03:00:00||AKTİFBANK|10.40.24.139|||110000438458|48
05.10.2018 03:00:00||AKTİFBANK|10.40.24.139|||110000438458|87
05.10.2018 03:00:00||AKTİFBANK|10.40.24.139|||110000438458|58
05.10.2018 03:00:00||AKTİFBANK|10.40.24.139|||110000438458|115
05.10.2018 03:00:00||AKTİFBANK|10.40.24.140|||110000438458|20
05.10.2018 03:00:00||AKTİFBANK|10.40.24.140|||110000438458|77
05.10.2018 03:00:00||AKTİFBANK|10.40.24.140|||110000438458|39
05.10.2018 03:00:00||AKTİFBANK|10.40.24.140|||110000438458|30
05.10.2018 03:00:00||AKTİFBANK|10.40.24.140|||110000438458|30
05.10.2018 03:00:00||AKTİFBANK|10.40.24.140|||110000438458|48
05.10.2018 03:00:00||AKTİFBANK|10.40.24.140|||110000438458|39
05.10.2018 03:00:00||AKTİFBANK|10.40.24.140|||110000438458|20
05.10.2018 03:00:00||AKTİFBANK|10.40.24.140|||110000438458|30
05.10.2018 03:00:00||AKTİFBANK|10.40.24.141|||110000438458|191
05.10.2018 03:00:00||AKTİFBANK|10.40.24.141|||110000438458|48
05.10.2018 03:00:00||AKTİFBANK|10.40.24.141|||110000438458|96
05.10.2018 03:00:00||AKTİFBANK|10.40.24.141|||110000438458|96
05.10.2018 03:00:00||AKTİFBANK|10.40.24.141|||110000438458|67
05.10.2018 03:00:00||AKTİFBANK|10.40.24.141|||110000438458|77
05.10.2018 03:00:00||AKTİFBANK|10.40.24.141|||110000438458|67
05.10.2018 03:00:00||AKTİFBANK|10.40.24.142|||110000438458|67
05.10.2018 03:00:00||AKTİFBANK|10.40.24.142|||110000438458|39
05.10.2018 03:00:00||AKTİFBANK|10.40.24.143|||110000438458|67
05.10.2018 03:00:00||AKTİFBANK|10.40.24.143|||110000438458|257
05.10.2018 03:00:00||AKTİFBANK|10.40.24.143|||110000438458|305
05.10.2018 03:00:00||AKTİFBANK|10.40.24.143|||110000438458|191
05.10.2018 03:00:00||AKTİFBANK|10.40.24.144|||110000438458|77
05.10.2018 03:00:00||AKTİFBANK|10.40.24.144|||110000438458|96
05.10.2018 03:00:00||AKTİFBANK|10.40.24.144|||110000438458|87
05.10.2018 03:00:00||AKTİFBANK|10.40.24.145|||110000438458|87
05.10.2018 03:00:00||AKTİFBANK|10.40.24.145|||110000438458|20
05.10.2018 03:00:00||AKTİFBANK|10.40.24.145|||110000438458|67
05.10.2018 03:00:00||AKTİFBANK|10.40.24.145|||110000438458|87
05.10.2018 03:00:00||AKTİFBANK|10.40.24.145|||110000438458|58
05.10.2018 03:00:00||AKTİFBANK|10.40.24.145|||110000438458|67
05.10.2018 03:00:00||AKTİFBANK|10.40.24.147|||110000438458|87
05.10.2018 03:00:00||AKTİFBANK|10.40.24.148|||110000438458|67
05.10.2018 03:00:00||AKTİFBANK|10.40.24.148|||110000438458|163
05.10.2018 03:00:00||AKTİFBANK|10.40.24.148|||110000438458|77
05.10.2018 03:00:00||AKTİFBANK|10.40.24.148|||110000438458|106
05.10.2018 03:00:00||AKTİFBANK|10.40.24.148|||110000438458|96
05.10.2018 03:00:00||AKTİFBANK|10.40.24.148|||110000438458|87
05.10.2018 03:00:00||AKTİFBANK|10.40.24.148|||110000438458|96
05.10.2018 03:00:00||AKTİFBANK|10.40.24.148|||110000438458|96
05.10.2018 03:00:00||AKTİFBANK|10.40.24.148|||110000438458|67
05.10.2018 03:00:00||AKTİFBANK|10.40.24.148|||110000438458|67
05.10.2018 03:00:00||AKTİFBANK|10.40.24.148|||110000438458|20
05.10.2018 03:00:00||AKTİFBANK|10.40.24.148|||110000438458|77
05.10.2018 03:00:00||AKTİFBANK|10.40.24.149|||110000438458|77
05.10.2018 03:00:00||AKTİFBANK|10.40.24.149|||110000438458|115
05.10.2018 03:00:00||AKTİFBANK|10.40.24.149|||110000438458|96
05.10.2018 03:00:00||AKTİFBANK|10.40.24.149|||110000438458|58
05.10.2018 03:00:00||AKTİFBANK|10.40.24.149|||110000438458|48
05.10.2018 03:00:00||AKTİFBANK|10.40.24.149|||110000438458|87
05.10.2018 03:00:00||AKTİFBANK|10.40.24.149|||110000438458|143
05.10.2018 03:00:00||AKTİFBANK|10.40.24.149|||110000438458|87
05.10.2018 03:00:00||AKTİFBANK|10.40.24.149|||110000438458|153
05.10.2018 03:00:00||AKTİFBANK|10.40.24.149|||110000438458|106
05.10.2018 03:00:00||AKTİFBANK|10.40.24.149|||110000438458|87
05.10.2018 03:00:00||AKTİFBANK|10.40.24.149|||110000438458|87
05.10.2018 03:00:00||AKTİFBANK|10.40.24.149|||110000438458|77
05.10.2018 03:00:00||AKTİFBANK|10.40.24.149|||110000438458|77
05.10.2018 03:00:00||AKTİFBANK|10.40.24.150|||110000438458|524
05.10.2018 03:00:00||AKTİFBANK|10.40.24.150|||110000438458|514
05.10.2018 03:00:00||AKTİFBANK|10.40.24.150|||110000438458|533
05.10.2018 03:00:00||AKTİFBANK|10.40.24.151|||110000438458|533
05.10.2018 03:00:00||AKTİFBANK|10.40.24.151|||110000438458|524
05.10.2018 03:00:00||AKTİFBANK|10.40.24.151|||110000438458|485
05.10.2018 03:00:00||AKTİFBANK|10.40.24.152|||110000438458|20
05.10.2018 03:00:00||AKTİFBANK|10.40.24.152|||110000438458|48
05.10.2018 03:00:00||AKTİFBANK|10.40.24.152|||110000438458|106
05.10.2018 03:00:00||AKTİFBANK|10.40.24.152|||110000438458|58
05.10.2018 03:00:00||AKTİFBANK|10.40.24.152|||110000438458|106
05.10.2018 03:00:00||AKTİFBANK|10.40.24.152|||110000438458|96
05.10.2018 03:00:00||AKTİFBANK|10.40.24.152|||110000438458|286
05.10.2018 03:00:00||AKTİFBANK|10.40.24.152|||110000438458|67
05.10.2018 03:00:00||AKTİFBANK|10.40.24.152|||110000438458|96
05.10.2018 03:00:00||AKTİFBANK|10.40.24.152|||110000438458|30
05.10.2018 03:00:00||AKTİFBANK|10.40.24.152|||110000438458|67
05.10.2018 03:00:00||AKTİFBANK|10.40.24.152|||110000438458|30
05.10.2018 03:00:00||AKTİFBANK|10.40.24.153|||110000438458|10
05.10.2018 03:00:00||AKTİFBANK|10.40.24.153|||110000438458|87
05.10.2018 03:00:00||AKTİFBANK|10.40.24.153|||110000438458|67
05.10.2018 03:00:00||AKTİFBANK|10.40.24.153|||110000438458|67
05.10.2018 03:00:00||AKTİFBANK|10.40.24.154|||110000438458|67
05.10.2018 03:00:00||AKTİFBANK|10.40.24.154|||110000438458|20
05.10.2018 03:00:00||AKTİFBANK|10.40.24.154|||110000438458|10
05.10.2018 03:00:00||AKTİFBANK|10.40.24.154|||110000438458|10
05.10.2018 03:00:00||AKTİFBANK|10.40.24.154|||110000438458|10
05.10.2018 03:00:00||AKTİFBANK|10.40.24.154|||110000438458|10
05.10.2018 03:00:00||AKTİFBANK|10.40.24.155|||110000438458|106
05.10.2018 03:00:00||AKTİFBANK|10.40.24.155|||110000438458|124
05.10.2018 03:00:00||AKTİFBANK|10.40.24.155|||110000438458|77
05.10.2018 03:00:00||AKTİFBANK|10.40.24.155|||110000438458|106
05.10.2018 03:00:00||AKTİFBANK|10.40.24.155|||110000438458|96
05.10.2018 03:00:00||AKTİFBANK|10.40.24.157|||110000438458|30
05.10.2018 03:00:00||AKTİFBANK|10.40.24.157|||110000438458|77
05.10.2018 03:00:00||AKTİFBANK|10.40.24.157|||110000438458|67
05.10.2018 03:00:00||AKTİFBANK|10.40.24.157|||110000438458|39
05.10.2018 03:00:00||AKTİFBANK|10.40.24.157|||110000438458|77
05.10.2018 03:00:00||AKTİFBANK|10.40.24.157|||110000438458|58
05.10.2018 03:00:00||AKTİFBANK|10.40.24.158|||110000438458|106
05.10.2018 03:00:00||AKTİFBANK|10.40.24.158|||110000438458|106
05.10.2018 03:00:00||AKTİFBANK|10.40.24.158|||110000438458|124
05.10.2018 03:00:00||AKTİFBANK|10.40.24.158|||110000438458|77
05.10.2018 03:00:00||AKTİFBANK|10.40.24.158|||110000438458|77
05.10.2018 03:00:00||AKTİFBANK|10.40.24.158|||110000438458|106
05.10.2018 03:00:00||AKTİFBANK|10.40.24.159|||110000438458|124
05.10.2018 03:00:00||AKTİFBANK|10.40.24.159|||110000438458|60
05.10.2018 03:00:00||AKTİFBANK|10.40.24.159|||110000438458|180
05.10.2018 03:00:00||AKTİFBANK|10.40.24.160|||110000438458|10
05.10.2018 03:00:00||AKTİFBANK|10.40.24.160|||110000438458|10
05.10.2018 03:00:00||AKTİFBANK|10.40.24.160|||110000438458|90
05.10.2018 03:00:00||AKTİFBANK|10.40.24.160|||110000438458|100
05.10.2018 03:00:00||AKTİFBANK|10.40.24.161|||110000438458|180
05.10.2018 03:00:00||AKTİFBANK|10.40.24.161|||110000438458|80
05.10.2018 03:00:00||AKTİFBANK|10.40.24.161|||110000438458|40
05.10.2018 03:00:00||AKTİFBANK|10.40.24.161|||110000438458|30
05.10.2018 03:00:00||AKTİFBANK|10.40.24.161|||110000438458|30
05.10.2018 03:00:00||AKTİFBANK|10.40.24.161|||110000438458|20
05.10.2018 03:00:00||AKTİFBANK|10.40.24.161|||110000438458|90
05.10.2018 03:00:00||AKTİFBANK|10.40.24.162|||110000438458|60
05.10.2018 03:00:00||AKTİFBANK|10.40.24.162|||110000438458|10
05.10.2018 03:00:00||AKTİFBANK|10.40.24.162|||110000438458|80
05.10.2018 03:00:00||AKTİFBANK|10.40.24.162|||110000438458|50
05.10.2018 03:00:00||AKTİFBANK|10.40.24.162|||110000438458|40
05.10.2018 03:00:00||AKTİFBANK|10.40.24.162|||110000438458|40
05.10.2018 03:00:00||AKTİFBANK|10.40.24.162|||110000438458|70
05.10.2018 03:00:00||AKTİFBANK|10.40.24.162|||110000438458|30
05.10.2018 03:00:00||AKTİFBANK|10.40.24.162|||110000438458|10
05.10.2018 03:00:00||AKTİFBANK|10.40.24.162|||110000438458|50
05.10.2018 03:00:00||AKTİFBANK|10.40.24.162|||110000438458|40
05.10.2018 03:00:00||AKTİFBANK|10.40.24.163|||110000438458|30
05.10.2018 03:00:00||AKTİFBANK|10.40.24.163|||110000438458|70
05.10.2018 03:00:00||AKTİFBANK|10.40.24.164|||110000438458|60
05.10.2018 03:00:00||AKTİFBANK|10.40.24.164|||110000438458|330
05.10.2018 03:00:00||AKTİFBANK|10.40.24.164|||110000438458|70
05.10.2018 03:00:00||AKTİFBANK|10.40.24.164|||110000438458|220
05.10.2018 03:00:00||AKTİFBANK|10.40.24.164|||110000438458|210
05.10.2018 03:00:00||AKTİFBANK|10.40.24.165|||110000438458|80
05.10.2018 03:00:00||AKTİFBANK|10.40.24.165|||110000438458|80
05.10.2018 03:00:00||AKTİFBANK|10.40.24.165|||110000438458|120
05.10.2018 03:00:00||AKTİFBANK|10.40.24.166|||110000438458|80
05.10.2018 03:00:00||AKTİFBANK|10.40.24.166|||110000438458|90
05.10.2018 03:00:00||AKTİFBANK|10.40.24.166|||110000438458|10
05.10.2018 03:00:00||AKTİFBANK|10.40.24.166|||110000438458|10
05.10.2018 03:00:00||AKTİFBANK|10.40.24.166|||110000438458|10
05.10.2018 03:00:00||AKTİFBANK|10.40.24.168|||110000438458|90
05.10.2018 03:00:00||AKTİFBANK|10.40.24.168|||110000438458|40
05.10.2018 03:00:00||AKTİFBANK|10.40.24.168|||110000438458|80
05.10.2018 03:00:00||AKTİFBANK|10.40.24.168|||110000438458|70
05.10.2018 03:00:00||AKTİFBANK|10.40.24.168|||110000438458|70
05.10.2018 03:00:00||AKTİFBANK|10.40.24.168|||110000438458|30
05.10.2018 03:00:00||AKTİFBANK|10.40.24.169|||110000438458|60
05.10.2018 03:00:00||AKTİFBANK|10.40.24.169|||110000438458|90
05.10.2018 03:00:00||AKTİFBANK|10.40.24.169|||110000438458|70
05.10.2018 03:00:00||AKTİFBANK|10.40.24.169|||110000438458|80
05.10.2018 03:00:00||AKTİFBANK|10.40.24.170|||110000438458|60
05.10.2018 03:00:00||AKTİFBANK|10.40.24.170|||110000438458|60
05.10.2018 03:00:00||AKTİFBANK|10.40.24.170|||110000438458|330
05.10.2018 03:00:00||AKTİFBANK|10.40.24.170|||110000438458|80
05.10.2018 03:00:00||AKTİFBANK|10.40.24.170|||110000438458|100
05.10.2018 03:00:00||AKTİFBANK|10.40.24.170|||110000438458|60
05.10.2018 03:00:00||AKTİFBANK|10.40.24.171|||110000438458|2
05.10.2018 03:00:00||AKTİFBANK|10.40.24.171|||110000438458|11
05.10.2018 03:00:00||AKTİFBANK|10.40.24.172|||110000438458|60
05.10.2018 03:00:00||AKTİFBANK|10.40.24.172|||110000438458|35
05.10.2018 03:00:00||AKTİFBANK|10.40.24.173|||110000438458|48
05.10.2018 03:00:00||AKTİFBANK|10.40.24.173|||110000438458|47
05.10.2018 03:00:00||AKTİFBANK|10.40.24.174|||110000438458|57
05.10.2018 03:00:00||AKTİFBANK|10.40.24.174|||110000438458|2
05.10.2018 03:00:00||AKTİFBANK|10.40.24.178|||110000438458|550
05.10.2018 03:00:00||AKTİFBANK|10.40.24.178|||110000438458|530
05.10.2018 03:00:00||AKTİFBANK|10.40.24.178|||110000438458|520
05.10.2018 03:00:00||AKTİFBANK|10.40.24.179|||110000438458|360
05.10.2018 03:00:00||AKTİFBANK|10.40.24.179|||110000438458|370
05.10.2018 03:00:00||AKTİFBANK|10.40.24.179|||110000438458|360
05.10.2018 03:00:00||AKTİFBANK|10.40.24.186|||110000438458|90
05.10.2018 03:00:00||AKTİFBANK|10.40.24.186|||110000438458|20
05.10.2018 03:00:00||AKTİFBANK|10.40.24.186|||110000438458|60
05.10.2018 03:00:00||AKTİFBANK|10.40.24.186|||110000438458|40
05.10.2018 03:00:00||AKTİFBANK|10.40.25.128|||110000438458|67
05.10.2018 03:00:00||AKTİFBANK|10.40.25.128|||110000438458|86
05.10.2018 03:00:00||AKTİFBANK|10.40.25.128|||110000438458|39
05.10.2018 03:00:00||AKTİFBANK|10.40.25.128|||110000438458|67
05.10.2018 03:00:00||AKTİFBANK|10.40.25.129|||110000438458|76
05.10.2018 03:00:00||AKTİFBANK|10.40.25.129|||110000438458|76
05.10.2018 03:00:00||AKTİFBANK|10.40.25.129|||110000438458|123
05.10.2018 03:00:00||AKTİFBANK|10.40.25.129|||110000438458|95
05.10.2018 03:00:00||AKTİFBANK|10.40.25.129|||110000438458|39
05.10.2018 03:00:00||AKTİFBANK|10.40.25.129|||110000438458|86
05.10.2018 03:00:00||AKTİFBANK|10.40.25.129|||110000438458|67
05.10.2018 03:00:00||AKTİFBANK|10.40.25.129|||110000438458|76
05.10.2018 03:00:00||AKTİFBANK|10.40.25.129|||110000438458|143
05.10.2018 03:00:00||AKTİFBANK|10.40.25.129|||110000438458|102
05.10.2018 03:00:00||AKTİFBANK|10.40.25.130|||110000438458|71
05.10.2018 03:00:00||AKTİFBANK|10.40.25.130|||110000438458|51
05.10.2018 03:00:00||AKTİFBANK|10.40.25.130|||110000438458|71
05.10.2018 03:00:00||AKTİFBANK|10.40.25.130|||110000438458|30
05.10.2018 03:00:00||AKTİFBANK|10.40.25.130|||110000438458|61
05.10.2018 03:00:00||AKTİFBANK|10.40.25.130|||110000438458|102
05.10.2018 03:00:00||AKTİFBANK|10.40.25.130|||110000438458|82
05.10.2018 03:00:00||AKTİFBANK|10.40.25.130|||110000438458|61
05.10.2018 03:00:00||AKTİFBANK|10.40.25.130|||110000438458|123
05.10.2018 03:00:00||AKTİFBANK|10.40.25.130|||110000438458|102
05.10.2018 03:00:00||AKTİFBANK|10.40.25.131|||110000438458|92
05.10.2018 03:00:00||AKTİFBANK|10.40.25.131|||110000438458|102
05.10.2018 03:00:00||AKTİFBANK|10.40.25.131|||110000438458|112
05.10.2018 03:00:00||AKTİFBANK|10.40.25.131|||110000438458|82
05.10.2018 03:00:00||AKTİFBANK|10.40.25.131|||110000438458|82
05.10.2018 03:00:00||AKTİFBANK|10.40.25.131|||110000438458|20
05.10.2018 03:00:00||AKTİFBANK|10.40.25.131|||110000438458|123
05.10.2018 03:00:00||AKTİFBANK|10.40.25.131|||110000438458|51
05.10.2018 03:00:00||AKTİFBANK|10.40.25.132|||110000438458|61
05.10.2018 03:00:00||AKTİFBANK|10.40.25.132|||110000438458|71
05.10.2018 03:00:00||AKTİFBANK|10.40.25.132|||110000438458|82
05.10.2018 03:00:00||AKTİFBANK|10.40.25.132|||110000438458|174
05.10.2018 03:00:00||AKTİFBANK|10.40.25.132|||110000438458|61
05.10.2018 03:00:00||AKTİFBANK|10.40.25.133|||110000438458|154
05.10.2018 03:00:00||AKTİFBANK|10.40.25.133|||110000438458|288
05.10.2018 03:00:00||AKTİFBANK|10.40.25.133|||110000438458|112
05.10.2018 03:00:00||AKTİFBANK|10.40.25.133|||110000438458|61
05.10.2018 03:00:00||AKTİFBANK|10.40.25.133|||110000438458|92
05.10.2018 03:00:00||AKTİFBANK|10.40.25.134|||110000438458|64
05.10.2018 03:00:00||AKTİFBANK|10.40.25.134|||110000438458|31
05.10.2018 03:00:00||AKTİFBANK|10.40.25.135|||110000438458|30
05.10.2018 03:00:00||AKTİFBANK|10.40.25.135|||110000438458|64
05.10.2018 03:00:00||AKTİFBANK|10.40.25.137|||110000438458|59
05.10.2018 03:00:00||AKTİFBANK|10.40.25.138|||110000438458|92
05.10.2018 03:00:00||AKTİFBANK|10.40.25.138|||110000438458|71
05.10.2018 03:00:00||AKTİFBANK|10.40.25.138|||110000438458|82
05.10.2018 03:00:00||AKTİFBANK|10.40.25.138|||110000438458|133
05.10.2018 03:00:00||AKTİFBANK|10.40.25.138|||110000438458|40
05.10.2018 03:00:00||AKTİFBANK|10.40.25.138|||110000438458|10
05.10.2018 03:00:00||AKTİFBANK|10.40.25.139|||110000438458|40
05.10.2018 03:00:00||AKTİFBANK|10.40.25.139|||110000438458|10
05.10.2018 03:00:00||AKTİFBANK|10.40.25.139|||110000438458|10
05.10.2018 03:00:00||AKTİFBANK|10.40.25.139|||110000438458|20
05.10.2018 03:00:00||AKTİFBANK|10.40.25.139|||110000438458|71
05.10.2018 03:00:00||AKTİFBANK|10.40.25.139|||110000438458|82
05.10.2018 03:00:00||AKTİFBANK|10.40.25.139|||110000438458|102
05.10.2018 03:00:00||AKTİFBANK|10.40.25.140|||110000438458|82
05.10.2018 03:00:00||AKTİFBANK|10.40.25.140|||110000438458|71
05.10.2018 03:00:00||AKTİFBANK|10.40.25.140|||110000438458|30
05.10.2018 03:00:00||AKTİFBANK|10.40.25.140|||110000438458|30
05.10.2018 03:00:00||AKTİFBANK|10.40.25.140|||110000438458|30
05.10.2018 03:00:00||AKTİFBANK|10.40.25.141|||110000438458|40
05.10.2018 03:00:00||AKTİFBANK|10.40.25.141|||110000438458|102
05.10.2018 03:00:00||AKTİFBANK|10.40.25.141|||110000438458|102
05.10.2018 03:00:00||AKTİFBANK|10.40.25.141|||110000438458|102
05.10.2018 03:00:00||AKTİFBANK|10.40.25.141|||110000438458|92
05.10.2018 03:00:00||AKTİFBANK|10.40.25.141|||110000438458|71
05.10.2018 03:00:00||AKTİFBANK|10.40.25.142|||110000438458|30
05.10.2018 03:00:00||AKTİFBANK|10.40.25.143|||110000438458|61
05.10.2018 03:00:00||AKTİFBANK|10.40.25.143|||110000438458|247
05.10.2018 03:00:00||AKTİFBANK|10.40.25.143|||110000438458|267
05.10.2018 03:00:00||AKTİFBANK|10.40.25.143|||110000438458|319
05.10.2018 03:00:00||AKTİFBANK|10.40.25.144|||110000438458|71
05.10.2018 03:00:00||AKTİFBANK|10.40.25.144|||110000438458|51
05.10.2018 03:00:00||AKTİFBANK|10.40.25.144|||110000438458|61
05.10.2018 03:00:00||AKTİFBANK|10.40.25.145|||110000438458|92
05.10.2018 03:00:00||AKTİFBANK|10.40.25.145|||110000438458|61
05.10.2018 03:00:00||AKTİFBANK|10.40.25.145|||110000438458|61
05.10.2018 03:00:00||AKTİFBANK|10.40.25.145|||110000438458|30
05.10.2018 03:00:00||AKTİFBANK|10.40.25.145|||110000438458|51
05.10.2018 03:00:00||AKTİFBANK|10.40.25.147|||110000438458|92
05.10.2018 03:00:00||AKTİFBANK|10.40.25.148|||110000438458|133
05.10.2018 03:00:00||AKTİFBANK|10.40.25.148|||110000438458|51
05.10.2018 03:00:00||AKTİFBANK|10.40.25.148|||110000438458|102
05.10.2018 03:00:00||AKTİFBANK|10.40.25.148|||110000438458|133
05.10.2018 03:00:00||AKTİFBANK|10.40.25.148|||110000438458|92
05.10.2018 03:00:00||AKTİFBANK|10.40.25.148|||110000438458|82
05.10.2018 03:00:00||AKTİFBANK|10.40.25.148|||110000438458|71
05.10.2018 03:00:00||AKTİFBANK|10.40.25.148|||110000438458|51
05.10.2018 03:00:00||AKTİFBANK|10.40.25.148|||110000438458|82
05.10.2018 03:00:00||AKTİFBANK|10.40.25.148|||110000438458|41
05.10.2018 03:00:00||AKTİFBANK|10.40.25.148|||110000438458|104
05.10.2018 03:00:00||AKTİFBANK|10.40.25.148|||110000438458|62
05.10.2018 03:00:00||AKTİFBANK|10.40.25.149|||110000438458|62
05.10.2018 03:00:00||AKTİFBANK|10.40.25.149|||110000438458|114
05.10.2018 03:00:00||AKTİFBANK|10.40.25.149|||110000438458|94
05.10.2018 03:00:00||AKTİFBANK|10.40.25.149|||110000438458|73
05.10.2018 03:00:00||AKTİFBANK|10.40.25.149|||110000438458|94
05.10.2018 03:00:00||AKTİFBANK|10.40.25.149|||110000438458|41
05.10.2018 03:00:00||AKTİFBANK|10.40.25.149|||110000438458|84
05.10.2018 03:00:00||AKTİFBANK|10.40.25.149|||110000438458|73
05.10.2018 03:00:00||AKTİFBANK|10.40.25.149|||110000438458|136
05.10.2018 03:00:00||AKTİFBANK|10.40.25.149|||110000438458|114
05.10.2018 03:00:00||AKTİFBANK|10.40.25.149|||110000438458|94
05.10.2018 03:00:00||AKTİFBANK|10.40.25.149|||110000438458|94
05.10.2018 03:00:00||AKTİFBANK|10.40.25.149|||110000438458|104
05.10.2018 03:00:00||AKTİFBANK|10.40.25.149|||110000438458|73
05.10.2018 03:00:00||AKTİFBANK|10.40.25.150|||110000438458|609
05.10.2018 03:00:00||AKTİFBANK|10.40.25.150|||110000438458|557
05.10.2018 03:00:00||AKTİFBANK|10.40.25.150|||110000438458|599
05.10.2018 03:00:00||AKTİFBANK|10.40.25.151|||110000438458|577
05.10.2018 03:00:00||AKTİFBANK|10.40.25.151|||110000438458|536
05.10.2018 03:00:00||AKTİFBANK|10.40.25.151|||110000438458|557
05.10.2018 03:00:00||AKTİFBANK|10.40.25.152|||110000438458|125
05.10.2018 03:00:00||AKTİFBANK|10.40.25.152|||110000438458|41
05.10.2018 03:00:00||AKTİFBANK|10.40.25.152|||110000438458|146
05.10.2018 03:00:00||AKTİFBANK|10.40.25.152|||110000438458|73
05.10.2018 03:00:00||AKTİFBANK|10.40.25.152|||110000438458|94
05.10.2018 03:00:00||AKTİFBANK|10.40.25.152|||110000438458|52
05.10.2018 03:00:00||AKTİFBANK|10.40.25.152|||110000438458|94
05.10.2018 03:00:00||AKTİFBANK|10.40.25.152|||110000438458|30
05.10.2018 03:00:00||AKTİFBANK|10.40.25.152|||110000438458|84
05.10.2018 03:00:00||AKTİFBANK|10.40.25.152|||110000438458|30
05.10.2018 03:00:00||AKTİFBANK|10.40.25.153|||110000438458|10
05.10.2018 03:00:00||AKTİFBANK|10.40.25.153|||110000438458|84
05.10.2018 03:00:00||AKTİFBANK|10.40.25.153|||110000438458|62
05.10.2018 03:00:00||AKTİFBANK|10.40.25.153|||110000438458|73
05.10.2018 03:00:00||AKTİFBANK|10.40.25.154|||110000438458|10
05.10.2018 03:00:00||AKTİFBANK|10.40.25.154|||110000438458|10
05.10.2018 03:00:00||AKTİFBANK|10.40.25.154|||110000438458|10
05.10.2018 03:00:00||AKTİFBANK|10.40.25.155|||110000438458|73
05.10.2018 03:00:00||AKTİFBANK|10.40.25.155|||110000438458|94
05.10.2018 03:00:00||AKTİFBANK|10.40.25.155|||110000438458|114
05.10.2018 03:00:00||AKTİFBANK|10.40.25.155|||110000438458|125
05.10.2018 03:00:00||AKTİFBANK|10.40.25.155|||110000438458|114
05.10.2018 03:00:00||AKTİFBANK|10.40.25.157|||110000438458|73
05.10.2018 03:00:00||AKTİFBANK|10.40.25.157|||110000438458|73
05.10.2018 03:00:00||AKTİFBANK|10.40.25.157|||110000438458|73
05.10.2018 03:00:00||AKTİFBANK|10.40.25.157|||110000438458|84
05.10.2018 03:00:00||AKTİFBANK|10.40.25.157|||110000438458|41
05.10.2018 03:00:00||AKTİFBANK|10.40.25.158|||110000438458|125
05.10.2018 03:00:00||AKTİFBANK|10.40.25.158|||110000438458|52
05.10.2018 03:00:00||AKTİFBANK|10.40.25.159|||110000438458|62
05.10.2018 03:00:00||AKTİFBANK|10.40.25.159|||110000438458|10
05.10.2018 03:00:00||AKTİFBANK|10.40.25.159|||110000438458|94
05.10.2018 03:00:00||AKTİFBANK|10.40.25.160|||110000438458|94
05.10.2018 03:00:00||AKTİFBANK|10.40.25.160|||110000438458|114
05.10.2018 03:00:00||AKTİFBANK|10.40.25.161|||110000438458|84
05.10.2018 03:00:00||AKTİFBANK|10.40.25.161|||110000438458|73
05.10.2018 03:00:00||AKTİFBANK|10.40.25.161|||110000438458|41
05.10.2018 03:00:00||AKTİFBANK|10.40.25.161|||110000438458|30
05.10.2018 03:00:00||AKTİFBANK|10.40.25.161|||110000438458|20
05.10.2018 03:00:00||AKTİFBANK|10.40.25.161|||110000438458|52
05.10.2018 03:00:00||AKTİFBANK|10.40.25.162|||110000438458|30
05.10.2018 03:00:00||AKTİFBANK|10.40.25.162|||110000438458|30
05.10.2018 03:00:00||AKTİFBANK|10.40.25.162|||110000438458|62
05.10.2018 03:00:00||AKTİFBANK|10.40.25.162|||110000438458|52
05.10.2018 03:00:00||AKTİFBANK|10.40.25.162|||110000438458|30
05.10.2018 03:00:00||AKTİFBANK|10.40.25.162|||110000438458|41
05.10.2018 03:00:00||AKTİFBANK|10.40.25.163|||110000438458|41
05.10.2018 03:00:00||AKTİFBANK|10.40.25.164|||110000438458|62
05.10.2018 03:00:00||AKTİFBANK|10.40.25.164|||110000438458|293
05.10.2018 03:00:00||AKTİFBANK|10.40.25.164|||110000438458|52
05.10.2018 03:00:00||AKTİFBANK|10.40.25.164|||110000438458|273
05.10.2018 03:00:00||AKTİFBANK|10.40.25.164|||110000438458|283
05.10.2018 03:00:00||AKTİFBANK|10.40.25.165|||110000438458|146
05.10.2018 03:00:00||AKTİFBANK|10.40.25.165|||110000438458|73
05.10.2018 03:00:00||AKTİFBANK|10.40.25.165|||110000438458|73
05.10.2018 03:00:00||AKTİFBANK|10.40.25.165|||110000438458|104
05.10.2018 03:00:00||AKTİFBANK|10.40.25.166|||110000438458|41
05.10.2018 03:00:00||AKTİFBANK|10.40.25.166|||110000438458|94
05.10.2018 03:00:00||AKTİFBANK|10.40.25.168|||110000438458|94
05.10.2018 03:00:00||AKTİFBANK|10.40.25.168|||110000438458|73
05.10.2018 03:00:00||AKTİFBANK|10.40.25.168|||110000438458|52
05.10.2018 03:00:00||AKTİFBANK|10.40.25.168|||110000438458|41
05.10.2018 03:00:00||AKTİFBANK|10.40.25.168|||110000438458|62
05.10.2018 03:00:00||AKTİFBANK|10.40.25.169|||110000438458|94
05.10.2018 03:00:00||AKTİFBANK|10.40.25.169|||110000438458|94
05.10.2018 03:00:00||AKTİFBANK|10.40.25.169|||110000438458|73
05.10.2018 03:00:00||AKTİFBANK|10.40.25.169|||110000438458|104
05.10.2018 03:00:00||AKTİFBANK|10.40.25.170|||110000438458|30
05.10.2018 03:00:00||AKTİFBANK|10.40.25.170|||110000438458|30
05.10.2018 03:00:00||AKTİFBANK|10.40.25.170|||110000438458|241
05.10.2018 03:00:00||AKTİFBANK|10.40.25.170|||110000438458|104
05.10.2018 03:00:00||AKTİFBANK|10.40.25.170|||110000438458|84
05.10.2018 03:00:00||AKTİFBANK|10.40.25.170|||110000438458|114
05.10.2018 03:00:00||AKTİFBANK|10.40.25.171|||110000438458|1
05.10.2018 03:00:00||AKTİFBANK|10.40.25.171|||110000438458|11
05.10.2018 03:00:00||AKTİFBANK|10.40.25.172|||110000438458|27
05.10.2018 03:00:00||AKTİFBANK|10.40.25.172|||110000438458|64
05.10.2018 03:00:00||AKTİFBANK|10.40.25.173|||110000438458|34
05.10.2018 03:00:00||AKTİFBANK|10.40.25.173|||110000438458|64
05.10.2018 03:00:00||AKTİFBANK|10.40.25.174|||110000438458|55
05.10.2018 03:00:00||AKTİFBANK|10.40.25.178|||110000438458|588
05.10.2018 03:00:00||AKTİFBANK|10.40.25.178|||110000438458|588
05.10.2018 03:00:00||AKTİFBANK|10.40.25.178|||110000438458|577
05.10.2018 03:00:00||AKTİFBANK|10.40.25.179|||110000438458|409
05.10.2018 03:00:00||AKTİFBANK|10.40.25.179|||110000438458|346
05.10.2018 03:00:00||AKTİFBANK|10.40.25.179|||110000438458|325
05.10.2018 03:00:00||AKTİFBANK|10.40.25.186|||110000438458|88
05.10.2018 03:00:00||AKTİFBANK|10.40.25.186|||110000438458|20
05.10.2018 03:00:00||AKTİFBANK|10.40.25.186|||110000438458|69
05.10.2018 03:00:00||BOYNER|10.40.26.100|||101367941673|41
05.10.2018 03:00:00||BOYNER|10.40.26.100|||101367941673|17
05.10.2018 03:00:00||BOYNER|10.40.26.101|||101367941673|26
05.10.2018 03:00:00||BOYNER|10.40.26.101|||101367941673|134
05.10.2018 03:00:00||BOYNER|10.40.26.94|||101367941673|93
05.10.2018 03:00:00||BOYNER|10.40.26.94|||101367941673|83
05.10.2018 03:00:00||BOYNER|10.40.26.94|||101367941673|83
05.10.2018 03:00:00||BOYNER|10.40.26.95|||101367941673|93
05.10.2018 03:00:00||BOYNER|10.40.26.95|||101367941673|209
05.10.2018 03:00:00||BOYNER|10.40.26.95|||101367941673|146
05.10.2018 03:00:00||BOYNER|10.40.26.96|||101367941673|30
05.10.2018 03:00:00||BOYNER|10.40.26.96|||101367941673|41
05.10.2018 03:00:00||BOYNER|10.40.26.96|||101367941673|30
05.10.2018 03:00:00||BOYNER|10.40.26.96|||101367941673|41
05.10.2018 03:00:00||BOYNER|10.40.26.96|||101367941673|41
05.10.2018 03:00:00||BOYNER|10.40.26.96|||101367941673|52
05.10.2018 03:00:00||BOYNER|10.40.26.96|||101367941673|188
05.10.2018 03:00:00||BOYNER|10.40.26.96|||101367941673|220
05.10.2018 03:00:00||BOYNER|10.40.26.96|||101367941673|167
05.10.2018 03:00:00||BOYNER|10.40.26.96|||101367941673|188
05.10.2018 03:00:00||BOYNER|10.40.26.97|||101367941673|30
05.10.2018 03:00:00||BOYNER|10.40.26.97|||101367941673|692
05.10.2018 03:00:00||BOYNER|10.40.26.97|||101367941673|682
05.10.2018 03:00:00||BOYNER|10.40.26.97|||101367941673|692
05.10.2018 03:00:00||BOYNER|10.40.26.97|||101367941673|30
05.10.2018 03:00:00||BOYNER|10.40.26.97|||101367941673|41
05.10.2018 03:00:00||BOYNER|10.40.26.97|||101367941673|52
05.10.2018 03:00:00||BOYNER|10.40.26.97|||101367941673|62
05.10.2018 03:00:00||BOYNER|10.40.26.97|||101367941673|30
05.10.2018 03:00:00||BOYNER|10.40.26.97|||101367941673|157
05.10.2018 03:00:00||BOYNER|10.40.26.97|||101367941673|188
05.10.2018 03:00:00||BOYNER|10.40.26.97|||101367941673|177
05.10.2018 03:00:00||BOYNER|10.40.26.97|||101367941673|177
05.10.2018 03:00:00||BOYNER|10.40.26.99|||101367941673|20
05.10.2018 03:00:00||BOYNER|10.40.26.99|||101367941673|114
05.10.2018 03:00:00||BOYNER|10.40.26.99|||101367941673|114
05.10.2018 03:00:00||BOYNER|10.40.26.99|||101367941673|62
05.10.2018 03:00:00||BOYNER|10.40.27.100|||101367941673|16
05.10.2018 03:00:00||BOYNER|10.40.27.100|||101367941673|35
05.10.2018 03:00:00||BOYNER|10.40.27.101|||101367941673|130
05.10.2018 03:00:00||BOYNER|10.40.27.101|||101367941673|28
05.10.2018 03:00:00||BOYNER|10.40.27.94|||101367941673|208
05.10.2018 03:00:00||BOYNER|10.40.27.94|||101367941673|90
05.10.2018 03:00:00||BOYNER|10.40.27.94|||101367941673|90
05.10.2018 03:00:00||BOYNER|10.40.27.94|||101367941673|100
05.10.2018 03:00:00||BOYNER|10.40.27.95|||101367941673|129
05.10.2018 03:00:00||BOYNER|10.40.27.95|||101367941673|129
05.10.2018 03:00:00||BOYNER|10.40.27.95|||101367941673|238
05.10.2018 03:00:00||BOYNER|10.40.27.96|||101367941673|60
05.10.2018 03:00:00||BOYNER|10.40.27.96|||101367941673|50
05.10.2018 03:00:00||BOYNER|10.40.27.96|||101367941673|50
05.10.2018 03:00:00||BOYNER|10.40.27.96|||101367941673|40
05.10.2018 03:00:00||BOYNER|10.40.27.96|||101367941673|40
05.10.2018 03:00:00||BOYNER|10.40.27.96|||101367941673|139
05.10.2018 03:00:00||BOYNER|10.40.27.96|||101367941673|139
05.10.2018 03:00:00||BOYNER|10.40.27.96|||101367941673|169
05.10.2018 03:00:00||BOYNER|10.40.27.96|||101367941673|159
05.10.2018 03:00:00||BOYNER|10.40.27.97|||101367941673|60
05.10.2018 03:00:00||BOYNER|10.40.27.97|||101367941673|654
05.10.2018 03:00:00||BOYNER|10.40.27.97|||101367941673|664
05.10.2018 03:00:00||BOYNER|10.40.27.97|||101367941673|684
05.10.2018 03:00:00||BOYNER|10.40.27.97|||101367941673|50
05.10.2018 03:00:00||BOYNER|10.40.27.97|||101367941673|40
05.10.2018 03:00:00||BOYNER|10.40.27.97|||101367941673|50
05.10.2018 03:00:00||BOYNER|10.40.27.97|||101367941673|30
05.10.2018 03:00:00||BOYNER|10.40.27.97|||101367941673|169
05.10.2018 03:00:00||BOYNER|10.40.27.97|||101367941673|179
05.10.2018 03:00:00||BOYNER|10.40.27.97|||101367941673|199
05.10.2018 03:00:00||BOYNER|10.40.27.97|||101367941673|199
05.10.2018 03:00:00||BOYNER|10.40.27.99|||101367941673|119
05.10.2018 03:00:00||BOYNER|10.40.27.99|||101367941673|100
05.10.2018 03:00:00||BOYNER|10.40.27.99|||101367941673|70
05.10.2018 03:00:00||ÇALIK HOLDİNG|10.40.24.100|||110000438408|30
05.10.2018 03:00:00||ÇALIK HOLDİNG|10.40.24.100|||110000438408|40
05.10.2018 03:00:00||ÇALIK HOLDİNG|10.40.24.101|||110000438408|60
05.10.2018 03:00:00||ÇALIK HOLDİNG|10.40.24.101|||110000438408|111
05.10.2018 03:00:00||ÇALIK HOLDİNG|10.40.24.101|||110000438408|20
05.10.2018 03:00:00||ÇALIK HOLDİNG|10.40.24.101|||110000438408|20
05.10.2018 03:00:00||ÇALIK HOLDİNG|10.40.24.101|||110000438408|40
05.10.2018 03:00:00||ÇALIK HOLDİNG|10.40.24.101|||110000438408|91
05.10.2018 03:00:00||ÇALIK HOLDİNG|10.40.24.101|||110000438408|30
05.10.2018 03:00:00||ÇALIK HOLDİNG|10.40.24.101|||110000438408|10
05.10.2018 03:00:00||ÇALIK HOLDİNG|10.40.24.101|||110000438408|20
05.10.2018 03:00:00||ÇALIK HOLDİNG|10.40.24.101|||110000438408|50
05.10.2018 03:00:00||ÇALIK HOLDİNG|10.40.24.101|||110000438408|30
05.10.2018 03:00:00||ÇALIK HOLDİNG|10.40.24.101|||110000438408|81
05.10.2018 03:00:00||ÇALIK HOLDİNG|10.40.24.101|||110000438408|81
05.10.2018 03:00:00||ÇALIK HOLDİNG|10.40.24.101|||110000438408|101
05.10.2018 03:00:00||ÇALIK HOLDİNG|10.40.24.102|||110000438408|101
05.10.2018 03:00:00||ÇALIK HOLDİNG|10.40.24.102|||110000438408|101
05.10.2018 03:00:00||ÇALIK HOLDİNG|10.40.24.102|||110000438408|142
05.10.2018 03:00:00||ÇALIK HOLDİNG|10.40.24.103|||110000438408|101
05.10.2018 03:00:00||ÇALIK HOLDİNG|10.40.24.103|||110000438408|81
05.10.2018 03:00:00||ÇALIK HOLDİNG|10.40.24.103|||110000438408|81
05.10.2018 03:00:00||ÇALIK HOLDİNG|10.40.24.103|||110000438408|20
05.10.2018 03:00:00||ÇALIK HOLDİNG|10.40.24.103|||110000438408|20
05.10.2018 03:00:00||ÇALIK HOLDİNG|10.40.24.113|||110000438408|214
05.10.2018 03:00:00||ÇALIK HOLDİNG|10.40.24.113|||110000438408|234
05.10.2018 03:00:00||ÇALIK HOLDİNG|10.40.24.113|||110000438408|203
05.10.2018 03:00:00||ÇALIK HOLDİNG|10.40.24.113|||110000438408|152
05.10.2018 03:00:00||ÇALIK HOLDİNG|10.40.24.114|||110000438408|20
05.10.2018 03:00:00||ÇALIK HOLDİNG|10.40.24.114|||110000438408|40
05.10.2018 03:00:00||ÇALIK HOLDİNG|10.40.24.114|||110000438408|183
05.10.2018 03:00:00||ÇALIK HOLDİNG|10.40.24.114|||110000438408|377
05.10.2018 03:00:00||ÇALIK HOLDİNG|10.40.24.115|||110000438408|142
05.10.2018 03:00:00||ÇALIK HOLDİNG|10.40.24.115|||110000438408|81
05.10.2018 03:00:00||ÇALIK HOLDİNG|10.40.24.115|||110000438408|91
05.10.2018 03:00:00||ÇALIK HOLDİNG|10.40.24.115|||110000438408|71
05.10.2018 03:00:00||ÇALIK HOLDİNG|10.40.24.115|||110000438408|91
05.10.2018 03:00:00||ÇALIK HOLDİNG|10.40.24.115|||110000438408|71
05.10.2018 03:00:00||ÇALIK HOLDİNG|10.40.24.116|||110000438408|275
05.10.2018 03:00:00||ÇALIK HOLDİNG|10.40.24.116|||110000438408|111
05.10.2018 03:00:00||ÇALIK HOLDİNG|10.40.24.116|||110000438408|91
05.10.2018 03:00:00||ÇALIK HOLDİNG|10.40.24.117|||110000438408|203
05.10.2018 03:00:00||ÇALIK HOLDİNG|10.40.24.117|||110000438408|30
05.10.2018 03:00:00||ÇALIK HOLDİNG|10.40.24.117|||110000438408|30
05.10.2018 03:00:00||ÇALIK HOLDİNG|10.40.24.118|||110000438408|43
05.10.2018 03:00:00||ÇALIK HOLDİNG|10.40.24.119|||110000438408|152
05.10.2018 03:00:00||ÇALIK HOLDİNG|10.40.24.119|||110000438408|30
05.10.2018 03:00:00||ÇALIK HOLDİNG|10.40.24.119|||110000438408|50
05.10.2018 03:00:00||ÇALIK HOLDİNG|10.40.24.120|||110000438408|20
05.10.2018 03:00:00||ÇALIK HOLDİNG|10.40.24.120|||110000438408|30
05.10.2018 03:00:00||ÇALIK HOLDİNG|10.40.24.120|||110000438408|111
05.10.2018 03:00:00||ÇALIK HOLDİNG|10.40.24.120|||110000438408|10
05.10.2018 03:00:00||ÇALIK HOLDİNG|10.40.24.120|||110000438408|20
05.10.2018 03:00:00||ÇALIK HOLDİNG|10.40.24.120|||110000438408|101
05.10.2018 03:00:00||ÇALIK HOLDİNG|10.40.24.120|||110000438408|40
05.10.2018 03:00:00||ÇALIK HOLDİNG|10.40.24.120|||110000438408|81
05.10.2018 03:00:00||ÇALIK HOLDİNG|10.40.24.120|||110000438408|81
05.10.2018 03:00:00||ÇALIK HOLDİNG|10.40.24.120|||110000438408|71
05.10.2018 03:00:00||ÇALIK HOLDİNG|10.40.24.121|||110000438408|101
05.10.2018 03:00:00||ÇALIK HOLDİNG|10.40.24.121|||110000438408|101
05.10.2018 03:00:00||ÇALIK HOLDİNG|10.40.24.121|||110000438408|152
05.10.2018 03:00:00||ÇALIK HOLDİNG|10.40.24.122|||110000438408|91
05.10.2018 03:00:00||ÇALIK HOLDİNG|10.40.24.122|||110000438408|81
05.10.2018 03:00:00||ÇALIK HOLDİNG|10.40.24.122|||110000438408|91
05.10.2018 03:00:00||ÇALIK HOLDİNG|10.40.24.122|||110000438408|30
05.10.2018 03:00:00||ÇALIK HOLDİNG|10.40.24.122|||110000438408|10
05.10.2018 03:00:00||ÇALIK HOLDİNG|10.40.24.94|||110000438408|207
05.10.2018 03:00:00||ÇALIK HOLDİNG|10.40.24.94|||110000438408|177
05.10.2018 03:00:00||ÇALIK HOLDİNG|10.40.24.94|||110000438408|187
05.10.2018 03:00:00||ÇALIK HOLDİNG|10.40.24.94|||110000438408|197
05.10.2018 03:00:00||ÇALIK HOLDİNG|10.40.24.95|||110000438408|99
05.10.2018 03:00:00||ÇALIK HOLDİNG|10.40.24.95|||110000438408|50
05.10.2018 03:00:00||ÇALIK HOLDİNG|10.40.24.95|||110000438408|20
05.10.2018 03:00:00||ÇALIK HOLDİNG|10.40.24.95|||110000438408|89
05.10.2018 03:00:00||ÇALIK HOLDİNG|10.40.24.95|||110000438408|432
05.10.2018 03:00:00||ÇALIK HOLDİNG|10.40.24.95|||110000438408|393
05.10.2018 03:00:00||ÇALIK HOLDİNG|10.40.24.97|||110000438408|95
05.10.2018 03:00:00||ÇALIK HOLDİNG|10.40.24.97|||110000438408|86
05.10.2018 03:00:00||ÇALIK HOLDİNG|10.40.24.97|||110000438408|76
05.10.2018 03:00:00||ÇALIK HOLDİNG|10.40.24.97|||110000438408|86
05.10.2018 03:00:00||ÇALIK HOLDİNG|10.40.24.97|||110000438408|292
05.10.2018 03:00:00||ÇALIK HOLDİNG|10.40.24.98|||110000438408|86
05.10.2018 03:00:00||ÇALIK HOLDİNG|10.40.24.98|||110000438408|142
05.10.2018 03:00:00||ÇALIK HOLDİNG|10.40.24.98|||110000438408|189
05.10.2018 03:00:00||ÇALIK HOLDİNG|10.40.24.98|||110000438408|189
05.10.2018 03:00:00||ÇALIK HOLDİNG|10.40.24.98|||110000438408|151
05.10.2018 03:00:00||ÇALIK HOLDİNG|10.40.24.98|||110000438408|30
05.10.2018 03:00:00||ÇALIK HOLDİNG|10.40.24.98|||110000438408|151
05.10.2018 03:00:00||ÇALIK HOLDİNG|10.40.24.98|||110000438408|170
05.10.2018 03:00:00||ÇALIK HOLDİNG|10.40.24.98|||110000438408|161
05.10.2018 03:00:00||ÇALIK HOLDİNG|10.40.24.98|||110000438408|170
05.10.2018 03:00:00||ÇALIK HOLDİNG|10.40.24.98|||110000438408|20
05.10.2018 03:00:00||ÇALIK HOLDİNG|10.40.24.98|||110000438408|264
05.10.2018 03:00:00||ÇALIK HOLDİNG|10.40.25.100|||110000438408|39
05.10.2018 03:00:00||ÇALIK HOLDİNG|10.40.25.100|||110000438408|39
05.10.2018 03:00:00||ÇALIK HOLDİNG|10.40.25.101|||110000438408|48
05.10.2018 03:00:00||ÇALIK HOLDİNG|10.40.25.101|||110000438408|105
05.10.2018 03:00:00||ÇALIK HOLDİNG|10.40.25.101|||110000438408|30
05.10.2018 03:00:00||ÇALIK HOLDİNG|10.40.25.101|||110000438408|10
05.10.2018 03:00:00||ÇALIK HOLDİNG|10.40.25.101|||110000438408|76
05.10.2018 03:00:00||ÇALIK HOLDİNG|10.40.25.101|||110000438408|39
05.10.2018 03:00:00||ÇALIK HOLDİNG|10.40.25.101|||110000438408|39
05.10.2018 03:00:00||ÇALIK HOLDİNG|10.40.25.101|||110000438408|86
05.10.2018 03:00:00||ÇALIK HOLDİNG|10.40.25.101|||110000438408|86
05.10.2018 03:00:00||ÇALIK HOLDİNG|10.40.25.101|||110000438408|86
05.10.2018 03:00:00||ÇALIK HOLDİNG|10.40.25.102|||110000438408|95
05.10.2018 03:00:00||ÇALIK HOLDİNG|10.40.25.102|||110000438408|95
05.10.2018 03:00:00||ÇALIK HOLDİNG|10.40.25.102|||110000438408|142
05.10.2018 03:00:00||ÇALIK HOLDİNG|10.40.25.103|||110000438408|86
05.10.2018 03:00:00||ÇALIK HOLDİNG|10.40.25.103|||110000438408|86
05.10.2018 03:00:00||ÇALIK HOLDİNG|10.40.25.103|||110000438408|76
05.10.2018 03:00:00||ÇALIK HOLDİNG|10.40.25.113|||110000438408|208
05.10.2018 03:00:00||ÇALIK HOLDİNG|10.40.25.113|||110000438408|236
05.10.2018 03:00:00||ÇALIK HOLDİNG|10.40.25.113|||110000438408|170
05.10.2018 03:00:00||ÇALIK HOLDİNG|10.40.25.113|||110000438408|189
05.10.2018 03:00:00||ÇALIK HOLDİNG|10.40.25.114|||110000438408|170
05.10.2018 03:00:00||ÇALIK HOLDİNG|10.40.25.114|||110000438408|387
05.10.2018 03:00:00||ÇALIK HOLDİNG|10.40.25.114|||110000438408|39
05.10.2018 03:00:00||ÇALIK HOLDİNG|10.40.25.115|||110000438408|142
05.10.2018 03:00:00||ÇALIK HOLDİNG|10.40.25.115|||110000438408|67
05.10.2018 03:00:00||ÇALIK HOLDİNG|10.40.25.115|||110000438408|76
05.10.2018 03:00:00||ÇALIK HOLDİNG|10.40.25.115|||110000438408|76
05.10.2018 03:00:00||ÇALIK HOLDİNG|10.40.25.115|||110000438408|67
05.10.2018 03:00:00||ÇALIK HOLDİNG|10.40.25.115|||110000438408|67
05.10.2018 03:00:00||ÇALIK HOLDİNG|10.40.25.116|||110000438408|95
05.10.2018 03:00:00||ÇALIK HOLDİNG|10.40.25.116|||110000438408|95
05.10.2018 03:00:00||ÇALIK HOLDİNG|10.40.25.116|||110000438408|273
05.10.2018 03:00:00||ÇALIK HOLDİNG|10.40.25.117|||110000438408|226
05.10.2018 03:00:00||ÇALIK HOLDİNG|10.40.25.117|||110000438408|30
05.10.2018 03:00:00||ÇALIK HOLDİNG|10.40.25.117|||110000438408|30
05.10.2018 03:00:00||ÇALIK HOLDİNG|10.40.25.118|||110000438408|151
05.10.2018 03:00:00||ÇALIK HOLDİNG|10.40.25.119|||110000438408|30
05.10.2018 03:00:00||ÇALIK HOLDİNG|10.40.25.119|||110000438408|30
05.10.2018 03:00:00||ÇALIK HOLDİNG|10.40.25.120|||110000438408|105
05.10.2018 03:00:00||ÇALIK HOLDİNG|10.40.25.120|||110000438408|48
05.10.2018 03:00:00||ÇALIK HOLDİNG|10.40.25.120|||110000438408|58
05.10.2018 03:00:00||ÇALIK HOLDİNG|10.40.25.120|||110000438408|20
05.10.2018 03:00:00||ÇALIK HOLDİNG|10.40.25.120|||110000438408|30
05.10.2018 03:00:00||ÇALIK HOLDİNG|10.40.25.120|||110000438408|39
05.10.2018 03:00:00||ÇALIK HOLDİNG|10.40.25.120|||110000438408|86
05.10.2018 03:00:00||ÇALIK HOLDİNG|10.40.25.120|||110000438408|20
05.10.2018 03:00:00||ÇALIK HOLDİNG|10.40.25.120|||110000438408|86
05.10.2018 03:00:00||ÇALIK HOLDİNG|10.40.25.120|||110000438408|86
05.10.2018 03:00:00||ÇALIK HOLDİNG|10.40.25.121|||110000438408|86
05.10.2018 03:00:00||ÇALIK HOLDİNG|10.40.25.121|||110000438408|95
05.10.2018 03:00:00||ÇALIK HOLDİNG|10.40.25.121|||110000438408|133
05.10.2018 03:00:00||ÇALIK HOLDİNG|10.40.25.122|||110000438408|86
05.10.2018 03:00:00||ÇALIK HOLDİNG|10.40.25.122|||110000438408|76
05.10.2018 03:00:00||ÇALIK HOLDİNG|10.40.25.122|||110000438408|76
05.10.2018 03:00:00||ÇALIK HOLDİNG|10.40.25.94|||110000438408|175
05.10.2018 03:00:00||ÇALIK HOLDİNG|10.40.25.94|||110000438408|175
05.10.2018 03:00:00||ÇALIK HOLDİNG|10.40.25.94|||110000438408|166
05.10.2018 03:00:00||ÇALIK HOLDİNG|10.40.25.94|||110000438408|175
05.10.2018 03:00:00||ÇALIK HOLDİNG|10.40.25.95|||110000438408|98
05.10.2018 03:00:00||ÇALIK HOLDİNG|10.40.25.95|||110000438408|78
05.10.2018 03:00:00||ÇALIK HOLDİNG|10.40.25.95|||110000438408|369
05.10.2018 03:00:00||ÇALIK HOLDİNG|10.40.25.95|||110000438408|369
05.10.2018 03:00:00||ÇALIK HOLDİNG|10.40.25.95|||110000438408|40
05.10.2018 03:00:00||ÇALIK HOLDİNG|10.40.25.96|||110000438408|69
05.10.2018 03:00:00||ÇALIK HOLDİNG|10.40.25.96|||110000438408|88
05.10.2018 03:00:00||ÇALIK HOLDİNG|10.40.25.96|||110000438408|98
05.10.2018 03:00:00||ÇALIK HOLDİNG|10.40.25.96|||110000438408|88
05.10.2018 03:00:00||ÇALIK HOLDİNG|10.40.25.96|||110000438408|127
05.10.2018 03:00:00||ÇALIK HOLDİNG|10.40.25.96|||110000438408|98
05.10.2018 03:00:00||ÇALIK HOLDİNG|10.40.25.96|||110000438408|243
05.10.2018 03:00:00||ÇALIK HOLDİNG|10.40.25.96|||110000438408|253
05.10.2018 03:00:00||ÇALIK HOLDİNG|10.40.25.96|||110000438408|91
05.10.2018 03:00:00||ÇALIK HOLDİNG|10.40.25.96|||110000438408|91
05.10.2018 03:00:00||ÇALIK HOLDİNG|10.40.25.96|||110000438408|102
05.10.2018 03:00:00||ÇALIK HOLDİNG|10.40.25.96|||110000438408|91
05.10.2018 03:00:00||ÇALIK HOLDİNG|10.40.25.96|||110000438408|102
05.10.2018 03:00:00||ÇALIK HOLDİNG|10.40.25.96|||110000438408|91
05.10.2018 03:00:00||ÇALIK HOLDİNG|10.40.25.97|||110000438408|102
05.10.2018 03:00:00||ÇALIK HOLDİNG|10.40.25.97|||110000438408|81
05.10.2018 03:00:00||ÇALIK HOLDİNG|10.40.25.97|||110000438408|91
05.10.2018 03:00:00||ÇALIK HOLDİNG|10.40.25.97|||110000438408|81
05.10.2018 03:00:00||ÇALIK HOLDİNG|10.40.25.97|||110000438408|306
05.10.2018 03:00:00||ÇALIK HOLDİNG|10.40.25.98|||110000438408|51
05.10.2018 03:00:00||ÇALIK HOLDİNG|10.40.25.98|||110000438408|163
05.10.2018 03:00:00||ÇALIK HOLDİNG|10.40.25.98|||110000438408|163
05.10.2018 03:00:00||ÇALIK HOLDİNG|10.40.25.98|||110000438408|163
05.10.2018 03:00:00||ÇALIK HOLDİNG|10.40.25.98|||110000438408|163
05.10.2018 03:00:00||ÇALIK HOLDİNG|10.40.25.98|||110000438408|61
05.10.2018 03:00:00||ÇALIK HOLDİNG|10.40.25.98|||110000438408|214
05.10.2018 03:00:00||ÇALIK HOLDİNG|10.40.25.98|||110000438408|183
05.10.2018 03:00:00||ÇALIK HOLDİNG|10.40.25.98|||110000438408|173
05.10.2018 03:00:00||ÇALIK HOLDİNG|10.40.25.98|||110000438408|214
05.10.2018 03:00:00||ÇALIK HOLDİNG|10.40.25.98|||110000438408|71
05.10.2018 03:00:00||ÇALIK HOLDİNG|10.40.25.98|||110000438408|306
05.10.2018 03:00:00||ÇALIK HOLDİNG|10.40.25.99|||110000438408|72
05.10.2018 03:00:00||ÇALIK HOLDİNG|10.40.25.99|||110000438408|67
05.10.2018 03:00:00||FIBABANKA|10.40.24.51|||101571767266|20
05.10.2018 03:00:00||FIBABANKA|10.40.24.51|||101571767266|69
05.10.2018 03:00:00||FIBABANKA|10.40.24.51|||101571767266|99
05.10.2018 03:00:00||FIBABANKA|10.40.24.51|||101571767266|138
05.10.2018 03:00:00||FIBABANKA|10.40.24.51|||101571767266|30
05.10.2018 03:00:00||FIBABANKA|10.40.24.51|||101571767266|30
05.10.2018 03:00:00||FIBABANKA|10.40.24.52|||101571767266|10
05.10.2018 03:00:00||FIBABANKA|10.40.24.53|||101571767266|30
05.10.2018 03:00:00||FIBABANKA|10.40.24.53|||101571767266|60
05.10.2018 03:00:00||FIBABANKA|10.40.24.53|||101571767266|177
05.10.2018 03:00:00||FIBABANKA|10.40.24.53|||101571767266|207
05.10.2018 03:00:00||FIBABANKA|10.40.24.54|||101571767266|188
05.10.2018 03:00:00||FIBABANKA|10.40.24.54|||101571767266|190
05.10.2018 03:00:00||FIBABANKA|10.40.24.55|||101571767266|85
05.10.2018 03:00:00||FIBABANKA|10.40.24.55|||101571767266|23
05.10.2018 03:00:00||FIBABANKA|10.40.24.56|||101571767266|11
05.10.2018 03:00:00||FIBABANKA|10.40.24.56|||101571767266|181
05.10.2018 03:00:00||FIBABANKA|10.40.24.57|||101571767266|89
05.10.2018 03:00:00||FIBABANKA|10.40.24.57|||101571767266|79
05.10.2018 03:00:00||FIBABANKA|10.40.24.57|||101571767266|79
05.10.2018 03:00:00||FIBABANKA|10.40.24.59|||101571767266|69
05.10.2018 03:00:00||FIBABANKA|10.40.24.59|||101571767266|118
05.10.2018 03:00:00||FIBABANKA|10.40.24.59|||101571767266|69
05.10.2018 03:00:00||FIBABANKA|10.40.24.59|||101571767266|50
05.10.2018 03:00:00||FIBABANKA|10.40.24.59|||101571767266|128
05.10.2018 03:00:00||FIBABANKA|10.40.24.59|||101571767266|69
05.10.2018 03:00:00||FIBABANKA|10.40.24.59|||101571767266|60
05.10.2018 03:00:00||FIBABANKA|10.40.24.59|||101571767266|157
05.10.2018 03:00:00||FIBABANKA|10.40.24.59|||101571767266|60
05.10.2018 03:00:00||FIBABANKA|10.40.24.60|||101571767266|118
05.10.2018 03:00:00||FIBABANKA|10.40.24.60|||101571767266|50
05.10.2018 03:00:00||FIBABANKA|10.40.24.60|||101571767266|40
05.10.2018 03:00:00||FIBABANKA|10.40.24.60|||101571767266|99
05.10.2018 03:00:00||FIBABANKA|10.40.24.60|||101571767266|60
05.10.2018 03:00:00||FIBABANKA|10.40.24.72|||101571767266|138
05.10.2018 03:00:00||FIBABANKA|10.40.24.72|||101571767266|69
05.10.2018 03:00:00||FIBABANKA|10.40.24.72|||101571767266|30
05.10.2018 03:00:00||FIBABANKA|10.40.24.72|||101571767266|40
05.10.2018 03:00:00||FIBABANKA|10.40.24.74|||101571767266|30
05.10.2018 03:00:00||FIBABANKA|10.40.24.74|||101571767266|30
05.10.2018 03:00:00||FIBABANKA|10.40.24.75|||101571767266|187
05.10.2018 03:00:00||FIBABANKA|10.40.24.75|||101571767266|157
05.10.2018 03:00:00||FIBABANKA|10.40.24.75|||101571767266|157
05.10.2018 03:00:00||FIBABANKA|10.40.24.76|||101571767266|40
05.10.2018 03:00:00||FIBABANKA|10.40.24.76|||101571767266|69
05.10.2018 03:00:00||FIBABANKA|10.40.24.76|||101571767266|10
05.10.2018 03:00:00||FIBABANKA|10.40.25.51|||101571767266|20
05.10.2018 03:00:00||FIBABANKA|10.40.25.51|||101571767266|108
05.10.2018 03:00:00||FIBABANKA|10.40.25.51|||101571767266|127
05.10.2018 03:00:00||FIBABANKA|10.40.25.51|||101571767266|40
05.10.2018 03:00:00||FIBABANKA|10.40.25.51|||101571767266|40
05.10.2018 03:00:00||FIBABANKA|10.40.25.51|||101571767266|69
05.10.2018 03:00:00||FIBABANKA|10.40.25.52|||101571767266|10
05.10.2018 03:00:00||FIBABANKA|10.40.25.52|||101571767266|69
05.10.2018 03:00:00||FIBABANKA|10.40.25.53|||101571767266|40
05.10.2018 03:00:00||FIBABANKA|10.40.25.53|||101571767266|49
05.10.2018 03:00:00||FIBABANKA|10.40.25.53|||101571767266|156
05.10.2018 03:00:00||FIBABANKA|10.40.25.53|||101571767266|156
05.10.2018 03:00:00||FIBABANKA|10.40.25.54|||101571767266|91
05.10.2018 03:00:00||FIBABANKA|10.40.25.54|||101571767266|159
05.10.2018 03:00:00||FIBABANKA|10.40.25.55|||101571767266|87
05.10.2018 03:00:00||FIBABANKA|10.40.25.55|||101571767266|23
05.10.2018 03:00:00||FIBABANKA|10.40.25.56|||101571767266|11
05.10.2018 03:00:00||FIBABANKA|10.40.25.56|||101571767266|189
05.10.2018 03:00:00||FIBABANKA|10.40.25.57|||101571767266|88
05.10.2018 03:00:00||FIBABANKA|10.40.25.57|||101571767266|88
05.10.2018 03:00:00||FIBABANKA|10.40.25.57|||101571767266|88
05.10.2018 03:00:00||FIBABANKA|10.40.25.59|||101571767266|69
05.10.2018 03:00:00||FIBABANKA|10.40.25.59|||101571767266|88
05.10.2018 03:00:00||FIBABANKA|10.40.25.59|||101571767266|78
05.10.2018 03:00:00||FIBABANKA|10.40.25.59|||101571767266|40
05.10.2018 03:00:00||FIBABANKA|10.40.25.59|||101571767266|127
05.10.2018 03:00:00||FIBABANKA|10.40.25.59|||101571767266|69
05.10.2018 03:00:00||FIBABANKA|10.40.25.59|||101571767266|59
05.10.2018 03:00:00||FIBABANKA|10.40.25.59|||101571767266|156
05.10.2018 03:00:00||FIBABANKA|10.40.25.59|||101571767266|59
05.10.2018 03:00:00||FIBABANKA|10.40.25.60|||101571767266|108
05.10.2018 03:00:00||FIBABANKA|10.40.25.60|||101571767266|30
05.10.2018 03:00:00||FIBABANKA|10.40.25.60|||101571767266|108
05.10.2018 03:00:00||FIBABANKA|10.40.25.60|||101571767266|40
05.10.2018 03:00:00||FIBABANKA|10.40.25.72|||101571767266|69
05.10.2018 03:00:00||FIBABANKA|10.40.25.72|||101571767266|40
05.10.2018 03:00:00||FIBABANKA|10.40.25.72|||101571767266|30
05.10.2018 03:00:00||FIBABANKA|10.40.25.74|||101571767266|40
05.10.2018 03:00:00||FIBABANKA|10.40.25.74|||101571767266|30
05.10.2018 03:00:00||FIBABANKA|10.40.25.74|||101571767266|40
05.10.2018 03:00:00||FIBABANKA|10.40.25.74|||101571767266|40
05.10.2018 03:00:00||FIBABANKA|10.40.25.74|||101571767266|40
05.10.2018 03:00:00||FIBABANKA|10.40.25.75|||101571767266|10
05.10.2018 03:00:00||FIBABANKA|10.40.25.75|||101571767266|127
05.10.2018 03:00:00||FIBABANKA|10.40.25.75|||101571767266|156
05.10.2018 03:00:00||FIBABANKA|10.40.25.75|||101571767266|175
05.10.2018 03:00:00||FIBABANKA|10.40.25.75|||101571767266|185
05.10.2018 03:00:00||FIBABANKA|10.40.25.76|||101571767266|10
05.10.2018 03:00:00||FIBABANKA|10.40.25.76|||101571767266|59
05.10.2018 03:00:00||FIBABANKA|10.40.25.76|||101571767266|40
05.10.2018 03:00:00||FIBABANKA|10.40.25.76|||101571767266|10
05.10.2018 03:00:00||FIBABANKA|10.40.26.51|||101571767266|10
05.10.2018 03:00:00||FIBABANKA|10.40.26.51|||101571767266|20
05.10.2018 03:00:00||FIBABANKA|10.40.26.51|||101571767266|112
05.10.2018 03:00:00||FIBABANKA|10.40.26.51|||101571767266|142
05.10.2018 03:00:00||FIBABANKA|10.40.26.51|||101571767266|71
05.10.2018 03:00:00||FIBABANKA|10.40.26.51|||101571767266|30
05.10.2018 03:00:00||FIBABANKA|10.40.26.51|||101571767266|30
05.10.2018 03:00:00||FIBABANKA|10.40.26.52|||101571767266|30
05.10.2018 03:00:00||FIBABANKA|10.40.26.52|||101571767266|91
05.10.2018 03:00:00||FIBABANKA|10.40.26.52|||101571767266|30
05.10.2018 03:00:00||FIBABANKA|10.40.26.53|||101571767266|61
05.10.2018 03:00:00||FIBABANKA|10.40.26.53|||101571767266|51
05.10.2018 03:00:00||FIBABANKA|10.40.26.53|||101571767266|163
05.10.2018 03:00:00||FIBABANKA|10.40.26.53|||101571767266|183
05.10.2018 03:00:00||FIBABANKA|10.40.26.54|||101571767266|178
05.10.2018 03:00:00||FIBABANKA|10.40.26.54|||101571767266|142
05.10.2018 03:00:00||FIBABANKA|10.40.26.55|||101571767266|117
05.10.2018 03:00:00||FIBABANKA|10.40.26.57|||101571767266|91
05.10.2018 03:00:00||FIBABANKA|10.40.26.57|||101571767266|91
05.10.2018 03:00:00||FIBABANKA|10.40.26.57|||101571767266|81
05.10.2018 03:00:00||FIBABANKA|10.40.26.72|||101571767266|30
05.10.2018 03:00:00||FIBABANKA|10.40.26.72|||101571767266|157
05.10.2018 03:00:00||FIBABANKA|10.40.26.72|||101571767266|73
05.10.2018 03:00:00||FIBABANKA|10.40.26.72|||101571767266|30
05.10.2018 03:00:00||FIBABANKA|10.40.26.73|||101571767266|41
05.10.2018 03:00:00||FIBABANKA|10.40.26.73|||101571767266|73
05.10.2018 03:00:00||FIBABANKA|10.40.26.73|||101571767266|30
05.10.2018 03:00:00||FIBABANKA|10.40.26.73|||101571767266|41
05.10.2018 03:00:00||FIBABANKA|10.40.26.74|||101571767266|83
05.10.2018 03:00:00||FIBABANKA|10.40.26.74|||101571767266|188
05.10.2018 03:00:00||FIBABANKA|10.40.26.74|||101571767266|199
05.10.2018 03:00:00||FIBABANKA|10.40.26.74|||101571767266|188
05.10.2018 03:00:00||FIBABANKA|10.40.26.77|||101571767266|188
05.10.2018 03:00:00||FIBABANKA|10.40.26.79|||101571767266|10
05.10.2018 03:00:00||FIBABANKA|10.40.26.79|||101571767266|10
05.10.2018 03:00:00||FIBABANKA|10.40.27.51|||101571767266|30
05.10.2018 03:00:00||FIBABANKA|10.40.27.51|||101571767266|20
05.10.2018 03:00:00||FIBABANKA|10.40.27.51|||101571767266|95
05.10.2018 03:00:00||FIBABANKA|10.40.27.51|||101571767266|123
05.10.2018 03:00:00||FIBABANKA|10.40.27.51|||101571767266|67
05.10.2018 03:00:00||FIBABANKA|10.40.27.51|||101571767266|39
05.10.2018 03:00:00||FIBABANKA|10.40.27.51|||101571767266|39
05.10.2018 03:00:00||FIBABANKA|10.40.27.52|||101571767266|48
05.10.2018 03:00:00||FIBABANKA|10.40.27.52|||101571767266|58
05.10.2018 03:00:00||FIBABANKA|10.40.27.52|||101571767266|67
05.10.2018 03:00:00||FIBABANKA|10.40.27.53|||101571767266|67
05.10.2018 03:00:00||FIBABANKA|10.40.27.53|||101571767266|58
05.10.2018 03:00:00||FIBABANKA|10.40.27.53|||101571767266|161
05.10.2018 03:00:00||FIBABANKA|10.40.27.53|||101571767266|170
05.10.2018 03:00:00||FIBABANKA|10.40.27.54|||101571767266|168
05.10.2018 03:00:00||FIBABANKA|10.40.27.54|||101571767266|121
05.10.2018 03:00:00||FIBABANKA|10.40.27.55|||101571767266|107
05.10.2018 03:00:00||FIBABANKA|10.40.27.57|||101571767266|76
05.10.2018 03:00:00||FIBABANKA|10.40.27.57|||101571767266|76
05.10.2018 03:00:00||FIBABANKA|10.40.27.57|||101571767266|76
05.10.2018 03:00:00||FIBABANKA|10.40.27.72|||101571767266|48
05.10.2018 03:00:00||FIBABANKA|10.40.27.72|||101571767266|39
05.10.2018 03:00:00||FIBABANKA|10.40.27.72|||101571767266|133
05.10.2018 03:00:00||FIBABANKA|10.40.27.72|||101571767266|58
05.10.2018 03:00:00||FIBABANKA|10.40.27.72|||101571767266|30
05.10.2018 03:00:00||FIBABANKA|10.40.27.73|||101571767266|30
05.10.2018 03:00:00||FIBABANKA|10.40.27.73|||101571767266|101
05.10.2018 03:00:00||FIBABANKA|10.40.27.73|||101571767266|30
05.10.2018 03:00:00||FIBABANKA|10.40.27.73|||101571767266|20
05.10.2018 03:00:00||FIBABANKA|10.40.27.73|||101571767266|40
05.10.2018 03:00:00||FIBABANKA|10.40.27.73|||101571767266|40
05.10.2018 03:00:00||FIBABANKA|10.40.27.73|||101571767266|40
05.10.2018 03:00:00||FIBABANKA|10.40.27.73|||101571767266|40
05.10.2018 03:00:00||FIBABANKA|10.40.27.74|||101571767266|81
05.10.2018 03:00:00||FIBABANKA|10.40.27.74|||101571767266|152
05.10.2018 03:00:00||FIBABANKA|10.40.27.74|||101571767266|182
05.10.2018 03:00:00||FIBABANKA|10.40.27.74|||101571767266|182
05.10.2018 03:00:00||FIBABANKA|10.40.27.75|||101571767266|10
05.10.2018 03:00:00||FIBABANKA|10.40.27.75|||101571767266|10
05.10.2018 03:00:00||FIBABANKA|10.40.27.77|||101571767266|172
05.10.2018 03:00:00||FIBABANKA|10.40.27.77|||101571767266|162
05.10.2018 03:00:00||FIBABANKA|10.40.27.79|||101571767266|10
05.10.2018 03:00:00||HAVAŞ|10.40.24.45|||110000479675|70
05.10.2018 03:00:00||HAVAŞ|10.40.24.45|||110000479675|160
05.10.2018 03:00:00||HAVAŞ|10.40.24.45|||110000479675|130
05.10.2018 03:00:00||HAVAŞ|10.40.24.45|||110000479675|90
05.10.2018 03:00:00||HAVAŞ|10.40.24.46|||110000479675|20
05.10.2018 03:00:00||HAVAŞ|10.40.24.46|||110000479675|20
05.10.2018 03:00:00||HAVAŞ|10.40.24.46|||110000479675|10
05.10.2018 03:00:00||HAVAŞ|10.40.24.46|||110000479675|10
05.10.2018 03:00:00||HAVAŞ|10.40.24.46|||110000479675|10
05.10.2018 03:00:00||HAVAŞ|10.40.24.46|||110000479675|10
05.10.2018 03:00:00||HAVAŞ|10.40.24.46|||110000479675|10
05.10.2018 03:00:00||HAVAŞ|10.40.24.46|||110000479675|60
05.10.2018 03:00:00||HAVAŞ|10.40.24.46|||110000479675|60
05.10.2018 03:00:00||HAVAŞ|10.40.24.46|||110000479675|109
05.10.2018 03:00:00||HAVAŞ|10.40.24.46|||110000479675|69
05.10.2018 03:00:00||HAVAŞ|10.40.24.46|||110000479675|79
05.10.2018 03:00:00||HAVAŞ|10.40.24.47|||110000479675|30
05.10.2018 03:00:00||HAVAŞ|10.40.24.47|||110000479675|30
05.10.2018 03:00:00||HAVAŞ|10.40.24.47|||110000479675|207
05.10.2018 03:00:00||HAVAŞ|10.40.24.47|||110000479675|89
05.10.2018 03:00:00||HAVAŞ|10.40.24.47|||110000479675|50
05.10.2018 03:00:00||HAVAŞ|10.40.24.47|||110000479675|50
05.10.2018 03:00:00||HAVAŞ|10.40.24.47|||110000479675|109
05.10.2018 03:00:00||HAVAŞ|10.40.24.47|||110000479675|157
05.10.2018 03:00:00||HAVAŞ|10.40.24.47|||110000479675|99
05.10.2018 03:00:00||HAVAŞ|10.40.24.47|||110000479675|99
05.10.2018 03:00:00||HAVAŞ|10.40.24.47|||110000479675|89
05.10.2018 03:00:00||HAVAŞ|10.40.24.48|||110000479675|736
05.10.2018 03:00:00||HAVAŞ|10.40.24.48|||110000479675|707
05.10.2018 03:00:00||HAVAŞ|10.40.24.48|||110000479675|736
05.10.2018 03:00:00||HAVAŞ|10.40.25.45|||110000479675|49
05.10.2018 03:00:00||HAVAŞ|10.40.25.45|||110000479675|98
05.10.2018 03:00:00||HAVAŞ|10.40.25.45|||110000479675|127
05.10.2018 03:00:00||HAVAŞ|10.40.25.45|||110000479675|88
05.10.2018 03:00:00||HAVAŞ|10.40.25.46|||110000479675|10
05.10.2018 03:00:00||HAVAŞ|10.40.25.46|||110000479675|10
05.10.2018 03:00:00||HAVAŞ|10.40.25.46|||110000479675|20
05.10.2018 03:00:00||HAVAŞ|10.40.25.46|||110000479675|20
05.10.2018 03:00:00||HAVAŞ|10.40.25.46|||110000479675|10
05.10.2018 03:00:00||HAVAŞ|10.40.25.46|||110000479675|49
05.10.2018 03:00:00||HAVAŞ|10.40.25.46|||110000479675|59
05.10.2018 03:00:00||HAVAŞ|10.40.25.46|||110000479675|98
05.10.2018 03:00:00||HAVAŞ|10.40.25.46|||110000479675|69
05.10.2018 03:00:00||HAVAŞ|10.40.25.46|||110000479675|78
05.10.2018 03:00:00||HAVAŞ|10.40.25.46|||110000479675|69
05.10.2018 03:00:00||HAVAŞ|10.40.25.47|||110000479675|69
05.10.2018 03:00:00||HAVAŞ|10.40.25.47|||110000479675|69
05.10.2018 03:00:00||HAVAŞ|10.40.25.47|||110000479675|224
05.10.2018 03:00:00||HAVAŞ|10.40.25.47|||110000479675|59
05.10.2018 03:00:00||HAVAŞ|10.40.25.47|||110000479675|88
05.10.2018 03:00:00||HAVAŞ|10.40.25.47|||110000479675|88
05.10.2018 03:00:00||HAVAŞ|10.40.25.47|||110000479675|88
05.10.2018 03:00:00||HAVAŞ|10.40.25.47|||110000479675|10
05.10.2018 03:00:00||HAVAŞ|10.40.25.47|||110000479675|175
05.10.2018 03:00:00||HAVAŞ|10.40.25.47|||110000479675|88
05.10.2018 03:00:00||HAVAŞ|10.40.25.47|||110000479675|88
05.10.2018 03:00:00||HAVAŞ|10.40.25.47|||110000479675|88
05.10.2018 03:00:00||HAVAŞ|10.40.25.48|||110000479675|718
05.10.2018 03:00:00||HAVAŞ|10.40.25.48|||110000479675|728
05.10.2018 03:00:00||HAVAŞ|10.40.25.48|||110000479675|776
05.10.2018 03:00:00||MARS CINEMA|10.40.24.203|||110000472614|60
05.10.2018 03:00:00||MARS CINEMA|10.40.24.203|||110000472614|90
05.10.2018 03:00:00||MARS CINEMA|10.40.24.203|||110000472614|100
05.10.2018 03:00:00||MARS CINEMA|10.40.24.203|||110000472614|100
05.10.2018 03:00:00||MARS CINEMA|10.40.24.203|||110000472614|140
05.10.2018 03:00:00||MARS CINEMA|10.40.24.203|||110000472614|150
05.10.2018 03:00:00||MARS CINEMA|10.40.24.203|||110000472614|170
05.10.2018 03:00:00||MARS CINEMA|10.40.24.203|||110000472614|170
05.10.2018 03:00:00||MARS CINEMA|10.40.24.203|||110000472614|100
05.10.2018 03:00:00||MARS CINEMA|10.40.24.203|||110000472614|100
05.10.2018 03:00:00||MARS CINEMA|10.40.24.203|||110000472614|90
05.10.2018 03:00:00||MARS CINEMA|10.40.24.203|||110000472614|190
05.10.2018 03:00:00||MARS CINEMA|10.40.24.204|||110000472614|110
05.10.2018 03:00:00||MARS CINEMA|10.40.24.204|||110000472614|90
05.10.2018 03:00:00||MARS CINEMA|10.40.24.204|||110000472614|90
05.10.2018 03:00:00||MARS CINEMA|10.40.24.204|||110000472614|20
05.10.2018 03:00:00||MARS CINEMA|10.40.24.204|||110000472614|90
05.10.2018 03:00:00||MARS CINEMA|10.40.24.204|||110000472614|20
05.10.2018 03:00:00||MARS CINEMA|10.40.24.204|||110000472614|10
05.10.2018 03:00:00||MARS CINEMA|10.40.24.204|||110000472614|40
05.10.2018 03:00:00||MARS CINEMA|10.40.24.204|||110000472614|90
05.10.2018 03:00:00||MARS CINEMA|10.40.24.204|||110000472614|120
05.10.2018 03:00:00||MARS CINEMA|10.40.24.204|||110000472614|50
05.10.2018 03:00:00||MARS CINEMA|10.40.24.204|||110000472614|90
05.10.2018 03:00:00||MARS CINEMA|10.40.24.204|||110000472614|110
05.10.2018 03:00:00||MARS CINEMA|10.40.24.204|||110000472614|80
05.10.2018 03:00:00||MARS CINEMA|10.40.24.206|||110000472614|40
05.10.2018 03:00:00||MARS CINEMA|10.40.24.206|||110000472614|40
05.10.2018 03:00:00||MARS CINEMA|10.40.24.206|||110000472614|50
05.10.2018 03:00:00||MARS CINEMA|10.40.24.206|||110000472614|30
05.10.2018 03:00:00||MARS CINEMA|10.40.24.206|||110000472614|30
05.10.2018 03:00:00||MARS CINEMA|10.40.24.206|||110000472614|30
05.10.2018 03:00:00||MARS CINEMA|10.40.24.206|||110000472614|200
05.10.2018 03:00:00||MARS CINEMA|10.40.24.206|||110000472614|130
05.10.2018 03:00:00||MARS CINEMA|10.40.24.206|||110000472614|20
05.10.2018 03:00:00||MARS CINEMA|10.40.24.206|||110000472614|90
05.10.2018 03:00:00||MARS CINEMA|10.40.24.206|||110000472614|80
05.10.2018 03:00:00||MARS CINEMA|10.40.25.203|||110000472614|137
05.10.2018 03:00:00||MARS CINEMA|10.40.25.203|||110000472614|69
05.10.2018 03:00:00||MARS CINEMA|10.40.25.203|||110000472614|166
05.10.2018 03:00:00||MARS CINEMA|10.40.25.203|||110000472614|88
05.10.2018 03:00:00||MARS CINEMA|10.40.25.203|||110000472614|88
05.10.2018 03:00:00||MARS CINEMA|10.40.25.203|||110000472614|108
05.10.2018 03:00:00||MARS CINEMA|10.40.25.203|||110000472614|117
05.10.2018 03:00:00||MARS CINEMA|10.40.25.203|||110000472614|146
05.10.2018 03:00:00||MARS CINEMA|10.40.25.203|||110000472614|88
05.10.2018 03:00:00||MARS CINEMA|10.40.25.203|||110000472614|88
05.10.2018 03:00:00||MARS CINEMA|10.40.25.203|||110000472614|59
05.10.2018 03:00:00||MARS CINEMA|10.40.25.203|||110000472614|185
05.10.2018 03:00:00||MARS CINEMA|10.40.25.204|||110000472614|108
05.10.2018 03:00:00||MARS CINEMA|10.40.25.204|||110000472614|69
05.10.2018 03:00:00||MARS CINEMA|10.40.25.204|||110000472614|78
05.10.2018 03:00:00||MARS CINEMA|10.40.25.204|||110000472614|98
05.10.2018 03:00:00||MARS CINEMA|10.40.25.204|||110000472614|20
05.10.2018 03:00:00||MARS CINEMA|10.40.25.204|||110000472614|20
05.10.2018 03:00:00||MARS CINEMA|10.40.25.204|||110000472614|30
05.10.2018 03:00:00||MARS CINEMA|10.40.25.204|||110000472614|40
05.10.2018 03:00:00||MARS CINEMA|10.40.25.204|||110000472614|88
05.10.2018 03:00:00||MARS CINEMA|10.40.25.204|||110000472614|108
05.10.2018 03:00:00||MARS CINEMA|10.40.25.204|||110000472614|98
05.10.2018 03:00:00||MARS CINEMA|10.40.25.204|||110000472614|117
05.10.2018 03:00:00||MARS CINEMA|10.40.25.204|||110000472614|78
05.10.2018 03:00:00||MARS CINEMA|10.40.25.204|||110000472614|78
05.10.2018 03:00:00||MARS CINEMA|10.40.25.206|||110000472614|40
05.10.2018 03:00:00||MARS CINEMA|10.40.25.206|||110000472614|40
05.10.2018 03:00:00||MARS CINEMA|10.40.25.206|||110000472614|40
05.10.2018 03:00:00||MARS CINEMA|10.40.25.206|||110000472614|20
05.10.2018 03:00:00||MARS CINEMA|10.40.25.206|||110000472614|20
05.10.2018 03:00:00||MARS CINEMA|10.40.25.206|||110000472614|30
05.10.2018 03:00:00||MARS CINEMA|10.40.25.206|||110000472614|59
05.10.2018 03:00:00||MARS CINEMA|10.40.25.206|||110000472614|40
05.10.2018 03:00:00||MARS CINEMA|10.40.25.206|||110000472614|78
05.10.2018 03:00:00||MARS CINEMA|10.40.25.206|||110000472614|78
05.10.2018 03:00:00||PEGASUS|10.40.26.62|||110000423831|91
05.10.2018 03:00:00||PEGASUS|10.40.26.62|||110000423831|10
05.10.2018 03:00:00||PEGASUS|10.40.26.62|||110000423831|194
05.10.2018 03:00:00||PEGASUS|10.40.26.63|||110000423831|112
05.10.2018 03:00:00||PEGASUS|10.40.26.63|||110000423831|296
05.10.2018 03:00:00||PEGASUS|10.40.26.63|||110000423831|112
05.10.2018 03:00:00||PEGASUS|10.40.26.63|||110000423831|91
05.10.2018 03:00:00||PEGASUS|10.40.26.63|||110000423831|71
05.10.2018 03:00:00||PEGASUS|10.40.26.63|||110000423831|132
05.10.2018 03:00:00||PEGASUS|10.40.26.63|||110000423831|61
05.10.2018 03:00:00||PEGASUS|10.40.26.63|||110000423831|102
05.10.2018 03:00:00||PEGASUS|10.40.26.63|||110000423831|30
05.10.2018 03:00:00||PEGASUS|10.40.26.63|||110000423831|61
05.10.2018 03:00:00||PEGASUS|10.40.26.63|||110000423831|20
05.10.2018 03:00:00||PEGASUS|10.40.26.63|||110000423831|224
05.10.2018 03:00:00||PEGASUS|10.40.26.63|||110000423831|142
05.10.2018 03:00:00||PEGASUS|10.40.26.63|||110000423831|51
05.10.2018 03:00:00||PEGASUS|10.40.26.63|||110000423831|153
05.10.2018 03:00:00||PEGASUS|10.40.26.63|||110000423831|40
05.10.2018 03:00:00||PEGASUS|10.40.26.63|||110000423831|61
05.10.2018 03:00:00||PEGASUS|10.40.26.63|||110000423831|61
05.10.2018 03:00:00||PEGASUS|10.40.26.63|||110000423831|40
05.10.2018 03:00:00||PEGASUS|10.40.26.64|||110000423831|81
05.10.2018 03:00:00||PEGASUS|10.40.26.64|||110000423831|81
05.10.2018 03:00:00||PEGASUS|10.40.26.66|||110000423831|59
05.10.2018 03:00:00||PEGASUS|10.40.26.66|||110000423831|50
05.10.2018 03:00:00||PEGASUS|10.40.26.67|||110000423831|30
05.10.2018 03:00:00||PEGASUS|10.40.26.67|||110000423831|347
05.10.2018 03:00:00||PEGASUS|10.40.26.67|||110000423831|347
05.10.2018 03:00:00||PEGASUS|10.40.26.67|||110000423831|61
05.10.2018 03:00:00||PEGASUS|10.40.26.67|||110000423831|40
05.10.2018 03:00:00||PEGASUS|10.40.26.67|||110000423831|173
05.10.2018 03:00:00||PEGASUS|10.40.26.67|||110000423831|71
05.10.2018 03:00:00||PEGASUS|10.40.26.67|||110000423831|347
05.10.2018 03:00:00||PEGASUS|10.40.26.68|||110000423831|102
05.10.2018 03:00:00||PEGASUS|10.40.26.68|||110000423831|91
05.10.2018 03:00:00||PEGASUS|10.40.26.68|||110000423831|91
05.10.2018 03:00:00||PEGASUS|10.40.26.68|||110000423831|51
05.10.2018 03:00:00||PEGASUS|10.40.26.81|||110000423831|451
05.10.2018 03:00:00||PEGASUS|10.40.26.81|||110000423831|471
05.10.2018 03:00:00||PEGASUS|10.40.26.81|||110000423831|482
05.10.2018 03:00:00||PEGASUS|10.40.26.82|||110000423831|220
05.10.2018 03:00:00||PEGASUS|10.40.26.82|||110000423831|114
05.10.2018 03:00:00||PEGASUS|10.40.26.82|||110000423831|83
05.10.2018 03:00:00||PEGASUS|10.40.26.82|||110000423831|157
05.10.2018 03:00:00||PEGASUS|10.40.26.82|||110000423831|146
05.10.2018 03:00:00||PEGASUS|10.40.26.82|||110000423831|146
05.10.2018 03:00:00||PEGASUS|10.40.26.82|||110000423831|188
05.10.2018 03:00:00||PEGASUS|10.40.26.82|||110000423831|30
05.10.2018 03:00:00||PEGASUS|10.40.26.82|||110000423831|41
05.10.2018 03:00:00||PEGASUS|10.40.26.82|||110000423831|20
05.10.2018 03:00:00||PEGASUS|10.40.26.82|||110000423831|73
05.10.2018 03:00:00||PEGASUS|10.40.26.82|||110000423831|52
05.10.2018 03:00:00||PEGASUS|10.40.26.82|||110000423831|41
05.10.2018 03:00:00||PEGASUS|10.40.26.83|||110000423831|566
05.10.2018 03:00:00||PEGASUS|10.40.26.83|||110000423831|52
05.10.2018 03:00:00||PEGASUS|10.40.26.83|||110000423831|419
05.10.2018 03:00:00||PEGASUS|10.40.26.83|||110000423831|157
05.10.2018 03:00:00||PEGASUS|10.40.26.83|||110000423831|104
05.10.2018 03:00:00||PEGASUS|10.40.26.83|||110000423831|566
05.10.2018 03:00:00||PEGASUS|10.40.26.83|||110000423831|114
05.10.2018 03:00:00||PEGASUS|10.40.26.83|||110000423831|576
05.10.2018 03:00:00||PEGASUS|10.40.26.84|||110000423831|41
05.10.2018 03:00:00||PEGASUS|10.40.26.84|||110000423831|191
05.10.2018 03:00:00||PEGASUS|10.40.26.85|||110000423831|23
05.10.2018 03:00:00||PEGASUS|10.40.26.85|||110000423831|102
05.10.2018 03:00:00||PEGASUS|10.40.26.86|||110000423831|377
05.10.2018 03:00:00||PEGASUS|10.40.26.86|||110000423831|136
05.10.2018 03:00:00||PEGASUS|10.40.26.86|||110000423831|367
05.10.2018 03:00:00||PEGASUS|10.40.26.86|||110000423831|52
05.10.2018 03:00:00||PEGASUS|10.40.26.86|||110000423831|30
05.10.2018 03:00:00||PEGASUS|10.40.26.86|||110000423831|367
05.10.2018 03:00:00||PEGASUS|10.40.26.86|||110000423831|41
05.10.2018 03:00:00||PEGASUS|10.40.26.86|||110000423831|52
05.10.2018 03:00:00||PEGASUS|10.40.26.87|||110000423831|93
05.10.2018 03:00:00||PEGASUS|10.40.26.87|||110000423831|93
05.10.2018 03:00:00||PEGASUS|10.40.26.87|||110000423831|93
05.10.2018 03:00:00||PEGASUS|10.40.26.87|||110000423831|20
05.10.2018 03:00:00||PEGASUS|10.40.27.63|||110000423831|86
05.10.2018 03:00:00||PEGASUS|10.40.27.63|||110000423831|58
05.10.2018 03:00:00||PEGASUS|10.40.27.63|||110000423831|67
05.10.2018 03:00:00||PEGASUS|10.40.27.63|||110000423831|48
05.10.2018 03:00:00||PEGASUS|10.40.27.63|||110000423831|58
05.10.2018 03:00:00||PEGASUS|10.40.27.63|||110000423831|58
05.10.2018 03:00:00||PEGASUS|10.40.27.63|||110000423831|76
05.10.2018 03:00:00||PEGASUS|10.40.27.63|||110000423831|76
05.10.2018 03:00:00||PEGASUS|10.40.27.63|||110000423831|76
05.10.2018 03:00:00||PEGASUS|10.40.27.63|||110000423831|198
05.10.2018 03:00:00||PEGASUS|10.40.27.63|||110000423831|58
05.10.2018 03:00:00||PEGASUS|10.40.27.63|||110000423831|58
05.10.2018 03:00:00||PEGASUS|10.40.27.63|||110000423831|67
05.10.2018 03:00:00||PEGASUS|10.40.27.63|||110000423831|86
05.10.2018 03:00:00||PEGASUS|10.40.27.63|||110000423831|67
05.10.2018 03:00:00||PEGASUS|10.40.27.63|||110000423831|58
05.10.2018 03:00:00||PEGASUS|10.40.27.63|||110000423831|76
05.10.2018 03:00:00||PEGASUS|10.40.27.64|||110000423831|67
05.10.2018 03:00:00||PEGASUS|10.40.27.64|||110000423831|67
05.10.2018 03:00:00||PEGASUS|10.40.27.64|||110000423831|255
05.10.2018 03:00:00||PEGASUS|10.40.27.64|||110000423831|274
05.10.2018 03:00:00||PEGASUS|10.40.27.64|||110000423831|246
05.10.2018 03:00:00||PEGASUS|10.40.27.64|||110000423831|321
05.10.2018 03:00:00||PEGASUS|10.40.27.64|||110000423831|283
05.10.2018 03:00:00||PEGASUS|10.40.27.64|||110000423831|302
05.10.2018 03:00:00||PEGASUS|10.40.27.64|||110000423831|255
05.10.2018 03:00:00||PEGASUS|10.40.27.64|||110000423831|274
05.10.2018 03:00:00||PEGASUS|10.40.27.64|||110000423831|246
05.10.2018 03:00:00||PEGASUS|10.40.27.64|||110000423831|255
05.10.2018 03:00:00||PEGASUS|10.40.27.64|||110000423831|237
05.10.2018 03:00:00||PEGASUS|10.40.27.64|||110000423831|237
05.10.2018 03:00:00||PEGASUS|10.40.27.66|||110000423831|41
05.10.2018 03:00:00||PEGASUS|10.40.27.66|||110000423831|55
05.10.2018 03:00:00||PEGASUS|10.40.27.67|||110000423831|48
05.10.2018 03:00:00||PEGASUS|10.40.27.67|||110000423831|340
05.10.2018 03:00:00||PEGASUS|10.40.27.67|||110000423831|67
05.10.2018 03:00:00||PEGASUS|10.40.27.67|||110000423831|123
05.10.2018 03:00:00||PEGASUS|10.40.27.67|||110000423831|10
05.10.2018 03:00:00||PEGASUS|10.40.27.67|||110000423831|321
05.10.2018 03:00:00||PEGASUS|10.40.27.67|||110000423831|39
05.10.2018 03:00:00||PEGASUS|10.40.27.67|||110000423831|321
05.10.2018 03:00:00||PEGASUS|10.40.27.68|||110000423831|86
05.10.2018 03:00:00||PEGASUS|10.40.27.68|||110000423831|76
05.10.2018 03:00:00||PEGASUS|10.40.27.68|||110000423831|86
05.10.2018 03:00:00||PEGASUS|10.40.27.68|||110000423831|58
05.10.2018 03:00:00||PEGASUS|10.40.27.81|||110000423831|508
05.10.2018 03:00:00||PEGASUS|10.40.27.81|||110000423831|457
05.10.2018 03:00:00||PEGASUS|10.40.27.81|||110000423831|416
05.10.2018 03:00:00||PEGASUS|10.40.27.82|||110000423831|223
05.10.2018 03:00:00||PEGASUS|10.40.27.82|||110000423831|30
05.10.2018 03:00:00||PEGASUS|10.40.27.82|||110000423831|101
05.10.2018 03:00:00||PEGASUS|10.40.27.82|||110000423831|81
05.10.2018 03:00:00||PEGASUS|10.40.27.82|||110000423831|152
05.10.2018 03:00:00||PEGASUS|10.40.27.82|||110000423831|121
05.10.2018 03:00:00||PEGASUS|10.40.27.82|||110000423831|172
05.10.2018 03:00:00||PEGASUS|10.40.27.82|||110000423831|121
05.10.2018 03:00:00||PEGASUS|10.40.27.82|||110000423831|60
05.10.2018 03:00:00||PEGASUS|10.40.27.82|||110000423831|71
05.10.2018 03:00:00||PEGASUS|10.40.27.82|||110000423831|50
05.10.2018 03:00:00||PEGASUS|10.40.27.82|||110000423831|30
05.10.2018 03:00:00||PEGASUS|10.40.27.82|||110000423831|60
05.10.2018 03:00:00||PEGASUS|10.40.27.82|||110000423831|40
05.10.2018 03:00:00||PEGASUS|10.40.27.83|||110000423831|599
05.10.2018 03:00:00||PEGASUS|10.40.27.83|||110000423831|71
05.10.2018 03:00:00||PEGASUS|10.40.27.83|||110000423831|518
05.10.2018 03:00:00||PEGASUS|10.40.27.83|||110000423831|101
05.10.2018 03:00:00||PEGASUS|10.40.27.83|||110000423831|152
05.10.2018 03:00:00||PEGASUS|10.40.27.83|||110000423831|81
05.10.2018 03:00:00||PEGASUS|10.40.27.83|||110000423831|508
05.10.2018 03:00:00||PEGASUS|10.40.27.83|||110000423831|71
05.10.2018 03:00:00||PEGASUS|10.40.27.84|||110000423831|178
05.10.2018 03:00:00||PEGASUS|10.40.27.84|||110000423831|40
05.10.2018 03:00:00||PEGASUS|10.40.27.85|||110000423831|95
05.10.2018 03:00:00||PEGASUS|10.40.27.85|||110000423831|22
05.10.2018 03:00:00||PEGASUS|10.40.27.86|||110000423831|345
05.10.2018 03:00:00||PEGASUS|10.40.27.86|||110000423831|345
05.10.2018 03:00:00||PEGASUS|10.40.27.86|||110000423831|162
05.10.2018 03:00:00||PEGASUS|10.40.27.86|||110000423831|71
05.10.2018 03:00:00||PEGASUS|10.40.27.86|||110000423831|40
05.10.2018 03:00:00||PEGASUS|10.40.27.86|||110000423831|20
05.10.2018 03:00:00||PEGASUS|10.40.27.86|||110000423831|355
05.10.2018 03:00:00||PEGASUS|10.40.27.87|||110000423831|91
05.10.2018 03:00:00||PEGASUS|10.40.27.87|||110000423831|91
05.10.2018 03:00:00||PEGASUS|10.40.27.87|||110000423831|91
05.10.2018 03:00:00||PEGASUS|10.40.27.87|||110000423831|20
05.10.2018 03:00:00||PETKIM|10.40.25.87|||110000437354|90
05.10.2018 03:00:00||PETKIM|10.40.25.87|||110000437354|49
05.10.2018 03:00:00||PWC|10.40.24.66|||110000433262|89
05.10.2018 03:00:00||PWC|10.40.24.66|||110000433262|10
05.10.2018 03:00:00||PWC|10.40.24.66|||110000433262|207
05.10.2018 03:00:00||PWC|10.40.24.66|||110000433262|207
05.10.2018 03:00:00||PWC|10.40.24.66|||110000433262|30
05.10.2018 03:00:00||PWC|10.40.24.66|||110000433262|50
05.10.2018 03:00:00||PWC|10.40.24.66|||110000433262|50
05.10.2018 03:00:00||PWC|10.40.24.66|||110000433262|60
05.10.2018 03:00:00||PWC|10.40.24.66|||110000433262|30
05.10.2018 03:00:00||PWC|10.40.24.66|||110000433262|40
05.10.2018 03:00:00||PWC|10.40.24.66|||110000433262|442
05.10.2018 03:00:00||PWC|10.40.24.67|||110000433262|10
05.10.2018 03:00:00||PWC|10.40.24.67|||110000433262|10
05.10.2018 03:00:00||PWC|10.40.24.67|||110000433262|373
05.10.2018 03:00:00||PWC|10.40.24.67|||110000433262|30
05.10.2018 03:00:00||PWC|10.40.24.67|||110000433262|69
05.10.2018 03:00:00||PWC|10.40.24.67|||110000433262|118
05.10.2018 03:00:00||PWC|10.40.24.68|||110000433262|99
05.10.2018 03:00:00||PWC|10.40.24.68|||110000433262|138
05.10.2018 03:00:00||PWC|10.40.24.68|||110000433262|69
05.10.2018 03:00:00||PWC|10.40.24.68|||110000433262|69
05.10.2018 03:00:00||PWC|10.40.24.68|||110000433262|148
05.10.2018 03:00:00||PWC|10.40.25.67|||110000433262|78
05.10.2018 03:00:00||PWC|10.40.25.67|||110000433262|88
05.10.2018 03:00:00||PWC|10.40.25.67|||110000433262|311
05.10.2018 03:00:00||PWC|10.40.25.67|||110000433262|243
05.10.2018 03:00:00||PWC|10.40.25.67|||110000433262|233
05.10.2018 03:00:00||PWC|10.40.25.67|||110000433262|243
05.10.2018 03:00:00||PWC|10.40.25.67|||110000433262|49
05.10.2018 03:00:00||PWC|10.40.25.67|||110000433262|30
05.10.2018 03:00:00||PWC|10.40.25.67|||110000433262|117
05.10.2018 03:00:00||PWC|10.40.25.68|||110000433262|127
05.10.2018 03:00:00||PWC|10.40.25.68|||110000433262|185
05.10.2018 03:00:00||PWC|10.40.25.68|||110000433262|379
05.10.2018 03:00:00||PWC|10.40.25.68|||110000433262|69
05.10.2018 03:00:00||PWC|10.40.25.68|||110000433262|78
05.10.2018 03:00:00||PWC|10.40.25.68|||110000433262|146
