26.10.2018 08:00:00||AKTİFBANK|10.40.24.172|||110000438458|96
26.10.2018 08:00:00||AKTİFBANK|10.40.25.134|||110000438458|93
26.10.2018 08:00:00||AKTİFBANK|10.40.24.134|||110000438458|94
26.10.2018 08:00:00||AKTİFBANK|10.40.24.135|||110000438458|102
26.10.2018 08:00:00||AKTİFBANK|10.40.25.137|||110000438458|57
26.10.2018 08:00:00||AKTİFBANK|10.40.25.171|||110000438458|12
26.10.2018 08:00:00||AKTİFBANK|10.40.25.172|||110000438458|88
26.10.2018 08:00:00||AKTİFBANK|10.40.25.174|||110000438458|53
26.10.2018 08:00:00||AKTİFBANK|10.40.25.135|||110000438458|98
26.10.2018 08:00:00||AKTİFBANK|10.40.24.137|||110000438458|57
26.10.2018 08:00:00||AKTİFBANK|10.40.24.171|||110000438458|11
26.10.2018 08:00:00||AKTİFBANK|10.40.25.173|||110000438458|95
26.10.2018 08:00:00||AKTİFBANK|10.40.24.173|||110000438458|92
26.10.2018 08:00:00||AKTİFBANK|10.40.24.174|||110000438458|60
26.10.2018 08:00:00||AKTİFBANK|10.40.24.133|||110000438458|78
26.10.2018 08:00:00||AKTİFBANK|10.40.24.138|||110000438458|122
26.10.2018 08:00:00||AKTİFBANK|10.40.24.139|||110000438458|30
26.10.2018 08:00:00||AKTİFBANK|10.40.24.149|||110000438458|110
26.10.2018 08:00:00||AKTİFBANK|10.40.24.150|||110000438458|543
26.10.2018 08:00:00||AKTİFBANK|10.40.24.145|||110000438458|60
26.10.2018 08:00:00||AKTİFBANK|10.40.24.164|||110000438458|230
26.10.2018 08:00:00||AKTİFBANK|10.40.25.133|||110000438458|70
26.10.2018 08:00:00||AKTİFBANK|10.40.24.145|||110000438458|90
26.10.2018 08:00:00||AKTİFBANK|10.40.24.158|||110000438458|82
26.10.2018 08:00:00||AKTİFBANK|10.40.24.164|||110000438458|70
26.10.2018 08:00:00||AKTİFBANK|10.40.25.138|||110000438458|80
26.10.2018 08:00:00||AKTİFBANK|10.40.25.139|||110000438458|10
26.10.2018 08:00:00||AKTİFBANK|10.40.25.140|||110000438458|35
26.10.2018 08:00:00||AKTİFBANK|10.40.25.151|||110000438458|502
26.10.2018 08:00:00||AKTİFBANK|10.40.25.141|||110000438458|100
26.10.2018 08:00:00||AKTİFBANK|10.40.25.141|||110000438458|100
26.10.2018 08:00:00||AKTİFBANK|10.40.25.142|||110000438458|75
26.10.2018 08:00:00||AKTİFBANK|10.40.25.133|||110000438458|110
26.10.2018 08:00:00||AKTİFBANK|10.40.25.149|||110000438458|100
26.10.2018 08:00:00||AKTİFBANK|10.40.25.149|||110000438458|90
26.10.2018 08:00:00||AKTİFBANK|10.40.25.149|||110000438458|93
26.10.2018 08:00:00||AKTİFBANK|10.40.25.140|||110000438458|30
26.10.2018 08:00:00||AKTİFBANK|10.40.25.150|||110000438458|537
26.10.2018 08:00:00||AKTİFBANK|10.40.25.139|||110000438458|170
26.10.2018 08:00:00||AKTİFBANK|10.40.25.139|||110000438458|40
26.10.2018 08:00:00||AKTİFBANK|10.40.25.140|||110000438458|80
26.10.2018 08:00:00||AKTİFBANK|10.40.25.140|||110000438458|70
26.10.2018 08:00:00||AKTİFBANK|10.40.25.140|||110000438458|30
26.10.2018 08:00:00||AKTİFBANK|10.40.25.151|||110000438458|520
26.10.2018 08:00:00||AKTİFBANK|10.40.25.151|||110000438458|505
26.10.2018 08:00:00||AKTİFBANK|10.40.25.141|||110000438458|40
26.10.2018 08:00:00||AKTİFBANK|10.40.25.141|||110000438458|100
26.10.2018 08:00:00||AKTİFBANK|10.40.25.141|||110000438458|80
26.10.2018 08:00:00||AKTİFBANK|10.40.25.142|||110000438458|37
26.10.2018 08:00:00||AKTİFBANK|10.40.25.149|||110000438458|70
26.10.2018 08:00:00||AKTİFBANK|10.40.25.149|||110000438458|110
26.10.2018 08:00:00||AKTİFBANK|10.40.25.149|||110000438458|90
26.10.2018 08:00:00||AKTİFBANK|10.40.25.149|||110000438458|90
26.10.2018 08:00:00||AKTİFBANK|10.40.25.149|||110000438458|112
26.10.2018 08:00:00||AKTİFBANK|10.40.24.139|||110000438458|60
26.10.2018 08:00:00||AKTİFBANK|10.40.25.153|||110000438458|10
26.10.2018 08:00:00||AKTİFBANK|10.40.25.150|||110000438458|555
26.10.2018 08:00:00||AKTİFBANK|10.40.25.153|||110000438458|70
26.10.2018 08:00:00||AKTİFBANK|10.40.25.163|||110000438458|48
26.10.2018 08:00:00||AKTİFBANK|10.40.24.141|||110000438458|78
26.10.2018 08:00:00||AKTİFBANK|10.40.24.151|||110000438458|515
26.10.2018 08:00:00||AKTİFBANK|10.40.25.153|||110000438458|80
26.10.2018 08:00:00||AKTİFBANK|10.40.24.149|||110000438458|85
26.10.2018 08:00:00||AKTİFBANK|10.40.24.141|||110000438458|50
26.10.2018 08:00:00||AKTİFBANK|10.40.25.133|||110000438458|280
26.10.2018 08:00:00||AKTİFBANK|10.40.25.133|||110000438458|90
26.10.2018 08:00:00||AKTİFBANK|10.40.24.149|||110000438458|88
26.10.2018 08:00:00||AKTİFBANK|10.40.24.162|||110000438458|215
26.10.2018 08:00:00||AKTİFBANK|10.40.24.162|||110000438458|30
26.10.2018 08:00:00||AKTİFBANK|10.40.24.162|||110000438458|40
26.10.2018 08:00:00||AKTİFBANK|10.40.25.133|||110000438458|150
26.10.2018 08:00:00||AKTİFBANK|10.40.25.138|||110000438458|130
26.10.2018 08:00:00||AKTİFBANK|10.40.25.149|||110000438458|70
26.10.2018 08:00:00||AKTİFBANK|10.40.25.149|||110000438458|70
26.10.2018 08:00:00||AKTİFBANK|10.40.25.149|||110000438458|30
26.10.2018 08:00:00||AKTİFBANK|10.40.25.149|||110000438458|65
26.10.2018 08:00:00||AKTİFBANK|10.40.25.149|||110000438458|70
26.10.2018 08:00:00||AKTİFBANK|10.40.25.141|||110000438458|100
26.10.2018 08:00:00||AKTİFBANK|10.40.25.149|||110000438458|130
26.10.2018 08:00:00||AKTİFBANK|10.40.25.138|||110000438458|90
26.10.2018 08:00:00||AKTİFBANK|10.40.25.138|||110000438458|72
26.10.2018 08:00:00||AKTİFBANK|10.40.25.139|||110000438458|100
26.10.2018 08:00:00||AKTİFBANK|10.40.24.145|||110000438458|70
26.10.2018 08:00:00||AKTİFBANK|10.40.24.149|||110000438458|160
26.10.2018 08:00:00||AKTİFBANK|10.40.25.138|||110000438458|30
26.10.2018 08:00:00||AKTİFBANK|10.40.25.138|||110000438458|10
26.10.2018 08:00:00||AKTİFBANK|10.40.25.153|||110000438458|60
26.10.2018 08:00:00||AKTİFBANK|10.40.24.150|||110000438458|553
26.10.2018 08:00:00||AKTİFBANK|10.40.25.128|||110000438458|70
26.10.2018 08:00:00||AKTİFBANK|10.40.25.128|||110000438458|90
26.10.2018 08:00:00||AKTİFBANK|10.40.25.128|||110000438458|92
26.10.2018 08:00:00||AKTİFBANK|10.40.25.128|||110000438458|40
26.10.2018 08:00:00||AKTİFBANK|10.40.25.128|||110000438458|57
26.10.2018 08:00:00||AKTİFBANK|10.40.25.129|||110000438458|80
26.10.2018 08:00:00||AKTİFBANK|10.40.25.129|||110000438458|68
26.10.2018 08:00:00||AKTİFBANK|10.40.25.129|||110000438458|140
26.10.2018 08:00:00||AKTİFBANK|10.40.25.129|||110000438458|102
26.10.2018 08:00:00||AKTİFBANK|10.40.25.129|||110000438458|45
26.10.2018 08:00:00||AKTİFBANK|10.40.25.129|||110000438458|95
26.10.2018 08:00:00||AKTİFBANK|10.40.25.129|||110000438458|93
26.10.2018 08:00:00||AKTİFBANK|10.40.25.130|||110000438458|70
26.10.2018 08:00:00||AKTİFBANK|10.40.25.130|||110000438458|50
26.10.2018 08:00:00||AKTİFBANK|10.40.25.130|||110000438458|80
26.10.2018 08:00:00||AKTİFBANK|10.40.25.130|||110000438458|40
26.10.2018 08:00:00||AKTİFBANK|10.40.25.130|||110000438458|60
26.10.2018 08:00:00||AKTİFBANK|10.40.25.130|||110000438458|100
26.10.2018 08:00:00||AKTİFBANK|10.40.25.130|||110000438458|90
26.10.2018 08:00:00||AKTİFBANK|10.40.25.131|||110000438458|20
26.10.2018 08:00:00||AKTİFBANK|10.40.25.131|||110000438458|73
26.10.2018 08:00:00||AKTİFBANK|10.40.25.131|||110000438458|100
26.10.2018 08:00:00||AKTİFBANK|10.40.25.131|||110000438458|103
26.10.2018 08:00:00||AKTİFBANK|10.40.25.131|||110000438458|82
26.10.2018 08:00:00||AKTİFBANK|10.40.25.131|||110000438458|80
26.10.2018 08:00:00||AKTİFBANK|10.40.25.131|||110000438458|20
26.10.2018 08:00:00||AKTİFBANK|10.40.25.131|||110000438458|117
26.10.2018 08:00:00||AKTİFBANK|10.40.25.132|||110000438458|60
26.10.2018 08:00:00||AKTİFBANK|10.40.25.132|||110000438458|67
26.10.2018 08:00:00||AKTİFBANK|10.40.25.132|||110000438458|83
26.10.2018 08:00:00||AKTİFBANK|10.40.25.132|||110000438458|162
26.10.2018 08:00:00||AKTİFBANK|10.40.25.132|||110000438458|60
26.10.2018 08:00:00||AKTİFBANK|10.40.25.143|||110000438458|313
26.10.2018 08:00:00||AKTİFBANK|10.40.25.144|||110000438458|80
26.10.2018 08:00:00||AKTİFBANK|10.40.25.144|||110000438458|50
26.10.2018 08:00:00||AKTİFBANK|10.40.25.144|||110000438458|20
26.10.2018 08:00:00||AKTİFBANK|10.40.25.154|||110000438458|10
26.10.2018 08:00:00||AKTİFBANK|10.40.25.154|||110000438458|10
26.10.2018 08:00:00||AKTİFBANK|10.40.25.154|||110000438458|10
26.10.2018 08:00:00||AKTİFBANK|10.40.25.157|||110000438458|70
26.10.2018 08:00:00||AKTİFBANK|10.40.25.157|||110000438458|70
26.10.2018 08:00:00||AKTİFBANK|10.40.25.157|||110000438458|70
26.10.2018 08:00:00||AKTİFBANK|10.40.25.157|||110000438458|83
26.10.2018 08:00:00||AKTİFBANK|10.40.25.157|||110000438458|40
26.10.2018 08:00:00||AKTİFBANK|10.40.25.159|||110000438458|60
26.10.2018 08:00:00||AKTİFBANK|10.40.25.159|||110000438458|10
26.10.2018 08:00:00||AKTİFBANK|10.40.25.159|||110000438458|90
26.10.2018 08:00:00||AKTİFBANK|10.40.25.158|||110000438458|93
26.10.2018 08:00:00||AKTİFBANK|10.40.25.158|||110000438458|37
26.10.2018 08:00:00||AKTİFBANK|10.40.25.158|||110000438458|22
26.10.2018 08:00:00||AKTİFBANK|10.40.25.158|||110000438458|50
26.10.2018 08:00:00||AKTİFBANK|10.40.25.160|||110000438458|90
26.10.2018 08:00:00||AKTİFBANK|10.40.25.161|||110000438458|80
26.10.2018 08:00:00||AKTİFBANK|10.40.25.161|||110000438458|70
26.10.2018 08:00:00||AKTİFBANK|10.40.25.161|||110000438458|40
26.10.2018 08:00:00||AKTİFBANK|10.40.25.161|||110000438458|32
26.10.2018 08:00:00||AKTİFBANK|10.40.25.161|||110000438458|20
26.10.2018 08:00:00||AKTİFBANK|10.40.25.161|||110000438458|55
26.10.2018 08:00:00||AKTİFBANK|10.40.25.145|||110000438458|90
26.10.2018 08:00:00||AKTİFBANK|10.40.25.145|||110000438458|60
26.10.2018 08:00:00||AKTİFBANK|10.40.25.145|||110000438458|60
26.10.2018 08:00:00||AKTİFBANK|10.40.25.145|||110000438458|30
26.10.2018 08:00:00||AKTİFBANK|10.40.25.145|||110000438458|50
26.10.2018 08:00:00||AKTİFBANK|10.40.25.147|||110000438458|90
26.10.2018 08:00:00||AKTİFBANK|10.40.25.162|||110000438458|30
26.10.2018 08:00:00||AKTİFBANK|10.40.25.162|||110000438458|30
26.10.2018 08:00:00||AKTİFBANK|10.40.25.162|||110000438458|60
26.10.2018 08:00:00||AKTİFBANK|10.40.25.164|||110000438458|60
26.10.2018 08:00:00||AKTİFBANK|10.40.25.164|||110000438458|280
26.10.2018 08:00:00||AKTİFBANK|10.40.25.164|||110000438458|50
26.10.2018 08:00:00||AKTİFBANK|10.40.25.164|||110000438458|260
26.10.2018 08:00:00||AKTİFBANK|10.40.25.164|||110000438458|270
26.10.2018 08:00:00||AKTİFBANK|10.40.25.165|||110000438458|110
26.10.2018 08:00:00||AKTİFBANK|10.40.25.165|||110000438458|70
26.10.2018 08:00:00||AKTİFBANK|10.40.25.165|||110000438458|80
26.10.2018 08:00:00||AKTİFBANK|10.40.25.165|||110000438458|105
26.10.2018 08:00:00||AKTİFBANK|10.40.25.166|||110000438458|90
26.10.2018 08:00:00||AKTİFBANK|10.40.25.166|||110000438458|10
26.10.2018 08:00:00||AKTİFBANK|10.40.25.166|||110000438458|10
26.10.2018 08:00:00||AKTİFBANK|10.40.25.166|||110000438458|40
26.10.2018 08:00:00||AKTİFBANK|10.40.25.148|||110000438458|130
26.10.2018 08:00:00||AKTİFBANK|10.40.25.148|||110000438458|50
26.10.2018 08:00:00||AKTİFBANK|10.40.25.148|||110000438458|100
26.10.2018 08:00:00||AKTİFBANK|10.40.25.148|||110000438458|130
26.10.2018 08:00:00||AKTİFBANK|10.40.25.148|||110000438458|90
26.10.2018 08:00:00||AKTİFBANK|10.40.25.148|||110000438458|80
26.10.2018 08:00:00||AKTİFBANK|10.40.25.148|||110000438458|70
26.10.2018 08:00:00||AKTİFBANK|10.40.25.148|||110000438458|50
26.10.2018 08:00:00||AKTİFBANK|10.40.25.148|||110000438458|80
26.10.2018 08:00:00||AKTİFBANK|10.40.25.148|||110000438458|40
26.10.2018 08:00:00||AKTİFBANK|10.40.25.148|||110000438458|100
26.10.2018 08:00:00||AKTİFBANK|10.40.25.148|||110000438458|60
26.10.2018 08:00:00||AKTİFBANK|10.40.25.155|||110000438458|70
26.10.2018 08:00:00||AKTİFBANK|10.40.25.155|||110000438458|90
26.10.2018 08:00:00||AKTİFBANK|10.40.25.155|||110000438458|110
26.10.2018 08:00:00||AKTİFBANK|10.40.25.155|||110000438458|120
26.10.2018 08:00:00||AKTİFBANK|10.40.25.155|||110000438458|110
26.10.2018 08:00:00||AKTİFBANK|10.40.25.156|||110000438458|20
26.10.2018 08:00:00||AKTİFBANK|10.40.25.156|||110000438458|28
26.10.2018 08:00:00||AKTİFBANK|10.40.25.139|||110000438458|70
26.10.2018 08:00:00||AKTİFBANK|10.40.25.139|||110000438458|80
26.10.2018 08:00:00||AKTİFBANK|10.40.25.150|||110000438458|507
26.10.2018 08:00:00||AKTİFBANK|10.40.25.129|||110000438458|60
26.10.2018 08:00:00||AKTİFBANK|10.40.25.129|||110000438458|88
26.10.2018 08:00:00||AKTİFBANK|10.40.25.129|||110000438458|140
26.10.2018 08:00:00||AKTİFBANK|10.40.25.130|||110000438458|70
26.10.2018 08:00:00||AKTİFBANK|10.40.25.130|||110000438458|130
26.10.2018 08:00:00||AKTİFBANK|10.40.25.130|||110000438458|100
26.10.2018 08:00:00||AKTİFBANK|10.40.25.131|||110000438458|50
26.10.2018 08:00:00||AKTİFBANK|10.40.25.143|||110000438458|60
26.10.2018 08:00:00||AKTİFBANK|10.40.25.143|||110000438458|243
26.10.2018 08:00:00||AKTİFBANK|10.40.25.143|||110000438458|263
26.10.2018 08:00:00||AKTİFBANK|10.40.25.158|||110000438458|103
26.10.2018 08:00:00||AKTİFBANK|10.40.25.160|||110000438458|110
26.10.2018 08:00:00||AKTİFBANK|10.40.25.162|||110000438458|30
26.10.2018 08:00:00||AKTİFBANK|10.40.25.162|||110000438458|42
26.10.2018 08:00:00||AKTİFBANK|10.40.24.140|||110000438458|160
26.10.2018 08:00:00||AKTİFBANK|10.40.24.140|||110000438458|80
26.10.2018 08:00:00||AKTİFBANK|10.40.24.140|||110000438458|40
26.10.2018 08:00:00||AKTİFBANK|10.40.24.140|||110000438458|30
26.10.2018 08:00:00||AKTİFBANK|10.40.24.140|||110000438458|30
26.10.2018 08:00:00||AKTİFBANK|10.40.24.140|||110000438458|27
26.10.2018 08:00:00||AKTİFBANK|10.40.24.149|||110000438458|80
26.10.2018 08:00:00||AKTİFBANK|10.40.24.149|||110000438458|120
26.10.2018 08:00:00||AKTİFBANK|10.40.24.149|||110000438458|90
26.10.2018 08:00:00||AKTİFBANK|10.40.24.149|||110000438458|65
26.10.2018 08:00:00||AKTİFBANK|10.40.24.149|||110000438458|53
26.10.2018 08:00:00||AKTİFBANK|10.40.24.149|||110000438458|140
26.10.2018 08:00:00||AKTİFBANK|10.40.24.149|||110000438458|90
26.10.2018 08:00:00||AKTİFBANK|10.40.24.149|||110000438458|90
26.10.2018 08:00:00||AKTİFBANK|10.40.24.149|||110000438458|98
26.10.2018 08:00:00||AKTİFBANK|10.40.24.149|||110000438458|80
26.10.2018 08:00:00||AKTİFBANK|10.40.24.133|||110000438458|275
26.10.2018 08:00:00||AKTİFBANK|10.40.24.133|||110000438458|145
26.10.2018 08:00:00||AKTİFBANK|10.40.24.133|||110000438458|122
26.10.2018 08:00:00||AKTİFBANK|10.40.24.133|||110000438458|85
26.10.2018 08:00:00||AKTİFBANK|10.40.24.138|||110000438458|112
26.10.2018 08:00:00||AKTİFBANK|10.40.24.138|||110000438458|137
26.10.2018 08:00:00||AKTİFBANK|10.40.24.138|||110000438458|112
26.10.2018 08:00:00||AKTİFBANK|10.40.24.138|||110000438458|30
26.10.2018 08:00:00||AKTİFBANK|10.40.24.138|||110000438458|50
26.10.2018 08:00:00||AKTİFBANK|10.40.24.139|||110000438458|160
26.10.2018 08:00:00||AKTİFBANK|10.40.24.139|||110000438458|90
26.10.2018 08:00:00||AKTİFBANK|10.40.24.139|||110000438458|120
26.10.2018 08:00:00||AKTİFBANK|10.40.24.141|||110000438458|200
26.10.2018 08:00:00||AKTİFBANK|10.40.24.141|||110000438458|103
26.10.2018 08:00:00||AKTİFBANK|10.40.24.141|||110000438458|100
26.10.2018 08:00:00||AKTİFBANK|10.40.24.141|||110000438458|68
26.10.2018 08:00:00||AKTİFBANK|10.40.24.141|||110000438458|80
26.10.2018 08:00:00||AKTİFBANK|10.40.25.152|||110000438458|110
26.10.2018 08:00:00||AKTİFBANK|10.40.25.152|||110000438458|50
26.10.2018 08:00:00||AKTİFBANK|10.40.25.152|||110000438458|140
26.10.2018 08:00:00||AKTİFBANK|10.40.25.152|||110000438458|70
26.10.2018 08:00:00||AKTİFBANK|10.40.25.152|||110000438458|90
26.10.2018 08:00:00||AKTİFBANK|10.40.25.152|||110000438458|160
26.10.2018 08:00:00||AKTİFBANK|10.40.25.152|||110000438458|50
26.10.2018 08:00:00||AKTİFBANK|10.40.25.152|||110000438458|90
26.10.2018 08:00:00||AKTİFBANK|10.40.25.152|||110000438458|30
26.10.2018 08:00:00||AKTİFBANK|10.40.25.152|||110000438458|80
26.10.2018 08:00:00||AKTİFBANK|10.40.25.152|||110000438458|30
26.10.2018 08:00:00||AKTİFBANK|10.40.24.150|||110000438458|558
26.10.2018 08:00:00||AKTİFBANK|10.40.24.151|||110000438458|512
26.10.2018 08:00:00||AKTİFBANK|10.40.24.151|||110000438458|525
26.10.2018 08:00:00||AKTİFBANK|10.40.24.128|||110000438458|60
26.10.2018 08:00:00||AKTİFBANK|10.40.24.128|||110000438458|70
26.10.2018 08:00:00||AKTİFBANK|10.40.24.128|||110000438458|97
26.10.2018 08:00:00||AKTİFBANK|10.40.24.128|||110000438458|40
26.10.2018 08:00:00||AKTİFBANK|10.40.24.128|||110000438458|70
26.10.2018 08:00:00||AKTİFBANK|10.40.24.128|||110000438458|60
26.10.2018 08:00:00||AKTİFBANK|10.40.24.129|||110000438458|100
26.10.2018 08:00:00||AKTİFBANK|10.40.24.129|||110000438458|70
26.10.2018 08:00:00||AKTİFBANK|10.40.24.129|||110000438458|110
26.10.2018 08:00:00||AKTİFBANK|10.40.24.129|||110000438458|120
26.10.2018 08:00:00||AKTİFBANK|10.40.24.129|||110000438458|40
26.10.2018 08:00:00||AKTİFBANK|10.40.24.129|||110000438458|70
26.10.2018 08:00:00||AKTİFBANK|10.40.24.129|||110000438458|70
26.10.2018 08:00:00||AKTİFBANK|10.40.24.129|||110000438458|90
26.10.2018 08:00:00||AKTİFBANK|10.40.24.129|||110000438458|80
26.10.2018 08:00:00||AKTİFBANK|10.40.24.129|||110000438458|140
26.10.2018 08:00:00||AKTİFBANK|10.40.24.130|||110000438458|45
26.10.2018 08:00:00||AKTİFBANK|10.40.24.130|||110000438458|40
26.10.2018 08:00:00||AKTİFBANK|10.40.24.130|||110000438458|63
26.10.2018 08:00:00||AKTİFBANK|10.40.24.130|||110000438458|40
26.10.2018 08:00:00||AKTİFBANK|10.40.24.130|||110000438458|60
26.10.2018 08:00:00||AKTİFBANK|10.40.24.130|||110000438458|73
26.10.2018 08:00:00||AKTİFBANK|10.40.24.130|||110000438458|83
26.10.2018 08:00:00||AKTİFBANK|10.40.24.130|||110000438458|38
26.10.2018 08:00:00||AKTİFBANK|10.40.24.130|||110000438458|130
26.10.2018 08:00:00||AKTİFBANK|10.40.24.130|||110000438458|110
26.10.2018 08:00:00||AKTİFBANK|10.40.24.131|||110000438458|85
26.10.2018 08:00:00||AKTİFBANK|10.40.24.131|||110000438458|90
26.10.2018 08:00:00||AKTİFBANK|10.40.24.131|||110000438458|110
26.10.2018 08:00:00||AKTİFBANK|10.40.24.131|||110000438458|107
26.10.2018 08:00:00||AKTİFBANK|10.40.24.131|||110000438458|27
26.10.2018 08:00:00||AKTİFBANK|10.40.24.131|||110000438458|160
26.10.2018 08:00:00||AKTİFBANK|10.40.24.131|||110000438458|60
26.10.2018 08:00:00||AKTİFBANK|10.40.24.131|||110000438458|110
26.10.2018 08:00:00||AKTİFBANK|10.40.24.132|||110000438458|30
26.10.2018 08:00:00||AKTİFBANK|10.40.24.132|||110000438458|78
26.10.2018 08:00:00||AKTİFBANK|10.40.24.132|||110000438458|55
26.10.2018 08:00:00||AKTİFBANK|10.40.24.132|||110000438458|188
26.10.2018 08:00:00||AKTİFBANK|10.40.24.132|||110000438458|67
26.10.2018 08:00:00||AKTİFBANK|10.40.24.143|||110000438458|68
26.10.2018 08:00:00||AKTİFBANK|10.40.24.143|||110000438458|268
26.10.2018 08:00:00||AKTİFBANK|10.40.24.143|||110000438458|297
26.10.2018 08:00:00||AKTİFBANK|10.40.24.143|||110000438458|215
26.10.2018 08:00:00||AKTİFBANK|10.40.24.144|||110000438458|70
26.10.2018 08:00:00||AKTİFBANK|10.40.24.144|||110000438458|110
26.10.2018 08:00:00||AKTİFBANK|10.40.24.144|||110000438458|132
26.10.2018 08:00:00||AKTİFBANK|10.40.24.148|||110000438458|70
26.10.2018 08:00:00||AKTİFBANK|10.40.24.148|||110000438458|170
26.10.2018 08:00:00||AKTİFBANK|10.40.24.148|||110000438458|90
26.10.2018 08:00:00||AKTİFBANK|10.40.24.148|||110000438458|110
26.10.2018 08:00:00||AKTİFBANK|10.40.24.148|||110000438458|80
26.10.2018 08:00:00||AKTİFBANK|10.40.24.148|||110000438458|90
26.10.2018 08:00:00||AKTİFBANK|10.40.24.148|||110000438458|90
26.10.2018 08:00:00||AKTİFBANK|10.40.24.148|||110000438458|100
26.10.2018 08:00:00||AKTİFBANK|10.40.24.148|||110000438458|90
26.10.2018 08:00:00||AKTİFBANK|10.40.24.148|||110000438458|60
26.10.2018 08:00:00||AKTİFBANK|10.40.24.148|||110000438458|30
26.10.2018 08:00:00||AKTİFBANK|10.40.24.148|||110000438458|80
26.10.2018 08:00:00||AKTİFBANK|10.40.24.153|||110000438458|10
26.10.2018 08:00:00||AKTİFBANK|10.40.24.153|||110000438458|90
26.10.2018 08:00:00||AKTİFBANK|10.40.24.153|||110000438458|70
26.10.2018 08:00:00||AKTİFBANK|10.40.24.153|||110000438458|85
26.10.2018 08:00:00||AKTİFBANK|10.40.24.157|||110000438458|30
26.10.2018 08:00:00||AKTİFBANK|10.40.24.157|||110000438458|70
26.10.2018 08:00:00||AKTİFBANK|10.40.24.157|||110000438458|70
26.10.2018 08:00:00||AKTİFBANK|10.40.24.157|||110000438458|40
26.10.2018 08:00:00||AKTİFBANK|10.40.24.157|||110000438458|80
26.10.2018 08:00:00||AKTİFBANK|10.40.24.157|||110000438458|40
26.10.2018 08:00:00||AKTİFBANK|10.40.24.158|||110000438458|80
26.10.2018 08:00:00||AKTİFBANK|10.40.24.158|||110000438458|110
26.10.2018 08:00:00||AKTİFBANK|10.40.24.159|||110000438458|132
26.10.2018 08:00:00||AKTİFBANK|10.40.24.159|||110000438458|53
26.10.2018 08:00:00||AKTİFBANK|10.40.24.159|||110000438458|183
26.10.2018 08:00:00||AKTİFBANK|10.40.24.160|||110000438458|50
26.10.2018 08:00:00||AKTİFBANK|10.40.24.160|||110000438458|92
26.10.2018 08:00:00||AKTİFBANK|10.40.24.160|||110000438458|102
26.10.2018 08:00:00||AKTİFBANK|10.40.24.161|||110000438458|202
26.10.2018 08:00:00||AKTİFBANK|10.40.24.161|||110000438458|80
26.10.2018 08:00:00||AKTİFBANK|10.40.24.161|||110000438458|40
26.10.2018 08:00:00||AKTİFBANK|10.40.24.161|||110000438458|30
26.10.2018 08:00:00||AKTİFBANK|10.40.24.161|||110000438458|30
26.10.2018 08:00:00||AKTİFBANK|10.40.24.161|||110000438458|20
26.10.2018 08:00:00||AKTİFBANK|10.40.24.161|||110000438458|90
26.10.2018 08:00:00||AKTİFBANK|10.40.24.145|||110000438458|30
26.10.2018 08:00:00||AKTİFBANK|10.40.24.145|||110000438458|70
26.10.2018 08:00:00||AKTİFBANK|10.40.24.145|||110000438458|50
26.10.2018 08:00:00||AKTİFBANK|10.40.24.147|||110000438458|90
26.10.2018 08:00:00||AKTİFBANK|10.40.24.162|||110000438458|40
26.10.2018 08:00:00||AKTİFBANK|10.40.24.162|||110000438458|40
26.10.2018 08:00:00||AKTİFBANK|10.40.24.162|||110000438458|120
26.10.2018 08:00:00||AKTİFBANK|10.40.24.162|||110000438458|10
26.10.2018 08:00:00||AKTİFBANK|10.40.24.162|||110000438458|47
26.10.2018 08:00:00||AKTİFBANK|10.40.24.163|||110000438458|30
26.10.2018 08:00:00||AKTİFBANK|10.40.24.163|||110000438458|70
26.10.2018 08:00:00||AKTİFBANK|10.40.24.164|||110000438458|55
26.10.2018 08:00:00||AKTİFBANK|10.40.24.164|||110000438458|332
26.10.2018 08:00:00||AKTİFBANK|10.40.24.164|||110000438458|210
26.10.2018 08:00:00||AKTİFBANK|10.40.24.165|||110000438458|73
26.10.2018 08:00:00||AKTİFBANK|10.40.24.165|||110000438458|80
26.10.2018 08:00:00||AKTİFBANK|10.40.24.165|||110000438458|50
26.10.2018 08:00:00||AKTİFBANK|10.40.24.165|||110000438458|120
26.10.2018 08:00:00||AKTİFBANK|10.40.24.166|||110000438458|80
26.10.2018 08:00:00||AKTİFBANK|10.40.24.166|||110000438458|90
26.10.2018 08:00:00||AKTİFBANK|10.40.24.166|||110000438458|10
26.10.2018 08:00:00||AKTİFBANK|10.40.25.168|||110000438458|90
26.10.2018 08:00:00||AKTİFBANK|10.40.25.168|||110000438458|70
26.10.2018 08:00:00||AKTİFBANK|10.40.25.168|||110000438458|50
26.10.2018 08:00:00||AKTİFBANK|10.40.25.168|||110000438458|40
26.10.2018 08:00:00||AKTİFBANK|10.40.25.168|||110000438458|60
26.10.2018 08:00:00||AKTİFBANK|10.40.24.168|||110000438458|90
26.10.2018 08:00:00||AKTİFBANK|10.40.24.168|||110000438458|80
26.10.2018 08:00:00||AKTİFBANK|10.40.24.168|||110000438458|70
26.10.2018 08:00:00||AKTİFBANK|10.40.24.168|||110000438458|70
26.10.2018 08:00:00||AKTİFBANK|10.40.24.168|||110000438458|30
26.10.2018 08:00:00||AKTİFBANK|10.40.24.154|||110000438458|70
26.10.2018 08:00:00||AKTİFBANK|10.40.24.154|||110000438458|20
26.10.2018 08:00:00||AKTİFBANK|10.40.24.154|||110000438458|10
26.10.2018 08:00:00||AKTİFBANK|10.40.24.154|||110000438458|10
26.10.2018 08:00:00||AKTİFBANK|10.40.24.154|||110000438458|10
26.10.2018 08:00:00||AKTİFBANK|10.40.24.154|||110000438458|10
26.10.2018 08:00:00||AKTİFBANK|10.40.24.155|||110000438458|60
26.10.2018 08:00:00||AKTİFBANK|10.40.24.155|||110000438458|102
26.10.2018 08:00:00||AKTİFBANK|10.40.24.155|||110000438458|130
26.10.2018 08:00:00||AKTİFBANK|10.40.24.155|||110000438458|80
26.10.2018 08:00:00||AKTİFBANK|10.40.24.155|||110000438458|110
26.10.2018 08:00:00||AKTİFBANK|10.40.24.155|||110000438458|102
26.10.2018 08:00:00||AKTİFBANK|10.40.25.169|||110000438458|93
26.10.2018 08:00:00||AKTİFBANK|10.40.25.169|||110000438458|97
26.10.2018 08:00:00||AKTİFBANK|10.40.25.169|||110000438458|70
26.10.2018 08:00:00||AKTİFBANK|10.40.25.169|||110000438458|72
26.10.2018 08:00:00||AKTİFBANK|10.40.24.169|||110000438458|80
26.10.2018 08:00:00||AKTİFBANK|10.40.24.169|||110000438458|90
26.10.2018 08:00:00||AKTİFBANK|10.40.24.169|||110000438458|85
26.10.2018 08:00:00||AKTİFBANK|10.40.24.169|||110000438458|80
26.10.2018 08:00:00||AKTİFBANK|10.40.25.170|||110000438458|30
26.10.2018 08:00:00||AKTİFBANK|10.40.25.170|||110000438458|30
26.10.2018 08:00:00||AKTİFBANK|10.40.25.170|||110000438458|200
26.10.2018 08:00:00||AKTİFBANK|10.40.25.170|||110000438458|100
26.10.2018 08:00:00||AKTİFBANK|10.40.25.170|||110000438458|80
26.10.2018 08:00:00||AKTİFBANK|10.40.25.170|||110000438458|120
26.10.2018 08:00:00||AKTİFBANK|10.40.24.170|||110000438458|60
26.10.2018 08:00:00||AKTİFBANK|10.40.24.170|||110000438458|60
26.10.2018 08:00:00||AKTİFBANK|10.40.24.170|||110000438458|320
26.10.2018 08:00:00||AKTİFBANK|10.40.24.170|||110000438458|235
26.10.2018 08:00:00||AKTİFBANK|10.40.24.170|||110000438458|75
26.10.2018 08:00:00||AKTİFBANK|10.40.24.170|||110000438458|102
26.10.2018 08:00:00||AKTİFBANK|10.40.24.170|||110000438458|72
26.10.2018 08:00:00||AKTİFBANK|10.40.25.178|||110000438458|590
26.10.2018 08:00:00||AKTİFBANK|10.40.25.178|||110000438458|560
26.10.2018 08:00:00||AKTİFBANK|10.40.25.178|||110000438458|550
26.10.2018 08:00:00||AKTİFBANK|10.40.24.178|||110000438458|565
26.10.2018 08:00:00||AKTİFBANK|10.40.24.178|||110000438458|552
26.10.2018 08:00:00||AKTİFBANK|10.40.24.178|||110000438458|547
26.10.2018 08:00:00||AKTİFBANK|10.40.25.179|||110000438458|395
26.10.2018 08:00:00||AKTİFBANK|10.40.25.179|||110000438458|365
26.10.2018 08:00:00||AKTİFBANK|10.40.25.179|||110000438458|370
26.10.2018 08:00:00||AKTİFBANK|10.40.24.179|||110000438458|320
26.10.2018 08:00:00||AKTİFBANK|10.40.24.179|||110000438458|330
26.10.2018 08:00:00||AKTİFBANK|10.40.24.179|||110000438458|320
26.10.2018 08:00:00||AKTİFBANK|10.40.24.142|||110000438458|40
26.10.2018 08:00:00||AKTİFBANK|10.40.24.156|||110000438458|50
26.10.2018 08:00:00||AKTİFBANK|10.40.24.156|||110000438458|50
26.10.2018 08:00:00||AKTİFBANK|10.40.25.186|||110000438458|90
26.10.2018 08:00:00||AKTİFBANK|10.40.25.186|||110000438458|20
26.10.2018 08:00:00||AKTİFBANK|10.40.25.186|||110000438458|70
26.10.2018 08:00:00||AKTİFBANK|10.40.24.186|||110000438458|90
26.10.2018 08:00:00||AKTİFBANK|10.40.24.186|||110000438458|30
26.10.2018 08:00:00||AKTİFBANK|10.40.24.186|||110000438458|60
26.10.2018 08:00:00||AKTİFBANK|10.40.24.186|||110000438458|40
26.10.2018 08:00:00||AKTİFBANK|10.40.24.152|||110000438458|10
26.10.2018 08:00:00||AKTİFBANK|10.40.24.152|||110000438458|50
26.10.2018 08:00:00||AKTİFBANK|10.40.24.152|||110000438458|94
26.10.2018 08:00:00||AKTİFBANK|10.40.24.152|||110000438458|98
26.10.2018 08:00:00||AKTİFBANK|10.40.24.152|||110000438458|100
26.10.2018 08:00:00||AKTİFBANK|10.40.24.152|||110000438458|100
26.10.2018 08:00:00||AKTİFBANK|10.40.24.152|||110000438458|230
26.10.2018 08:00:00||AKTİFBANK|10.40.24.152|||110000438458|72
26.10.2018 08:00:00||AKTİFBANK|10.40.24.152|||110000438458|90
26.10.2018 08:00:00||AKTİFBANK|10.40.24.152|||110000438458|30
26.10.2018 08:00:00||AKTİFBANK|10.40.24.152|||110000438458|70
26.10.2018 08:00:00||AKTİFBANK|10.40.24.152|||110000438458|30
26.10.2018 08:00:00||BARİKAT İNTERNET GÜVENLİĞİ|10.40.25.201|||110000479736|120
26.10.2018 08:00:00||BARİKAT İNTERNET GÜVENLİĞİ|10.40.25.201|||110000479736|100
26.10.2018 08:00:00||BARİKAT İNTERNET GÜVENLİĞİ|10.40.24.201|||110000479736|140
26.10.2018 08:00:00||BARİKAT İNTERNET GÜVENLİĞİ|10.40.24.201|||110000479736|100
26.10.2018 08:00:00||BOYNER|10.40.26.100|||101367941673|56
26.10.2018 08:00:00||BOYNER|10.40.26.101|||101367941673|166
26.10.2018 08:00:00||BOYNER|10.40.27.100|||101367941673|52
26.10.2018 08:00:00||BOYNER|10.40.27.101|||101367941673|165
26.10.2018 08:00:00||BOYNER|10.40.27.94|||101367941673|210
26.10.2018 08:00:00||BOYNER|10.40.27.94|||101367941673|90
26.10.2018 08:00:00||BOYNER|10.40.27.94|||101367941673|90
26.10.2018 08:00:00||BOYNER|10.40.27.94|||101367941673|100
26.10.2018 08:00:00||BOYNER|10.40.26.94|||101367941673|90
26.10.2018 08:00:00||BOYNER|10.40.26.94|||101367941673|80
26.10.2018 08:00:00||BOYNER|10.40.26.94|||101367941673|80
26.10.2018 08:00:00||BOYNER|10.40.27.95|||101367941673|136
26.10.2018 08:00:00||BOYNER|10.40.27.95|||101367941673|126
26.10.2018 08:00:00||BOYNER|10.40.27.95|||101367941673|232
26.10.2018 08:00:00||BOYNER|10.40.26.95|||101367941673|140
26.10.2018 08:00:00||BOYNER|10.40.26.95|||101367941673|198
26.10.2018 08:00:00||BOYNER|10.40.26.95|||101367941673|138
26.10.2018 08:00:00||BOYNER|10.40.27.96|||101367941673|60
26.10.2018 08:00:00||BOYNER|10.40.27.96|||101367941673|50
26.10.2018 08:00:00||BOYNER|10.40.27.96|||101367941673|50
26.10.2018 08:00:00||BOYNER|10.40.27.96|||101367941673|40
26.10.2018 08:00:00||BOYNER|10.40.27.96|||101367941673|32
26.10.2018 08:00:00||BOYNER|10.40.27.96|||101367941673|144
26.10.2018 08:00:00||BOYNER|10.40.27.96|||101367941673|150
26.10.2018 08:00:00||BOYNER|10.40.27.96|||101367941673|172
26.10.2018 08:00:00||BOYNER|10.40.27.96|||101367941673|166
26.10.2018 08:00:00||BOYNER|10.40.26.96|||101367941673|30
26.10.2018 08:00:00||BOYNER|10.40.26.96|||101367941673|40
26.10.2018 08:00:00||BOYNER|10.40.26.96|||101367941673|30
26.10.2018 08:00:00||BOYNER|10.40.26.96|||101367941673|40
26.10.2018 08:00:00||BOYNER|10.40.26.96|||101367941673|42
26.10.2018 08:00:00||BOYNER|10.40.26.96|||101367941673|50
26.10.2018 08:00:00||BOYNER|10.40.26.96|||101367941673|186
26.10.2018 08:00:00||BOYNER|10.40.26.96|||101367941673|194
26.10.2018 08:00:00||BOYNER|10.40.26.96|||101367941673|162
26.10.2018 08:00:00||BOYNER|10.40.26.96|||101367941673|176
26.10.2018 08:00:00||BOYNER|10.40.27.97|||101367941673|60
26.10.2018 08:00:00||BOYNER|10.40.27.97|||101367941673|648
26.10.2018 08:00:00||BOYNER|10.40.27.97|||101367941673|650
26.10.2018 08:00:00||BOYNER|10.40.27.97|||101367941673|686
26.10.2018 08:00:00||BOYNER|10.40.27.97|||101367941673|40
26.10.2018 08:00:00||BOYNER|10.40.27.97|||101367941673|30
26.10.2018 08:00:00||BOYNER|10.40.27.97|||101367941673|50
26.10.2018 08:00:00||BOYNER|10.40.27.97|||101367941673|30
26.10.2018 08:00:00||BOYNER|10.40.27.97|||101367941673|168
26.10.2018 08:00:00||BOYNER|10.40.27.97|||101367941673|172
26.10.2018 08:00:00||BOYNER|10.40.27.97|||101367941673|180
26.10.2018 08:00:00||BOYNER|10.40.27.97|||101367941673|188
26.10.2018 08:00:00||BOYNER|10.40.26.97|||101367941673|30
26.10.2018 08:00:00||BOYNER|10.40.26.97|||101367941673|646
26.10.2018 08:00:00||BOYNER|10.40.26.97|||101367941673|640
26.10.2018 08:00:00||BOYNER|10.40.26.97|||101367941673|652
26.10.2018 08:00:00||BOYNER|10.40.26.97|||101367941673|30
26.10.2018 08:00:00||BOYNER|10.40.26.97|||101367941673|40
26.10.2018 08:00:00||BOYNER|10.40.26.97|||101367941673|50
26.10.2018 08:00:00||BOYNER|10.40.26.97|||101367941673|60
26.10.2018 08:00:00||BOYNER|10.40.26.97|||101367941673|30
26.10.2018 08:00:00||BOYNER|10.40.26.97|||101367941673|156
26.10.2018 08:00:00||BOYNER|10.40.26.97|||101367941673|172
26.10.2018 08:00:00||BOYNER|10.40.26.97|||101367941673|166
26.10.2018 08:00:00||BOYNER|10.40.26.97|||101367941673|152
26.10.2018 08:00:00||BOYNER|10.40.27.99|||101367941673|134
26.10.2018 08:00:00||BOYNER|10.40.27.99|||101367941673|94
26.10.2018 08:00:00||BOYNER|10.40.27.99|||101367941673|78
26.10.2018 08:00:00||BOYNER|10.40.26.99|||101367941673|14
26.10.2018 08:00:00||BOYNER|10.40.26.99|||101367941673|110
26.10.2018 08:00:00||BOYNER|10.40.26.99|||101367941673|118
26.10.2018 08:00:00||BOYNER|10.40.26.99|||101367941673|74
26.10.2018 08:00:00||ÇALIK HOLDİNG|10.40.24.118|||110000438407|43
26.10.2018 08:00:00||ÇALIK HOLDİNG|10.40.25.99|||110000438407|136
26.10.2018 08:00:00||ÇALIK HOLDİNG|10.40.25.118|||110000438407|159
26.10.2018 08:00:00||ÇALIK HOLDİNG|10.40.25.120|||110000438407|90
26.10.2018 08:00:00||ÇALIK HOLDİNG|10.40.24.95|||110000438407|50
26.10.2018 08:00:00||ÇALIK HOLDİNG|10.40.25.97|||110000438407|80
26.10.2018 08:00:00||ÇALIK HOLDİNG|10.40.25.103|||110000438407|90
26.10.2018 08:00:00||ÇALIK HOLDİNG|10.40.25.120|||110000438407|45
26.10.2018 08:00:00||ÇALIK HOLDİNG|10.40.25.96|||110000438407|70
26.10.2018 08:00:00||ÇALIK HOLDİNG|10.40.25.96|||110000438407|90
26.10.2018 08:00:00||ÇALIK HOLDİNG|10.40.25.96|||110000438407|120
26.10.2018 08:00:00||ÇALIK HOLDİNG|10.40.25.96|||110000438407|90
26.10.2018 08:00:00||ÇALIK HOLDİNG|10.40.25.115|||110000438407|160
26.10.2018 08:00:00||ÇALIK HOLDİNG|10.40.25.115|||110000438407|70
26.10.2018 08:00:00||ÇALIK HOLDİNG|10.40.25.95|||110000438407|90
26.10.2018 08:00:00||ÇALIK HOLDİNG|10.40.25.96|||110000438407|90
26.10.2018 08:00:00||ÇALIK HOLDİNG|10.40.25.96|||110000438407|100
26.10.2018 08:00:00||ÇALIK HOLDİNG|10.40.25.120|||110000438407|20
26.10.2018 08:00:00||ÇALIK HOLDİNG|10.40.25.95|||110000438407|53
26.10.2018 08:00:00||ÇALIK HOLDİNG|10.40.24.94|||110000438407|195
26.10.2018 08:00:00||ÇALIK HOLDİNG|10.40.25.97|||110000438407|100
26.10.2018 08:00:00||ÇALIK HOLDİNG|10.40.25.120|||110000438407|60
26.10.2018 08:00:00||ÇALIK HOLDİNG|10.40.25.115|||110000438407|80
26.10.2018 08:00:00||ÇALIK HOLDİNG|10.40.25.115|||110000438407|67
26.10.2018 08:00:00||ÇALIK HOLDİNG|10.40.25.115|||110000438407|62
26.10.2018 08:00:00||ÇALIK HOLDİNG|10.40.25.101|||110000438407|50
26.10.2018 08:00:00||ÇALIK HOLDİNG|10.40.25.101|||110000438407|110
26.10.2018 08:00:00||ÇALIK HOLDİNG|10.40.25.101|||110000438407|30
26.10.2018 08:00:00||ÇALIK HOLDİNG|10.40.25.101|||110000438407|10
26.10.2018 08:00:00||ÇALIK HOLDİNG|10.40.25.101|||110000438407|90
26.10.2018 08:00:00||ÇALIK HOLDİNG|10.40.25.101|||110000438407|30
26.10.2018 08:00:00||ÇALIK HOLDİNG|10.40.25.101|||110000438407|40
26.10.2018 08:00:00||ÇALIK HOLDİNG|10.40.25.101|||110000438407|40
26.10.2018 08:00:00||ÇALIK HOLDİNG|10.40.25.101|||110000438407|90
26.10.2018 08:00:00||ÇALIK HOLDİNG|10.40.25.101|||110000438407|90
26.10.2018 08:00:00||ÇALIK HOLDİNG|10.40.25.101|||110000438407|90
26.10.2018 08:00:00||ÇALIK HOLDİNG|10.40.25.94|||110000438407|180
26.10.2018 08:00:00||ÇALIK HOLDİNG|10.40.25.94|||110000438407|180
26.10.2018 08:00:00||ÇALIK HOLDİNG|10.40.25.94|||110000438407|170
26.10.2018 08:00:00||ÇALIK HOLDİNG|10.40.25.94|||110000438407|180
26.10.2018 08:00:00||ÇALIK HOLDİNG|10.40.24.94|||110000438407|202
26.10.2018 08:00:00||ÇALIK HOLDİNG|10.40.24.94|||110000438407|185
26.10.2018 08:00:00||ÇALIK HOLDİNG|10.40.24.94|||110000438407|188
26.10.2018 08:00:00||ÇALIK HOLDİNG|10.40.25.95|||110000438407|20
26.10.2018 08:00:00||ÇALIK HOLDİNG|10.40.25.95|||110000438407|348
26.10.2018 08:00:00||ÇALIK HOLDİNG|10.40.25.95|||110000438407|355
26.10.2018 08:00:00||ÇALIK HOLDİNG|10.40.25.95|||110000438407|40
26.10.2018 08:00:00||ÇALIK HOLDİNG|10.40.24.95|||110000438407|100
26.10.2018 08:00:00||ÇALIK HOLDİNG|10.40.24.95|||110000438407|93
26.10.2018 08:00:00||ÇALIK HOLDİNG|10.40.24.95|||110000438407|380
26.10.2018 08:00:00||ÇALIK HOLDİNG|10.40.24.95|||110000438407|387
26.10.2018 08:00:00||ÇALIK HOLDİNG|10.40.25.96|||110000438407|90
26.10.2018 08:00:00||ÇALIK HOLDİNG|10.40.25.96|||110000438407|95
26.10.2018 08:00:00||ÇALIK HOLDİNG|10.40.25.96|||110000438407|100
26.10.2018 08:00:00||ÇALIK HOLDİNG|10.40.25.96|||110000438407|257
26.10.2018 08:00:00||ÇALIK HOLDİNG|10.40.25.96|||110000438407|260
26.10.2018 08:00:00||ÇALIK HOLDİNG|10.40.25.96|||110000438407|100
26.10.2018 08:00:00||ÇALIK HOLDİNG|10.40.25.96|||110000438407|90
26.10.2018 08:00:00||ÇALIK HOLDİNG|10.40.25.96|||110000438407|93
26.10.2018 08:00:00||ÇALIK HOLDİNG|10.40.25.97|||110000438407|90
26.10.2018 08:00:00||ÇALIK HOLDİNG|10.40.25.97|||110000438407|80
26.10.2018 08:00:00||ÇALIK HOLDİNG|10.40.25.97|||110000438407|292
26.10.2018 08:00:00||ÇALIK HOLDİNG|10.40.25.98|||110000438407|50
26.10.2018 08:00:00||ÇALIK HOLDİNG|10.40.25.98|||110000438407|165
26.10.2018 08:00:00||ÇALIK HOLDİNG|10.40.25.98|||110000438407|160
26.10.2018 08:00:00||ÇALIK HOLDİNG|10.40.25.98|||110000438407|165
26.10.2018 08:00:00||ÇALIK HOLDİNG|10.40.25.98|||110000438407|170
26.10.2018 08:00:00||ÇALIK HOLDİNG|10.40.25.98|||110000438407|60
26.10.2018 08:00:00||ÇALIK HOLDİNG|10.40.25.98|||110000438407|210
26.10.2018 08:00:00||ÇALIK HOLDİNG|10.40.25.98|||110000438407|180
26.10.2018 08:00:00||ÇALIK HOLDİNG|10.40.25.98|||110000438407|170
26.10.2018 08:00:00||ÇALIK HOLDİNG|10.40.25.98|||110000438407|210
26.10.2018 08:00:00||ÇALIK HOLDİNG|10.40.25.98|||110000438407|70
26.10.2018 08:00:00||ÇALIK HOLDİNG|10.40.25.98|||110000438407|303
26.10.2018 08:00:00||ÇALIK HOLDİNG|10.40.24.98|||110000438407|90
26.10.2018 08:00:00||ÇALIK HOLDİNG|10.40.24.98|||110000438407|157
26.10.2018 08:00:00||ÇALIK HOLDİNG|10.40.24.98|||110000438407|200
26.10.2018 08:00:00||ÇALIK HOLDİNG|10.40.24.98|||110000438407|200
26.10.2018 08:00:00||ÇALIK HOLDİNG|10.40.24.98|||110000438407|160
26.10.2018 08:00:00||ÇALIK HOLDİNG|10.40.24.98|||110000438407|30
26.10.2018 08:00:00||ÇALIK HOLDİNG|10.40.24.98|||110000438407|165
26.10.2018 08:00:00||ÇALIK HOLDİNG|10.40.24.98|||110000438407|180
26.10.2018 08:00:00||ÇALIK HOLDİNG|10.40.24.98|||110000438407|170
26.10.2018 08:00:00||ÇALIK HOLDİNG|10.40.24.98|||110000438407|173
26.10.2018 08:00:00||ÇALIK HOLDİNG|10.40.24.98|||110000438407|20
26.10.2018 08:00:00||ÇALIK HOLDİNG|10.40.24.98|||110000438407|278
26.10.2018 08:00:00||ÇALIK HOLDİNG|10.40.25.100|||110000438407|35
26.10.2018 08:00:00||ÇALIK HOLDİNG|10.40.25.100|||110000438407|40
26.10.2018 08:00:00||ÇALIK HOLDİNG|10.40.24.101|||110000438407|60
26.10.2018 08:00:00||ÇALIK HOLDİNG|10.40.24.101|||110000438407|110
26.10.2018 08:00:00||ÇALIK HOLDİNG|10.40.24.101|||110000438407|20
26.10.2018 08:00:00||ÇALIK HOLDİNG|10.40.24.101|||110000438407|20
26.10.2018 08:00:00||ÇALIK HOLDİNG|10.40.24.101|||110000438407|45
26.10.2018 08:00:00||ÇALIK HOLDİNG|10.40.24.101|||110000438407|90
26.10.2018 08:00:00||ÇALIK HOLDİNG|10.40.24.101|||110000438407|30
26.10.2018 08:00:00||ÇALIK HOLDİNG|10.40.24.101|||110000438407|10
26.10.2018 08:00:00||ÇALIK HOLDİNG|10.40.24.101|||110000438407|20
26.10.2018 08:00:00||ÇALIK HOLDİNG|10.40.24.101|||110000438407|50
26.10.2018 08:00:00||ÇALIK HOLDİNG|10.40.24.101|||110000438407|30
26.10.2018 08:00:00||ÇALIK HOLDİNG|10.40.24.101|||110000438407|80
26.10.2018 08:00:00||ÇALIK HOLDİNG|10.40.24.101|||110000438407|80
26.10.2018 08:00:00||ÇALIK HOLDİNG|10.40.24.101|||110000438407|90
26.10.2018 08:00:00||ÇALIK HOLDİNG|10.40.25.102|||110000438407|100
26.10.2018 08:00:00||ÇALIK HOLDİNG|10.40.25.102|||110000438407|90
26.10.2018 08:00:00||ÇALIK HOLDİNG|10.40.25.102|||110000438407|150
26.10.2018 08:00:00||ÇALIK HOLDİNG|10.40.24.102|||110000438407|100
26.10.2018 08:00:00||ÇALIK HOLDİNG|10.40.24.102|||110000438407|90
26.10.2018 08:00:00||ÇALIK HOLDİNG|10.40.24.102|||110000438407|140
26.10.2018 08:00:00||ÇALIK HOLDİNG|10.40.25.103|||110000438407|90
26.10.2018 08:00:00||ÇALIK HOLDİNG|10.40.25.103|||110000438407|80
26.10.2018 08:00:00||ÇALIK HOLDİNG|10.40.25.103|||110000438407|10
26.10.2018 08:00:00||ÇALIK HOLDİNG|10.40.25.115|||110000438407|80
26.10.2018 08:00:00||ÇALIK HOLDİNG|10.40.24.103|||110000438407|97
26.10.2018 08:00:00||ÇALIK HOLDİNG|10.40.24.103|||110000438407|80
26.10.2018 08:00:00||ÇALIK HOLDİNG|10.40.24.103|||110000438407|80
26.10.2018 08:00:00||ÇALIK HOLDİNG|10.40.24.103|||110000438407|20
26.10.2018 08:00:00||ÇALIK HOLDİNG|10.40.24.103|||110000438407|10
26.10.2018 08:00:00||ÇALIK HOLDİNG|10.40.25.113|||110000438407|230
26.10.2018 08:00:00||ÇALIK HOLDİNG|10.40.25.113|||110000438407|238
26.10.2018 08:00:00||ÇALIK HOLDİNG|10.40.25.113|||110000438407|190
26.10.2018 08:00:00||ÇALIK HOLDİNG|10.40.25.113|||110000438407|210
26.10.2018 08:00:00||ÇALIK HOLDİNG|10.40.24.113|||110000438407|232
26.10.2018 08:00:00||ÇALIK HOLDİNG|10.40.24.113|||110000438407|233
26.10.2018 08:00:00||ÇALIK HOLDİNG|10.40.24.113|||110000438407|190
26.10.2018 08:00:00||ÇALIK HOLDİNG|10.40.24.113|||110000438407|152
26.10.2018 08:00:00||ÇALIK HOLDİNG|10.40.25.114|||110000438407|175
26.10.2018 08:00:00||ÇALIK HOLDİNG|10.40.25.114|||110000438407|427
26.10.2018 08:00:00||ÇALIK HOLDİNG|10.40.25.114|||110000438407|40
26.10.2018 08:00:00||ÇALIK HOLDİNG|10.40.24.114|||110000438407|20
26.10.2018 08:00:00||ÇALIK HOLDİNG|10.40.24.114|||110000438407|40
26.10.2018 08:00:00||ÇALIK HOLDİNG|10.40.24.114|||110000438407|132
26.10.2018 08:00:00||ÇALIK HOLDİNG|10.40.24.114|||110000438407|373
26.10.2018 08:00:00||ÇALIK HOLDİNG|10.40.24.115|||110000438407|170
26.10.2018 08:00:00||ÇALIK HOLDİNG|10.40.24.115|||110000438407|80
26.10.2018 08:00:00||ÇALIK HOLDİNG|10.40.24.115|||110000438407|90
26.10.2018 08:00:00||ÇALIK HOLDİNG|10.40.24.115|||110000438407|80
26.10.2018 08:00:00||ÇALIK HOLDİNG|10.40.24.115|||110000438407|90
26.10.2018 08:00:00||ÇALIK HOLDİNG|10.40.24.115|||110000438407|70
26.10.2018 08:00:00||ÇALIK HOLDİNG|10.40.25.116|||110000438407|102
26.10.2018 08:00:00||ÇALIK HOLDİNG|10.40.25.116|||110000438407|102
26.10.2018 08:00:00||ÇALIK HOLDİNG|10.40.25.116|||110000438407|283
26.10.2018 08:00:00||ÇALIK HOLDİNG|10.40.24.116|||110000438407|280
26.10.2018 08:00:00||ÇALIK HOLDİNG|10.40.24.116|||110000438407|100
26.10.2018 08:00:00||ÇALIK HOLDİNG|10.40.24.116|||110000438407|100
26.10.2018 08:00:00||ÇALIK HOLDİNG|10.40.25.117|||110000438407|250
26.10.2018 08:00:00||ÇALIK HOLDİNG|10.40.25.117|||110000438407|30
26.10.2018 08:00:00||ÇALIK HOLDİNG|10.40.25.117|||110000438407|30
26.10.2018 08:00:00||ÇALIK HOLDİNG|10.40.25.119|||110000438407|30
26.10.2018 08:00:00||ÇALIK HOLDİNG|10.40.25.119|||110000438407|30
26.10.2018 08:00:00||ÇALIK HOLDİNG|10.40.24.119|||110000438407|150
26.10.2018 08:00:00||ÇALIK HOLDİNG|10.40.24.119|||110000438407|30
26.10.2018 08:00:00||ÇALIK HOLDİNG|10.40.24.119|||110000438407|50
26.10.2018 08:00:00||ÇALIK HOLDİNG|10.40.25.120|||110000438407|107
26.10.2018 08:00:00||ÇALIK HOLDİNG|10.40.25.120|||110000438407|50
26.10.2018 08:00:00||ÇALIK HOLDİNG|10.40.25.120|||110000438407|20
26.10.2018 08:00:00||ÇALIK HOLDİNG|10.40.25.120|||110000438407|20
26.10.2018 08:00:00||ÇALIK HOLDİNG|10.40.25.120|||110000438407|30
26.10.2018 08:00:00||ÇALIK HOLDİNG|10.40.25.120|||110000438407|90
26.10.2018 08:00:00||ÇALIK HOLDİNG|10.40.25.120|||110000438407|90
26.10.2018 08:00:00||ÇALIK HOLDİNG|10.40.24.120|||110000438407|20
26.10.2018 08:00:00||ÇALIK HOLDİNG|10.40.24.120|||110000438407|33
26.10.2018 08:00:00||ÇALIK HOLDİNG|10.40.24.120|||110000438407|110
26.10.2018 08:00:00||ÇALIK HOLDİNG|10.40.24.120|||110000438407|100
26.10.2018 08:00:00||ÇALIK HOLDİNG|10.40.24.120|||110000438407|40
26.10.2018 08:00:00||ÇALIK HOLDİNG|10.40.24.120|||110000438407|80
26.10.2018 08:00:00||ÇALIK HOLDİNG|10.40.24.120|||110000438407|80
26.10.2018 08:00:00||ÇALIK HOLDİNG|10.40.24.120|||110000438407|70
26.10.2018 08:00:00||ÇALIK HOLDİNG|10.40.25.121|||110000438407|90
26.10.2018 08:00:00||ÇALIK HOLDİNG|10.40.25.121|||110000438407|100
26.10.2018 08:00:00||ÇALIK HOLDİNG|10.40.25.121|||110000438407|150
26.10.2018 08:00:00||ÇALIK HOLDİNG|10.40.24.121|||110000438407|100
26.10.2018 08:00:00||ÇALIK HOLDİNG|10.40.24.121|||110000438407|100
26.10.2018 08:00:00||ÇALIK HOLDİNG|10.40.24.121|||110000438407|140
26.10.2018 08:00:00||ÇALIK HOLDİNG|10.40.25.122|||110000438407|90
26.10.2018 08:00:00||ÇALIK HOLDİNG|10.40.25.122|||110000438407|82
26.10.2018 08:00:00||ÇALIK HOLDİNG|10.40.25.122|||110000438407|80
26.10.2018 08:00:00||ÇALIK HOLDİNG|10.40.25.122|||110000438407|30
26.10.2018 08:00:00||ÇALIK HOLDİNG|10.40.25.122|||110000438407|10
26.10.2018 08:00:00||ÇALIK HOLDİNG|10.40.24.122|||110000438407|90
26.10.2018 08:00:00||ÇALIK HOLDİNG|10.40.24.122|||110000438407|80
26.10.2018 08:00:00||ÇALIK HOLDİNG|10.40.24.122|||110000438407|88
26.10.2018 08:00:00||ÇALIK HOLDİNG|10.40.24.117|||110000438407|200
26.10.2018 08:00:00||ÇALIK HOLDİNG|10.40.24.117|||110000438407|30
26.10.2018 08:00:00||ÇALIK HOLDİNG|10.40.24.117|||110000438407|30
26.10.2018 08:00:00||ÇALIK HOLDİNG|10.40.24.97|||110000438407|96
26.10.2018 08:00:00||ÇALIK HOLDİNG|10.40.24.97|||110000438407|90
26.10.2018 08:00:00||ÇALIK HOLDİNG|10.40.24.97|||110000438407|80
26.10.2018 08:00:00||ÇALIK HOLDİNG|10.40.24.97|||110000438407|90
26.10.2018 08:00:00||ÇALIK HOLDİNG|10.40.24.97|||110000438407|318
26.10.2018 08:00:00||ÇALIK HOLDİNG|10.40.24.100|||110000438407|30
26.10.2018 08:00:00||ÇALIK HOLDİNG|10.40.24.100|||110000438407|40
26.10.2018 08:00:00||FIBABANKA|10.40.27.54|||101571767266|308
26.10.2018 08:00:00||FIBABANKA|10.40.26.54|||101571767266|317
26.10.2018 08:00:00||FIBABANKA|10.40.27.55|||101571767266|110
26.10.2018 08:00:00||FIBABANKA|10.40.26.55|||101571767266|110
26.10.2018 08:00:00||FIBABANKA|10.40.24.55|||101571767266|111
26.10.2018 08:00:00||FIBABANKA|10.40.25.56|||101571767266|197
26.10.2018 08:00:00||FIBABANKA|10.40.25.54|||101571767266|330
26.10.2018 08:00:00||FIBABANKA|10.40.24.54|||101571767266|316
26.10.2018 08:00:00||FIBABANKA|10.40.25.55|||101571767266|111
26.10.2018 08:00:00||FIBABANKA|10.40.24.56|||101571767266|197
26.10.2018 08:00:00||FIBABANKA|10.40.26.53|||101571767266|42
26.10.2018 08:00:00||FIBABANKA|10.40.26.53|||101571767266|173
26.10.2018 08:00:00||FIBABANKA|10.40.25.76|||101571767266|10
26.10.2018 08:00:00||FIBABANKA|10.40.27.53|||101571767266|165
26.10.2018 08:00:00||FIBABANKA|10.40.27.53|||101571767266|162
26.10.2018 08:00:00||FIBABANKA|10.40.26.53|||101571767266|153
26.10.2018 08:00:00||FIBABANKA|10.40.27.57|||101571767266|80
26.10.2018 08:00:00||FIBABANKA|10.40.27.57|||101571767266|80
26.10.2018 08:00:00||FIBABANKA|10.40.27.57|||101571767266|80
26.10.2018 08:00:00||FIBABANKA|10.40.25.57|||101571767266|90
26.10.2018 08:00:00||FIBABANKA|10.40.25.57|||101571767266|90
26.10.2018 08:00:00||FIBABANKA|10.40.25.57|||101571767266|90
26.10.2018 08:00:00||FIBABANKA|10.40.26.51|||101571767266|20
26.10.2018 08:00:00||FIBABANKA|10.40.27.52|||101571767266|50
26.10.2018 08:00:00||FIBABANKA|10.40.27.52|||101571767266|60
26.10.2018 08:00:00||FIBABANKA|10.40.27.52|||101571767266|70
26.10.2018 08:00:00||FIBABANKA|10.40.27.73|||101571767266|10
26.10.2018 08:00:00||FIBABANKA|10.40.27.74|||101571767266|162
26.10.2018 08:00:00||FIBABANKA|10.40.25.53|||101571767266|35
26.10.2018 08:00:00||FIBABANKA|10.40.25.53|||101571767266|48
26.10.2018 08:00:00||FIBABANKA|10.40.27.53|||101571767266|60
26.10.2018 08:00:00||FIBABANKA|10.40.26.53|||101571767266|60
26.10.2018 08:00:00||FIBABANKA|10.40.25.51|||101571767266|20
26.10.2018 08:00:00||FIBABANKA|10.40.25.51|||101571767266|110
26.10.2018 08:00:00||FIBABANKA|10.40.24.51|||101571767266|20
26.10.2018 08:00:00||FIBABANKA|10.40.24.51|||101571767266|70
26.10.2018 08:00:00||FIBABANKA|10.40.24.51|||101571767266|100
26.10.2018 08:00:00||FIBABANKA|10.40.24.51|||101571767266|140
26.10.2018 08:00:00||FIBABANKA|10.40.24.51|||101571767266|30
26.10.2018 08:00:00||FIBABANKA|10.40.24.57|||101571767266|90
26.10.2018 08:00:00||FIBABANKA|10.40.24.57|||101571767266|80
26.10.2018 08:00:00||FIBABANKA|10.40.24.57|||101571767266|80
26.10.2018 08:00:00||FIBABANKA|10.40.24.52|||101571767266|40
26.10.2018 08:00:00||FIBABANKA|10.40.24.52|||101571767266|10
26.10.2018 08:00:00||FIBABANKA|10.40.26.73|||101571767266|40
26.10.2018 08:00:00||FIBABANKA|10.40.27.53|||101571767266|70
26.10.2018 08:00:00||FIBABANKA|10.40.26.51|||101571767266|72
26.10.2018 08:00:00||FIBABANKA|10.40.26.52|||101571767266|30
26.10.2018 08:00:00||FIBABANKA|10.40.26.52|||101571767266|90
26.10.2018 08:00:00||FIBABANKA|10.40.26.52|||101571767266|30
26.10.2018 08:00:00||FIBABANKA|10.40.25.51|||101571767266|140
26.10.2018 08:00:00||FIBABANKA|10.40.25.51|||101571767266|40
26.10.2018 08:00:00||FIBABANKA|10.40.25.51|||101571767266|40
26.10.2018 08:00:00||FIBABANKA|10.40.25.51|||101571767266|70
26.10.2018 08:00:00||FIBABANKA|10.40.24.51|||101571767266|30
26.10.2018 08:00:00||FIBABANKA|10.40.24.58|||101571767266|10
26.10.2018 08:00:00||FIBABANKA|10.40.24.58|||101571767266|10
26.10.2018 08:00:00||FIBABANKA|10.40.25.59|||101571767266|70
26.10.2018 08:00:00||FIBABANKA|10.40.25.59|||101571767266|90
26.10.2018 08:00:00||FIBABANKA|10.40.25.59|||101571767266|90
26.10.2018 08:00:00||FIBABANKA|10.40.25.59|||101571767266|40
26.10.2018 08:00:00||FIBABANKA|10.40.25.59|||101571767266|120
26.10.2018 08:00:00||FIBABANKA|10.40.25.59|||101571767266|60
26.10.2018 08:00:00||FIBABANKA|10.40.25.59|||101571767266|50
26.10.2018 08:00:00||FIBABANKA|10.40.25.59|||101571767266|140
26.10.2018 08:00:00||FIBABANKA|10.40.25.59|||101571767266|50
26.10.2018 08:00:00||FIBABANKA|10.40.24.59|||101571767266|70
26.10.2018 08:00:00||FIBABANKA|10.40.24.59|||101571767266|120
26.10.2018 08:00:00||FIBABANKA|10.40.24.59|||101571767266|75
26.10.2018 08:00:00||FIBABANKA|10.40.24.59|||101571767266|50
26.10.2018 08:00:00||FIBABANKA|10.40.24.59|||101571767266|130
26.10.2018 08:00:00||FIBABANKA|10.40.24.59|||101571767266|70
26.10.2018 08:00:00||FIBABANKA|10.40.24.59|||101571767266|58
26.10.2018 08:00:00||FIBABANKA|10.40.24.59|||101571767266|140
26.10.2018 08:00:00||FIBABANKA|10.40.24.59|||101571767266|60
26.10.2018 08:00:00||FIBABANKA|10.40.25.60|||101571767266|110
26.10.2018 08:00:00||FIBABANKA|10.40.25.60|||101571767266|32
26.10.2018 08:00:00||FIBABANKA|10.40.25.60|||101571767266|108
26.10.2018 08:00:00||FIBABANKA|10.40.25.60|||101571767266|40
26.10.2018 08:00:00||FIBABANKA|10.40.24.60|||101571767266|110
26.10.2018 08:00:00||FIBABANKA|10.40.24.60|||101571767266|47
26.10.2018 08:00:00||FIBABANKA|10.40.24.60|||101571767266|40
26.10.2018 08:00:00||FIBABANKA|10.40.24.60|||101571767266|100
26.10.2018 08:00:00||FIBABANKA|10.40.24.60|||101571767266|50
26.10.2018 08:00:00||FIBABANKA|10.40.25.72|||101571767266|70
26.10.2018 08:00:00||FIBABANKA|10.40.25.72|||101571767266|40
26.10.2018 08:00:00||FIBABANKA|10.40.25.72|||101571767266|30
26.10.2018 08:00:00||FIBABANKA|10.40.24.72|||101571767266|138
26.10.2018 08:00:00||FIBABANKA|10.40.24.72|||101571767266|73
26.10.2018 08:00:00||FIBABANKA|10.40.24.72|||101571767266|30
26.10.2018 08:00:00||FIBABANKA|10.40.24.72|||101571767266|40
26.10.2018 08:00:00||FIBABANKA|10.40.25.74|||101571767266|30
26.10.2018 08:00:00||FIBABANKA|10.40.25.75|||101571767266|40
26.10.2018 08:00:00||FIBABANKA|10.40.25.75|||101571767266|83
26.10.2018 08:00:00||FIBABANKA|10.40.25.75|||101571767266|137
26.10.2018 08:00:00||FIBABANKA|10.40.25.75|||101571767266|163
26.10.2018 08:00:00||FIBABANKA|10.40.25.75|||101571767266|183
26.10.2018 08:00:00||FIBABANKA|10.40.25.75|||101571767266|193
26.10.2018 08:00:00||FIBABANKA|10.40.24.75|||101571767266|50
26.10.2018 08:00:00||FIBABANKA|10.40.24.75|||101571767266|53
26.10.2018 08:00:00||FIBABANKA|10.40.24.75|||101571767266|162
26.10.2018 08:00:00||FIBABANKA|10.40.24.75|||101571767266|148
26.10.2018 08:00:00||FIBABANKA|10.40.24.76|||101571767266|35
26.10.2018 08:00:00||FIBABANKA|10.40.24.76|||101571767266|68
26.10.2018 08:00:00||FIBABANKA|10.40.24.76|||101571767266|20
26.10.2018 08:00:00||FIBABANKA|10.40.24.76|||101571767266|40
26.10.2018 08:00:00||FIBABANKA|10.40.24.76|||101571767266|10
26.10.2018 08:00:00||FIBABANKA|10.40.24.53|||101571767266|30
26.10.2018 08:00:00||FIBABANKA|10.40.24.53|||101571767266|62
26.10.2018 08:00:00||FIBABANKA|10.40.26.57|||101571767266|92
26.10.2018 08:00:00||FIBABANKA|10.40.26.57|||101571767266|84
26.10.2018 08:00:00||FIBABANKA|10.40.26.57|||101571767266|80
26.10.2018 08:00:00||FIBABANKA|10.40.27.72|||101571767266|40
26.10.2018 08:00:00||FIBABANKA|10.40.27.72|||101571767266|40
26.10.2018 08:00:00||FIBABANKA|10.40.27.72|||101571767266|36
26.10.2018 08:00:00||FIBABANKA|10.40.27.72|||101571767266|140
26.10.2018 08:00:00||FIBABANKA|10.40.27.72|||101571767266|60
26.10.2018 08:00:00||FIBABANKA|10.40.26.72|||101571767266|30
26.10.2018 08:00:00||FIBABANKA|10.40.26.72|||101571767266|140
26.10.2018 08:00:00||FIBABANKA|10.40.26.72|||101571767266|70
26.10.2018 08:00:00||FIBABANKA|10.40.26.72|||101571767266|30
26.10.2018 08:00:00||FIBABANKA|10.40.27.73|||101571767266|32
26.10.2018 08:00:00||FIBABANKA|10.40.27.73|||101571767266|100
26.10.2018 08:00:00||FIBABANKA|10.40.27.73|||101571767266|40
26.10.2018 08:00:00||FIBABANKA|10.40.27.73|||101571767266|40
26.10.2018 08:00:00||FIBABANKA|10.40.27.73|||101571767266|262
26.10.2018 08:00:00||FIBABANKA|10.40.26.73|||101571767266|40
26.10.2018 08:00:00||FIBABANKA|10.40.26.73|||101571767266|70
26.10.2018 08:00:00||FIBABANKA|10.40.26.73|||101571767266|30
26.10.2018 08:00:00||FIBABANKA|10.40.26.73|||101571767266|8
26.10.2018 08:00:00||FIBABANKA|10.40.27.74|||101571767266|86
26.10.2018 08:00:00||FIBABANKA|10.40.27.74|||101571767266|156
26.10.2018 08:00:00||FIBABANKA|10.40.27.74|||101571767266|166
26.10.2018 08:00:00||FIBABANKA|10.40.26.74|||101571767266|70
26.10.2018 08:00:00||FIBABANKA|10.40.26.74|||101571767266|190
26.10.2018 08:00:00||FIBABANKA|10.40.26.74|||101571767266|176
26.10.2018 08:00:00||FIBABANKA|10.40.26.74|||101571767266|170
26.10.2018 08:00:00||FIBABANKA|10.40.27.75|||101571767266|10
26.10.2018 08:00:00||FIBABANKA|10.40.27.75|||101571767266|10
26.10.2018 08:00:00||FIBABANKA|10.40.27.75|||101571767266|60
26.10.2018 08:00:00||FIBABANKA|10.40.26.75|||101571767266|10
26.10.2018 08:00:00||FIBABANKA|10.40.26.79|||101571767266|10
26.10.2018 08:00:00||FIBABANKA|10.40.27.79|||101571767266|10
26.10.2018 08:00:00||FIBABANKA|10.40.27.79|||101571767266|10
26.10.2018 08:00:00||FIBABANKA|10.40.26.79|||101571767266|10
26.10.2018 08:00:00||FIBABANKA|10.40.27.77|||101571767266|158
26.10.2018 08:00:00||FIBABANKA|10.40.26.77|||101571767266|184
26.10.2018 08:00:00||FIBABANKA|10.40.27.77|||101571767266|158
26.10.2018 08:00:00||FIBABANKA|10.40.25.74|||101571767266|230
26.10.2018 08:00:00||FIBABANKA|10.40.24.75|||101571767266|178
26.10.2018 08:00:00||FIBABANKA|10.40.24.53|||101571767266|172
26.10.2018 08:00:00||FIBABANKA|10.40.24.53|||101571767266|175
26.10.2018 08:00:00||FIBABANKA|10.40.25.52|||101571767266|10
26.10.2018 08:00:00||FIBABANKA|10.40.25.52|||101571767266|50
26.10.2018 08:00:00||FIBABANKA|10.40.25.52|||101571767266|60
26.10.2018 08:00:00||FIBABANKA|10.40.25.53|||101571767266|160
26.10.2018 08:00:00||FIBABANKA|10.40.25.53|||101571767266|145
26.10.2018 08:00:00||FIBABANKA|10.40.27.51|||101571767266|30
26.10.2018 08:00:00||FIBABANKA|10.40.27.51|||101571767266|20
26.10.2018 08:00:00||FIBABANKA|10.40.27.51|||101571767266|105
26.10.2018 08:00:00||FIBABANKA|10.40.27.51|||101571767266|140
26.10.2018 08:00:00||FIBABANKA|10.40.27.51|||101571767266|70
26.10.2018 08:00:00||FIBABANKA|10.40.27.51|||101571767266|40
26.10.2018 08:00:00||FIBABANKA|10.40.27.51|||101571767266|40
26.10.2018 08:00:00||FIBABANKA|10.40.26.51|||101571767266|10
26.10.2018 08:00:00||FIBABANKA|10.40.26.51|||101571767266|110
26.10.2018 08:00:00||FIBABANKA|10.40.26.51|||101571767266|130
26.10.2018 08:00:00||FIBABANKA|10.40.26.51|||101571767266|30
26.10.2018 08:00:00||FIBABANKA|10.40.26.51|||101571767266|30
26.10.2018 08:00:00||FIBABANKA|10.40.24.74|||101571767266|30
26.10.2018 08:00:00||FIBABANKA|10.40.25.76|||101571767266|60
26.10.2018 08:00:00||FIBABANKA|10.40.25.76|||101571767266|40
26.10.2018 08:00:00||FIBABANKA|10.40.25.76|||101571767266|10
26.10.2018 08:00:00||HAVAŞ|10.40.24.46|||110000479675|10
26.10.2018 08:00:00||HAVAŞ|10.40.24.48|||110000479675|743
26.10.2018 08:00:00||HAVAŞ|10.40.24.48|||110000479675|757
26.10.2018 08:00:00||HAVAŞ|10.40.25.48|||110000479675|738
26.10.2018 08:00:00||HAVAŞ|10.40.24.45|||110000479675|70
26.10.2018 08:00:00||HAVAŞ|10.40.25.45|||110000479675|60
26.10.2018 08:00:00||HAVAŞ|10.40.25.47|||110000479675|70
26.10.2018 08:00:00||HAVAŞ|10.40.24.46|||110000479675|80
26.10.2018 08:00:00||HAVAŞ|10.40.24.47|||110000479675|30
26.10.2018 08:00:00||HAVAŞ|10.40.24.47|||110000479675|90
26.10.2018 08:00:00||HAVAŞ|10.40.24.47|||110000479675|90
26.10.2018 08:00:00||HAVAŞ|10.40.25.46|||110000479675|10
26.10.2018 08:00:00||HAVAŞ|10.40.25.46|||110000479675|60
26.10.2018 08:00:00||HAVAŞ|10.40.24.48|||110000479675|762
26.10.2018 08:00:00||HAVAŞ|10.40.24.46|||110000479675|60
26.10.2018 08:00:00||HAVAŞ|10.40.24.46|||110000479675|73
26.10.2018 08:00:00||HAVAŞ|10.40.24.47|||110000479675|15
26.10.2018 08:00:00||HAVAŞ|10.40.25.48|||110000479675|748
26.10.2018 08:00:00||HAVAŞ|10.40.25.48|||110000479675|793
26.10.2018 08:00:00||HAVAŞ|10.40.25.45|||110000479675|95
26.10.2018 08:00:00||HAVAŞ|10.40.24.45|||110000479675|50
26.10.2018 08:00:00||HAVAŞ|10.40.24.45|||110000479675|170
26.10.2018 08:00:00||HAVAŞ|10.40.24.45|||110000479675|100
26.10.2018 08:00:00||HAVAŞ|10.40.25.47|||110000479675|70
26.10.2018 08:00:00||HAVAŞ|10.40.25.47|||110000479675|223
26.10.2018 08:00:00||HAVAŞ|10.40.25.47|||110000479675|53
26.10.2018 08:00:00||HAVAŞ|10.40.25.47|||110000479675|88
26.10.2018 08:00:00||HAVAŞ|10.40.25.47|||110000479675|90
26.10.2018 08:00:00||HAVAŞ|10.40.25.47|||110000479675|90
26.10.2018 08:00:00||HAVAŞ|10.40.25.47|||110000479675|110
26.10.2018 08:00:00||HAVAŞ|10.40.25.47|||110000479675|175
26.10.2018 08:00:00||HAVAŞ|10.40.25.47|||110000479675|90
26.10.2018 08:00:00||HAVAŞ|10.40.25.47|||110000479675|90
26.10.2018 08:00:00||HAVAŞ|10.40.25.47|||110000479675|90
26.10.2018 08:00:00||HAVAŞ|10.40.25.45|||110000479675|105
26.10.2018 08:00:00||HAVAŞ|10.40.25.45|||110000479675|85
26.10.2018 08:00:00||HAVAŞ|10.40.25.46|||110000479675|10
26.10.2018 08:00:00||HAVAŞ|10.40.25.46|||110000479675|10
26.10.2018 08:00:00||HAVAŞ|10.40.25.46|||110000479675|20
26.10.2018 08:00:00||HAVAŞ|10.40.25.46|||110000479675|20
26.10.2018 08:00:00||HAVAŞ|10.40.25.46|||110000479675|50
26.10.2018 08:00:00||HAVAŞ|10.40.25.46|||110000479675|100
26.10.2018 08:00:00||HAVAŞ|10.40.25.46|||110000479675|63
26.10.2018 08:00:00||HAVAŞ|10.40.25.46|||110000479675|72
26.10.2018 08:00:00||HAVAŞ|10.40.25.46|||110000479675|70
26.10.2018 08:00:00||HAVAŞ|10.40.24.46|||110000479675|20
26.10.2018 08:00:00||HAVAŞ|10.40.24.46|||110000479675|20
26.10.2018 08:00:00||HAVAŞ|10.40.24.46|||110000479675|10
26.10.2018 08:00:00||HAVAŞ|10.40.24.46|||110000479675|10
26.10.2018 08:00:00||HAVAŞ|10.40.24.46|||110000479675|10
26.10.2018 08:00:00||HAVAŞ|10.40.24.46|||110000479675|60
26.10.2018 08:00:00||HAVAŞ|10.40.24.46|||110000479675|110
26.10.2018 08:00:00||HAVAŞ|10.40.24.47|||110000479675|30
26.10.2018 08:00:00||HAVAŞ|10.40.24.47|||110000479675|220
26.10.2018 08:00:00||HAVAŞ|10.40.24.47|||110000479675|60
26.10.2018 08:00:00||HAVAŞ|10.40.24.47|||110000479675|58
26.10.2018 08:00:00||HAVAŞ|10.40.24.47|||110000479675|155
26.10.2018 08:00:00||HAVAŞ|10.40.24.47|||110000479675|100
26.10.2018 08:00:00||HAVAŞ|10.40.24.47|||110000479675|100
26.10.2018 08:00:00||MARS CINEMA|10.40.24.203|||110000472614|102
26.10.2018 08:00:00||MARS CINEMA|10.40.24.204|||110000472614|40
26.10.2018 08:00:00||MARS CINEMA|10.40.24.203|||110000472614|77
26.10.2018 08:00:00||MARS CINEMA|10.40.24.203|||110000472614|160
26.10.2018 08:00:00||MARS CINEMA|10.40.24.203|||110000472614|80
26.10.2018 08:00:00||MARS CINEMA|10.40.24.204|||110000472614|65
26.10.2018 08:00:00||MARS CINEMA|10.40.24.203|||110000472614|102
26.10.2018 08:00:00||MARS CINEMA|10.40.24.204|||110000472614|20
26.10.2018 08:00:00||MARS CINEMA|10.40.24.204|||110000472614|93
26.10.2018 08:00:00||MARS CINEMA|10.40.25.203|||110000472614|150
26.10.2018 08:00:00||MARS CINEMA|10.40.25.203|||110000472614|93
26.10.2018 08:00:00||MARS CINEMA|10.40.25.203|||110000472614|188
26.10.2018 08:00:00||MARS CINEMA|10.40.25.203|||110000472614|93
26.10.2018 08:00:00||MARS CINEMA|10.40.25.203|||110000472614|80
26.10.2018 08:00:00||MARS CINEMA|10.40.25.203|||110000472614|110
26.10.2018 08:00:00||MARS CINEMA|10.40.25.203|||110000472614|73
26.10.2018 08:00:00||MARS CINEMA|10.40.25.203|||110000472614|155
26.10.2018 08:00:00||MARS CINEMA|10.40.25.203|||110000472614|92
26.10.2018 08:00:00||MARS CINEMA|10.40.25.203|||110000472614|110
26.10.2018 08:00:00||MARS CINEMA|10.40.25.203|||110000472614|92
26.10.2018 08:00:00||MARS CINEMA|10.40.25.203|||110000472614|68
26.10.2018 08:00:00||MARS CINEMA|10.40.25.203|||110000472614|188
26.10.2018 08:00:00||MARS CINEMA|10.40.25.204|||110000472614|110
26.10.2018 08:00:00||MARS CINEMA|10.40.25.204|||110000472614|70
26.10.2018 08:00:00||MARS CINEMA|10.40.25.204|||110000472614|80
26.10.2018 08:00:00||MARS CINEMA|10.40.25.204|||110000472614|100
26.10.2018 08:00:00||MARS CINEMA|10.40.25.204|||110000472614|20
26.10.2018 08:00:00||MARS CINEMA|10.40.25.204|||110000472614|20
26.10.2018 08:00:00||MARS CINEMA|10.40.25.204|||110000472614|30
26.10.2018 08:00:00||MARS CINEMA|10.40.25.204|||110000472614|40
26.10.2018 08:00:00||MARS CINEMA|10.40.25.204|||110000472614|90
26.10.2018 08:00:00||MARS CINEMA|10.40.25.204|||110000472614|120
26.10.2018 08:00:00||MARS CINEMA|10.40.25.204|||110000472614|80
26.10.2018 08:00:00||MARS CINEMA|10.40.25.204|||110000472614|80
26.10.2018 08:00:00||MARS CINEMA|10.40.25.204|||110000472614|110
26.10.2018 08:00:00||MARS CINEMA|10.40.25.204|||110000472614|100
26.10.2018 08:00:00||MARS CINEMA|10.40.24.203|||110000472614|77
26.10.2018 08:00:00||MARS CINEMA|10.40.24.203|||110000472614|90
26.10.2018 08:00:00||MARS CINEMA|10.40.24.203|||110000472614|145
26.10.2018 08:00:00||MARS CINEMA|10.40.24.203|||110000472614|57
26.10.2018 08:00:00||MARS CINEMA|10.40.24.203|||110000472614|142
26.10.2018 08:00:00||MARS CINEMA|10.40.24.203|||110000472614|148
26.10.2018 08:00:00||MARS CINEMA|10.40.24.203|||110000472614|100
26.10.2018 08:00:00||MARS CINEMA|10.40.24.203|||110000472614|183
26.10.2018 08:00:00||MARS CINEMA|10.40.24.204|||110000472614|110
26.10.2018 08:00:00||MARS CINEMA|10.40.24.204|||110000472614|92
26.10.2018 08:00:00||MARS CINEMA|10.40.24.204|||110000472614|90
26.10.2018 08:00:00||MARS CINEMA|10.40.24.204|||110000472614|20
26.10.2018 08:00:00||MARS CINEMA|10.40.24.204|||110000472614|10
26.10.2018 08:00:00||MARS CINEMA|10.40.24.204|||110000472614|90
26.10.2018 08:00:00||MARS CINEMA|10.40.24.204|||110000472614|122
26.10.2018 08:00:00||MARS CINEMA|10.40.24.204|||110000472614|90
26.10.2018 08:00:00||MARS CINEMA|10.40.24.204|||110000472614|107
26.10.2018 08:00:00||MARS CINEMA|10.40.24.204|||110000472614|80
26.10.2018 08:00:00||MARS CINEMA|10.40.25.206|||110000472614|123
26.10.2018 08:00:00||MARS CINEMA|10.40.25.206|||110000472614|40
26.10.2018 08:00:00||MARS CINEMA|10.40.25.206|||110000472614|40
26.10.2018 08:00:00||MARS CINEMA|10.40.25.206|||110000472614|40
26.10.2018 08:00:00||MARS CINEMA|10.40.25.206|||110000472614|20
26.10.2018 08:00:00||MARS CINEMA|10.40.25.206|||110000472614|20
26.10.2018 08:00:00||MARS CINEMA|10.40.25.206|||110000472614|30
26.10.2018 08:00:00||MARS CINEMA|10.40.25.206|||110000472614|60
26.10.2018 08:00:00||MARS CINEMA|10.40.25.206|||110000472614|40
26.10.2018 08:00:00||MARS CINEMA|10.40.25.206|||110000472614|80
26.10.2018 08:00:00||MARS CINEMA|10.40.25.206|||110000472614|90
26.10.2018 08:00:00||MARS CINEMA|10.40.24.206|||110000472614|152
26.10.2018 08:00:00||MARS CINEMA|10.40.24.206|||110000472614|40
26.10.2018 08:00:00||MARS CINEMA|10.40.24.206|||110000472614|40
26.10.2018 08:00:00||MARS CINEMA|10.40.24.206|||110000472614|40
26.10.2018 08:00:00||MARS CINEMA|10.40.24.206|||110000472614|30
26.10.2018 08:00:00||MARS CINEMA|10.40.24.206|||110000472614|30
26.10.2018 08:00:00||MARS CINEMA|10.40.24.206|||110000472614|190
26.10.2018 08:00:00||MARS CINEMA|10.40.24.206|||110000472614|162
26.10.2018 08:00:00||MARS CINEMA|10.40.24.206|||110000472614|20
26.10.2018 08:00:00||MARS CINEMA|10.40.24.206|||110000472614|80
26.10.2018 08:00:00||MARS CINEMA|10.40.24.206|||110000472614|75
26.10.2018 08:00:00||PEGASUS|10.40.27.84|||110000423831|216
26.10.2018 08:00:00||PEGASUS|10.40.26.85|||110000423831|121
26.10.2018 08:00:00||PEGASUS|10.40.27.66|||110000423831|112
26.10.2018 08:00:00||PEGASUS|10.40.26.66|||110000423831|93
26.10.2018 08:00:00||PEGASUS|10.40.26.84|||110000423831|219
26.10.2018 08:00:00||PEGASUS|10.40.27.85|||110000423831|117
26.10.2018 08:00:00||PEGASUS|10.40.27.67|||110000423831|335
26.10.2018 08:00:00||PEGASUS|10.40.27.67|||110000423831|40
26.10.2018 08:00:00||PEGASUS|10.40.26.62|||110000423831|10
26.10.2018 08:00:00||PEGASUS|10.40.26.62|||110000423831|190
26.10.2018 08:00:00||PEGASUS|10.40.26.63|||110000423831|70
26.10.2018 08:00:00||PEGASUS|10.40.26.63|||110000423831|30
26.10.2018 08:00:00||PEGASUS|10.40.26.63|||110000423831|60
26.10.2018 08:00:00||PEGASUS|10.40.26.63|||110000423831|30
26.10.2018 08:00:00||PEGASUS|10.40.26.63|||110000423831|230
26.10.2018 08:00:00||PEGASUS|10.40.26.63|||110000423831|140
26.10.2018 08:00:00||PEGASUS|10.40.26.63|||110000423831|110
26.10.2018 08:00:00||PEGASUS|10.40.26.63|||110000423831|60
26.10.2018 08:00:00||PEGASUS|10.40.26.67|||110000423831|170
26.10.2018 08:00:00||PEGASUS|10.40.27.68|||110000423831|90
26.10.2018 08:00:00||PEGASUS|10.40.27.68|||110000423831|85
26.10.2018 08:00:00||PEGASUS|10.40.27.68|||110000423831|90
26.10.2018 08:00:00||PEGASUS|10.40.27.68|||110000423831|50
26.10.2018 08:00:00||PEGASUS|10.40.26.68|||110000423831|90
26.10.2018 08:00:00||PEGASUS|10.40.26.68|||110000423831|90
26.10.2018 08:00:00||PEGASUS|10.40.26.68|||110000423831|50
26.10.2018 08:00:00||PEGASUS|10.40.27.63|||110000423831|45
26.10.2018 08:00:00||PEGASUS|10.40.27.86|||110000423831|340
26.10.2018 08:00:00||PEGASUS|10.40.27.63|||110000423831|50
26.10.2018 08:00:00||PEGASUS|10.40.27.63|||110000423831|60
26.10.2018 08:00:00||PEGASUS|10.40.27.64|||110000423831|80
26.10.2018 08:00:00||PEGASUS|10.40.27.64|||110000423831|70
26.10.2018 08:00:00||PEGASUS|10.40.27.63|||110000423831|60
26.10.2018 08:00:00||PEGASUS|10.40.27.63|||110000423831|70
26.10.2018 08:00:00||PEGASUS|10.40.27.63|||110000423831|90
26.10.2018 08:00:00||PEGASUS|10.40.26.63|||110000423831|110
26.10.2018 08:00:00||PEGASUS|10.40.27.67|||110000423831|360
26.10.2018 08:00:00||PEGASUS|10.40.27.64|||110000423831|275
26.10.2018 08:00:00||PEGASUS|10.40.27.64|||110000423831|262
26.10.2018 08:00:00||PEGASUS|10.40.27.63|||110000423831|83
26.10.2018 08:00:00||PEGASUS|10.40.27.63|||110000423831|62
26.10.2018 08:00:00||PEGASUS|10.40.27.63|||110000423831|80
26.10.2018 08:00:00||PEGASUS|10.40.26.63|||110000423831|110
26.10.2018 08:00:00||PEGASUS|10.40.26.63|||110000423831|110
26.10.2018 08:00:00||PEGASUS|10.40.27.81|||110000423831|460
26.10.2018 08:00:00||PEGASUS|10.40.27.81|||110000423831|430
26.10.2018 08:00:00||PEGASUS|10.40.26.63|||110000423831|90
26.10.2018 08:00:00||PEGASUS|10.40.26.63|||110000423831|60
26.10.2018 08:00:00||PEGASUS|10.40.26.67|||110000423831|30
26.10.2018 08:00:00||PEGASUS|10.40.26.67|||110000423831|338
26.10.2018 08:00:00||PEGASUS|10.40.26.67|||110000423831|60
26.10.2018 08:00:00||PEGASUS|10.40.26.67|||110000423831|40
26.10.2018 08:00:00||PEGASUS|10.40.26.67|||110000423831|70
26.10.2018 08:00:00||PEGASUS|10.40.26.68|||110000423831|100
26.10.2018 08:00:00||PEGASUS|10.40.27.64|||110000423831|310
26.10.2018 08:00:00||PEGASUS|10.40.27.64|||110000423831|263
26.10.2018 08:00:00||PEGASUS|10.40.27.64|||110000423831|300
26.10.2018 08:00:00||PEGASUS|10.40.27.64|||110000423831|270
26.10.2018 08:00:00||PEGASUS|10.40.27.64|||110000423831|275
26.10.2018 08:00:00||PEGASUS|10.40.27.86|||110000423831|340
26.10.2018 08:00:00||PEGASUS|10.40.27.63|||110000423831|90
26.10.2018 08:00:00||PEGASUS|10.40.26.63|||110000423831|130
26.10.2018 08:00:00||PEGASUS|10.40.26.63|||110000423831|60
26.10.2018 08:00:00||PEGASUS|10.40.26.63|||110000423831|80
26.10.2018 08:00:00||PEGASUS|10.40.26.67|||110000423831|340
26.10.2018 08:00:00||PEGASUS|10.40.27.63|||110000423831|50
26.10.2018 08:00:00||PEGASUS|10.40.27.63|||110000423831|60
26.10.2018 08:00:00||PEGASUS|10.40.27.81|||110000423831|450
26.10.2018 08:00:00||PEGASUS|10.40.26.62|||110000423831|90
26.10.2018 08:00:00||PEGASUS|10.40.26.63|||110000423831|50
26.10.2018 08:00:00||PEGASUS|10.40.26.63|||110000423831|100
26.10.2018 08:00:00||PEGASUS|10.40.26.63|||110000423831|40
26.10.2018 08:00:00||PEGASUS|10.40.26.63|||110000423831|70
26.10.2018 08:00:00||PEGASUS|10.40.26.67|||110000423831|340
26.10.2018 08:00:00||PEGASUS|10.40.27.64|||110000423831|278
26.10.2018 08:00:00||PEGASUS|10.40.27.64|||110000423831|273
26.10.2018 08:00:00||PEGASUS|10.40.27.64|||110000423831|260
26.10.2018 08:00:00||PEGASUS|10.40.27.64|||110000423831|360
26.10.2018 08:00:00||PEGASUS|10.40.27.64|||110000423831|322
26.10.2018 08:00:00||PEGASUS|10.40.27.86|||110000423831|40
26.10.2018 08:00:00||PEGASUS|10.40.27.63|||110000423831|62
26.10.2018 08:00:00||PEGASUS|10.40.27.63|||110000423831|80
26.10.2018 08:00:00||PEGASUS|10.40.27.63|||110000423831|70
26.10.2018 08:00:00||PEGASUS|10.40.27.63|||110000423831|90
26.10.2018 08:00:00||PEGASUS|10.40.27.63|||110000423831|153
26.10.2018 08:00:00||PEGASUS|10.40.27.63|||110000423831|225
26.10.2018 08:00:00||PEGASUS|10.40.27.63|||110000423831|55
26.10.2018 08:00:00||PEGASUS|10.40.26.64|||110000423831|80
26.10.2018 08:00:00||PEGASUS|10.40.26.64|||110000423831|80
26.10.2018 08:00:00||PEGASUS|10.40.26.82|||110000423831|210
26.10.2018 08:00:00||PEGASUS|10.40.26.82|||110000423831|102
26.10.2018 08:00:00||PEGASUS|10.40.26.82|||110000423831|114
26.10.2018 08:00:00||PEGASUS|10.40.26.82|||110000423831|148
26.10.2018 08:00:00||PEGASUS|10.40.26.82|||110000423831|148
26.10.2018 08:00:00||PEGASUS|10.40.26.82|||110000423831|136
26.10.2018 08:00:00||PEGASUS|10.40.26.82|||110000423831|190
26.10.2018 08:00:00||PEGASUS|10.40.26.82|||110000423831|36
26.10.2018 08:00:00||PEGASUS|10.40.26.82|||110000423831|50
26.10.2018 08:00:00||PEGASUS|10.40.26.82|||110000423831|20
26.10.2018 08:00:00||PEGASUS|10.40.26.82|||110000423831|68
26.10.2018 08:00:00||PEGASUS|10.40.26.82|||110000423831|50
26.10.2018 08:00:00||PEGASUS|10.40.26.82|||110000423831|38
26.10.2018 08:00:00||PEGASUS|10.40.27.83|||110000423831|564
26.10.2018 08:00:00||PEGASUS|10.40.27.83|||110000423831|70
26.10.2018 08:00:00||PEGASUS|10.40.27.83|||110000423831|558
26.10.2018 08:00:00||PEGASUS|10.40.27.83|||110000423831|544
26.10.2018 08:00:00||PEGASUS|10.40.27.83|||110000423831|70
26.10.2018 08:00:00||PEGASUS|10.40.26.83|||110000423831|494
26.10.2018 08:00:00||PEGASUS|10.40.26.83|||110000423831|50
26.10.2018 08:00:00||PEGASUS|10.40.26.83|||110000423831|400
26.10.2018 08:00:00||PEGASUS|10.40.26.83|||110000423831|498
26.10.2018 08:00:00||PEGASUS|10.40.26.83|||110000423831|498
26.10.2018 08:00:00||PEGASUS|10.40.26.86|||110000423831|360
26.10.2018 08:00:00||PEGASUS|10.40.26.86|||110000423831|134
26.10.2018 08:00:00||PEGASUS|10.40.26.86|||110000423831|350
26.10.2018 08:00:00||PEGASUS|10.40.26.86|||110000423831|50
26.10.2018 08:00:00||PEGASUS|10.40.26.86|||110000423831|30
26.10.2018 08:00:00||PEGASUS|10.40.26.86|||110000423831|350
26.10.2018 08:00:00||PEGASUS|10.40.26.86|||110000423831|40
26.10.2018 08:00:00||PEGASUS|10.40.27.87|||110000423831|90
26.10.2018 08:00:00||PEGASUS|10.40.27.87|||110000423831|90
26.10.2018 08:00:00||PEGASUS|10.40.27.87|||110000423831|90
26.10.2018 08:00:00||PEGASUS|10.40.27.87|||110000423831|20
26.10.2018 08:00:00||PEGASUS|10.40.26.87|||110000423831|90
26.10.2018 08:00:00||PEGASUS|10.40.26.87|||110000423831|90
26.10.2018 08:00:00||PEGASUS|10.40.26.87|||110000423831|90
26.10.2018 08:00:00||PEGASUS|10.40.26.87|||110000423831|60
26.10.2018 08:00:00||PEGASUS|10.40.26.87|||110000423831|20
26.10.2018 08:00:00||PEGASUS|10.40.26.81|||110000423831|418
26.10.2018 08:00:00||PEGASUS|10.40.26.81|||110000423831|416
26.10.2018 08:00:00||PEGASUS|10.40.26.81|||110000423831|438
26.10.2018 08:00:00||PEGASUS|10.40.27.82|||110000423831|220
26.10.2018 08:00:00||PEGASUS|10.40.27.82|||110000423831|30
26.10.2018 08:00:00||PEGASUS|10.40.27.82|||110000423831|102
26.10.2018 08:00:00||PEGASUS|10.40.27.82|||110000423831|80
26.10.2018 08:00:00||PEGASUS|10.40.27.82|||110000423831|154
26.10.2018 08:00:00||PEGASUS|10.40.27.82|||110000423831|120
26.10.2018 08:00:00||PEGASUS|10.40.27.82|||110000423831|176
26.10.2018 08:00:00||PEGASUS|10.40.27.82|||110000423831|118
26.10.2018 08:00:00||PEGASUS|10.40.27.82|||110000423831|62
26.10.2018 08:00:00||PEGASUS|10.40.27.82|||110000423831|80
26.10.2018 08:00:00||PEGASUS|10.40.27.82|||110000423831|50
26.10.2018 08:00:00||PEGASUS|10.40.27.82|||110000423831|40
26.10.2018 08:00:00||PEGASUS|10.40.27.82|||110000423831|40
26.10.2018 08:00:00||PEGASUS|10.40.27.67|||110000423831|50
26.10.2018 08:00:00||PEGASUS|10.40.27.67|||110000423831|70
26.10.2018 08:00:00||PEGASUS|10.40.27.67|||110000423831|130
26.10.2018 08:00:00||PEGASUS|10.40.27.67|||110000423831|10
26.10.2018 08:00:00||PEGASUS|10.40.27.67|||110000423831|335
26.10.2018 08:00:00||PEGASUS|10.40.27.82|||110000423831|68
26.10.2018 08:00:00||PEGASUS|10.40.27.86|||110000423831|170
26.10.2018 08:00:00||PEGASUS|10.40.27.86|||110000423831|70
26.10.2018 08:00:00||PEGASUS|10.40.27.86|||110000423831|20
26.10.2018 08:00:00||PEGASUS|10.40.27.86|||110000423831|350
26.10.2018 08:00:00||PETKIM|10.40.25.87|||110000437354|142
26.10.2018 08:00:00||PWC|10.40.24.66|||110000433262|80
26.10.2018 08:00:00||PWC|10.40.24.66|||110000433262|10
26.10.2018 08:00:00||PWC|10.40.24.66|||110000433262|30
26.10.2018 08:00:00||PWC|10.40.24.66|||110000433262|50
26.10.2018 08:00:00||PWC|10.40.24.66|||110000433262|442
26.10.2018 08:00:00||PWC|10.40.24.68|||110000433262|157
26.10.2018 08:00:00||PWC|10.40.24.66|||110000433262|45
26.10.2018 08:00:00||PWC|10.40.24.66|||110000433262|210
26.10.2018 08:00:00||PWC|10.40.24.66|||110000433262|210
26.10.2018 08:00:00||PWC|10.40.25.67|||110000433262|80
26.10.2018 08:00:00||PWC|10.40.25.67|||110000433262|90
26.10.2018 08:00:00||PWC|10.40.25.67|||110000433262|320
26.10.2018 08:00:00||PWC|10.40.25.67|||110000433262|250
26.10.2018 08:00:00||PWC|10.40.25.67|||110000433262|240
26.10.2018 08:00:00||PWC|10.40.25.67|||110000433262|250
26.10.2018 08:00:00||PWC|10.40.25.67|||110000433262|50
26.10.2018 08:00:00||PWC|10.40.25.67|||110000433262|30
26.10.2018 08:00:00||PWC|10.40.25.67|||110000433262|120
26.10.2018 08:00:00||PWC|10.40.24.67|||110000433262|10
26.10.2018 08:00:00||PWC|10.40.24.67|||110000433262|10
26.10.2018 08:00:00||PWC|10.40.24.67|||110000433262|370
26.10.2018 08:00:00||PWC|10.40.24.67|||110000433262|30
26.10.2018 08:00:00||PWC|10.40.24.67|||110000433262|70
26.10.2018 08:00:00||PWC|10.40.24.67|||110000433262|120
26.10.2018 08:00:00||PWC|10.40.25.68|||110000433262|135
26.10.2018 08:00:00||PWC|10.40.25.68|||110000433262|190
26.10.2018 08:00:00||PWC|10.40.25.68|||110000433262|70
26.10.2018 08:00:00||PWC|10.40.25.68|||110000433262|78
26.10.2018 08:00:00||PWC|10.40.25.68|||110000433262|152
26.10.2018 08:00:00||PWC|10.40.24.66|||110000433262|60
26.10.2018 08:00:00||PWC|10.40.24.66|||110000433262|30
26.10.2018 08:00:00||PWC|10.40.24.66|||110000433262|30
26.10.2018 08:00:00||PWC|10.40.24.68|||110000433262|92
26.10.2018 08:00:00||PWC|10.40.24.68|||110000433262|143
26.10.2018 08:00:00||PWC|10.40.24.68|||110000433262|400
26.10.2018 08:00:00||PWC|10.40.24.68|||110000433262|80
26.10.2018 08:00:00||PWC|10.40.24.68|||110000433262|70
26.10.2018 08:00:00||VSMART BİLGİ TEKNOLOJİLERİ|10.40.24.62|||110000474326|42
26.10.2018 08:00:00||VSMART BİLGİ TEKNOLOJİLERİ|10.40.24.62|||110000474326|70
26.10.2018 08:00:00||VSMART BİLGİ TEKNOLOJİLERİ|10.40.24.62|||110000474326|37
26.10.2018 08:00:00||VSMART BİLGİ TEKNOLOJİLERİ|10.40.25.62|||110000474326|60
26.10.2018 08:00:00||VSMART BİLGİ TEKNOLOJİLERİ|10.40.24.62|||110000474326|42
26.10.2018 08:00:00||VSMART BİLGİ TEKNOLOJİLERİ|10.40.24.62|||110000474326|32
26.10.2018 08:00:00||VSMART BİLGİ TEKNOLOJİLERİ|10.40.24.62|||110000474326|10
26.10.2018 08:00:00||VSMART BİLGİ TEKNOLOJİLERİ|10.40.25.62|||110000474326|40
26.10.2018 08:00:00||VSMART BİLGİ TEKNOLOJİLERİ|10.40.25.62|||110000474326|10
26.10.2018 08:00:00||VSMART BİLGİ TEKNOLOJİLERİ|10.40.25.62|||110000474326|10
26.10.2018 08:00:00||VSMART BİLGİ TEKNOLOJİLERİ|10.40.25.62|||110000474326|80
26.10.2018 08:00:00||VSMART BİLGİ TEKNOLOJİLERİ|10.40.25.62|||110000474326|88
26.10.2018 08:00:00||VSMART BİLGİ TEKNOLOJİLERİ|10.40.25.62|||110000474326|100
26.10.2018 08:00:00||VSMART BİLGİ TEKNOLOJİLERİ|10.40.24.62|||110000474326|10
