12.10.2018 07:00:00||AKTİFBANK|10.40.24.172|||110000438458|95
12.10.2018 07:00:00||AKTİFBANK|10.40.25.134|||110000438458|92
12.10.2018 07:00:00||AKTİFBANK|10.40.24.134|||110000438458|92
12.10.2018 07:00:00||AKTİFBANK|10.40.24.135|||110000438458|100
12.10.2018 07:00:00||AKTİFBANK|10.40.25.137|||110000438458|57
12.10.2018 07:00:00||AKTİFBANK|10.40.25.171|||110000438458|12
12.10.2018 07:00:00||AKTİFBANK|10.40.25.172|||110000438458|89
12.10.2018 07:00:00||AKTİFBANK|10.40.25.174|||110000438458|53
12.10.2018 07:00:00||AKTİFBANK|10.40.25.135|||110000438458|97
12.10.2018 07:00:00||AKTİFBANK|10.40.24.137|||110000438458|57
12.10.2018 07:00:00||AKTİFBANK|10.40.24.171|||110000438458|11
12.10.2018 07:00:00||AKTİFBANK|10.40.24.173|||110000438458|93
12.10.2018 07:00:00||AKTİFBANK|10.40.24.174|||110000438458|60
12.10.2018 07:00:00||AKTİFBANK|10.40.24.133|||110000438458|77
12.10.2018 07:00:00||AKTİFBANK|10.40.24.138|||110000438458|123
12.10.2018 07:00:00||AKTİFBANK|10.40.24.139|||110000438458|30
12.10.2018 07:00:00||AKTİFBANK|10.40.24.149|||110000438458|110
12.10.2018 07:00:00||AKTİFBANK|10.40.24.150|||110000438458|552
12.10.2018 07:00:00||AKTİFBANK|10.40.24.145|||110000438458|60
12.10.2018 07:00:00||AKTİFBANK|10.40.24.164|||110000438458|227
12.10.2018 07:00:00||AKTİFBANK|10.40.25.133|||110000438458|70
12.10.2018 07:00:00||AKTİFBANK|10.40.24.145|||110000438458|90
12.10.2018 07:00:00||AKTİFBANK|10.40.24.158|||110000438458|82
12.10.2018 07:00:00||AKTİFBANK|10.40.24.164|||110000438458|68
12.10.2018 07:00:00||AKTİFBANK|10.40.25.138|||110000438458|80
12.10.2018 07:00:00||AKTİFBANK|10.40.25.139|||110000438458|10
12.10.2018 07:00:00||AKTİFBANK|10.40.25.140|||110000438458|30
12.10.2018 07:00:00||AKTİFBANK|10.40.25.151|||110000438458|502
12.10.2018 07:00:00||AKTİFBANK|10.40.25.141|||110000438458|100
12.10.2018 07:00:00||AKTİFBANK|10.40.25.141|||110000438458|85
12.10.2018 07:00:00||AKTİFBANK|10.40.25.142|||110000438458|75
12.10.2018 07:00:00||AKTİFBANK|10.40.25.133|||110000438458|110
12.10.2018 07:00:00||AKTİFBANK|10.40.25.149|||110000438458|100
12.10.2018 07:00:00||AKTİFBANK|10.40.25.149|||110000438458|90
12.10.2018 07:00:00||AKTİFBANK|10.40.25.149|||110000438458|90
12.10.2018 07:00:00||AKTİFBANK|10.40.25.140|||110000438458|30
12.10.2018 07:00:00||AKTİFBANK|10.40.25.150|||110000438458|537
12.10.2018 07:00:00||AKTİFBANK|10.40.25.139|||110000438458|170
12.10.2018 07:00:00||AKTİFBANK|10.40.25.139|||110000438458|40
12.10.2018 07:00:00||AKTİFBANK|10.40.25.140|||110000438458|80
12.10.2018 07:00:00||AKTİFBANK|10.40.25.140|||110000438458|70
12.10.2018 07:00:00||AKTİFBANK|10.40.25.140|||110000438458|30
12.10.2018 07:00:00||AKTİFBANK|10.40.25.151|||110000438458|522
12.10.2018 07:00:00||AKTİFBANK|10.40.25.151|||110000438458|493
12.10.2018 07:00:00||AKTİFBANK|10.40.25.141|||110000438458|40
12.10.2018 07:00:00||AKTİFBANK|10.40.25.141|||110000438458|100
12.10.2018 07:00:00||AKTİFBANK|10.40.25.141|||110000438458|68
12.10.2018 07:00:00||AKTİFBANK|10.40.25.142|||110000438458|38
12.10.2018 07:00:00||AKTİFBANK|10.40.25.149|||110000438458|70
12.10.2018 07:00:00||AKTİFBANK|10.40.25.149|||110000438458|110
12.10.2018 07:00:00||AKTİFBANK|10.40.25.149|||110000438458|90
12.10.2018 07:00:00||AKTİFBANK|10.40.25.149|||110000438458|90
12.10.2018 07:00:00||AKTİFBANK|10.40.25.149|||110000438458|105
12.10.2018 07:00:00||AKTİFBANK|10.40.24.139|||110000438458|62
12.10.2018 07:00:00||AKTİFBANK|10.40.25.153|||110000438458|10
12.10.2018 07:00:00||AKTİFBANK|10.40.25.150|||110000438458|543
12.10.2018 07:00:00||AKTİFBANK|10.40.25.153|||110000438458|70
12.10.2018 07:00:00||AKTİFBANK|10.40.25.163|||110000438458|50
12.10.2018 07:00:00||AKTİFBANK|10.40.24.141|||110000438458|68
12.10.2018 07:00:00||AKTİFBANK|10.40.24.151|||110000438458|500
12.10.2018 07:00:00||AKTİFBANK|10.40.25.153|||110000438458|80
12.10.2018 07:00:00||AKTİFBANK|10.40.24.149|||110000438458|85
12.10.2018 07:00:00||AKTİFBANK|10.40.24.141|||110000438458|50
12.10.2018 07:00:00||AKTİFBANK|10.40.25.133|||110000438458|280
12.10.2018 07:00:00||AKTİFBANK|10.40.25.133|||110000438458|90
12.10.2018 07:00:00||AKTİFBANK|10.40.24.149|||110000438458|90
12.10.2018 07:00:00||AKTİFBANK|10.40.24.162|||110000438458|210
12.10.2018 07:00:00||AKTİFBANK|10.40.24.162|||110000438458|30
12.10.2018 07:00:00||AKTİFBANK|10.40.24.162|||110000438458|40
12.10.2018 07:00:00||AKTİFBANK|10.40.25.133|||110000438458|150
12.10.2018 07:00:00||AKTİFBANK|10.40.25.138|||110000438458|130
12.10.2018 07:00:00||AKTİFBANK|10.40.25.149|||110000438458|57
12.10.2018 07:00:00||AKTİFBANK|10.40.25.149|||110000438458|70
12.10.2018 07:00:00||AKTİFBANK|10.40.25.149|||110000438458|27
12.10.2018 07:00:00||AKTİFBANK|10.40.25.149|||110000438458|80
12.10.2018 07:00:00||AKTİFBANK|10.40.25.149|||110000438458|72
12.10.2018 07:00:00||AKTİFBANK|10.40.25.141|||110000438458|100
12.10.2018 07:00:00||AKTİFBANK|10.40.25.149|||110000438458|130
12.10.2018 07:00:00||AKTİFBANK|10.40.25.138|||110000438458|92
12.10.2018 07:00:00||AKTİFBANK|10.40.25.138|||110000438458|75
12.10.2018 07:00:00||AKTİFBANK|10.40.25.139|||110000438458|100
12.10.2018 07:00:00||AKTİFBANK|10.40.24.145|||110000438458|70
12.10.2018 07:00:00||AKTİFBANK|10.40.24.149|||110000438458|160
12.10.2018 07:00:00||AKTİFBANK|10.40.25.138|||110000438458|30
12.10.2018 07:00:00||AKTİFBANK|10.40.25.138|||110000438458|12
12.10.2018 07:00:00||AKTİFBANK|10.40.25.153|||110000438458|60
12.10.2018 07:00:00||AKTİFBANK|10.40.24.150|||110000438458|545
12.10.2018 07:00:00||AKTİFBANK|10.40.25.128|||110000438458|70
12.10.2018 07:00:00||AKTİFBANK|10.40.25.128|||110000438458|90
12.10.2018 07:00:00||AKTİFBANK|10.40.25.128|||110000438458|90
12.10.2018 07:00:00||AKTİFBANK|10.40.25.128|||110000438458|40
12.10.2018 07:00:00||AKTİFBANK|10.40.25.128|||110000438458|70
12.10.2018 07:00:00||AKTİFBANK|10.40.25.129|||110000438458|85
12.10.2018 07:00:00||AKTİFBANK|10.40.25.129|||110000438458|72
12.10.2018 07:00:00||AKTİFBANK|10.40.25.129|||110000438458|140
12.10.2018 07:00:00||AKTİFBANK|10.40.25.129|||110000438458|105
12.10.2018 07:00:00||AKTİFBANK|10.40.25.129|||110000438458|42
12.10.2018 07:00:00||AKTİFBANK|10.40.25.129|||110000438458|93
12.10.2018 07:00:00||AKTİFBANK|10.40.25.129|||110000438458|92
12.10.2018 07:00:00||AKTİFBANK|10.40.25.130|||110000438458|60
12.10.2018 07:00:00||AKTİFBANK|10.40.25.130|||110000438458|50
12.10.2018 07:00:00||AKTİFBANK|10.40.25.130|||110000438458|72
12.10.2018 07:00:00||AKTİFBANK|10.40.25.130|||110000438458|32
12.10.2018 07:00:00||AKTİFBANK|10.40.25.130|||110000438458|60
12.10.2018 07:00:00||AKTİFBANK|10.40.25.130|||110000438458|100
12.10.2018 07:00:00||AKTİFBANK|10.40.25.130|||110000438458|82
12.10.2018 07:00:00||AKTİFBANK|10.40.25.131|||110000438458|20
12.10.2018 07:00:00||AKTİFBANK|10.40.25.131|||110000438458|72
12.10.2018 07:00:00||AKTİFBANK|10.40.25.131|||110000438458|100
12.10.2018 07:00:00||AKTİFBANK|10.40.25.131|||110000438458|100
12.10.2018 07:00:00||AKTİFBANK|10.40.25.131|||110000438458|82
12.10.2018 07:00:00||AKTİFBANK|10.40.25.131|||110000438458|80
12.10.2018 07:00:00||AKTİFBANK|10.40.25.131|||110000438458|20
12.10.2018 07:00:00||AKTİFBANK|10.40.25.131|||110000438458|120
12.10.2018 07:00:00||AKTİFBANK|10.40.25.132|||110000438458|60
12.10.2018 07:00:00||AKTİFBANK|10.40.25.132|||110000438458|60
12.10.2018 07:00:00||AKTİFBANK|10.40.25.132|||110000438458|82
12.10.2018 07:00:00||AKTİFBANK|10.40.25.132|||110000438458|157
12.10.2018 07:00:00||AKTİFBANK|10.40.25.132|||110000438458|60
12.10.2018 07:00:00||AKTİFBANK|10.40.25.143|||110000438458|320
12.10.2018 07:00:00||AKTİFBANK|10.40.25.144|||110000438458|80
12.10.2018 07:00:00||AKTİFBANK|10.40.25.144|||110000438458|50
12.10.2018 07:00:00||AKTİFBANK|10.40.25.144|||110000438458|20
12.10.2018 07:00:00||AKTİFBANK|10.40.25.154|||110000438458|10
12.10.2018 07:00:00||AKTİFBANK|10.40.25.154|||110000438458|10
12.10.2018 07:00:00||AKTİFBANK|10.40.25.154|||110000438458|10
12.10.2018 07:00:00||AKTİFBANK|10.40.25.157|||110000438458|70
12.10.2018 07:00:00||AKTİFBANK|10.40.25.157|||110000438458|70
12.10.2018 07:00:00||AKTİFBANK|10.40.25.157|||110000438458|72
12.10.2018 07:00:00||AKTİFBANK|10.40.25.157|||110000438458|80
12.10.2018 07:00:00||AKTİFBANK|10.40.25.157|||110000438458|47
12.10.2018 07:00:00||AKTİFBANK|10.40.25.159|||110000438458|60
12.10.2018 07:00:00||AKTİFBANK|10.40.25.159|||110000438458|10
12.10.2018 07:00:00||AKTİFBANK|10.40.25.159|||110000438458|90
12.10.2018 07:00:00||AKTİFBANK|10.40.25.158|||110000438458|93
12.10.2018 07:00:00||AKTİFBANK|10.40.25.158|||110000438458|37
12.10.2018 07:00:00||AKTİFBANK|10.40.25.158|||110000438458|43
12.10.2018 07:00:00||AKTİFBANK|10.40.25.158|||110000438458|50
12.10.2018 07:00:00||AKTİFBANK|10.40.25.160|||110000438458|90
12.10.2018 07:00:00||AKTİFBANK|10.40.25.161|||110000438458|80
12.10.2018 07:00:00||AKTİFBANK|10.40.25.161|||110000438458|70
12.10.2018 07:00:00||AKTİFBANK|10.40.25.161|||110000438458|40
12.10.2018 07:00:00||AKTİFBANK|10.40.25.161|||110000438458|30
12.10.2018 07:00:00||AKTİFBANK|10.40.25.161|||110000438458|20
12.10.2018 07:00:00||AKTİFBANK|10.40.25.161|||110000438458|55
12.10.2018 07:00:00||AKTİFBANK|10.40.25.145|||110000438458|90
12.10.2018 07:00:00||AKTİFBANK|10.40.25.145|||110000438458|60
12.10.2018 07:00:00||AKTİFBANK|10.40.25.145|||110000438458|60
12.10.2018 07:00:00||AKTİFBANK|10.40.25.145|||110000438458|30
12.10.2018 07:00:00||AKTİFBANK|10.40.25.145|||110000438458|50
12.10.2018 07:00:00||AKTİFBANK|10.40.25.147|||110000438458|90
12.10.2018 07:00:00||AKTİFBANK|10.40.25.162|||110000438458|30
12.10.2018 07:00:00||AKTİFBANK|10.40.25.162|||110000438458|30
12.10.2018 07:00:00||AKTİFBANK|10.40.25.162|||110000438458|60
12.10.2018 07:00:00||AKTİFBANK|10.40.25.164|||110000438458|60
12.10.2018 07:00:00||AKTİFBANK|10.40.25.164|||110000438458|280
12.10.2018 07:00:00||AKTİFBANK|10.40.25.164|||110000438458|50
12.10.2018 07:00:00||AKTİFBANK|10.40.25.164|||110000438458|260
12.10.2018 07:00:00||AKTİFBANK|10.40.25.164|||110000438458|270
12.10.2018 07:00:00||AKTİFBANK|10.40.25.165|||110000438458|110
12.10.2018 07:00:00||AKTİFBANK|10.40.25.165|||110000438458|70
12.10.2018 07:00:00||AKTİFBANK|10.40.25.165|||110000438458|80
12.10.2018 07:00:00||AKTİFBANK|10.40.25.165|||110000438458|100
12.10.2018 07:00:00||AKTİFBANK|10.40.25.166|||110000438458|90
12.10.2018 07:00:00||AKTİFBANK|10.40.25.166|||110000438458|10
12.10.2018 07:00:00||AKTİFBANK|10.40.25.166|||110000438458|10
12.10.2018 07:00:00||AKTİFBANK|10.40.25.166|||110000438458|10
12.10.2018 07:00:00||AKTİFBANK|10.40.25.166|||110000438458|40
12.10.2018 07:00:00||AKTİFBANK|10.40.25.148|||110000438458|130
12.10.2018 07:00:00||AKTİFBANK|10.40.25.148|||110000438458|50
12.10.2018 07:00:00||AKTİFBANK|10.40.25.148|||110000438458|100
12.10.2018 07:00:00||AKTİFBANK|10.40.25.148|||110000438458|130
12.10.2018 07:00:00||AKTİFBANK|10.40.25.148|||110000438458|90
12.10.2018 07:00:00||AKTİFBANK|10.40.25.148|||110000438458|80
12.10.2018 07:00:00||AKTİFBANK|10.40.25.148|||110000438458|70
12.10.2018 07:00:00||AKTİFBANK|10.40.25.148|||110000438458|50
12.10.2018 07:00:00||AKTİFBANK|10.40.25.148|||110000438458|80
12.10.2018 07:00:00||AKTİFBANK|10.40.25.148|||110000438458|40
12.10.2018 07:00:00||AKTİFBANK|10.40.25.148|||110000438458|100
12.10.2018 07:00:00||AKTİFBANK|10.40.25.148|||110000438458|60
12.10.2018 07:00:00||AKTİFBANK|10.40.25.155|||110000438458|70
12.10.2018 07:00:00||AKTİFBANK|10.40.25.155|||110000438458|90
12.10.2018 07:00:00||AKTİFBANK|10.40.25.155|||110000438458|110
12.10.2018 07:00:00||AKTİFBANK|10.40.25.155|||110000438458|120
12.10.2018 07:00:00||AKTİFBANK|10.40.25.155|||110000438458|107
12.10.2018 07:00:00||AKTİFBANK|10.40.25.156|||110000438458|20
12.10.2018 07:00:00||AKTİFBANK|10.40.25.156|||110000438458|25
12.10.2018 07:00:00||AKTİFBANK|10.40.25.139|||110000438458|70
12.10.2018 07:00:00||AKTİFBANK|10.40.25.139|||110000438458|80
12.10.2018 07:00:00||AKTİFBANK|10.40.25.150|||110000438458|505
12.10.2018 07:00:00||AKTİFBANK|10.40.25.129|||110000438458|60
12.10.2018 07:00:00||AKTİFBANK|10.40.25.129|||110000438458|83
12.10.2018 07:00:00||AKTİFBANK|10.40.25.129|||110000438458|140
12.10.2018 07:00:00||AKTİFBANK|10.40.25.130|||110000438458|63
12.10.2018 07:00:00||AKTİFBANK|10.40.25.130|||110000438458|128
12.10.2018 07:00:00||AKTİFBANK|10.40.25.130|||110000438458|100
12.10.2018 07:00:00||AKTİFBANK|10.40.25.131|||110000438458|43
12.10.2018 07:00:00||AKTİFBANK|10.40.25.143|||110000438458|62
12.10.2018 07:00:00||AKTİFBANK|10.40.25.143|||110000438458|240
12.10.2018 07:00:00||AKTİFBANK|10.40.25.143|||110000438458|270
12.10.2018 07:00:00||AKTİFBANK|10.40.25.158|||110000438458|102
12.10.2018 07:00:00||AKTİFBANK|10.40.25.160|||110000438458|110
12.10.2018 07:00:00||AKTİFBANK|10.40.25.162|||110000438458|32
12.10.2018 07:00:00||AKTİFBANK|10.40.25.162|||110000438458|40
12.10.2018 07:00:00||AKTİFBANK|10.40.24.140|||110000438458|160
12.10.2018 07:00:00||AKTİFBANK|10.40.24.140|||110000438458|80
12.10.2018 07:00:00||AKTİFBANK|10.40.24.140|||110000438458|40
12.10.2018 07:00:00||AKTİFBANK|10.40.24.140|||110000438458|30
12.10.2018 07:00:00||AKTİFBANK|10.40.24.140|||110000438458|30
12.10.2018 07:00:00||AKTİFBANK|10.40.24.140|||110000438458|30
12.10.2018 07:00:00||AKTİFBANK|10.40.24.149|||110000438458|80
12.10.2018 07:00:00||AKTİFBANK|10.40.24.149|||110000438458|120
12.10.2018 07:00:00||AKTİFBANK|10.40.24.149|||110000438458|95
12.10.2018 07:00:00||AKTİFBANK|10.40.24.149|||110000438458|55
12.10.2018 07:00:00||AKTİFBANK|10.40.24.149|||110000438458|50
12.10.2018 07:00:00||AKTİFBANK|10.40.24.149|||110000438458|138
12.10.2018 07:00:00||AKTİFBANK|10.40.24.149|||110000438458|90
12.10.2018 07:00:00||AKTİFBANK|10.40.24.149|||110000438458|90
12.10.2018 07:00:00||AKTİFBANK|10.40.24.149|||110000438458|95
12.10.2018 07:00:00||AKTİFBANK|10.40.24.149|||110000438458|80
12.10.2018 07:00:00||AKTİFBANK|10.40.24.133|||110000438458|147
12.10.2018 07:00:00||AKTİFBANK|10.40.24.133|||110000438458|120
12.10.2018 07:00:00||AKTİFBANK|10.40.24.133|||110000438458|85
12.10.2018 07:00:00||AKTİFBANK|10.40.24.138|||110000438458|113
12.10.2018 07:00:00||AKTİFBANK|10.40.24.138|||110000438458|137
12.10.2018 07:00:00||AKTİFBANK|10.40.24.138|||110000438458|110
12.10.2018 07:00:00||AKTİFBANK|10.40.24.138|||110000438458|32
12.10.2018 07:00:00||AKTİFBANK|10.40.24.138|||110000438458|50
12.10.2018 07:00:00||AKTİFBANK|10.40.24.139|||110000438458|160
12.10.2018 07:00:00||AKTİFBANK|10.40.24.139|||110000438458|90
12.10.2018 07:00:00||AKTİFBANK|10.40.24.139|||110000438458|122
12.10.2018 07:00:00||AKTİFBANK|10.40.24.141|||110000438458|200
12.10.2018 07:00:00||AKTİFBANK|10.40.24.141|||110000438458|100
12.10.2018 07:00:00||AKTİFBANK|10.40.24.141|||110000438458|100
12.10.2018 07:00:00||AKTİFBANK|10.40.24.141|||110000438458|60
12.10.2018 07:00:00||AKTİFBANK|10.40.24.141|||110000438458|80
12.10.2018 07:00:00||AKTİFBANK|10.40.25.152|||110000438458|102
12.10.2018 07:00:00||AKTİFBANK|10.40.25.152|||110000438458|50
12.10.2018 07:00:00||AKTİFBANK|10.40.25.152|||110000438458|113
12.10.2018 07:00:00||AKTİFBANK|10.40.25.152|||110000438458|70
12.10.2018 07:00:00||AKTİFBANK|10.40.25.152|||110000438458|88
12.10.2018 07:00:00||AKTİFBANK|10.40.25.152|||110000438458|52
12.10.2018 07:00:00||AKTİFBANK|10.40.25.152|||110000438458|62
12.10.2018 07:00:00||AKTİFBANK|10.40.25.152|||110000438458|95
12.10.2018 07:00:00||AKTİFBANK|10.40.25.152|||110000438458|30
12.10.2018 07:00:00||AKTİFBANK|10.40.25.152|||110000438458|80
12.10.2018 07:00:00||AKTİFBANK|10.40.25.152|||110000438458|30
12.10.2018 07:00:00||AKTİFBANK|10.40.24.150|||110000438458|552
12.10.2018 07:00:00||AKTİFBANK|10.40.24.151|||110000438458|510
12.10.2018 07:00:00||AKTİFBANK|10.40.24.151|||110000438458|525
12.10.2018 07:00:00||AKTİFBANK|10.40.24.128|||110000438458|60
12.10.2018 07:00:00||AKTİFBANK|10.40.24.128|||110000438458|70
12.10.2018 07:00:00||AKTİFBANK|10.40.24.128|||110000438458|100
12.10.2018 07:00:00||AKTİFBANK|10.40.24.128|||110000438458|40
12.10.2018 07:00:00||AKTİFBANK|10.40.24.128|||110000438458|70
12.10.2018 07:00:00||AKTİFBANK|10.40.24.128|||110000438458|40
12.10.2018 07:00:00||AKTİFBANK|10.40.24.129|||110000438458|100
12.10.2018 07:00:00||AKTİFBANK|10.40.24.129|||110000438458|68
12.10.2018 07:00:00||AKTİFBANK|10.40.24.129|||110000438458|108
12.10.2018 07:00:00||AKTİFBANK|10.40.24.129|||110000438458|113
12.10.2018 07:00:00||AKTİFBANK|10.40.24.129|||110000438458|45
12.10.2018 07:00:00||AKTİFBANK|10.40.24.129|||110000438458|72
12.10.2018 07:00:00||AKTİFBANK|10.40.24.129|||110000438458|70
12.10.2018 07:00:00||AKTİFBANK|10.40.24.129|||110000438458|90
12.10.2018 07:00:00||AKTİFBANK|10.40.24.129|||110000438458|80
12.10.2018 07:00:00||AKTİFBANK|10.40.24.129|||110000438458|140
12.10.2018 07:00:00||AKTİFBANK|10.40.24.130|||110000438458|40
12.10.2018 07:00:00||AKTİFBANK|10.40.24.130|||110000438458|42
12.10.2018 07:00:00||AKTİFBANK|10.40.24.130|||110000438458|63
12.10.2018 07:00:00||AKTİFBANK|10.40.24.130|||110000438458|40
12.10.2018 07:00:00||AKTİFBANK|10.40.24.130|||110000438458|60
12.10.2018 07:00:00||AKTİFBANK|10.40.24.130|||110000438458|77
12.10.2018 07:00:00||AKTİFBANK|10.40.24.130|||110000438458|88
12.10.2018 07:00:00||AKTİFBANK|10.40.24.130|||110000438458|37
12.10.2018 07:00:00||AKTİFBANK|10.40.24.130|||110000438458|130
12.10.2018 07:00:00||AKTİFBANK|10.40.24.130|||110000438458|110
12.10.2018 07:00:00||AKTİFBANK|10.40.24.131|||110000438458|80
12.10.2018 07:00:00||AKTİFBANK|10.40.24.131|||110000438458|90
12.10.2018 07:00:00||AKTİFBANK|10.40.24.131|||110000438458|110
12.10.2018 07:00:00||AKTİFBANK|10.40.24.131|||110000438458|108
12.10.2018 07:00:00||AKTİFBANK|10.40.24.131|||110000438458|20
12.10.2018 07:00:00||AKTİFBANK|10.40.24.131|||110000438458|160
12.10.2018 07:00:00||AKTİFBANK|10.40.24.131|||110000438458|62
12.10.2018 07:00:00||AKTİFBANK|10.40.24.131|||110000438458|110
12.10.2018 07:00:00||AKTİFBANK|10.40.24.132|||110000438458|32
12.10.2018 07:00:00||AKTİFBANK|10.40.24.132|||110000438458|75
12.10.2018 07:00:00||AKTİFBANK|10.40.24.132|||110000438458|52
12.10.2018 07:00:00||AKTİFBANK|10.40.24.132|||110000438458|185
12.10.2018 07:00:00||AKTİFBANK|10.40.24.132|||110000438458|67
12.10.2018 07:00:00||AKTİFBANK|10.40.24.143|||110000438458|62
12.10.2018 07:00:00||AKTİFBANK|10.40.24.143|||110000438458|270
12.10.2018 07:00:00||AKTİFBANK|10.40.24.143|||110000438458|272
12.10.2018 07:00:00||AKTİFBANK|10.40.24.143|||110000438458|227
12.10.2018 07:00:00||AKTİFBANK|10.40.24.144|||110000438458|70
12.10.2018 07:00:00||AKTİFBANK|10.40.24.144|||110000438458|108
12.10.2018 07:00:00||AKTİFBANK|10.40.24.144|||110000438458|130
12.10.2018 07:00:00||AKTİFBANK|10.40.24.148|||110000438458|67
12.10.2018 07:00:00||AKTİFBANK|10.40.24.148|||110000438458|170
12.10.2018 07:00:00||AKTİFBANK|10.40.24.148|||110000438458|80
12.10.2018 07:00:00||AKTİFBANK|10.40.24.148|||110000438458|110
12.10.2018 07:00:00||AKTİFBANK|10.40.24.148|||110000438458|80
12.10.2018 07:00:00||AKTİFBANK|10.40.24.148|||110000438458|80
12.10.2018 07:00:00||AKTİFBANK|10.40.24.148|||110000438458|92
12.10.2018 07:00:00||AKTİFBANK|10.40.24.148|||110000438458|100
12.10.2018 07:00:00||AKTİFBANK|10.40.24.148|||110000438458|78
12.10.2018 07:00:00||AKTİFBANK|10.40.24.148|||110000438458|50
12.10.2018 07:00:00||AKTİFBANK|10.40.24.148|||110000438458|28
12.10.2018 07:00:00||AKTİFBANK|10.40.24.148|||110000438458|70
12.10.2018 07:00:00||AKTİFBANK|10.40.24.153|||110000438458|10
12.10.2018 07:00:00||AKTİFBANK|10.40.24.153|||110000438458|92
12.10.2018 07:00:00||AKTİFBANK|10.40.24.153|||110000438458|73
12.10.2018 07:00:00||AKTİFBANK|10.40.24.153|||110000438458|88
12.10.2018 07:00:00||AKTİFBANK|10.40.24.157|||110000438458|30
12.10.2018 07:00:00||AKTİFBANK|10.40.24.157|||110000438458|80
12.10.2018 07:00:00||AKTİFBANK|10.40.24.157|||110000438458|70
12.10.2018 07:00:00||AKTİFBANK|10.40.24.157|||110000438458|48
12.10.2018 07:00:00||AKTİFBANK|10.40.24.157|||110000438458|80
12.10.2018 07:00:00||AKTİFBANK|10.40.24.157|||110000438458|43
12.10.2018 07:00:00||AKTİFBANK|10.40.24.158|||110000438458|80
12.10.2018 07:00:00||AKTİFBANK|10.40.24.158|||110000438458|113
12.10.2018 07:00:00||AKTİFBANK|10.40.24.159|||110000438458|130
12.10.2018 07:00:00||AKTİFBANK|10.40.24.159|||110000438458|52
12.10.2018 07:00:00||AKTİFBANK|10.40.24.159|||110000438458|182
12.10.2018 07:00:00||AKTİFBANK|10.40.24.160|||110000438458|50
12.10.2018 07:00:00||AKTİFBANK|10.40.24.160|||110000438458|90
12.10.2018 07:00:00||AKTİFBANK|10.40.24.160|||110000438458|100
12.10.2018 07:00:00||AKTİFBANK|10.40.24.161|||110000438458|200
12.10.2018 07:00:00||AKTİFBANK|10.40.24.161|||110000438458|80
12.10.2018 07:00:00||AKTİFBANK|10.40.24.161|||110000438458|40
12.10.2018 07:00:00||AKTİFBANK|10.40.24.161|||110000438458|30
12.10.2018 07:00:00||AKTİFBANK|10.40.24.161|||110000438458|30
12.10.2018 07:00:00||AKTİFBANK|10.40.24.161|||110000438458|20
12.10.2018 07:00:00||AKTİFBANK|10.40.24.161|||110000438458|90
12.10.2018 07:00:00||AKTİFBANK|10.40.24.145|||110000438458|20
12.10.2018 07:00:00||AKTİFBANK|10.40.24.145|||110000438458|70
12.10.2018 07:00:00||AKTİFBANK|10.40.24.145|||110000438458|60
12.10.2018 07:00:00||AKTİFBANK|10.40.24.147|||110000438458|90
12.10.2018 07:00:00||AKTİFBANK|10.40.24.162|||110000438458|40
12.10.2018 07:00:00||AKTİFBANK|10.40.24.162|||110000438458|40
12.10.2018 07:00:00||AKTİFBANK|10.40.24.162|||110000438458|127
12.10.2018 07:00:00||AKTİFBANK|10.40.24.162|||110000438458|10
12.10.2018 07:00:00||AKTİFBANK|10.40.24.162|||110000438458|45
12.10.2018 07:00:00||AKTİFBANK|10.40.24.163|||110000438458|30
12.10.2018 07:00:00||AKTİFBANK|10.40.24.163|||110000438458|73
12.10.2018 07:00:00||AKTİFBANK|10.40.24.164|||110000438458|60
12.10.2018 07:00:00||AKTİFBANK|10.40.24.164|||110000438458|330
12.10.2018 07:00:00||AKTİFBANK|10.40.24.164|||110000438458|215
12.10.2018 07:00:00||AKTİFBANK|10.40.24.165|||110000438458|78
12.10.2018 07:00:00||AKTİFBANK|10.40.24.165|||110000438458|80
12.10.2018 07:00:00||AKTİFBANK|10.40.24.165|||110000438458|50
12.10.2018 07:00:00||AKTİFBANK|10.40.24.165|||110000438458|125
12.10.2018 07:00:00||AKTİFBANK|10.40.24.166|||110000438458|80
12.10.2018 07:00:00||AKTİFBANK|10.40.24.166|||110000438458|90
12.10.2018 07:00:00||AKTİFBANK|10.40.24.166|||110000438458|10
12.10.2018 07:00:00||AKTİFBANK|10.40.25.168|||110000438458|90
12.10.2018 07:00:00||AKTİFBANK|10.40.25.168|||110000438458|70
12.10.2018 07:00:00||AKTİFBANK|10.40.25.168|||110000438458|50
12.10.2018 07:00:00||AKTİFBANK|10.40.25.168|||110000438458|40
12.10.2018 07:00:00||AKTİFBANK|10.40.25.168|||110000438458|60
12.10.2018 07:00:00||AKTİFBANK|10.40.24.168|||110000438458|90
12.10.2018 07:00:00||AKTİFBANK|10.40.24.168|||110000438458|40
12.10.2018 07:00:00||AKTİFBANK|10.40.24.168|||110000438458|80
12.10.2018 07:00:00||AKTİFBANK|10.40.24.168|||110000438458|70
12.10.2018 07:00:00||AKTİFBANK|10.40.24.168|||110000438458|70
12.10.2018 07:00:00||AKTİFBANK|10.40.24.168|||110000438458|30
12.10.2018 07:00:00||AKTİFBANK|10.40.24.154|||110000438458|70
12.10.2018 07:00:00||AKTİFBANK|10.40.24.154|||110000438458|18
12.10.2018 07:00:00||AKTİFBANK|10.40.24.154|||110000438458|10
12.10.2018 07:00:00||AKTİFBANK|10.40.24.154|||110000438458|10
12.10.2018 07:00:00||AKTİFBANK|10.40.24.154|||110000438458|10
12.10.2018 07:00:00||AKTİFBANK|10.40.24.154|||110000438458|10
12.10.2018 07:00:00||AKTİFBANK|10.40.24.155|||110000438458|100
12.10.2018 07:00:00||AKTİFBANK|10.40.24.155|||110000438458|130
12.10.2018 07:00:00||AKTİFBANK|10.40.24.155|||110000438458|80
12.10.2018 07:00:00||AKTİFBANK|10.40.24.155|||110000438458|110
12.10.2018 07:00:00||AKTİFBANK|10.40.24.155|||110000438458|100
12.10.2018 07:00:00||AKTİFBANK|10.40.25.169|||110000438458|102
12.10.2018 07:00:00||AKTİFBANK|10.40.25.169|||110000438458|90
12.10.2018 07:00:00||AKTİFBANK|10.40.25.169|||110000438458|70
12.10.2018 07:00:00||AKTİFBANK|10.40.25.169|||110000438458|78
12.10.2018 07:00:00||AKTİFBANK|10.40.24.169|||110000438458|77
12.10.2018 07:00:00||AKTİFBANK|10.40.24.169|||110000438458|100
12.10.2018 07:00:00||AKTİFBANK|10.40.24.169|||110000438458|73
12.10.2018 07:00:00||AKTİFBANK|10.40.24.169|||110000438458|80
12.10.2018 07:00:00||AKTİFBANK|10.40.25.170|||110000438458|30
12.10.2018 07:00:00||AKTİFBANK|10.40.25.170|||110000438458|30
12.10.2018 07:00:00||AKTİFBANK|10.40.25.170|||110000438458|200
12.10.2018 07:00:00||AKTİFBANK|10.40.25.170|||110000438458|100
12.10.2018 07:00:00||AKTİFBANK|10.40.25.170|||110000438458|80
12.10.2018 07:00:00||AKTİFBANK|10.40.25.170|||110000438458|120
12.10.2018 07:00:00||AKTİFBANK|10.40.24.170|||110000438458|60
12.10.2018 07:00:00||AKTİFBANK|10.40.24.170|||110000438458|60
12.10.2018 07:00:00||AKTİFBANK|10.40.24.170|||110000438458|265
12.10.2018 07:00:00||AKTİFBANK|10.40.24.170|||110000438458|242
12.10.2018 07:00:00||AKTİFBANK|10.40.24.170|||110000438458|75
12.10.2018 07:00:00||AKTİFBANK|10.40.24.170|||110000438458|102
12.10.2018 07:00:00||AKTİFBANK|10.40.24.170|||110000438458|75
12.10.2018 07:00:00||AKTİFBANK|10.40.25.178|||110000438458|548
12.10.2018 07:00:00||AKTİFBANK|10.40.25.178|||110000438458|553
12.10.2018 07:00:00||AKTİFBANK|10.40.25.178|||110000438458|552
12.10.2018 07:00:00||AKTİFBANK|10.40.24.178|||110000438458|552
12.10.2018 07:00:00||AKTİFBANK|10.40.24.178|||110000438458|545
12.10.2018 07:00:00||AKTİFBANK|10.40.24.178|||110000438458|533
12.10.2018 07:00:00||AKTİFBANK|10.40.25.179|||110000438458|407
12.10.2018 07:00:00||AKTİFBANK|10.40.25.179|||110000438458|363
12.10.2018 07:00:00||AKTİFBANK|10.40.25.179|||110000438458|367
12.10.2018 07:00:00||AKTİFBANK|10.40.24.179|||110000438458|335
12.10.2018 07:00:00||AKTİFBANK|10.40.24.179|||110000438458|333
12.10.2018 07:00:00||AKTİFBANK|10.40.24.179|||110000438458|333
12.10.2018 07:00:00||AKTİFBANK|10.40.24.142|||110000438458|40
12.10.2018 07:00:00||AKTİFBANK|10.40.24.156|||110000438458|50
12.10.2018 07:00:00||AKTİFBANK|10.40.24.156|||110000438458|50
12.10.2018 07:00:00||AKTİFBANK|10.40.25.186|||110000438458|90
12.10.2018 07:00:00||AKTİFBANK|10.40.25.186|||110000438458|20
12.10.2018 07:00:00||AKTİFBANK|10.40.25.186|||110000438458|70
12.10.2018 07:00:00||AKTİFBANK|10.40.24.186|||110000438458|93
12.10.2018 07:00:00||AKTİFBANK|10.40.24.186|||110000438458|20
12.10.2018 07:00:00||AKTİFBANK|10.40.24.186|||110000438458|60
12.10.2018 07:00:00||AKTİFBANK|10.40.24.186|||110000438458|40
12.10.2018 07:00:00||AKTİFBANK|10.40.24.152|||110000438458|10
12.10.2018 07:00:00||AKTİFBANK|10.40.24.152|||110000438458|47
12.10.2018 07:00:00||AKTİFBANK|10.40.24.152|||110000438458|88
12.10.2018 07:00:00||AKTİFBANK|10.40.24.152|||110000438458|102
12.10.2018 07:00:00||AKTİFBANK|10.40.24.152|||110000438458|100
12.10.2018 07:00:00||AKTİFBANK|10.40.24.152|||110000438458|103
12.10.2018 07:00:00||AKTİFBANK|10.40.24.152|||110000438458|307
12.10.2018 07:00:00||AKTİFBANK|10.40.24.152|||110000438458|75
12.10.2018 07:00:00||AKTİFBANK|10.40.24.152|||110000438458|93
12.10.2018 07:00:00||AKTİFBANK|10.40.24.152|||110000438458|30
12.10.2018 07:00:00||AKTİFBANK|10.40.24.152|||110000438458|70
12.10.2018 07:00:00||AKTİFBANK|10.40.24.152|||110000438458|30
12.10.2018 07:00:00||BARİKAT İNTERNET GÜVENLİĞİ|10.40.25.201|||110000479736|113
12.10.2018 07:00:00||BARİKAT İNTERNET GÜVENLİĞİ|10.40.25.201|||110000479736|100
12.10.2018 07:00:00||BARİKAT İNTERNET GÜVENLİĞİ|10.40.24.201|||110000479736|130
12.10.2018 07:00:00||BARİKAT İNTERNET GÜVENLİĞİ|10.40.24.201|||110000479736|92
12.10.2018 07:00:00||BOYNER|10.40.26.100|||101367941673|56
12.10.2018 07:00:00||BOYNER|10.40.26.101|||101367941673|163
12.10.2018 07:00:00||BOYNER|10.40.27.100|||101367941673|51
12.10.2018 07:00:00||BOYNER|10.40.27.101|||101367941673|165
12.10.2018 07:00:00||BOYNER|10.40.27.94|||101367941673|210
12.10.2018 07:00:00||BOYNER|10.40.27.94|||101367941673|90
12.10.2018 07:00:00||BOYNER|10.40.27.94|||101367941673|90
12.10.2018 07:00:00||BOYNER|10.40.27.94|||101367941673|100
12.10.2018 07:00:00||BOYNER|10.40.26.94|||101367941673|90
12.10.2018 07:00:00||BOYNER|10.40.26.94|||101367941673|80
12.10.2018 07:00:00||BOYNER|10.40.26.94|||101367941673|80
12.10.2018 07:00:00||BOYNER|10.40.27.95|||101367941673|135
12.10.2018 07:00:00||BOYNER|10.40.27.95|||101367941673|125
12.10.2018 07:00:00||BOYNER|10.40.27.95|||101367941673|232
12.10.2018 07:00:00||BOYNER|10.40.26.95|||101367941673|127
12.10.2018 07:00:00||BOYNER|10.40.26.95|||101367941673|190
12.10.2018 07:00:00||BOYNER|10.40.26.95|||101367941673|132
12.10.2018 07:00:00||BOYNER|10.40.27.96|||101367941673|60
12.10.2018 07:00:00||BOYNER|10.40.27.96|||101367941673|52
12.10.2018 07:00:00||BOYNER|10.40.27.96|||101367941673|50
12.10.2018 07:00:00||BOYNER|10.40.27.96|||101367941673|40
12.10.2018 07:00:00||BOYNER|10.40.27.96|||101367941673|40
12.10.2018 07:00:00||BOYNER|10.40.27.96|||101367941673|145
12.10.2018 07:00:00||BOYNER|10.40.27.96|||101367941673|147
12.10.2018 07:00:00||BOYNER|10.40.27.96|||101367941673|175
12.10.2018 07:00:00||BOYNER|10.40.27.96|||101367941673|167
12.10.2018 07:00:00||BOYNER|10.40.26.96|||101367941673|30
12.10.2018 07:00:00||BOYNER|10.40.26.96|||101367941673|40
12.10.2018 07:00:00||BOYNER|10.40.26.96|||101367941673|30
12.10.2018 07:00:00||BOYNER|10.40.26.96|||101367941673|40
12.10.2018 07:00:00||BOYNER|10.40.26.96|||101367941673|40
12.10.2018 07:00:00||BOYNER|10.40.26.96|||101367941673|50
12.10.2018 07:00:00||BOYNER|10.40.26.96|||101367941673|187
12.10.2018 07:00:00||BOYNER|10.40.26.96|||101367941673|197
12.10.2018 07:00:00||BOYNER|10.40.26.96|||101367941673|157
12.10.2018 07:00:00||BOYNER|10.40.26.96|||101367941673|173
12.10.2018 07:00:00||BOYNER|10.40.27.97|||101367941673|60
12.10.2018 07:00:00||BOYNER|10.40.27.97|||101367941673|638
12.10.2018 07:00:00||BOYNER|10.40.27.97|||101367941673|642
12.10.2018 07:00:00||BOYNER|10.40.27.97|||101367941673|677
12.10.2018 07:00:00||BOYNER|10.40.27.97|||101367941673|50
12.10.2018 07:00:00||BOYNER|10.40.27.97|||101367941673|33
12.10.2018 07:00:00||BOYNER|10.40.27.97|||101367941673|50
12.10.2018 07:00:00||BOYNER|10.40.27.97|||101367941673|30
12.10.2018 07:00:00||BOYNER|10.40.27.97|||101367941673|175
12.10.2018 07:00:00||BOYNER|10.40.27.97|||101367941673|172
12.10.2018 07:00:00||BOYNER|10.40.27.97|||101367941673|190
12.10.2018 07:00:00||BOYNER|10.40.27.97|||101367941673|187
12.10.2018 07:00:00||BOYNER|10.40.26.97|||101367941673|30
12.10.2018 07:00:00||BOYNER|10.40.26.97|||101367941673|632
12.10.2018 07:00:00||BOYNER|10.40.26.97|||101367941673|633
12.10.2018 07:00:00||BOYNER|10.40.26.97|||101367941673|640
12.10.2018 07:00:00||BOYNER|10.40.26.97|||101367941673|30
12.10.2018 07:00:00||BOYNER|10.40.26.97|||101367941673|40
12.10.2018 07:00:00||BOYNER|10.40.26.97|||101367941673|50
12.10.2018 07:00:00||BOYNER|10.40.26.97|||101367941673|60
12.10.2018 07:00:00||BOYNER|10.40.26.97|||101367941673|30
12.10.2018 07:00:00||BOYNER|10.40.26.97|||101367941673|155
12.10.2018 07:00:00||BOYNER|10.40.26.97|||101367941673|172
12.10.2018 07:00:00||BOYNER|10.40.26.97|||101367941673|170
12.10.2018 07:00:00||BOYNER|10.40.26.97|||101367941673|157
12.10.2018 07:00:00||BOYNER|10.40.27.99|||101367941673|123
12.10.2018 07:00:00||BOYNER|10.40.27.99|||101367941673|88
12.10.2018 07:00:00||BOYNER|10.40.27.99|||101367941673|72
12.10.2018 07:00:00||BOYNER|10.40.26.99|||101367941673|10
12.10.2018 07:00:00||BOYNER|10.40.26.99|||101367941673|113
12.10.2018 07:00:00||BOYNER|10.40.26.99|||101367941673|103
12.10.2018 07:00:00||BOYNER|10.40.26.99|||101367941673|68
12.10.2018 07:00:00||ÇALIK HOLDİNG|10.40.24.118|||110000438407|43
12.10.2018 07:00:00||ÇALIK HOLDİNG|10.40.25.99|||110000438407|134
12.10.2018 07:00:00||ÇALIK HOLDİNG|10.40.25.118|||110000438407|159
12.10.2018 07:00:00||ÇALIK HOLDİNG|10.40.25.120|||110000438407|10
12.10.2018 07:00:00||ÇALIK HOLDİNG|10.40.25.120|||110000438407|90
12.10.2018 07:00:00||ÇALIK HOLDİNG|10.40.24.95|||110000438407|50
12.10.2018 07:00:00||ÇALIK HOLDİNG|10.40.25.97|||110000438407|80
12.10.2018 07:00:00||ÇALIK HOLDİNG|10.40.25.103|||110000438407|90
12.10.2018 07:00:00||ÇALIK HOLDİNG|10.40.25.120|||110000438407|43
12.10.2018 07:00:00||ÇALIK HOLDİNG|10.40.25.96|||110000438407|70
12.10.2018 07:00:00||ÇALIK HOLDİNG|10.40.25.96|||110000438407|90
12.10.2018 07:00:00||ÇALIK HOLDİNG|10.40.25.96|||110000438407|122
12.10.2018 07:00:00||ÇALIK HOLDİNG|10.40.25.96|||110000438407|90
12.10.2018 07:00:00||ÇALIK HOLDİNG|10.40.25.115|||110000438407|162
12.10.2018 07:00:00||ÇALIK HOLDİNG|10.40.25.115|||110000438407|70
12.10.2018 07:00:00||ÇALIK HOLDİNG|10.40.25.95|||110000438407|92
12.10.2018 07:00:00||ÇALIK HOLDİNG|10.40.25.96|||110000438407|90
12.10.2018 07:00:00||ÇALIK HOLDİNG|10.40.25.96|||110000438407|100
12.10.2018 07:00:00||ÇALIK HOLDİNG|10.40.25.120|||110000438407|20
12.10.2018 07:00:00||ÇALIK HOLDİNG|10.40.25.95|||110000438407|58
12.10.2018 07:00:00||ÇALIK HOLDİNG|10.40.24.94|||110000438407|193
12.10.2018 07:00:00||ÇALIK HOLDİNG|10.40.25.97|||110000438407|105
12.10.2018 07:00:00||ÇALIK HOLDİNG|10.40.25.120|||110000438407|60
12.10.2018 07:00:00||ÇALIK HOLDİNG|10.40.25.115|||110000438407|80
12.10.2018 07:00:00||ÇALIK HOLDİNG|10.40.25.115|||110000438407|67
12.10.2018 07:00:00||ÇALIK HOLDİNG|10.40.25.115|||110000438407|60
12.10.2018 07:00:00||ÇALIK HOLDİNG|10.40.25.101|||110000438407|50
12.10.2018 07:00:00||ÇALIK HOLDİNG|10.40.25.101|||110000438407|110
12.10.2018 07:00:00||ÇALIK HOLDİNG|10.40.25.101|||110000438407|30
12.10.2018 07:00:00||ÇALIK HOLDİNG|10.40.25.101|||110000438407|10
12.10.2018 07:00:00||ÇALIK HOLDİNG|10.40.25.101|||110000438407|75
12.10.2018 07:00:00||ÇALIK HOLDİNG|10.40.25.101|||110000438407|30
12.10.2018 07:00:00||ÇALIK HOLDİNG|10.40.25.101|||110000438407|38
12.10.2018 07:00:00||ÇALIK HOLDİNG|10.40.25.101|||110000438407|40
12.10.2018 07:00:00||ÇALIK HOLDİNG|10.40.25.101|||110000438407|90
12.10.2018 07:00:00||ÇALIK HOLDİNG|10.40.25.101|||110000438407|90
12.10.2018 07:00:00||ÇALIK HOLDİNG|10.40.25.101|||110000438407|90
12.10.2018 07:00:00||ÇALIK HOLDİNG|10.40.25.94|||110000438407|180
12.10.2018 07:00:00||ÇALIK HOLDİNG|10.40.25.94|||110000438407|180
12.10.2018 07:00:00||ÇALIK HOLDİNG|10.40.25.94|||110000438407|170
12.10.2018 07:00:00||ÇALIK HOLDİNG|10.40.25.94|||110000438407|180
12.10.2018 07:00:00||ÇALIK HOLDİNG|10.40.24.94|||110000438407|193
12.10.2018 07:00:00||ÇALIK HOLDİNG|10.40.24.94|||110000438407|183
12.10.2018 07:00:00||ÇALIK HOLDİNG|10.40.24.94|||110000438407|185
12.10.2018 07:00:00||ÇALIK HOLDİNG|10.40.25.95|||110000438407|20
12.10.2018 07:00:00||ÇALIK HOLDİNG|10.40.25.95|||110000438407|353
12.10.2018 07:00:00||ÇALIK HOLDİNG|10.40.25.95|||110000438407|360
12.10.2018 07:00:00||ÇALIK HOLDİNG|10.40.25.95|||110000438407|40
12.10.2018 07:00:00||ÇALIK HOLDİNG|10.40.24.95|||110000438407|100
12.10.2018 07:00:00||ÇALIK HOLDİNG|10.40.24.95|||110000438407|87
12.10.2018 07:00:00||ÇALIK HOLDİNG|10.40.24.95|||110000438407|392
12.10.2018 07:00:00||ÇALIK HOLDİNG|10.40.24.95|||110000438407|395
12.10.2018 07:00:00||ÇALIK HOLDİNG|10.40.25.96|||110000438407|90
12.10.2018 07:00:00||ÇALIK HOLDİNG|10.40.25.96|||110000438407|98
12.10.2018 07:00:00||ÇALIK HOLDİNG|10.40.25.96|||110000438407|100
12.10.2018 07:00:00||ÇALIK HOLDİNG|10.40.25.96|||110000438407|255
12.10.2018 07:00:00||ÇALIK HOLDİNG|10.40.25.96|||110000438407|260
12.10.2018 07:00:00||ÇALIK HOLDİNG|10.40.25.96|||110000438407|100
12.10.2018 07:00:00||ÇALIK HOLDİNG|10.40.25.96|||110000438407|90
12.10.2018 07:00:00||ÇALIK HOLDİNG|10.40.25.96|||110000438407|92
12.10.2018 07:00:00||ÇALIK HOLDİNG|10.40.25.97|||110000438407|90
12.10.2018 07:00:00||ÇALIK HOLDİNG|10.40.25.97|||110000438407|80
12.10.2018 07:00:00||ÇALIK HOLDİNG|10.40.25.97|||110000438407|293
12.10.2018 07:00:00||ÇALIK HOLDİNG|10.40.25.98|||110000438407|50
12.10.2018 07:00:00||ÇALIK HOLDİNG|10.40.25.98|||110000438407|162
12.10.2018 07:00:00||ÇALIK HOLDİNG|10.40.25.98|||110000438407|162
12.10.2018 07:00:00||ÇALIK HOLDİNG|10.40.25.98|||110000438407|167
12.10.2018 07:00:00||ÇALIK HOLDİNG|10.40.25.98|||110000438407|170
12.10.2018 07:00:00||ÇALIK HOLDİNG|10.40.25.98|||110000438407|62
12.10.2018 07:00:00||ÇALIK HOLDİNG|10.40.25.98|||110000438407|213
12.10.2018 07:00:00||ÇALIK HOLDİNG|10.40.25.98|||110000438407|180
12.10.2018 07:00:00||ÇALIK HOLDİNG|10.40.25.98|||110000438407|170
12.10.2018 07:00:00||ÇALIK HOLDİNG|10.40.25.98|||110000438407|212
12.10.2018 07:00:00||ÇALIK HOLDİNG|10.40.25.98|||110000438407|70
12.10.2018 07:00:00||ÇALIK HOLDİNG|10.40.25.98|||110000438407|302
12.10.2018 07:00:00||ÇALIK HOLDİNG|10.40.24.98|||110000438407|90
12.10.2018 07:00:00||ÇALIK HOLDİNG|10.40.24.98|||110000438407|155
12.10.2018 07:00:00||ÇALIK HOLDİNG|10.40.24.98|||110000438407|200
12.10.2018 07:00:00||ÇALIK HOLDİNG|10.40.24.98|||110000438407|200
12.10.2018 07:00:00||ÇALIK HOLDİNG|10.40.24.98|||110000438407|162
12.10.2018 07:00:00||ÇALIK HOLDİNG|10.40.24.98|||110000438407|30
12.10.2018 07:00:00||ÇALIK HOLDİNG|10.40.24.98|||110000438407|167
12.10.2018 07:00:00||ÇALIK HOLDİNG|10.40.24.98|||110000438407|180
12.10.2018 07:00:00||ÇALIK HOLDİNG|10.40.24.98|||110000438407|168
12.10.2018 07:00:00||ÇALIK HOLDİNG|10.40.24.98|||110000438407|170
12.10.2018 07:00:00||ÇALIK HOLDİNG|10.40.24.98|||110000438407|20
12.10.2018 07:00:00||ÇALIK HOLDİNG|10.40.24.98|||110000438407|273
12.10.2018 07:00:00||ÇALIK HOLDİNG|10.40.25.100|||110000438407|35
12.10.2018 07:00:00||ÇALIK HOLDİNG|10.40.25.100|||110000438407|40
12.10.2018 07:00:00||ÇALIK HOLDİNG|10.40.24.101|||110000438407|60
12.10.2018 07:00:00||ÇALIK HOLDİNG|10.40.24.101|||110000438407|110
12.10.2018 07:00:00||ÇALIK HOLDİNG|10.40.24.101|||110000438407|20
12.10.2018 07:00:00||ÇALIK HOLDİNG|10.40.24.101|||110000438407|20
12.10.2018 07:00:00||ÇALIK HOLDİNG|10.40.24.101|||110000438407|42
12.10.2018 07:00:00||ÇALIK HOLDİNG|10.40.24.101|||110000438407|92
12.10.2018 07:00:00||ÇALIK HOLDİNG|10.40.24.101|||110000438407|10
12.10.2018 07:00:00||ÇALIK HOLDİNG|10.40.24.101|||110000438407|20
12.10.2018 07:00:00||ÇALIK HOLDİNG|10.40.24.101|||110000438407|50
12.10.2018 07:00:00||ÇALIK HOLDİNG|10.40.24.101|||110000438407|30
12.10.2018 07:00:00||ÇALIK HOLDİNG|10.40.24.101|||110000438407|80
12.10.2018 07:00:00||ÇALIK HOLDİNG|10.40.24.101|||110000438407|80
12.10.2018 07:00:00||ÇALIK HOLDİNG|10.40.24.101|||110000438407|100
12.10.2018 07:00:00||ÇALIK HOLDİNG|10.40.25.102|||110000438407|100
12.10.2018 07:00:00||ÇALIK HOLDİNG|10.40.25.102|||110000438407|100
12.10.2018 07:00:00||ÇALIK HOLDİNG|10.40.25.102|||110000438407|150
12.10.2018 07:00:00||ÇALIK HOLDİNG|10.40.24.102|||110000438407|100
12.10.2018 07:00:00||ÇALIK HOLDİNG|10.40.24.102|||110000438407|100
12.10.2018 07:00:00||ÇALIK HOLDİNG|10.40.24.102|||110000438407|140
12.10.2018 07:00:00||ÇALIK HOLDİNG|10.40.25.103|||110000438407|90
12.10.2018 07:00:00||ÇALIK HOLDİNG|10.40.25.103|||110000438407|80
12.10.2018 07:00:00||ÇALIK HOLDİNG|10.40.25.103|||110000438407|20
12.10.2018 07:00:00||ÇALIK HOLDİNG|10.40.25.103|||110000438407|10
12.10.2018 07:00:00||ÇALIK HOLDİNG|10.40.25.115|||110000438407|80
12.10.2018 07:00:00||ÇALIK HOLDİNG|10.40.24.103|||110000438407|97
12.10.2018 07:00:00||ÇALIK HOLDİNG|10.40.24.103|||110000438407|80
12.10.2018 07:00:00||ÇALIK HOLDİNG|10.40.24.103|||110000438407|80
12.10.2018 07:00:00||ÇALIK HOLDİNG|10.40.24.103|||110000438407|10
12.10.2018 07:00:00||ÇALIK HOLDİNG|10.40.25.113|||110000438407|215
12.10.2018 07:00:00||ÇALIK HOLDİNG|10.40.25.113|||110000438407|233
12.10.2018 07:00:00||ÇALIK HOLDİNG|10.40.25.113|||110000438407|187
12.10.2018 07:00:00||ÇALIK HOLDİNG|10.40.25.113|||110000438407|198
12.10.2018 07:00:00||ÇALIK HOLDİNG|10.40.24.113|||110000438407|223
12.10.2018 07:00:00||ÇALIK HOLDİNG|10.40.24.113|||110000438407|222
12.10.2018 07:00:00||ÇALIK HOLDİNG|10.40.24.113|||110000438407|185
12.10.2018 07:00:00||ÇALIK HOLDİNG|10.40.24.113|||110000438407|150
12.10.2018 07:00:00||ÇALIK HOLDİNG|10.40.25.114|||110000438407|173
12.10.2018 07:00:00||ÇALIK HOLDİNG|10.40.25.114|||110000438407|410
12.10.2018 07:00:00||ÇALIK HOLDİNG|10.40.25.114|||110000438407|40
12.10.2018 07:00:00||ÇALIK HOLDİNG|10.40.24.114|||110000438407|20
12.10.2018 07:00:00||ÇALIK HOLDİNG|10.40.24.114|||110000438407|40
12.10.2018 07:00:00||ÇALIK HOLDİNG|10.40.24.114|||110000438407|153
12.10.2018 07:00:00||ÇALIK HOLDİNG|10.40.24.114|||110000438407|372
12.10.2018 07:00:00||ÇALIK HOLDİNG|10.40.24.115|||110000438407|152
12.10.2018 07:00:00||ÇALIK HOLDİNG|10.40.24.115|||110000438407|80
12.10.2018 07:00:00||ÇALIK HOLDİNG|10.40.24.115|||110000438407|85
12.10.2018 07:00:00||ÇALIK HOLDİNG|10.40.24.115|||110000438407|70
12.10.2018 07:00:00||ÇALIK HOLDİNG|10.40.24.115|||110000438407|80
12.10.2018 07:00:00||ÇALIK HOLDİNG|10.40.24.115|||110000438407|70
12.10.2018 07:00:00||ÇALIK HOLDİNG|10.40.25.116|||110000438407|108
12.10.2018 07:00:00||ÇALIK HOLDİNG|10.40.25.116|||110000438407|103
12.10.2018 07:00:00||ÇALIK HOLDİNG|10.40.25.116|||110000438407|277
12.10.2018 07:00:00||ÇALIK HOLDİNG|10.40.24.116|||110000438407|267
12.10.2018 07:00:00||ÇALIK HOLDİNG|10.40.24.116|||110000438407|102
12.10.2018 07:00:00||ÇALIK HOLDİNG|10.40.24.116|||110000438407|103
12.10.2018 07:00:00||ÇALIK HOLDİNG|10.40.25.117|||110000438407|242
12.10.2018 07:00:00||ÇALIK HOLDİNG|10.40.25.117|||110000438407|30
12.10.2018 07:00:00||ÇALIK HOLDİNG|10.40.25.117|||110000438407|22
12.10.2018 07:00:00||ÇALIK HOLDİNG|10.40.25.119|||110000438407|30
12.10.2018 07:00:00||ÇALIK HOLDİNG|10.40.25.119|||110000438407|30
12.10.2018 07:00:00||ÇALIK HOLDİNG|10.40.24.119|||110000438407|150
12.10.2018 07:00:00||ÇALIK HOLDİNG|10.40.24.119|||110000438407|30
12.10.2018 07:00:00||ÇALIK HOLDİNG|10.40.24.119|||110000438407|50
12.10.2018 07:00:00||ÇALIK HOLDİNG|10.40.25.120|||110000438407|108
12.10.2018 07:00:00||ÇALIK HOLDİNG|10.40.25.120|||110000438407|50
12.10.2018 07:00:00||ÇALIK HOLDİNG|10.40.25.120|||110000438407|20
12.10.2018 07:00:00||ÇALIK HOLDİNG|10.40.25.120|||110000438407|20
12.10.2018 07:00:00||ÇALIK HOLDİNG|10.40.25.120|||110000438407|30
12.10.2018 07:00:00||ÇALIK HOLDİNG|10.40.25.120|||110000438407|90
12.10.2018 07:00:00||ÇALIK HOLDİNG|10.40.25.120|||110000438407|90
12.10.2018 07:00:00||ÇALIK HOLDİNG|10.40.24.120|||110000438407|20
12.10.2018 07:00:00||ÇALIK HOLDİNG|10.40.24.120|||110000438407|30
12.10.2018 07:00:00||ÇALIK HOLDİNG|10.40.24.120|||110000438407|110
12.10.2018 07:00:00||ÇALIK HOLDİNG|10.40.24.120|||110000438407|100
12.10.2018 07:00:00||ÇALIK HOLDİNG|10.40.24.120|||110000438407|40
12.10.2018 07:00:00||ÇALIK HOLDİNG|10.40.24.120|||110000438407|80
12.10.2018 07:00:00||ÇALIK HOLDİNG|10.40.24.120|||110000438407|80
12.10.2018 07:00:00||ÇALIK HOLDİNG|10.40.24.120|||110000438407|70
12.10.2018 07:00:00||ÇALIK HOLDİNG|10.40.25.121|||110000438407|92
12.10.2018 07:00:00||ÇALIK HOLDİNG|10.40.25.121|||110000438407|100
12.10.2018 07:00:00||ÇALIK HOLDİNG|10.40.25.121|||110000438407|150
12.10.2018 07:00:00||ÇALIK HOLDİNG|10.40.24.121|||110000438407|100
12.10.2018 07:00:00||ÇALIK HOLDİNG|10.40.24.121|||110000438407|100
12.10.2018 07:00:00||ÇALIK HOLDİNG|10.40.24.121|||110000438407|140
12.10.2018 07:00:00||ÇALIK HOLDİNG|10.40.25.122|||110000438407|90
12.10.2018 07:00:00||ÇALIK HOLDİNG|10.40.25.122|||110000438407|80
12.10.2018 07:00:00||ÇALIK HOLDİNG|10.40.25.122|||110000438407|80
12.10.2018 07:00:00||ÇALIK HOLDİNG|10.40.25.122|||110000438407|30
12.10.2018 07:00:00||ÇALIK HOLDİNG|10.40.25.122|||110000438407|10
12.10.2018 07:00:00||ÇALIK HOLDİNG|10.40.24.122|||110000438407|90
12.10.2018 07:00:00||ÇALIK HOLDİNG|10.40.24.122|||110000438407|80
12.10.2018 07:00:00||ÇALIK HOLDİNG|10.40.24.122|||110000438407|90
12.10.2018 07:00:00||ÇALIK HOLDİNG|10.40.24.117|||110000438407|200
12.10.2018 07:00:00||ÇALIK HOLDİNG|10.40.24.117|||110000438407|30
12.10.2018 07:00:00||ÇALIK HOLDİNG|10.40.24.117|||110000438407|30
12.10.2018 07:00:00||ÇALIK HOLDİNG|10.40.24.97|||110000438407|100
12.10.2018 07:00:00||ÇALIK HOLDİNG|10.40.24.97|||110000438407|90
12.10.2018 07:00:00||ÇALIK HOLDİNG|10.40.24.97|||110000438407|80
12.10.2018 07:00:00||ÇALIK HOLDİNG|10.40.24.97|||110000438407|90
12.10.2018 07:00:00||ÇALIK HOLDİNG|10.40.24.97|||110000438407|308
12.10.2018 07:00:00||ÇALIK HOLDİNG|10.40.24.100|||110000438407|30
12.10.2018 07:00:00||ÇALIK HOLDİNG|10.40.24.100|||110000438407|40
12.10.2018 07:00:00||FIBABANKA|10.40.27.54|||101571767266|311
12.10.2018 07:00:00||FIBABANKA|10.40.26.54|||101571767266|317
12.10.2018 07:00:00||FIBABANKA|10.40.27.55|||101571767266|111
12.10.2018 07:00:00||FIBABANKA|10.40.26.55|||101571767266|111
12.10.2018 07:00:00||FIBABANKA|10.40.24.55|||101571767266|110
12.10.2018 07:00:00||FIBABANKA|10.40.25.56|||101571767266|196
12.10.2018 07:00:00||FIBABANKA|10.40.25.54|||101571767266|333
12.10.2018 07:00:00||FIBABANKA|10.40.24.54|||101571767266|320
12.10.2018 07:00:00||FIBABANKA|10.40.25.55|||101571767266|112
12.10.2018 07:00:00||FIBABANKA|10.40.24.56|||101571767266|200
12.10.2018 07:00:00||FIBABANKA|10.40.26.53|||101571767266|42
12.10.2018 07:00:00||FIBABANKA|10.40.26.53|||101571767266|145
12.10.2018 07:00:00||FIBABANKA|10.40.25.76|||101571767266|10
12.10.2018 07:00:00||FIBABANKA|10.40.27.53|||101571767266|148
12.10.2018 07:00:00||FIBABANKA|10.40.27.53|||101571767266|165
12.10.2018 07:00:00||FIBABANKA|10.40.26.53|||101571767266|153
12.10.2018 07:00:00||FIBABANKA|10.40.27.57|||101571767266|80
12.10.2018 07:00:00||FIBABANKA|10.40.27.57|||101571767266|80
12.10.2018 07:00:00||FIBABANKA|10.40.27.57|||101571767266|80
12.10.2018 07:00:00||FIBABANKA|10.40.25.57|||101571767266|90
12.10.2018 07:00:00||FIBABANKA|10.40.25.57|||101571767266|90
12.10.2018 07:00:00||FIBABANKA|10.40.25.57|||101571767266|90
12.10.2018 07:00:00||FIBABANKA|10.40.26.51|||101571767266|20
12.10.2018 07:00:00||FIBABANKA|10.40.27.52|||101571767266|50
12.10.2018 07:00:00||FIBABANKA|10.40.27.52|||101571767266|60
12.10.2018 07:00:00||FIBABANKA|10.40.27.52|||101571767266|70
12.10.2018 07:00:00||FIBABANKA|10.40.27.74|||101571767266|173
12.10.2018 07:00:00||FIBABANKA|10.40.25.53|||101571767266|30
12.10.2018 07:00:00||FIBABANKA|10.40.25.53|||101571767266|50
12.10.2018 07:00:00||FIBABANKA|10.40.27.53|||101571767266|60
12.10.2018 07:00:00||FIBABANKA|10.40.26.53|||101571767266|60
12.10.2018 07:00:00||FIBABANKA|10.40.25.51|||101571767266|20
12.10.2018 07:00:00||FIBABANKA|10.40.25.51|||101571767266|110
12.10.2018 07:00:00||FIBABANKA|10.40.24.51|||101571767266|20
12.10.2018 07:00:00||FIBABANKA|10.40.24.51|||101571767266|70
12.10.2018 07:00:00||FIBABANKA|10.40.24.51|||101571767266|100
12.10.2018 07:00:00||FIBABANKA|10.40.24.51|||101571767266|140
12.10.2018 07:00:00||FIBABANKA|10.40.24.51|||101571767266|30
12.10.2018 07:00:00||FIBABANKA|10.40.24.57|||101571767266|90
12.10.2018 07:00:00||FIBABANKA|10.40.24.57|||101571767266|80
12.10.2018 07:00:00||FIBABANKA|10.40.24.57|||101571767266|80
12.10.2018 07:00:00||FIBABANKA|10.40.24.52|||101571767266|10
12.10.2018 07:00:00||FIBABANKA|10.40.26.73|||101571767266|40
12.10.2018 07:00:00||FIBABANKA|10.40.27.53|||101571767266|68
12.10.2018 07:00:00||FIBABANKA|10.40.26.51|||101571767266|70
12.10.2018 07:00:00||FIBABANKA|10.40.26.52|||101571767266|30
12.10.2018 07:00:00||FIBABANKA|10.40.26.52|||101571767266|90
12.10.2018 07:00:00||FIBABANKA|10.40.26.52|||101571767266|30
12.10.2018 07:00:00||FIBABANKA|10.40.25.51|||101571767266|140
12.10.2018 07:00:00||FIBABANKA|10.40.25.51|||101571767266|40
12.10.2018 07:00:00||FIBABANKA|10.40.25.51|||101571767266|40
12.10.2018 07:00:00||FIBABANKA|10.40.25.51|||101571767266|70
12.10.2018 07:00:00||FIBABANKA|10.40.24.51|||101571767266|30
12.10.2018 07:00:00||FIBABANKA|10.40.25.59|||101571767266|70
12.10.2018 07:00:00||FIBABANKA|10.40.25.59|||101571767266|92
12.10.2018 07:00:00||FIBABANKA|10.40.25.59|||101571767266|102
12.10.2018 07:00:00||FIBABANKA|10.40.25.59|||101571767266|40
12.10.2018 07:00:00||FIBABANKA|10.40.25.59|||101571767266|120
12.10.2018 07:00:00||FIBABANKA|10.40.25.59|||101571767266|63
12.10.2018 07:00:00||FIBABANKA|10.40.25.59|||101571767266|57
12.10.2018 07:00:00||FIBABANKA|10.40.25.59|||101571767266|155
12.10.2018 07:00:00||FIBABANKA|10.40.25.59|||101571767266|58
12.10.2018 07:00:00||FIBABANKA|10.40.24.59|||101571767266|70
12.10.2018 07:00:00||FIBABANKA|10.40.24.59|||101571767266|120
12.10.2018 07:00:00||FIBABANKA|10.40.24.59|||101571767266|82
12.10.2018 07:00:00||FIBABANKA|10.40.24.59|||101571767266|50
12.10.2018 07:00:00||FIBABANKA|10.40.24.59|||101571767266|130
12.10.2018 07:00:00||FIBABANKA|10.40.24.59|||101571767266|70
12.10.2018 07:00:00||FIBABANKA|10.40.24.59|||101571767266|60
12.10.2018 07:00:00||FIBABANKA|10.40.24.59|||101571767266|145
12.10.2018 07:00:00||FIBABANKA|10.40.24.59|||101571767266|60
12.10.2018 07:00:00||FIBABANKA|10.40.25.60|||101571767266|110
12.10.2018 07:00:00||FIBABANKA|10.40.25.60|||101571767266|35
12.10.2018 07:00:00||FIBABANKA|10.40.25.60|||101571767266|110
12.10.2018 07:00:00||FIBABANKA|10.40.25.60|||101571767266|42
12.10.2018 07:00:00||FIBABANKA|10.40.24.60|||101571767266|113
12.10.2018 07:00:00||FIBABANKA|10.40.24.60|||101571767266|60
12.10.2018 07:00:00||FIBABANKA|10.40.24.60|||101571767266|40
12.10.2018 07:00:00||FIBABANKA|10.40.24.60|||101571767266|100
12.10.2018 07:00:00||FIBABANKA|10.40.24.60|||101571767266|50
12.10.2018 07:00:00||FIBABANKA|10.40.25.72|||101571767266|70
12.10.2018 07:00:00||FIBABANKA|10.40.25.72|||101571767266|40
12.10.2018 07:00:00||FIBABANKA|10.40.25.72|||101571767266|32
12.10.2018 07:00:00||FIBABANKA|10.40.24.72|||101571767266|140
12.10.2018 07:00:00||FIBABANKA|10.40.24.72|||101571767266|75
12.10.2018 07:00:00||FIBABANKA|10.40.24.72|||101571767266|30
12.10.2018 07:00:00||FIBABANKA|10.40.24.72|||101571767266|40
12.10.2018 07:00:00||FIBABANKA|10.40.25.74|||101571767266|37
12.10.2018 07:00:00||FIBABANKA|10.40.25.75|||101571767266|42
12.10.2018 07:00:00||FIBABANKA|10.40.25.75|||101571767266|78
12.10.2018 07:00:00||FIBABANKA|10.40.25.75|||101571767266|135
12.10.2018 07:00:00||FIBABANKA|10.40.25.75|||101571767266|165
12.10.2018 07:00:00||FIBABANKA|10.40.25.75|||101571767266|177
12.10.2018 07:00:00||FIBABANKA|10.40.25.75|||101571767266|190
12.10.2018 07:00:00||FIBABANKA|10.40.24.75|||101571767266|48
12.10.2018 07:00:00||FIBABANKA|10.40.24.75|||101571767266|45
12.10.2018 07:00:00||FIBABANKA|10.40.24.75|||101571767266|163
12.10.2018 07:00:00||FIBABANKA|10.40.24.75|||101571767266|140
12.10.2018 07:00:00||FIBABANKA|10.40.24.76|||101571767266|30
12.10.2018 07:00:00||FIBABANKA|10.40.24.76|||101571767266|63
12.10.2018 07:00:00||FIBABANKA|10.40.24.76|||101571767266|10
12.10.2018 07:00:00||FIBABANKA|10.40.24.53|||101571767266|30
12.10.2018 07:00:00||FIBABANKA|10.40.24.53|||101571767266|60
12.10.2018 07:00:00||FIBABANKA|10.40.26.57|||101571767266|90
12.10.2018 07:00:00||FIBABANKA|10.40.26.57|||101571767266|82
12.10.2018 07:00:00||FIBABANKA|10.40.26.57|||101571767266|80
12.10.2018 07:00:00||FIBABANKA|10.40.27.72|||101571767266|40
12.10.2018 07:00:00||FIBABANKA|10.40.27.72|||101571767266|50
12.10.2018 07:00:00||FIBABANKA|10.40.27.72|||101571767266|30
12.10.2018 07:00:00||FIBABANKA|10.40.27.72|||101571767266|140
12.10.2018 07:00:00||FIBABANKA|10.40.27.72|||101571767266|60
12.10.2018 07:00:00||FIBABANKA|10.40.26.72|||101571767266|30
12.10.2018 07:00:00||FIBABANKA|10.40.26.72|||101571767266|140
12.10.2018 07:00:00||FIBABANKA|10.40.26.72|||101571767266|70
12.10.2018 07:00:00||FIBABANKA|10.40.26.72|||101571767266|30
12.10.2018 07:00:00||FIBABANKA|10.40.27.73|||101571767266|30
12.10.2018 07:00:00||FIBABANKA|10.40.27.73|||101571767266|100
12.10.2018 07:00:00||FIBABANKA|10.40.27.73|||101571767266|40
12.10.2018 07:00:00||FIBABANKA|10.40.27.73|||101571767266|40
12.10.2018 07:00:00||FIBABANKA|10.40.27.73|||101571767266|200
12.10.2018 07:00:00||FIBABANKA|10.40.26.73|||101571767266|40
12.10.2018 07:00:00||FIBABANKA|10.40.26.73|||101571767266|70
12.10.2018 07:00:00||FIBABANKA|10.40.26.73|||101571767266|30
12.10.2018 07:00:00||FIBABANKA|10.40.27.74|||101571767266|75
12.10.2018 07:00:00||FIBABANKA|10.40.27.74|||101571767266|155
12.10.2018 07:00:00||FIBABANKA|10.40.27.74|||101571767266|172
12.10.2018 07:00:00||FIBABANKA|10.40.26.74|||101571767266|70
12.10.2018 07:00:00||FIBABANKA|10.40.26.74|||101571767266|182
12.10.2018 07:00:00||FIBABANKA|10.40.26.74|||101571767266|177
12.10.2018 07:00:00||FIBABANKA|10.40.26.74|||101571767266|178
12.10.2018 07:00:00||FIBABANKA|10.40.27.75|||101571767266|10
12.10.2018 07:00:00||FIBABANKA|10.40.27.75|||101571767266|10
12.10.2018 07:00:00||FIBABANKA|10.40.26.79|||101571767266|10
12.10.2018 07:00:00||FIBABANKA|10.40.27.79|||101571767266|10
12.10.2018 07:00:00||FIBABANKA|10.40.26.79|||101571767266|10
12.10.2018 07:00:00||FIBABANKA|10.40.27.77|||101571767266|153
12.10.2018 07:00:00||FIBABANKA|10.40.26.77|||101571767266|177
12.10.2018 07:00:00||FIBABANKA|10.40.27.77|||101571767266|155
12.10.2018 07:00:00||FIBABANKA|10.40.25.74|||101571767266|225
12.10.2018 07:00:00||FIBABANKA|10.40.24.75|||101571767266|178
12.10.2018 07:00:00||FIBABANKA|10.40.24.53|||101571767266|153
12.10.2018 07:00:00||FIBABANKA|10.40.24.53|||101571767266|170
12.10.2018 07:00:00||FIBABANKA|10.40.25.52|||101571767266|10
12.10.2018 07:00:00||FIBABANKA|10.40.25.52|||101571767266|60
12.10.2018 07:00:00||FIBABANKA|10.40.25.53|||101571767266|145
12.10.2018 07:00:00||FIBABANKA|10.40.25.53|||101571767266|140
12.10.2018 07:00:00||FIBABANKA|10.40.27.51|||101571767266|30
12.10.2018 07:00:00||FIBABANKA|10.40.27.51|||101571767266|20
12.10.2018 07:00:00||FIBABANKA|10.40.27.51|||101571767266|100
12.10.2018 07:00:00||FIBABANKA|10.40.27.51|||101571767266|130
12.10.2018 07:00:00||FIBABANKA|10.40.27.51|||101571767266|70
12.10.2018 07:00:00||FIBABANKA|10.40.27.51|||101571767266|40
12.10.2018 07:00:00||FIBABANKA|10.40.27.51|||101571767266|40
12.10.2018 07:00:00||FIBABANKA|10.40.26.51|||101571767266|10
12.10.2018 07:00:00||FIBABANKA|10.40.26.51|||101571767266|110
12.10.2018 07:00:00||FIBABANKA|10.40.26.51|||101571767266|130
12.10.2018 07:00:00||FIBABANKA|10.40.26.51|||101571767266|30
12.10.2018 07:00:00||FIBABANKA|10.40.26.51|||101571767266|30
12.10.2018 07:00:00||FIBABANKA|10.40.24.74|||101571767266|32
12.10.2018 07:00:00||FIBABANKA|10.40.25.76|||101571767266|60
12.10.2018 07:00:00||FIBABANKA|10.40.25.76|||101571767266|40
12.10.2018 07:00:00||FIBABANKA|10.40.25.76|||101571767266|10
12.10.2018 07:00:00||HAVAŞ|10.40.24.46|||110000479675|10
12.10.2018 07:00:00||HAVAŞ|10.40.24.48|||110000479675|757
12.10.2018 07:00:00||HAVAŞ|10.40.24.48|||110000479675|748
12.10.2018 07:00:00||HAVAŞ|10.40.25.48|||110000479675|760
12.10.2018 07:00:00||HAVAŞ|10.40.24.45|||110000479675|97
12.10.2018 07:00:00||HAVAŞ|10.40.25.45|||110000479675|70
12.10.2018 07:00:00||HAVAŞ|10.40.25.47|||110000479675|70
12.10.2018 07:00:00||HAVAŞ|10.40.24.46|||110000479675|80
12.10.2018 07:00:00||HAVAŞ|10.40.24.47|||110000479675|30
12.10.2018 07:00:00||HAVAŞ|10.40.24.47|||110000479675|90
12.10.2018 07:00:00||HAVAŞ|10.40.24.47|||110000479675|90
12.10.2018 07:00:00||HAVAŞ|10.40.25.46|||110000479675|10
12.10.2018 07:00:00||HAVAŞ|10.40.25.46|||110000479675|60
12.10.2018 07:00:00||HAVAŞ|10.40.24.48|||110000479675|757
12.10.2018 07:00:00||HAVAŞ|10.40.24.46|||110000479675|60
12.10.2018 07:00:00||HAVAŞ|10.40.24.46|||110000479675|70
12.10.2018 07:00:00||HAVAŞ|10.40.24.47|||110000479675|12
12.10.2018 07:00:00||HAVAŞ|10.40.25.48|||110000479675|758
12.10.2018 07:00:00||HAVAŞ|10.40.25.48|||110000479675|782
12.10.2018 07:00:00||HAVAŞ|10.40.25.45|||110000479675|97
12.10.2018 07:00:00||HAVAŞ|10.40.24.45|||110000479675|50
12.10.2018 07:00:00||HAVAŞ|10.40.24.45|||110000479675|170
12.10.2018 07:00:00||HAVAŞ|10.40.24.45|||110000479675|100
12.10.2018 07:00:00||HAVAŞ|10.40.25.47|||110000479675|70
12.10.2018 07:00:00||HAVAŞ|10.40.25.47|||110000479675|220
12.10.2018 07:00:00||HAVAŞ|10.40.25.47|||110000479675|58
12.10.2018 07:00:00||HAVAŞ|10.40.25.47|||110000479675|90
12.10.2018 07:00:00||HAVAŞ|10.40.25.47|||110000479675|90
12.10.2018 07:00:00||HAVAŞ|10.40.25.47|||110000479675|90
12.10.2018 07:00:00||HAVAŞ|10.40.25.47|||110000479675|170
12.10.2018 07:00:00||HAVAŞ|10.40.25.47|||110000479675|180
12.10.2018 07:00:00||HAVAŞ|10.40.25.47|||110000479675|90
12.10.2018 07:00:00||HAVAŞ|10.40.25.47|||110000479675|90
12.10.2018 07:00:00||HAVAŞ|10.40.25.47|||110000479675|90
12.10.2018 07:00:00||HAVAŞ|10.40.25.45|||110000479675|100
12.10.2018 07:00:00||HAVAŞ|10.40.25.45|||110000479675|90
12.10.2018 07:00:00||HAVAŞ|10.40.25.46|||110000479675|10
12.10.2018 07:00:00||HAVAŞ|10.40.25.46|||110000479675|10
12.10.2018 07:00:00||HAVAŞ|10.40.25.46|||110000479675|20
12.10.2018 07:00:00||HAVAŞ|10.40.25.46|||110000479675|20
12.10.2018 07:00:00||HAVAŞ|10.40.25.46|||110000479675|50
12.10.2018 07:00:00||HAVAŞ|10.40.25.46|||110000479675|100
12.10.2018 07:00:00||HAVAŞ|10.40.25.46|||110000479675|65
12.10.2018 07:00:00||HAVAŞ|10.40.25.46|||110000479675|73
12.10.2018 07:00:00||HAVAŞ|10.40.25.46|||110000479675|70
12.10.2018 07:00:00||HAVAŞ|10.40.24.46|||110000479675|20
12.10.2018 07:00:00||HAVAŞ|10.40.24.46|||110000479675|20
12.10.2018 07:00:00||HAVAŞ|10.40.24.46|||110000479675|10
12.10.2018 07:00:00||HAVAŞ|10.40.24.46|||110000479675|10
12.10.2018 07:00:00||HAVAŞ|10.40.24.46|||110000479675|10
12.10.2018 07:00:00||HAVAŞ|10.40.24.46|||110000479675|60
12.10.2018 07:00:00||HAVAŞ|10.40.24.46|||110000479675|110
12.10.2018 07:00:00||HAVAŞ|10.40.24.47|||110000479675|30
12.10.2018 07:00:00||HAVAŞ|10.40.24.47|||110000479675|212
12.10.2018 07:00:00||HAVAŞ|10.40.24.47|||110000479675|60
12.10.2018 07:00:00||HAVAŞ|10.40.24.47|||110000479675|55
12.10.2018 07:00:00||HAVAŞ|10.40.24.47|||110000479675|158
12.10.2018 07:00:00||HAVAŞ|10.40.24.47|||110000479675|100
12.10.2018 07:00:00||HAVAŞ|10.40.24.47|||110000479675|100
12.10.2018 07:00:00||MARS CINEMA|10.40.24.203|||110000472614|100
12.10.2018 07:00:00||MARS CINEMA|10.40.24.204|||110000472614|40
12.10.2018 07:00:00||MARS CINEMA|10.40.24.203|||110000472614|93
12.10.2018 07:00:00||MARS CINEMA|10.40.24.203|||110000472614|165
12.10.2018 07:00:00||MARS CINEMA|10.40.24.203|||110000472614|80
12.10.2018 07:00:00||MARS CINEMA|10.40.24.204|||110000472614|67
12.10.2018 07:00:00||MARS CINEMA|10.40.24.203|||110000472614|100
12.10.2018 07:00:00||MARS CINEMA|10.40.24.204|||110000472614|20
12.10.2018 07:00:00||MARS CINEMA|10.40.24.204|||110000472614|90
12.10.2018 07:00:00||MARS CINEMA|10.40.25.203|||110000472614|153
12.10.2018 07:00:00||MARS CINEMA|10.40.25.203|||110000472614|87
12.10.2018 07:00:00||MARS CINEMA|10.40.25.203|||110000472614|175
12.10.2018 07:00:00||MARS CINEMA|10.40.25.203|||110000472614|92
12.10.2018 07:00:00||MARS CINEMA|10.40.25.203|||110000472614|80
12.10.2018 07:00:00||MARS CINEMA|10.40.25.203|||110000472614|110
12.10.2018 07:00:00||MARS CINEMA|10.40.25.203|||110000472614|75
12.10.2018 07:00:00||MARS CINEMA|10.40.25.203|||110000472614|153
12.10.2018 07:00:00||MARS CINEMA|10.40.25.203|||110000472614|90
12.10.2018 07:00:00||MARS CINEMA|10.40.25.203|||110000472614|110
12.10.2018 07:00:00||MARS CINEMA|10.40.25.203|||110000472614|93
12.10.2018 07:00:00||MARS CINEMA|10.40.25.203|||110000472614|65
12.10.2018 07:00:00||MARS CINEMA|10.40.25.203|||110000472614|188
12.10.2018 07:00:00||MARS CINEMA|10.40.25.204|||110000472614|110
12.10.2018 07:00:00||MARS CINEMA|10.40.25.204|||110000472614|70
12.10.2018 07:00:00||MARS CINEMA|10.40.25.204|||110000472614|80
12.10.2018 07:00:00||MARS CINEMA|10.40.25.204|||110000472614|100
12.10.2018 07:00:00||MARS CINEMA|10.40.25.204|||110000472614|20
12.10.2018 07:00:00||MARS CINEMA|10.40.25.204|||110000472614|20
12.10.2018 07:00:00||MARS CINEMA|10.40.25.204|||110000472614|30
12.10.2018 07:00:00||MARS CINEMA|10.40.25.204|||110000472614|40
12.10.2018 07:00:00||MARS CINEMA|10.40.25.204|||110000472614|90
12.10.2018 07:00:00||MARS CINEMA|10.40.25.204|||110000472614|120
12.10.2018 07:00:00||MARS CINEMA|10.40.25.204|||110000472614|80
12.10.2018 07:00:00||MARS CINEMA|10.40.25.204|||110000472614|80
12.10.2018 07:00:00||MARS CINEMA|10.40.25.204|||110000472614|110
12.10.2018 07:00:00||MARS CINEMA|10.40.25.204|||110000472614|100
12.10.2018 07:00:00||MARS CINEMA|10.40.24.203|||110000472614|80
12.10.2018 07:00:00||MARS CINEMA|10.40.24.203|||110000472614|90
12.10.2018 07:00:00||MARS CINEMA|10.40.24.203|||110000472614|143
12.10.2018 07:00:00||MARS CINEMA|10.40.24.203|||110000472614|53
12.10.2018 07:00:00||MARS CINEMA|10.40.24.203|||110000472614|140
12.10.2018 07:00:00||MARS CINEMA|10.40.24.203|||110000472614|148
12.10.2018 07:00:00||MARS CINEMA|10.40.24.203|||110000472614|100
12.10.2018 07:00:00||MARS CINEMA|10.40.24.203|||110000472614|182
12.10.2018 07:00:00||MARS CINEMA|10.40.24.204|||110000472614|110
12.10.2018 07:00:00||MARS CINEMA|10.40.24.204|||110000472614|92
12.10.2018 07:00:00||MARS CINEMA|10.40.24.204|||110000472614|90
12.10.2018 07:00:00||MARS CINEMA|10.40.24.204|||110000472614|20
12.10.2018 07:00:00||MARS CINEMA|10.40.24.204|||110000472614|17
12.10.2018 07:00:00||MARS CINEMA|10.40.24.204|||110000472614|93
12.10.2018 07:00:00||MARS CINEMA|10.40.24.204|||110000472614|120
12.10.2018 07:00:00||MARS CINEMA|10.40.24.204|||110000472614|90
12.10.2018 07:00:00||MARS CINEMA|10.40.24.204|||110000472614|103
12.10.2018 07:00:00||MARS CINEMA|10.40.24.204|||110000472614|80
12.10.2018 07:00:00||MARS CINEMA|10.40.25.206|||110000472614|120
12.10.2018 07:00:00||MARS CINEMA|10.40.25.206|||110000472614|40
12.10.2018 07:00:00||MARS CINEMA|10.40.25.206|||110000472614|40
12.10.2018 07:00:00||MARS CINEMA|10.40.25.206|||110000472614|40
12.10.2018 07:00:00||MARS CINEMA|10.40.25.206|||110000472614|20
12.10.2018 07:00:00||MARS CINEMA|10.40.25.206|||110000472614|20
12.10.2018 07:00:00||MARS CINEMA|10.40.25.206|||110000472614|30
12.10.2018 07:00:00||MARS CINEMA|10.40.25.206|||110000472614|60
12.10.2018 07:00:00||MARS CINEMA|10.40.25.206|||110000472614|40
12.10.2018 07:00:00||MARS CINEMA|10.40.25.206|||110000472614|82
12.10.2018 07:00:00||MARS CINEMA|10.40.25.206|||110000472614|85
12.10.2018 07:00:00||MARS CINEMA|10.40.24.206|||110000472614|153
12.10.2018 07:00:00||MARS CINEMA|10.40.24.206|||110000472614|40
12.10.2018 07:00:00||MARS CINEMA|10.40.24.206|||110000472614|40
12.10.2018 07:00:00||MARS CINEMA|10.40.24.206|||110000472614|40
12.10.2018 07:00:00||MARS CINEMA|10.40.24.206|||110000472614|30
12.10.2018 07:00:00||MARS CINEMA|10.40.24.206|||110000472614|30
12.10.2018 07:00:00||MARS CINEMA|10.40.24.206|||110000472614|193
12.10.2018 07:00:00||MARS CINEMA|10.40.24.206|||110000472614|162
12.10.2018 07:00:00||MARS CINEMA|10.40.24.206|||110000472614|20
12.10.2018 07:00:00||MARS CINEMA|10.40.24.206|||110000472614|80
12.10.2018 07:00:00||MARS CINEMA|10.40.24.206|||110000472614|70
12.10.2018 07:00:00||PEGASUS|10.40.26.85|||110000423831|121
12.10.2018 07:00:00||PEGASUS|10.40.27.66|||110000423831|99
12.10.2018 07:00:00||PEGASUS|10.40.26.66|||110000423831|107
12.10.2018 07:00:00||PEGASUS|10.40.26.84|||110000423831|216
12.10.2018 07:00:00||PEGASUS|10.40.27.85|||110000423831|117
12.10.2018 07:00:00||PEGASUS|10.40.27.67|||110000423831|340
12.10.2018 07:00:00||PEGASUS|10.40.27.67|||110000423831|40
12.10.2018 07:00:00||PEGASUS|10.40.26.62|||110000423831|10
12.10.2018 07:00:00||PEGASUS|10.40.26.62|||110000423831|190
12.10.2018 07:00:00||PEGASUS|10.40.26.63|||110000423831|70
12.10.2018 07:00:00||PEGASUS|10.40.26.63|||110000423831|30
12.10.2018 07:00:00||PEGASUS|10.40.26.63|||110000423831|60
12.10.2018 07:00:00||PEGASUS|10.40.26.63|||110000423831|20
12.10.2018 07:00:00||PEGASUS|10.40.26.63|||110000423831|228
12.10.2018 07:00:00||PEGASUS|10.40.26.63|||110000423831|140
12.10.2018 07:00:00||PEGASUS|10.40.26.63|||110000423831|75
12.10.2018 07:00:00||PEGASUS|10.40.26.67|||110000423831|170
12.10.2018 07:00:00||PEGASUS|10.40.27.68|||110000423831|90
12.10.2018 07:00:00||PEGASUS|10.40.27.68|||110000423831|87
12.10.2018 07:00:00||PEGASUS|10.40.27.68|||110000423831|90
12.10.2018 07:00:00||PEGASUS|10.40.27.68|||110000423831|50
12.10.2018 07:00:00||PEGASUS|10.40.26.68|||110000423831|90
12.10.2018 07:00:00||PEGASUS|10.40.26.68|||110000423831|90
12.10.2018 07:00:00||PEGASUS|10.40.26.68|||110000423831|50
12.10.2018 07:00:00||PEGASUS|10.40.27.63|||110000423831|42
12.10.2018 07:00:00||PEGASUS|10.40.27.86|||110000423831|340
12.10.2018 07:00:00||PEGASUS|10.40.27.63|||110000423831|50
12.10.2018 07:00:00||PEGASUS|10.40.27.63|||110000423831|60
12.10.2018 07:00:00||PEGASUS|10.40.27.64|||110000423831|70
12.10.2018 07:00:00||PEGASUS|10.40.27.64|||110000423831|70
12.10.2018 07:00:00||PEGASUS|10.40.27.63|||110000423831|60
12.10.2018 07:00:00||PEGASUS|10.40.27.63|||110000423831|77
12.10.2018 07:00:00||PEGASUS|10.40.27.63|||110000423831|90
12.10.2018 07:00:00||PEGASUS|10.40.26.63|||110000423831|118
12.10.2018 07:00:00||PEGASUS|10.40.27.67|||110000423831|360
12.10.2018 07:00:00||PEGASUS|10.40.27.64|||110000423831|263
12.10.2018 07:00:00||PEGASUS|10.40.27.64|||110000423831|258
12.10.2018 07:00:00||PEGASUS|10.40.27.63|||110000423831|82
12.10.2018 07:00:00||PEGASUS|10.40.27.63|||110000423831|63
12.10.2018 07:00:00||PEGASUS|10.40.27.63|||110000423831|80
12.10.2018 07:00:00||PEGASUS|10.40.26.63|||110000423831|110
12.10.2018 07:00:00||PEGASUS|10.40.26.63|||110000423831|198
12.10.2018 07:00:00||PEGASUS|10.40.27.81|||110000423831|460
12.10.2018 07:00:00||PEGASUS|10.40.27.81|||110000423831|367
12.10.2018 07:00:00||PEGASUS|10.40.26.63|||110000423831|90
12.10.2018 07:00:00||PEGASUS|10.40.26.63|||110000423831|42
12.10.2018 07:00:00||PEGASUS|10.40.26.67|||110000423831|30
12.10.2018 07:00:00||PEGASUS|10.40.26.67|||110000423831|340
12.10.2018 07:00:00||PEGASUS|10.40.26.67|||110000423831|60
12.10.2018 07:00:00||PEGASUS|10.40.26.67|||110000423831|40
12.10.2018 07:00:00||PEGASUS|10.40.26.67|||110000423831|70
12.10.2018 07:00:00||PEGASUS|10.40.26.68|||110000423831|100
12.10.2018 07:00:00||PEGASUS|10.40.27.64|||110000423831|273
12.10.2018 07:00:00||PEGASUS|10.40.27.64|||110000423831|260
12.10.2018 07:00:00||PEGASUS|10.40.27.64|||110000423831|285
12.10.2018 07:00:00||PEGASUS|10.40.27.64|||110000423831|265
12.10.2018 07:00:00||PEGASUS|10.40.27.64|||110000423831|265
12.10.2018 07:00:00||PEGASUS|10.40.27.86|||110000423831|340
12.10.2018 07:00:00||PEGASUS|10.40.27.63|||110000423831|90
12.10.2018 07:00:00||PEGASUS|10.40.26.63|||110000423831|130
12.10.2018 07:00:00||PEGASUS|10.40.26.63|||110000423831|58
12.10.2018 07:00:00||PEGASUS|10.40.26.63|||110000423831|98
12.10.2018 07:00:00||PEGASUS|10.40.26.67|||110000423831|340
12.10.2018 07:00:00||PEGASUS|10.40.27.63|||110000423831|50
12.10.2018 07:00:00||PEGASUS|10.40.27.63|||110000423831|60
12.10.2018 07:00:00||PEGASUS|10.40.27.81|||110000423831|417
12.10.2018 07:00:00||PEGASUS|10.40.26.62|||110000423831|90
12.10.2018 07:00:00||PEGASUS|10.40.26.62|||110000423831|2
12.10.2018 07:00:00||PEGASUS|10.40.26.63|||110000423831|50
12.10.2018 07:00:00||PEGASUS|10.40.26.63|||110000423831|97
12.10.2018 07:00:00||PEGASUS|10.40.26.63|||110000423831|40
12.10.2018 07:00:00||PEGASUS|10.40.26.63|||110000423831|58
12.10.2018 07:00:00||PEGASUS|10.40.26.67|||110000423831|340
12.10.2018 07:00:00||PEGASUS|10.40.27.64|||110000423831|270
12.10.2018 07:00:00||PEGASUS|10.40.27.64|||110000423831|268
12.10.2018 07:00:00||PEGASUS|10.40.27.64|||110000423831|262
12.10.2018 07:00:00||PEGASUS|10.40.27.64|||110000423831|342
12.10.2018 07:00:00||PEGASUS|10.40.27.64|||110000423831|288
12.10.2018 07:00:00||PEGASUS|10.40.27.86|||110000423831|40
12.10.2018 07:00:00||PEGASUS|10.40.27.63|||110000423831|65
12.10.2018 07:00:00||PEGASUS|10.40.27.63|||110000423831|80
12.10.2018 07:00:00||PEGASUS|10.40.27.63|||110000423831|80
12.10.2018 07:00:00||PEGASUS|10.40.27.63|||110000423831|10
12.10.2018 07:00:00||PEGASUS|10.40.27.63|||110000423831|222
12.10.2018 07:00:00||PEGASUS|10.40.27.63|||110000423831|57
12.10.2018 07:00:00||PEGASUS|10.40.26.64|||110000423831|80
12.10.2018 07:00:00||PEGASUS|10.40.26.64|||110000423831|80
12.10.2018 07:00:00||PEGASUS|10.40.26.82|||110000423831|210
12.10.2018 07:00:00||PEGASUS|10.40.26.82|||110000423831|110
12.10.2018 07:00:00||PEGASUS|10.40.26.82|||110000423831|80
12.10.2018 07:00:00||PEGASUS|10.40.26.82|||110000423831|150
12.10.2018 07:00:00||PEGASUS|10.40.26.82|||110000423831|140
12.10.2018 07:00:00||PEGASUS|10.40.26.82|||110000423831|140
12.10.2018 07:00:00||PEGASUS|10.40.26.82|||110000423831|180
12.10.2018 07:00:00||PEGASUS|10.40.26.82|||110000423831|30
12.10.2018 07:00:00||PEGASUS|10.40.26.82|||110000423831|40
12.10.2018 07:00:00||PEGASUS|10.40.26.82|||110000423831|20
12.10.2018 07:00:00||PEGASUS|10.40.26.82|||110000423831|70
12.10.2018 07:00:00||PEGASUS|10.40.26.82|||110000423831|50
12.10.2018 07:00:00||PEGASUS|10.40.26.82|||110000423831|40
12.10.2018 07:00:00||PEGASUS|10.40.27.83|||110000423831|553
12.10.2018 07:00:00||PEGASUS|10.40.27.83|||110000423831|70
12.10.2018 07:00:00||PEGASUS|10.40.27.83|||110000423831|495
12.10.2018 07:00:00||PEGASUS|10.40.27.83|||110000423831|492
12.10.2018 07:00:00||PEGASUS|10.40.27.83|||110000423831|70
12.10.2018 07:00:00||PEGASUS|10.40.26.83|||110000423831|510
12.10.2018 07:00:00||PEGASUS|10.40.26.83|||110000423831|50
12.10.2018 07:00:00||PEGASUS|10.40.26.83|||110000423831|398
12.10.2018 07:00:00||PEGASUS|10.40.26.83|||110000423831|517
12.10.2018 07:00:00||PEGASUS|10.40.26.83|||110000423831|535
12.10.2018 07:00:00||PEGASUS|10.40.26.86|||110000423831|360
12.10.2018 07:00:00||PEGASUS|10.40.26.86|||110000423831|137
12.10.2018 07:00:00||PEGASUS|10.40.26.86|||110000423831|350
12.10.2018 07:00:00||PEGASUS|10.40.26.86|||110000423831|50
12.10.2018 07:00:00||PEGASUS|10.40.26.86|||110000423831|30
12.10.2018 07:00:00||PEGASUS|10.40.26.86|||110000423831|350
12.10.2018 07:00:00||PEGASUS|10.40.26.86|||110000423831|40
12.10.2018 07:00:00||PEGASUS|10.40.26.86|||110000423831|50
12.10.2018 07:00:00||PEGASUS|10.40.27.87|||110000423831|90
12.10.2018 07:00:00||PEGASUS|10.40.27.87|||110000423831|88
12.10.2018 07:00:00||PEGASUS|10.40.27.87|||110000423831|90
12.10.2018 07:00:00||PEGASUS|10.40.27.87|||110000423831|20
12.10.2018 07:00:00||PEGASUS|10.40.26.87|||110000423831|90
12.10.2018 07:00:00||PEGASUS|10.40.26.87|||110000423831|90
12.10.2018 07:00:00||PEGASUS|10.40.26.87|||110000423831|90
12.10.2018 07:00:00||PEGASUS|10.40.26.87|||110000423831|20
12.10.2018 07:00:00||PEGASUS|10.40.26.81|||110000423831|400
12.10.2018 07:00:00||PEGASUS|10.40.26.81|||110000423831|412
12.10.2018 07:00:00||PEGASUS|10.40.26.81|||110000423831|425
12.10.2018 07:00:00||PEGASUS|10.40.27.82|||110000423831|220
12.10.2018 07:00:00||PEGASUS|10.40.27.82|||110000423831|30
12.10.2018 07:00:00||PEGASUS|10.40.27.82|||110000423831|105
12.10.2018 07:00:00||PEGASUS|10.40.27.82|||110000423831|80
12.10.2018 07:00:00||PEGASUS|10.40.27.82|||110000423831|150
12.10.2018 07:00:00||PEGASUS|10.40.27.82|||110000423831|120
12.10.2018 07:00:00||PEGASUS|10.40.27.82|||110000423831|162
12.10.2018 07:00:00||PEGASUS|10.40.27.82|||110000423831|112
12.10.2018 07:00:00||PEGASUS|10.40.27.82|||110000423831|60
12.10.2018 07:00:00||PEGASUS|10.40.27.82|||110000423831|78
12.10.2018 07:00:00||PEGASUS|10.40.27.82|||110000423831|50
12.10.2018 07:00:00||PEGASUS|10.40.27.82|||110000423831|38
12.10.2018 07:00:00||PEGASUS|10.40.27.82|||110000423831|40
12.10.2018 07:00:00||PEGASUS|10.40.27.67|||110000423831|50
12.10.2018 07:00:00||PEGASUS|10.40.27.67|||110000423831|70
12.10.2018 07:00:00||PEGASUS|10.40.27.67|||110000423831|130
12.10.2018 07:00:00||PEGASUS|10.40.27.67|||110000423831|10
12.10.2018 07:00:00||PEGASUS|10.40.27.67|||110000423831|340
12.10.2018 07:00:00||PEGASUS|10.40.27.82|||110000423831|68
12.10.2018 07:00:00||PEGASUS|10.40.27.86|||110000423831|163
12.10.2018 07:00:00||PEGASUS|10.40.27.86|||110000423831|70
12.10.2018 07:00:00||PEGASUS|10.40.27.86|||110000423831|20
12.10.2018 07:00:00||PEGASUS|10.40.27.86|||110000423831|340
12.10.2018 07:00:00||PWC|10.40.24.66|||110000433262|80
12.10.2018 07:00:00||PWC|10.40.24.66|||110000433262|10
12.10.2018 07:00:00||PWC|10.40.24.66|||110000433262|30
12.10.2018 07:00:00||PWC|10.40.24.66|||110000433262|53
12.10.2018 07:00:00||PWC|10.40.24.66|||110000433262|440
12.10.2018 07:00:00||PWC|10.40.24.68|||110000433262|160
12.10.2018 07:00:00||PWC|10.40.24.66|||110000433262|50
12.10.2018 07:00:00||PWC|10.40.24.66|||110000433262|210
12.10.2018 07:00:00||PWC|10.40.24.66|||110000433262|210
12.10.2018 07:00:00||PWC|10.40.25.67|||110000433262|80
12.10.2018 07:00:00||PWC|10.40.25.67|||110000433262|90
12.10.2018 07:00:00||PWC|10.40.25.67|||110000433262|320
12.10.2018 07:00:00||PWC|10.40.25.67|||110000433262|250
12.10.2018 07:00:00||PWC|10.40.25.67|||110000433262|240
12.10.2018 07:00:00||PWC|10.40.25.67|||110000433262|250
12.10.2018 07:00:00||PWC|10.40.25.67|||110000433262|50
12.10.2018 07:00:00||PWC|10.40.25.67|||110000433262|30
12.10.2018 07:00:00||PWC|10.40.25.67|||110000433262|120
12.10.2018 07:00:00||PWC|10.40.24.67|||110000433262|18
12.10.2018 07:00:00||PWC|10.40.24.67|||110000433262|10
12.10.2018 07:00:00||PWC|10.40.24.67|||110000433262|377
12.10.2018 07:00:00||PWC|10.40.24.67|||110000433262|30
12.10.2018 07:00:00||PWC|10.40.24.67|||110000433262|50
12.10.2018 07:00:00||PWC|10.40.24.67|||110000433262|108
12.10.2018 07:00:00||PWC|10.40.25.68|||110000433262|95
12.10.2018 07:00:00||PWC|10.40.25.68|||110000433262|175
12.10.2018 07:00:00||PWC|10.40.25.68|||110000433262|73
12.10.2018 07:00:00||PWC|10.40.25.68|||110000433262|78
12.10.2018 07:00:00||PWC|10.40.25.68|||110000433262|153
12.10.2018 07:00:00||PWC|10.40.24.66|||110000433262|60
12.10.2018 07:00:00||PWC|10.40.24.66|||110000433262|30
12.10.2018 07:00:00||PWC|10.40.24.66|||110000433262|30
12.10.2018 07:00:00||PWC|10.40.24.68|||110000433262|68
12.10.2018 07:00:00||PWC|10.40.24.68|||110000433262|132
12.10.2018 07:00:00||PWC|10.40.24.68|||110000433262|395
12.10.2018 07:00:00||PWC|10.40.24.68|||110000433262|72
12.10.2018 07:00:00||PWC|10.40.24.68|||110000433262|70
12.10.2018 07:00:00||VSMART BİLGİ TEKNOLOJİLERİ|10.40.24.62|||110000474326|40
12.10.2018 07:00:00||VSMART BİLGİ TEKNOLOJİLERİ|10.40.24.62|||110000474326|70
12.10.2018 07:00:00||VSMART BİLGİ TEKNOLOJİLERİ|10.40.24.62|||110000474326|33
12.10.2018 07:00:00||VSMART BİLGİ TEKNOLOJİLERİ|10.40.25.62|||110000474326|62
12.10.2018 07:00:00||VSMART BİLGİ TEKNOLOJİLERİ|10.40.24.62|||110000474326|43
12.10.2018 07:00:00||VSMART BİLGİ TEKNOLOJİLERİ|10.40.24.62|||110000474326|30
12.10.2018 07:00:00||VSMART BİLGİ TEKNOLOJİLERİ|10.40.24.62|||110000474326|10
12.10.2018 07:00:00||VSMART BİLGİ TEKNOLOJİLERİ|10.40.25.62|||110000474326|40
12.10.2018 07:00:00||VSMART BİLGİ TEKNOLOJİLERİ|10.40.25.62|||110000474326|10
12.10.2018 07:00:00||VSMART BİLGİ TEKNOLOJİLERİ|10.40.25.62|||110000474326|10
12.10.2018 07:00:00||VSMART BİLGİ TEKNOLOJİLERİ|10.40.25.62|||110000474326|80
12.10.2018 07:00:00||VSMART BİLGİ TEKNOLOJİLERİ|10.40.25.62|||110000474326|88
12.10.2018 07:00:00||VSMART BİLGİ TEKNOLOJİLERİ|10.40.25.62|||110000474326|103
12.10.2018 07:00:00||VSMART BİLGİ TEKNOLOJİLERİ|10.40.24.62|||110000474326|10
