15.10.2018 08:00:00||AKTİFBANK|10.40.24.172|||110000438458|95
15.10.2018 08:00:00||AKTİFBANK|10.40.25.134|||110000438458|94
15.10.2018 08:00:00||AKTİFBANK|10.40.24.134|||110000438458|92
15.10.2018 08:00:00||AKTİFBANK|10.40.24.135|||110000438458|101
15.10.2018 08:00:00||AKTİFBANK|10.40.25.137|||110000438458|57
15.10.2018 08:00:00||AKTİFBANK|10.40.25.171|||110000438458|12
15.10.2018 08:00:00||AKTİFBANK|10.40.25.172|||110000438458|88
15.10.2018 08:00:00||AKTİFBANK|10.40.25.174|||110000438458|53
15.10.2018 08:00:00||AKTİFBANK|10.40.25.135|||110000438458|101
15.10.2018 08:00:00||AKTİFBANK|10.40.24.137|||110000438458|56
15.10.2018 08:00:00||AKTİFBANK|10.40.24.171|||110000438458|11
15.10.2018 08:00:00||AKTİFBANK|10.40.24.173|||110000438458|95
15.10.2018 08:00:00||AKTİFBANK|10.40.24.174|||110000438458|60
15.10.2018 08:00:00||AKTİFBANK|10.40.24.133|||110000438458|83
15.10.2018 08:00:00||AKTİFBANK|10.40.24.138|||110000438458|120
15.10.2018 08:00:00||AKTİFBANK|10.40.24.139|||110000438458|30
15.10.2018 08:00:00||AKTİFBANK|10.40.24.149|||110000438458|110
15.10.2018 08:00:00||AKTİFBANK|10.40.24.150|||110000438458|540
15.10.2018 08:00:00||AKTİFBANK|10.40.24.145|||110000438458|60
15.10.2018 08:00:00||AKTİFBANK|10.40.24.164|||110000438458|225
15.10.2018 08:00:00||AKTİFBANK|10.40.25.133|||110000438458|70
15.10.2018 08:00:00||AKTİFBANK|10.40.24.145|||110000438458|90
15.10.2018 08:00:00||AKTİFBANK|10.40.24.158|||110000438458|80
15.10.2018 08:00:00||AKTİFBANK|10.40.24.164|||110000438458|70
15.10.2018 08:00:00||AKTİFBANK|10.40.25.138|||110000438458|80
15.10.2018 08:00:00||AKTİFBANK|10.40.25.139|||110000438458|10
15.10.2018 08:00:00||AKTİFBANK|10.40.25.140|||110000438458|32
15.10.2018 08:00:00||AKTİFBANK|10.40.25.151|||110000438458|497
15.10.2018 08:00:00||AKTİFBANK|10.40.25.141|||110000438458|100
15.10.2018 08:00:00||AKTİFBANK|10.40.25.141|||110000438458|88
15.10.2018 08:00:00||AKTİFBANK|10.40.25.142|||110000438458|75
15.10.2018 08:00:00||AKTİFBANK|10.40.25.133|||110000438458|110
15.10.2018 08:00:00||AKTİFBANK|10.40.25.149|||110000438458|100
15.10.2018 08:00:00||AKTİFBANK|10.40.25.149|||110000438458|90
15.10.2018 08:00:00||AKTİFBANK|10.40.25.149|||110000438458|90
15.10.2018 08:00:00||AKTİFBANK|10.40.25.140|||110000438458|30
15.10.2018 08:00:00||AKTİFBANK|10.40.25.150|||110000438458|537
15.10.2018 08:00:00||AKTİFBANK|10.40.25.139|||110000438458|170
15.10.2018 08:00:00||AKTİFBANK|10.40.25.139|||110000438458|40
15.10.2018 08:00:00||AKTİFBANK|10.40.25.140|||110000438458|80
15.10.2018 08:00:00||AKTİFBANK|10.40.25.140|||110000438458|70
15.10.2018 08:00:00||AKTİFBANK|10.40.25.140|||110000438458|30
15.10.2018 08:00:00||AKTİFBANK|10.40.25.151|||110000438458|515
15.10.2018 08:00:00||AKTİFBANK|10.40.25.151|||110000438458|498
15.10.2018 08:00:00||AKTİFBANK|10.40.25.141|||110000438458|40
15.10.2018 08:00:00||AKTİFBANK|10.40.25.141|||110000438458|100
15.10.2018 08:00:00||AKTİFBANK|10.40.25.141|||110000438458|75
15.10.2018 08:00:00||AKTİFBANK|10.40.25.142|||110000438458|40
15.10.2018 08:00:00||AKTİFBANK|10.40.25.149|||110000438458|70
15.10.2018 08:00:00||AKTİFBANK|10.40.25.149|||110000438458|110
15.10.2018 08:00:00||AKTİFBANK|10.40.25.149|||110000438458|90
15.10.2018 08:00:00||AKTİFBANK|10.40.25.149|||110000438458|102
15.10.2018 08:00:00||AKTİFBANK|10.40.25.149|||110000438458|100
15.10.2018 08:00:00||AKTİFBANK|10.40.24.139|||110000438458|62
15.10.2018 08:00:00||AKTİFBANK|10.40.25.153|||110000438458|10
15.10.2018 08:00:00||AKTİFBANK|10.40.25.150|||110000438458|557
15.10.2018 08:00:00||AKTİFBANK|10.40.25.153|||110000438458|70
15.10.2018 08:00:00||AKTİFBANK|10.40.25.163|||110000438458|50
15.10.2018 08:00:00||AKTİFBANK|10.40.24.141|||110000438458|63
15.10.2018 08:00:00||AKTİFBANK|10.40.24.151|||110000438458|517
15.10.2018 08:00:00||AKTİFBANK|10.40.25.153|||110000438458|80
15.10.2018 08:00:00||AKTİFBANK|10.40.24.149|||110000438458|87
15.10.2018 08:00:00||AKTİFBANK|10.40.24.141|||110000438458|50
15.10.2018 08:00:00||AKTİFBANK|10.40.25.133|||110000438458|280
15.10.2018 08:00:00||AKTİFBANK|10.40.25.133|||110000438458|90
15.10.2018 08:00:00||AKTİFBANK|10.40.24.149|||110000438458|90
15.10.2018 08:00:00||AKTİFBANK|10.40.24.162|||110000438458|212
15.10.2018 08:00:00||AKTİFBANK|10.40.24.162|||110000438458|30
15.10.2018 08:00:00||AKTİFBANK|10.40.24.162|||110000438458|40
15.10.2018 08:00:00||AKTİFBANK|10.40.25.133|||110000438458|150
15.10.2018 08:00:00||AKTİFBANK|10.40.25.138|||110000438458|130
15.10.2018 08:00:00||AKTİFBANK|10.40.25.149|||110000438458|72
15.10.2018 08:00:00||AKTİFBANK|10.40.25.149|||110000438458|70
15.10.2018 08:00:00||AKTİFBANK|10.40.25.149|||110000438458|27
15.10.2018 08:00:00||AKTİFBANK|10.40.25.149|||110000438458|70
15.10.2018 08:00:00||AKTİFBANK|10.40.25.149|||110000438458|73
15.10.2018 08:00:00||AKTİFBANK|10.40.25.141|||110000438458|100
15.10.2018 08:00:00||AKTİFBANK|10.40.25.149|||110000438458|130
15.10.2018 08:00:00||AKTİFBANK|10.40.25.138|||110000438458|92
15.10.2018 08:00:00||AKTİFBANK|10.40.25.138|||110000438458|70
15.10.2018 08:00:00||AKTİFBANK|10.40.25.139|||110000438458|100
15.10.2018 08:00:00||AKTİFBANK|10.40.24.145|||110000438458|70
15.10.2018 08:00:00||AKTİFBANK|10.40.24.149|||110000438458|160
15.10.2018 08:00:00||AKTİFBANK|10.40.25.138|||110000438458|30
15.10.2018 08:00:00||AKTİFBANK|10.40.25.138|||110000438458|10
15.10.2018 08:00:00||AKTİFBANK|10.40.25.153|||110000438458|60
15.10.2018 08:00:00||AKTİFBANK|10.40.24.150|||110000438458|545
15.10.2018 08:00:00||AKTİFBANK|10.40.25.128|||110000438458|70
15.10.2018 08:00:00||AKTİFBANK|10.40.25.128|||110000438458|90
15.10.2018 08:00:00||AKTİFBANK|10.40.25.128|||110000438458|92
15.10.2018 08:00:00||AKTİFBANK|10.40.25.128|||110000438458|40
15.10.2018 08:00:00||AKTİFBANK|10.40.25.128|||110000438458|70
15.10.2018 08:00:00||AKTİFBANK|10.40.25.129|||110000438458|83
15.10.2018 08:00:00||AKTİFBANK|10.40.25.129|||110000438458|65
15.10.2018 08:00:00||AKTİFBANK|10.40.25.129|||110000438458|133
15.10.2018 08:00:00||AKTİFBANK|10.40.25.129|||110000438458|100
15.10.2018 08:00:00||AKTİFBANK|10.40.25.129|||110000438458|40
15.10.2018 08:00:00||AKTİFBANK|10.40.25.129|||110000438458|92
15.10.2018 08:00:00||AKTİFBANK|10.40.25.129|||110000438458|95
15.10.2018 08:00:00||AKTİFBANK|10.40.25.130|||110000438458|65
15.10.2018 08:00:00||AKTİFBANK|10.40.25.130|||110000438458|50
15.10.2018 08:00:00||AKTİFBANK|10.40.25.130|||110000438458|72
15.10.2018 08:00:00||AKTİFBANK|10.40.25.130|||110000438458|32
15.10.2018 08:00:00||AKTİFBANK|10.40.25.130|||110000438458|60
15.10.2018 08:00:00||AKTİFBANK|10.40.25.130|||110000438458|100
15.10.2018 08:00:00||AKTİFBANK|10.40.25.130|||110000438458|83
15.10.2018 08:00:00||AKTİFBANK|10.40.25.131|||110000438458|20
15.10.2018 08:00:00||AKTİFBANK|10.40.25.131|||110000438458|75
15.10.2018 08:00:00||AKTİFBANK|10.40.25.131|||110000438458|100
15.10.2018 08:00:00||AKTİFBANK|10.40.25.131|||110000438458|102
15.10.2018 08:00:00||AKTİFBANK|10.40.25.131|||110000438458|87
15.10.2018 08:00:00||AKTİFBANK|10.40.25.131|||110000438458|82
15.10.2018 08:00:00||AKTİFBANK|10.40.25.131|||110000438458|22
15.10.2018 08:00:00||AKTİFBANK|10.40.25.131|||110000438458|120
15.10.2018 08:00:00||AKTİFBANK|10.40.25.132|||110000438458|60
15.10.2018 08:00:00||AKTİFBANK|10.40.25.132|||110000438458|67
15.10.2018 08:00:00||AKTİFBANK|10.40.25.132|||110000438458|85
15.10.2018 08:00:00||AKTİFBANK|10.40.25.132|||110000438458|190
15.10.2018 08:00:00||AKTİFBANK|10.40.25.132|||110000438458|58
15.10.2018 08:00:00||AKTİFBANK|10.40.25.143|||110000438458|327
15.10.2018 08:00:00||AKTİFBANK|10.40.25.144|||110000438458|80
15.10.2018 08:00:00||AKTİFBANK|10.40.25.144|||110000438458|50
15.10.2018 08:00:00||AKTİFBANK|10.40.25.144|||110000438458|20
15.10.2018 08:00:00||AKTİFBANK|10.40.25.154|||110000438458|10
15.10.2018 08:00:00||AKTİFBANK|10.40.25.154|||110000438458|10
15.10.2018 08:00:00||AKTİFBANK|10.40.25.154|||110000438458|10
15.10.2018 08:00:00||AKTİFBANK|10.40.25.157|||110000438458|70
15.10.2018 08:00:00||AKTİFBANK|10.40.25.157|||110000438458|70
15.10.2018 08:00:00||AKTİFBANK|10.40.25.157|||110000438458|72
15.10.2018 08:00:00||AKTİFBANK|10.40.25.157|||110000438458|82
15.10.2018 08:00:00||AKTİFBANK|10.40.25.157|||110000438458|40
15.10.2018 08:00:00||AKTİFBANK|10.40.25.159|||110000438458|60
15.10.2018 08:00:00||AKTİFBANK|10.40.25.159|||110000438458|10
15.10.2018 08:00:00||AKTİFBANK|10.40.25.159|||110000438458|90
15.10.2018 08:00:00||AKTİFBANK|10.40.25.158|||110000438458|73
15.10.2018 08:00:00||AKTİFBANK|10.40.25.158|||110000438458|55
15.10.2018 08:00:00||AKTİFBANK|10.40.25.158|||110000438458|50
15.10.2018 08:00:00||AKTİFBANK|10.40.25.160|||110000438458|90
15.10.2018 08:00:00||AKTİFBANK|10.40.25.161|||110000438458|80
15.10.2018 08:00:00||AKTİFBANK|10.40.25.161|||110000438458|70
15.10.2018 08:00:00||AKTİFBANK|10.40.25.161|||110000438458|40
15.10.2018 08:00:00||AKTİFBANK|10.40.25.161|||110000438458|30
15.10.2018 08:00:00||AKTİFBANK|10.40.25.161|||110000438458|20
15.10.2018 08:00:00||AKTİFBANK|10.40.25.161|||110000438458|60
15.10.2018 08:00:00||AKTİFBANK|10.40.25.145|||110000438458|90
15.10.2018 08:00:00||AKTİFBANK|10.40.25.145|||110000438458|60
15.10.2018 08:00:00||AKTİFBANK|10.40.25.145|||110000438458|60
15.10.2018 08:00:00||AKTİFBANK|10.40.25.145|||110000438458|30
15.10.2018 08:00:00||AKTİFBANK|10.40.25.145|||110000438458|50
15.10.2018 08:00:00||AKTİFBANK|10.40.25.147|||110000438458|90
15.10.2018 08:00:00||AKTİFBANK|10.40.25.162|||110000438458|30
15.10.2018 08:00:00||AKTİFBANK|10.40.25.162|||110000438458|30
15.10.2018 08:00:00||AKTİFBANK|10.40.25.162|||110000438458|60
15.10.2018 08:00:00||AKTİFBANK|10.40.25.164|||110000438458|60
15.10.2018 08:00:00||AKTİFBANK|10.40.25.164|||110000438458|280
15.10.2018 08:00:00||AKTİFBANK|10.40.25.164|||110000438458|50
15.10.2018 08:00:00||AKTİFBANK|10.40.25.164|||110000438458|260
15.10.2018 08:00:00||AKTİFBANK|10.40.25.164|||110000438458|270
15.10.2018 08:00:00||AKTİFBANK|10.40.25.165|||110000438458|110
15.10.2018 08:00:00||AKTİFBANK|10.40.25.165|||110000438458|72
15.10.2018 08:00:00||AKTİFBANK|10.40.25.165|||110000438458|80
15.10.2018 08:00:00||AKTİFBANK|10.40.25.165|||110000438458|102
15.10.2018 08:00:00||AKTİFBANK|10.40.25.166|||110000438458|90
15.10.2018 08:00:00||AKTİFBANK|10.40.25.166|||110000438458|10
15.10.2018 08:00:00||AKTİFBANK|10.40.25.166|||110000438458|10
15.10.2018 08:00:00||AKTİFBANK|10.40.25.166|||110000438458|10
15.10.2018 08:00:00||AKTİFBANK|10.40.25.166|||110000438458|40
15.10.2018 08:00:00||AKTİFBANK|10.40.25.148|||110000438458|130
15.10.2018 08:00:00||AKTİFBANK|10.40.25.148|||110000438458|50
15.10.2018 08:00:00||AKTİFBANK|10.40.25.148|||110000438458|100
15.10.2018 08:00:00||AKTİFBANK|10.40.25.148|||110000438458|130
15.10.2018 08:00:00||AKTİFBANK|10.40.25.148|||110000438458|90
15.10.2018 08:00:00||AKTİFBANK|10.40.25.148|||110000438458|80
15.10.2018 08:00:00||AKTİFBANK|10.40.25.148|||110000438458|70
15.10.2018 08:00:00||AKTİFBANK|10.40.25.148|||110000438458|50
15.10.2018 08:00:00||AKTİFBANK|10.40.25.148|||110000438458|80
15.10.2018 08:00:00||AKTİFBANK|10.40.25.148|||110000438458|40
15.10.2018 08:00:00||AKTİFBANK|10.40.25.148|||110000438458|100
15.10.2018 08:00:00||AKTİFBANK|10.40.25.148|||110000438458|60
15.10.2018 08:00:00||AKTİFBANK|10.40.25.155|||110000438458|70
15.10.2018 08:00:00||AKTİFBANK|10.40.25.155|||110000438458|90
15.10.2018 08:00:00||AKTİFBANK|10.40.25.155|||110000438458|110
15.10.2018 08:00:00||AKTİFBANK|10.40.25.155|||110000438458|120
15.10.2018 08:00:00||AKTİFBANK|10.40.25.155|||110000438458|110
15.10.2018 08:00:00||AKTİFBANK|10.40.25.156|||110000438458|20
15.10.2018 08:00:00||AKTİFBANK|10.40.25.156|||110000438458|30
15.10.2018 08:00:00||AKTİFBANK|10.40.25.139|||110000438458|70
15.10.2018 08:00:00||AKTİFBANK|10.40.25.139|||110000438458|80
15.10.2018 08:00:00||AKTİFBANK|10.40.25.150|||110000438458|517
15.10.2018 08:00:00||AKTİFBANK|10.40.25.129|||110000438458|63
15.10.2018 08:00:00||AKTİFBANK|10.40.25.129|||110000438458|85
15.10.2018 08:00:00||AKTİFBANK|10.40.25.129|||110000438458|140
15.10.2018 08:00:00||AKTİFBANK|10.40.25.130|||110000438458|70
15.10.2018 08:00:00||AKTİFBANK|10.40.25.130|||110000438458|125
15.10.2018 08:00:00||AKTİFBANK|10.40.25.130|||110000438458|100
15.10.2018 08:00:00||AKTİFBANK|10.40.25.131|||110000438458|42
15.10.2018 08:00:00||AKTİFBANK|10.40.25.143|||110000438458|60
15.10.2018 08:00:00||AKTİFBANK|10.40.25.143|||110000438458|242
15.10.2018 08:00:00||AKTİFBANK|10.40.25.143|||110000438458|270
15.10.2018 08:00:00||AKTİFBANK|10.40.25.158|||110000438458|102
15.10.2018 08:00:00||AKTİFBANK|10.40.25.160|||110000438458|110
15.10.2018 08:00:00||AKTİFBANK|10.40.25.162|||110000438458|30
15.10.2018 08:00:00||AKTİFBANK|10.40.25.162|||110000438458|40
15.10.2018 08:00:00||AKTİFBANK|10.40.24.140|||110000438458|160
15.10.2018 08:00:00||AKTİFBANK|10.40.24.140|||110000438458|80
15.10.2018 08:00:00||AKTİFBANK|10.40.24.140|||110000438458|40
15.10.2018 08:00:00||AKTİFBANK|10.40.24.140|||110000438458|30
15.10.2018 08:00:00||AKTİFBANK|10.40.24.140|||110000438458|30
15.10.2018 08:00:00||AKTİFBANK|10.40.24.140|||110000438458|27
15.10.2018 08:00:00||AKTİFBANK|10.40.24.149|||110000438458|80
15.10.2018 08:00:00||AKTİFBANK|10.40.24.149|||110000438458|120
15.10.2018 08:00:00||AKTİFBANK|10.40.24.149|||110000438458|92
15.10.2018 08:00:00||AKTİFBANK|10.40.24.149|||110000438458|68
15.10.2018 08:00:00||AKTİFBANK|10.40.24.149|||110000438458|50
15.10.2018 08:00:00||AKTİFBANK|10.40.24.149|||110000438458|140
15.10.2018 08:00:00||AKTİFBANK|10.40.24.149|||110000438458|95
15.10.2018 08:00:00||AKTİFBANK|10.40.24.149|||110000438458|90
15.10.2018 08:00:00||AKTİFBANK|10.40.24.149|||110000438458|105
15.10.2018 08:00:00||AKTİFBANK|10.40.24.149|||110000438458|80
15.10.2018 08:00:00||AKTİFBANK|10.40.24.133|||110000438458|145
15.10.2018 08:00:00||AKTİFBANK|10.40.24.133|||110000438458|120
15.10.2018 08:00:00||AKTİFBANK|10.40.24.133|||110000438458|83
15.10.2018 08:00:00||AKTİFBANK|10.40.24.138|||110000438458|113
15.10.2018 08:00:00||AKTİFBANK|10.40.24.138|||110000438458|140
15.10.2018 08:00:00||AKTİFBANK|10.40.24.138|||110000438458|112
15.10.2018 08:00:00||AKTİFBANK|10.40.24.138|||110000438458|30
15.10.2018 08:00:00||AKTİFBANK|10.40.24.138|||110000438458|50
15.10.2018 08:00:00||AKTİFBANK|10.40.24.139|||110000438458|160
15.10.2018 08:00:00||AKTİFBANK|10.40.24.139|||110000438458|90
15.10.2018 08:00:00||AKTİFBANK|10.40.24.139|||110000438458|120
15.10.2018 08:00:00||AKTİFBANK|10.40.24.141|||110000438458|200
15.10.2018 08:00:00||AKTİFBANK|10.40.24.141|||110000438458|100
15.10.2018 08:00:00||AKTİFBANK|10.40.24.141|||110000438458|100
15.10.2018 08:00:00||AKTİFBANK|10.40.24.141|||110000438458|60
15.10.2018 08:00:00||AKTİFBANK|10.40.24.141|||110000438458|80
15.10.2018 08:00:00||AKTİFBANK|10.40.25.152|||110000438458|108
15.10.2018 08:00:00||AKTİFBANK|10.40.25.152|||110000438458|50
15.10.2018 08:00:00||AKTİFBANK|10.40.25.152|||110000438458|117
15.10.2018 08:00:00||AKTİFBANK|10.40.25.152|||110000438458|70
15.10.2018 08:00:00||AKTİFBANK|10.40.25.152|||110000438458|90
15.10.2018 08:00:00||AKTİFBANK|10.40.25.152|||110000438458|98
15.10.2018 08:00:00||AKTİFBANK|10.40.25.152|||110000438458|57
15.10.2018 08:00:00||AKTİFBANK|10.40.25.152|||110000438458|90
15.10.2018 08:00:00||AKTİFBANK|10.40.25.152|||110000438458|30
15.10.2018 08:00:00||AKTİFBANK|10.40.25.152|||110000438458|80
15.10.2018 08:00:00||AKTİFBANK|10.40.25.152|||110000438458|30
15.10.2018 08:00:00||AKTİFBANK|10.40.24.150|||110000438458|552
15.10.2018 08:00:00||AKTİFBANK|10.40.24.151|||110000438458|508
15.10.2018 08:00:00||AKTİFBANK|10.40.24.151|||110000438458|527
15.10.2018 08:00:00||AKTİFBANK|10.40.24.128|||110000438458|60
15.10.2018 08:00:00||AKTİFBANK|10.40.24.128|||110000438458|70
15.10.2018 08:00:00||AKTİFBANK|10.40.24.128|||110000438458|100
15.10.2018 08:00:00||AKTİFBANK|10.40.24.128|||110000438458|40
15.10.2018 08:00:00||AKTİFBANK|10.40.24.128|||110000438458|70
15.10.2018 08:00:00||AKTİFBANK|10.40.24.128|||110000438458|40
15.10.2018 08:00:00||AKTİFBANK|10.40.24.129|||110000438458|100
15.10.2018 08:00:00||AKTİFBANK|10.40.24.129|||110000438458|68
15.10.2018 08:00:00||AKTİFBANK|10.40.24.129|||110000438458|100
15.10.2018 08:00:00||AKTİFBANK|10.40.24.129|||110000438458|110
15.10.2018 08:00:00||AKTİFBANK|10.40.24.129|||110000438458|33
15.10.2018 08:00:00||AKTİFBANK|10.40.24.129|||110000438458|72
15.10.2018 08:00:00||AKTİFBANK|10.40.24.129|||110000438458|72
15.10.2018 08:00:00||AKTİFBANK|10.40.24.129|||110000438458|90
15.10.2018 08:00:00||AKTİFBANK|10.40.24.129|||110000438458|83
15.10.2018 08:00:00||AKTİFBANK|10.40.24.129|||110000438458|147
15.10.2018 08:00:00||AKTİFBANK|10.40.24.130|||110000438458|42
15.10.2018 08:00:00||AKTİFBANK|10.40.24.130|||110000438458|42
15.10.2018 08:00:00||AKTİFBANK|10.40.24.130|||110000438458|70
15.10.2018 08:00:00||AKTİFBANK|10.40.24.130|||110000438458|40
15.10.2018 08:00:00||AKTİFBANK|10.40.24.130|||110000438458|60
15.10.2018 08:00:00||AKTİFBANK|10.40.24.130|||110000438458|72
15.10.2018 08:00:00||AKTİFBANK|10.40.24.130|||110000438458|85
15.10.2018 08:00:00||AKTİFBANK|10.40.24.130|||110000438458|37
15.10.2018 08:00:00||AKTİFBANK|10.40.24.130|||110000438458|130
15.10.2018 08:00:00||AKTİFBANK|10.40.24.130|||110000438458|110
15.10.2018 08:00:00||AKTİFBANK|10.40.24.131|||110000438458|87
15.10.2018 08:00:00||AKTİFBANK|10.40.24.131|||110000438458|90
15.10.2018 08:00:00||AKTİFBANK|10.40.24.131|||110000438458|112
15.10.2018 08:00:00||AKTİFBANK|10.40.24.131|||110000438458|110
15.10.2018 08:00:00||AKTİFBANK|10.40.24.131|||110000438458|22
15.10.2018 08:00:00||AKTİFBANK|10.40.24.131|||110000438458|160
15.10.2018 08:00:00||AKTİFBANK|10.40.24.131|||110000438458|60
15.10.2018 08:00:00||AKTİFBANK|10.40.24.131|||110000438458|110
15.10.2018 08:00:00||AKTİFBANK|10.40.24.132|||110000438458|30
15.10.2018 08:00:00||AKTİFBANK|10.40.24.132|||110000438458|80
15.10.2018 08:00:00||AKTİFBANK|10.40.24.132|||110000438458|52
15.10.2018 08:00:00||AKTİFBANK|10.40.24.132|||110000438458|203
15.10.2018 08:00:00||AKTİFBANK|10.40.24.132|||110000438458|67
15.10.2018 08:00:00||AKTİFBANK|10.40.24.143|||110000438458|67
15.10.2018 08:00:00||AKTİFBANK|10.40.24.143|||110000438458|268
15.10.2018 08:00:00||AKTİFBANK|10.40.24.143|||110000438458|275
15.10.2018 08:00:00||AKTİFBANK|10.40.24.143|||110000438458|230
15.10.2018 08:00:00||AKTİFBANK|10.40.24.144|||110000438458|70
15.10.2018 08:00:00||AKTİFBANK|10.40.24.144|||110000438458|107
15.10.2018 08:00:00||AKTİFBANK|10.40.24.144|||110000438458|132
15.10.2018 08:00:00||AKTİFBANK|10.40.24.148|||110000438458|65
15.10.2018 08:00:00||AKTİFBANK|10.40.24.148|||110000438458|170
15.10.2018 08:00:00||AKTİFBANK|10.40.24.148|||110000438458|80
15.10.2018 08:00:00||AKTİFBANK|10.40.24.148|||110000438458|110
15.10.2018 08:00:00||AKTİFBANK|10.40.24.148|||110000438458|80
15.10.2018 08:00:00||AKTİFBANK|10.40.24.148|||110000438458|80
15.10.2018 08:00:00||AKTİFBANK|10.40.24.148|||110000438458|95
15.10.2018 08:00:00||AKTİFBANK|10.40.24.148|||110000438458|100
15.10.2018 08:00:00||AKTİFBANK|10.40.24.148|||110000438458|83
15.10.2018 08:00:00||AKTİFBANK|10.40.24.148|||110000438458|57
15.10.2018 08:00:00||AKTİFBANK|10.40.24.148|||110000438458|28
15.10.2018 08:00:00||AKTİFBANK|10.40.24.148|||110000438458|70
15.10.2018 08:00:00||AKTİFBANK|10.40.24.153|||110000438458|10
15.10.2018 08:00:00||AKTİFBANK|10.40.24.153|||110000438458|93
15.10.2018 08:00:00||AKTİFBANK|10.40.24.153|||110000438458|70
15.10.2018 08:00:00||AKTİFBANK|10.40.24.153|||110000438458|73
15.10.2018 08:00:00||AKTİFBANK|10.40.24.157|||110000438458|30
15.10.2018 08:00:00||AKTİFBANK|10.40.24.157|||110000438458|78
15.10.2018 08:00:00||AKTİFBANK|10.40.24.157|||110000438458|70
15.10.2018 08:00:00||AKTİFBANK|10.40.24.157|||110000438458|42
15.10.2018 08:00:00||AKTİFBANK|10.40.24.157|||110000438458|80
15.10.2018 08:00:00||AKTİFBANK|10.40.24.157|||110000438458|42
15.10.2018 08:00:00||AKTİFBANK|10.40.24.158|||110000438458|80
15.10.2018 08:00:00||AKTİFBANK|10.40.24.158|||110000438458|112
15.10.2018 08:00:00||AKTİFBANK|10.40.24.159|||110000438458|132
15.10.2018 08:00:00||AKTİFBANK|10.40.24.159|||110000438458|53
15.10.2018 08:00:00||AKTİFBANK|10.40.24.159|||110000438458|182
15.10.2018 08:00:00||AKTİFBANK|10.40.24.160|||110000438458|50
15.10.2018 08:00:00||AKTİFBANK|10.40.24.160|||110000438458|90
15.10.2018 08:00:00||AKTİFBANK|10.40.24.160|||110000438458|105
15.10.2018 08:00:00||AKTİFBANK|10.40.24.161|||110000438458|200
15.10.2018 08:00:00||AKTİFBANK|10.40.24.161|||110000438458|80
15.10.2018 08:00:00||AKTİFBANK|10.40.24.161|||110000438458|40
15.10.2018 08:00:00||AKTİFBANK|10.40.24.161|||110000438458|30
15.10.2018 08:00:00||AKTİFBANK|10.40.24.161|||110000438458|30
15.10.2018 08:00:00||AKTİFBANK|10.40.24.161|||110000438458|20
15.10.2018 08:00:00||AKTİFBANK|10.40.24.161|||110000438458|90
15.10.2018 08:00:00||AKTİFBANK|10.40.24.145|||110000438458|20
15.10.2018 08:00:00||AKTİFBANK|10.40.24.145|||110000438458|70
15.10.2018 08:00:00||AKTİFBANK|10.40.24.145|||110000438458|60
15.10.2018 08:00:00||AKTİFBANK|10.40.24.147|||110000438458|90
15.10.2018 08:00:00||AKTİFBANK|10.40.24.162|||110000438458|40
15.10.2018 08:00:00||AKTİFBANK|10.40.24.162|||110000438458|40
15.10.2018 08:00:00||AKTİFBANK|10.40.24.162|||110000438458|128
15.10.2018 08:00:00||AKTİFBANK|10.40.24.162|||110000438458|10
15.10.2018 08:00:00||AKTİFBANK|10.40.24.162|||110000438458|48
15.10.2018 08:00:00||AKTİFBANK|10.40.24.163|||110000438458|30
15.10.2018 08:00:00||AKTİFBANK|10.40.24.163|||110000438458|78
15.10.2018 08:00:00||AKTİFBANK|10.40.24.164|||110000438458|60
15.10.2018 08:00:00||AKTİFBANK|10.40.24.164|||110000438458|330
15.10.2018 08:00:00||AKTİFBANK|10.40.24.164|||110000438458|220
15.10.2018 08:00:00||AKTİFBANK|10.40.24.165|||110000438458|80
15.10.2018 08:00:00||AKTİFBANK|10.40.24.165|||110000438458|80
15.10.2018 08:00:00||AKTİFBANK|10.40.24.165|||110000438458|50
15.10.2018 08:00:00||AKTİFBANK|10.40.24.165|||110000438458|128
15.10.2018 08:00:00||AKTİFBANK|10.40.24.166|||110000438458|80
15.10.2018 08:00:00||AKTİFBANK|10.40.24.166|||110000438458|90
15.10.2018 08:00:00||AKTİFBANK|10.40.24.166|||110000438458|10
15.10.2018 08:00:00||AKTİFBANK|10.40.25.168|||110000438458|90
15.10.2018 08:00:00||AKTİFBANK|10.40.25.168|||110000438458|70
15.10.2018 08:00:00||AKTİFBANK|10.40.25.168|||110000438458|50
15.10.2018 08:00:00||AKTİFBANK|10.40.25.168|||110000438458|40
15.10.2018 08:00:00||AKTİFBANK|10.40.25.168|||110000438458|60
15.10.2018 08:00:00||AKTİFBANK|10.40.24.168|||110000438458|90
15.10.2018 08:00:00||AKTİFBANK|10.40.24.168|||110000438458|40
15.10.2018 08:00:00||AKTİFBANK|10.40.24.168|||110000438458|80
15.10.2018 08:00:00||AKTİFBANK|10.40.24.168|||110000438458|70
15.10.2018 08:00:00||AKTİFBANK|10.40.24.168|||110000438458|70
15.10.2018 08:00:00||AKTİFBANK|10.40.24.168|||110000438458|30
15.10.2018 08:00:00||AKTİFBANK|10.40.24.154|||110000438458|70
15.10.2018 08:00:00||AKTİFBANK|10.40.24.154|||110000438458|20
15.10.2018 08:00:00||AKTİFBANK|10.40.24.154|||110000438458|10
15.10.2018 08:00:00||AKTİFBANK|10.40.24.154|||110000438458|10
15.10.2018 08:00:00||AKTİFBANK|10.40.24.154|||110000438458|10
15.10.2018 08:00:00||AKTİFBANK|10.40.24.154|||110000438458|10
15.10.2018 08:00:00||AKTİFBANK|10.40.24.155|||110000438458|100
15.10.2018 08:00:00||AKTİFBANK|10.40.24.155|||110000438458|130
15.10.2018 08:00:00||AKTİFBANK|10.40.24.155|||110000438458|80
15.10.2018 08:00:00||AKTİFBANK|10.40.24.155|||110000438458|112
15.10.2018 08:00:00||AKTİFBANK|10.40.24.155|||110000438458|100
15.10.2018 08:00:00||AKTİFBANK|10.40.25.169|||110000438458|85
15.10.2018 08:00:00||AKTİFBANK|10.40.25.169|||110000438458|103
15.10.2018 08:00:00||AKTİFBANK|10.40.25.169|||110000438458|70
15.10.2018 08:00:00||AKTİFBANK|10.40.25.169|||110000438458|73
15.10.2018 08:00:00||AKTİFBANK|10.40.24.169|||110000438458|73
15.10.2018 08:00:00||AKTİFBANK|10.40.24.169|||110000438458|85
15.10.2018 08:00:00||AKTİFBANK|10.40.24.169|||110000438458|97
15.10.2018 08:00:00||AKTİFBANK|10.40.24.169|||110000438458|80
15.10.2018 08:00:00||AKTİFBANK|10.40.25.170|||110000438458|30
15.10.2018 08:00:00||AKTİFBANK|10.40.25.170|||110000438458|30
15.10.2018 08:00:00||AKTİFBANK|10.40.25.170|||110000438458|200
15.10.2018 08:00:00||AKTİFBANK|10.40.25.170|||110000438458|100
15.10.2018 08:00:00||AKTİFBANK|10.40.25.170|||110000438458|80
15.10.2018 08:00:00||AKTİFBANK|10.40.25.170|||110000438458|120
15.10.2018 08:00:00||AKTİFBANK|10.40.24.170|||110000438458|60
15.10.2018 08:00:00||AKTİFBANK|10.40.24.170|||110000438458|60
15.10.2018 08:00:00||AKTİFBANK|10.40.24.170|||110000438458|337
15.10.2018 08:00:00||AKTİFBANK|10.40.24.170|||110000438458|78
15.10.2018 08:00:00||AKTİFBANK|10.40.24.170|||110000438458|100
15.10.2018 08:00:00||AKTİFBANK|10.40.24.170|||110000438458|78
15.10.2018 08:00:00||AKTİFBANK|10.40.25.178|||110000438458|590
15.10.2018 08:00:00||AKTİFBANK|10.40.25.178|||110000438458|560
15.10.2018 08:00:00||AKTİFBANK|10.40.25.178|||110000438458|550
15.10.2018 08:00:00||AKTİFBANK|10.40.24.178|||110000438458|560
15.10.2018 08:00:00||AKTİFBANK|10.40.24.178|||110000438458|542
15.10.2018 08:00:00||AKTİFBANK|10.40.24.178|||110000438458|538
15.10.2018 08:00:00||AKTİFBANK|10.40.25.179|||110000438458|412
15.10.2018 08:00:00||AKTİFBANK|10.40.25.179|||110000438458|367
15.10.2018 08:00:00||AKTİFBANK|10.40.25.179|||110000438458|365
15.10.2018 08:00:00||AKTİFBANK|10.40.24.179|||110000438458|333
15.10.2018 08:00:00||AKTİFBANK|10.40.24.179|||110000438458|330
15.10.2018 08:00:00||AKTİFBANK|10.40.24.179|||110000438458|333
15.10.2018 08:00:00||AKTİFBANK|10.40.24.142|||110000438458|40
15.10.2018 08:00:00||AKTİFBANK|10.40.24.156|||110000438458|50
15.10.2018 08:00:00||AKTİFBANK|10.40.24.156|||110000438458|50
15.10.2018 08:00:00||AKTİFBANK|10.40.25.186|||110000438458|90
15.10.2018 08:00:00||AKTİFBANK|10.40.25.186|||110000438458|20
15.10.2018 08:00:00||AKTİFBANK|10.40.25.186|||110000438458|70
15.10.2018 08:00:00||AKTİFBANK|10.40.24.186|||110000438458|92
15.10.2018 08:00:00||AKTİFBANK|10.40.24.186|||110000438458|20
15.10.2018 08:00:00||AKTİFBANK|10.40.24.186|||110000438458|60
15.10.2018 08:00:00||AKTİFBANK|10.40.24.186|||110000438458|40
15.10.2018 08:00:00||AKTİFBANK|10.40.24.152|||110000438458|10
15.10.2018 08:00:00||AKTİFBANK|10.40.24.152|||110000438458|43
15.10.2018 08:00:00||AKTİFBANK|10.40.24.152|||110000438458|95
15.10.2018 08:00:00||AKTİFBANK|10.40.24.152|||110000438458|103
15.10.2018 08:00:00||AKTİFBANK|10.40.24.152|||110000438458|98
15.10.2018 08:00:00||AKTİFBANK|10.40.24.152|||110000438458|103
15.10.2018 08:00:00||AKTİFBANK|10.40.24.152|||110000438458|242
15.10.2018 08:00:00||AKTİFBANK|10.40.24.152|||110000438458|72
15.10.2018 08:00:00||AKTİFBANK|10.40.24.152|||110000438458|92
15.10.2018 08:00:00||AKTİFBANK|10.40.24.152|||110000438458|30
15.10.2018 08:00:00||AKTİFBANK|10.40.24.152|||110000438458|75
15.10.2018 08:00:00||AKTİFBANK|10.40.24.152|||110000438458|30
15.10.2018 08:00:00||BARİKAT İNTERNET GÜVENLİĞİ|10.40.25.201|||110000479736|117
15.10.2018 08:00:00||BARİKAT İNTERNET GÜVENLİĞİ|10.40.25.201|||110000479736|100
15.10.2018 08:00:00||BARİKAT İNTERNET GÜVENLİĞİ|10.40.24.201|||110000479736|133
15.10.2018 08:00:00||BARİKAT İNTERNET GÜVENLİĞİ|10.40.24.201|||110000479736|95
15.10.2018 08:00:00||BOYNER|10.40.26.100|||101367941673|56
15.10.2018 08:00:00||BOYNER|10.40.26.101|||101367941673|162
15.10.2018 08:00:00||BOYNER|10.40.27.100|||101367941673|51
15.10.2018 08:00:00||BOYNER|10.40.27.101|||101367941673|165
15.10.2018 08:00:00||BOYNER|10.40.27.94|||101367941673|210
15.10.2018 08:00:00||BOYNER|10.40.27.94|||101367941673|90
15.10.2018 08:00:00||BOYNER|10.40.27.94|||101367941673|90
15.10.2018 08:00:00||BOYNER|10.40.27.94|||101367941673|100
15.10.2018 08:00:00||BOYNER|10.40.26.94|||101367941673|90
15.10.2018 08:00:00||BOYNER|10.40.26.94|||101367941673|80
15.10.2018 08:00:00||BOYNER|10.40.26.94|||101367941673|80
15.10.2018 08:00:00||BOYNER|10.40.27.95|||101367941673|135
15.10.2018 08:00:00||BOYNER|10.40.27.95|||101367941673|123
15.10.2018 08:00:00||BOYNER|10.40.27.95|||101367941673|232
15.10.2018 08:00:00||BOYNER|10.40.26.95|||101367941673|100
15.10.2018 08:00:00||BOYNER|10.40.26.95|||101367941673|190
15.10.2018 08:00:00||BOYNER|10.40.26.95|||101367941673|130
15.10.2018 08:00:00||BOYNER|10.40.27.96|||101367941673|60
15.10.2018 08:00:00||BOYNER|10.40.27.96|||101367941673|50
15.10.2018 08:00:00||BOYNER|10.40.27.96|||101367941673|50
15.10.2018 08:00:00||BOYNER|10.40.27.96|||101367941673|40
15.10.2018 08:00:00||BOYNER|10.40.27.96|||101367941673|40
15.10.2018 08:00:00||BOYNER|10.40.27.96|||101367941673|142
15.10.2018 08:00:00||BOYNER|10.40.27.96|||101367941673|142
15.10.2018 08:00:00||BOYNER|10.40.27.96|||101367941673|175
15.10.2018 08:00:00||BOYNER|10.40.27.96|||101367941673|165
15.10.2018 08:00:00||BOYNER|10.40.26.96|||101367941673|30
15.10.2018 08:00:00||BOYNER|10.40.26.96|||101367941673|38
15.10.2018 08:00:00||BOYNER|10.40.26.96|||101367941673|30
15.10.2018 08:00:00||BOYNER|10.40.26.96|||101367941673|40
15.10.2018 08:00:00||BOYNER|10.40.26.96|||101367941673|40
15.10.2018 08:00:00||BOYNER|10.40.26.96|||101367941673|50
15.10.2018 08:00:00||BOYNER|10.40.26.96|||101367941673|187
15.10.2018 08:00:00||BOYNER|10.40.26.96|||101367941673|193
15.10.2018 08:00:00||BOYNER|10.40.26.96|||101367941673|158
15.10.2018 08:00:00||BOYNER|10.40.26.96|||101367941673|173
15.10.2018 08:00:00||BOYNER|10.40.27.97|||101367941673|60
15.10.2018 08:00:00||BOYNER|10.40.27.97|||101367941673|643
15.10.2018 08:00:00||BOYNER|10.40.27.97|||101367941673|643
15.10.2018 08:00:00||BOYNER|10.40.27.97|||101367941673|688
15.10.2018 08:00:00||BOYNER|10.40.27.97|||101367941673|50
15.10.2018 08:00:00||BOYNER|10.40.27.97|||101367941673|40
15.10.2018 08:00:00||BOYNER|10.40.27.97|||101367941673|58
15.10.2018 08:00:00||BOYNER|10.40.27.97|||101367941673|30
15.10.2018 08:00:00||BOYNER|10.40.27.97|||101367941673|173
15.10.2018 08:00:00||BOYNER|10.40.27.97|||101367941673|182
15.10.2018 08:00:00||BOYNER|10.40.27.97|||101367941673|190
15.10.2018 08:00:00||BOYNER|10.40.27.97|||101367941673|195
15.10.2018 08:00:00||BOYNER|10.40.26.97|||101367941673|30
15.10.2018 08:00:00||BOYNER|10.40.26.97|||101367941673|640
15.10.2018 08:00:00||BOYNER|10.40.26.97|||101367941673|640
15.10.2018 08:00:00||BOYNER|10.40.26.97|||101367941673|647
15.10.2018 08:00:00||BOYNER|10.40.26.97|||101367941673|30
15.10.2018 08:00:00||BOYNER|10.40.26.97|||101367941673|40
15.10.2018 08:00:00||BOYNER|10.40.26.97|||101367941673|53
15.10.2018 08:00:00||BOYNER|10.40.26.97|||101367941673|60
15.10.2018 08:00:00||BOYNER|10.40.26.97|||101367941673|33
15.10.2018 08:00:00||BOYNER|10.40.26.97|||101367941673|162
15.10.2018 08:00:00||BOYNER|10.40.26.97|||101367941673|178
15.10.2018 08:00:00||BOYNER|10.40.26.97|||101367941673|173
15.10.2018 08:00:00||BOYNER|10.40.26.97|||101367941673|150
15.10.2018 08:00:00||BOYNER|10.40.27.99|||101367941673|123
15.10.2018 08:00:00||BOYNER|10.40.27.99|||101367941673|93
15.10.2018 08:00:00||BOYNER|10.40.27.99|||101367941673|92
15.10.2018 08:00:00||BOYNER|10.40.26.99|||101367941673|12
15.10.2018 08:00:00||BOYNER|10.40.26.99|||101367941673|117
15.10.2018 08:00:00||BOYNER|10.40.26.99|||101367941673|100
15.10.2018 08:00:00||BOYNER|10.40.26.99|||101367941673|83
15.10.2018 08:00:00||ÇALIK HOLDİNG|10.40.24.118|||110000438407|43
15.10.2018 08:00:00||ÇALIK HOLDİNG|10.40.25.99|||110000438407|139
15.10.2018 08:00:00||ÇALIK HOLDİNG|10.40.25.118|||110000438407|159
15.10.2018 08:00:00||ÇALIK HOLDİNG|10.40.25.120|||110000438407|10
15.10.2018 08:00:00||ÇALIK HOLDİNG|10.40.25.120|||110000438407|90
15.10.2018 08:00:00||ÇALIK HOLDİNG|10.40.24.95|||110000438407|50
15.10.2018 08:00:00||ÇALIK HOLDİNG|10.40.25.97|||110000438407|80
15.10.2018 08:00:00||ÇALIK HOLDİNG|10.40.25.103|||110000438407|90
15.10.2018 08:00:00||ÇALIK HOLDİNG|10.40.25.120|||110000438407|40
15.10.2018 08:00:00||ÇALIK HOLDİNG|10.40.25.96|||110000438407|70
15.10.2018 08:00:00||ÇALIK HOLDİNG|10.40.25.96|||110000438407|90
15.10.2018 08:00:00||ÇALIK HOLDİNG|10.40.25.96|||110000438407|122
15.10.2018 08:00:00||ÇALIK HOLDİNG|10.40.25.96|||110000438407|90
15.10.2018 08:00:00||ÇALIK HOLDİNG|10.40.25.115|||110000438407|170
15.10.2018 08:00:00||ÇALIK HOLDİNG|10.40.25.115|||110000438407|75
15.10.2018 08:00:00||ÇALIK HOLDİNG|10.40.25.95|||110000438407|95
15.10.2018 08:00:00||ÇALIK HOLDİNG|10.40.25.96|||110000438407|90
15.10.2018 08:00:00||ÇALIK HOLDİNG|10.40.25.96|||110000438407|100
15.10.2018 08:00:00||ÇALIK HOLDİNG|10.40.25.120|||110000438407|20
15.10.2018 08:00:00||ÇALIK HOLDİNG|10.40.25.95|||110000438407|57
15.10.2018 08:00:00||ÇALIK HOLDİNG|10.40.24.94|||110000438407|205
15.10.2018 08:00:00||ÇALIK HOLDİNG|10.40.25.97|||110000438407|105
15.10.2018 08:00:00||ÇALIK HOLDİNG|10.40.25.120|||110000438407|60
15.10.2018 08:00:00||ÇALIK HOLDİNG|10.40.25.115|||110000438407|80
15.10.2018 08:00:00||ÇALIK HOLDİNG|10.40.25.115|||110000438407|70
15.10.2018 08:00:00||ÇALIK HOLDİNG|10.40.25.115|||110000438407|68
15.10.2018 08:00:00||ÇALIK HOLDİNG|10.40.25.101|||110000438407|50
15.10.2018 08:00:00||ÇALIK HOLDİNG|10.40.25.101|||110000438407|110
15.10.2018 08:00:00||ÇALIK HOLDİNG|10.40.25.101|||110000438407|32
15.10.2018 08:00:00||ÇALIK HOLDİNG|10.40.25.101|||110000438407|10
15.10.2018 08:00:00||ÇALIK HOLDİNG|10.40.25.101|||110000438407|73
15.10.2018 08:00:00||ÇALIK HOLDİNG|10.40.25.101|||110000438407|30
15.10.2018 08:00:00||ÇALIK HOLDİNG|10.40.25.101|||110000438407|40
15.10.2018 08:00:00||ÇALIK HOLDİNG|10.40.25.101|||110000438407|40
15.10.2018 08:00:00||ÇALIK HOLDİNG|10.40.25.101|||110000438407|90
15.10.2018 08:00:00||ÇALIK HOLDİNG|10.40.25.101|||110000438407|90
15.10.2018 08:00:00||ÇALIK HOLDİNG|10.40.25.101|||110000438407|90
15.10.2018 08:00:00||ÇALIK HOLDİNG|10.40.25.94|||110000438407|180
15.10.2018 08:00:00||ÇALIK HOLDİNG|10.40.25.94|||110000438407|180
15.10.2018 08:00:00||ÇALIK HOLDİNG|10.40.25.94|||110000438407|170
15.10.2018 08:00:00||ÇALIK HOLDİNG|10.40.25.94|||110000438407|180
15.10.2018 08:00:00||ÇALIK HOLDİNG|10.40.24.94|||110000438407|205
15.10.2018 08:00:00||ÇALIK HOLDİNG|10.40.24.94|||110000438407|188
15.10.2018 08:00:00||ÇALIK HOLDİNG|10.40.24.94|||110000438407|193
15.10.2018 08:00:00||ÇALIK HOLDİNG|10.40.25.95|||110000438407|20
15.10.2018 08:00:00||ÇALIK HOLDİNG|10.40.25.95|||110000438407|353
15.10.2018 08:00:00||ÇALIK HOLDİNG|10.40.25.95|||110000438407|362
15.10.2018 08:00:00||ÇALIK HOLDİNG|10.40.25.95|||110000438407|40
15.10.2018 08:00:00||ÇALIK HOLDİNG|10.40.24.95|||110000438407|102
15.10.2018 08:00:00||ÇALIK HOLDİNG|10.40.24.95|||110000438407|90
15.10.2018 08:00:00||ÇALIK HOLDİNG|10.40.24.95|||110000438407|390
15.10.2018 08:00:00||ÇALIK HOLDİNG|10.40.24.95|||110000438407|392
15.10.2018 08:00:00||ÇALIK HOLDİNG|10.40.25.96|||110000438407|90
15.10.2018 08:00:00||ÇALIK HOLDİNG|10.40.25.96|||110000438407|98
15.10.2018 08:00:00||ÇALIK HOLDİNG|10.40.25.96|||110000438407|100
15.10.2018 08:00:00||ÇALIK HOLDİNG|10.40.25.96|||110000438407|255
15.10.2018 08:00:00||ÇALIK HOLDİNG|10.40.25.96|||110000438407|262
15.10.2018 08:00:00||ÇALIK HOLDİNG|10.40.25.96|||110000438407|100
15.10.2018 08:00:00||ÇALIK HOLDİNG|10.40.25.96|||110000438407|90
15.10.2018 08:00:00||ÇALIK HOLDİNG|10.40.25.96|||110000438407|95
15.10.2018 08:00:00||ÇALIK HOLDİNG|10.40.25.97|||110000438407|90
15.10.2018 08:00:00||ÇALIK HOLDİNG|10.40.25.97|||110000438407|80
15.10.2018 08:00:00||ÇALIK HOLDİNG|10.40.25.97|||110000438407|295
15.10.2018 08:00:00||ÇALIK HOLDİNG|10.40.25.98|||110000438407|50
15.10.2018 08:00:00||ÇALIK HOLDİNG|10.40.25.98|||110000438407|168
15.10.2018 08:00:00||ÇALIK HOLDİNG|10.40.25.98|||110000438407|158
15.10.2018 08:00:00||ÇALIK HOLDİNG|10.40.25.98|||110000438407|170
15.10.2018 08:00:00||ÇALIK HOLDİNG|10.40.25.98|||110000438407|170
15.10.2018 08:00:00||ÇALIK HOLDİNG|10.40.25.98|||110000438407|60
15.10.2018 08:00:00||ÇALIK HOLDİNG|10.40.25.98|||110000438407|210
15.10.2018 08:00:00||ÇALIK HOLDİNG|10.40.25.98|||110000438407|177
15.10.2018 08:00:00||ÇALIK HOLDİNG|10.40.25.98|||110000438407|170
15.10.2018 08:00:00||ÇALIK HOLDİNG|10.40.25.98|||110000438407|213
15.10.2018 08:00:00||ÇALIK HOLDİNG|10.40.25.98|||110000438407|70
15.10.2018 08:00:00||ÇALIK HOLDİNG|10.40.25.98|||110000438407|303
15.10.2018 08:00:00||ÇALIK HOLDİNG|10.40.24.98|||110000438407|90
15.10.2018 08:00:00||ÇALIK HOLDİNG|10.40.24.98|||110000438407|158
15.10.2018 08:00:00||ÇALIK HOLDİNG|10.40.24.98|||110000438407|202
15.10.2018 08:00:00||ÇALIK HOLDİNG|10.40.24.98|||110000438407|200
15.10.2018 08:00:00||ÇALIK HOLDİNG|10.40.24.98|||110000438407|162
15.10.2018 08:00:00||ÇALIK HOLDİNG|10.40.24.98|||110000438407|30
15.10.2018 08:00:00||ÇALIK HOLDİNG|10.40.24.98|||110000438407|167
15.10.2018 08:00:00||ÇALIK HOLDİNG|10.40.24.98|||110000438407|180
15.10.2018 08:00:00||ÇALIK HOLDİNG|10.40.24.98|||110000438407|170
15.10.2018 08:00:00||ÇALIK HOLDİNG|10.40.24.98|||110000438407|170
15.10.2018 08:00:00||ÇALIK HOLDİNG|10.40.24.98|||110000438407|20
15.10.2018 08:00:00||ÇALIK HOLDİNG|10.40.24.98|||110000438407|278
15.10.2018 08:00:00||ÇALIK HOLDİNG|10.40.25.100|||110000438407|37
15.10.2018 08:00:00||ÇALIK HOLDİNG|10.40.25.100|||110000438407|40
15.10.2018 08:00:00||ÇALIK HOLDİNG|10.40.24.101|||110000438407|60
15.10.2018 08:00:00||ÇALIK HOLDİNG|10.40.24.101|||110000438407|110
15.10.2018 08:00:00||ÇALIK HOLDİNG|10.40.24.101|||110000438407|20
15.10.2018 08:00:00||ÇALIK HOLDİNG|10.40.24.101|||110000438407|20
15.10.2018 08:00:00||ÇALIK HOLDİNG|10.40.24.101|||110000438407|40
15.10.2018 08:00:00||ÇALIK HOLDİNG|10.40.24.101|||110000438407|92
15.10.2018 08:00:00||ÇALIK HOLDİNG|10.40.24.101|||110000438407|10
15.10.2018 08:00:00||ÇALIK HOLDİNG|10.40.24.101|||110000438407|20
15.10.2018 08:00:00||ÇALIK HOLDİNG|10.40.24.101|||110000438407|50
15.10.2018 08:00:00||ÇALIK HOLDİNG|10.40.24.101|||110000438407|30
15.10.2018 08:00:00||ÇALIK HOLDİNG|10.40.24.101|||110000438407|80
15.10.2018 08:00:00||ÇALIK HOLDİNG|10.40.24.101|||110000438407|80
15.10.2018 08:00:00||ÇALIK HOLDİNG|10.40.24.101|||110000438407|100
15.10.2018 08:00:00||ÇALIK HOLDİNG|10.40.25.102|||110000438407|100
15.10.2018 08:00:00||ÇALIK HOLDİNG|10.40.25.102|||110000438407|100
15.10.2018 08:00:00||ÇALIK HOLDİNG|10.40.25.102|||110000438407|150
15.10.2018 08:00:00||ÇALIK HOLDİNG|10.40.24.102|||110000438407|100
15.10.2018 08:00:00||ÇALIK HOLDİNG|10.40.24.102|||110000438407|100
15.10.2018 08:00:00||ÇALIK HOLDİNG|10.40.24.102|||110000438407|140
15.10.2018 08:00:00||ÇALIK HOLDİNG|10.40.25.103|||110000438407|90
15.10.2018 08:00:00||ÇALIK HOLDİNG|10.40.25.103|||110000438407|80
15.10.2018 08:00:00||ÇALIK HOLDİNG|10.40.25.103|||110000438407|20
15.10.2018 08:00:00||ÇALIK HOLDİNG|10.40.25.103|||110000438407|10
15.10.2018 08:00:00||ÇALIK HOLDİNG|10.40.25.115|||110000438407|85
15.10.2018 08:00:00||ÇALIK HOLDİNG|10.40.24.103|||110000438407|93
15.10.2018 08:00:00||ÇALIK HOLDİNG|10.40.24.103|||110000438407|80
15.10.2018 08:00:00||ÇALIK HOLDİNG|10.40.24.103|||110000438407|80
15.10.2018 08:00:00||ÇALIK HOLDİNG|10.40.24.103|||110000438407|10
15.10.2018 08:00:00||ÇALIK HOLDİNG|10.40.25.113|||110000438407|225
15.10.2018 08:00:00||ÇALIK HOLDİNG|10.40.25.113|||110000438407|237
15.10.2018 08:00:00||ÇALIK HOLDİNG|10.40.25.113|||110000438407|195
15.10.2018 08:00:00||ÇALIK HOLDİNG|10.40.25.113|||110000438407|203
15.10.2018 08:00:00||ÇALIK HOLDİNG|10.40.24.113|||110000438407|225
15.10.2018 08:00:00||ÇALIK HOLDİNG|10.40.24.113|||110000438407|223
15.10.2018 08:00:00||ÇALIK HOLDİNG|10.40.24.113|||110000438407|192
15.10.2018 08:00:00||ÇALIK HOLDİNG|10.40.24.113|||110000438407|170
15.10.2018 08:00:00||ÇALIK HOLDİNG|10.40.25.114|||110000438407|163
15.10.2018 08:00:00||ÇALIK HOLDİNG|10.40.25.114|||110000438407|407
15.10.2018 08:00:00||ÇALIK HOLDİNG|10.40.25.114|||110000438407|40
15.10.2018 08:00:00||ÇALIK HOLDİNG|10.40.24.114|||110000438407|20
15.10.2018 08:00:00||ÇALIK HOLDİNG|10.40.24.114|||110000438407|40
15.10.2018 08:00:00||ÇALIK HOLDİNG|10.40.24.114|||110000438407|160
15.10.2018 08:00:00||ÇALIK HOLDİNG|10.40.24.114|||110000438407|373
15.10.2018 08:00:00||ÇALIK HOLDİNG|10.40.24.115|||110000438407|157
15.10.2018 08:00:00||ÇALIK HOLDİNG|10.40.24.115|||110000438407|80
15.10.2018 08:00:00||ÇALIK HOLDİNG|10.40.24.115|||110000438407|88
15.10.2018 08:00:00||ÇALIK HOLDİNG|10.40.24.115|||110000438407|70
15.10.2018 08:00:00||ÇALIK HOLDİNG|10.40.24.115|||110000438407|87
15.10.2018 08:00:00||ÇALIK HOLDİNG|10.40.24.115|||110000438407|70
15.10.2018 08:00:00||ÇALIK HOLDİNG|10.40.25.116|||110000438407|107
15.10.2018 08:00:00||ÇALIK HOLDİNG|10.40.25.116|||110000438407|108
15.10.2018 08:00:00||ÇALIK HOLDİNG|10.40.25.116|||110000438407|303
15.10.2018 08:00:00||ÇALIK HOLDİNG|10.40.24.116|||110000438407|295
15.10.2018 08:00:00||ÇALIK HOLDİNG|10.40.24.116|||110000438407|103
15.10.2018 08:00:00||ÇALIK HOLDİNG|10.40.24.116|||110000438407|105
15.10.2018 08:00:00||ÇALIK HOLDİNG|10.40.25.117|||110000438407|247
15.10.2018 08:00:00||ÇALIK HOLDİNG|10.40.25.117|||110000438407|30
15.10.2018 08:00:00||ÇALIK HOLDİNG|10.40.25.117|||110000438407|25
15.10.2018 08:00:00||ÇALIK HOLDİNG|10.40.25.119|||110000438407|30
15.10.2018 08:00:00||ÇALIK HOLDİNG|10.40.25.119|||110000438407|30
15.10.2018 08:00:00||ÇALIK HOLDİNG|10.40.24.119|||110000438407|150
15.10.2018 08:00:00||ÇALIK HOLDİNG|10.40.24.119|||110000438407|30
15.10.2018 08:00:00||ÇALIK HOLDİNG|10.40.24.119|||110000438407|50
15.10.2018 08:00:00||ÇALIK HOLDİNG|10.40.25.120|||110000438407|108
15.10.2018 08:00:00||ÇALIK HOLDİNG|10.40.25.120|||110000438407|50
15.10.2018 08:00:00||ÇALIK HOLDİNG|10.40.25.120|||110000438407|20
15.10.2018 08:00:00||ÇALIK HOLDİNG|10.40.25.120|||110000438407|20
15.10.2018 08:00:00||ÇALIK HOLDİNG|10.40.25.120|||110000438407|30
15.10.2018 08:00:00||ÇALIK HOLDİNG|10.40.25.120|||110000438407|90
15.10.2018 08:00:00||ÇALIK HOLDİNG|10.40.25.120|||110000438407|90
15.10.2018 08:00:00||ÇALIK HOLDİNG|10.40.24.120|||110000438407|20
15.10.2018 08:00:00||ÇALIK HOLDİNG|10.40.24.120|||110000438407|30
15.10.2018 08:00:00||ÇALIK HOLDİNG|10.40.24.120|||110000438407|110
15.10.2018 08:00:00||ÇALIK HOLDİNG|10.40.24.120|||110000438407|100
15.10.2018 08:00:00||ÇALIK HOLDİNG|10.40.24.120|||110000438407|40
15.10.2018 08:00:00||ÇALIK HOLDİNG|10.40.24.120|||110000438407|80
15.10.2018 08:00:00||ÇALIK HOLDİNG|10.40.24.120|||110000438407|80
15.10.2018 08:00:00||ÇALIK HOLDİNG|10.40.24.120|||110000438407|70
15.10.2018 08:00:00||ÇALIK HOLDİNG|10.40.25.121|||110000438407|92
15.10.2018 08:00:00||ÇALIK HOLDİNG|10.40.25.121|||110000438407|100
15.10.2018 08:00:00||ÇALIK HOLDİNG|10.40.25.121|||110000438407|150
15.10.2018 08:00:00||ÇALIK HOLDİNG|10.40.24.121|||110000438407|100
15.10.2018 08:00:00||ÇALIK HOLDİNG|10.40.24.121|||110000438407|100
15.10.2018 08:00:00||ÇALIK HOLDİNG|10.40.24.121|||110000438407|140
15.10.2018 08:00:00||ÇALIK HOLDİNG|10.40.25.122|||110000438407|90
15.10.2018 08:00:00||ÇALIK HOLDİNG|10.40.25.122|||110000438407|82
15.10.2018 08:00:00||ÇALIK HOLDİNG|10.40.25.122|||110000438407|80
15.10.2018 08:00:00||ÇALIK HOLDİNG|10.40.25.122|||110000438407|30
15.10.2018 08:00:00||ÇALIK HOLDİNG|10.40.25.122|||110000438407|10
15.10.2018 08:00:00||ÇALIK HOLDİNG|10.40.24.122|||110000438407|90
15.10.2018 08:00:00||ÇALIK HOLDİNG|10.40.24.122|||110000438407|80
15.10.2018 08:00:00||ÇALIK HOLDİNG|10.40.24.122|||110000438407|87
15.10.2018 08:00:00||ÇALIK HOLDİNG|10.40.24.117|||110000438407|200
15.10.2018 08:00:00||ÇALIK HOLDİNG|10.40.24.117|||110000438407|30
15.10.2018 08:00:00||ÇALIK HOLDİNG|10.40.24.117|||110000438407|30
15.10.2018 08:00:00||ÇALIK HOLDİNG|10.40.24.97|||110000438407|103
15.10.2018 08:00:00||ÇALIK HOLDİNG|10.40.24.97|||110000438407|90
15.10.2018 08:00:00||ÇALIK HOLDİNG|10.40.24.97|||110000438407|80
15.10.2018 08:00:00||ÇALIK HOLDİNG|10.40.24.97|||110000438407|90
15.10.2018 08:00:00||ÇALIK HOLDİNG|10.40.24.97|||110000438407|313
15.10.2018 08:00:00||ÇALIK HOLDİNG|10.40.24.100|||110000438407|30
15.10.2018 08:00:00||ÇALIK HOLDİNG|10.40.24.100|||110000438407|40
15.10.2018 08:00:00||FIBABANKA|10.40.27.54|||101571767266|309
15.10.2018 08:00:00||FIBABANKA|10.40.26.54|||101571767266|317
15.10.2018 08:00:00||FIBABANKA|10.40.27.55|||101571767266|109
15.10.2018 08:00:00||FIBABANKA|10.40.26.55|||101571767266|109
15.10.2018 08:00:00||FIBABANKA|10.40.24.55|||101571767266|111
15.10.2018 08:00:00||FIBABANKA|10.40.25.56|||101571767266|196
15.10.2018 08:00:00||FIBABANKA|10.40.25.54|||101571767266|329
15.10.2018 08:00:00||FIBABANKA|10.40.24.54|||101571767266|315
15.10.2018 08:00:00||FIBABANKA|10.40.25.55|||101571767266|111
15.10.2018 08:00:00||FIBABANKA|10.40.24.56|||101571767266|194
15.10.2018 08:00:00||FIBABANKA|10.40.26.53|||101571767266|47
15.10.2018 08:00:00||FIBABANKA|10.40.26.53|||101571767266|152
15.10.2018 08:00:00||FIBABANKA|10.40.25.76|||101571767266|10
15.10.2018 08:00:00||FIBABANKA|10.40.27.53|||101571767266|150
15.10.2018 08:00:00||FIBABANKA|10.40.27.53|||101571767266|162
15.10.2018 08:00:00||FIBABANKA|10.40.26.53|||101571767266|147
15.10.2018 08:00:00||FIBABANKA|10.40.27.57|||101571767266|83
15.10.2018 08:00:00||FIBABANKA|10.40.27.57|||101571767266|82
15.10.2018 08:00:00||FIBABANKA|10.40.27.57|||101571767266|80
15.10.2018 08:00:00||FIBABANKA|10.40.25.57|||101571767266|90
15.10.2018 08:00:00||FIBABANKA|10.40.25.57|||101571767266|90
15.10.2018 08:00:00||FIBABANKA|10.40.25.57|||101571767266|90
15.10.2018 08:00:00||FIBABANKA|10.40.26.51|||101571767266|20
15.10.2018 08:00:00||FIBABANKA|10.40.27.52|||101571767266|50
15.10.2018 08:00:00||FIBABANKA|10.40.27.52|||101571767266|60
15.10.2018 08:00:00||FIBABANKA|10.40.27.52|||101571767266|70
15.10.2018 08:00:00||FIBABANKA|10.40.27.74|||101571767266|167
15.10.2018 08:00:00||FIBABANKA|10.40.25.53|||101571767266|32
15.10.2018 08:00:00||FIBABANKA|10.40.25.53|||101571767266|50
15.10.2018 08:00:00||FIBABANKA|10.40.27.53|||101571767266|58
15.10.2018 08:00:00||FIBABANKA|10.40.26.53|||101571767266|58
15.10.2018 08:00:00||FIBABANKA|10.40.25.51|||101571767266|20
15.10.2018 08:00:00||FIBABANKA|10.40.25.51|||101571767266|110
15.10.2018 08:00:00||FIBABANKA|10.40.24.51|||101571767266|20
15.10.2018 08:00:00||FIBABANKA|10.40.24.51|||101571767266|72
15.10.2018 08:00:00||FIBABANKA|10.40.24.51|||101571767266|100
15.10.2018 08:00:00||FIBABANKA|10.40.24.51|||101571767266|140
15.10.2018 08:00:00||FIBABANKA|10.40.24.51|||101571767266|30
15.10.2018 08:00:00||FIBABANKA|10.40.24.57|||101571767266|90
15.10.2018 08:00:00||FIBABANKA|10.40.24.57|||101571767266|80
15.10.2018 08:00:00||FIBABANKA|10.40.24.57|||101571767266|80
15.10.2018 08:00:00||FIBABANKA|10.40.24.52|||101571767266|10
15.10.2018 08:00:00||FIBABANKA|10.40.26.73|||101571767266|40
15.10.2018 08:00:00||FIBABANKA|10.40.27.53|||101571767266|67
15.10.2018 08:00:00||FIBABANKA|10.40.26.51|||101571767266|70
15.10.2018 08:00:00||FIBABANKA|10.40.26.52|||101571767266|30
15.10.2018 08:00:00||FIBABANKA|10.40.26.52|||101571767266|90
15.10.2018 08:00:00||FIBABANKA|10.40.26.52|||101571767266|30
15.10.2018 08:00:00||FIBABANKA|10.40.25.51|||101571767266|140
15.10.2018 08:00:00||FIBABANKA|10.40.25.51|||101571767266|40
15.10.2018 08:00:00||FIBABANKA|10.40.25.51|||101571767266|40
15.10.2018 08:00:00||FIBABANKA|10.40.25.51|||101571767266|72
15.10.2018 08:00:00||FIBABANKA|10.40.24.51|||101571767266|30
15.10.2018 08:00:00||FIBABANKA|10.40.25.59|||101571767266|70
15.10.2018 08:00:00||FIBABANKA|10.40.25.59|||101571767266|93
15.10.2018 08:00:00||FIBABANKA|10.40.25.59|||101571767266|102
15.10.2018 08:00:00||FIBABANKA|10.40.25.59|||101571767266|40
15.10.2018 08:00:00||FIBABANKA|10.40.25.59|||101571767266|122
15.10.2018 08:00:00||FIBABANKA|10.40.25.59|||101571767266|62
15.10.2018 08:00:00||FIBABANKA|10.40.25.59|||101571767266|60
15.10.2018 08:00:00||FIBABANKA|10.40.25.59|||101571767266|152
15.10.2018 08:00:00||FIBABANKA|10.40.25.59|||101571767266|52
15.10.2018 08:00:00||FIBABANKA|10.40.24.59|||101571767266|70
15.10.2018 08:00:00||FIBABANKA|10.40.24.59|||101571767266|125
15.10.2018 08:00:00||FIBABANKA|10.40.24.59|||101571767266|78
15.10.2018 08:00:00||FIBABANKA|10.40.24.59|||101571767266|50
15.10.2018 08:00:00||FIBABANKA|10.40.24.59|||101571767266|130
15.10.2018 08:00:00||FIBABANKA|10.40.24.59|||101571767266|70
15.10.2018 08:00:00||FIBABANKA|10.40.24.59|||101571767266|60
15.10.2018 08:00:00||FIBABANKA|10.40.24.59|||101571767266|145
15.10.2018 08:00:00||FIBABANKA|10.40.24.59|||101571767266|63
15.10.2018 08:00:00||FIBABANKA|10.40.25.60|||101571767266|103
15.10.2018 08:00:00||FIBABANKA|10.40.25.60|||101571767266|37
15.10.2018 08:00:00||FIBABANKA|10.40.25.60|||101571767266|107
15.10.2018 08:00:00||FIBABANKA|10.40.25.60|||101571767266|40
15.10.2018 08:00:00||FIBABANKA|10.40.24.60|||101571767266|113
15.10.2018 08:00:00||FIBABANKA|10.40.24.60|||101571767266|50
15.10.2018 08:00:00||FIBABANKA|10.40.24.60|||101571767266|33
15.10.2018 08:00:00||FIBABANKA|10.40.24.60|||101571767266|100
15.10.2018 08:00:00||FIBABANKA|10.40.24.60|||101571767266|50
15.10.2018 08:00:00||FIBABANKA|10.40.25.72|||101571767266|70
15.10.2018 08:00:00||FIBABANKA|10.40.25.72|||101571767266|40
15.10.2018 08:00:00||FIBABANKA|10.40.25.72|||101571767266|32
15.10.2018 08:00:00||FIBABANKA|10.40.24.72|||101571767266|140
15.10.2018 08:00:00||FIBABANKA|10.40.24.72|||101571767266|75
15.10.2018 08:00:00||FIBABANKA|10.40.24.72|||101571767266|30
15.10.2018 08:00:00||FIBABANKA|10.40.24.72|||101571767266|40
15.10.2018 08:00:00||FIBABANKA|10.40.25.74|||101571767266|32
15.10.2018 08:00:00||FIBABANKA|10.40.25.75|||101571767266|40
15.10.2018 08:00:00||FIBABANKA|10.40.25.75|||101571767266|80
15.10.2018 08:00:00||FIBABANKA|10.40.25.75|||101571767266|133
15.10.2018 08:00:00||FIBABANKA|10.40.25.75|||101571767266|172
15.10.2018 08:00:00||FIBABANKA|10.40.25.75|||101571767266|183
15.10.2018 08:00:00||FIBABANKA|10.40.25.75|||101571767266|200
15.10.2018 08:00:00||FIBABANKA|10.40.24.75|||101571767266|48
15.10.2018 08:00:00||FIBABANKA|10.40.24.75|||101571767266|57
15.10.2018 08:00:00||FIBABANKA|10.40.24.75|||101571767266|165
15.10.2018 08:00:00||FIBABANKA|10.40.24.75|||101571767266|147
15.10.2018 08:00:00||FIBABANKA|10.40.24.76|||101571767266|40
15.10.2018 08:00:00||FIBABANKA|10.40.24.76|||101571767266|68
15.10.2018 08:00:00||FIBABANKA|10.40.24.76|||101571767266|10
15.10.2018 08:00:00||FIBABANKA|10.40.24.53|||101571767266|30
15.10.2018 08:00:00||FIBABANKA|10.40.24.53|||101571767266|60
15.10.2018 08:00:00||FIBABANKA|10.40.26.57|||101571767266|90
15.10.2018 08:00:00||FIBABANKA|10.40.26.57|||101571767266|87
15.10.2018 08:00:00||FIBABANKA|10.40.26.57|||101571767266|80
15.10.2018 08:00:00||FIBABANKA|10.40.27.72|||101571767266|40
15.10.2018 08:00:00||FIBABANKA|10.40.27.72|||101571767266|50
15.10.2018 08:00:00||FIBABANKA|10.40.27.72|||101571767266|32
15.10.2018 08:00:00||FIBABANKA|10.40.27.72|||101571767266|140
15.10.2018 08:00:00||FIBABANKA|10.40.27.72|||101571767266|60
15.10.2018 08:00:00||FIBABANKA|10.40.26.72|||101571767266|30
15.10.2018 08:00:00||FIBABANKA|10.40.26.72|||101571767266|140
15.10.2018 08:00:00||FIBABANKA|10.40.26.72|||101571767266|70
15.10.2018 08:00:00||FIBABANKA|10.40.26.72|||101571767266|30
15.10.2018 08:00:00||FIBABANKA|10.40.27.73|||101571767266|30
15.10.2018 08:00:00||FIBABANKA|10.40.27.73|||101571767266|100
15.10.2018 08:00:00||FIBABANKA|10.40.27.73|||101571767266|40
15.10.2018 08:00:00||FIBABANKA|10.40.27.73|||101571767266|40
15.10.2018 08:00:00||FIBABANKA|10.40.27.73|||101571767266|200
15.10.2018 08:00:00||FIBABANKA|10.40.26.73|||101571767266|40
15.10.2018 08:00:00||FIBABANKA|10.40.26.73|||101571767266|70
15.10.2018 08:00:00||FIBABANKA|10.40.26.73|||101571767266|30
15.10.2018 08:00:00||FIBABANKA|10.40.27.74|||101571767266|75
15.10.2018 08:00:00||FIBABANKA|10.40.27.74|||101571767266|158
15.10.2018 08:00:00||FIBABANKA|10.40.27.74|||101571767266|167
15.10.2018 08:00:00||FIBABANKA|10.40.26.74|||101571767266|70
15.10.2018 08:00:00||FIBABANKA|10.40.26.74|||101571767266|183
15.10.2018 08:00:00||FIBABANKA|10.40.26.74|||101571767266|178
15.10.2018 08:00:00||FIBABANKA|10.40.26.74|||101571767266|175
15.10.2018 08:00:00||FIBABANKA|10.40.27.75|||101571767266|10
15.10.2018 08:00:00||FIBABANKA|10.40.27.75|||101571767266|10
15.10.2018 08:00:00||FIBABANKA|10.40.26.79|||101571767266|10
15.10.2018 08:00:00||FIBABANKA|10.40.27.79|||101571767266|10
15.10.2018 08:00:00||FIBABANKA|10.40.26.79|||101571767266|10
15.10.2018 08:00:00||FIBABANKA|10.40.27.77|||101571767266|153
15.10.2018 08:00:00||FIBABANKA|10.40.26.77|||101571767266|180
15.10.2018 08:00:00||FIBABANKA|10.40.27.77|||101571767266|158
15.10.2018 08:00:00||FIBABANKA|10.40.25.74|||101571767266|228
15.10.2018 08:00:00||FIBABANKA|10.40.24.75|||101571767266|180
15.10.2018 08:00:00||FIBABANKA|10.40.24.53|||101571767266|158
15.10.2018 08:00:00||FIBABANKA|10.40.24.53|||101571767266|172
15.10.2018 08:00:00||FIBABANKA|10.40.25.52|||101571767266|10
15.10.2018 08:00:00||FIBABANKA|10.40.25.52|||101571767266|60
15.10.2018 08:00:00||FIBABANKA|10.40.25.53|||101571767266|145
15.10.2018 08:00:00||FIBABANKA|10.40.25.53|||101571767266|142
15.10.2018 08:00:00||FIBABANKA|10.40.27.51|||101571767266|30
15.10.2018 08:00:00||FIBABANKA|10.40.27.51|||101571767266|20
15.10.2018 08:00:00||FIBABANKA|10.40.27.51|||101571767266|103
15.10.2018 08:00:00||FIBABANKA|10.40.27.51|||101571767266|130
15.10.2018 08:00:00||FIBABANKA|10.40.27.51|||101571767266|70
15.10.2018 08:00:00||FIBABANKA|10.40.27.51|||101571767266|40
15.10.2018 08:00:00||FIBABANKA|10.40.27.51|||101571767266|40
15.10.2018 08:00:00||FIBABANKA|10.40.26.51|||101571767266|10
15.10.2018 08:00:00||FIBABANKA|10.40.26.51|||101571767266|110
15.10.2018 08:00:00||FIBABANKA|10.40.26.51|||101571767266|140
15.10.2018 08:00:00||FIBABANKA|10.40.26.51|||101571767266|30
15.10.2018 08:00:00||FIBABANKA|10.40.26.51|||101571767266|30
15.10.2018 08:00:00||FIBABANKA|10.40.24.74|||101571767266|33
15.10.2018 08:00:00||FIBABANKA|10.40.25.76|||101571767266|60
15.10.2018 08:00:00||FIBABANKA|10.40.25.76|||101571767266|40
15.10.2018 08:00:00||FIBABANKA|10.40.25.76|||101571767266|10
15.10.2018 08:00:00||HAVAŞ|10.40.24.46|||110000479675|10
15.10.2018 08:00:00||HAVAŞ|10.40.24.48|||110000479675|753
15.10.2018 08:00:00||HAVAŞ|10.40.24.48|||110000479675|755
15.10.2018 08:00:00||HAVAŞ|10.40.25.48|||110000479675|763
15.10.2018 08:00:00||HAVAŞ|10.40.24.45|||110000479675|70
15.10.2018 08:00:00||HAVAŞ|10.40.25.45|||110000479675|70
15.10.2018 08:00:00||HAVAŞ|10.40.25.47|||110000479675|70
15.10.2018 08:00:00||HAVAŞ|10.40.24.46|||110000479675|80
15.10.2018 08:00:00||HAVAŞ|10.40.24.47|||110000479675|30
15.10.2018 08:00:00||HAVAŞ|10.40.24.47|||110000479675|92
15.10.2018 08:00:00||HAVAŞ|10.40.24.47|||110000479675|90
15.10.2018 08:00:00||HAVAŞ|10.40.25.46|||110000479675|10
15.10.2018 08:00:00||HAVAŞ|10.40.25.46|||110000479675|60
15.10.2018 08:00:00||HAVAŞ|10.40.24.48|||110000479675|768
15.10.2018 08:00:00||HAVAŞ|10.40.24.46|||110000479675|60
15.10.2018 08:00:00||HAVAŞ|10.40.24.46|||110000479675|72
15.10.2018 08:00:00||HAVAŞ|10.40.24.47|||110000479675|10
15.10.2018 08:00:00||HAVAŞ|10.40.25.48|||110000479675|770
15.10.2018 08:00:00||HAVAŞ|10.40.25.48|||110000479675|792
15.10.2018 08:00:00||HAVAŞ|10.40.25.45|||110000479675|98
15.10.2018 08:00:00||HAVAŞ|10.40.24.45|||110000479675|50
15.10.2018 08:00:00||HAVAŞ|10.40.24.45|||110000479675|170
15.10.2018 08:00:00||HAVAŞ|10.40.24.45|||110000479675|100
15.10.2018 08:00:00||HAVAŞ|10.40.25.47|||110000479675|70
15.10.2018 08:00:00||HAVAŞ|10.40.25.47|||110000479675|223
15.10.2018 08:00:00||HAVAŞ|10.40.25.47|||110000479675|57
15.10.2018 08:00:00||HAVAŞ|10.40.25.47|||110000479675|88
15.10.2018 08:00:00||HAVAŞ|10.40.25.47|||110000479675|90
15.10.2018 08:00:00||HAVAŞ|10.40.25.47|||110000479675|92
15.10.2018 08:00:00||HAVAŞ|10.40.25.47|||110000479675|140
15.10.2018 08:00:00||HAVAŞ|10.40.25.47|||110000479675|180
15.10.2018 08:00:00||HAVAŞ|10.40.25.47|||110000479675|90
15.10.2018 08:00:00||HAVAŞ|10.40.25.47|||110000479675|90
15.10.2018 08:00:00||HAVAŞ|10.40.25.47|||110000479675|90
15.10.2018 08:00:00||HAVAŞ|10.40.25.45|||110000479675|117
15.10.2018 08:00:00||HAVAŞ|10.40.25.45|||110000479675|90
15.10.2018 08:00:00||HAVAŞ|10.40.25.46|||110000479675|10
15.10.2018 08:00:00||HAVAŞ|10.40.25.46|||110000479675|10
15.10.2018 08:00:00||HAVAŞ|10.40.25.46|||110000479675|20
15.10.2018 08:00:00||HAVAŞ|10.40.25.46|||110000479675|20
15.10.2018 08:00:00||HAVAŞ|10.40.25.46|||110000479675|52
15.10.2018 08:00:00||HAVAŞ|10.40.25.46|||110000479675|100
15.10.2018 08:00:00||HAVAŞ|10.40.25.46|||110000479675|62
15.10.2018 08:00:00||HAVAŞ|10.40.25.46|||110000479675|77
15.10.2018 08:00:00||HAVAŞ|10.40.25.46|||110000479675|70
15.10.2018 08:00:00||HAVAŞ|10.40.24.46|||110000479675|20
15.10.2018 08:00:00||HAVAŞ|10.40.24.46|||110000479675|20
15.10.2018 08:00:00||HAVAŞ|10.40.24.46|||110000479675|2
15.10.2018 08:00:00||HAVAŞ|10.40.24.46|||110000479675|10
15.10.2018 08:00:00||HAVAŞ|10.40.24.46|||110000479675|10
15.10.2018 08:00:00||HAVAŞ|10.40.24.46|||110000479675|10
15.10.2018 08:00:00||HAVAŞ|10.40.24.46|||110000479675|60
15.10.2018 08:00:00||HAVAŞ|10.40.24.46|||110000479675|110
15.10.2018 08:00:00||HAVAŞ|10.40.24.47|||110000479675|30
15.10.2018 08:00:00||HAVAŞ|10.40.24.47|||110000479675|220
15.10.2018 08:00:00||HAVAŞ|10.40.24.47|||110000479675|60
15.10.2018 08:00:00||HAVAŞ|10.40.24.47|||110000479675|55
15.10.2018 08:00:00||HAVAŞ|10.40.24.47|||110000479675|155
15.10.2018 08:00:00||HAVAŞ|10.40.24.47|||110000479675|100
15.10.2018 08:00:00||HAVAŞ|10.40.24.47|||110000479675|100
15.10.2018 08:00:00||MARS CINEMA|10.40.24.203|||110000472614|102
15.10.2018 08:00:00||MARS CINEMA|10.40.24.204|||110000472614|40
15.10.2018 08:00:00||MARS CINEMA|10.40.24.203|||110000472614|85
15.10.2018 08:00:00||MARS CINEMA|10.40.24.203|||110000472614|162
15.10.2018 08:00:00||MARS CINEMA|10.40.24.203|||110000472614|82
15.10.2018 08:00:00||MARS CINEMA|10.40.24.204|||110000472614|63
15.10.2018 08:00:00||MARS CINEMA|10.40.24.203|||110000472614|102
15.10.2018 08:00:00||MARS CINEMA|10.40.24.204|||110000472614|20
15.10.2018 08:00:00||MARS CINEMA|10.40.24.204|||110000472614|83
15.10.2018 08:00:00||MARS CINEMA|10.40.25.203|||110000472614|152
15.10.2018 08:00:00||MARS CINEMA|10.40.25.203|||110000472614|105
15.10.2018 08:00:00||MARS CINEMA|10.40.25.203|||110000472614|182
15.10.2018 08:00:00||MARS CINEMA|10.40.25.203|||110000472614|90
15.10.2018 08:00:00||MARS CINEMA|10.40.25.203|||110000472614|83
15.10.2018 08:00:00||MARS CINEMA|10.40.25.203|||110000472614|110
15.10.2018 08:00:00||MARS CINEMA|10.40.25.203|||110000472614|88
15.10.2018 08:00:00||MARS CINEMA|10.40.25.203|||110000472614|145
15.10.2018 08:00:00||MARS CINEMA|10.40.25.203|||110000472614|92
15.10.2018 08:00:00||MARS CINEMA|10.40.25.203|||110000472614|110
15.10.2018 08:00:00||MARS CINEMA|10.40.25.203|||110000472614|92
15.10.2018 08:00:00||MARS CINEMA|10.40.25.203|||110000472614|63
15.10.2018 08:00:00||MARS CINEMA|10.40.25.203|||110000472614|187
15.10.2018 08:00:00||MARS CINEMA|10.40.25.204|||110000472614|110
15.10.2018 08:00:00||MARS CINEMA|10.40.25.204|||110000472614|70
15.10.2018 08:00:00||MARS CINEMA|10.40.25.204|||110000472614|80
15.10.2018 08:00:00||MARS CINEMA|10.40.25.204|||110000472614|100
15.10.2018 08:00:00||MARS CINEMA|10.40.25.204|||110000472614|20
15.10.2018 08:00:00||MARS CINEMA|10.40.25.204|||110000472614|20
15.10.2018 08:00:00||MARS CINEMA|10.40.25.204|||110000472614|30
15.10.2018 08:00:00||MARS CINEMA|10.40.25.204|||110000472614|40
15.10.2018 08:00:00||MARS CINEMA|10.40.25.204|||110000472614|90
15.10.2018 08:00:00||MARS CINEMA|10.40.25.204|||110000472614|120
15.10.2018 08:00:00||MARS CINEMA|10.40.25.204|||110000472614|80
15.10.2018 08:00:00||MARS CINEMA|10.40.25.204|||110000472614|80
15.10.2018 08:00:00||MARS CINEMA|10.40.25.204|||110000472614|110
15.10.2018 08:00:00||MARS CINEMA|10.40.25.204|||110000472614|100
15.10.2018 08:00:00||MARS CINEMA|10.40.24.203|||110000472614|80
15.10.2018 08:00:00||MARS CINEMA|10.40.24.203|||110000472614|90
15.10.2018 08:00:00||MARS CINEMA|10.40.24.203|||110000472614|135
15.10.2018 08:00:00||MARS CINEMA|10.40.24.203|||110000472614|72
15.10.2018 08:00:00||MARS CINEMA|10.40.24.203|||110000472614|140
15.10.2018 08:00:00||MARS CINEMA|10.40.24.203|||110000472614|152
15.10.2018 08:00:00||MARS CINEMA|10.40.24.203|||110000472614|100
15.10.2018 08:00:00||MARS CINEMA|10.40.24.203|||110000472614|190
15.10.2018 08:00:00||MARS CINEMA|10.40.24.204|||110000472614|110
15.10.2018 08:00:00||MARS CINEMA|10.40.24.204|||110000472614|93
15.10.2018 08:00:00||MARS CINEMA|10.40.24.204|||110000472614|90
15.10.2018 08:00:00||MARS CINEMA|10.40.24.204|||110000472614|20
15.10.2018 08:00:00||MARS CINEMA|10.40.24.204|||110000472614|12
15.10.2018 08:00:00||MARS CINEMA|10.40.24.204|||110000472614|90
15.10.2018 08:00:00||MARS CINEMA|10.40.24.204|||110000472614|122
15.10.2018 08:00:00||MARS CINEMA|10.40.24.204|||110000472614|90
15.10.2018 08:00:00||MARS CINEMA|10.40.24.204|||110000472614|108
15.10.2018 08:00:00||MARS CINEMA|10.40.24.204|||110000472614|80
15.10.2018 08:00:00||MARS CINEMA|10.40.25.206|||110000472614|122
15.10.2018 08:00:00||MARS CINEMA|10.40.25.206|||110000472614|40
15.10.2018 08:00:00||MARS CINEMA|10.40.25.206|||110000472614|40
15.10.2018 08:00:00||MARS CINEMA|10.40.25.206|||110000472614|40
15.10.2018 08:00:00||MARS CINEMA|10.40.25.206|||110000472614|20
15.10.2018 08:00:00||MARS CINEMA|10.40.25.206|||110000472614|20
15.10.2018 08:00:00||MARS CINEMA|10.40.25.206|||110000472614|30
15.10.2018 08:00:00||MARS CINEMA|10.40.25.206|||110000472614|60
15.10.2018 08:00:00||MARS CINEMA|10.40.25.206|||110000472614|40
15.10.2018 08:00:00||MARS CINEMA|10.40.25.206|||110000472614|87
15.10.2018 08:00:00||MARS CINEMA|10.40.25.206|||110000472614|88
15.10.2018 08:00:00||MARS CINEMA|10.40.24.206|||110000472614|155
15.10.2018 08:00:00||MARS CINEMA|10.40.24.206|||110000472614|40
15.10.2018 08:00:00||MARS CINEMA|10.40.24.206|||110000472614|40
15.10.2018 08:00:00||MARS CINEMA|10.40.24.206|||110000472614|40
15.10.2018 08:00:00||MARS CINEMA|10.40.24.206|||110000472614|30
15.10.2018 08:00:00||MARS CINEMA|10.40.24.206|||110000472614|30
15.10.2018 08:00:00||MARS CINEMA|10.40.24.206|||110000472614|193
15.10.2018 08:00:00||MARS CINEMA|10.40.24.206|||110000472614|160
15.10.2018 08:00:00||MARS CINEMA|10.40.24.206|||110000472614|20
15.10.2018 08:00:00||MARS CINEMA|10.40.24.206|||110000472614|80
15.10.2018 08:00:00||MARS CINEMA|10.40.24.206|||110000472614|70
15.10.2018 08:00:00||PEGASUS|10.40.26.85|||110000423831|121
15.10.2018 08:00:00||PEGASUS|10.40.27.66|||110000423831|99
15.10.2018 08:00:00||PEGASUS|10.40.26.66|||110000423831|107
15.10.2018 08:00:00||PEGASUS|10.40.26.84|||110000423831|216
15.10.2018 08:00:00||PEGASUS|10.40.27.85|||110000423831|117
15.10.2018 08:00:00||PEGASUS|10.40.27.67|||110000423831|340
15.10.2018 08:00:00||PEGASUS|10.40.27.67|||110000423831|40
15.10.2018 08:00:00||PEGASUS|10.40.26.62|||110000423831|10
15.10.2018 08:00:00||PEGASUS|10.40.26.62|||110000423831|190
15.10.2018 08:00:00||PEGASUS|10.40.26.63|||110000423831|70
15.10.2018 08:00:00||PEGASUS|10.40.26.63|||110000423831|30
15.10.2018 08:00:00||PEGASUS|10.40.26.63|||110000423831|60
15.10.2018 08:00:00||PEGASUS|10.40.26.63|||110000423831|22
15.10.2018 08:00:00||PEGASUS|10.40.26.63|||110000423831|232
15.10.2018 08:00:00||PEGASUS|10.40.26.63|||110000423831|140
15.10.2018 08:00:00||PEGASUS|10.40.26.63|||110000423831|60
15.10.2018 08:00:00||PEGASUS|10.40.26.67|||110000423831|170
15.10.2018 08:00:00||PEGASUS|10.40.27.68|||110000423831|90
15.10.2018 08:00:00||PEGASUS|10.40.27.68|||110000423831|85
15.10.2018 08:00:00||PEGASUS|10.40.27.68|||110000423831|90
15.10.2018 08:00:00||PEGASUS|10.40.27.68|||110000423831|50
15.10.2018 08:00:00||PEGASUS|10.40.26.68|||110000423831|90
15.10.2018 08:00:00||PEGASUS|10.40.26.68|||110000423831|90
15.10.2018 08:00:00||PEGASUS|10.40.26.68|||110000423831|50
15.10.2018 08:00:00||PEGASUS|10.40.27.63|||110000423831|40
15.10.2018 08:00:00||PEGASUS|10.40.27.86|||110000423831|340
15.10.2018 08:00:00||PEGASUS|10.40.27.63|||110000423831|50
15.10.2018 08:00:00||PEGASUS|10.40.27.63|||110000423831|60
15.10.2018 08:00:00||PEGASUS|10.40.27.64|||110000423831|70
15.10.2018 08:00:00||PEGASUS|10.40.27.64|||110000423831|70
15.10.2018 08:00:00||PEGASUS|10.40.27.63|||110000423831|60
15.10.2018 08:00:00||PEGASUS|10.40.27.63|||110000423831|70
15.10.2018 08:00:00||PEGASUS|10.40.27.63|||110000423831|90
15.10.2018 08:00:00||PEGASUS|10.40.26.63|||110000423831|115
15.10.2018 08:00:00||PEGASUS|10.40.27.67|||110000423831|362
15.10.2018 08:00:00||PEGASUS|10.40.27.64|||110000423831|267
15.10.2018 08:00:00||PEGASUS|10.40.27.64|||110000423831|262
15.10.2018 08:00:00||PEGASUS|10.40.27.63|||110000423831|72
15.10.2018 08:00:00||PEGASUS|10.40.27.63|||110000423831|72
15.10.2018 08:00:00||PEGASUS|10.40.27.63|||110000423831|80
15.10.2018 08:00:00||PEGASUS|10.40.26.63|||110000423831|110
15.10.2018 08:00:00||PEGASUS|10.40.26.63|||110000423831|218
15.10.2018 08:00:00||PEGASUS|10.40.27.81|||110000423831|473
15.10.2018 08:00:00||PEGASUS|10.40.27.81|||110000423831|375
15.10.2018 08:00:00||PEGASUS|10.40.26.63|||110000423831|90
15.10.2018 08:00:00||PEGASUS|10.40.26.63|||110000423831|45
15.10.2018 08:00:00||PEGASUS|10.40.26.67|||110000423831|30
15.10.2018 08:00:00||PEGASUS|10.40.26.67|||110000423831|340
15.10.2018 08:00:00||PEGASUS|10.40.26.67|||110000423831|60
15.10.2018 08:00:00||PEGASUS|10.40.26.67|||110000423831|40
15.10.2018 08:00:00||PEGASUS|10.40.26.67|||110000423831|70
15.10.2018 08:00:00||PEGASUS|10.40.26.68|||110000423831|100
15.10.2018 08:00:00||PEGASUS|10.40.27.64|||110000423831|278
15.10.2018 08:00:00||PEGASUS|10.40.27.64|||110000423831|258
15.10.2018 08:00:00||PEGASUS|10.40.27.64|||110000423831|285
15.10.2018 08:00:00||PEGASUS|10.40.27.64|||110000423831|270
15.10.2018 08:00:00||PEGASUS|10.40.27.64|||110000423831|278
15.10.2018 08:00:00||PEGASUS|10.40.27.86|||110000423831|340
15.10.2018 08:00:00||PEGASUS|10.40.27.63|||110000423831|90
15.10.2018 08:00:00||PEGASUS|10.40.26.63|||110000423831|130
15.10.2018 08:00:00||PEGASUS|10.40.26.63|||110000423831|60
15.10.2018 08:00:00||PEGASUS|10.40.26.63|||110000423831|90
15.10.2018 08:00:00||PEGASUS|10.40.26.67|||110000423831|340
15.10.2018 08:00:00||PEGASUS|10.40.27.63|||110000423831|50
15.10.2018 08:00:00||PEGASUS|10.40.27.63|||110000423831|60
15.10.2018 08:00:00||PEGASUS|10.40.27.81|||110000423831|443
15.10.2018 08:00:00||PEGASUS|10.40.26.62|||110000423831|90
15.10.2018 08:00:00||PEGASUS|10.40.26.63|||110000423831|50
15.10.2018 08:00:00||PEGASUS|10.40.26.63|||110000423831|95
15.10.2018 08:00:00||PEGASUS|10.40.26.63|||110000423831|40
15.10.2018 08:00:00||PEGASUS|10.40.26.63|||110000423831|55
15.10.2018 08:00:00||PEGASUS|10.40.26.67|||110000423831|340
15.10.2018 08:00:00||PEGASUS|10.40.27.64|||110000423831|275
15.10.2018 08:00:00||PEGASUS|10.40.27.64|||110000423831|267
15.10.2018 08:00:00||PEGASUS|10.40.27.64|||110000423831|260
15.10.2018 08:00:00||PEGASUS|10.40.27.64|||110000423831|323
15.10.2018 08:00:00||PEGASUS|10.40.27.64|||110000423831|298
15.10.2018 08:00:00||PEGASUS|10.40.27.86|||110000423831|40
15.10.2018 08:00:00||PEGASUS|10.40.27.63|||110000423831|67
15.10.2018 08:00:00||PEGASUS|10.40.27.63|||110000423831|80
15.10.2018 08:00:00||PEGASUS|10.40.27.63|||110000423831|80
15.10.2018 08:00:00||PEGASUS|10.40.27.63|||110000423831|242
15.10.2018 08:00:00||PEGASUS|10.40.27.63|||110000423831|220
15.10.2018 08:00:00||PEGASUS|10.40.27.63|||110000423831|57
15.10.2018 08:00:00||PEGASUS|10.40.26.64|||110000423831|80
15.10.2018 08:00:00||PEGASUS|10.40.26.64|||110000423831|80
15.10.2018 08:00:00||PEGASUS|10.40.26.82|||110000423831|210
15.10.2018 08:00:00||PEGASUS|10.40.26.82|||110000423831|110
15.10.2018 08:00:00||PEGASUS|10.40.26.82|||110000423831|80
15.10.2018 08:00:00||PEGASUS|10.40.26.82|||110000423831|150
15.10.2018 08:00:00||PEGASUS|10.40.26.82|||110000423831|140
15.10.2018 08:00:00||PEGASUS|10.40.26.82|||110000423831|140
15.10.2018 08:00:00||PEGASUS|10.40.26.82|||110000423831|180
15.10.2018 08:00:00||PEGASUS|10.40.26.82|||110000423831|30
15.10.2018 08:00:00||PEGASUS|10.40.26.82|||110000423831|40
15.10.2018 08:00:00||PEGASUS|10.40.26.82|||110000423831|20
15.10.2018 08:00:00||PEGASUS|10.40.26.82|||110000423831|70
15.10.2018 08:00:00||PEGASUS|10.40.26.82|||110000423831|50
15.10.2018 08:00:00||PEGASUS|10.40.26.82|||110000423831|40
15.10.2018 08:00:00||PEGASUS|10.40.27.83|||110000423831|568
15.10.2018 08:00:00||PEGASUS|10.40.27.83|||110000423831|70
15.10.2018 08:00:00||PEGASUS|10.40.27.83|||110000423831|503
15.10.2018 08:00:00||PEGASUS|10.40.27.83|||110000423831|498
15.10.2018 08:00:00||PEGASUS|10.40.27.83|||110000423831|73
15.10.2018 08:00:00||PEGASUS|10.40.26.83|||110000423831|523
15.10.2018 08:00:00||PEGASUS|10.40.26.83|||110000423831|50
15.10.2018 08:00:00||PEGASUS|10.40.26.83|||110000423831|398
15.10.2018 08:00:00||PEGASUS|10.40.26.83|||110000423831|533
15.10.2018 08:00:00||PEGASUS|10.40.26.83|||110000423831|545
15.10.2018 08:00:00||PEGASUS|10.40.26.86|||110000423831|360
15.10.2018 08:00:00||PEGASUS|10.40.26.86|||110000423831|137
15.10.2018 08:00:00||PEGASUS|10.40.26.86|||110000423831|350
15.10.2018 08:00:00||PEGASUS|10.40.26.86|||110000423831|48
15.10.2018 08:00:00||PEGASUS|10.40.26.86|||110000423831|30
15.10.2018 08:00:00||PEGASUS|10.40.26.86|||110000423831|350
15.10.2018 08:00:00||PEGASUS|10.40.26.86|||110000423831|40
15.10.2018 08:00:00||PEGASUS|10.40.26.86|||110000423831|50
15.10.2018 08:00:00||PEGASUS|10.40.27.87|||110000423831|90
15.10.2018 08:00:00||PEGASUS|10.40.27.87|||110000423831|88
15.10.2018 08:00:00||PEGASUS|10.40.27.87|||110000423831|90
15.10.2018 08:00:00||PEGASUS|10.40.27.87|||110000423831|20
15.10.2018 08:00:00||PEGASUS|10.40.26.87|||110000423831|90
15.10.2018 08:00:00||PEGASUS|10.40.26.87|||110000423831|90
15.10.2018 08:00:00||PEGASUS|10.40.26.87|||110000423831|90
15.10.2018 08:00:00||PEGASUS|10.40.26.87|||110000423831|20
15.10.2018 08:00:00||PEGASUS|10.40.26.87|||110000423831|3
15.10.2018 08:00:00||PEGASUS|10.40.26.81|||110000423831|412
15.10.2018 08:00:00||PEGASUS|10.40.26.81|||110000423831|417
15.10.2018 08:00:00||PEGASUS|10.40.26.81|||110000423831|437
15.10.2018 08:00:00||PEGASUS|10.40.27.82|||110000423831|220
15.10.2018 08:00:00||PEGASUS|10.40.27.82|||110000423831|30
15.10.2018 08:00:00||PEGASUS|10.40.27.82|||110000423831|110
15.10.2018 08:00:00||PEGASUS|10.40.27.82|||110000423831|82
15.10.2018 08:00:00||PEGASUS|10.40.27.82|||110000423831|152
15.10.2018 08:00:00||PEGASUS|10.40.27.82|||110000423831|118
15.10.2018 08:00:00||PEGASUS|10.40.27.82|||110000423831|167
15.10.2018 08:00:00||PEGASUS|10.40.27.82|||110000423831|113
15.10.2018 08:00:00||PEGASUS|10.40.27.82|||110000423831|62
15.10.2018 08:00:00||PEGASUS|10.40.27.82|||110000423831|80
15.10.2018 08:00:00||PEGASUS|10.40.27.82|||110000423831|50
15.10.2018 08:00:00||PEGASUS|10.40.27.82|||110000423831|33
15.10.2018 08:00:00||PEGASUS|10.40.27.82|||110000423831|40
15.10.2018 08:00:00||PEGASUS|10.40.27.67|||110000423831|50
15.10.2018 08:00:00||PEGASUS|10.40.27.67|||110000423831|70
15.10.2018 08:00:00||PEGASUS|10.40.27.67|||110000423831|130
15.10.2018 08:00:00||PEGASUS|10.40.27.67|||110000423831|10
15.10.2018 08:00:00||PEGASUS|10.40.27.67|||110000423831|340
15.10.2018 08:00:00||PEGASUS|10.40.27.82|||110000423831|77
15.10.2018 08:00:00||PEGASUS|10.40.27.86|||110000423831|170
15.10.2018 08:00:00||PEGASUS|10.40.27.86|||110000423831|70
15.10.2018 08:00:00||PEGASUS|10.40.27.86|||110000423831|20
15.10.2018 08:00:00||PEGASUS|10.40.27.86|||110000423831|350
15.10.2018 08:00:00||PWC|10.40.24.66|||110000433262|90
15.10.2018 08:00:00||PWC|10.40.24.66|||110000433262|10
15.10.2018 08:00:00||PWC|10.40.24.66|||110000433262|30
15.10.2018 08:00:00||PWC|10.40.24.66|||110000433262|58
15.10.2018 08:00:00||PWC|10.40.24.66|||110000433262|443
15.10.2018 08:00:00||PWC|10.40.24.68|||110000433262|157
15.10.2018 08:00:00||PWC|10.40.24.66|||110000433262|50
15.10.2018 08:00:00||PWC|10.40.24.66|||110000433262|210
15.10.2018 08:00:00||PWC|10.40.24.66|||110000433262|210
15.10.2018 08:00:00||PWC|10.40.25.67|||110000433262|80
15.10.2018 08:00:00||PWC|10.40.25.67|||110000433262|90
15.10.2018 08:00:00||PWC|10.40.25.67|||110000433262|320
15.10.2018 08:00:00||PWC|10.40.25.67|||110000433262|250
15.10.2018 08:00:00||PWC|10.40.25.67|||110000433262|240
15.10.2018 08:00:00||PWC|10.40.25.67|||110000433262|250
15.10.2018 08:00:00||PWC|10.40.25.67|||110000433262|50
15.10.2018 08:00:00||PWC|10.40.25.67|||110000433262|30
15.10.2018 08:00:00||PWC|10.40.25.67|||110000433262|120
15.10.2018 08:00:00||PWC|10.40.24.67|||110000433262|12
15.10.2018 08:00:00||PWC|10.40.24.67|||110000433262|10
15.10.2018 08:00:00||PWC|10.40.24.67|||110000433262|378
15.10.2018 08:00:00||PWC|10.40.24.67|||110000433262|30
15.10.2018 08:00:00||PWC|10.40.24.67|||110000433262|50
15.10.2018 08:00:00||PWC|10.40.24.67|||110000433262|112
15.10.2018 08:00:00||PWC|10.40.25.68|||110000433262|135
15.10.2018 08:00:00||PWC|10.40.25.68|||110000433262|192
15.10.2018 08:00:00||PWC|10.40.25.68|||110000433262|75
15.10.2018 08:00:00||PWC|10.40.25.68|||110000433262|80
15.10.2018 08:00:00||PWC|10.40.25.68|||110000433262|150
15.10.2018 08:00:00||PWC|10.40.24.66|||110000433262|60
15.10.2018 08:00:00||PWC|10.40.24.66|||110000433262|30
15.10.2018 08:00:00||PWC|10.40.24.66|||110000433262|30
15.10.2018 08:00:00||PWC|10.40.24.68|||110000433262|108
15.10.2018 08:00:00||PWC|10.40.24.68|||110000433262|167
15.10.2018 08:00:00||PWC|10.40.24.68|||110000433262|410
15.10.2018 08:00:00||PWC|10.40.24.68|||110000433262|75
15.10.2018 08:00:00||PWC|10.40.24.68|||110000433262|68
15.10.2018 08:00:00||VSMART BİLGİ TEKNOLOJİLERİ|10.40.24.62|||110000474326|40
15.10.2018 08:00:00||VSMART BİLGİ TEKNOLOJİLERİ|10.40.24.62|||110000474326|70
15.10.2018 08:00:00||VSMART BİLGİ TEKNOLOJİLERİ|10.40.24.62|||110000474326|37
15.10.2018 08:00:00||VSMART BİLGİ TEKNOLOJİLERİ|10.40.25.62|||110000474326|62
15.10.2018 08:00:00||VSMART BİLGİ TEKNOLOJİLERİ|10.40.24.62|||110000474326|40
15.10.2018 08:00:00||VSMART BİLGİ TEKNOLOJİLERİ|10.40.24.62|||110000474326|30
15.10.2018 08:00:00||VSMART BİLGİ TEKNOLOJİLERİ|10.40.24.62|||110000474326|10
15.10.2018 08:00:00||VSMART BİLGİ TEKNOLOJİLERİ|10.40.25.62|||110000474326|38
15.10.2018 08:00:00||VSMART BİLGİ TEKNOLOJİLERİ|10.40.25.62|||110000474326|10
15.10.2018 08:00:00||VSMART BİLGİ TEKNOLOJİLERİ|10.40.25.62|||110000474326|10
15.10.2018 08:00:00||VSMART BİLGİ TEKNOLOJİLERİ|10.40.25.62|||110000474326|82
15.10.2018 08:00:00||VSMART BİLGİ TEKNOLOJİLERİ|10.40.25.62|||110000474326|87
15.10.2018 08:00:00||VSMART BİLGİ TEKNOLOJİLERİ|10.40.25.62|||110000474326|102
15.10.2018 08:00:00||VSMART BİLGİ TEKNOLOJİLERİ|10.40.24.62|||110000474326|10
