9/28/2018 3:00:00 PM||HAVAS|10.40.24.45|||110000479675|387
9/28/2018 3:00:00 PM||HAVAS|10.40.25.46|||110000479675|506
9/28/2018 3:00:00 PM||HAVAS|10.40.24.46|||110000479675|484
9/28/2018 3:00:00 PM||HAVAS|10.40.25.47|||110000479675|1096
9/28/2018 3:00:00 PM||HAVAS|10.40.24.47|||110000479675|998
9/28/2018 3:00:00 PM||HAVAS|10.40.25.48|||110000479675|4488923
9/28/2018 3:00:00 PM||HAVAS|10.40.24.48|||110000479675|4551478
9/28/2018 3:00:00 PM||PWC|10.40.24.66|||110000433262|1157
9/28/2018 3:00:00 PM||PWC|10.40.25.67|||110000433262|2482504
9/28/2018 3:00:00 PM||PWC|10.40.24.67|||110000433262|579
9/28/2018 3:00:00 PM||PWC|10.40.25.68|||110000433262|941
9/28/2018 3:00:00 PM||PWC|10.40.25.69|||110000433262|278
9/28/2018 3:00:00 PM||PWC|10.40.24.69|||110000433262|280
9/28/2018 3:00:00 PM||CALIK HOLDING|10.40.25.94|||110000438408|676
9/28/2018 3:00:00 PM||CALIK HOLDING|10.40.24.94|||110000438408|714
9/28/2018 3:00:00 PM||CALIK HOLDING|10.40.25.95|||110000438408|861
9/28/2018 3:00:00 PM||CALIK HOLDING|10.40.24.95|||110000438408|1002
9/28/2018 3:00:00 PM||CALIK HOLDING|10.40.25.96|||110000438408|2859604
9/28/2018 3:00:00 PM||CALIK HOLDING|10.40.25.97|||110000438408|603
9/28/2018 3:00:00 PM||CALIK HOLDING|10.40.24.97|||110000438408|623
9/28/2018 3:00:00 PM||CALIK HOLDING|10.40.25.98|||110000438408|3640043
9/28/2018 3:00:00 PM||CALIK HOLDING|10.40.24.98|||110000438408|3469769
9/28/2018 3:00:00 PM||CALIK HOLDING|10.40.25.100|||110000438408|74
9/28/2018 3:00:00 PM||CALIK HOLDING|10.40.24.100|||110000438408|72
9/28/2018 3:00:00 PM||CALIK HOLDING|10.40.25.101|||110000438408|594
9/28/2018 3:00:00 PM||CALIK HOLDING|10.40.24.101|||110000438408|725
9/28/2018 3:00:00 PM||CALIK HOLDING|10.40.25.102|||110000438408|320
9/28/2018 3:00:00 PM||CALIK HOLDING|10.40.24.102|||110000438408|302
9/28/2018 3:00:00 PM||CALIK HOLDING|10.40.25.103|||110000438408|256
9/28/2018 3:00:00 PM||CALIK HOLDING|10.40.24.103|||110000438408|301
9/28/2018 3:00:00 PM||CALIK HOLDING|10.40.25.104|||110000438408|1110
9/28/2018 3:00:00 PM||CALIK HOLDING|10.40.24.104|||110000438408|1124
9/28/2018 3:00:00 PM||CALIK HOLDING|10.40.25.113|||110000438408|277
9/28/2018 3:00:00 PM||CALIK HOLDING|10.40.24.113|||110000438408|751
9/28/2018 3:00:00 PM||CALIK HOLDING|10.40.25.114|||110000438408|609
9/28/2018 3:00:00 PM||CALIK HOLDING|10.40.24.114|||110000438408|578
9/28/2018 3:00:00 PM||CALIK HOLDING|10.40.25.115|||110000438408|500
9/28/2018 3:00:00 PM||CALIK HOLDING|10.40.24.115|||110000438408|511
9/28/2018 3:00:00 PM||CALIK HOLDING|10.40.25.116|||110000438408|352
9/28/2018 3:00:00 PM||CALIK HOLDING|10.40.24.116|||110000438408|448
9/28/2018 3:00:00 PM||CALIK HOLDING|10.40.25.117|||110000438408|284
9/28/2018 3:00:00 PM||CALIK HOLDING|10.40.24.117|||110000438408|247
9/28/2018 3:00:00 PM||CALIK HOLDING|10.40.25.119|||110000438408|68
9/28/2018 3:00:00 PM||CALIK HOLDING|10.40.24.119|||110000438408|216
9/28/2018 3:00:00 PM||CALIK HOLDING|10.40.25.120|||110000438408|554
9/28/2018 3:00:00 PM||CALIK HOLDING|10.40.24.120|||110000438408|559
9/28/2018 3:00:00 PM||CALIK HOLDING|10.40.25.121|||110000438408|307
9/28/2018 3:00:00 PM||CALIK HOLDING|10.40.24.121|||110000438408|324
9/28/2018 3:00:00 PM||CALIK HOLDING|10.40.25.122|||110000438408|245
9/28/2018 3:00:00 PM||CALIK HOLDING|10.40.24.122|||110000438408|290
9/28/2018 3:00:00 PM||CALIK HOLDING|10.40.25.123|||110000438408|1875726
9/28/2018 3:00:00 PM||CALIK HOLDING|10.40.24.123|||110000438408|1432690
9/28/2018 3:00:00 PM||AKTIFBANK|10.40.25.128|||110000438458|271
9/28/2018 3:00:00 PM||AKTIFBANK|10.40.24.128|||110000438458|444
9/28/2018 3:00:00 PM||AKTIFBANK|10.40.25.129|||110000438458|874
9/28/2018 3:00:00 PM||AKTIFBANK|10.40.24.129|||110000438458|850
9/28/2018 3:00:00 PM||AKTIFBANK|10.40.25.130|||110000438458|735
9/28/2018 3:00:00 PM||AKTIFBANK|10.40.24.130|||110000438458|673
9/28/2018 3:00:00 PM||AKTIFBANK|10.40.25.131|||110000438458|613
9/28/2018 3:00:00 PM||AKTIFBANK|10.40.24.131|||110000438458|636
9/28/2018 3:00:00 PM||AKTIFBANK|10.40.25.132|||110000438458|432
9/28/2018 3:00:00 PM||AKTIFBANK|10.40.24.132|||110000438458|425
9/28/2018 3:00:00 PM||AKTIFBANK|10.40.25.133|||110000438458|643
9/28/2018 3:00:00 PM||AKTIFBANK|10.40.24.133|||110000438458|428
9/28/2018 3:00:00 PM||AKTIFBANK|10.40.25.138|||110000438458|64
9/28/2018 3:00:00 PM||AKTIFBANK|10.40.24.138|||110000438458|548
9/28/2018 3:00:00 PM||AKTIFBANK|10.40.25.139|||110000438458|152
9/28/2018 3:00:00 PM||AKTIFBANK|10.40.24.139|||110000438458|230
9/28/2018 3:00:00 PM||AKTIFBANK|10.40.25.140|||110000438458|255
9/28/2018 3:00:00 PM||AKTIFBANK|10.40.24.140|||110000438458|345
9/28/2018 3:00:00 PM||AKTIFBANK|10.40.25.141|||110000438458|485
9/28/2018 3:00:00 PM||AKTIFBANK|10.40.24.141|||110000438458|637
9/28/2018 3:00:00 PM||AKTIFBANK|10.40.25.142|||110000438458|36
9/28/2018 3:00:00 PM||AKTIFBANK|10.40.24.142|||110000438458|111
9/28/2018 3:00:00 PM||AKTIFBANK|10.40.25.143|||110000438458|820
9/28/2018 3:00:00 PM||AKTIFBANK|10.40.24.143|||110000438458|773
9/28/2018 3:00:00 PM||AKTIFBANK|10.40.25.144|||110000438458|181
9/28/2018 3:00:00 PM||AKTIFBANK|10.40.24.144|||110000438458|265
9/28/2018 3:00:00 PM||AKTIFBANK|10.40.25.145|||110000438458|283
9/28/2018 3:00:00 PM||AKTIFBANK|10.40.24.145|||110000438458|392
9/28/2018 3:00:00 PM||AKTIFBANK|10.40.25.147|||110000438458|84
9/28/2018 3:00:00 PM||AKTIFBANK|10.40.24.147|||110000438458|89
9/28/2018 3:00:00 PM||AKTIFBANK|10.40.25.148|||110000438458|996
9/28/2018 3:00:00 PM||AKTIFBANK|10.40.24.148|||110000438458|999
9/28/2018 3:00:00 PM||AKTIFBANK|10.40.25.149|||110000438458|1518568
9/28/2018 3:00:00 PM||AKTIFBANK|10.40.24.149|||110000438458|1550844
9/28/2018 3:00:00 PM||AKTIFBANK|10.40.25.150|||110000438458|1810531
9/28/2018 3:00:00 PM||AKTIFBANK|10.40.24.150|||110000438458|1812724
9/28/2018 3:00:00 PM||AKTIFBANK|10.40.25.151|||110000438458|2167231
9/28/2018 3:00:00 PM||AKTIFBANK|10.40.24.151|||110000438458|2265474
9/28/2018 3:00:00 PM||AKTIFBANK|10.40.25.152|||110000438458|719
9/28/2018 3:00:00 PM||AKTIFBANK|10.40.24.152|||110000438458|1035
9/28/2018 3:00:00 PM||AKTIFBANK|10.40.25.153|||110000438458|214
9/28/2018 3:00:00 PM||AKTIFBANK|10.40.24.153|||110000438458|240
9/28/2018 3:00:00 PM||AKTIFBANK|10.40.25.154|||110000438458|40
9/28/2018 3:00:00 PM||AKTIFBANK|10.40.24.154|||110000438458|132
9/28/2018 3:00:00 PM||AKTIFBANK|10.40.25.155|||110000438458|469
9/28/2018 3:00:00 PM||AKTIFBANK|10.40.24.155|||110000438458|518
9/28/2018 3:00:00 PM||AKTIFBANK|10.40.25.157|||110000438458|323
9/28/2018 3:00:00 PM||AKTIFBANK|10.40.24.157|||110000438458|343
9/28/2018 3:00:00 PM||AKTIFBANK|10.40.25.158|||110000438458|121
9/28/2018 3:00:00 PM||AKTIFBANK|10.40.24.158|||110000438458|635
9/28/2018 3:00:00 PM||AKTIFBANK|10.40.25.159|||110000438458|158
9/28/2018 3:00:00 PM||AKTIFBANK|10.40.24.159|||110000438458|355
9/28/2018 3:00:00 PM||AKTIFBANK|10.40.25.160|||110000438458|190
9/28/2018 3:00:00 PM||AKTIFBANK|10.40.24.160|||110000438458|239
9/28/2018 3:00:00 PM||AKTIFBANK|10.40.25.161|||110000438458|227
9/28/2018 3:00:00 PM||AKTIFBANK|10.40.25.162|||110000438458|248
9/28/2018 3:00:00 PM||AKTIFBANK|10.40.24.162|||110000438458|482
9/28/2018 3:00:00 PM||AKTIFBANK|10.40.25.163|||110000438458|45
9/28/2018 3:00:00 PM||AKTIFBANK|10.40.24.163|||110000438458|235
9/28/2018 3:00:00 PM||AKTIFBANK|10.40.25.164|||110000438458|850
9/28/2018 3:00:00 PM||AKTIFBANK|10.40.24.164|||110000438458|833
9/28/2018 3:00:00 PM||AKTIFBANK|10.40.25.165|||110000438458|312
9/28/2018 3:00:00 PM||AKTIFBANK|10.40.24.165|||110000438458|350
9/28/2018 3:00:00 PM||AKTIFBANK|10.40.25.166|||110000438458|131
9/28/2018 3:00:00 PM||AKTIFBANK|10.40.24.166|||110000438458|201
9/28/2018 3:00:00 PM||AKTIFBANK|10.40.25.168|||110000438458|306
9/28/2018 3:00:00 PM||AKTIFBANK|10.40.24.168|||110000438458|368
9/28/2018 3:00:00 PM||AKTIFBANK|10.40.25.169|||110000438458|324
9/28/2018 3:00:00 PM||AKTIFBANK|10.40.24.169|||110000438458|303
9/28/2018 3:00:00 PM||AKTIFBANK|10.40.25.170|||110000438458|382
9/28/2018 3:00:00 PM||AKTIFBANK|10.40.24.170|||110000438458|876
9/28/2018 3:00:00 PM||AKTIFBANK|10.40.25.178|||110000438458|1575
9/28/2018 3:00:00 PM||AKTIFBANK|10.40.24.178|||110000438458|1490
9/28/2018 3:00:00 PM||AKTIFBANK|10.40.25.179|||110000438458|924
9/28/2018 3:00:00 PM||AKTIFBANK|10.40.24.179|||110000438458|1029
9/28/2018 3:00:00 PM||AKTIFBANK|10.40.25.186|||110000438458|180
9/28/2018 3:00:00 PM||AKTIFBANK|10.40.24.186|||110000438458|209
9/28/2018 3:00:00 PM||MARS CINEMA|10.40.25.203|||110000472614|1317
9/28/2018 3:00:00 PM||MARS CINEMA|10.40.24.203|||110000472614|1364
9/28/2018 3:00:00 PM||MARS CINEMA|10.40.25.204|||110000472614|1012
9/28/2018 3:00:00 PM||MARS CINEMA|10.40.24.204|||110000472614|997
9/28/2018 3:00:00 PM||MARS CINEMA|10.40.25.206|||110000472614|451
9/28/2018 3:00:00 PM||MARS CINEMA|10.40.24.206|||110000472614|708
9/28/2018 3:00:00 PM||PEGASUS|10.40.26.62|||110000423831|299
9/28/2018 3:00:00 PM||PEGASUS|10.40.27.63|||110000423831|10602048
9/28/2018 3:00:00 PM||PEGASUS|10.40.26.63|||110000423831|1697
9/28/2018 3:00:00 PM||PEGASUS|10.40.27.64|||110000423831|5089732
9/28/2018 3:00:00 PM||PEGASUS|10.40.26.64|||110000423831|157
9/28/2018 3:00:00 PM||PEGASUS|10.40.27.67|||110000423831|1237
9/28/2018 3:00:00 PM||PEGASUS|10.40.26.67|||110000423831|2172141
9/28/2018 3:00:00 PM||PEGASUS|10.40.27.68|||110000423831|308
9/28/2018 3:00:00 PM||PEGASUS|10.40.26.68|||110000423831|313
9/28/2018 3:00:00 PM||PEGASUS|10.40.27.81|||110000423831|1197
9/28/2018 3:00:00 PM||PEGASUS|10.40.26.81|||110000423831|1184
9/28/2018 3:00:00 PM||PEGASUS|10.40.27.82|||110000423831|1248
9/28/2018 3:00:00 PM||PEGASUS|10.40.26.82|||110000423831|1212
9/28/2018 3:00:00 PM||PEGASUS|10.40.27.83|||110000423831|2926550
9/28/2018 3:00:00 PM||PEGASUS|10.40.26.83|||110000423831|4087257
9/28/2018 3:00:00 PM||PEGASUS|10.40.26.86|||110000423831|2110260
9/28/2018 3:00:00 PM||PEGASUS|10.40.27.87|||110000423831|271
9/28/2018 3:00:00 PM||PEGASUS|10.40.26.87|||110000423831|294
9/28/2018 3:00:00 PM||BOYNER|10.40.27.95|||101367941673|439
9/28/2018 3:00:00 PM||BOYNER|10.40.26.95|||101367941673|402
9/28/2018 3:00:00 PM||BOYNER|10.40.27.96|||101367941673|843
9/28/2018 3:00:00 PM||BOYNER|10.40.26.96|||101367941673|918
9/28/2018 3:00:00 PM||BOYNER|10.40.27.97|||101367941673|2389
9/28/2018 3:00:00 PM||BOYNER|10.40.26.97|||101367941673|2305
9/28/2018 3:00:00 PM||BOYNER|10.40.27.99|||101367941673|288
9/28/2018 3:00:00 PM||BOYNER|10.40.26.99|||101367941673|315
