03.10.2018 22:00:00||AKTİFBANK|10.40.24.128|||110000438458|155
03.10.2018 22:00:00||AKTİFBANK|10.40.24.128|||110000438458|72
03.10.2018 22:00:00||AKTİFBANK|10.40.24.128|||110000438458|103
03.10.2018 22:00:00||AKTİFBANK|10.40.24.128|||110000438458|41
03.10.2018 22:00:00||AKTİFBANK|10.40.24.128|||110000438458|72
03.10.2018 22:00:00||AKTİFBANK|10.40.24.128|||110000438458|41
03.10.2018 22:00:00||AKTİFBANK|10.40.24.129|||110000438458|103
03.10.2018 22:00:00||AKTİFBANK|10.40.24.129|||110000438458|72
03.10.2018 22:00:00||AKTİFBANK|10.40.24.129|||110000438458|103
03.10.2018 22:00:00||AKTİFBANK|10.40.24.129|||110000438458|113
03.10.2018 22:00:00||AKTİFBANK|10.40.24.129|||110000438458|51
03.10.2018 22:00:00||AKTİFBANK|10.40.24.129|||110000438458|72
03.10.2018 22:00:00||AKTİFBANK|10.40.24.129|||110000438458|72
03.10.2018 22:00:00||AKTİFBANK|10.40.24.129|||110000438458|93
03.10.2018 22:00:00||AKTİFBANK|10.40.24.129|||110000438458|83
03.10.2018 22:00:00||AKTİFBANK|10.40.24.129|||110000438458|145
03.10.2018 22:00:00||AKTİFBANK|10.40.24.130|||110000438458|51
03.10.2018 22:00:00||AKTİFBANK|10.40.24.130|||110000438458|41
03.10.2018 22:00:00||AKTİFBANK|10.40.24.130|||110000438458|83
03.10.2018 22:00:00||AKTİFBANK|10.40.24.130|||110000438458|41
03.10.2018 22:00:00||AKTİFBANK|10.40.24.130|||110000438458|61
03.10.2018 22:00:00||AKTİFBANK|10.40.24.130|||110000438458|83
03.10.2018 22:00:00||AKTİFBANK|10.40.24.130|||110000438458|93
03.10.2018 22:00:00||AKTİFBANK|10.40.24.130|||110000438458|41
03.10.2018 22:00:00||AKTİFBANK|10.40.24.130|||110000438458|135
03.10.2018 22:00:00||AKTİFBANK|10.40.24.130|||110000438458|113
03.10.2018 22:00:00||AKTİFBANK|10.40.24.131|||110000438458|10
03.10.2018 22:00:00||AKTİFBANK|10.40.24.131|||110000438458|103
03.10.2018 22:00:00||AKTİFBANK|10.40.24.131|||110000438458|87
03.10.2018 22:00:00||AKTİFBANK|10.40.24.131|||110000438458|106
03.10.2018 22:00:00||AKTİFBANK|10.40.24.131|||110000438458|115
03.10.2018 22:00:00||AKTİFBANK|10.40.24.131|||110000438458|30
03.10.2018 22:00:00||AKTİFBANK|10.40.24.131|||110000438458|153
03.10.2018 22:00:00||AKTİFBANK|10.40.24.131|||110000438458|58
03.10.2018 22:00:00||AKTİFBANK|10.40.24.131|||110000438458|106
03.10.2018 22:00:00||AKTİFBANK|10.40.24.132|||110000438458|39
03.10.2018 22:00:00||AKTİFBANK|10.40.24.132|||110000438458|77
03.10.2018 22:00:00||AKTİFBANK|10.40.24.132|||110000438458|48
03.10.2018 22:00:00||AKTİFBANK|10.40.24.132|||110000438458|172
03.10.2018 22:00:00||AKTİFBANK|10.40.24.132|||110000438458|68
03.10.2018 22:00:00||AKTİFBANK|10.40.24.133|||110000438458|135
03.10.2018 22:00:00||AKTİFBANK|10.40.24.133|||110000438458|87
03.10.2018 22:00:00||AKTİFBANK|10.40.24.133|||110000438458|115
03.10.2018 22:00:00||AKTİFBANK|10.40.24.133|||110000438458|87
03.10.2018 22:00:00||AKTİFBANK|10.40.24.134|||110000438458|60
03.10.2018 22:00:00||AKTİFBANK|10.40.24.134|||110000438458|31
03.10.2018 22:00:00||AKTİFBANK|10.40.24.135|||110000438458|65
03.10.2018 22:00:00||AKTİFBANK|10.40.24.135|||110000438458|31
03.10.2018 22:00:00||AKTİFBANK|10.40.24.137|||110000438458|3
03.10.2018 22:00:00||AKTİFBANK|10.40.24.137|||110000438458|52
03.10.2018 22:00:00||AKTİFBANK|10.40.24.138|||110000438458|106
03.10.2018 22:00:00||AKTİFBANK|10.40.24.138|||110000438458|115
03.10.2018 22:00:00||AKTİFBANK|10.40.24.138|||110000438458|135
03.10.2018 22:00:00||AKTİFBANK|10.40.24.138|||110000438458|106
03.10.2018 22:00:00||AKTİFBANK|10.40.24.138|||110000438458|30
03.10.2018 22:00:00||AKTİFBANK|10.40.24.138|||110000438458|48
03.10.2018 22:00:00||AKTİFBANK|10.40.24.139|||110000438458|39
03.10.2018 22:00:00||AKTİFBANK|10.40.24.139|||110000438458|30
03.10.2018 22:00:00||AKTİFBANK|10.40.24.139|||110000438458|48
03.10.2018 22:00:00||AKTİFBANK|10.40.24.139|||110000438458|87
03.10.2018 22:00:00||AKTİFBANK|10.40.24.139|||110000438458|58
03.10.2018 22:00:00||AKTİFBANK|10.40.24.139|||110000438458|115
03.10.2018 22:00:00||AKTİFBANK|10.40.24.140|||110000438458|20
03.10.2018 22:00:00||AKTİFBANK|10.40.24.140|||110000438458|77
03.10.2018 22:00:00||AKTİFBANK|10.40.24.140|||110000438458|39
03.10.2018 22:00:00||AKTİFBANK|10.40.24.140|||110000438458|30
03.10.2018 22:00:00||AKTİFBANK|10.40.24.140|||110000438458|30
03.10.2018 22:00:00||AKTİFBANK|10.40.24.140|||110000438458|48
03.10.2018 22:00:00||AKTİFBANK|10.40.24.140|||110000438458|39
03.10.2018 22:00:00||AKTİFBANK|10.40.24.140|||110000438458|20
03.10.2018 22:00:00||AKTİFBANK|10.40.24.140|||110000438458|30
03.10.2018 22:00:00||AKTİFBANK|10.40.24.141|||110000438458|192
03.10.2018 22:00:00||AKTİFBANK|10.40.24.141|||110000438458|48
03.10.2018 22:00:00||AKTİFBANK|10.40.24.141|||110000438458|96
03.10.2018 22:00:00||AKTİFBANK|10.40.24.141|||110000438458|96
03.10.2018 22:00:00||AKTİFBANK|10.40.24.141|||110000438458|68
03.10.2018 22:00:00||AKTİFBANK|10.40.24.141|||110000438458|77
03.10.2018 22:00:00||AKTİFBANK|10.40.24.141|||110000438458|68
03.10.2018 22:00:00||AKTİFBANK|10.40.24.142|||110000438458|68
03.10.2018 22:00:00||AKTİFBANK|10.40.24.142|||110000438458|39
03.10.2018 22:00:00||AKTİFBANK|10.40.24.143|||110000438458|68
03.10.2018 22:00:00||AKTİFBANK|10.40.24.143|||110000438458|258
03.10.2018 22:00:00||AKTİFBANK|10.40.24.143|||110000438458|306
03.10.2018 22:00:00||AKTİFBANK|10.40.24.143|||110000438458|192
03.10.2018 22:00:00||AKTİFBANK|10.40.24.144|||110000438458|77
03.10.2018 22:00:00||AKTİFBANK|10.40.24.144|||110000438458|96
03.10.2018 22:00:00||AKTİFBANK|10.40.24.144|||110000438458|87
03.10.2018 22:00:00||AKTİFBANK|10.40.24.145|||110000438458|87
03.10.2018 22:00:00||AKTİFBANK|10.40.24.145|||110000438458|20
03.10.2018 22:00:00||AKTİFBANK|10.40.24.145|||110000438458|68
03.10.2018 22:00:00||AKTİFBANK|10.40.24.145|||110000438458|87
03.10.2018 22:00:00||AKTİFBANK|10.40.24.145|||110000438458|58
03.10.2018 22:00:00||AKTİFBANK|10.40.24.145|||110000438458|68
03.10.2018 22:00:00||AKTİFBANK|10.40.24.147|||110000438458|87
03.10.2018 22:00:00||AKTİFBANK|10.40.24.148|||110000438458|68
03.10.2018 22:00:00||AKTİFBANK|10.40.24.148|||110000438458|163
03.10.2018 22:00:00||AKTİFBANK|10.40.24.148|||110000438458|77
03.10.2018 22:00:00||AKTİFBANK|10.40.24.148|||110000438458|106
03.10.2018 22:00:00||AKTİFBANK|10.40.24.148|||110000438458|96
03.10.2018 22:00:00||AKTİFBANK|10.40.24.148|||110000438458|87
03.10.2018 22:00:00||AKTİFBANK|10.40.24.148|||110000438458|96
03.10.2018 22:00:00||AKTİFBANK|10.40.24.148|||110000438458|96
03.10.2018 22:00:00||AKTİFBANK|10.40.24.148|||110000438458|68
03.10.2018 22:00:00||AKTİFBANK|10.40.24.148|||110000438458|68
03.10.2018 22:00:00||AKTİFBANK|10.40.24.148|||110000438458|20
03.10.2018 22:00:00||AKTİFBANK|10.40.24.148|||110000438458|77
03.10.2018 22:00:00||AKTİFBANK|10.40.24.149|||110000438458|77
03.10.2018 22:00:00||AKTİFBANK|10.40.24.149|||110000438458|115
03.10.2018 22:00:00||AKTİFBANK|10.40.24.149|||110000438458|96
03.10.2018 22:00:00||AKTİFBANK|10.40.24.149|||110000438458|58
03.10.2018 22:00:00||AKTİFBANK|10.40.24.149|||110000438458|48
03.10.2018 22:00:00||AKTİFBANK|10.40.24.149|||110000438458|87
03.10.2018 22:00:00||AKTİFBANK|10.40.24.149|||110000438458|144
03.10.2018 22:00:00||AKTİFBANK|10.40.24.149|||110000438458|87
03.10.2018 22:00:00||AKTİFBANK|10.40.24.149|||110000438458|153
03.10.2018 22:00:00||AKTİFBANK|10.40.24.149|||110000438458|106
03.10.2018 22:00:00||AKTİFBANK|10.40.24.149|||110000438458|87
03.10.2018 22:00:00||AKTİFBANK|10.40.24.149|||110000438458|87
03.10.2018 22:00:00||AKTİFBANK|10.40.24.149|||110000438458|77
03.10.2018 22:00:00||AKTİFBANK|10.40.24.149|||110000438458|77
03.10.2018 22:00:00||AKTİFBANK|10.40.24.150|||110000438458|525
03.10.2018 22:00:00||AKTİFBANK|10.40.24.150|||110000438458|515
03.10.2018 22:00:00||AKTİFBANK|10.40.24.150|||110000438458|534
03.10.2018 22:00:00||AKTİFBANK|10.40.24.151|||110000438458|534
03.10.2018 22:00:00||AKTİFBANK|10.40.24.151|||110000438458|525
03.10.2018 22:00:00||AKTİFBANK|10.40.24.151|||110000438458|487
03.10.2018 22:00:00||AKTİFBANK|10.40.24.152|||110000438458|20
03.10.2018 22:00:00||AKTİFBANK|10.40.24.152|||110000438458|48
03.10.2018 22:00:00||AKTİFBANK|10.40.24.152|||110000438458|106
03.10.2018 22:00:00||AKTİFBANK|10.40.24.152|||110000438458|58
03.10.2018 22:00:00||AKTİFBANK|10.40.24.152|||110000438458|106
03.10.2018 22:00:00||AKTİFBANK|10.40.24.152|||110000438458|96
03.10.2018 22:00:00||AKTİFBANK|10.40.24.152|||110000438458|286
03.10.2018 22:00:00||AKTİFBANK|10.40.24.152|||110000438458|68
03.10.2018 22:00:00||AKTİFBANK|10.40.24.152|||110000438458|96
03.10.2018 22:00:00||AKTİFBANK|10.40.24.152|||110000438458|30
03.10.2018 22:00:00||AKTİFBANK|10.40.24.152|||110000438458|68
03.10.2018 22:00:00||AKTİFBANK|10.40.24.152|||110000438458|30
03.10.2018 22:00:00||AKTİFBANK|10.40.24.153|||110000438458|10
03.10.2018 22:00:00||AKTİFBANK|10.40.24.153|||110000438458|87
03.10.2018 22:00:00||AKTİFBANK|10.40.24.153|||110000438458|68
03.10.2018 22:00:00||AKTİFBANK|10.40.24.153|||110000438458|68
03.10.2018 22:00:00||AKTİFBANK|10.40.24.154|||110000438458|68
03.10.2018 22:00:00||AKTİFBANK|10.40.24.154|||110000438458|20
03.10.2018 22:00:00||AKTİFBANK|10.40.24.154|||110000438458|10
03.10.2018 22:00:00||AKTİFBANK|10.40.24.154|||110000438458|10
03.10.2018 22:00:00||AKTİFBANK|10.40.24.154|||110000438458|10
03.10.2018 22:00:00||AKTİFBANK|10.40.24.154|||110000438458|10
03.10.2018 22:00:00||AKTİFBANK|10.40.24.155|||110000438458|106
03.10.2018 22:00:00||AKTİFBANK|10.40.24.155|||110000438458|125
03.10.2018 22:00:00||AKTİFBANK|10.40.24.155|||110000438458|77
03.10.2018 22:00:00||AKTİFBANK|10.40.24.155|||110000438458|106
03.10.2018 22:00:00||AKTİFBANK|10.40.24.155|||110000438458|96
03.10.2018 22:00:00||AKTİFBANK|10.40.24.157|||110000438458|30
03.10.2018 22:00:00||AKTİFBANK|10.40.24.157|||110000438458|77
03.10.2018 22:00:00||AKTİFBANK|10.40.24.157|||110000438458|68
03.10.2018 22:00:00||AKTİFBANK|10.40.24.157|||110000438458|39
03.10.2018 22:00:00||AKTİFBANK|10.40.24.157|||110000438458|77
03.10.2018 22:00:00||AKTİFBANK|10.40.24.157|||110000438458|58
03.10.2018 22:00:00||AKTİFBANK|10.40.24.158|||110000438458|106
03.10.2018 22:00:00||AKTİFBANK|10.40.24.158|||110000438458|106
03.10.2018 22:00:00||AKTİFBANK|10.40.24.158|||110000438458|125
03.10.2018 22:00:00||AKTİFBANK|10.40.24.158|||110000438458|77
03.10.2018 22:00:00||AKTİFBANK|10.40.24.158|||110000438458|77
03.10.2018 22:00:00||AKTİFBANK|10.40.24.158|||110000438458|106
03.10.2018 22:00:00||AKTİFBANK|10.40.24.159|||110000438458|125
03.10.2018 22:00:00||AKTİFBANK|10.40.24.159|||110000438458|60
03.10.2018 22:00:00||AKTİFBANK|10.40.24.159|||110000438458|182
03.10.2018 22:00:00||AKTİFBANK|10.40.24.160|||110000438458|10
03.10.2018 22:00:00||AKTİFBANK|10.40.24.160|||110000438458|10
03.10.2018 22:00:00||AKTİFBANK|10.40.24.160|||110000438458|90
03.10.2018 22:00:00||AKTİFBANK|10.40.24.160|||110000438458|101
03.10.2018 22:00:00||AKTİFBANK|10.40.24.161|||110000438458|182
03.10.2018 22:00:00||AKTİFBANK|10.40.24.161|||110000438458|80
03.10.2018 22:00:00||AKTİFBANK|10.40.24.161|||110000438458|40
03.10.2018 22:00:00||AKTİFBANK|10.40.24.161|||110000438458|30
03.10.2018 22:00:00||AKTİFBANK|10.40.24.161|||110000438458|30
03.10.2018 22:00:00||AKTİFBANK|10.40.24.161|||110000438458|20
03.10.2018 22:00:00||AKTİFBANK|10.40.24.161|||110000438458|90
03.10.2018 22:00:00||AKTİFBANK|10.40.24.162|||110000438458|60
03.10.2018 22:00:00||AKTİFBANK|10.40.24.162|||110000438458|10
03.10.2018 22:00:00||AKTİFBANK|10.40.24.162|||110000438458|80
03.10.2018 22:00:00||AKTİFBANK|10.40.24.162|||110000438458|50
03.10.2018 22:00:00||AKTİFBANK|10.40.24.162|||110000438458|40
03.10.2018 22:00:00||AKTİFBANK|10.40.24.162|||110000438458|40
03.10.2018 22:00:00||AKTİFBANK|10.40.24.162|||110000438458|70
03.10.2018 22:00:00||AKTİFBANK|10.40.24.162|||110000438458|30
03.10.2018 22:00:00||AKTİFBANK|10.40.24.162|||110000438458|10
03.10.2018 22:00:00||AKTİFBANK|10.40.24.162|||110000438458|50
03.10.2018 22:00:00||AKTİFBANK|10.40.24.162|||110000438458|40
03.10.2018 22:00:00||AKTİFBANK|10.40.24.163|||110000438458|30
03.10.2018 22:00:00||AKTİFBANK|10.40.24.163|||110000438458|70
03.10.2018 22:00:00||AKTİFBANK|10.40.24.164|||110000438458|60
03.10.2018 22:00:00||AKTİFBANK|10.40.24.164|||110000438458|333
03.10.2018 22:00:00||AKTİFBANK|10.40.24.164|||110000438458|70
03.10.2018 22:00:00||AKTİFBANK|10.40.24.164|||110000438458|222
03.10.2018 22:00:00||AKTİFBANK|10.40.24.164|||110000438458|212
03.10.2018 22:00:00||AKTİFBANK|10.40.24.165|||110000438458|80
03.10.2018 22:00:00||AKTİFBANK|10.40.24.165|||110000438458|80
03.10.2018 22:00:00||AKTİFBANK|10.40.24.165|||110000438458|121
03.10.2018 22:00:00||AKTİFBANK|10.40.24.166|||110000438458|80
03.10.2018 22:00:00||AKTİFBANK|10.40.24.166|||110000438458|90
03.10.2018 22:00:00||AKTİFBANK|10.40.24.166|||110000438458|10
03.10.2018 22:00:00||AKTİFBANK|10.40.24.166|||110000438458|10
03.10.2018 22:00:00||AKTİFBANK|10.40.24.166|||110000438458|10
03.10.2018 22:00:00||AKTİFBANK|10.40.24.168|||110000438458|90
03.10.2018 22:00:00||AKTİFBANK|10.40.24.168|||110000438458|40
03.10.2018 22:00:00||AKTİFBANK|10.40.24.168|||110000438458|80
03.10.2018 22:00:00||AKTİFBANK|10.40.24.168|||110000438458|70
03.10.2018 22:00:00||AKTİFBANK|10.40.24.168|||110000438458|70
03.10.2018 22:00:00||AKTİFBANK|10.40.24.168|||110000438458|30
03.10.2018 22:00:00||AKTİFBANK|10.40.24.169|||110000438458|60
03.10.2018 22:00:00||AKTİFBANK|10.40.24.169|||110000438458|90
03.10.2018 22:00:00||AKTİFBANK|10.40.24.169|||110000438458|70
03.10.2018 22:00:00||AKTİFBANK|10.40.24.169|||110000438458|80
03.10.2018 22:00:00||AKTİFBANK|10.40.24.170|||110000438458|60
03.10.2018 22:00:00||AKTİFBANK|10.40.24.170|||110000438458|60
03.10.2018 22:00:00||AKTİFBANK|10.40.24.170|||110000438458|333
03.10.2018 22:00:00||AKTİFBANK|10.40.24.170|||110000438458|80
03.10.2018 22:00:00||AKTİFBANK|10.40.24.170|||110000438458|101
03.10.2018 22:00:00||AKTİFBANK|10.40.24.170|||110000438458|60
03.10.2018 22:00:00||AKTİFBANK|10.40.24.171|||110000438458|2
03.10.2018 22:00:00||AKTİFBANK|10.40.24.171|||110000438458|11
03.10.2018 22:00:00||AKTİFBANK|10.40.24.172|||110000438458|60
03.10.2018 22:00:00||AKTİFBANK|10.40.24.172|||110000438458|35
03.10.2018 22:00:00||AKTİFBANK|10.40.24.173|||110000438458|48
03.10.2018 22:00:00||AKTİFBANK|10.40.24.173|||110000438458|47
03.10.2018 22:00:00||AKTİFBANK|10.40.24.174|||110000438458|57
03.10.2018 22:00:00||AKTİFBANK|10.40.24.174|||110000438458|2
03.10.2018 22:00:00||AKTİFBANK|10.40.24.178|||110000438458|556
03.10.2018 22:00:00||AKTİFBANK|10.40.24.178|||110000438458|536
03.10.2018 22:00:00||AKTİFBANK|10.40.24.178|||110000438458|526
03.10.2018 22:00:00||AKTİFBANK|10.40.24.179|||110000438458|364
03.10.2018 22:00:00||AKTİFBANK|10.40.24.179|||110000438458|374
03.10.2018 22:00:00||AKTİFBANK|10.40.24.179|||110000438458|364
03.10.2018 22:00:00||AKTİFBANK|10.40.24.186|||110000438458|90
03.10.2018 22:00:00||AKTİFBANK|10.40.24.186|||110000438458|20
03.10.2018 22:00:00||AKTİFBANK|10.40.24.186|||110000438458|60
03.10.2018 22:00:00||AKTİFBANK|10.40.24.186|||110000438458|40
03.10.2018 22:00:00||AKTİFBANK|10.40.25.128|||110000438458|69
03.10.2018 22:00:00||AKTİFBANK|10.40.25.128|||110000438458|89
03.10.2018 22:00:00||AKTİFBANK|10.40.25.128|||110000438458|40
03.10.2018 22:00:00||AKTİFBANK|10.40.25.128|||110000438458|69
03.10.2018 22:00:00||AKTİFBANK|10.40.25.129|||110000438458|79
03.10.2018 22:00:00||AKTİFBANK|10.40.25.129|||110000438458|79
03.10.2018 22:00:00||AKTİFBANK|10.40.25.129|||110000438458|128
03.10.2018 22:00:00||AKTİFBANK|10.40.25.129|||110000438458|99
03.10.2018 22:00:00||AKTİFBANK|10.40.25.129|||110000438458|40
03.10.2018 22:00:00||AKTİFBANK|10.40.25.129|||110000438458|89
03.10.2018 22:00:00||AKTİFBANK|10.40.25.129|||110000438458|69
03.10.2018 22:00:00||AKTİFBANK|10.40.25.129|||110000438458|79
03.10.2018 22:00:00||AKTİFBANK|10.40.25.129|||110000438458|144
03.10.2018 22:00:00||AKTİFBANK|10.40.25.129|||110000438458|103
03.10.2018 22:00:00||AKTİFBANK|10.40.25.130|||110000438458|72
03.10.2018 22:00:00||AKTİFBANK|10.40.25.130|||110000438458|51
03.10.2018 22:00:00||AKTİFBANK|10.40.25.130|||110000438458|72
03.10.2018 22:00:00||AKTİFBANK|10.40.25.130|||110000438458|30
03.10.2018 22:00:00||AKTİFBANK|10.40.25.130|||110000438458|61
03.10.2018 22:00:00||AKTİFBANK|10.40.25.130|||110000438458|103
03.10.2018 22:00:00||AKTİFBANK|10.40.25.130|||110000438458|82
03.10.2018 22:00:00||AKTİFBANK|10.40.25.130|||110000438458|61
03.10.2018 22:00:00||AKTİFBANK|10.40.25.130|||110000438458|124
03.10.2018 22:00:00||AKTİFBANK|10.40.25.130|||110000438458|103
03.10.2018 22:00:00||AKTİFBANK|10.40.25.131|||110000438458|92
03.10.2018 22:00:00||AKTİFBANK|10.40.25.131|||110000438458|103
03.10.2018 22:00:00||AKTİFBANK|10.40.25.131|||110000438458|113
03.10.2018 22:00:00||AKTİFBANK|10.40.25.131|||110000438458|82
03.10.2018 22:00:00||AKTİFBANK|10.40.25.131|||110000438458|82
03.10.2018 22:00:00||AKTİFBANK|10.40.25.131|||110000438458|20
03.10.2018 22:00:00||AKTİFBANK|10.40.25.131|||110000438458|124
03.10.2018 22:00:00||AKTİFBANK|10.40.25.131|||110000438458|51
03.10.2018 22:00:00||AKTİFBANK|10.40.25.132|||110000438458|61
03.10.2018 22:00:00||AKTİFBANK|10.40.25.132|||110000438458|72
03.10.2018 22:00:00||AKTİFBANK|10.40.25.132|||110000438458|82
03.10.2018 22:00:00||AKTİFBANK|10.40.25.132|||110000438458|175
03.10.2018 22:00:00||AKTİFBANK|10.40.25.132|||110000438458|61
03.10.2018 22:00:00||AKTİFBANK|10.40.25.133|||110000438458|155
03.10.2018 22:00:00||AKTİFBANK|10.40.25.133|||110000438458|290
03.10.2018 22:00:00||AKTİFBANK|10.40.25.133|||110000438458|113
03.10.2018 22:00:00||AKTİFBANK|10.40.25.133|||110000438458|61
03.10.2018 22:00:00||AKTİFBANK|10.40.25.133|||110000438458|92
03.10.2018 22:00:00||AKTİFBANK|10.40.25.134|||110000438458|64
03.10.2018 22:00:00||AKTİFBANK|10.40.25.134|||110000438458|31
03.10.2018 22:00:00||AKTİFBANK|10.40.25.135|||110000438458|30
03.10.2018 22:00:00||AKTİFBANK|10.40.25.135|||110000438458|64
03.10.2018 22:00:00||AKTİFBANK|10.40.25.137|||110000438458|59
03.10.2018 22:00:00||AKTİFBANK|10.40.25.138|||110000438458|92
03.10.2018 22:00:00||AKTİFBANK|10.40.25.138|||110000438458|72
03.10.2018 22:00:00||AKTİFBANK|10.40.25.138|||110000438458|82
03.10.2018 22:00:00||AKTİFBANK|10.40.25.138|||110000438458|134
03.10.2018 22:00:00||AKTİFBANK|10.40.25.138|||110000438458|41
03.10.2018 22:00:00||AKTİFBANK|10.40.25.138|||110000438458|10
03.10.2018 22:00:00||AKTİFBANK|10.40.25.139|||110000438458|41
03.10.2018 22:00:00||AKTİFBANK|10.40.25.139|||110000438458|10
03.10.2018 22:00:00||AKTİFBANK|10.40.25.139|||110000438458|10
03.10.2018 22:00:00||AKTİFBANK|10.40.25.139|||110000438458|20
03.10.2018 22:00:00||AKTİFBANK|10.40.25.139|||110000438458|72
03.10.2018 22:00:00||AKTİFBANK|10.40.25.139|||110000438458|82
03.10.2018 22:00:00||AKTİFBANK|10.40.25.139|||110000438458|103
03.10.2018 22:00:00||AKTİFBANK|10.40.25.140|||110000438458|82
03.10.2018 22:00:00||AKTİFBANK|10.40.25.140|||110000438458|72
03.10.2018 22:00:00||AKTİFBANK|10.40.25.140|||110000438458|30
03.10.2018 22:00:00||AKTİFBANK|10.40.25.140|||110000438458|30
03.10.2018 22:00:00||AKTİFBANK|10.40.25.140|||110000438458|30
03.10.2018 22:00:00||AKTİFBANK|10.40.25.141|||110000438458|41
03.10.2018 22:00:00||AKTİFBANK|10.40.25.141|||110000438458|103
03.10.2018 22:00:00||AKTİFBANK|10.40.25.141|||110000438458|103
03.10.2018 22:00:00||AKTİFBANK|10.40.25.141|||110000438458|103
03.10.2018 22:00:00||AKTİFBANK|10.40.25.141|||110000438458|92
03.10.2018 22:00:00||AKTİFBANK|10.40.25.141|||110000438458|72
03.10.2018 22:00:00||AKTİFBANK|10.40.25.142|||110000438458|30
03.10.2018 22:00:00||AKTİFBANK|10.40.25.143|||110000438458|61
03.10.2018 22:00:00||AKTİFBANK|10.40.25.143|||110000438458|248
03.10.2018 22:00:00||AKTİFBANK|10.40.25.143|||110000438458|269
03.10.2018 22:00:00||AKTİFBANK|10.40.25.143|||110000438458|321
03.10.2018 22:00:00||AKTİFBANK|10.40.25.144|||110000438458|72
03.10.2018 22:00:00||AKTİFBANK|10.40.25.144|||110000438458|51
03.10.2018 22:00:00||AKTİFBANK|10.40.25.144|||110000438458|61
03.10.2018 22:00:00||AKTİFBANK|10.40.25.145|||110000438458|92
03.10.2018 22:00:00||AKTİFBANK|10.40.25.145|||110000438458|61
03.10.2018 22:00:00||AKTİFBANK|10.40.25.145|||110000438458|61
03.10.2018 22:00:00||AKTİFBANK|10.40.25.145|||110000438458|30
03.10.2018 22:00:00||AKTİFBANK|10.40.25.145|||110000438458|51
03.10.2018 22:00:00||AKTİFBANK|10.40.25.147|||110000438458|92
03.10.2018 22:00:00||AKTİFBANK|10.40.25.148|||110000438458|134
03.10.2018 22:00:00||AKTİFBANK|10.40.25.148|||110000438458|51
03.10.2018 22:00:00||AKTİFBANK|10.40.25.148|||110000438458|103
03.10.2018 22:00:00||AKTİFBANK|10.40.25.148|||110000438458|134
03.10.2018 22:00:00||AKTİFBANK|10.40.25.148|||110000438458|92
03.10.2018 22:00:00||AKTİFBANK|10.40.25.148|||110000438458|82
03.10.2018 22:00:00||AKTİFBANK|10.40.25.148|||110000438458|72
03.10.2018 22:00:00||AKTİFBANK|10.40.25.148|||110000438458|51
03.10.2018 22:00:00||AKTİFBANK|10.40.25.148|||110000438458|82
03.10.2018 22:00:00||AKTİFBANK|10.40.25.148|||110000438458|41
03.10.2018 22:00:00||AKTİFBANK|10.40.25.148|||110000438458|104
03.10.2018 22:00:00||AKTİFBANK|10.40.25.148|||110000438458|62
03.10.2018 22:00:00||AKTİFBANK|10.40.25.149|||110000438458|62
03.10.2018 22:00:00||AKTİFBANK|10.40.25.149|||110000438458|114
03.10.2018 22:00:00||AKTİFBANK|10.40.25.149|||110000438458|93
03.10.2018 22:00:00||AKTİFBANK|10.40.25.149|||110000438458|72
03.10.2018 22:00:00||AKTİFBANK|10.40.25.149|||110000438458|93
03.10.2018 22:00:00||AKTİFBANK|10.40.25.149|||110000438458|41
03.10.2018 22:00:00||AKTİFBANK|10.40.25.149|||110000438458|83
03.10.2018 22:00:00||AKTİFBANK|10.40.25.149|||110000438458|72
03.10.2018 22:00:00||AKTİFBANK|10.40.25.149|||110000438458|135
03.10.2018 22:00:00||AKTİFBANK|10.40.25.149|||110000438458|114
03.10.2018 22:00:00||AKTİFBANK|10.40.25.149|||110000438458|93
03.10.2018 22:00:00||AKTİFBANK|10.40.25.149|||110000438458|93
03.10.2018 22:00:00||AKTİFBANK|10.40.25.149|||110000438458|104
03.10.2018 22:00:00||AKTİFBANK|10.40.25.149|||110000438458|72
03.10.2018 22:00:00||AKTİFBANK|10.40.25.150|||110000438458|604
03.10.2018 22:00:00||AKTİFBANK|10.40.25.150|||110000438458|552
03.10.2018 22:00:00||AKTİFBANK|10.40.25.150|||110000438458|594
03.10.2018 22:00:00||AKTİFBANK|10.40.25.151|||110000438458|573
03.10.2018 22:00:00||AKTİFBANK|10.40.25.151|||110000438458|532
03.10.2018 22:00:00||AKTİFBANK|10.40.25.151|||110000438458|552
03.10.2018 22:00:00||AKTİFBANK|10.40.25.152|||110000438458|124
03.10.2018 22:00:00||AKTİFBANK|10.40.25.152|||110000438458|41
03.10.2018 22:00:00||AKTİFBANK|10.40.25.152|||110000438458|145
03.10.2018 22:00:00||AKTİFBANK|10.40.25.152|||110000438458|72
03.10.2018 22:00:00||AKTİFBANK|10.40.25.152|||110000438458|93
03.10.2018 22:00:00||AKTİFBANK|10.40.25.152|||110000438458|52
03.10.2018 22:00:00||AKTİFBANK|10.40.25.152|||110000438458|93
03.10.2018 22:00:00||AKTİFBANK|10.40.25.152|||110000438458|30
03.10.2018 22:00:00||AKTİFBANK|10.40.25.152|||110000438458|83
03.10.2018 22:00:00||AKTİFBANK|10.40.25.152|||110000438458|30
03.10.2018 22:00:00||AKTİFBANK|10.40.25.153|||110000438458|10
03.10.2018 22:00:00||AKTİFBANK|10.40.25.153|||110000438458|83
03.10.2018 22:00:00||AKTİFBANK|10.40.25.153|||110000438458|62
03.10.2018 22:00:00||AKTİFBANK|10.40.25.153|||110000438458|72
03.10.2018 22:00:00||AKTİFBANK|10.40.25.154|||110000438458|10
03.10.2018 22:00:00||AKTİFBANK|10.40.25.154|||110000438458|10
03.10.2018 22:00:00||AKTİFBANK|10.40.25.154|||110000438458|10
03.10.2018 22:00:00||AKTİFBANK|10.40.25.155|||110000438458|72
03.10.2018 22:00:00||AKTİFBANK|10.40.25.155|||110000438458|93
03.10.2018 22:00:00||AKTİFBANK|10.40.25.155|||110000438458|114
03.10.2018 22:00:00||AKTİFBANK|10.40.25.155|||110000438458|124
03.10.2018 22:00:00||AKTİFBANK|10.40.25.155|||110000438458|114
03.10.2018 22:00:00||AKTİFBANK|10.40.25.157|||110000438458|72
03.10.2018 22:00:00||AKTİFBANK|10.40.25.157|||110000438458|72
03.10.2018 22:00:00||AKTİFBANK|10.40.25.157|||110000438458|72
03.10.2018 22:00:00||AKTİFBANK|10.40.25.157|||110000438458|83
03.10.2018 22:00:00||AKTİFBANK|10.40.25.157|||110000438458|41
03.10.2018 22:00:00||AKTİFBANK|10.40.25.158|||110000438458|124
03.10.2018 22:00:00||AKTİFBANK|10.40.25.158|||110000438458|52
03.10.2018 22:00:00||AKTİFBANK|10.40.25.159|||110000438458|62
03.10.2018 22:00:00||AKTİFBANK|10.40.25.159|||110000438458|10
03.10.2018 22:00:00||AKTİFBANK|10.40.25.159|||110000438458|93
03.10.2018 22:00:00||AKTİFBANK|10.40.25.160|||110000438458|93
03.10.2018 22:00:00||AKTİFBANK|10.40.25.160|||110000438458|114
03.10.2018 22:00:00||AKTİFBANK|10.40.25.161|||110000438458|83
03.10.2018 22:00:00||AKTİFBANK|10.40.25.161|||110000438458|72
03.10.2018 22:00:00||AKTİFBANK|10.40.25.161|||110000438458|41
03.10.2018 22:00:00||AKTİFBANK|10.40.25.161|||110000438458|30
03.10.2018 22:00:00||AKTİFBANK|10.40.25.161|||110000438458|20
03.10.2018 22:00:00||AKTİFBANK|10.40.25.161|||110000438458|52
03.10.2018 22:00:00||AKTİFBANK|10.40.25.162|||110000438458|30
03.10.2018 22:00:00||AKTİFBANK|10.40.25.162|||110000438458|30
03.10.2018 22:00:00||AKTİFBANK|10.40.25.162|||110000438458|62
03.10.2018 22:00:00||AKTİFBANK|10.40.25.162|||110000438458|52
03.10.2018 22:00:00||AKTİFBANK|10.40.25.162|||110000438458|30
03.10.2018 22:00:00||AKTİFBANK|10.40.25.162|||110000438458|41
03.10.2018 22:00:00||AKTİFBANK|10.40.25.163|||110000438458|41
03.10.2018 22:00:00||AKTİFBANK|10.40.25.164|||110000438458|62
03.10.2018 22:00:00||AKTİFBANK|10.40.25.164|||110000438458|291
03.10.2018 22:00:00||AKTİFBANK|10.40.25.164|||110000438458|52
03.10.2018 22:00:00||AKTİFBANK|10.40.25.164|||110000438458|271
03.10.2018 22:00:00||AKTİFBANK|10.40.25.164|||110000438458|281
03.10.2018 22:00:00||AKTİFBANK|10.40.25.165|||110000438458|145
03.10.2018 22:00:00||AKTİFBANK|10.40.25.165|||110000438458|72
03.10.2018 22:00:00||AKTİFBANK|10.40.25.165|||110000438458|72
03.10.2018 22:00:00||AKTİFBANK|10.40.25.165|||110000438458|104
03.10.2018 22:00:00||AKTİFBANK|10.40.25.166|||110000438458|41
03.10.2018 22:00:00||AKTİFBANK|10.40.25.166|||110000438458|93
03.10.2018 22:00:00||AKTİFBANK|10.40.25.168|||110000438458|93
03.10.2018 22:00:00||AKTİFBANK|10.40.25.168|||110000438458|72
03.10.2018 22:00:00||AKTİFBANK|10.40.25.168|||110000438458|52
03.10.2018 22:00:00||AKTİFBANK|10.40.25.168|||110000438458|41
03.10.2018 22:00:00||AKTİFBANK|10.40.25.168|||110000438458|62
03.10.2018 22:00:00||AKTİFBANK|10.40.25.169|||110000438458|93
03.10.2018 22:00:00||AKTİFBANK|10.40.25.169|||110000438458|93
03.10.2018 22:00:00||AKTİFBANK|10.40.25.169|||110000438458|72
03.10.2018 22:00:00||AKTİFBANK|10.40.25.169|||110000438458|104
03.10.2018 22:00:00||AKTİFBANK|10.40.25.170|||110000438458|30
03.10.2018 22:00:00||AKTİFBANK|10.40.25.170|||110000438458|30
03.10.2018 22:00:00||AKTİFBANK|10.40.25.170|||110000438458|239
03.10.2018 22:00:00||AKTİFBANK|10.40.25.170|||110000438458|104
03.10.2018 22:00:00||AKTİFBANK|10.40.25.170|||110000438458|83
03.10.2018 22:00:00||AKTİFBANK|10.40.25.170|||110000438458|114
03.10.2018 22:00:00||AKTİFBANK|10.40.25.171|||110000438458|1
03.10.2018 22:00:00||AKTİFBANK|10.40.25.171|||110000438458|11
03.10.2018 22:00:00||AKTİFBANK|10.40.25.172|||110000438458|27
03.10.2018 22:00:00||AKTİFBANK|10.40.25.172|||110000438458|64
03.10.2018 22:00:00||AKTİFBANK|10.40.25.173|||110000438458|34
03.10.2018 22:00:00||AKTİFBANK|10.40.25.173|||110000438458|64
03.10.2018 22:00:00||AKTİFBANK|10.40.25.174|||110000438458|55
03.10.2018 22:00:00||AKTİFBANK|10.40.25.178|||110000438458|584
03.10.2018 22:00:00||AKTİFBANK|10.40.25.178|||110000438458|584
03.10.2018 22:00:00||AKTİFBANK|10.40.25.178|||110000438458|573
03.10.2018 22:00:00||AKTİFBANK|10.40.25.179|||110000438458|406
03.10.2018 22:00:00||AKTİFBANK|10.40.25.179|||110000438458|343
03.10.2018 22:00:00||AKTİFBANK|10.40.25.179|||110000438458|323
03.10.2018 22:00:00||AKTİFBANK|10.40.25.186|||110000438458|91
03.10.2018 22:00:00||AKTİFBANK|10.40.25.186|||110000438458|20
03.10.2018 22:00:00||AKTİFBANK|10.40.25.186|||110000438458|71
03.10.2018 22:00:00||BOYNER|10.40.26.100|||101367941673|40
03.10.2018 22:00:00||BOYNER|10.40.26.100|||101367941673|17
03.10.2018 22:00:00||BOYNER|10.40.26.101|||101367941673|26
03.10.2018 22:00:00||BOYNER|10.40.26.101|||101367941673|125
03.10.2018 22:00:00||BOYNER|10.40.26.94|||101367941673|94
03.10.2018 22:00:00||BOYNER|10.40.26.94|||101367941673|84
03.10.2018 22:00:00||BOYNER|10.40.26.94|||101367941673|84
03.10.2018 22:00:00||BOYNER|10.40.26.95|||101367941673|94
03.10.2018 22:00:00||BOYNER|10.40.26.95|||101367941673|210
03.10.2018 22:00:00||BOYNER|10.40.26.95|||101367941673|146
03.10.2018 22:00:00||BOYNER|10.40.26.96|||101367941673|30
03.10.2018 22:00:00||BOYNER|10.40.26.96|||101367941673|41
03.10.2018 22:00:00||BOYNER|10.40.26.96|||101367941673|30
03.10.2018 22:00:00||BOYNER|10.40.26.96|||101367941673|41
03.10.2018 22:00:00||BOYNER|10.40.26.96|||101367941673|41
03.10.2018 22:00:00||BOYNER|10.40.26.96|||101367941673|52
03.10.2018 22:00:00||BOYNER|10.40.26.96|||101367941673|189
03.10.2018 22:00:00||BOYNER|10.40.26.96|||101367941673|220
03.10.2018 22:00:00||BOYNER|10.40.26.96|||101367941673|168
03.10.2018 22:00:00||BOYNER|10.40.26.96|||101367941673|189
03.10.2018 22:00:00||BOYNER|10.40.26.97|||101367941673|30
03.10.2018 22:00:00||BOYNER|10.40.26.97|||101367941673|694
03.10.2018 22:00:00||BOYNER|10.40.26.97|||101367941673|684
03.10.2018 22:00:00||BOYNER|10.40.26.97|||101367941673|694
03.10.2018 22:00:00||BOYNER|10.40.26.97|||101367941673|30
03.10.2018 22:00:00||BOYNER|10.40.26.97|||101367941673|41
03.10.2018 22:00:00||BOYNER|10.40.26.97|||101367941673|52
03.10.2018 22:00:00||BOYNER|10.40.26.97|||101367941673|62
03.10.2018 22:00:00||BOYNER|10.40.26.97|||101367941673|30
03.10.2018 22:00:00||BOYNER|10.40.26.97|||101367941673|157
03.10.2018 22:00:00||BOYNER|10.40.26.97|||101367941673|189
03.10.2018 22:00:00||BOYNER|10.40.26.97|||101367941673|178
03.10.2018 22:00:00||BOYNER|10.40.26.97|||101367941673|178
03.10.2018 22:00:00||BOYNER|10.40.26.99|||101367941673|20
03.10.2018 22:00:00||BOYNER|10.40.26.99|||101367941673|115
03.10.2018 22:00:00||BOYNER|10.40.26.99|||101367941673|115
03.10.2018 22:00:00||BOYNER|10.40.26.99|||101367941673|62
03.10.2018 22:00:00||BOYNER|10.40.27.100|||101367941673|16
03.10.2018 22:00:00||BOYNER|10.40.27.100|||101367941673|36
03.10.2018 22:00:00||BOYNER|10.40.27.101|||101367941673|137
03.10.2018 22:00:00||BOYNER|10.40.27.101|||101367941673|28
03.10.2018 22:00:00||BOYNER|10.40.27.94|||101367941673|210
03.10.2018 22:00:00||BOYNER|10.40.27.94|||101367941673|90
03.10.2018 22:00:00||BOYNER|10.40.27.94|||101367941673|90
03.10.2018 22:00:00||BOYNER|10.40.27.94|||101367941673|100
03.10.2018 22:00:00||BOYNER|10.40.27.95|||101367941673|130
03.10.2018 22:00:00||BOYNER|10.40.27.95|||101367941673|130
03.10.2018 22:00:00||BOYNER|10.40.27.95|||101367941673|240
03.10.2018 22:00:00||BOYNER|10.40.27.96|||101367941673|60
03.10.2018 22:00:00||BOYNER|10.40.27.96|||101367941673|50
03.10.2018 22:00:00||BOYNER|10.40.27.96|||101367941673|50
03.10.2018 22:00:00||BOYNER|10.40.27.96|||101367941673|40
03.10.2018 22:00:00||BOYNER|10.40.27.96|||101367941673|40
03.10.2018 22:00:00||BOYNER|10.40.27.96|||101367941673|140
03.10.2018 22:00:00||BOYNER|10.40.27.96|||101367941673|140
03.10.2018 22:00:00||BOYNER|10.40.27.96|||101367941673|170
03.10.2018 22:00:00||BOYNER|10.40.27.96|||101367941673|160
03.10.2018 22:00:00||BOYNER|10.40.27.97|||101367941673|60
03.10.2018 22:00:00||BOYNER|10.40.27.97|||101367941673|660
03.10.2018 22:00:00||BOYNER|10.40.27.97|||101367941673|670
03.10.2018 22:00:00||BOYNER|10.40.27.97|||101367941673|690
03.10.2018 22:00:00||BOYNER|10.40.27.97|||101367941673|50
03.10.2018 22:00:00||BOYNER|10.40.27.97|||101367941673|40
03.10.2018 22:00:00||BOYNER|10.40.27.97|||101367941673|50
03.10.2018 22:00:00||BOYNER|10.40.27.97|||101367941673|30
03.10.2018 22:00:00||BOYNER|10.40.27.97|||101367941673|170
03.10.2018 22:00:00||BOYNER|10.40.27.97|||101367941673|180
03.10.2018 22:00:00||BOYNER|10.40.27.97|||101367941673|200
03.10.2018 22:00:00||BOYNER|10.40.27.97|||101367941673|200
03.10.2018 22:00:00||BOYNER|10.40.27.99|||101367941673|120
03.10.2018 22:00:00||BOYNER|10.40.27.99|||101367941673|100
03.10.2018 22:00:00||BOYNER|10.40.27.99|||101367941673|70
03.10.2018 22:00:00||ÇALIK HOLDİNG|10.40.24.100|||110000438408|30
03.10.2018 22:00:00||ÇALIK HOLDİNG|10.40.24.100|||110000438408|41
03.10.2018 22:00:00||ÇALIK HOLDİNG|10.40.24.101|||110000438408|61
03.10.2018 22:00:00||ÇALIK HOLDİNG|10.40.24.101|||110000438408|113
03.10.2018 22:00:00||ÇALIK HOLDİNG|10.40.24.101|||110000438408|20
03.10.2018 22:00:00||ÇALIK HOLDİNG|10.40.24.101|||110000438408|20
03.10.2018 22:00:00||ÇALIK HOLDİNG|10.40.24.101|||110000438408|41
03.10.2018 22:00:00||ÇALIK HOLDİNG|10.40.24.101|||110000438408|93
03.10.2018 22:00:00||ÇALIK HOLDİNG|10.40.24.101|||110000438408|30
03.10.2018 22:00:00||ÇALIK HOLDİNG|10.40.24.101|||110000438408|10
03.10.2018 22:00:00||ÇALIK HOLDİNG|10.40.24.101|||110000438408|20
03.10.2018 22:00:00||ÇALIK HOLDİNG|10.40.24.101|||110000438408|51
03.10.2018 22:00:00||ÇALIK HOLDİNG|10.40.24.101|||110000438408|30
03.10.2018 22:00:00||ÇALIK HOLDİNG|10.40.24.101|||110000438408|83
03.10.2018 22:00:00||ÇALIK HOLDİNG|10.40.24.101|||110000438408|83
03.10.2018 22:00:00||ÇALIK HOLDİNG|10.40.24.101|||110000438408|103
03.10.2018 22:00:00||ÇALIK HOLDİNG|10.40.24.102|||110000438408|103
03.10.2018 22:00:00||ÇALIK HOLDİNG|10.40.24.102|||110000438408|103
03.10.2018 22:00:00||ÇALIK HOLDİNG|10.40.24.102|||110000438408|145
03.10.2018 22:00:00||ÇALIK HOLDİNG|10.40.24.103|||110000438408|103
03.10.2018 22:00:00||ÇALIK HOLDİNG|10.40.24.103|||110000438408|83
03.10.2018 22:00:00||ÇALIK HOLDİNG|10.40.24.103|||110000438408|83
03.10.2018 22:00:00||ÇALIK HOLDİNG|10.40.24.103|||110000438408|20
03.10.2018 22:00:00||ÇALIK HOLDİNG|10.40.24.103|||110000438408|20
03.10.2018 22:00:00||ÇALIK HOLDİNG|10.40.24.113|||110000438408|218
03.10.2018 22:00:00||ÇALIK HOLDİNG|10.40.24.113|||110000438408|238
03.10.2018 22:00:00||ÇALIK HOLDİNG|10.40.24.113|||110000438408|207
03.10.2018 22:00:00||ÇALIK HOLDİNG|10.40.24.113|||110000438408|155
03.10.2018 22:00:00||ÇALIK HOLDİNG|10.40.24.114|||110000438408|20
03.10.2018 22:00:00||ÇALIK HOLDİNG|10.40.24.114|||110000438408|41
03.10.2018 22:00:00||ÇALIK HOLDİNG|10.40.24.114|||110000438408|186
03.10.2018 22:00:00||ÇALIK HOLDİNG|10.40.24.114|||110000438408|384
03.10.2018 22:00:00||ÇALIK HOLDİNG|10.40.24.115|||110000438408|145
03.10.2018 22:00:00||ÇALIK HOLDİNG|10.40.24.115|||110000438408|83
03.10.2018 22:00:00||ÇALIK HOLDİNG|10.40.24.115|||110000438408|93
03.10.2018 22:00:00||ÇALIK HOLDİNG|10.40.24.115|||110000438408|72
03.10.2018 22:00:00||ÇALIK HOLDİNG|10.40.24.115|||110000438408|93
03.10.2018 22:00:00||ÇALIK HOLDİNG|10.40.24.115|||110000438408|72
03.10.2018 22:00:00||ÇALIK HOLDİNG|10.40.24.116|||110000438408|280
03.10.2018 22:00:00||ÇALIK HOLDİNG|10.40.24.116|||110000438408|113
03.10.2018 22:00:00||ÇALIK HOLDİNG|10.40.24.116|||110000438408|93
03.10.2018 22:00:00||ÇALIK HOLDİNG|10.40.24.117|||110000438408|207
03.10.2018 22:00:00||ÇALIK HOLDİNG|10.40.24.117|||110000438408|30
03.10.2018 22:00:00||ÇALIK HOLDİNG|10.40.24.117|||110000438408|30
03.10.2018 22:00:00||ÇALIK HOLDİNG|10.40.24.118|||110000438408|44
03.10.2018 22:00:00||ÇALIK HOLDİNG|10.40.24.119|||110000438408|155
03.10.2018 22:00:00||ÇALIK HOLDİNG|10.40.24.119|||110000438408|30
03.10.2018 22:00:00||ÇALIK HOLDİNG|10.40.24.119|||110000438408|51
03.10.2018 22:00:00||ÇALIK HOLDİNG|10.40.24.120|||110000438408|20
03.10.2018 22:00:00||ÇALIK HOLDİNG|10.40.24.120|||110000438408|30
03.10.2018 22:00:00||ÇALIK HOLDİNG|10.40.24.120|||110000438408|113
03.10.2018 22:00:00||ÇALIK HOLDİNG|10.40.24.120|||110000438408|10
03.10.2018 22:00:00||ÇALIK HOLDİNG|10.40.24.120|||110000438408|20
03.10.2018 22:00:00||ÇALIK HOLDİNG|10.40.24.120|||110000438408|103
03.10.2018 22:00:00||ÇALIK HOLDİNG|10.40.24.120|||110000438408|41
03.10.2018 22:00:00||ÇALIK HOLDİNG|10.40.24.120|||110000438408|83
03.10.2018 22:00:00||ÇALIK HOLDİNG|10.40.24.120|||110000438408|83
03.10.2018 22:00:00||ÇALIK HOLDİNG|10.40.24.120|||110000438408|72
03.10.2018 22:00:00||ÇALIK HOLDİNG|10.40.24.121|||110000438408|103
03.10.2018 22:00:00||ÇALIK HOLDİNG|10.40.24.121|||110000438408|103
03.10.2018 22:00:00||ÇALIK HOLDİNG|10.40.24.121|||110000438408|155
03.10.2018 22:00:00||ÇALIK HOLDİNG|10.40.24.122|||110000438408|93
03.10.2018 22:00:00||ÇALIK HOLDİNG|10.40.24.122|||110000438408|83
03.10.2018 22:00:00||ÇALIK HOLDİNG|10.40.24.122|||110000438408|93
03.10.2018 22:00:00||ÇALIK HOLDİNG|10.40.24.122|||110000438408|30
03.10.2018 22:00:00||ÇALIK HOLDİNG|10.40.24.122|||110000438408|10
03.10.2018 22:00:00||ÇALIK HOLDİNG|10.40.24.94|||110000438408|199
03.10.2018 22:00:00||ÇALIK HOLDİNG|10.40.24.94|||110000438408|171
03.10.2018 22:00:00||ÇALIK HOLDİNG|10.40.24.94|||110000438408|180
03.10.2018 22:00:00||ÇALIK HOLDİNG|10.40.24.94|||110000438408|190
03.10.2018 22:00:00||ÇALIK HOLDİNG|10.40.24.95|||110000438408|95
03.10.2018 22:00:00||ÇALIK HOLDİNG|10.40.24.95|||110000438408|48
03.10.2018 22:00:00||ÇALIK HOLDİNG|10.40.24.95|||110000438408|20
03.10.2018 22:00:00||ÇALIK HOLDİNG|10.40.24.95|||110000438408|86
03.10.2018 22:00:00||ÇALIK HOLDİNG|10.40.24.95|||110000438408|417
03.10.2018 22:00:00||ÇALIK HOLDİNG|10.40.24.95|||110000438408|378
03.10.2018 22:00:00||ÇALIK HOLDİNG|10.40.24.97|||110000438408|99
03.10.2018 22:00:00||ÇALIK HOLDİNG|10.40.24.97|||110000438408|89
03.10.2018 22:00:00||ÇALIK HOLDİNG|10.40.24.97|||110000438408|79
03.10.2018 22:00:00||ÇALIK HOLDİNG|10.40.24.97|||110000438408|89
03.10.2018 22:00:00||ÇALIK HOLDİNG|10.40.24.97|||110000438408|305
03.10.2018 22:00:00||ÇALIK HOLDİNG|10.40.24.98|||110000438408|89
03.10.2018 22:00:00||ÇALIK HOLDİNG|10.40.24.98|||110000438408|148
03.10.2018 22:00:00||ÇALIK HOLDİNG|10.40.24.98|||110000438408|197
03.10.2018 22:00:00||ÇALIK HOLDİNG|10.40.24.98|||110000438408|197
03.10.2018 22:00:00||ÇALIK HOLDİNG|10.40.24.98|||110000438408|158
03.10.2018 22:00:00||ÇALIK HOLDİNG|10.40.24.98|||110000438408|30
03.10.2018 22:00:00||ÇALIK HOLDİNG|10.40.24.98|||110000438408|158
03.10.2018 22:00:00||ÇALIK HOLDİNG|10.40.24.98|||110000438408|177
03.10.2018 22:00:00||ÇALIK HOLDİNG|10.40.24.98|||110000438408|168
03.10.2018 22:00:00||ÇALIK HOLDİNG|10.40.24.98|||110000438408|177
03.10.2018 22:00:00||ÇALIK HOLDİNG|10.40.24.98|||110000438408|20
03.10.2018 22:00:00||ÇALIK HOLDİNG|10.40.24.98|||110000438408|275
03.10.2018 22:00:00||ÇALIK HOLDİNG|10.40.25.100|||110000438408|40
03.10.2018 22:00:00||ÇALIK HOLDİNG|10.40.25.100|||110000438408|40
03.10.2018 22:00:00||ÇALIK HOLDİNG|10.40.25.101|||110000438408|50
03.10.2018 22:00:00||ÇALIK HOLDİNG|10.40.25.101|||110000438408|109
03.10.2018 22:00:00||ÇALIK HOLDİNG|10.40.25.101|||110000438408|30
03.10.2018 22:00:00||ÇALIK HOLDİNG|10.40.25.101|||110000438408|10
03.10.2018 22:00:00||ÇALIK HOLDİNG|10.40.25.101|||110000438408|79
03.10.2018 22:00:00||ÇALIK HOLDİNG|10.40.25.101|||110000438408|40
03.10.2018 22:00:00||ÇALIK HOLDİNG|10.40.25.101|||110000438408|40
03.10.2018 22:00:00||ÇALIK HOLDİNG|10.40.25.101|||110000438408|89
03.10.2018 22:00:00||ÇALIK HOLDİNG|10.40.25.101|||110000438408|89
03.10.2018 22:00:00||ÇALIK HOLDİNG|10.40.25.101|||110000438408|89
03.10.2018 22:00:00||ÇALIK HOLDİNG|10.40.25.102|||110000438408|99
03.10.2018 22:00:00||ÇALIK HOLDİNG|10.40.25.102|||110000438408|99
03.10.2018 22:00:00||ÇALIK HOLDİNG|10.40.25.102|||110000438408|148
03.10.2018 22:00:00||ÇALIK HOLDİNG|10.40.25.103|||110000438408|89
03.10.2018 22:00:00||ÇALIK HOLDİNG|10.40.25.103|||110000438408|89
03.10.2018 22:00:00||ÇALIK HOLDİNG|10.40.25.103|||110000438408|79
03.10.2018 22:00:00||ÇALIK HOLDİNG|10.40.25.113|||110000438408|217
03.10.2018 22:00:00||ÇALIK HOLDİNG|10.40.25.113|||110000438408|246
03.10.2018 22:00:00||ÇALIK HOLDİNG|10.40.25.113|||110000438408|177
03.10.2018 22:00:00||ÇALIK HOLDİNG|10.40.25.113|||110000438408|197
03.10.2018 22:00:00||ÇALIK HOLDİNG|10.40.25.114|||110000438408|177
03.10.2018 22:00:00||ÇALIK HOLDİNG|10.40.25.114|||110000438408|403
03.10.2018 22:00:00||ÇALIK HOLDİNG|10.40.25.114|||110000438408|40
03.10.2018 22:00:00||ÇALIK HOLDİNG|10.40.25.115|||110000438408|148
03.10.2018 22:00:00||ÇALIK HOLDİNG|10.40.25.115|||110000438408|69
03.10.2018 22:00:00||ÇALIK HOLDİNG|10.40.25.115|||110000438408|79
03.10.2018 22:00:00||ÇALIK HOLDİNG|10.40.25.115|||110000438408|79
03.10.2018 22:00:00||ÇALIK HOLDİNG|10.40.25.115|||110000438408|69
03.10.2018 22:00:00||ÇALIK HOLDİNG|10.40.25.115|||110000438408|69
03.10.2018 22:00:00||ÇALIK HOLDİNG|10.40.25.116|||110000438408|99
03.10.2018 22:00:00||ÇALIK HOLDİNG|10.40.25.116|||110000438408|99
03.10.2018 22:00:00||ÇALIK HOLDİNG|10.40.25.116|||110000438408|285
03.10.2018 22:00:00||ÇALIK HOLDİNG|10.40.25.117|||110000438408|236
03.10.2018 22:00:00||ÇALIK HOLDİNG|10.40.25.117|||110000438408|30
03.10.2018 22:00:00||ÇALIK HOLDİNG|10.40.25.117|||110000438408|30
03.10.2018 22:00:00||ÇALIK HOLDİNG|10.40.25.118|||110000438408|158
03.10.2018 22:00:00||ÇALIK HOLDİNG|10.40.25.119|||110000438408|30
03.10.2018 22:00:00||ÇALIK HOLDİNG|10.40.25.119|||110000438408|30
03.10.2018 22:00:00||ÇALIK HOLDİNG|10.40.25.120|||110000438408|109
03.10.2018 22:00:00||ÇALIK HOLDİNG|10.40.25.120|||110000438408|50
03.10.2018 22:00:00||ÇALIK HOLDİNG|10.40.25.120|||110000438408|60
03.10.2018 22:00:00||ÇALIK HOLDİNG|10.40.25.120|||110000438408|20
03.10.2018 22:00:00||ÇALIK HOLDİNG|10.40.25.120|||110000438408|30
03.10.2018 22:00:00||ÇALIK HOLDİNG|10.40.25.120|||110000438408|40
03.10.2018 22:00:00||ÇALIK HOLDİNG|10.40.25.120|||110000438408|89
03.10.2018 22:00:00||ÇALIK HOLDİNG|10.40.25.120|||110000438408|20
03.10.2018 22:00:00||ÇALIK HOLDİNG|10.40.25.120|||110000438408|89
03.10.2018 22:00:00||ÇALIK HOLDİNG|10.40.25.120|||110000438408|89
03.10.2018 22:00:00||ÇALIK HOLDİNG|10.40.25.121|||110000438408|89
03.10.2018 22:00:00||ÇALIK HOLDİNG|10.40.25.121|||110000438408|99
03.10.2018 22:00:00||ÇALIK HOLDİNG|10.40.25.121|||110000438408|138
03.10.2018 22:00:00||ÇALIK HOLDİNG|10.40.25.122|||110000438408|89
03.10.2018 22:00:00||ÇALIK HOLDİNG|10.40.25.122|||110000438408|79
03.10.2018 22:00:00||ÇALIK HOLDİNG|10.40.25.122|||110000438408|79
03.10.2018 22:00:00||ÇALIK HOLDİNG|10.40.25.94|||110000438408|183
03.10.2018 22:00:00||ÇALIK HOLDİNG|10.40.25.94|||110000438408|183
03.10.2018 22:00:00||ÇALIK HOLDİNG|10.40.25.94|||110000438408|173
03.10.2018 22:00:00||ÇALIK HOLDİNG|10.40.25.94|||110000438408|183
03.10.2018 22:00:00||ÇALIK HOLDİNG|10.40.25.95|||110000438408|102
03.10.2018 22:00:00||ÇALIK HOLDİNG|10.40.25.95|||110000438408|81
03.10.2018 22:00:00||ÇALIK HOLDİNG|10.40.25.95|||110000438408|388
03.10.2018 22:00:00||ÇALIK HOLDİNG|10.40.25.95|||110000438408|388
03.10.2018 22:00:00||ÇALIK HOLDİNG|10.40.25.95|||110000438408|40
03.10.2018 22:00:00||ÇALIK HOLDİNG|10.40.25.96|||110000438408|71
03.10.2018 22:00:00||ÇALIK HOLDİNG|10.40.25.96|||110000438408|91
03.10.2018 22:00:00||ÇALIK HOLDİNG|10.40.25.96|||110000438408|102
03.10.2018 22:00:00||ÇALIK HOLDİNG|10.40.25.96|||110000438408|91
03.10.2018 22:00:00||ÇALIK HOLDİNG|10.40.25.96|||110000438408|132
03.10.2018 22:00:00||ÇALIK HOLDİNG|10.40.25.96|||110000438408|102
03.10.2018 22:00:00||ÇALIK HOLDİNG|10.40.25.96|||110000438408|255
03.10.2018 22:00:00||ÇALIK HOLDİNG|10.40.25.96|||110000438408|265
03.10.2018 22:00:00||ÇALIK HOLDİNG|10.40.25.96|||110000438408|86
03.10.2018 22:00:00||ÇALIK HOLDİNG|10.40.25.96|||110000438408|86
03.10.2018 22:00:00||ÇALIK HOLDİNG|10.40.25.96|||110000438408|95
03.10.2018 22:00:00||ÇALIK HOLDİNG|10.40.25.96|||110000438408|86
03.10.2018 22:00:00||ÇALIK HOLDİNG|10.40.25.96|||110000438408|95
03.10.2018 22:00:00||ÇALIK HOLDİNG|10.40.25.96|||110000438408|86
03.10.2018 22:00:00||ÇALIK HOLDİNG|10.40.25.97|||110000438408|95
03.10.2018 22:00:00||ÇALIK HOLDİNG|10.40.25.97|||110000438408|76
03.10.2018 22:00:00||ÇALIK HOLDİNG|10.40.25.97|||110000438408|86
03.10.2018 22:00:00||ÇALIK HOLDİNG|10.40.25.97|||110000438408|76
03.10.2018 22:00:00||ÇALIK HOLDİNG|10.40.25.97|||110000438408|284
03.10.2018 22:00:00||ÇALIK HOLDİNG|10.40.25.98|||110000438408|48
03.10.2018 22:00:00||ÇALIK HOLDİNG|10.40.25.98|||110000438408|152
03.10.2018 22:00:00||ÇALIK HOLDİNG|10.40.25.98|||110000438408|152
03.10.2018 22:00:00||ÇALIK HOLDİNG|10.40.25.98|||110000438408|152
03.10.2018 22:00:00||ÇALIK HOLDİNG|10.40.25.98|||110000438408|152
03.10.2018 22:00:00||ÇALIK HOLDİNG|10.40.25.98|||110000438408|58
03.10.2018 22:00:00||ÇALIK HOLDİNG|10.40.25.98|||110000438408|199
03.10.2018 22:00:00||ÇALIK HOLDİNG|10.40.25.98|||110000438408|171
03.10.2018 22:00:00||ÇALIK HOLDİNG|10.40.25.98|||110000438408|162
03.10.2018 22:00:00||ÇALIK HOLDİNG|10.40.25.98|||110000438408|199
03.10.2018 22:00:00||ÇALIK HOLDİNG|10.40.25.98|||110000438408|67
03.10.2018 22:00:00||ÇALIK HOLDİNG|10.40.25.98|||110000438408|284
03.10.2018 22:00:00||ÇALIK HOLDİNG|10.40.25.99|||110000438408|68
03.10.2018 22:00:00||ÇALIK HOLDİNG|10.40.25.99|||110000438408|63
03.10.2018 22:00:00||FIBABANKA|10.40.24.51|||101571767266|20
03.10.2018 22:00:00||FIBABANKA|10.40.24.51|||101571767266|67
03.10.2018 22:00:00||FIBABANKA|10.40.24.51|||101571767266|95
03.10.2018 22:00:00||FIBABANKA|10.40.24.51|||101571767266|133
03.10.2018 22:00:00||FIBABANKA|10.40.24.51|||101571767266|30
03.10.2018 22:00:00||FIBABANKA|10.40.24.51|||101571767266|30
03.10.2018 22:00:00||FIBABANKA|10.40.24.52|||101571767266|10
03.10.2018 22:00:00||FIBABANKA|10.40.24.53|||101571767266|30
03.10.2018 22:00:00||FIBABANKA|10.40.24.53|||101571767266|58
03.10.2018 22:00:00||FIBABANKA|10.40.24.53|||101571767266|171
03.10.2018 22:00:00||FIBABANKA|10.40.24.53|||101571767266|199
03.10.2018 22:00:00||FIBABANKA|10.40.24.54|||101571767266|181
03.10.2018 22:00:00||FIBABANKA|10.40.24.54|||101571767266|183
03.10.2018 22:00:00||FIBABANKA|10.40.24.55|||101571767266|82
03.10.2018 22:00:00||FIBABANKA|10.40.24.55|||101571767266|23
03.10.2018 22:00:00||FIBABANKA|10.40.24.56|||101571767266|11
03.10.2018 22:00:00||FIBABANKA|10.40.24.56|||101571767266|175
03.10.2018 22:00:00||FIBABANKA|10.40.24.57|||101571767266|86
03.10.2018 22:00:00||FIBABANKA|10.40.24.57|||101571767266|76
03.10.2018 22:00:00||FIBABANKA|10.40.24.57|||101571767266|76
03.10.2018 22:00:00||FIBABANKA|10.40.24.59|||101571767266|67
03.10.2018 22:00:00||FIBABANKA|10.40.24.59|||101571767266|114
03.10.2018 22:00:00||FIBABANKA|10.40.24.59|||101571767266|67
03.10.2018 22:00:00||FIBABANKA|10.40.24.59|||101571767266|48
03.10.2018 22:00:00||FIBABANKA|10.40.24.59|||101571767266|123
03.10.2018 22:00:00||FIBABANKA|10.40.24.59|||101571767266|67
03.10.2018 22:00:00||FIBABANKA|10.40.24.59|||101571767266|58
03.10.2018 22:00:00||FIBABANKA|10.40.24.59|||101571767266|152
03.10.2018 22:00:00||FIBABANKA|10.40.24.59|||101571767266|58
03.10.2018 22:00:00||FIBABANKA|10.40.24.60|||101571767266|114
03.10.2018 22:00:00||FIBABANKA|10.40.24.60|||101571767266|48
03.10.2018 22:00:00||FIBABANKA|10.40.24.60|||101571767266|39
03.10.2018 22:00:00||FIBABANKA|10.40.24.60|||101571767266|95
03.10.2018 22:00:00||FIBABANKA|10.40.24.60|||101571767266|58
03.10.2018 22:00:00||FIBABANKA|10.40.24.72|||101571767266|133
03.10.2018 22:00:00||FIBABANKA|10.40.24.72|||101571767266|67
03.10.2018 22:00:00||FIBABANKA|10.40.24.72|||101571767266|30
03.10.2018 22:00:00||FIBABANKA|10.40.24.72|||101571767266|39
03.10.2018 22:00:00||FIBABANKA|10.40.24.74|||101571767266|30
03.10.2018 22:00:00||FIBABANKA|10.40.24.74|||101571767266|30
03.10.2018 22:00:00||FIBABANKA|10.40.24.75|||101571767266|180
03.10.2018 22:00:00||FIBABANKA|10.40.24.75|||101571767266|152
03.10.2018 22:00:00||FIBABANKA|10.40.24.75|||101571767266|152
03.10.2018 22:00:00||FIBABANKA|10.40.24.76|||101571767266|39
03.10.2018 22:00:00||FIBABANKA|10.40.24.76|||101571767266|67
03.10.2018 22:00:00||FIBABANKA|10.40.24.76|||101571767266|10
03.10.2018 22:00:00||FIBABANKA|10.40.25.51|||101571767266|20
03.10.2018 22:00:00||FIBABANKA|10.40.25.51|||101571767266|112
03.10.2018 22:00:00||FIBABANKA|10.40.25.51|||101571767266|132
03.10.2018 22:00:00||FIBABANKA|10.40.25.51|||101571767266|40
03.10.2018 22:00:00||FIBABANKA|10.40.25.51|||101571767266|40
03.10.2018 22:00:00||FIBABANKA|10.40.25.51|||101571767266|71
03.10.2018 22:00:00||FIBABANKA|10.40.25.52|||101571767266|10
03.10.2018 22:00:00||FIBABANKA|10.40.25.52|||101571767266|71
03.10.2018 22:00:00||FIBABANKA|10.40.25.53|||101571767266|40
03.10.2018 22:00:00||FIBABANKA|10.40.25.53|||101571767266|51
03.10.2018 22:00:00||FIBABANKA|10.40.25.53|||101571767266|163
03.10.2018 22:00:00||FIBABANKA|10.40.25.53|||101571767266|163
03.10.2018 22:00:00||FIBABANKA|10.40.25.54|||101571767266|94
03.10.2018 22:00:00||FIBABANKA|10.40.25.54|||101571767266|166
03.10.2018 22:00:00||FIBABANKA|10.40.25.55|||101571767266|90
03.10.2018 22:00:00||FIBABANKA|10.40.25.55|||101571767266|23
03.10.2018 22:00:00||FIBABANKA|10.40.25.56|||101571767266|11
03.10.2018 22:00:00||FIBABANKA|10.40.25.56|||101571767266|198
03.10.2018 22:00:00||FIBABANKA|10.40.25.57|||101571767266|91
03.10.2018 22:00:00||FIBABANKA|10.40.25.57|||101571767266|91
03.10.2018 22:00:00||FIBABANKA|10.40.25.57|||101571767266|91
03.10.2018 22:00:00||FIBABANKA|10.40.25.59|||101571767266|71
03.10.2018 22:00:00||FIBABANKA|10.40.25.59|||101571767266|91
03.10.2018 22:00:00||FIBABANKA|10.40.25.59|||101571767266|81
03.10.2018 22:00:00||FIBABANKA|10.40.25.59|||101571767266|40
03.10.2018 22:00:00||FIBABANKA|10.40.25.59|||101571767266|132
03.10.2018 22:00:00||FIBABANKA|10.40.25.59|||101571767266|71
03.10.2018 22:00:00||FIBABANKA|10.40.25.59|||101571767266|61
03.10.2018 22:00:00||FIBABANKA|10.40.25.59|||101571767266|163
03.10.2018 22:00:00||FIBABANKA|10.40.25.59|||101571767266|61
03.10.2018 22:00:00||FIBABANKA|10.40.25.60|||101571767266|112
03.10.2018 22:00:00||FIBABANKA|10.40.25.60|||101571767266|30
03.10.2018 22:00:00||FIBABANKA|10.40.25.60|||101571767266|112
03.10.2018 22:00:00||FIBABANKA|10.40.25.60|||101571767266|40
03.10.2018 22:00:00||FIBABANKA|10.40.25.72|||101571767266|71
03.10.2018 22:00:00||FIBABANKA|10.40.25.72|||101571767266|40
03.10.2018 22:00:00||FIBABANKA|10.40.25.72|||101571767266|30
03.10.2018 22:00:00||FIBABANKA|10.40.25.74|||101571767266|40
03.10.2018 22:00:00||FIBABANKA|10.40.25.74|||101571767266|30
03.10.2018 22:00:00||FIBABANKA|10.40.25.74|||101571767266|40
03.10.2018 22:00:00||FIBABANKA|10.40.25.74|||101571767266|40
03.10.2018 22:00:00||FIBABANKA|10.40.25.74|||101571767266|40
03.10.2018 22:00:00||FIBABANKA|10.40.25.75|||101571767266|10
03.10.2018 22:00:00||FIBABANKA|10.40.25.75|||101571767266|132
03.10.2018 22:00:00||FIBABANKA|10.40.25.75|||101571767266|163
03.10.2018 22:00:00||FIBABANKA|10.40.25.75|||101571767266|183
03.10.2018 22:00:00||FIBABANKA|10.40.25.75|||101571767266|194
03.10.2018 22:00:00||FIBABANKA|10.40.25.76|||101571767266|10
03.10.2018 22:00:00||FIBABANKA|10.40.25.76|||101571767266|61
03.10.2018 22:00:00||FIBABANKA|10.40.25.76|||101571767266|40
03.10.2018 22:00:00||FIBABANKA|10.40.25.76|||101571767266|10
03.10.2018 22:00:00||FIBABANKA|10.40.26.51|||101571767266|10
03.10.2018 22:00:00||FIBABANKA|10.40.26.51|||101571767266|20
03.10.2018 22:00:00||FIBABANKA|10.40.26.51|||101571767266|105
03.10.2018 22:00:00||FIBABANKA|10.40.26.51|||101571767266|133
03.10.2018 22:00:00||FIBABANKA|10.40.26.51|||101571767266|67
03.10.2018 22:00:00||FIBABANKA|10.40.26.51|||101571767266|30
03.10.2018 22:00:00||FIBABANKA|10.40.26.51|||101571767266|30
03.10.2018 22:00:00||FIBABANKA|10.40.26.52|||101571767266|30
03.10.2018 22:00:00||FIBABANKA|10.40.26.52|||101571767266|86
03.10.2018 22:00:00||FIBABANKA|10.40.26.52|||101571767266|30
03.10.2018 22:00:00||FIBABANKA|10.40.26.53|||101571767266|58
03.10.2018 22:00:00||FIBABANKA|10.40.26.53|||101571767266|48
03.10.2018 22:00:00||FIBABANKA|10.40.26.53|||101571767266|152
03.10.2018 22:00:00||FIBABANKA|10.40.26.53|||101571767266|171
03.10.2018 22:00:00||FIBABANKA|10.40.26.54|||101571767266|166
03.10.2018 22:00:00||FIBABANKA|10.40.26.54|||101571767266|133
03.10.2018 22:00:00||FIBABANKA|10.40.26.55|||101571767266|109
03.10.2018 22:00:00||FIBABANKA|10.40.26.57|||101571767266|86
03.10.2018 22:00:00||FIBABANKA|10.40.26.57|||101571767266|86
03.10.2018 22:00:00||FIBABANKA|10.40.26.57|||101571767266|76
03.10.2018 22:00:00||FIBABANKA|10.40.26.72|||101571767266|30
03.10.2018 22:00:00||FIBABANKA|10.40.26.72|||101571767266|157
03.10.2018 22:00:00||FIBABANKA|10.40.26.72|||101571767266|73
03.10.2018 22:00:00||FIBABANKA|10.40.26.72|||101571767266|30
03.10.2018 22:00:00||FIBABANKA|10.40.26.73|||101571767266|41
03.10.2018 22:00:00||FIBABANKA|10.40.26.73|||101571767266|73
03.10.2018 22:00:00||FIBABANKA|10.40.26.73|||101571767266|30
03.10.2018 22:00:00||FIBABANKA|10.40.26.73|||101571767266|41
03.10.2018 22:00:00||FIBABANKA|10.40.26.74|||101571767266|84
03.10.2018 22:00:00||FIBABANKA|10.40.26.74|||101571767266|189
03.10.2018 22:00:00||FIBABANKA|10.40.26.74|||101571767266|200
03.10.2018 22:00:00||FIBABANKA|10.40.26.74|||101571767266|189
03.10.2018 22:00:00||FIBABANKA|10.40.26.77|||101571767266|189
03.10.2018 22:00:00||FIBABANKA|10.40.26.79|||101571767266|10
03.10.2018 22:00:00||FIBABANKA|10.40.26.79|||101571767266|10
03.10.2018 22:00:00||FIBABANKA|10.40.27.51|||101571767266|30
03.10.2018 22:00:00||FIBABANKA|10.40.27.51|||101571767266|20
03.10.2018 22:00:00||FIBABANKA|10.40.27.51|||101571767266|100
03.10.2018 22:00:00||FIBABANKA|10.40.27.51|||101571767266|130
03.10.2018 22:00:00||FIBABANKA|10.40.27.51|||101571767266|70
03.10.2018 22:00:00||FIBABANKA|10.40.27.51|||101571767266|40
03.10.2018 22:00:00||FIBABANKA|10.40.27.51|||101571767266|40
03.10.2018 22:00:00||FIBABANKA|10.40.27.52|||101571767266|50
03.10.2018 22:00:00||FIBABANKA|10.40.27.52|||101571767266|60
03.10.2018 22:00:00||FIBABANKA|10.40.27.52|||101571767266|70
03.10.2018 22:00:00||FIBABANKA|10.40.27.53|||101571767266|70
03.10.2018 22:00:00||FIBABANKA|10.40.27.53|||101571767266|60
03.10.2018 22:00:00||FIBABANKA|10.40.27.53|||101571767266|170
03.10.2018 22:00:00||FIBABANKA|10.40.27.53|||101571767266|180
03.10.2018 22:00:00||FIBABANKA|10.40.27.54|||101571767266|178
03.10.2018 22:00:00||FIBABANKA|10.40.27.54|||101571767266|128
03.10.2018 22:00:00||FIBABANKA|10.40.27.55|||101571767266|113
03.10.2018 22:00:00||FIBABANKA|10.40.27.57|||101571767266|80
03.10.2018 22:00:00||FIBABANKA|10.40.27.57|||101571767266|80
03.10.2018 22:00:00||FIBABANKA|10.40.27.57|||101571767266|80
03.10.2018 22:00:00||FIBABANKA|10.40.27.72|||101571767266|50
03.10.2018 22:00:00||FIBABANKA|10.40.27.72|||101571767266|40
03.10.2018 22:00:00||FIBABANKA|10.40.27.72|||101571767266|140
03.10.2018 22:00:00||FIBABANKA|10.40.27.72|||101571767266|60
03.10.2018 22:00:00||FIBABANKA|10.40.27.72|||101571767266|30
03.10.2018 22:00:00||FIBABANKA|10.40.27.73|||101571767266|30
03.10.2018 22:00:00||FIBABANKA|10.40.27.73|||101571767266|99
03.10.2018 22:00:00||FIBABANKA|10.40.27.73|||101571767266|30
03.10.2018 22:00:00||FIBABANKA|10.40.27.73|||101571767266|20
03.10.2018 22:00:00||FIBABANKA|10.40.27.73|||101571767266|40
03.10.2018 22:00:00||FIBABANKA|10.40.27.73|||101571767266|40
03.10.2018 22:00:00||FIBABANKA|10.40.27.73|||101571767266|40
03.10.2018 22:00:00||FIBABANKA|10.40.27.73|||101571767266|40
03.10.2018 22:00:00||FIBABANKA|10.40.27.74|||101571767266|80
03.10.2018 22:00:00||FIBABANKA|10.40.27.74|||101571767266|149
03.10.2018 22:00:00||FIBABANKA|10.40.27.74|||101571767266|178
03.10.2018 22:00:00||FIBABANKA|10.40.27.74|||101571767266|178
03.10.2018 22:00:00||FIBABANKA|10.40.27.75|||101571767266|10
03.10.2018 22:00:00||FIBABANKA|10.40.27.75|||101571767266|10
03.10.2018 22:00:00||FIBABANKA|10.40.27.77|||101571767266|169
03.10.2018 22:00:00||FIBABANKA|10.40.27.77|||101571767266|159
03.10.2018 22:00:00||FIBABANKA|10.40.27.79|||101571767266|10
03.10.2018 22:00:00||HAVAŞ|10.40.24.45|||110000479675|70
03.10.2018 22:00:00||HAVAŞ|10.40.24.45|||110000479675|161
03.10.2018 22:00:00||HAVAŞ|10.40.24.45|||110000479675|131
03.10.2018 22:00:00||HAVAŞ|10.40.24.45|||110000479675|90
03.10.2018 22:00:00||HAVAŞ|10.40.24.46|||110000479675|20
03.10.2018 22:00:00||HAVAŞ|10.40.24.46|||110000479675|20
03.10.2018 22:00:00||HAVAŞ|10.40.24.46|||110000479675|10
03.10.2018 22:00:00||HAVAŞ|10.40.24.46|||110000479675|10
03.10.2018 22:00:00||HAVAŞ|10.40.24.46|||110000479675|10
03.10.2018 22:00:00||HAVAŞ|10.40.24.46|||110000479675|10
03.10.2018 22:00:00||HAVAŞ|10.40.24.46|||110000479675|10
03.10.2018 22:00:00||HAVAŞ|10.40.24.46|||110000479675|58
03.10.2018 22:00:00||HAVAŞ|10.40.24.46|||110000479675|58
03.10.2018 22:00:00||HAVAŞ|10.40.24.46|||110000479675|105
03.10.2018 22:00:00||HAVAŞ|10.40.24.46|||110000479675|67
03.10.2018 22:00:00||HAVAŞ|10.40.24.46|||110000479675|76
03.10.2018 22:00:00||HAVAŞ|10.40.24.47|||110000479675|30
03.10.2018 22:00:00||HAVAŞ|10.40.24.47|||110000479675|30
03.10.2018 22:00:00||HAVAŞ|10.40.24.47|||110000479675|199
03.10.2018 22:00:00||HAVAŞ|10.40.24.47|||110000479675|86
03.10.2018 22:00:00||HAVAŞ|10.40.24.47|||110000479675|48
03.10.2018 22:00:00||HAVAŞ|10.40.24.47|||110000479675|48
03.10.2018 22:00:00||HAVAŞ|10.40.24.47|||110000479675|105
03.10.2018 22:00:00||HAVAŞ|10.40.24.47|||110000479675|152
03.10.2018 22:00:00||HAVAŞ|10.40.24.47|||110000479675|95
03.10.2018 22:00:00||HAVAŞ|10.40.24.47|||110000479675|95
03.10.2018 22:00:00||HAVAŞ|10.40.24.47|||110000479675|86
03.10.2018 22:00:00||HAVAŞ|10.40.24.48|||110000479675|709
03.10.2018 22:00:00||HAVAŞ|10.40.24.48|||110000479675|681
03.10.2018 22:00:00||HAVAŞ|10.40.24.48|||110000479675|709
03.10.2018 22:00:00||HAVAŞ|10.40.25.45|||110000479675|51
03.10.2018 22:00:00||HAVAŞ|10.40.25.45|||110000479675|102
03.10.2018 22:00:00||HAVAŞ|10.40.25.45|||110000479675|132
03.10.2018 22:00:00||HAVAŞ|10.40.25.45|||110000479675|91
03.10.2018 22:00:00||HAVAŞ|10.40.25.46|||110000479675|10
03.10.2018 22:00:00||HAVAŞ|10.40.25.46|||110000479675|10
03.10.2018 22:00:00||HAVAŞ|10.40.25.46|||110000479675|20
03.10.2018 22:00:00||HAVAŞ|10.40.25.46|||110000479675|20
03.10.2018 22:00:00||HAVAŞ|10.40.25.46|||110000479675|10
03.10.2018 22:00:00||HAVAŞ|10.40.25.46|||110000479675|51
03.10.2018 22:00:00||HAVAŞ|10.40.25.46|||110000479675|61
03.10.2018 22:00:00||HAVAŞ|10.40.25.46|||110000479675|102
03.10.2018 22:00:00||HAVAŞ|10.40.25.46|||110000479675|71
03.10.2018 22:00:00||HAVAŞ|10.40.25.46|||110000479675|81
03.10.2018 22:00:00||HAVAŞ|10.40.25.46|||110000479675|71
03.10.2018 22:00:00||HAVAŞ|10.40.25.47|||110000479675|71
03.10.2018 22:00:00||HAVAŞ|10.40.25.47|||110000479675|71
03.10.2018 22:00:00||HAVAŞ|10.40.25.47|||110000479675|235
03.10.2018 22:00:00||HAVAŞ|10.40.25.47|||110000479675|61
03.10.2018 22:00:00||HAVAŞ|10.40.25.47|||110000479675|91
03.10.2018 22:00:00||HAVAŞ|10.40.25.47|||110000479675|91
03.10.2018 22:00:00||HAVAŞ|10.40.25.47|||110000479675|91
03.10.2018 22:00:00||HAVAŞ|10.40.25.47|||110000479675|10
03.10.2018 22:00:00||HAVAŞ|10.40.25.47|||110000479675|183
03.10.2018 22:00:00||HAVAŞ|10.40.25.47|||110000479675|91
03.10.2018 22:00:00||HAVAŞ|10.40.25.47|||110000479675|91
03.10.2018 22:00:00||HAVAŞ|10.40.25.47|||110000479675|91
03.10.2018 22:00:00||HAVAŞ|10.40.25.48|||110000479675|756
03.10.2018 22:00:00||HAVAŞ|10.40.25.48|||110000479675|766
03.10.2018 22:00:00||HAVAŞ|10.40.25.48|||110000479675|818
03.10.2018 22:00:00||MARS CINEMA|10.40.24.203|||110000472614|60
03.10.2018 22:00:00||MARS CINEMA|10.40.24.203|||110000472614|90
03.10.2018 22:00:00||MARS CINEMA|10.40.24.203|||110000472614|101
03.10.2018 22:00:00||MARS CINEMA|10.40.24.203|||110000472614|101
03.10.2018 22:00:00||MARS CINEMA|10.40.24.203|||110000472614|141
03.10.2018 22:00:00||MARS CINEMA|10.40.24.203|||110000472614|151
03.10.2018 22:00:00||MARS CINEMA|10.40.24.203|||110000472614|171
03.10.2018 22:00:00||MARS CINEMA|10.40.24.203|||110000472614|171
03.10.2018 22:00:00||MARS CINEMA|10.40.24.203|||110000472614|101
03.10.2018 22:00:00||MARS CINEMA|10.40.24.203|||110000472614|101
03.10.2018 22:00:00||MARS CINEMA|10.40.24.203|||110000472614|90
03.10.2018 22:00:00||MARS CINEMA|10.40.24.203|||110000472614|192
03.10.2018 22:00:00||MARS CINEMA|10.40.24.204|||110000472614|111
03.10.2018 22:00:00||MARS CINEMA|10.40.24.204|||110000472614|90
03.10.2018 22:00:00||MARS CINEMA|10.40.24.204|||110000472614|90
03.10.2018 22:00:00||MARS CINEMA|10.40.24.204|||110000472614|20
03.10.2018 22:00:00||MARS CINEMA|10.40.24.204|||110000472614|90
03.10.2018 22:00:00||MARS CINEMA|10.40.24.204|||110000472614|20
03.10.2018 22:00:00||MARS CINEMA|10.40.24.204|||110000472614|10
03.10.2018 22:00:00||MARS CINEMA|10.40.24.204|||110000472614|40
03.10.2018 22:00:00||MARS CINEMA|10.40.24.204|||110000472614|90
03.10.2018 22:00:00||MARS CINEMA|10.40.24.204|||110000472614|121
03.10.2018 22:00:00||MARS CINEMA|10.40.24.204|||110000472614|50
03.10.2018 22:00:00||MARS CINEMA|10.40.24.204|||110000472614|90
03.10.2018 22:00:00||MARS CINEMA|10.40.24.204|||110000472614|111
03.10.2018 22:00:00||MARS CINEMA|10.40.24.204|||110000472614|80
03.10.2018 22:00:00||MARS CINEMA|10.40.24.206|||110000472614|40
03.10.2018 22:00:00||MARS CINEMA|10.40.24.206|||110000472614|40
03.10.2018 22:00:00||MARS CINEMA|10.40.24.206|||110000472614|50
03.10.2018 22:00:00||MARS CINEMA|10.40.24.206|||110000472614|30
03.10.2018 22:00:00||MARS CINEMA|10.40.24.206|||110000472614|30
03.10.2018 22:00:00||MARS CINEMA|10.40.24.206|||110000472614|30
03.10.2018 22:00:00||MARS CINEMA|10.40.24.206|||110000472614|202
03.10.2018 22:00:00||MARS CINEMA|10.40.24.206|||110000472614|131
03.10.2018 22:00:00||MARS CINEMA|10.40.24.206|||110000472614|20
03.10.2018 22:00:00||MARS CINEMA|10.40.24.206|||110000472614|90
03.10.2018 22:00:00||MARS CINEMA|10.40.24.206|||110000472614|80
03.10.2018 22:00:00||MARS CINEMA|10.40.25.203|||110000472614|142
03.10.2018 22:00:00||MARS CINEMA|10.40.25.203|||110000472614|71
03.10.2018 22:00:00||MARS CINEMA|10.40.25.203|||110000472614|173
03.10.2018 22:00:00||MARS CINEMA|10.40.25.203|||110000472614|91
03.10.2018 22:00:00||MARS CINEMA|10.40.25.203|||110000472614|91
03.10.2018 22:00:00||MARS CINEMA|10.40.25.203|||110000472614|112
03.10.2018 22:00:00||MARS CINEMA|10.40.25.203|||110000472614|122
03.10.2018 22:00:00||MARS CINEMA|10.40.25.203|||110000472614|153
03.10.2018 22:00:00||MARS CINEMA|10.40.25.203|||110000472614|91
03.10.2018 22:00:00||MARS CINEMA|10.40.25.203|||110000472614|91
03.10.2018 22:00:00||MARS CINEMA|10.40.25.203|||110000472614|61
03.10.2018 22:00:00||MARS CINEMA|10.40.25.203|||110000472614|194
03.10.2018 22:00:00||MARS CINEMA|10.40.25.204|||110000472614|112
03.10.2018 22:00:00||MARS CINEMA|10.40.25.204|||110000472614|71
03.10.2018 22:00:00||MARS CINEMA|10.40.25.204|||110000472614|81
03.10.2018 22:00:00||MARS CINEMA|10.40.25.204|||110000472614|102
03.10.2018 22:00:00||MARS CINEMA|10.40.25.204|||110000472614|20
03.10.2018 22:00:00||MARS CINEMA|10.40.25.204|||110000472614|20
03.10.2018 22:00:00||MARS CINEMA|10.40.25.204|||110000472614|30
03.10.2018 22:00:00||MARS CINEMA|10.40.25.204|||110000472614|40
03.10.2018 22:00:00||MARS CINEMA|10.40.25.204|||110000472614|91
03.10.2018 22:00:00||MARS CINEMA|10.40.25.204|||110000472614|112
03.10.2018 22:00:00||MARS CINEMA|10.40.25.204|||110000472614|102
03.10.2018 22:00:00||MARS CINEMA|10.40.25.204|||110000472614|122
03.10.2018 22:00:00||MARS CINEMA|10.40.25.204|||110000472614|81
03.10.2018 22:00:00||MARS CINEMA|10.40.25.204|||110000472614|81
03.10.2018 22:00:00||MARS CINEMA|10.40.25.206|||110000472614|40
03.10.2018 22:00:00||MARS CINEMA|10.40.25.206|||110000472614|40
03.10.2018 22:00:00||MARS CINEMA|10.40.25.206|||110000472614|40
03.10.2018 22:00:00||MARS CINEMA|10.40.25.206|||110000472614|20
03.10.2018 22:00:00||MARS CINEMA|10.40.25.206|||110000472614|20
03.10.2018 22:00:00||MARS CINEMA|10.40.25.206|||110000472614|30
03.10.2018 22:00:00||MARS CINEMA|10.40.25.206|||110000472614|61
03.10.2018 22:00:00||MARS CINEMA|10.40.25.206|||110000472614|40
03.10.2018 22:00:00||MARS CINEMA|10.40.25.206|||110000472614|81
03.10.2018 22:00:00||MARS CINEMA|10.40.25.206|||110000472614|81
03.10.2018 22:00:00||PEGASUS|10.40.26.62|||110000423831|86
03.10.2018 22:00:00||PEGASUS|10.40.26.62|||110000423831|10
03.10.2018 22:00:00||PEGASUS|10.40.26.62|||110000423831|180
03.10.2018 22:00:00||PEGASUS|10.40.26.63|||110000423831|105
03.10.2018 22:00:00||PEGASUS|10.40.26.63|||110000423831|275
03.10.2018 22:00:00||PEGASUS|10.40.26.63|||110000423831|105
03.10.2018 22:00:00||PEGASUS|10.40.26.63|||110000423831|86
03.10.2018 22:00:00||PEGASUS|10.40.26.63|||110000423831|67
03.10.2018 22:00:00||PEGASUS|10.40.26.63|||110000423831|123
03.10.2018 22:00:00||PEGASUS|10.40.26.63|||110000423831|58
03.10.2018 22:00:00||PEGASUS|10.40.26.63|||110000423831|95
03.10.2018 22:00:00||PEGASUS|10.40.26.63|||110000423831|30
03.10.2018 22:00:00||PEGASUS|10.40.26.63|||110000423831|58
03.10.2018 22:00:00||PEGASUS|10.40.26.63|||110000423831|20
03.10.2018 22:00:00||PEGASUS|10.40.26.63|||110000423831|209
03.10.2018 22:00:00||PEGASUS|10.40.26.63|||110000423831|133
03.10.2018 22:00:00||PEGASUS|10.40.26.63|||110000423831|48
03.10.2018 22:00:00||PEGASUS|10.40.26.63|||110000423831|143
03.10.2018 22:00:00||PEGASUS|10.40.26.63|||110000423831|39
03.10.2018 22:00:00||PEGASUS|10.40.26.63|||110000423831|58
03.10.2018 22:00:00||PEGASUS|10.40.26.63|||110000423831|58
03.10.2018 22:00:00||PEGASUS|10.40.26.63|||110000423831|39
03.10.2018 22:00:00||PEGASUS|10.40.26.64|||110000423831|76
03.10.2018 22:00:00||PEGASUS|10.40.26.64|||110000423831|76
03.10.2018 22:00:00||PEGASUS|10.40.26.66|||110000423831|56
03.10.2018 22:00:00||PEGASUS|10.40.26.66|||110000423831|47
03.10.2018 22:00:00||PEGASUS|10.40.26.67|||110000423831|30
03.10.2018 22:00:00||PEGASUS|10.40.26.67|||110000423831|322
03.10.2018 22:00:00||PEGASUS|10.40.26.67|||110000423831|322
03.10.2018 22:00:00||PEGASUS|10.40.26.67|||110000423831|58
03.10.2018 22:00:00||PEGASUS|10.40.26.67|||110000423831|39
03.10.2018 22:00:00||PEGASUS|10.40.26.67|||110000423831|162
03.10.2018 22:00:00||PEGASUS|10.40.26.67|||110000423831|67
03.10.2018 22:00:00||PEGASUS|10.40.26.67|||110000423831|322
03.10.2018 22:00:00||PEGASUS|10.40.26.68|||110000423831|95
03.10.2018 22:00:00||PEGASUS|10.40.26.68|||110000423831|86
03.10.2018 22:00:00||PEGASUS|10.40.26.68|||110000423831|86
03.10.2018 22:00:00||PEGASUS|10.40.26.68|||110000423831|48
03.10.2018 22:00:00||PEGASUS|10.40.26.81|||110000423831|452
03.10.2018 22:00:00||PEGASUS|10.40.26.81|||110000423831|473
03.10.2018 22:00:00||PEGASUS|10.40.26.81|||110000423831|484
03.10.2018 22:00:00||PEGASUS|10.40.26.82|||110000423831|220
03.10.2018 22:00:00||PEGASUS|10.40.26.82|||110000423831|115
03.10.2018 22:00:00||PEGASUS|10.40.26.82|||110000423831|84
03.10.2018 22:00:00||PEGASUS|10.40.26.82|||110000423831|157
03.10.2018 22:00:00||PEGASUS|10.40.26.82|||110000423831|146
03.10.2018 22:00:00||PEGASUS|10.40.26.82|||110000423831|146
03.10.2018 22:00:00||PEGASUS|10.40.26.82|||110000423831|189
03.10.2018 22:00:00||PEGASUS|10.40.26.82|||110000423831|30
03.10.2018 22:00:00||PEGASUS|10.40.26.82|||110000423831|41
03.10.2018 22:00:00||PEGASUS|10.40.26.82|||110000423831|20
03.10.2018 22:00:00||PEGASUS|10.40.26.82|||110000423831|73
03.10.2018 22:00:00||PEGASUS|10.40.26.82|||110000423831|52
03.10.2018 22:00:00||PEGASUS|10.40.26.82|||110000423831|41
03.10.2018 22:00:00||PEGASUS|10.40.26.83|||110000423831|568
03.10.2018 22:00:00||PEGASUS|10.40.26.83|||110000423831|52
03.10.2018 22:00:00||PEGASUS|10.40.26.83|||110000423831|421
03.10.2018 22:00:00||PEGASUS|10.40.26.83|||110000423831|157
03.10.2018 22:00:00||PEGASUS|10.40.26.83|||110000423831|105
03.10.2018 22:00:00||PEGASUS|10.40.26.83|||110000423831|568
03.10.2018 22:00:00||PEGASUS|10.40.26.83|||110000423831|115
03.10.2018 22:00:00||PEGASUS|10.40.26.83|||110000423831|578
03.10.2018 22:00:00||PEGASUS|10.40.26.84|||110000423831|41
03.10.2018 22:00:00||PEGASUS|10.40.26.84|||110000423831|192
03.10.2018 22:00:00||PEGASUS|10.40.26.85|||110000423831|23
03.10.2018 22:00:00||PEGASUS|10.40.26.85|||110000423831|103
03.10.2018 22:00:00||PEGASUS|10.40.26.86|||110000423831|378
03.10.2018 22:00:00||PEGASUS|10.40.26.86|||110000423831|136
03.10.2018 22:00:00||PEGASUS|10.40.26.86|||110000423831|368
03.10.2018 22:00:00||PEGASUS|10.40.26.86|||110000423831|52
03.10.2018 22:00:00||PEGASUS|10.40.26.86|||110000423831|30
03.10.2018 22:00:00||PEGASUS|10.40.26.86|||110000423831|368
03.10.2018 22:00:00||PEGASUS|10.40.26.86|||110000423831|41
03.10.2018 22:00:00||PEGASUS|10.40.26.86|||110000423831|52
03.10.2018 22:00:00||PEGASUS|10.40.26.87|||110000423831|94
03.10.2018 22:00:00||PEGASUS|10.40.26.87|||110000423831|94
03.10.2018 22:00:00||PEGASUS|10.40.26.87|||110000423831|94
03.10.2018 22:00:00||PEGASUS|10.40.26.87|||110000423831|20
03.10.2018 22:00:00||PEGASUS|10.40.27.63|||110000423831|90
03.10.2018 22:00:00||PEGASUS|10.40.27.63|||110000423831|60
03.10.2018 22:00:00||PEGASUS|10.40.27.63|||110000423831|70
03.10.2018 22:00:00||PEGASUS|10.40.27.63|||110000423831|50
03.10.2018 22:00:00||PEGASUS|10.40.27.63|||110000423831|60
03.10.2018 22:00:00||PEGASUS|10.40.27.63|||110000423831|60
03.10.2018 22:00:00||PEGASUS|10.40.27.63|||110000423831|80
03.10.2018 22:00:00||PEGASUS|10.40.27.63|||110000423831|80
03.10.2018 22:00:00||PEGASUS|10.40.27.63|||110000423831|80
03.10.2018 22:00:00||PEGASUS|10.40.27.63|||110000423831|210
03.10.2018 22:00:00||PEGASUS|10.40.27.63|||110000423831|60
03.10.2018 22:00:00||PEGASUS|10.40.27.63|||110000423831|60
03.10.2018 22:00:00||PEGASUS|10.40.27.63|||110000423831|70
03.10.2018 22:00:00||PEGASUS|10.40.27.63|||110000423831|90
03.10.2018 22:00:00||PEGASUS|10.40.27.63|||110000423831|70
03.10.2018 22:00:00||PEGASUS|10.40.27.63|||110000423831|60
03.10.2018 22:00:00||PEGASUS|10.40.27.63|||110000423831|80
03.10.2018 22:00:00||PEGASUS|10.40.27.64|||110000423831|70
03.10.2018 22:00:00||PEGASUS|10.40.27.64|||110000423831|70
03.10.2018 22:00:00||PEGASUS|10.40.27.64|||110000423831|270
03.10.2018 22:00:00||PEGASUS|10.40.27.64|||110000423831|290
03.10.2018 22:00:00||PEGASUS|10.40.27.64|||110000423831|260
03.10.2018 22:00:00||PEGASUS|10.40.27.64|||110000423831|341
03.10.2018 22:00:00||PEGASUS|10.40.27.64|||110000423831|301
03.10.2018 22:00:00||PEGASUS|10.40.27.64|||110000423831|321
03.10.2018 22:00:00||PEGASUS|10.40.27.64|||110000423831|270
03.10.2018 22:00:00||PEGASUS|10.40.27.64|||110000423831|290
03.10.2018 22:00:00||PEGASUS|10.40.27.64|||110000423831|260
03.10.2018 22:00:00||PEGASUS|10.40.27.64|||110000423831|270
03.10.2018 22:00:00||PEGASUS|10.40.27.64|||110000423831|250
03.10.2018 22:00:00||PEGASUS|10.40.27.64|||110000423831|250
03.10.2018 22:00:00||PEGASUS|10.40.27.66|||110000423831|42
03.10.2018 22:00:00||PEGASUS|10.40.27.66|||110000423831|57
03.10.2018 22:00:00||PEGASUS|10.40.27.67|||110000423831|50
03.10.2018 22:00:00||PEGASUS|10.40.27.67|||110000423831|361
03.10.2018 22:00:00||PEGASUS|10.40.27.67|||110000423831|70
03.10.2018 22:00:00||PEGASUS|10.40.27.67|||110000423831|130
03.10.2018 22:00:00||PEGASUS|10.40.27.67|||110000423831|10
03.10.2018 22:00:00||PEGASUS|10.40.27.67|||110000423831|341
03.10.2018 22:00:00||PEGASUS|10.40.27.67|||110000423831|40
03.10.2018 22:00:00||PEGASUS|10.40.27.67|||110000423831|341
03.10.2018 22:00:00||PEGASUS|10.40.27.68|||110000423831|90
03.10.2018 22:00:00||PEGASUS|10.40.27.68|||110000423831|80
03.10.2018 22:00:00||PEGASUS|10.40.27.68|||110000423831|90
03.10.2018 22:00:00||PEGASUS|10.40.27.68|||110000423831|60
03.10.2018 22:00:00||PEGASUS|10.40.27.81|||110000423831|494
03.10.2018 22:00:00||PEGASUS|10.40.27.81|||110000423831|445
03.10.2018 22:00:00||PEGASUS|10.40.27.81|||110000423831|406
03.10.2018 22:00:00||PEGASUS|10.40.27.82|||110000423831|218
03.10.2018 22:00:00||PEGASUS|10.40.27.82|||110000423831|30
03.10.2018 22:00:00||PEGASUS|10.40.27.82|||110000423831|99
03.10.2018 22:00:00||PEGASUS|10.40.27.82|||110000423831|80
03.10.2018 22:00:00||PEGASUS|10.40.27.82|||110000423831|149
03.10.2018 22:00:00||PEGASUS|10.40.27.82|||110000423831|119
03.10.2018 22:00:00||PEGASUS|10.40.27.82|||110000423831|169
03.10.2018 22:00:00||PEGASUS|10.40.27.82|||110000423831|119
03.10.2018 22:00:00||PEGASUS|10.40.27.82|||110000423831|60
03.10.2018 22:00:00||PEGASUS|10.40.27.82|||110000423831|70
03.10.2018 22:00:00||PEGASUS|10.40.27.82|||110000423831|50
03.10.2018 22:00:00||PEGASUS|10.40.27.82|||110000423831|30
03.10.2018 22:00:00||PEGASUS|10.40.27.82|||110000423831|60
03.10.2018 22:00:00||PEGASUS|10.40.27.82|||110000423831|40
03.10.2018 22:00:00||PEGASUS|10.40.27.83|||110000423831|583
03.10.2018 22:00:00||PEGASUS|10.40.27.83|||110000423831|70
03.10.2018 22:00:00||PEGASUS|10.40.27.83|||110000423831|504
03.10.2018 22:00:00||PEGASUS|10.40.27.83|||110000423831|99
03.10.2018 22:00:00||PEGASUS|10.40.27.83|||110000423831|149
03.10.2018 22:00:00||PEGASUS|10.40.27.83|||110000423831|80
03.10.2018 22:00:00||PEGASUS|10.40.27.83|||110000423831|494
03.10.2018 22:00:00||PEGASUS|10.40.27.83|||110000423831|70
03.10.2018 22:00:00||PEGASUS|10.40.27.84|||110000423831|174
03.10.2018 22:00:00||PEGASUS|10.40.27.84|||110000423831|40
03.10.2018 22:00:00||PEGASUS|10.40.27.85|||110000423831|94
03.10.2018 22:00:00||PEGASUS|10.40.27.85|||110000423831|22
03.10.2018 22:00:00||PEGASUS|10.40.27.86|||110000423831|336
03.10.2018 22:00:00||PEGASUS|10.40.27.86|||110000423831|336
03.10.2018 22:00:00||PEGASUS|10.40.27.86|||110000423831|159
03.10.2018 22:00:00||PEGASUS|10.40.27.86|||110000423831|70
03.10.2018 22:00:00||PEGASUS|10.40.27.86|||110000423831|40
03.10.2018 22:00:00||PEGASUS|10.40.27.86|||110000423831|20
03.10.2018 22:00:00||PEGASUS|10.40.27.86|||110000423831|346
03.10.2018 22:00:00||PEGASUS|10.40.27.87|||110000423831|90
03.10.2018 22:00:00||PEGASUS|10.40.27.87|||110000423831|90
03.10.2018 22:00:00||PEGASUS|10.40.27.87|||110000423831|90
03.10.2018 22:00:00||PEGASUS|10.40.27.87|||110000423831|20
03.10.2018 22:00:00||PETKIM|10.40.25.87|||110000437354|93
03.10.2018 22:00:00||PETKIM|10.40.25.87|||110000437354|51
03.10.2018 22:00:00||PWC|10.40.24.66|||110000433262|86
03.10.2018 22:00:00||PWC|10.40.24.66|||110000433262|10
03.10.2018 22:00:00||PWC|10.40.24.66|||110000433262|199
03.10.2018 22:00:00||PWC|10.40.24.66|||110000433262|199
03.10.2018 22:00:00||PWC|10.40.24.66|||110000433262|30
03.10.2018 22:00:00||PWC|10.40.24.66|||110000433262|48
03.10.2018 22:00:00||PWC|10.40.24.66|||110000433262|48
03.10.2018 22:00:00||PWC|10.40.24.66|||110000433262|58
03.10.2018 22:00:00||PWC|10.40.24.66|||110000433262|30
03.10.2018 22:00:00||PWC|10.40.24.66|||110000433262|39
03.10.2018 22:00:00||PWC|10.40.24.66|||110000433262|426
03.10.2018 22:00:00||PWC|10.40.24.67|||110000433262|10
03.10.2018 22:00:00||PWC|10.40.24.67|||110000433262|10
03.10.2018 22:00:00||PWC|10.40.24.67|||110000433262|359
03.10.2018 22:00:00||PWC|10.40.24.67|||110000433262|30
03.10.2018 22:00:00||PWC|10.40.24.67|||110000433262|67
03.10.2018 22:00:00||PWC|10.40.24.67|||110000433262|114
03.10.2018 22:00:00||PWC|10.40.24.68|||110000433262|95
03.10.2018 22:00:00||PWC|10.40.24.68|||110000433262|133
03.10.2018 22:00:00||PWC|10.40.24.68|||110000433262|67
03.10.2018 22:00:00||PWC|10.40.24.68|||110000433262|67
03.10.2018 22:00:00||PWC|10.40.24.68|||110000433262|143
03.10.2018 22:00:00||PWC|10.40.25.67|||110000433262|81
03.10.2018 22:00:00||PWC|10.40.25.67|||110000433262|91
03.10.2018 22:00:00||PWC|10.40.25.67|||110000433262|327
03.10.2018 22:00:00||PWC|10.40.25.67|||110000433262|255
03.10.2018 22:00:00||PWC|10.40.25.67|||110000433262|245
03.10.2018 22:00:00||PWC|10.40.25.67|||110000433262|255
03.10.2018 22:00:00||PWC|10.40.25.67|||110000433262|51
03.10.2018 22:00:00||PWC|10.40.25.67|||110000433262|30
03.10.2018 22:00:00||PWC|10.40.25.67|||110000433262|122
03.10.2018 22:00:00||PWC|10.40.25.68|||110000433262|132
03.10.2018 22:00:00||PWC|10.40.25.68|||110000433262|194
03.10.2018 22:00:00||PWC|10.40.25.68|||110000433262|398
03.10.2018 22:00:00||PWC|10.40.25.68|||110000433262|71
03.10.2018 22:00:00||PWC|10.40.25.68|||110000433262|81
03.10.2018 22:00:00||PWC|10.40.25.68|||110000433262|153
