9/14/2018 11:00:00 AM||HAVAS|10.40.25.45|||110000479675|341
9/14/2018 11:00:00 AM||HAVAS|10.40.24.45|||110000479675|387
9/14/2018 11:00:00 AM||HAVAS|10.40.25.46|||110000479675|493
9/14/2018 11:00:00 AM||PWC|10.40.24.67|||110000433262|584
9/14/2018 11:00:00 AM||PWC|10.40.25.68|||110000433262|369
9/14/2018 11:00:00 AM||PWC|10.40.25.69|||110000433262|277
9/14/2018 11:00:00 AM||PWC|10.40.24.69|||110000433262|280
9/14/2018 11:00:00 AM||CALIK HOLDING|10.40.25.94|||110000438408|695
9/14/2018 11:00:00 AM||CALIK HOLDING|10.40.24.94|||110000438408|707
9/14/2018 11:00:00 AM||CALIK HOLDING|10.40.25.97|||110000438408|619
9/14/2018 11:00:00 AM||CALIK HOLDING|10.40.25.100|||110000438408|74
9/14/2018 11:00:00 AM||CALIK HOLDING|10.40.24.100|||110000438408|72
9/14/2018 11:00:00 AM||CALIK HOLDING|10.40.25.101|||110000438408|599
9/14/2018 11:00:00 AM||CALIK HOLDING|10.40.24.101|||110000438408|727
9/14/2018 11:00:00 AM||CALIK HOLDING|10.40.25.102|||110000438408|322
9/14/2018 11:00:00 AM||CALIK HOLDING|10.40.24.102|||110000438408|303
9/14/2018 11:00:00 AM||CALIK HOLDING|10.40.25.103|||110000438408|257
9/14/2018 11:00:00 AM||CALIK HOLDING|10.40.24.103|||110000438408|291
9/14/2018 11:00:00 AM||CALIK HOLDING|10.40.25.104|||110000438408|1118
9/14/2018 11:00:00 AM||CALIK HOLDING|10.40.24.113|||110000438408|725
9/14/2018 11:00:00 AM||CALIK HOLDING|10.40.25.115|||110000438408|502
9/14/2018 11:00:00 AM||CALIK HOLDING|10.40.24.115|||110000438408|512
9/14/2018 11:00:00 AM||CALIK HOLDING|10.40.25.116|||110000438408|472
9/14/2018 11:00:00 AM||CALIK HOLDING|10.40.24.116|||110000438408|459
9/14/2018 11:00:00 AM||CALIK HOLDING|10.40.25.117|||110000438408|279
9/14/2018 11:00:00 AM||CALIK HOLDING|10.40.24.117|||110000438408|242
9/14/2018 11:00:00 AM||CALIK HOLDING|10.40.25.119|||110000438408|69
9/14/2018 11:00:00 AM||CALIK HOLDING|10.40.24.119|||110000438408|215
9/14/2018 11:00:00 AM||CALIK HOLDING|10.40.25.120|||110000438408|553
9/14/2018 11:00:00 AM||CALIK HOLDING|10.40.24.120|||110000438408|559
9/14/2018 11:00:00 AM||CALIK HOLDING|10.40.25.121|||110000438408|308
9/14/2018 11:00:00 AM||CALIK HOLDING|10.40.24.121|||110000438408|325
9/14/2018 11:00:00 AM||CALIK HOLDING|10.40.25.122|||110000438408|247
9/14/2018 11:00:00 AM||CALIK HOLDING|10.40.24.122|||110000438408|290
9/14/2018 11:00:00 AM||AKTIFBANK|10.40.25.128|||110000438458|281
9/14/2018 11:00:00 AM||AKTIFBANK|10.40.24.128|||110000438458|445
9/14/2018 11:00:00 AM||AKTIFBANK|10.40.25.129|||110000438458|707
9/14/2018 11:00:00 AM||AKTIFBANK|10.40.25.130|||110000438458|734
9/14/2018 11:00:00 AM||AKTIFBANK|10.40.24.130|||110000438458|675
9/14/2018 11:00:00 AM||AKTIFBANK|10.40.25.131|||110000438458|621
9/14/2018 11:00:00 AM||AKTIFBANK|10.40.24.131|||110000438458|664
9/14/2018 11:00:00 AM||AKTIFBANK|10.40.25.132|||110000438458|427
9/14/2018 11:00:00 AM||AKTIFBANK|10.40.24.132|||110000438458|425
9/14/2018 11:00:00 AM||AKTIFBANK|10.40.25.133|||110000438458|388
9/14/2018 11:00:00 AM||AKTIFBANK|10.40.24.133|||110000438458|679
9/14/2018 11:00:00 AM||AKTIFBANK|10.40.25.138|||110000438458|246
9/14/2018 11:00:00 AM||AKTIFBANK|10.40.24.138|||110000438458|536
9/14/2018 11:00:00 AM||AKTIFBANK|10.40.25.139|||110000438458|154
9/14/2018 11:00:00 AM||AKTIFBANK|10.40.24.139|||110000438458|233
9/14/2018 11:00:00 AM||AKTIFBANK|10.40.25.140|||110000438458|264
9/14/2018 11:00:00 AM||AKTIFBANK|10.40.24.140|||110000438458|348
9/14/2018 11:00:00 AM||AKTIFBANK|10.40.25.141|||110000438458|493
9/14/2018 11:00:00 AM||AKTIFBANK|10.40.24.141|||110000438458|641
9/14/2018 11:00:00 AM||AKTIFBANK|10.40.25.142|||110000438458|37
9/14/2018 11:00:00 AM||AKTIFBANK|10.40.25.143|||110000438458|854
9/14/2018 11:00:00 AM||AKTIFBANK|10.40.25.144|||110000438458|175
9/14/2018 11:00:00 AM||AKTIFBANK|10.40.24.144|||110000438458|269
9/14/2018 11:00:00 AM||AKTIFBANK|10.40.25.145|||110000438458|293
9/14/2018 11:00:00 AM||AKTIFBANK|10.40.24.145|||110000438458|393
9/14/2018 11:00:00 AM||AKTIFBANK|10.40.25.147|||110000438458|85
9/14/2018 11:00:00 AM||AKTIFBANK|10.40.24.147|||110000438458|87
9/14/2018 11:00:00 AM||AKTIFBANK|10.40.25.148|||110000438458|1041
9/14/2018 11:00:00 AM||AKTIFBANK|10.40.25.152|||110000438458|749
9/14/2018 11:00:00 AM||AKTIFBANK|10.40.25.153|||110000438458|213
9/14/2018 11:00:00 AM||AKTIFBANK|10.40.24.153|||110000438458|247
9/14/2018 11:00:00 AM||AKTIFBANK|10.40.25.154|||110000438458|42
9/14/2018 11:00:00 AM||AKTIFBANK|10.40.24.154|||110000438458|131
9/14/2018 11:00:00 AM||AKTIFBANK|10.40.25.155|||110000438458|486
9/14/2018 11:00:00 AM||AKTIFBANK|10.40.24.155|||110000438458|521
9/14/2018 11:00:00 AM||AKTIFBANK|10.40.25.157|||110000438458|327
9/14/2018 11:00:00 AM||AKTIFBANK|10.40.24.157|||110000438458|342
9/14/2018 11:00:00 AM||AKTIFBANK|10.40.25.158|||110000438458|154
9/14/2018 11:00:00 AM||AKTIFBANK|10.40.24.158|||110000438458|639
9/14/2018 11:00:00 AM||AKTIFBANK|10.40.25.159|||110000438458|157
9/14/2018 11:00:00 AM||AKTIFBANK|10.40.24.159|||110000438458|358
9/14/2018 11:00:00 AM||AKTIFBANK|10.40.25.160|||110000438458|189
9/14/2018 11:00:00 AM||AKTIFBANK|10.40.24.160|||110000438458|241
9/14/2018 11:00:00 AM||AKTIFBANK|10.40.25.161|||110000438458|251
9/14/2018 11:00:00 AM||AKTIFBANK|10.40.24.161|||110000438458|392
9/14/2018 11:00:00 AM||AKTIFBANK|10.40.25.162|||110000438458|204
9/14/2018 11:00:00 AM||AKTIFBANK|10.40.24.162|||110000438458|547
9/14/2018 11:00:00 AM||AKTIFBANK|10.40.25.163|||110000438458|44
9/14/2018 11:00:00 AM||AKTIFBANK|10.40.25.164|||110000438458|858
9/14/2018 11:00:00 AM||AKTIFBANK|10.40.24.164|||110000438458|839
9/14/2018 11:00:00 AM||AKTIFBANK|10.40.25.165|||110000438458|332
9/14/2018 11:00:00 AM||AKTIFBANK|10.40.24.165|||110000438458|359
9/14/2018 11:00:00 AM||AKTIFBANK|10.40.25.166|||110000438458|125
9/14/2018 11:00:00 AM||AKTIFBANK|10.40.24.166|||110000438458|222
9/14/2018 11:00:00 AM||AKTIFBANK|10.40.25.168|||110000438458|307
9/14/2018 11:00:00 AM||AKTIFBANK|10.40.24.168|||110000438458|368
9/14/2018 11:00:00 AM||AKTIFBANK|10.40.25.169|||110000438458|340
9/14/2018 11:00:00 AM||AKTIFBANK|10.40.24.169|||110000438458|314
9/14/2018 11:00:00 AM||AKTIFBANK|10.40.25.170|||110000438458|413
9/14/2018 11:00:00 AM||AKTIFBANK|10.40.24.170|||110000438458|900
9/14/2018 11:00:00 AM||AKTIFBANK|10.40.25.179|||110000438458|958
9/14/2018 11:00:00 AM||AKTIFBANK|10.40.24.179|||110000438458|1031
9/14/2018 11:00:00 AM||AKTIFBANK|10.40.25.186|||110000438458|181
9/14/2018 11:00:00 AM||AKTIFBANK|10.40.24.186|||110000438458|209
9/14/2018 11:00:00 AM||MARS CINEMA|10.40.25.206|||110000472614|294
9/14/2018 11:00:00 AM||PEGASUS|10.40.26.64|||110000423831|157
9/14/2018 11:00:00 AM||PEGASUS|10.40.27.67|||110000423831|1239
9/14/2018 11:00:00 AM||PEGASUS|10.40.27.68|||110000423831|309
9/14/2018 11:00:00 AM||PEGASUS|10.40.27.87|||110000423831|271
9/14/2018 11:00:00 AM||PEGASUS|10.40.26.87|||110000423831|293
9/14/2018 11:00:00 AM||BOYNER|10.40.26.95|||101367941673|398
