9/28/2018 7:00:00 AM||HAVAS|10.40.24.45|||110000479675|357
9/28/2018 7:00:00 AM||HAVAS|10.40.25.46|||110000479675|453
9/28/2018 7:00:00 AM||HAVAS|10.40.24.46|||110000479675|448
9/28/2018 7:00:00 AM||HAVAS|10.40.24.47|||110000479675|980
9/28/2018 7:00:00 AM||PWC|10.40.24.67|||110000433262|528
9/28/2018 7:00:00 AM||PWC|10.40.25.68|||110000433262|799
9/28/2018 7:00:00 AM||PWC|10.40.25.69|||110000433262|257
9/28/2018 7:00:00 AM||PWC|10.40.24.69|||110000433262|260
9/28/2018 7:00:00 AM||CALIK HOLDING|10.40.25.94|||110000438408|587
9/28/2018 7:00:00 AM||CALIK HOLDING|10.40.24.94|||110000438408|622
9/28/2018 7:00:00 AM||CALIK HOLDING|10.40.24.95|||110000438408|919
9/28/2018 7:00:00 AM||CALIK HOLDING|10.40.25.97|||110000438408|557
9/28/2018 7:00:00 AM||CALIK HOLDING|10.40.24.97|||110000438408|574
9/28/2018 7:00:00 AM||CALIK HOLDING|10.40.25.100|||110000438408|68
9/28/2018 7:00:00 AM||CALIK HOLDING|10.40.24.100|||110000438408|66
9/28/2018 7:00:00 AM||CALIK HOLDING|10.40.25.101|||110000438408|544
9/28/2018 7:00:00 AM||CALIK HOLDING|10.40.24.101|||110000438408|668
9/28/2018 7:00:00 AM||CALIK HOLDING|10.40.25.102|||110000438408|296
9/28/2018 7:00:00 AM||CALIK HOLDING|10.40.24.102|||110000438408|279
9/28/2018 7:00:00 AM||CALIK HOLDING|10.40.25.103|||110000438408|236
9/28/2018 7:00:00 AM||CALIK HOLDING|10.40.24.103|||110000438408|270
9/28/2018 7:00:00 AM||CALIK HOLDING|10.40.25.104|||110000438408|1024
9/28/2018 7:00:00 AM||CALIK HOLDING|10.40.24.104|||110000438408|1035
9/28/2018 7:00:00 AM||CALIK HOLDING|10.40.25.113|||110000438408|236
9/28/2018 7:00:00 AM||CALIK HOLDING|10.40.24.113|||110000438408|643
9/28/2018 7:00:00 AM||CALIK HOLDING|10.40.25.114|||110000438408|537
9/28/2018 7:00:00 AM||CALIK HOLDING|10.40.24.114|||110000438408|510
9/28/2018 7:00:00 AM||CALIK HOLDING|10.40.25.115|||110000438408|465
9/28/2018 7:00:00 AM||CALIK HOLDING|10.40.24.115|||110000438408|476
9/28/2018 7:00:00 AM||CALIK HOLDING|10.40.25.116|||110000438408|321
9/28/2018 7:00:00 AM||CALIK HOLDING|10.40.24.116|||110000438408|406
9/28/2018 7:00:00 AM||CALIK HOLDING|10.40.25.117|||110000438408|263
9/28/2018 7:00:00 AM||CALIK HOLDING|10.40.24.117|||110000438408|230
9/28/2018 7:00:00 AM||CALIK HOLDING|10.40.25.119|||110000438408|62
9/28/2018 7:00:00 AM||CALIK HOLDING|10.40.24.119|||110000438408|199
9/28/2018 7:00:00 AM||CALIK HOLDING|10.40.25.120|||110000438408|509
9/28/2018 7:00:00 AM||CALIK HOLDING|10.40.24.120|||110000438408|515
9/28/2018 7:00:00 AM||CALIK HOLDING|10.40.25.121|||110000438408|284
9/28/2018 7:00:00 AM||CALIK HOLDING|10.40.24.121|||110000438408|290
9/28/2018 7:00:00 AM||CALIK HOLDING|10.40.25.122|||110000438408|226
9/28/2018 7:00:00 AM||CALIK HOLDING|10.40.24.122|||110000438408|269
9/28/2018 7:00:00 AM||AKTIFBANK|10.40.25.128|||110000438458|251
9/28/2018 7:00:00 AM||AKTIFBANK|10.40.24.128|||110000438458|411
9/28/2018 7:00:00 AM||AKTIFBANK|10.40.25.129|||110000438458|807
9/28/2018 7:00:00 AM||AKTIFBANK|10.40.24.129|||110000438458|779
9/28/2018 7:00:00 AM||AKTIFBANK|10.40.25.130|||110000438458|665
9/28/2018 7:00:00 AM||AKTIFBANK|10.40.24.130|||110000438458|613
9/28/2018 7:00:00 AM||AKTIFBANK|10.40.25.131|||110000438458|554
9/28/2018 7:00:00 AM||AKTIFBANK|10.40.24.131|||110000438458|570
9/28/2018 7:00:00 AM||AKTIFBANK|10.40.25.132|||110000438458|380
9/28/2018 7:00:00 AM||AKTIFBANK|10.40.24.132|||110000438458|372
9/28/2018 7:00:00 AM||AKTIFBANK|10.40.25.133|||110000438458|584
9/28/2018 7:00:00 AM||AKTIFBANK|10.40.24.133|||110000438458|383
9/28/2018 7:00:00 AM||AKTIFBANK|10.40.25.138|||110000438458|59
9/28/2018 7:00:00 AM||AKTIFBANK|10.40.24.138|||110000438458|503
9/28/2018 7:00:00 AM||AKTIFBANK|10.40.25.139|||110000438458|140
9/28/2018 7:00:00 AM||AKTIFBANK|10.40.24.139|||110000438458|212
9/28/2018 7:00:00 AM||AKTIFBANK|10.40.25.140|||110000438458|237
9/28/2018 7:00:00 AM||AKTIFBANK|10.40.24.140|||110000438458|319
9/28/2018 7:00:00 AM||AKTIFBANK|10.40.25.141|||110000438458|440
9/28/2018 7:00:00 AM||AKTIFBANK|10.40.24.141|||110000438458|584
9/28/2018 7:00:00 AM||AKTIFBANK|10.40.25.142|||110000438458|33
9/28/2018 7:00:00 AM||AKTIFBANK|10.40.24.142|||110000438458|102
9/28/2018 7:00:00 AM||AKTIFBANK|10.40.25.143|||110000438458|759
9/28/2018 7:00:00 AM||AKTIFBANK|10.40.24.143|||110000438458|712
9/28/2018 7:00:00 AM||AKTIFBANK|10.40.25.144|||110000438458|163
9/28/2018 7:00:00 AM||AKTIFBANK|10.40.24.144|||110000438458|232
9/28/2018 7:00:00 AM||AKTIFBANK|10.40.25.145|||110000438458|261
9/28/2018 7:00:00 AM||AKTIFBANK|10.40.24.145|||110000438458|363
9/28/2018 7:00:00 AM||AKTIFBANK|10.40.25.147|||110000438458|78
9/28/2018 7:00:00 AM||AKTIFBANK|10.40.24.147|||110000438458|80
9/28/2018 7:00:00 AM||AKTIFBANK|10.40.25.148|||110000438458|886
9/28/2018 7:00:00 AM||AKTIFBANK|10.40.24.148|||110000438458|897
9/28/2018 7:00:00 AM||AKTIFBANK|10.40.25.152|||110000438458|656
9/28/2018 7:00:00 AM||AKTIFBANK|10.40.24.152|||110000438458|948
9/28/2018 7:00:00 AM||AKTIFBANK|10.40.25.153|||110000438458|201
9/28/2018 7:00:00 AM||AKTIFBANK|10.40.24.153|||110000438458|215
9/28/2018 7:00:00 AM||AKTIFBANK|10.40.25.154|||110000438458|37
9/28/2018 7:00:00 AM||AKTIFBANK|10.40.24.154|||110000438458|122
9/28/2018 7:00:00 AM||AKTIFBANK|10.40.25.155|||110000438458|429
9/28/2018 7:00:00 AM||AKTIFBANK|10.40.24.155|||110000438458|458
9/28/2018 7:00:00 AM||AKTIFBANK|10.40.25.157|||110000438458|285
9/28/2018 7:00:00 AM||AKTIFBANK|10.40.24.157|||110000438458|315
9/28/2018 7:00:00 AM||AKTIFBANK|10.40.25.158|||110000438458|110
9/28/2018 7:00:00 AM||AKTIFBANK|10.40.24.158|||110000438458|567
9/28/2018 7:00:00 AM||AKTIFBANK|10.40.25.159|||110000438458|146
9/28/2018 7:00:00 AM||AKTIFBANK|10.40.24.159|||110000438458|317
9/28/2018 7:00:00 AM||AKTIFBANK|10.40.25.160|||110000438458|176
9/28/2018 7:00:00 AM||AKTIFBANK|10.40.24.160|||110000438458|213
9/28/2018 7:00:00 AM||AKTIFBANK|10.40.25.161|||110000438458|210
9/28/2018 7:00:00 AM||AKTIFBANK|10.40.25.162|||110000438458|222
9/28/2018 7:00:00 AM||AKTIFBANK|10.40.24.162|||110000438458|437
9/28/2018 7:00:00 AM||AKTIFBANK|10.40.25.163|||110000438458|42
9/28/2018 7:00:00 AM||AKTIFBANK|10.40.24.163|||110000438458|216
9/28/2018 7:00:00 AM||AKTIFBANK|10.40.25.164|||110000438458|785
9/28/2018 7:00:00 AM||AKTIFBANK|10.40.24.164|||110000438458|770
9/28/2018 7:00:00 AM||AKTIFBANK|10.40.25.165|||110000438458|286
9/28/2018 7:00:00 AM||AKTIFBANK|10.40.24.165|||110000438458|321
9/28/2018 7:00:00 AM||AKTIFBANK|10.40.25.166|||110000438458|122
9/28/2018 7:00:00 AM||AKTIFBANK|10.40.24.166|||110000438458|186
9/28/2018 7:00:00 AM||AKTIFBANK|10.40.25.168|||110000438458|284
9/28/2018 7:00:00 AM||AKTIFBANK|10.40.24.168|||110000438458|339
9/28/2018 7:00:00 AM||AKTIFBANK|10.40.25.169|||110000438458|298
9/28/2018 7:00:00 AM||AKTIFBANK|10.40.24.169|||110000438458|278
9/28/2018 7:00:00 AM||AKTIFBANK|10.40.25.170|||110000438458|365
9/28/2018 7:00:00 AM||AKTIFBANK|10.40.24.170|||110000438458|798
9/28/2018 7:00:00 AM||AKTIFBANK|10.40.25.179|||110000438458|851
9/28/2018 7:00:00 AM||AKTIFBANK|10.40.24.179|||110000438458|919
9/28/2018 7:00:00 AM||AKTIFBANK|10.40.25.186|||110000438458|160
9/28/2018 7:00:00 AM||AKTIFBANK|10.40.24.186|||110000438458|193
9/28/2018 7:00:00 AM||MARS CINEMA|10.40.25.203|||110000472614|1214
9/28/2018 7:00:00 AM||MARS CINEMA|10.40.24.203|||110000472614|1256
9/28/2018 7:00:00 AM||MARS CINEMA|10.40.25.204|||110000472614|931
9/28/2018 7:00:00 AM||MARS CINEMA|10.40.24.204|||110000472614|910
9/28/2018 7:00:00 AM||MARS CINEMA|10.40.25.206|||110000472614|412
9/28/2018 7:00:00 AM||MARS CINEMA|10.40.24.206|||110000472614|639
9/28/2018 7:00:00 AM||PEGASUS|10.40.26.62|||110000423831|277
9/28/2018 7:00:00 AM||PEGASUS|10.40.26.64|||110000423831|139
9/28/2018 7:00:00 AM||PEGASUS|10.40.27.67|||110000423831|1153
9/28/2018 7:00:00 AM||PEGASUS|10.40.27.68|||110000423831|287
9/28/2018 7:00:00 AM||PEGASUS|10.40.27.81|||110000423831|1065
9/28/2018 7:00:00 AM||PEGASUS|10.40.26.81|||110000423831|1007
9/28/2018 7:00:00 AM||PEGASUS|10.40.26.82|||110000423831|1117
9/28/2018 7:00:00 AM||PEGASUS|10.40.27.87|||110000423831|251
9/28/2018 7:00:00 AM||PEGASUS|10.40.26.87|||110000423831|272
9/28/2018 7:00:00 AM||BOYNER|10.40.27.95|||101367941673|412
9/28/2018 7:00:00 AM||BOYNER|10.40.26.95|||101367941673|384
9/28/2018 7:00:00 AM||BOYNER|10.40.27.96|||101367941673|774
9/28/2018 7:00:00 AM||BOYNER|10.40.26.96|||101367941673|844
9/28/2018 7:00:00 AM||BOYNER|10.40.27.97|||101367941673|2167
9/28/2018 7:00:00 AM||BOYNER|10.40.26.97|||101367941673|2092
9/28/2018 7:00:00 AM||BOYNER|10.40.27.99|||101367941673|251
9/28/2018 7:00:00 AM||BOYNER|10.40.26.99|||101367941673|275
