21.10.2018 21:00:00||AKTİFBANK|10.40.25.174|||110000438458|53
21.10.2018 21:00:00||AKTİFBANK|10.40.25.134|||110000438458|92
21.10.2018 21:00:00||AKTİFBANK|10.40.25.135|||110000438458|92
21.10.2018 21:00:00||AKTİFBANK|10.40.24.135|||110000438458|96
21.10.2018 21:00:00||AKTİFBANK|10.40.24.137|||110000438458|57
21.10.2018 21:00:00||AKTİFBANK|10.40.24.171|||110000438458|11
21.10.2018 21:00:00||AKTİFBANK|10.40.25.172|||110000438458|88
21.10.2018 21:00:00||AKTİFBANK|10.40.24.173|||110000438458|93
21.10.2018 21:00:00||AKTİFBANK|10.40.24.174|||110000438458|60
21.10.2018 21:00:00||AKTİFBANK|10.40.24.172|||110000438458|96
21.10.2018 21:00:00||AKTİFBANK|10.40.24.134|||110000438458|93
21.10.2018 21:00:00||AKTİFBANK|10.40.25.137|||110000438458|57
21.10.2018 21:00:00||AKTİFBANK|10.40.25.171|||110000438458|12
21.10.2018 21:00:00||AKTİFBANK|10.40.24.158|||110000438458|80
21.10.2018 21:00:00||AKTİFBANK|10.40.24.164|||110000438458|67
21.10.2018 21:00:00||AKTİFBANK|10.40.25.138|||110000438458|82
21.10.2018 21:00:00||AKTİFBANK|10.40.25.139|||110000438458|10
21.10.2018 21:00:00||AKTİFBANK|10.40.25.140|||110000438458|30
21.10.2018 21:00:00||AKTİFBANK|10.40.25.151|||110000438458|522
21.10.2018 21:00:00||AKTİFBANK|10.40.25.141|||110000438458|100
21.10.2018 21:00:00||AKTİFBANK|10.40.25.141|||110000438458|78
21.10.2018 21:00:00||AKTİFBANK|10.40.25.142|||110000438458|72
21.10.2018 21:00:00||AKTİFBANK|10.40.25.133|||110000438458|110
21.10.2018 21:00:00||AKTİFBANK|10.40.25.149|||110000438458|102
21.10.2018 21:00:00||AKTİFBANK|10.40.25.149|||110000438458|90
21.10.2018 21:00:00||AKTİFBANK|10.40.25.149|||110000438458|92
21.10.2018 21:00:00||AKTİFBANK|10.40.25.140|||110000438458|30
21.10.2018 21:00:00||AKTİFBANK|10.40.25.150|||110000438458|537
21.10.2018 21:00:00||AKTİFBANK|10.40.25.139|||110000438458|170
21.10.2018 21:00:00||AKTİFBANK|10.40.25.139|||110000438458|40
21.10.2018 21:00:00||AKTİFBANK|10.40.25.140|||110000438458|80
21.10.2018 21:00:00||AKTİFBANK|10.40.25.140|||110000438458|70
21.10.2018 21:00:00||AKTİFBANK|10.40.25.140|||110000438458|30
21.10.2018 21:00:00||AKTİFBANK|10.40.25.151|||110000438458|515
21.10.2018 21:00:00||AKTİFBANK|10.40.25.151|||110000438458|507
21.10.2018 21:00:00||AKTİFBANK|10.40.25.141|||110000438458|40
21.10.2018 21:00:00||AKTİFBANK|10.40.25.141|||110000438458|100
21.10.2018 21:00:00||AKTİFBANK|10.40.25.141|||110000438458|83
21.10.2018 21:00:00||AKTİFBANK|10.40.25.142|||110000438458|40
21.10.2018 21:00:00||AKTİFBANK|10.40.25.149|||110000438458|70
21.10.2018 21:00:00||AKTİFBANK|10.40.25.149|||110000438458|110
21.10.2018 21:00:00||AKTİFBANK|10.40.25.149|||110000438458|90
21.10.2018 21:00:00||AKTİFBANK|10.40.25.149|||110000438458|90
21.10.2018 21:00:00||AKTİFBANK|10.40.25.149|||110000438458|103
21.10.2018 21:00:00||AKTİFBANK|10.40.24.139|||110000438458|62
21.10.2018 21:00:00||AKTİFBANK|10.40.25.153|||110000438458|10
21.10.2018 21:00:00||AKTİFBANK|10.40.25.150|||110000438458|558
21.10.2018 21:00:00||AKTİFBANK|10.40.25.153|||110000438458|70
21.10.2018 21:00:00||AKTİFBANK|10.40.25.163|||110000438458|48
21.10.2018 21:00:00||AKTİFBANK|10.40.24.141|||110000438458|70
21.10.2018 21:00:00||AKTİFBANK|10.40.24.151|||110000438458|523
21.10.2018 21:00:00||AKTİFBANK|10.40.25.153|||110000438458|80
21.10.2018 21:00:00||AKTİFBANK|10.40.24.149|||110000438458|88
21.10.2018 21:00:00||AKTİFBANK|10.40.24.141|||110000438458|50
21.10.2018 21:00:00||AKTİFBANK|10.40.25.133|||110000438458|280
21.10.2018 21:00:00||AKTİFBANK|10.40.25.133|||110000438458|90
21.10.2018 21:00:00||AKTİFBANK|10.40.24.149|||110000438458|88
21.10.2018 21:00:00||AKTİFBANK|10.40.24.162|||110000438458|213
21.10.2018 21:00:00||AKTİFBANK|10.40.24.162|||110000438458|30
21.10.2018 21:00:00||AKTİFBANK|10.40.24.162|||110000438458|40
21.10.2018 21:00:00||AKTİFBANK|10.40.25.133|||110000438458|150
21.10.2018 21:00:00||AKTİFBANK|10.40.25.138|||110000438458|130
21.10.2018 21:00:00||AKTİFBANK|10.40.25.149|||110000438458|70
21.10.2018 21:00:00||AKTİFBANK|10.40.25.149|||110000438458|70
21.10.2018 21:00:00||AKTİFBANK|10.40.25.149|||110000438458|30
21.10.2018 21:00:00||AKTİFBANK|10.40.25.149|||110000438458|73
21.10.2018 21:00:00||AKTİFBANK|10.40.25.149|||110000438458|70
21.10.2018 21:00:00||AKTİFBANK|10.40.25.141|||110000438458|100
21.10.2018 21:00:00||AKTİFBANK|10.40.25.149|||110000438458|130
21.10.2018 21:00:00||AKTİFBANK|10.40.25.138|||110000438458|93
21.10.2018 21:00:00||AKTİFBANK|10.40.25.138|||110000438458|73
21.10.2018 21:00:00||AKTİFBANK|10.40.25.139|||110000438458|100
21.10.2018 21:00:00||AKTİFBANK|10.40.24.145|||110000438458|70
21.10.2018 21:00:00||AKTİFBANK|10.40.24.149|||110000438458|160
21.10.2018 21:00:00||AKTİFBANK|10.40.25.138|||110000438458|30
21.10.2018 21:00:00||AKTİFBANK|10.40.25.138|||110000438458|12
21.10.2018 21:00:00||AKTİFBANK|10.40.25.153|||110000438458|60
21.10.2018 21:00:00||AKTİFBANK|10.40.24.150|||110000438458|560
21.10.2018 21:00:00||AKTİFBANK|10.40.25.128|||110000438458|70
21.10.2018 21:00:00||AKTİFBANK|10.40.25.128|||110000438458|90
21.10.2018 21:00:00||AKTİFBANK|10.40.25.128|||110000438458|90
21.10.2018 21:00:00||AKTİFBANK|10.40.25.128|||110000438458|40
21.10.2018 21:00:00||AKTİFBANK|10.40.25.128|||110000438458|57
21.10.2018 21:00:00||AKTİFBANK|10.40.25.129|||110000438458|82
21.10.2018 21:00:00||AKTİFBANK|10.40.25.129|||110000438458|70
21.10.2018 21:00:00||AKTİFBANK|10.40.25.129|||110000438458|130
21.10.2018 21:00:00||AKTİFBANK|10.40.25.129|||110000438458|100
21.10.2018 21:00:00||AKTİFBANK|10.40.25.129|||110000438458|40
21.10.2018 21:00:00||AKTİFBANK|10.40.25.129|||110000438458|95
21.10.2018 21:00:00||AKTİFBANK|10.40.25.129|||110000438458|97
21.10.2018 21:00:00||AKTİFBANK|10.40.25.130|||110000438458|62
21.10.2018 21:00:00||AKTİFBANK|10.40.25.130|||110000438458|52
21.10.2018 21:00:00||AKTİFBANK|10.40.25.130|||110000438458|73
21.10.2018 21:00:00||AKTİFBANK|10.40.25.130|||110000438458|33
21.10.2018 21:00:00||AKTİFBANK|10.40.25.130|||110000438458|60
21.10.2018 21:00:00||AKTİFBANK|10.40.25.130|||110000438458|100
21.10.2018 21:00:00||AKTİFBANK|10.40.25.130|||110000438458|83
21.10.2018 21:00:00||AKTİFBANK|10.40.25.131|||110000438458|20
21.10.2018 21:00:00||AKTİFBANK|10.40.25.131|||110000438458|72
21.10.2018 21:00:00||AKTİFBANK|10.40.25.131|||110000438458|102
21.10.2018 21:00:00||AKTİFBANK|10.40.25.131|||110000438458|103
21.10.2018 21:00:00||AKTİFBANK|10.40.25.131|||110000438458|80
21.10.2018 21:00:00||AKTİFBANK|10.40.25.131|||110000438458|83
21.10.2018 21:00:00||AKTİFBANK|10.40.25.131|||110000438458|20
21.10.2018 21:00:00||AKTİFBANK|10.40.25.131|||110000438458|120
21.10.2018 21:00:00||AKTİFBANK|10.40.25.132|||110000438458|60
21.10.2018 21:00:00||AKTİFBANK|10.40.25.132|||110000438458|63
21.10.2018 21:00:00||AKTİFBANK|10.40.25.132|||110000438458|83
21.10.2018 21:00:00||AKTİFBANK|10.40.25.132|||110000438458|158
21.10.2018 21:00:00||AKTİFBANK|10.40.25.132|||110000438458|60
21.10.2018 21:00:00||AKTİFBANK|10.40.25.143|||110000438458|320
21.10.2018 21:00:00||AKTİFBANK|10.40.25.144|||110000438458|80
21.10.2018 21:00:00||AKTİFBANK|10.40.25.144|||110000438458|50
21.10.2018 21:00:00||AKTİFBANK|10.40.25.144|||110000438458|20
21.10.2018 21:00:00||AKTİFBANK|10.40.25.154|||110000438458|10
21.10.2018 21:00:00||AKTİFBANK|10.40.25.154|||110000438458|10
21.10.2018 21:00:00||AKTİFBANK|10.40.25.154|||110000438458|10
21.10.2018 21:00:00||AKTİFBANK|10.40.25.157|||110000438458|70
21.10.2018 21:00:00||AKTİFBANK|10.40.25.157|||110000438458|70
21.10.2018 21:00:00||AKTİFBANK|10.40.25.157|||110000438458|72
21.10.2018 21:00:00||AKTİFBANK|10.40.25.157|||110000438458|82
21.10.2018 21:00:00||AKTİFBANK|10.40.25.157|||110000438458|40
21.10.2018 21:00:00||AKTİFBANK|10.40.25.159|||110000438458|60
21.10.2018 21:00:00||AKTİFBANK|10.40.25.159|||110000438458|10
21.10.2018 21:00:00||AKTİFBANK|10.40.25.159|||110000438458|90
21.10.2018 21:00:00||AKTİFBANK|10.40.25.158|||110000438458|57
21.10.2018 21:00:00||AKTİFBANK|10.40.25.158|||110000438458|37
21.10.2018 21:00:00||AKTİFBANK|10.40.25.158|||110000438458|67
21.10.2018 21:00:00||AKTİFBANK|10.40.25.158|||110000438458|50
21.10.2018 21:00:00||AKTİFBANK|10.40.25.160|||110000438458|92
21.10.2018 21:00:00||AKTİFBANK|10.40.25.161|||110000438458|80
21.10.2018 21:00:00||AKTİFBANK|10.40.25.161|||110000438458|70
21.10.2018 21:00:00||AKTİFBANK|10.40.25.161|||110000438458|40
21.10.2018 21:00:00||AKTİFBANK|10.40.25.161|||110000438458|30
21.10.2018 21:00:00||AKTİFBANK|10.40.25.161|||110000438458|20
21.10.2018 21:00:00||AKTİFBANK|10.40.25.161|||110000438458|53
21.10.2018 21:00:00||AKTİFBANK|10.40.25.145|||110000438458|90
21.10.2018 21:00:00||AKTİFBANK|10.40.25.145|||110000438458|60
21.10.2018 21:00:00||AKTİFBANK|10.40.25.145|||110000438458|60
21.10.2018 21:00:00||AKTİFBANK|10.40.25.145|||110000438458|30
21.10.2018 21:00:00||AKTİFBANK|10.40.25.145|||110000438458|50
21.10.2018 21:00:00||AKTİFBANK|10.40.25.147|||110000438458|90
21.10.2018 21:00:00||AKTİFBANK|10.40.25.162|||110000438458|30
21.10.2018 21:00:00||AKTİFBANK|10.40.25.162|||110000438458|30
21.10.2018 21:00:00||AKTİFBANK|10.40.25.162|||110000438458|60
21.10.2018 21:00:00||AKTİFBANK|10.40.25.164|||110000438458|60
21.10.2018 21:00:00||AKTİFBANK|10.40.25.164|||110000438458|280
21.10.2018 21:00:00||AKTİFBANK|10.40.25.164|||110000438458|50
21.10.2018 21:00:00||AKTİFBANK|10.40.25.164|||110000438458|260
21.10.2018 21:00:00||AKTİFBANK|10.40.25.164|||110000438458|270
21.10.2018 21:00:00||AKTİFBANK|10.40.25.165|||110000438458|110
21.10.2018 21:00:00||AKTİFBANK|10.40.25.165|||110000438458|70
21.10.2018 21:00:00||AKTİFBANK|10.40.25.165|||110000438458|80
21.10.2018 21:00:00||AKTİFBANK|10.40.25.165|||110000438458|100
21.10.2018 21:00:00||AKTİFBANK|10.40.25.166|||110000438458|90
21.10.2018 21:00:00||AKTİFBANK|10.40.25.166|||110000438458|10
21.10.2018 21:00:00||AKTİFBANK|10.40.25.166|||110000438458|10
21.10.2018 21:00:00||AKTİFBANK|10.40.25.166|||110000438458|10
21.10.2018 21:00:00||AKTİFBANK|10.40.25.166|||110000438458|40
21.10.2018 21:00:00||AKTİFBANK|10.40.25.148|||110000438458|130
21.10.2018 21:00:00||AKTİFBANK|10.40.25.148|||110000438458|50
21.10.2018 21:00:00||AKTİFBANK|10.40.25.148|||110000438458|100
21.10.2018 21:00:00||AKTİFBANK|10.40.25.148|||110000438458|130
21.10.2018 21:00:00||AKTİFBANK|10.40.25.148|||110000438458|90
21.10.2018 21:00:00||AKTİFBANK|10.40.25.148|||110000438458|80
21.10.2018 21:00:00||AKTİFBANK|10.40.25.148|||110000438458|70
21.10.2018 21:00:00||AKTİFBANK|10.40.25.148|||110000438458|50
21.10.2018 21:00:00||AKTİFBANK|10.40.25.148|||110000438458|80
21.10.2018 21:00:00||AKTİFBANK|10.40.25.148|||110000438458|40
21.10.2018 21:00:00||AKTİFBANK|10.40.25.148|||110000438458|100
21.10.2018 21:00:00||AKTİFBANK|10.40.25.148|||110000438458|60
21.10.2018 21:00:00||AKTİFBANK|10.40.25.155|||110000438458|70
21.10.2018 21:00:00||AKTİFBANK|10.40.25.155|||110000438458|90
21.10.2018 21:00:00||AKTİFBANK|10.40.25.155|||110000438458|110
21.10.2018 21:00:00||AKTİFBANK|10.40.25.155|||110000438458|120
21.10.2018 21:00:00||AKTİFBANK|10.40.25.155|||110000438458|110
21.10.2018 21:00:00||AKTİFBANK|10.40.25.156|||110000438458|20
21.10.2018 21:00:00||AKTİFBANK|10.40.25.156|||110000438458|28
21.10.2018 21:00:00||AKTİFBANK|10.40.25.139|||110000438458|70
21.10.2018 21:00:00||AKTİFBANK|10.40.25.139|||110000438458|80
21.10.2018 21:00:00||AKTİFBANK|10.40.25.150|||110000438458|522
21.10.2018 21:00:00||AKTİFBANK|10.40.25.129|||110000438458|62
21.10.2018 21:00:00||AKTİFBANK|10.40.25.129|||110000438458|85
21.10.2018 21:00:00||AKTİFBANK|10.40.25.129|||110000438458|142
21.10.2018 21:00:00||AKTİFBANK|10.40.25.130|||110000438458|68
21.10.2018 21:00:00||AKTİFBANK|10.40.25.130|||110000438458|123
21.10.2018 21:00:00||AKTİFBANK|10.40.25.130|||110000438458|100
21.10.2018 21:00:00||AKTİFBANK|10.40.25.131|||110000438458|45
21.10.2018 21:00:00||AKTİFBANK|10.40.25.143|||110000438458|60
21.10.2018 21:00:00||AKTİFBANK|10.40.25.143|||110000438458|243
21.10.2018 21:00:00||AKTİFBANK|10.40.25.143|||110000438458|265
21.10.2018 21:00:00||AKTİFBANK|10.40.25.158|||110000438458|105
21.10.2018 21:00:00||AKTİFBANK|10.40.25.160|||110000438458|110
21.10.2018 21:00:00||AKTİFBANK|10.40.25.162|||110000438458|32
21.10.2018 21:00:00||AKTİFBANK|10.40.25.162|||110000438458|40
21.10.2018 21:00:00||AKTİFBANK|10.40.24.140|||110000438458|160
21.10.2018 21:00:00||AKTİFBANK|10.40.24.140|||110000438458|80
21.10.2018 21:00:00||AKTİFBANK|10.40.24.140|||110000438458|40
21.10.2018 21:00:00||AKTİFBANK|10.40.24.140|||110000438458|30
21.10.2018 21:00:00||AKTİFBANK|10.40.24.140|||110000438458|30
21.10.2018 21:00:00||AKTİFBANK|10.40.24.140|||110000438458|27
21.10.2018 21:00:00||AKTİFBANK|10.40.24.149|||110000438458|80
21.10.2018 21:00:00||AKTİFBANK|10.40.24.149|||110000438458|120
21.10.2018 21:00:00||AKTİFBANK|10.40.24.149|||110000438458|90
21.10.2018 21:00:00||AKTİFBANK|10.40.24.149|||110000438458|60
21.10.2018 21:00:00||AKTİFBANK|10.40.24.149|||110000438458|58
21.10.2018 21:00:00||AKTİFBANK|10.40.24.149|||110000438458|142
21.10.2018 21:00:00||AKTİFBANK|10.40.24.149|||110000438458|90
21.10.2018 21:00:00||AKTİFBANK|10.40.24.149|||110000438458|90
21.10.2018 21:00:00||AKTİFBANK|10.40.24.149|||110000438458|93
21.10.2018 21:00:00||AKTİFBANK|10.40.24.149|||110000438458|80
21.10.2018 21:00:00||AKTİFBANK|10.40.24.133|||110000438458|140
21.10.2018 21:00:00||AKTİFBANK|10.40.24.133|||110000438458|275
21.10.2018 21:00:00||AKTİFBANK|10.40.24.133|||110000438458|120
21.10.2018 21:00:00||AKTİFBANK|10.40.24.133|||110000438458|85
21.10.2018 21:00:00||AKTİFBANK|10.40.24.138|||110000438458|115
21.10.2018 21:00:00||AKTİFBANK|10.40.24.138|||110000438458|140
21.10.2018 21:00:00||AKTİFBANK|10.40.24.138|||110000438458|120
21.10.2018 21:00:00||AKTİFBANK|10.40.24.138|||110000438458|30
21.10.2018 21:00:00||AKTİFBANK|10.40.24.138|||110000438458|50
21.10.2018 21:00:00||AKTİFBANK|10.40.24.139|||110000438458|162
21.10.2018 21:00:00||AKTİFBANK|10.40.24.139|||110000438458|90
21.10.2018 21:00:00||AKTİFBANK|10.40.24.139|||110000438458|120
21.10.2018 21:00:00||AKTİFBANK|10.40.24.141|||110000438458|200
21.10.2018 21:00:00||AKTİFBANK|10.40.24.141|||110000438458|100
21.10.2018 21:00:00||AKTİFBANK|10.40.24.141|||110000438458|100
21.10.2018 21:00:00||AKTİFBANK|10.40.24.141|||110000438458|50
21.10.2018 21:00:00||AKTİFBANK|10.40.24.141|||110000438458|80
21.10.2018 21:00:00||AKTİFBANK|10.40.25.152|||110000438458|110
21.10.2018 21:00:00||AKTİFBANK|10.40.25.152|||110000438458|50
21.10.2018 21:00:00||AKTİFBANK|10.40.25.152|||110000438458|140
21.10.2018 21:00:00||AKTİFBANK|10.40.25.152|||110000438458|70
21.10.2018 21:00:00||AKTİFBANK|10.40.25.152|||110000438458|90
21.10.2018 21:00:00||AKTİFBANK|10.40.25.152|||110000438458|160
21.10.2018 21:00:00||AKTİFBANK|10.40.25.152|||110000438458|50
21.10.2018 21:00:00||AKTİFBANK|10.40.25.152|||110000438458|90
21.10.2018 21:00:00||AKTİFBANK|10.40.25.152|||110000438458|30
21.10.2018 21:00:00||AKTİFBANK|10.40.25.152|||110000438458|80
21.10.2018 21:00:00||AKTİFBANK|10.40.25.152|||110000438458|30
21.10.2018 21:00:00||AKTİFBANK|10.40.24.150|||110000438458|565
21.10.2018 21:00:00||AKTİFBANK|10.40.24.151|||110000438458|523
21.10.2018 21:00:00||AKTİFBANK|10.40.24.151|||110000438458|552
21.10.2018 21:00:00||AKTİFBANK|10.40.24.128|||110000438458|60
21.10.2018 21:00:00||AKTİFBANK|10.40.24.128|||110000438458|70
21.10.2018 21:00:00||AKTİFBANK|10.40.24.128|||110000438458|98
21.10.2018 21:00:00||AKTİFBANK|10.40.24.128|||110000438458|40
21.10.2018 21:00:00||AKTİFBANK|10.40.24.128|||110000438458|70
21.10.2018 21:00:00||AKTİFBANK|10.40.24.128|||110000438458|60
21.10.2018 21:00:00||AKTİFBANK|10.40.24.129|||110000438458|100
21.10.2018 21:00:00||AKTİFBANK|10.40.24.129|||110000438458|70
21.10.2018 21:00:00||AKTİFBANK|10.40.24.129|||110000438458|110
21.10.2018 21:00:00||AKTİFBANK|10.40.24.129|||110000438458|120
21.10.2018 21:00:00||AKTİFBANK|10.40.24.129|||110000438458|40
21.10.2018 21:00:00||AKTİFBANK|10.40.24.129|||110000438458|70
21.10.2018 21:00:00||AKTİFBANK|10.40.24.129|||110000438458|70
21.10.2018 21:00:00||AKTİFBANK|10.40.24.129|||110000438458|90
21.10.2018 21:00:00||AKTİFBANK|10.40.24.129|||110000438458|80
21.10.2018 21:00:00||AKTİFBANK|10.40.24.129|||110000438458|140
21.10.2018 21:00:00||AKTİFBANK|10.40.24.130|||110000438458|42
21.10.2018 21:00:00||AKTİFBANK|10.40.24.130|||110000438458|40
21.10.2018 21:00:00||AKTİFBANK|10.40.24.130|||110000438458|68
21.10.2018 21:00:00||AKTİFBANK|10.40.24.130|||110000438458|42
21.10.2018 21:00:00||AKTİFBANK|10.40.24.130|||110000438458|60
21.10.2018 21:00:00||AKTİFBANK|10.40.24.130|||110000438458|78
21.10.2018 21:00:00||AKTİFBANK|10.40.24.130|||110000438458|88
21.10.2018 21:00:00||AKTİFBANK|10.40.24.130|||110000438458|38
21.10.2018 21:00:00||AKTİFBANK|10.40.24.130|||110000438458|130
21.10.2018 21:00:00||AKTİFBANK|10.40.24.130|||110000438458|110
21.10.2018 21:00:00||AKTİFBANK|10.40.24.131|||110000438458|80
21.10.2018 21:00:00||AKTİFBANK|10.40.24.131|||110000438458|90
21.10.2018 21:00:00||AKTİFBANK|10.40.24.131|||110000438458|110
21.10.2018 21:00:00||AKTİFBANK|10.40.24.131|||110000438458|112
21.10.2018 21:00:00||AKTİFBANK|10.40.24.131|||110000438458|20
21.10.2018 21:00:00||AKTİFBANK|10.40.24.131|||110000438458|160
21.10.2018 21:00:00||AKTİFBANK|10.40.24.131|||110000438458|60
21.10.2018 21:00:00||AKTİFBANK|10.40.24.131|||110000438458|110
21.10.2018 21:00:00||AKTİFBANK|10.40.24.132|||110000438458|32
21.10.2018 21:00:00||AKTİFBANK|10.40.24.132|||110000438458|80
21.10.2018 21:00:00||AKTİFBANK|10.40.24.132|||110000438458|50
21.10.2018 21:00:00||AKTİFBANK|10.40.24.132|||110000438458|200
21.10.2018 21:00:00||AKTİFBANK|10.40.24.132|||110000438458|70
21.10.2018 21:00:00||AKTİFBANK|10.40.24.143|||110000438458|65
21.10.2018 21:00:00||AKTİFBANK|10.40.24.143|||110000438458|270
21.10.2018 21:00:00||AKTİFBANK|10.40.24.143|||110000438458|283
21.10.2018 21:00:00||AKTİFBANK|10.40.24.143|||110000438458|220
21.10.2018 21:00:00||AKTİFBANK|10.40.24.144|||110000438458|70
21.10.2018 21:00:00||AKTİFBANK|10.40.24.144|||110000438458|108
21.10.2018 21:00:00||AKTİFBANK|10.40.24.144|||110000438458|130
21.10.2018 21:00:00||AKTİFBANK|10.40.24.148|||110000438458|60
21.10.2018 21:00:00||AKTİFBANK|10.40.24.148|||110000438458|167
21.10.2018 21:00:00||AKTİFBANK|10.40.24.148|||110000438458|80
21.10.2018 21:00:00||AKTİFBANK|10.40.24.148|||110000438458|110
21.10.2018 21:00:00||AKTİFBANK|10.40.24.148|||110000438458|80
21.10.2018 21:00:00||AKTİFBANK|10.40.24.148|||110000438458|85
21.10.2018 21:00:00||AKTİFBANK|10.40.24.148|||110000438458|93
21.10.2018 21:00:00||AKTİFBANK|10.40.24.148|||110000438458|103
21.10.2018 21:00:00||AKTİFBANK|10.40.24.148|||110000438458|80
21.10.2018 21:00:00||AKTİFBANK|10.40.24.148|||110000438458|60
21.10.2018 21:00:00||AKTİFBANK|10.40.24.148|||110000438458|32
21.10.2018 21:00:00||AKTİFBANK|10.40.24.148|||110000438458|73
21.10.2018 21:00:00||AKTİFBANK|10.40.24.153|||110000438458|10
21.10.2018 21:00:00||AKTİFBANK|10.40.24.153|||110000438458|90
21.10.2018 21:00:00||AKTİFBANK|10.40.24.153|||110000438458|70
21.10.2018 21:00:00||AKTİFBANK|10.40.24.153|||110000438458|77
21.10.2018 21:00:00||AKTİFBANK|10.40.24.157|||110000438458|30
21.10.2018 21:00:00||AKTİFBANK|10.40.24.157|||110000438458|77
21.10.2018 21:00:00||AKTİFBANK|10.40.24.157|||110000438458|70
21.10.2018 21:00:00||AKTİFBANK|10.40.24.157|||110000438458|40
21.10.2018 21:00:00||AKTİFBANK|10.40.24.157|||110000438458|80
21.10.2018 21:00:00||AKTİFBANK|10.40.24.157|||110000438458|43
21.10.2018 21:00:00||AKTİFBANK|10.40.24.158|||110000438458|80
21.10.2018 21:00:00||AKTİFBANK|10.40.24.158|||110000438458|110
21.10.2018 21:00:00||AKTİFBANK|10.40.24.159|||110000438458|132
21.10.2018 21:00:00||AKTİFBANK|10.40.24.159|||110000438458|57
21.10.2018 21:00:00||AKTİFBANK|10.40.24.159|||110000438458|180
21.10.2018 21:00:00||AKTİFBANK|10.40.24.160|||110000438458|50
21.10.2018 21:00:00||AKTİFBANK|10.40.24.160|||110000438458|90
21.10.2018 21:00:00||AKTİFBANK|10.40.24.160|||110000438458|102
21.10.2018 21:00:00||AKTİFBANK|10.40.24.161|||110000438458|200
21.10.2018 21:00:00||AKTİFBANK|10.40.24.161|||110000438458|80
21.10.2018 21:00:00||AKTİFBANK|10.40.24.161|||110000438458|40
21.10.2018 21:00:00||AKTİFBANK|10.40.24.161|||110000438458|30
21.10.2018 21:00:00||AKTİFBANK|10.40.24.161|||110000438458|30
21.10.2018 21:00:00||AKTİFBANK|10.40.24.161|||110000438458|20
21.10.2018 21:00:00||AKTİFBANK|10.40.24.161|||110000438458|90
21.10.2018 21:00:00||AKTİFBANK|10.40.24.145|||110000438458|30
21.10.2018 21:00:00||AKTİFBANK|10.40.24.145|||110000438458|70
21.10.2018 21:00:00||AKTİFBANK|10.40.24.145|||110000438458|60
21.10.2018 21:00:00||AKTİFBANK|10.40.24.147|||110000438458|90
21.10.2018 21:00:00||AKTİFBANK|10.40.24.162|||110000438458|40
21.10.2018 21:00:00||AKTİFBANK|10.40.24.162|||110000438458|40
21.10.2018 21:00:00||AKTİFBANK|10.40.24.162|||110000438458|102
21.10.2018 21:00:00||AKTİFBANK|10.40.24.162|||110000438458|10
21.10.2018 21:00:00||AKTİFBANK|10.40.24.162|||110000438458|48
21.10.2018 21:00:00||AKTİFBANK|10.40.24.163|||110000438458|30
21.10.2018 21:00:00||AKTİFBANK|10.40.24.163|||110000438458|70
21.10.2018 21:00:00||AKTİFBANK|10.40.24.164|||110000438458|60
21.10.2018 21:00:00||AKTİFBANK|10.40.24.164|||110000438458|330
21.10.2018 21:00:00||AKTİFBANK|10.40.24.164|||110000438458|215
21.10.2018 21:00:00||AKTİFBANK|10.40.24.165|||110000438458|73
21.10.2018 21:00:00||AKTİFBANK|10.40.24.165|||110000438458|82
21.10.2018 21:00:00||AKTİFBANK|10.40.24.165|||110000438458|50
21.10.2018 21:00:00||AKTİFBANK|10.40.24.165|||110000438458|122
21.10.2018 21:00:00||AKTİFBANK|10.40.24.166|||110000438458|80
21.10.2018 21:00:00||AKTİFBANK|10.40.24.166|||110000438458|90
21.10.2018 21:00:00||AKTİFBANK|10.40.24.166|||110000438458|10
21.10.2018 21:00:00||AKTİFBANK|10.40.25.168|||110000438458|90
21.10.2018 21:00:00||AKTİFBANK|10.40.25.168|||110000438458|70
21.10.2018 21:00:00||AKTİFBANK|10.40.25.168|||110000438458|50
21.10.2018 21:00:00||AKTİFBANK|10.40.25.168|||110000438458|40
21.10.2018 21:00:00||AKTİFBANK|10.40.25.168|||110000438458|60
21.10.2018 21:00:00||AKTİFBANK|10.40.24.168|||110000438458|90
21.10.2018 21:00:00||AKTİFBANK|10.40.24.168|||110000438458|80
21.10.2018 21:00:00||AKTİFBANK|10.40.24.168|||110000438458|70
21.10.2018 21:00:00||AKTİFBANK|10.40.24.168|||110000438458|70
21.10.2018 21:00:00||AKTİFBANK|10.40.24.168|||110000438458|30
21.10.2018 21:00:00||AKTİFBANK|10.40.24.154|||110000438458|70
21.10.2018 21:00:00||AKTİFBANK|10.40.24.154|||110000438458|20
21.10.2018 21:00:00||AKTİFBANK|10.40.24.154|||110000438458|10
21.10.2018 21:00:00||AKTİFBANK|10.40.24.154|||110000438458|10
21.10.2018 21:00:00||AKTİFBANK|10.40.24.154|||110000438458|10
21.10.2018 21:00:00||AKTİFBANK|10.40.24.154|||110000438458|10
21.10.2018 21:00:00||AKTİFBANK|10.40.24.155|||110000438458|58
21.10.2018 21:00:00||AKTİFBANK|10.40.24.155|||110000438458|100
21.10.2018 21:00:00||AKTİFBANK|10.40.24.155|||110000438458|133
21.10.2018 21:00:00||AKTİFBANK|10.40.24.155|||110000438458|80
21.10.2018 21:00:00||AKTİFBANK|10.40.24.155|||110000438458|112
21.10.2018 21:00:00||AKTİFBANK|10.40.24.155|||110000438458|100
21.10.2018 21:00:00||AKTİFBANK|10.40.25.169|||110000438458|83
21.10.2018 21:00:00||AKTİFBANK|10.40.25.169|||110000438458|90
21.10.2018 21:00:00||AKTİFBANK|10.40.25.169|||110000438458|72
21.10.2018 21:00:00||AKTİFBANK|10.40.25.169|||110000438458|83
21.10.2018 21:00:00||AKTİFBANK|10.40.24.169|||110000438458|73
21.10.2018 21:00:00||AKTİFBANK|10.40.24.169|||110000438458|85
21.10.2018 21:00:00||AKTİFBANK|10.40.24.169|||110000438458|67
21.10.2018 21:00:00||AKTİFBANK|10.40.24.169|||110000438458|82
21.10.2018 21:00:00||AKTİFBANK|10.40.25.170|||110000438458|30
21.10.2018 21:00:00||AKTİFBANK|10.40.25.170|||110000438458|30
21.10.2018 21:00:00||AKTİFBANK|10.40.25.170|||110000438458|200
21.10.2018 21:00:00||AKTİFBANK|10.40.25.170|||110000438458|100
21.10.2018 21:00:00||AKTİFBANK|10.40.25.170|||110000438458|80
21.10.2018 21:00:00||AKTİFBANK|10.40.25.170|||110000438458|120
21.10.2018 21:00:00||AKTİFBANK|10.40.24.170|||110000438458|60
21.10.2018 21:00:00||AKTİFBANK|10.40.24.170|||110000438458|60
21.10.2018 21:00:00||AKTİFBANK|10.40.24.170|||110000438458|278
21.10.2018 21:00:00||AKTİFBANK|10.40.24.170|||110000438458|228
21.10.2018 21:00:00||AKTİFBANK|10.40.24.170|||110000438458|82
21.10.2018 21:00:00||AKTİFBANK|10.40.24.170|||110000438458|100
21.10.2018 21:00:00||AKTİFBANK|10.40.24.170|||110000438458|77
21.10.2018 21:00:00||AKTİFBANK|10.40.25.178|||110000438458|590
21.10.2018 21:00:00||AKTİFBANK|10.40.25.178|||110000438458|560
21.10.2018 21:00:00||AKTİFBANK|10.40.25.178|||110000438458|550
21.10.2018 21:00:00||AKTİFBANK|10.40.24.178|||110000438458|560
21.10.2018 21:00:00||AKTİFBANK|10.40.24.178|||110000438458|550
21.10.2018 21:00:00||AKTİFBANK|10.40.24.178|||110000438458|550
21.10.2018 21:00:00||AKTİFBANK|10.40.25.179|||110000438458|395
21.10.2018 21:00:00||AKTİFBANK|10.40.25.179|||110000438458|357
21.10.2018 21:00:00||AKTİFBANK|10.40.25.179|||110000438458|360
21.10.2018 21:00:00||AKTİFBANK|10.40.24.179|||110000438458|320
21.10.2018 21:00:00||AKTİFBANK|10.40.24.179|||110000438458|330
21.10.2018 21:00:00||AKTİFBANK|10.40.24.179|||110000438458|320
21.10.2018 21:00:00||AKTİFBANK|10.40.24.142|||110000438458|40
21.10.2018 21:00:00||AKTİFBANK|10.40.24.156|||110000438458|50
21.10.2018 21:00:00||AKTİFBANK|10.40.24.156|||110000438458|50
21.10.2018 21:00:00||AKTİFBANK|10.40.25.186|||110000438458|90
21.10.2018 21:00:00||AKTİFBANK|10.40.25.186|||110000438458|20
21.10.2018 21:00:00||AKTİFBANK|10.40.25.186|||110000438458|70
21.10.2018 21:00:00||AKTİFBANK|10.40.24.186|||110000438458|92
21.10.2018 21:00:00||AKTİFBANK|10.40.24.186|||110000438458|30
21.10.2018 21:00:00||AKTİFBANK|10.40.24.186|||110000438458|60
21.10.2018 21:00:00||AKTİFBANK|10.40.24.186|||110000438458|40
21.10.2018 21:00:00||AKTİFBANK|10.40.24.152|||110000438458|10
21.10.2018 21:00:00||AKTİFBANK|10.40.24.152|||110000438458|50
21.10.2018 21:00:00||AKTİFBANK|10.40.24.152|||110000438458|83
21.10.2018 21:00:00||AKTİFBANK|10.40.24.152|||110000438458|92
21.10.2018 21:00:00||AKTİFBANK|10.40.24.152|||110000438458|100
21.10.2018 21:00:00||AKTİFBANK|10.40.24.152|||110000438458|105
21.10.2018 21:00:00||AKTİFBANK|10.40.24.152|||110000438458|297
21.10.2018 21:00:00||AKTİFBANK|10.40.24.152|||110000438458|77
21.10.2018 21:00:00||AKTİFBANK|10.40.24.152|||110000438458|97
21.10.2018 21:00:00||AKTİFBANK|10.40.24.152|||110000438458|30
21.10.2018 21:00:00||AKTİFBANK|10.40.24.152|||110000438458|72
21.10.2018 21:00:00||AKTİFBANK|10.40.24.152|||110000438458|30
21.10.2018 21:00:00||AKTİFBANK|10.40.24.133|||110000438458|80
21.10.2018 21:00:00||AKTİFBANK|10.40.24.138|||110000438458|120
21.10.2018 21:00:00||AKTİFBANK|10.40.24.139|||110000438458|30
21.10.2018 21:00:00||AKTİFBANK|10.40.24.149|||110000438458|110
21.10.2018 21:00:00||AKTİFBANK|10.40.24.150|||110000438458|538
21.10.2018 21:00:00||AKTİFBANK|10.40.24.145|||110000438458|60
21.10.2018 21:00:00||AKTİFBANK|10.40.24.164|||110000438458|227
21.10.2018 21:00:00||AKTİFBANK|10.40.25.133|||110000438458|70
21.10.2018 21:00:00||AKTİFBANK|10.40.24.145|||110000438458|90
21.10.2018 21:00:00||BARİKAT İNTERNET GÜVENLİĞİ|10.40.25.201|||110000479736|113
21.10.2018 21:00:00||BARİKAT İNTERNET GÜVENLİĞİ|10.40.25.201|||110000479736|100
21.10.2018 21:00:00||BARİKAT İNTERNET GÜVENLİĞİ|10.40.24.201|||110000479736|133
21.10.2018 21:00:00||BARİKAT İNTERNET GÜVENLİĞİ|10.40.24.201|||110000479736|93
21.10.2018 21:00:00||BOYNER|10.40.27.100|||101367941673|51
21.10.2018 21:00:00||BOYNER|10.40.27.101|||101367941673|165
21.10.2018 21:00:00||BOYNER|10.40.26.101|||101367941673|159
21.10.2018 21:00:00||BOYNER|10.40.26.100|||101367941673|56
21.10.2018 21:00:00||BOYNER|10.40.27.94|||101367941673|210
21.10.2018 21:00:00||BOYNER|10.40.27.94|||101367941673|90
21.10.2018 21:00:00||BOYNER|10.40.27.94|||101367941673|90
21.10.2018 21:00:00||BOYNER|10.40.27.94|||101367941673|100
21.10.2018 21:00:00||BOYNER|10.40.26.94|||101367941673|90
21.10.2018 21:00:00||BOYNER|10.40.26.94|||101367941673|80
21.10.2018 21:00:00||BOYNER|10.40.26.94|||101367941673|80
21.10.2018 21:00:00||BOYNER|10.40.27.95|||101367941673|108
21.10.2018 21:00:00||BOYNER|10.40.27.95|||101367941673|128
21.10.2018 21:00:00||BOYNER|10.40.27.95|||101367941673|232
21.10.2018 21:00:00||BOYNER|10.40.26.95|||101367941673|92
21.10.2018 21:00:00||BOYNER|10.40.26.95|||101367941673|193
21.10.2018 21:00:00||BOYNER|10.40.26.95|||101367941673|138
21.10.2018 21:00:00||BOYNER|10.40.27.96|||101367941673|60
21.10.2018 21:00:00||BOYNER|10.40.27.96|||101367941673|50
21.10.2018 21:00:00||BOYNER|10.40.27.96|||101367941673|50
21.10.2018 21:00:00||BOYNER|10.40.27.96|||101367941673|40
21.10.2018 21:00:00||BOYNER|10.40.27.96|||101367941673|37
21.10.2018 21:00:00||BOYNER|10.40.27.96|||101367941673|147
21.10.2018 21:00:00||BOYNER|10.40.27.96|||101367941673|152
21.10.2018 21:00:00||BOYNER|10.40.27.96|||101367941673|173
21.10.2018 21:00:00||BOYNER|10.40.27.96|||101367941673|165
21.10.2018 21:00:00||BOYNER|10.40.26.96|||101367941673|30
21.10.2018 21:00:00||BOYNER|10.40.26.96|||101367941673|40
21.10.2018 21:00:00||BOYNER|10.40.26.96|||101367941673|30
21.10.2018 21:00:00||BOYNER|10.40.26.96|||101367941673|40
21.10.2018 21:00:00||BOYNER|10.40.26.96|||101367941673|40
21.10.2018 21:00:00||BOYNER|10.40.26.96|||101367941673|50
21.10.2018 21:00:00||BOYNER|10.40.26.96|||101367941673|187
21.10.2018 21:00:00||BOYNER|10.40.26.96|||101367941673|198
21.10.2018 21:00:00||BOYNER|10.40.26.96|||101367941673|167
21.10.2018 21:00:00||BOYNER|10.40.26.96|||101367941673|173
21.10.2018 21:00:00||BOYNER|10.40.27.97|||101367941673|60
21.10.2018 21:00:00||BOYNER|10.40.27.97|||101367941673|645
21.10.2018 21:00:00||BOYNER|10.40.27.97|||101367941673|655
21.10.2018 21:00:00||BOYNER|10.40.27.97|||101367941673|683
21.10.2018 21:00:00||BOYNER|10.40.27.97|||101367941673|40
21.10.2018 21:00:00||BOYNER|10.40.27.97|||101367941673|30
21.10.2018 21:00:00||BOYNER|10.40.27.97|||101367941673|52
21.10.2018 21:00:00||BOYNER|10.40.27.97|||101367941673|30
21.10.2018 21:00:00||BOYNER|10.40.27.97|||101367941673|172
21.10.2018 21:00:00||BOYNER|10.40.27.97|||101367941673|177
21.10.2018 21:00:00||BOYNER|10.40.27.97|||101367941673|180
21.10.2018 21:00:00||BOYNER|10.40.27.97|||101367941673|193
21.10.2018 21:00:00||BOYNER|10.40.26.97|||101367941673|30
21.10.2018 21:00:00||BOYNER|10.40.26.97|||101367941673|645
21.10.2018 21:00:00||BOYNER|10.40.26.97|||101367941673|643
21.10.2018 21:00:00||BOYNER|10.40.26.97|||101367941673|648
21.10.2018 21:00:00||BOYNER|10.40.26.97|||101367941673|30
21.10.2018 21:00:00||BOYNER|10.40.26.97|||101367941673|40
21.10.2018 21:00:00||BOYNER|10.40.26.97|||101367941673|50
21.10.2018 21:00:00||BOYNER|10.40.26.97|||101367941673|60
21.10.2018 21:00:00||BOYNER|10.40.26.97|||101367941673|30
21.10.2018 21:00:00||BOYNER|10.40.26.97|||101367941673|157
21.10.2018 21:00:00||BOYNER|10.40.26.97|||101367941673|172
21.10.2018 21:00:00||BOYNER|10.40.26.97|||101367941673|167
21.10.2018 21:00:00||BOYNER|10.40.26.97|||101367941673|152
21.10.2018 21:00:00||BOYNER|10.40.27.99|||101367941673|130
21.10.2018 21:00:00||BOYNER|10.40.27.99|||101367941673|90
21.10.2018 21:00:00||BOYNER|10.40.27.99|||101367941673|83
21.10.2018 21:00:00||BOYNER|10.40.26.99|||101367941673|12
21.10.2018 21:00:00||BOYNER|10.40.26.99|||101367941673|110
21.10.2018 21:00:00||BOYNER|10.40.26.99|||101367941673|103
21.10.2018 21:00:00||BOYNER|10.40.26.99|||101367941673|80
21.10.2018 21:00:00||ÇALIK HOLDİNG|10.40.25.99|||110000438407|137
21.10.2018 21:00:00||ÇALIK HOLDİNG|10.40.25.118|||110000438407|161
21.10.2018 21:00:00||ÇALIK HOLDİNG|10.40.24.118|||110000438407|43
21.10.2018 21:00:00||ÇALIK HOLDİNG|10.40.25.120|||110000438407|90
21.10.2018 21:00:00||ÇALIK HOLDİNG|10.40.24.95|||110000438407|50
21.10.2018 21:00:00||ÇALIK HOLDİNG|10.40.25.97|||110000438407|80
21.10.2018 21:00:00||ÇALIK HOLDİNG|10.40.25.103|||110000438407|90
21.10.2018 21:00:00||ÇALIK HOLDİNG|10.40.25.120|||110000438407|40
21.10.2018 21:00:00||ÇALIK HOLDİNG|10.40.25.96|||110000438407|70
21.10.2018 21:00:00||ÇALIK HOLDİNG|10.40.25.96|||110000438407|90
21.10.2018 21:00:00||ÇALIK HOLDİNG|10.40.25.96|||110000438407|120
21.10.2018 21:00:00||ÇALIK HOLDİNG|10.40.25.96|||110000438407|90
21.10.2018 21:00:00||ÇALIK HOLDİNG|10.40.25.115|||110000438407|173
21.10.2018 21:00:00||ÇALIK HOLDİNG|10.40.25.115|||110000438407|78
21.10.2018 21:00:00||ÇALIK HOLDİNG|10.40.25.95|||110000438407|90
21.10.2018 21:00:00||ÇALIK HOLDİNG|10.40.25.96|||110000438407|90
21.10.2018 21:00:00||ÇALIK HOLDİNG|10.40.25.96|||110000438407|100
21.10.2018 21:00:00||ÇALIK HOLDİNG|10.40.25.120|||110000438407|20
21.10.2018 21:00:00||ÇALIK HOLDİNG|10.40.25.95|||110000438407|55
21.10.2018 21:00:00||ÇALIK HOLDİNG|10.40.24.94|||110000438407|188
21.10.2018 21:00:00||ÇALIK HOLDİNG|10.40.25.97|||110000438407|105
21.10.2018 21:00:00||ÇALIK HOLDİNG|10.40.25.120|||110000438407|60
21.10.2018 21:00:00||ÇALIK HOLDİNG|10.40.25.115|||110000438407|88
21.10.2018 21:00:00||ÇALIK HOLDİNG|10.40.25.115|||110000438407|72
21.10.2018 21:00:00||ÇALIK HOLDİNG|10.40.25.115|||110000438407|70
21.10.2018 21:00:00||ÇALIK HOLDİNG|10.40.25.101|||110000438407|50
21.10.2018 21:00:00||ÇALIK HOLDİNG|10.40.25.101|||110000438407|110
21.10.2018 21:00:00||ÇALIK HOLDİNG|10.40.25.101|||110000438407|30
21.10.2018 21:00:00||ÇALIK HOLDİNG|10.40.25.101|||110000438407|10
21.10.2018 21:00:00||ÇALIK HOLDİNG|10.40.25.101|||110000438407|90
21.10.2018 21:00:00||ÇALIK HOLDİNG|10.40.25.101|||110000438407|30
21.10.2018 21:00:00||ÇALIK HOLDİNG|10.40.25.101|||110000438407|40
21.10.2018 21:00:00||ÇALIK HOLDİNG|10.40.25.101|||110000438407|40
21.10.2018 21:00:00||ÇALIK HOLDİNG|10.40.25.101|||110000438407|90
21.10.2018 21:00:00||ÇALIK HOLDİNG|10.40.25.101|||110000438407|90
21.10.2018 21:00:00||ÇALIK HOLDİNG|10.40.25.101|||110000438407|90
21.10.2018 21:00:00||ÇALIK HOLDİNG|10.40.25.94|||110000438407|180
21.10.2018 21:00:00||ÇALIK HOLDİNG|10.40.25.94|||110000438407|180
21.10.2018 21:00:00||ÇALIK HOLDİNG|10.40.25.94|||110000438407|170
21.10.2018 21:00:00||ÇALIK HOLDİNG|10.40.25.94|||110000438407|180
21.10.2018 21:00:00||ÇALIK HOLDİNG|10.40.24.94|||110000438407|192
21.10.2018 21:00:00||ÇALIK HOLDİNG|10.40.24.94|||110000438407|183
21.10.2018 21:00:00||ÇALIK HOLDİNG|10.40.24.94|||110000438407|188
21.10.2018 21:00:00||ÇALIK HOLDİNG|10.40.25.95|||110000438407|20
21.10.2018 21:00:00||ÇALIK HOLDİNG|10.40.25.95|||110000438407|342
21.10.2018 21:00:00||ÇALIK HOLDİNG|10.40.25.95|||110000438407|355
21.10.2018 21:00:00||ÇALIK HOLDİNG|10.40.25.95|||110000438407|40
21.10.2018 21:00:00||ÇALIK HOLDİNG|10.40.24.95|||110000438407|100
21.10.2018 21:00:00||ÇALIK HOLDİNG|10.40.24.95|||110000438407|83
21.10.2018 21:00:00||ÇALIK HOLDİNG|10.40.24.95|||110000438407|383
21.10.2018 21:00:00||ÇALIK HOLDİNG|10.40.24.95|||110000438407|390
21.10.2018 21:00:00||ÇALIK HOLDİNG|10.40.25.96|||110000438407|90
21.10.2018 21:00:00||ÇALIK HOLDİNG|10.40.25.96|||110000438407|100
21.10.2018 21:00:00||ÇALIK HOLDİNG|10.40.25.96|||110000438407|100
21.10.2018 21:00:00||ÇALIK HOLDİNG|10.40.25.96|||110000438407|258
21.10.2018 21:00:00||ÇALIK HOLDİNG|10.40.25.96|||110000438407|267
21.10.2018 21:00:00||ÇALIK HOLDİNG|10.40.25.96|||110000438407|100
21.10.2018 21:00:00||ÇALIK HOLDİNG|10.40.25.96|||110000438407|90
21.10.2018 21:00:00||ÇALIK HOLDİNG|10.40.25.96|||110000438407|93
21.10.2018 21:00:00||ÇALIK HOLDİNG|10.40.25.97|||110000438407|88
21.10.2018 21:00:00||ÇALIK HOLDİNG|10.40.25.97|||110000438407|80
21.10.2018 21:00:00||ÇALIK HOLDİNG|10.40.25.97|||110000438407|293
21.10.2018 21:00:00||ÇALIK HOLDİNG|10.40.25.98|||110000438407|50
21.10.2018 21:00:00||ÇALIK HOLDİNG|10.40.25.98|||110000438407|165
21.10.2018 21:00:00||ÇALIK HOLDİNG|10.40.25.98|||110000438407|160
21.10.2018 21:00:00||ÇALIK HOLDİNG|10.40.25.98|||110000438407|172
21.10.2018 21:00:00||ÇALIK HOLDİNG|10.40.25.98|||110000438407|172
21.10.2018 21:00:00||ÇALIK HOLDİNG|10.40.25.98|||110000438407|60
21.10.2018 21:00:00||ÇALIK HOLDİNG|10.40.25.98|||110000438407|210
21.10.2018 21:00:00||ÇALIK HOLDİNG|10.40.25.98|||110000438407|180
21.10.2018 21:00:00||ÇALIK HOLDİNG|10.40.25.98|||110000438407|170
21.10.2018 21:00:00||ÇALIK HOLDİNG|10.40.25.98|||110000438407|213
21.10.2018 21:00:00||ÇALIK HOLDİNG|10.40.25.98|||110000438407|70
21.10.2018 21:00:00||ÇALIK HOLDİNG|10.40.25.98|||110000438407|353
21.10.2018 21:00:00||ÇALIK HOLDİNG|10.40.24.98|||110000438407|90
21.10.2018 21:00:00||ÇALIK HOLDİNG|10.40.24.98|||110000438407|155
21.10.2018 21:00:00||ÇALIK HOLDİNG|10.40.24.98|||110000438407|200
21.10.2018 21:00:00||ÇALIK HOLDİNG|10.40.24.98|||110000438407|200
21.10.2018 21:00:00||ÇALIK HOLDİNG|10.40.24.98|||110000438407|160
21.10.2018 21:00:00||ÇALIK HOLDİNG|10.40.24.98|||110000438407|30
21.10.2018 21:00:00||ÇALIK HOLDİNG|10.40.24.98|||110000438407|162
21.10.2018 21:00:00||ÇALIK HOLDİNG|10.40.24.98|||110000438407|180
21.10.2018 21:00:00||ÇALIK HOLDİNG|10.40.24.98|||110000438407|170
21.10.2018 21:00:00||ÇALIK HOLDİNG|10.40.24.98|||110000438407|173
21.10.2018 21:00:00||ÇALIK HOLDİNG|10.40.24.98|||110000438407|20
21.10.2018 21:00:00||ÇALIK HOLDİNG|10.40.24.98|||110000438407|322
21.10.2018 21:00:00||ÇALIK HOLDİNG|10.40.25.100|||110000438407|37
21.10.2018 21:00:00||ÇALIK HOLDİNG|10.40.25.100|||110000438407|40
21.10.2018 21:00:00||ÇALIK HOLDİNG|10.40.24.101|||110000438407|60
21.10.2018 21:00:00||ÇALIK HOLDİNG|10.40.24.101|||110000438407|110
21.10.2018 21:00:00||ÇALIK HOLDİNG|10.40.24.101|||110000438407|20
21.10.2018 21:00:00||ÇALIK HOLDİNG|10.40.24.101|||110000438407|20
21.10.2018 21:00:00||ÇALIK HOLDİNG|10.40.24.101|||110000438407|40
21.10.2018 21:00:00||ÇALIK HOLDİNG|10.40.24.101|||110000438407|97
21.10.2018 21:00:00||ÇALIK HOLDİNG|10.40.24.101|||110000438407|30
21.10.2018 21:00:00||ÇALIK HOLDİNG|10.40.24.101|||110000438407|10
21.10.2018 21:00:00||ÇALIK HOLDİNG|10.40.24.101|||110000438407|20
21.10.2018 21:00:00||ÇALIK HOLDİNG|10.40.24.101|||110000438407|50
21.10.2018 21:00:00||ÇALIK HOLDİNG|10.40.24.101|||110000438407|30
21.10.2018 21:00:00||ÇALIK HOLDİNG|10.40.24.101|||110000438407|80
21.10.2018 21:00:00||ÇALIK HOLDİNG|10.40.24.101|||110000438407|80
21.10.2018 21:00:00||ÇALIK HOLDİNG|10.40.24.101|||110000438407|90
21.10.2018 21:00:00||ÇALIK HOLDİNG|10.40.25.102|||110000438407|100
21.10.2018 21:00:00||ÇALIK HOLDİNG|10.40.25.102|||110000438407|90
21.10.2018 21:00:00||ÇALIK HOLDİNG|10.40.25.102|||110000438407|150
21.10.2018 21:00:00||ÇALIK HOLDİNG|10.40.24.102|||110000438407|100
21.10.2018 21:00:00||ÇALIK HOLDİNG|10.40.24.102|||110000438407|90
21.10.2018 21:00:00||ÇALIK HOLDİNG|10.40.24.102|||110000438407|140
21.10.2018 21:00:00||ÇALIK HOLDİNG|10.40.25.103|||110000438407|90
21.10.2018 21:00:00||ÇALIK HOLDİNG|10.40.25.103|||110000438407|80
21.10.2018 21:00:00||ÇALIK HOLDİNG|10.40.25.103|||110000438407|10
21.10.2018 21:00:00||ÇALIK HOLDİNG|10.40.25.115|||110000438407|90
21.10.2018 21:00:00||ÇALIK HOLDİNG|10.40.24.103|||110000438407|98
21.10.2018 21:00:00||ÇALIK HOLDİNG|10.40.24.103|||110000438407|80
21.10.2018 21:00:00||ÇALIK HOLDİNG|10.40.24.103|||110000438407|80
21.10.2018 21:00:00||ÇALIK HOLDİNG|10.40.24.103|||110000438407|20
21.10.2018 21:00:00||ÇALIK HOLDİNG|10.40.24.103|||110000438407|10
21.10.2018 21:00:00||ÇALIK HOLDİNG|10.40.25.113|||110000438407|222
21.10.2018 21:00:00||ÇALIK HOLDİNG|10.40.25.113|||110000438407|232
21.10.2018 21:00:00||ÇALIK HOLDİNG|10.40.25.113|||110000438407|183
21.10.2018 21:00:00||ÇALIK HOLDİNG|10.40.25.113|||110000438407|193
21.10.2018 21:00:00||ÇALIK HOLDİNG|10.40.24.113|||110000438407|220
21.10.2018 21:00:00||ÇALIK HOLDİNG|10.40.24.113|||110000438407|217
21.10.2018 21:00:00||ÇALIK HOLDİNG|10.40.24.113|||110000438407|182
21.10.2018 21:00:00||ÇALIK HOLDİNG|10.40.24.113|||110000438407|148
21.10.2018 21:00:00||ÇALIK HOLDİNG|10.40.25.114|||110000438407|168
21.10.2018 21:00:00||ÇALIK HOLDİNG|10.40.25.114|||110000438407|398
21.10.2018 21:00:00||ÇALIK HOLDİNG|10.40.25.114|||110000438407|40
21.10.2018 21:00:00||ÇALIK HOLDİNG|10.40.24.114|||110000438407|20
21.10.2018 21:00:00||ÇALIK HOLDİNG|10.40.24.114|||110000438407|40
21.10.2018 21:00:00||ÇALIK HOLDİNG|10.40.24.114|||110000438407|122
21.10.2018 21:00:00||ÇALIK HOLDİNG|10.40.24.114|||110000438407|358
21.10.2018 21:00:00||ÇALIK HOLDİNG|10.40.24.115|||110000438407|162
21.10.2018 21:00:00||ÇALIK HOLDİNG|10.40.24.115|||110000438407|88
21.10.2018 21:00:00||ÇALIK HOLDİNG|10.40.24.115|||110000438407|95
21.10.2018 21:00:00||ÇALIK HOLDİNG|10.40.24.115|||110000438407|72
21.10.2018 21:00:00||ÇALIK HOLDİNG|10.40.24.115|||110000438407|90
21.10.2018 21:00:00||ÇALIK HOLDİNG|10.40.24.115|||110000438407|75
21.10.2018 21:00:00||ÇALIK HOLDİNG|10.40.25.116|||110000438407|105
21.10.2018 21:00:00||ÇALIK HOLDİNG|10.40.25.116|||110000438407|102
21.10.2018 21:00:00||ÇALIK HOLDİNG|10.40.25.116|||110000438407|307
21.10.2018 21:00:00||ÇALIK HOLDİNG|10.40.24.116|||110000438407|297
21.10.2018 21:00:00||ÇALIK HOLDİNG|10.40.24.116|||110000438407|105
21.10.2018 21:00:00||ÇALIK HOLDİNG|10.40.24.116|||110000438407|102
21.10.2018 21:00:00||ÇALIK HOLDİNG|10.40.25.117|||110000438407|250
21.10.2018 21:00:00||ÇALIK HOLDİNG|10.40.25.117|||110000438407|30
21.10.2018 21:00:00||ÇALIK HOLDİNG|10.40.25.117|||110000438407|27
21.10.2018 21:00:00||ÇALIK HOLDİNG|10.40.25.119|||110000438407|30
21.10.2018 21:00:00||ÇALIK HOLDİNG|10.40.25.119|||110000438407|30
21.10.2018 21:00:00||ÇALIK HOLDİNG|10.40.24.119|||110000438407|150
21.10.2018 21:00:00||ÇALIK HOLDİNG|10.40.24.119|||110000438407|30
21.10.2018 21:00:00||ÇALIK HOLDİNG|10.40.24.119|||110000438407|50
21.10.2018 21:00:00||ÇALIK HOLDİNG|10.40.25.120|||110000438407|108
21.10.2018 21:00:00||ÇALIK HOLDİNG|10.40.25.120|||110000438407|50
21.10.2018 21:00:00||ÇALIK HOLDİNG|10.40.25.120|||110000438407|20
21.10.2018 21:00:00||ÇALIK HOLDİNG|10.40.25.120|||110000438407|20
21.10.2018 21:00:00||ÇALIK HOLDİNG|10.40.25.120|||110000438407|30
21.10.2018 21:00:00||ÇALIK HOLDİNG|10.40.25.120|||110000438407|85
21.10.2018 21:00:00||ÇALIK HOLDİNG|10.40.25.120|||110000438407|90
21.10.2018 21:00:00||ÇALIK HOLDİNG|10.40.24.120|||110000438407|20
21.10.2018 21:00:00||ÇALIK HOLDİNG|10.40.24.120|||110000438407|38
21.10.2018 21:00:00||ÇALIK HOLDİNG|10.40.24.120|||110000438407|110
21.10.2018 21:00:00||ÇALIK HOLDİNG|10.40.24.120|||110000438407|100
21.10.2018 21:00:00||ÇALIK HOLDİNG|10.40.24.120|||110000438407|40
21.10.2018 21:00:00||ÇALIK HOLDİNG|10.40.24.120|||110000438407|80
21.10.2018 21:00:00||ÇALIK HOLDİNG|10.40.24.120|||110000438407|80
21.10.2018 21:00:00||ÇALIK HOLDİNG|10.40.24.120|||110000438407|70
21.10.2018 21:00:00||ÇALIK HOLDİNG|10.40.25.121|||110000438407|90
21.10.2018 21:00:00||ÇALIK HOLDİNG|10.40.25.121|||110000438407|100
21.10.2018 21:00:00||ÇALIK HOLDİNG|10.40.25.121|||110000438407|150
21.10.2018 21:00:00||ÇALIK HOLDİNG|10.40.24.121|||110000438407|100
21.10.2018 21:00:00||ÇALIK HOLDİNG|10.40.24.121|||110000438407|100
21.10.2018 21:00:00||ÇALIK HOLDİNG|10.40.24.121|||110000438407|140
21.10.2018 21:00:00||ÇALIK HOLDİNG|10.40.25.122|||110000438407|90
21.10.2018 21:00:00||ÇALIK HOLDİNG|10.40.25.122|||110000438407|80
21.10.2018 21:00:00||ÇALIK HOLDİNG|10.40.25.122|||110000438407|80
21.10.2018 21:00:00||ÇALIK HOLDİNG|10.40.25.122|||110000438407|30
21.10.2018 21:00:00||ÇALIK HOLDİNG|10.40.25.122|||110000438407|10
21.10.2018 21:00:00||ÇALIK HOLDİNG|10.40.24.122|||110000438407|90
21.10.2018 21:00:00||ÇALIK HOLDİNG|10.40.24.122|||110000438407|80
21.10.2018 21:00:00||ÇALIK HOLDİNG|10.40.24.122|||110000438407|87
21.10.2018 21:00:00||ÇALIK HOLDİNG|10.40.24.117|||110000438407|200
21.10.2018 21:00:00||ÇALIK HOLDİNG|10.40.24.117|||110000438407|30
21.10.2018 21:00:00||ÇALIK HOLDİNG|10.40.24.117|||110000438407|30
21.10.2018 21:00:00||ÇALIK HOLDİNG|10.40.24.97|||110000438407|100
21.10.2018 21:00:00||ÇALIK HOLDİNG|10.40.24.97|||110000438407|90
21.10.2018 21:00:00||ÇALIK HOLDİNG|10.40.24.97|||110000438407|80
21.10.2018 21:00:00||ÇALIK HOLDİNG|10.40.24.97|||110000438407|90
21.10.2018 21:00:00||ÇALIK HOLDİNG|10.40.24.97|||110000438407|307
21.10.2018 21:00:00||ÇALIK HOLDİNG|10.40.24.100|||110000438407|30
21.10.2018 21:00:00||ÇALIK HOLDİNG|10.40.24.100|||110000438407|40
21.10.2018 21:00:00||FIBABANKA|10.40.25.54|||101571767266|330
21.10.2018 21:00:00||FIBABANKA|10.40.27.54|||101571767266|309
21.10.2018 21:00:00||FIBABANKA|10.40.27.55|||101571767266|107
21.10.2018 21:00:00||FIBABANKA|10.40.24.54|||101571767266|314
21.10.2018 21:00:00||FIBABANKA|10.40.25.55|||101571767266|111
21.10.2018 21:00:00||FIBABANKA|10.40.24.55|||101571767266|112
21.10.2018 21:00:00||FIBABANKA|10.40.24.56|||101571767266|196
21.10.2018 21:00:00||FIBABANKA|10.40.25.56|||101571767266|197
21.10.2018 21:00:00||FIBABANKA|10.40.26.55|||101571767266|106
21.10.2018 21:00:00||FIBABANKA|10.40.26.54|||101571767266|317
21.10.2018 21:00:00||FIBABANKA|10.40.25.57|||101571767266|90
21.10.2018 21:00:00||FIBABANKA|10.40.25.57|||101571767266|90
21.10.2018 21:00:00||FIBABANKA|10.40.25.57|||101571767266|90
21.10.2018 21:00:00||FIBABANKA|10.40.26.51|||101571767266|20
21.10.2018 21:00:00||FIBABANKA|10.40.27.52|||101571767266|50
21.10.2018 21:00:00||FIBABANKA|10.40.27.52|||101571767266|60
21.10.2018 21:00:00||FIBABANKA|10.40.27.52|||101571767266|70
21.10.2018 21:00:00||FIBABANKA|10.40.27.73|||101571767266|10
21.10.2018 21:00:00||FIBABANKA|10.40.27.74|||101571767266|167
21.10.2018 21:00:00||FIBABANKA|10.40.25.53|||101571767266|32
21.10.2018 21:00:00||FIBABANKA|10.40.25.53|||101571767266|50
21.10.2018 21:00:00||FIBABANKA|10.40.27.53|||101571767266|60
21.10.2018 21:00:00||FIBABANKA|10.40.26.53|||101571767266|60
21.10.2018 21:00:00||FIBABANKA|10.40.25.51|||101571767266|20
21.10.2018 21:00:00||FIBABANKA|10.40.25.51|||101571767266|110
21.10.2018 21:00:00||FIBABANKA|10.40.24.51|||101571767266|20
21.10.2018 21:00:00||FIBABANKA|10.40.24.51|||101571767266|70
21.10.2018 21:00:00||FIBABANKA|10.40.24.51|||101571767266|100
21.10.2018 21:00:00||FIBABANKA|10.40.24.51|||101571767266|140
21.10.2018 21:00:00||FIBABANKA|10.40.24.51|||101571767266|30
21.10.2018 21:00:00||FIBABANKA|10.40.24.57|||101571767266|90
21.10.2018 21:00:00||FIBABANKA|10.40.24.57|||101571767266|80
21.10.2018 21:00:00||FIBABANKA|10.40.24.57|||101571767266|80
21.10.2018 21:00:00||FIBABANKA|10.40.24.52|||101571767266|40
21.10.2018 21:00:00||FIBABANKA|10.40.24.52|||101571767266|10
21.10.2018 21:00:00||FIBABANKA|10.40.26.73|||101571767266|40
21.10.2018 21:00:00||FIBABANKA|10.40.27.53|||101571767266|70
21.10.2018 21:00:00||FIBABANKA|10.40.26.51|||101571767266|70
21.10.2018 21:00:00||FIBABANKA|10.40.26.52|||101571767266|30
21.10.2018 21:00:00||FIBABANKA|10.40.26.52|||101571767266|90
21.10.2018 21:00:00||FIBABANKA|10.40.26.52|||101571767266|30
21.10.2018 21:00:00||FIBABANKA|10.40.25.51|||101571767266|140
21.10.2018 21:00:00||FIBABANKA|10.40.25.51|||101571767266|40
21.10.2018 21:00:00||FIBABANKA|10.40.25.51|||101571767266|40
21.10.2018 21:00:00||FIBABANKA|10.40.25.51|||101571767266|72
21.10.2018 21:00:00||FIBABANKA|10.40.24.51|||101571767266|30
21.10.2018 21:00:00||FIBABANKA|10.40.24.58|||101571767266|10
21.10.2018 21:00:00||FIBABANKA|10.40.24.58|||101571767266|10
21.10.2018 21:00:00||FIBABANKA|10.40.25.59|||101571767266|70
21.10.2018 21:00:00||FIBABANKA|10.40.25.59|||101571767266|115
21.10.2018 21:00:00||FIBABANKA|10.40.25.59|||101571767266|73
21.10.2018 21:00:00||FIBABANKA|10.40.25.59|||101571767266|40
21.10.2018 21:00:00||FIBABANKA|10.40.25.59|||101571767266|130
21.10.2018 21:00:00||FIBABANKA|10.40.25.59|||101571767266|70
21.10.2018 21:00:00||FIBABANKA|10.40.25.59|||101571767266|60
21.10.2018 21:00:00||FIBABANKA|10.40.25.59|||101571767266|168
21.10.2018 21:00:00||FIBABANKA|10.40.25.59|||101571767266|60
21.10.2018 21:00:00||FIBABANKA|10.40.24.59|||101571767266|70
21.10.2018 21:00:00||FIBABANKA|10.40.24.59|||101571767266|143
21.10.2018 21:00:00||FIBABANKA|10.40.24.59|||101571767266|67
21.10.2018 21:00:00||FIBABANKA|10.40.24.59|||101571767266|50
21.10.2018 21:00:00||FIBABANKA|10.40.24.59|||101571767266|130
21.10.2018 21:00:00||FIBABANKA|10.40.24.59|||101571767266|70
21.10.2018 21:00:00||FIBABANKA|10.40.24.59|||101571767266|60
21.10.2018 21:00:00||FIBABANKA|10.40.24.59|||101571767266|160
21.10.2018 21:00:00||FIBABANKA|10.40.24.59|||101571767266|67
21.10.2018 21:00:00||FIBABANKA|10.40.25.60|||101571767266|110
21.10.2018 21:00:00||FIBABANKA|10.40.25.60|||101571767266|33
21.10.2018 21:00:00||FIBABANKA|10.40.25.60|||101571767266|108
21.10.2018 21:00:00||FIBABANKA|10.40.25.60|||101571767266|40
21.10.2018 21:00:00||FIBABANKA|10.40.24.60|||101571767266|120
21.10.2018 21:00:00||FIBABANKA|10.40.24.60|||101571767266|58
21.10.2018 21:00:00||FIBABANKA|10.40.24.60|||101571767266|40
21.10.2018 21:00:00||FIBABANKA|10.40.24.60|||101571767266|100
21.10.2018 21:00:00||FIBABANKA|10.40.24.60|||101571767266|50
21.10.2018 21:00:00||FIBABANKA|10.40.25.72|||101571767266|70
21.10.2018 21:00:00||FIBABANKA|10.40.25.72|||101571767266|40
21.10.2018 21:00:00||FIBABANKA|10.40.25.72|||101571767266|30
21.10.2018 21:00:00||FIBABANKA|10.40.24.72|||101571767266|140
21.10.2018 21:00:00||FIBABANKA|10.40.24.72|||101571767266|80
21.10.2018 21:00:00||FIBABANKA|10.40.24.72|||101571767266|30
21.10.2018 21:00:00||FIBABANKA|10.40.24.72|||101571767266|40
21.10.2018 21:00:00||FIBABANKA|10.40.25.74|||101571767266|30
21.10.2018 21:00:00||FIBABANKA|10.40.25.75|||101571767266|40
21.10.2018 21:00:00||FIBABANKA|10.40.25.75|||101571767266|80
21.10.2018 21:00:00||FIBABANKA|10.40.25.75|||101571767266|133
21.10.2018 21:00:00||FIBABANKA|10.40.25.75|||101571767266|168
21.10.2018 21:00:00||FIBABANKA|10.40.25.75|||101571767266|192
21.10.2018 21:00:00||FIBABANKA|10.40.25.75|||101571767266|205
21.10.2018 21:00:00||FIBABANKA|10.40.24.75|||101571767266|45
21.10.2018 21:00:00||FIBABANKA|10.40.24.75|||101571767266|52
21.10.2018 21:00:00||FIBABANKA|10.40.24.75|||101571767266|170
21.10.2018 21:00:00||FIBABANKA|10.40.24.75|||101571767266|152
21.10.2018 21:00:00||FIBABANKA|10.40.24.76|||101571767266|35
21.10.2018 21:00:00||FIBABANKA|10.40.24.76|||101571767266|70
21.10.2018 21:00:00||FIBABANKA|10.40.24.76|||101571767266|10
21.10.2018 21:00:00||FIBABANKA|10.40.24.53|||101571767266|30
21.10.2018 21:00:00||FIBABANKA|10.40.24.53|||101571767266|60
21.10.2018 21:00:00||FIBABANKA|10.40.26.57|||101571767266|92
21.10.2018 21:00:00||FIBABANKA|10.40.26.57|||101571767266|82
21.10.2018 21:00:00||FIBABANKA|10.40.26.57|||101571767266|80
21.10.2018 21:00:00||FIBABANKA|10.40.27.72|||101571767266|40
21.10.2018 21:00:00||FIBABANKA|10.40.27.72|||101571767266|50
21.10.2018 21:00:00||FIBABANKA|10.40.27.72|||101571767266|35
21.10.2018 21:00:00||FIBABANKA|10.40.27.72|||101571767266|140
21.10.2018 21:00:00||FIBABANKA|10.40.27.72|||101571767266|62
21.10.2018 21:00:00||FIBABANKA|10.40.26.72|||101571767266|30
21.10.2018 21:00:00||FIBABANKA|10.40.26.72|||101571767266|140
21.10.2018 21:00:00||FIBABANKA|10.40.26.72|||101571767266|70
21.10.2018 21:00:00||FIBABANKA|10.40.26.72|||101571767266|30
21.10.2018 21:00:00||FIBABANKA|10.40.27.73|||101571767266|30
21.10.2018 21:00:00||FIBABANKA|10.40.27.73|||101571767266|100
21.10.2018 21:00:00||FIBABANKA|10.40.27.73|||101571767266|40
21.10.2018 21:00:00||FIBABANKA|10.40.27.73|||101571767266|45
21.10.2018 21:00:00||FIBABANKA|10.40.27.73|||101571767266|260
21.10.2018 21:00:00||FIBABANKA|10.40.26.73|||101571767266|40
21.10.2018 21:00:00||FIBABANKA|10.40.26.73|||101571767266|70
21.10.2018 21:00:00||FIBABANKA|10.40.26.73|||101571767266|30
21.10.2018 21:00:00||FIBABANKA|10.40.26.73|||101571767266|5
21.10.2018 21:00:00||FIBABANKA|10.40.27.74|||101571767266|73
21.10.2018 21:00:00||FIBABANKA|10.40.27.74|||101571767266|160
21.10.2018 21:00:00||FIBABANKA|10.40.27.74|||101571767266|178
21.10.2018 21:00:00||FIBABANKA|10.40.26.74|||101571767266|72
21.10.2018 21:00:00||FIBABANKA|10.40.26.74|||101571767266|188
21.10.2018 21:00:00||FIBABANKA|10.40.26.74|||101571767266|182
21.10.2018 21:00:00||FIBABANKA|10.40.26.74|||101571767266|173
21.10.2018 21:00:00||FIBABANKA|10.40.27.75|||101571767266|10
21.10.2018 21:00:00||FIBABANKA|10.40.27.75|||101571767266|10
21.10.2018 21:00:00||FIBABANKA|10.40.26.79|||101571767266|10
21.10.2018 21:00:00||FIBABANKA|10.40.27.79|||101571767266|12
21.10.2018 21:00:00||FIBABANKA|10.40.27.79|||101571767266|10
21.10.2018 21:00:00||FIBABANKA|10.40.26.79|||101571767266|10
21.10.2018 21:00:00||FIBABANKA|10.40.27.77|||101571767266|163
21.10.2018 21:00:00||FIBABANKA|10.40.26.77|||101571767266|188
21.10.2018 21:00:00||FIBABANKA|10.40.27.77|||101571767266|162
21.10.2018 21:00:00||FIBABANKA|10.40.25.74|||101571767266|230
21.10.2018 21:00:00||FIBABANKA|10.40.24.75|||101571767266|178
21.10.2018 21:00:00||FIBABANKA|10.40.24.53|||101571767266|157
21.10.2018 21:00:00||FIBABANKA|10.40.24.53|||101571767266|172
21.10.2018 21:00:00||FIBABANKA|10.40.25.52|||101571767266|10
21.10.2018 21:00:00||FIBABANKA|10.40.25.52|||101571767266|50
21.10.2018 21:00:00||FIBABANKA|10.40.25.52|||101571767266|60
21.10.2018 21:00:00||FIBABANKA|10.40.25.53|||101571767266|150
21.10.2018 21:00:00||FIBABANKA|10.40.25.53|||101571767266|145
21.10.2018 21:00:00||FIBABANKA|10.40.27.51|||101571767266|30
21.10.2018 21:00:00||FIBABANKA|10.40.27.51|||101571767266|20
21.10.2018 21:00:00||FIBABANKA|10.40.27.51|||101571767266|100
21.10.2018 21:00:00||FIBABANKA|10.40.27.51|||101571767266|140
21.10.2018 21:00:00||FIBABANKA|10.40.27.51|||101571767266|68
21.10.2018 21:00:00||FIBABANKA|10.40.27.51|||101571767266|40
21.10.2018 21:00:00||FIBABANKA|10.40.27.51|||101571767266|40
21.10.2018 21:00:00||FIBABANKA|10.40.26.51|||101571767266|10
21.10.2018 21:00:00||FIBABANKA|10.40.26.51|||101571767266|110
21.10.2018 21:00:00||FIBABANKA|10.40.26.51|||101571767266|130
21.10.2018 21:00:00||FIBABANKA|10.40.26.51|||101571767266|30
21.10.2018 21:00:00||FIBABANKA|10.40.26.51|||101571767266|30
21.10.2018 21:00:00||FIBABANKA|10.40.24.74|||101571767266|30
21.10.2018 21:00:00||FIBABANKA|10.40.25.76|||101571767266|60
21.10.2018 21:00:00||FIBABANKA|10.40.25.76|||101571767266|40
21.10.2018 21:00:00||FIBABANKA|10.40.25.76|||101571767266|10
21.10.2018 21:00:00||FIBABANKA|10.40.26.53|||101571767266|40
21.10.2018 21:00:00||FIBABANKA|10.40.26.53|||101571767266|145
21.10.2018 21:00:00||FIBABANKA|10.40.25.76|||101571767266|10
21.10.2018 21:00:00||FIBABANKA|10.40.27.53|||101571767266|152
21.10.2018 21:00:00||FIBABANKA|10.40.27.53|||101571767266|175
21.10.2018 21:00:00||FIBABANKA|10.40.26.53|||101571767266|163
21.10.2018 21:00:00||FIBABANKA|10.40.27.57|||101571767266|83
21.10.2018 21:00:00||FIBABANKA|10.40.27.57|||101571767266|80
21.10.2018 21:00:00||FIBABANKA|10.40.27.57|||101571767266|80
21.10.2018 21:00:00||HAVAŞ|10.40.24.48|||110000479675|752
21.10.2018 21:00:00||HAVAŞ|10.40.24.48|||110000479675|757
21.10.2018 21:00:00||HAVAŞ|10.40.25.48|||110000479675|747
21.10.2018 21:00:00||HAVAŞ|10.40.24.45|||110000479675|70
21.10.2018 21:00:00||HAVAŞ|10.40.25.45|||110000479675|67
21.10.2018 21:00:00||HAVAŞ|10.40.25.47|||110000479675|70
21.10.2018 21:00:00||HAVAŞ|10.40.24.46|||110000479675|80
21.10.2018 21:00:00||HAVAŞ|10.40.24.47|||110000479675|30
21.10.2018 21:00:00||HAVAŞ|10.40.24.47|||110000479675|90
21.10.2018 21:00:00||HAVAŞ|10.40.24.47|||110000479675|90
21.10.2018 21:00:00||HAVAŞ|10.40.25.46|||110000479675|10
21.10.2018 21:00:00||HAVAŞ|10.40.25.46|||110000479675|60
21.10.2018 21:00:00||HAVAŞ|10.40.24.48|||110000479675|753
21.10.2018 21:00:00||HAVAŞ|10.40.24.46|||110000479675|60
21.10.2018 21:00:00||HAVAŞ|10.40.24.46|||110000479675|70
21.10.2018 21:00:00||HAVAŞ|10.40.24.47|||110000479675|12
21.10.2018 21:00:00||HAVAŞ|10.40.25.48|||110000479675|747
21.10.2018 21:00:00||HAVAŞ|10.40.25.48|||110000479675|762
21.10.2018 21:00:00||HAVAŞ|10.40.25.45|||110000479675|98
21.10.2018 21:00:00||HAVAŞ|10.40.24.45|||110000479675|50
21.10.2018 21:00:00||HAVAŞ|10.40.24.45|||110000479675|170
21.10.2018 21:00:00||HAVAŞ|10.40.24.45|||110000479675|100
21.10.2018 21:00:00||HAVAŞ|10.40.25.47|||110000479675|70
21.10.2018 21:00:00||HAVAŞ|10.40.25.47|||110000479675|227
21.10.2018 21:00:00||HAVAŞ|10.40.25.47|||110000479675|55
21.10.2018 21:00:00||HAVAŞ|10.40.25.47|||110000479675|88
21.10.2018 21:00:00||HAVAŞ|10.40.25.47|||110000479675|90
21.10.2018 21:00:00||HAVAŞ|10.40.25.47|||110000479675|90
21.10.2018 21:00:00||HAVAŞ|10.40.25.47|||110000479675|110
21.10.2018 21:00:00||HAVAŞ|10.40.25.47|||110000479675|178
21.10.2018 21:00:00||HAVAŞ|10.40.25.47|||110000479675|90
21.10.2018 21:00:00||HAVAŞ|10.40.25.47|||110000479675|90
21.10.2018 21:00:00||HAVAŞ|10.40.25.47|||110000479675|90
21.10.2018 21:00:00||HAVAŞ|10.40.25.45|||110000479675|102
21.10.2018 21:00:00||HAVAŞ|10.40.25.45|||110000479675|88
21.10.2018 21:00:00||HAVAŞ|10.40.25.46|||110000479675|10
21.10.2018 21:00:00||HAVAŞ|10.40.25.46|||110000479675|10
21.10.2018 21:00:00||HAVAŞ|10.40.25.46|||110000479675|20
21.10.2018 21:00:00||HAVAŞ|10.40.25.46|||110000479675|20
21.10.2018 21:00:00||HAVAŞ|10.40.25.46|||110000479675|52
21.10.2018 21:00:00||HAVAŞ|10.40.25.46|||110000479675|100
21.10.2018 21:00:00||HAVAŞ|10.40.25.46|||110000479675|53
21.10.2018 21:00:00||HAVAŞ|10.40.25.46|||110000479675|70
21.10.2018 21:00:00||HAVAŞ|10.40.25.46|||110000479675|70
21.10.2018 21:00:00||HAVAŞ|10.40.24.46|||110000479675|20
21.10.2018 21:00:00||HAVAŞ|10.40.24.46|||110000479675|20
21.10.2018 21:00:00||HAVAŞ|10.40.24.46|||110000479675|10
21.10.2018 21:00:00||HAVAŞ|10.40.24.46|||110000479675|10
21.10.2018 21:00:00||HAVAŞ|10.40.24.46|||110000479675|10
21.10.2018 21:00:00||HAVAŞ|10.40.24.46|||110000479675|60
21.10.2018 21:00:00||HAVAŞ|10.40.24.46|||110000479675|110
21.10.2018 21:00:00||HAVAŞ|10.40.24.47|||110000479675|30
21.10.2018 21:00:00||HAVAŞ|10.40.24.47|||110000479675|213
21.10.2018 21:00:00||HAVAŞ|10.40.24.47|||110000479675|60
21.10.2018 21:00:00||HAVAŞ|10.40.24.47|||110000479675|57
21.10.2018 21:00:00||HAVAŞ|10.40.24.47|||110000479675|158
21.10.2018 21:00:00||HAVAŞ|10.40.24.47|||110000479675|100
21.10.2018 21:00:00||HAVAŞ|10.40.24.47|||110000479675|102
21.10.2018 21:00:00||HAVAŞ|10.40.24.46|||110000479675|10
21.10.2018 21:00:00||MARS CINEMA|10.40.24.203|||110000472614|80
21.10.2018 21:00:00||MARS CINEMA|10.40.24.203|||110000472614|163
21.10.2018 21:00:00||MARS CINEMA|10.40.24.203|||110000472614|80
21.10.2018 21:00:00||MARS CINEMA|10.40.24.204|||110000472614|60
21.10.2018 21:00:00||MARS CINEMA|10.40.24.203|||110000472614|100
21.10.2018 21:00:00||MARS CINEMA|10.40.24.204|||110000472614|20
21.10.2018 21:00:00||MARS CINEMA|10.40.24.204|||110000472614|92
21.10.2018 21:00:00||MARS CINEMA|10.40.25.203|||110000472614|150
21.10.2018 21:00:00||MARS CINEMA|10.40.25.203|||110000472614|90
21.10.2018 21:00:00||MARS CINEMA|10.40.25.203|||110000472614|177
21.10.2018 21:00:00||MARS CINEMA|10.40.25.203|||110000472614|95
21.10.2018 21:00:00||MARS CINEMA|10.40.25.203|||110000472614|80
21.10.2018 21:00:00||MARS CINEMA|10.40.25.203|||110000472614|113
21.10.2018 21:00:00||MARS CINEMA|10.40.25.203|||110000472614|78
21.10.2018 21:00:00||MARS CINEMA|10.40.25.203|||110000472614|153
21.10.2018 21:00:00||MARS CINEMA|10.40.25.203|||110000472614|90
21.10.2018 21:00:00||MARS CINEMA|10.40.25.203|||110000472614|110
21.10.2018 21:00:00||MARS CINEMA|10.40.25.203|||110000472614|90
21.10.2018 21:00:00||MARS CINEMA|10.40.25.203|||110000472614|62
21.10.2018 21:00:00||MARS CINEMA|10.40.25.203|||110000472614|187
21.10.2018 21:00:00||MARS CINEMA|10.40.25.204|||110000472614|110
21.10.2018 21:00:00||MARS CINEMA|10.40.25.204|||110000472614|70
21.10.2018 21:00:00||MARS CINEMA|10.40.25.204|||110000472614|80
21.10.2018 21:00:00||MARS CINEMA|10.40.25.204|||110000472614|100
21.10.2018 21:00:00||MARS CINEMA|10.40.25.204|||110000472614|20
21.10.2018 21:00:00||MARS CINEMA|10.40.25.204|||110000472614|20
21.10.2018 21:00:00||MARS CINEMA|10.40.25.204|||110000472614|30
21.10.2018 21:00:00||MARS CINEMA|10.40.25.204|||110000472614|40
21.10.2018 21:00:00||MARS CINEMA|10.40.25.204|||110000472614|90
21.10.2018 21:00:00||MARS CINEMA|10.40.25.204|||110000472614|120
21.10.2018 21:00:00||MARS CINEMA|10.40.25.204|||110000472614|80
21.10.2018 21:00:00||MARS CINEMA|10.40.25.204|||110000472614|80
21.10.2018 21:00:00||MARS CINEMA|10.40.25.204|||110000472614|110
21.10.2018 21:00:00||MARS CINEMA|10.40.25.204|||110000472614|100
21.10.2018 21:00:00||MARS CINEMA|10.40.24.203|||110000472614|80
21.10.2018 21:00:00||MARS CINEMA|10.40.24.203|||110000472614|90
21.10.2018 21:00:00||MARS CINEMA|10.40.24.203|||110000472614|140
21.10.2018 21:00:00||MARS CINEMA|10.40.24.203|||110000472614|50
21.10.2018 21:00:00||MARS CINEMA|10.40.24.203|||110000472614|140
21.10.2018 21:00:00||MARS CINEMA|10.40.24.203|||110000472614|152
21.10.2018 21:00:00||MARS CINEMA|10.40.24.203|||110000472614|100
21.10.2018 21:00:00||MARS CINEMA|10.40.24.203|||110000472614|182
21.10.2018 21:00:00||MARS CINEMA|10.40.24.204|||110000472614|110
21.10.2018 21:00:00||MARS CINEMA|10.40.24.204|||110000472614|93
21.10.2018 21:00:00||MARS CINEMA|10.40.24.204|||110000472614|95
21.10.2018 21:00:00||MARS CINEMA|10.40.24.204|||110000472614|20
21.10.2018 21:00:00||MARS CINEMA|10.40.24.204|||110000472614|10
21.10.2018 21:00:00||MARS CINEMA|10.40.24.204|||110000472614|90
21.10.2018 21:00:00||MARS CINEMA|10.40.24.204|||110000472614|117
21.10.2018 21:00:00||MARS CINEMA|10.40.24.204|||110000472614|90
21.10.2018 21:00:00||MARS CINEMA|10.40.24.204|||110000472614|107
21.10.2018 21:00:00||MARS CINEMA|10.40.24.204|||110000472614|82
21.10.2018 21:00:00||MARS CINEMA|10.40.25.206|||110000472614|122
21.10.2018 21:00:00||MARS CINEMA|10.40.25.206|||110000472614|40
21.10.2018 21:00:00||MARS CINEMA|10.40.25.206|||110000472614|40
21.10.2018 21:00:00||MARS CINEMA|10.40.25.206|||110000472614|40
21.10.2018 21:00:00||MARS CINEMA|10.40.25.206|||110000472614|20
21.10.2018 21:00:00||MARS CINEMA|10.40.25.206|||110000472614|20
21.10.2018 21:00:00||MARS CINEMA|10.40.25.206|||110000472614|30
21.10.2018 21:00:00||MARS CINEMA|10.40.25.206|||110000472614|60
21.10.2018 21:00:00||MARS CINEMA|10.40.25.206|||110000472614|40
21.10.2018 21:00:00||MARS CINEMA|10.40.25.206|||110000472614|90
21.10.2018 21:00:00||MARS CINEMA|10.40.25.206|||110000472614|90
21.10.2018 21:00:00||MARS CINEMA|10.40.24.206|||110000472614|153
21.10.2018 21:00:00||MARS CINEMA|10.40.24.206|||110000472614|40
21.10.2018 21:00:00||MARS CINEMA|10.40.24.206|||110000472614|40
21.10.2018 21:00:00||MARS CINEMA|10.40.24.206|||110000472614|42
21.10.2018 21:00:00||MARS CINEMA|10.40.24.206|||110000472614|30
21.10.2018 21:00:00||MARS CINEMA|10.40.24.206|||110000472614|30
21.10.2018 21:00:00||MARS CINEMA|10.40.24.206|||110000472614|200
21.10.2018 21:00:00||MARS CINEMA|10.40.24.206|||110000472614|160
21.10.2018 21:00:00||MARS CINEMA|10.40.24.206|||110000472614|20
21.10.2018 21:00:00||MARS CINEMA|10.40.24.206|||110000472614|80
21.10.2018 21:00:00||MARS CINEMA|10.40.24.206|||110000472614|78
21.10.2018 21:00:00||MARS CINEMA|10.40.24.203|||110000472614|100
21.10.2018 21:00:00||MARS CINEMA|10.40.24.204|||110000472614|40
21.10.2018 21:00:00||PEGASUS|10.40.27.66|||110000423831|113
21.10.2018 21:00:00||PEGASUS|10.40.26.66|||110000423831|93
21.10.2018 21:00:00||PEGASUS|10.40.26.84|||110000423831|219
21.10.2018 21:00:00||PEGASUS|10.40.27.85|||110000423831|119
21.10.2018 21:00:00||PEGASUS|10.40.26.85|||110000423831|122
21.10.2018 21:00:00||PEGASUS|10.40.27.64|||110000423831|70
21.10.2018 21:00:00||PEGASUS|10.40.27.64|||110000423831|70
21.10.2018 21:00:00||PEGASUS|10.40.27.63|||110000423831|60
21.10.2018 21:00:00||PEGASUS|10.40.27.63|||110000423831|70
21.10.2018 21:00:00||PEGASUS|10.40.27.63|||110000423831|90
21.10.2018 21:00:00||PEGASUS|10.40.26.63|||110000423831|110
21.10.2018 21:00:00||PEGASUS|10.40.27.67|||110000423831|360
21.10.2018 21:00:00||PEGASUS|10.40.27.64|||110000423831|272
21.10.2018 21:00:00||PEGASUS|10.40.27.64|||110000423831|260
21.10.2018 21:00:00||PEGASUS|10.40.27.63|||110000423831|73
21.10.2018 21:00:00||PEGASUS|10.40.27.63|||110000423831|63
21.10.2018 21:00:00||PEGASUS|10.40.27.63|||110000423831|80
21.10.2018 21:00:00||PEGASUS|10.40.26.63|||110000423831|110
21.10.2018 21:00:00||PEGASUS|10.40.26.63|||110000423831|110
21.10.2018 21:00:00||PEGASUS|10.40.27.81|||110000423831|453
21.10.2018 21:00:00||PEGASUS|10.40.27.81|||110000423831|423
21.10.2018 21:00:00||PEGASUS|10.40.26.63|||110000423831|90
21.10.2018 21:00:00||PEGASUS|10.40.26.63|||110000423831|60
21.10.2018 21:00:00||PEGASUS|10.40.26.67|||110000423831|30
21.10.2018 21:00:00||PEGASUS|10.40.26.67|||110000423831|340
21.10.2018 21:00:00||PEGASUS|10.40.26.67|||110000423831|62
21.10.2018 21:00:00||PEGASUS|10.40.26.67|||110000423831|40
21.10.2018 21:00:00||PEGASUS|10.40.26.67|||110000423831|70
21.10.2018 21:00:00||PEGASUS|10.40.26.68|||110000423831|100
21.10.2018 21:00:00||PEGASUS|10.40.27.64|||110000423831|282
21.10.2018 21:00:00||PEGASUS|10.40.27.64|||110000423831|262
21.10.2018 21:00:00||PEGASUS|10.40.27.64|||110000423831|292
21.10.2018 21:00:00||PEGASUS|10.40.27.64|||110000423831|273
21.10.2018 21:00:00||PEGASUS|10.40.27.64|||110000423831|272
21.10.2018 21:00:00||PEGASUS|10.40.27.86|||110000423831|340
21.10.2018 21:00:00||PEGASUS|10.40.27.63|||110000423831|90
21.10.2018 21:00:00||PEGASUS|10.40.26.63|||110000423831|130
21.10.2018 21:00:00||PEGASUS|10.40.26.63|||110000423831|60
21.10.2018 21:00:00||PEGASUS|10.40.26.63|||110000423831|80
21.10.2018 21:00:00||PEGASUS|10.40.26.67|||110000423831|340
21.10.2018 21:00:00||PEGASUS|10.40.27.63|||110000423831|50
21.10.2018 21:00:00||PEGASUS|10.40.27.63|||110000423831|60
21.10.2018 21:00:00||PEGASUS|10.40.27.81|||110000423831|430
21.10.2018 21:00:00||PEGASUS|10.40.26.62|||110000423831|90
21.10.2018 21:00:00||PEGASUS|10.40.26.63|||110000423831|50
21.10.2018 21:00:00||PEGASUS|10.40.26.63|||110000423831|100
21.10.2018 21:00:00||PEGASUS|10.40.26.63|||110000423831|40
21.10.2018 21:00:00||PEGASUS|10.40.26.63|||110000423831|70
21.10.2018 21:00:00||PEGASUS|10.40.26.67|||110000423831|342
21.10.2018 21:00:00||PEGASUS|10.40.27.64|||110000423831|282
21.10.2018 21:00:00||PEGASUS|10.40.27.64|||110000423831|273
21.10.2018 21:00:00||PEGASUS|10.40.27.64|||110000423831|265
21.10.2018 21:00:00||PEGASUS|10.40.27.64|||110000423831|313
21.10.2018 21:00:00||PEGASUS|10.40.27.64|||110000423831|327
21.10.2018 21:00:00||PEGASUS|10.40.27.86|||110000423831|40
21.10.2018 21:00:00||PEGASUS|10.40.27.63|||110000423831|67
21.10.2018 21:00:00||PEGASUS|10.40.27.63|||110000423831|80
21.10.2018 21:00:00||PEGASUS|10.40.27.63|||110000423831|80
21.10.2018 21:00:00||PEGASUS|10.40.27.63|||110000423831|90
21.10.2018 21:00:00||PEGASUS|10.40.27.63|||110000423831|157
21.10.2018 21:00:00||PEGASUS|10.40.27.63|||110000423831|225
21.10.2018 21:00:00||PEGASUS|10.40.27.63|||110000423831|52
21.10.2018 21:00:00||PEGASUS|10.40.26.64|||110000423831|80
21.10.2018 21:00:00||PEGASUS|10.40.26.64|||110000423831|80
21.10.2018 21:00:00||PEGASUS|10.40.26.82|||110000423831|210
21.10.2018 21:00:00||PEGASUS|10.40.26.82|||110000423831|110
21.10.2018 21:00:00||PEGASUS|10.40.26.82|||110000423831|80
21.10.2018 21:00:00||PEGASUS|10.40.26.82|||110000423831|150
21.10.2018 21:00:00||PEGASUS|10.40.26.82|||110000423831|140
21.10.2018 21:00:00||PEGASUS|10.40.26.82|||110000423831|140
21.10.2018 21:00:00||PEGASUS|10.40.26.82|||110000423831|180
21.10.2018 21:00:00||PEGASUS|10.40.26.82|||110000423831|30
21.10.2018 21:00:00||PEGASUS|10.40.26.82|||110000423831|40
21.10.2018 21:00:00||PEGASUS|10.40.26.82|||110000423831|20
21.10.2018 21:00:00||PEGASUS|10.40.26.82|||110000423831|70
21.10.2018 21:00:00||PEGASUS|10.40.26.82|||110000423831|50
21.10.2018 21:00:00||PEGASUS|10.40.26.82|||110000423831|40
21.10.2018 21:00:00||PEGASUS|10.40.27.83|||110000423831|582
21.10.2018 21:00:00||PEGASUS|10.40.27.83|||110000423831|70
21.10.2018 21:00:00||PEGASUS|10.40.27.83|||110000423831|567
21.10.2018 21:00:00||PEGASUS|10.40.27.83|||110000423831|565
21.10.2018 21:00:00||PEGASUS|10.40.27.83|||110000423831|77
21.10.2018 21:00:00||PEGASUS|10.40.26.83|||110000423831|515
21.10.2018 21:00:00||PEGASUS|10.40.26.83|||110000423831|50
21.10.2018 21:00:00||PEGASUS|10.40.26.83|||110000423831|398
21.10.2018 21:00:00||PEGASUS|10.40.26.83|||110000423831|510
21.10.2018 21:00:00||PEGASUS|10.40.26.83|||110000423831|512
21.10.2018 21:00:00||PEGASUS|10.40.26.86|||110000423831|360
21.10.2018 21:00:00||PEGASUS|10.40.26.86|||110000423831|135
21.10.2018 21:00:00||PEGASUS|10.40.26.86|||110000423831|350
21.10.2018 21:00:00||PEGASUS|10.40.26.86|||110000423831|50
21.10.2018 21:00:00||PEGASUS|10.40.26.86|||110000423831|30
21.10.2018 21:00:00||PEGASUS|10.40.26.86|||110000423831|350
21.10.2018 21:00:00||PEGASUS|10.40.26.86|||110000423831|40
21.10.2018 21:00:00||PEGASUS|10.40.27.87|||110000423831|90
21.10.2018 21:00:00||PEGASUS|10.40.27.87|||110000423831|90
21.10.2018 21:00:00||PEGASUS|10.40.27.87|||110000423831|90
21.10.2018 21:00:00||PEGASUS|10.40.27.87|||110000423831|20
21.10.2018 21:00:00||PEGASUS|10.40.26.87|||110000423831|90
21.10.2018 21:00:00||PEGASUS|10.40.26.87|||110000423831|90
21.10.2018 21:00:00||PEGASUS|10.40.26.87|||110000423831|90
21.10.2018 21:00:00||PEGASUS|10.40.26.87|||110000423831|60
21.10.2018 21:00:00||PEGASUS|10.40.26.87|||110000423831|20
21.10.2018 21:00:00||PEGASUS|10.40.26.81|||110000423831|400
21.10.2018 21:00:00||PEGASUS|10.40.26.81|||110000423831|415
21.10.2018 21:00:00||PEGASUS|10.40.26.81|||110000423831|417
21.10.2018 21:00:00||PEGASUS|10.40.27.82|||110000423831|220
21.10.2018 21:00:00||PEGASUS|10.40.27.82|||110000423831|30
21.10.2018 21:00:00||PEGASUS|10.40.27.82|||110000423831|110
21.10.2018 21:00:00||PEGASUS|10.40.27.82|||110000423831|80
21.10.2018 21:00:00||PEGASUS|10.40.27.82|||110000423831|160
21.10.2018 21:00:00||PEGASUS|10.40.27.82|||110000423831|123
21.10.2018 21:00:00||PEGASUS|10.40.27.82|||110000423831|172
21.10.2018 21:00:00||PEGASUS|10.40.27.82|||110000423831|118
21.10.2018 21:00:00||PEGASUS|10.40.27.82|||110000423831|60
21.10.2018 21:00:00||PEGASUS|10.40.27.82|||110000423831|83
21.10.2018 21:00:00||PEGASUS|10.40.27.82|||110000423831|50
21.10.2018 21:00:00||PEGASUS|10.40.27.82|||110000423831|38
21.10.2018 21:00:00||PEGASUS|10.40.27.82|||110000423831|40
21.10.2018 21:00:00||PEGASUS|10.40.27.67|||110000423831|50
21.10.2018 21:00:00||PEGASUS|10.40.27.67|||110000423831|70
21.10.2018 21:00:00||PEGASUS|10.40.27.67|||110000423831|130
21.10.2018 21:00:00||PEGASUS|10.40.27.67|||110000423831|10
21.10.2018 21:00:00||PEGASUS|10.40.27.67|||110000423831|340
21.10.2018 21:00:00||PEGASUS|10.40.27.82|||110000423831|75
21.10.2018 21:00:00||PEGASUS|10.40.27.86|||110000423831|170
21.10.2018 21:00:00||PEGASUS|10.40.27.86|||110000423831|70
21.10.2018 21:00:00||PEGASUS|10.40.27.86|||110000423831|20
21.10.2018 21:00:00||PEGASUS|10.40.27.86|||110000423831|350
21.10.2018 21:00:00||PEGASUS|10.40.27.67|||110000423831|340
21.10.2018 21:00:00||PEGASUS|10.40.27.67|||110000423831|40
21.10.2018 21:00:00||PEGASUS|10.40.26.62|||110000423831|10
21.10.2018 21:00:00||PEGASUS|10.40.26.62|||110000423831|190
21.10.2018 21:00:00||PEGASUS|10.40.26.63|||110000423831|70
21.10.2018 21:00:00||PEGASUS|10.40.26.63|||110000423831|30
21.10.2018 21:00:00||PEGASUS|10.40.26.63|||110000423831|60
21.10.2018 21:00:00||PEGASUS|10.40.26.63|||110000423831|30
21.10.2018 21:00:00||PEGASUS|10.40.26.63|||110000423831|230
21.10.2018 21:00:00||PEGASUS|10.40.26.63|||110000423831|140
21.10.2018 21:00:00||PEGASUS|10.40.26.63|||110000423831|110
21.10.2018 21:00:00||PEGASUS|10.40.26.63|||110000423831|60
21.10.2018 21:00:00||PEGASUS|10.40.26.67|||110000423831|168
21.10.2018 21:00:00||PEGASUS|10.40.27.68|||110000423831|90
21.10.2018 21:00:00||PEGASUS|10.40.27.68|||110000423831|83
21.10.2018 21:00:00||PEGASUS|10.40.27.68|||110000423831|90
21.10.2018 21:00:00||PEGASUS|10.40.27.68|||110000423831|50
21.10.2018 21:00:00||PEGASUS|10.40.26.68|||110000423831|90
21.10.2018 21:00:00||PEGASUS|10.40.26.68|||110000423831|90
21.10.2018 21:00:00||PEGASUS|10.40.26.68|||110000423831|50
21.10.2018 21:00:00||PEGASUS|10.40.27.63|||110000423831|40
21.10.2018 21:00:00||PEGASUS|10.40.27.86|||110000423831|340
21.10.2018 21:00:00||PEGASUS|10.40.27.63|||110000423831|50
21.10.2018 21:00:00||PEGASUS|10.40.27.63|||110000423831|60
21.10.2018 21:00:00||PWC|10.40.24.66|||110000433262|88
21.10.2018 21:00:00||PWC|10.40.24.66|||110000433262|10
21.10.2018 21:00:00||PWC|10.40.24.66|||110000433262|30
21.10.2018 21:00:00||PWC|10.40.24.66|||110000433262|58
21.10.2018 21:00:00||PWC|10.40.24.66|||110000433262|440
21.10.2018 21:00:00||PWC|10.40.24.68|||110000433262|162
21.10.2018 21:00:00||PWC|10.40.24.66|||110000433262|45
21.10.2018 21:00:00||PWC|10.40.24.66|||110000433262|210
21.10.2018 21:00:00||PWC|10.40.24.66|||110000433262|210
21.10.2018 21:00:00||PWC|10.40.25.67|||110000433262|80
21.10.2018 21:00:00||PWC|10.40.25.67|||110000433262|90
21.10.2018 21:00:00||PWC|10.40.25.67|||110000433262|320
21.10.2018 21:00:00||PWC|10.40.25.67|||110000433262|250
21.10.2018 21:00:00||PWC|10.40.25.67|||110000433262|240
21.10.2018 21:00:00||PWC|10.40.25.67|||110000433262|250
21.10.2018 21:00:00||PWC|10.40.25.67|||110000433262|50
21.10.2018 21:00:00||PWC|10.40.25.67|||110000433262|30
21.10.2018 21:00:00||PWC|10.40.25.67|||110000433262|120
21.10.2018 21:00:00||PWC|10.40.24.67|||110000433262|10
21.10.2018 21:00:00||PWC|10.40.24.67|||110000433262|10
21.10.2018 21:00:00||PWC|10.40.24.67|||110000433262|370
21.10.2018 21:00:00||PWC|10.40.24.67|||110000433262|30
21.10.2018 21:00:00||PWC|10.40.24.67|||110000433262|70
21.10.2018 21:00:00||PWC|10.40.24.67|||110000433262|120
21.10.2018 21:00:00||PWC|10.40.25.68|||110000433262|150
21.10.2018 21:00:00||PWC|10.40.25.68|||110000433262|222
21.10.2018 21:00:00||PWC|10.40.25.68|||110000433262|68
21.10.2018 21:00:00||PWC|10.40.25.68|||110000433262|73
21.10.2018 21:00:00||PWC|10.40.25.68|||110000433262|150
21.10.2018 21:00:00||PWC|10.40.24.66|||110000433262|60
21.10.2018 21:00:00||PWC|10.40.24.66|||110000433262|30
21.10.2018 21:00:00||PWC|10.40.24.66|||110000433262|30
21.10.2018 21:00:00||PWC|10.40.24.68|||110000433262|122
21.10.2018 21:00:00||PWC|10.40.24.68|||110000433262|192
21.10.2018 21:00:00||PWC|10.40.24.68|||110000433262|462
21.10.2018 21:00:00||PWC|10.40.24.68|||110000433262|70
21.10.2018 21:00:00||PWC|10.40.24.68|||110000433262|62
21.10.2018 21:00:00||VSMART BİLGİ TEKNOLOJİLERİ|10.40.24.62|||110000474326|40
21.10.2018 21:00:00||VSMART BİLGİ TEKNOLOJİLERİ|10.40.24.62|||110000474326|70
21.10.2018 21:00:00||VSMART BİLGİ TEKNOLOJİLERİ|10.40.24.62|||110000474326|32
21.10.2018 21:00:00||VSMART BİLGİ TEKNOLOJİLERİ|10.40.25.62|||110000474326|68
21.10.2018 21:00:00||VSMART BİLGİ TEKNOLOJİLERİ|10.40.24.62|||110000474326|40
21.10.2018 21:00:00||VSMART BİLGİ TEKNOLOJİLERİ|10.40.24.62|||110000474326|30
21.10.2018 21:00:00||VSMART BİLGİ TEKNOLOJİLERİ|10.40.24.62|||110000474326|10
21.10.2018 21:00:00||VSMART BİLGİ TEKNOLOJİLERİ|10.40.25.62|||110000474326|38
21.10.2018 21:00:00||VSMART BİLGİ TEKNOLOJİLERİ|10.40.25.62|||110000474326|10
21.10.2018 21:00:00||VSMART BİLGİ TEKNOLOJİLERİ|10.40.25.62|||110000474326|10
21.10.2018 21:00:00||VSMART BİLGİ TEKNOLOJİLERİ|10.40.25.62|||110000474326|80
21.10.2018 21:00:00||VSMART BİLGİ TEKNOLOJİLERİ|10.40.25.62|||110000474326|90
21.10.2018 21:00:00||VSMART BİLGİ TEKNOLOJİLERİ|10.40.25.62|||110000474326|102
21.10.2018 21:00:00||VSMART BİLGİ TEKNOLOJİLERİ|10.40.24.62|||110000474326|10
