9/23/2018 10:00:00 PM||HAVAS|10.40.24.45|||110000479675|412
9/23/2018 10:00:00 PM||HAVAS|10.40.25.46|||110000479675|490
9/23/2018 10:00:00 PM||HAVAS|10.40.24.47|||110000479675|1036
9/23/2018 10:00:00 PM||PWC|10.40.24.67|||110000433262|590
9/23/2018 10:00:00 PM||PWC|10.40.25.68|||110000433262|888
9/23/2018 10:00:00 PM||PWC|10.40.24.68|||110000433262|489
9/23/2018 10:00:00 PM||PWC|10.40.25.69|||110000433262|286
9/23/2018 10:00:00 PM||PWC|10.40.24.69|||110000433262|289
9/23/2018 10:00:00 PM||CALIK HOLDING|10.40.25.94|||110000438408|647
9/23/2018 10:00:00 PM||CALIK HOLDING|10.40.24.94|||110000438408|686
9/23/2018 10:00:00 PM||CALIK HOLDING|10.40.25.97|||110000438408|602
9/23/2018 10:00:00 PM||CALIK HOLDING|10.40.25.100|||110000438408|74
9/23/2018 10:00:00 PM||CALIK HOLDING|10.40.24.100|||110000438408|74
9/23/2018 10:00:00 PM||CALIK HOLDING|10.40.25.101|||110000438408|586
9/23/2018 10:00:00 PM||CALIK HOLDING|10.40.25.102|||110000438408|332
9/23/2018 10:00:00 PM||CALIK HOLDING|10.40.24.102|||110000438408|314
9/23/2018 10:00:00 PM||CALIK HOLDING|10.40.25.103|||110000438408|258
9/23/2018 10:00:00 PM||CALIK HOLDING|10.40.24.103|||110000438408|289
9/23/2018 10:00:00 PM||CALIK HOLDING|10.40.25.104|||110000438408|1149
9/23/2018 10:00:00 PM||CALIK HOLDING|10.40.25.115|||110000438408|557
9/23/2018 10:00:00 PM||CALIK HOLDING|10.40.24.115|||110000438408|564
9/23/2018 10:00:00 PM||CALIK HOLDING|10.40.25.116|||110000438408|473
9/23/2018 10:00:00 PM||CALIK HOLDING|10.40.24.116|||110000438408|459
9/23/2018 10:00:00 PM||CALIK HOLDING|10.40.25.117|||110000438408|306
9/23/2018 10:00:00 PM||CALIK HOLDING|10.40.24.117|||110000438408|271
9/23/2018 10:00:00 PM||CALIK HOLDING|10.40.25.119|||110000438408|70
9/23/2018 10:00:00 PM||CALIK HOLDING|10.40.24.119|||110000438408|222
9/23/2018 10:00:00 PM||CALIK HOLDING|10.40.25.120|||110000438408|570
9/23/2018 10:00:00 PM||CALIK HOLDING|10.40.24.120|||110000438408|556
9/23/2018 10:00:00 PM||CALIK HOLDING|10.40.25.121|||110000438408|319
9/23/2018 10:00:00 PM||CALIK HOLDING|10.40.24.121|||110000438408|312
9/23/2018 10:00:00 PM||CALIK HOLDING|10.40.25.122|||110000438408|244
9/23/2018 10:00:00 PM||CALIK HOLDING|10.40.24.122|||110000438408|290
9/23/2018 10:00:00 PM||AKTIFBANK|10.40.25.128|||110000438458|281
9/23/2018 10:00:00 PM||AKTIFBANK|10.40.24.128|||110000438458|442
9/23/2018 10:00:00 PM||AKTIFBANK|10.40.25.130|||110000438458|746
9/23/2018 10:00:00 PM||AKTIFBANK|10.40.24.130|||110000438458|667
9/23/2018 10:00:00 PM||AKTIFBANK|10.40.25.131|||110000438458|622
9/23/2018 10:00:00 PM||AKTIFBANK|10.40.24.131|||110000438458|612
9/23/2018 10:00:00 PM||AKTIFBANK|10.40.25.132|||110000438458|425
9/23/2018 10:00:00 PM||AKTIFBANK|10.40.24.132|||110000438458|417
9/23/2018 10:00:00 PM||AKTIFBANK|10.40.25.133|||110000438458|375
9/23/2018 10:00:00 PM||AKTIFBANK|10.40.24.133|||110000438458|661
9/23/2018 10:00:00 PM||AKTIFBANK|10.40.25.138|||110000438458|257
9/23/2018 10:00:00 PM||AKTIFBANK|10.40.24.138|||110000438458|571
9/23/2018 10:00:00 PM||AKTIFBANK|10.40.25.139|||110000438458|157
9/23/2018 10:00:00 PM||AKTIFBANK|10.40.24.139|||110000438458|238
9/23/2018 10:00:00 PM||AKTIFBANK|10.40.25.140|||110000438458|264
9/23/2018 10:00:00 PM||AKTIFBANK|10.40.24.140|||110000438458|359
9/23/2018 10:00:00 PM||AKTIFBANK|10.40.25.141|||110000438458|477
9/23/2018 10:00:00 PM||AKTIFBANK|10.40.24.141|||110000438458|634
9/23/2018 10:00:00 PM||AKTIFBANK|10.40.25.142|||110000438458|38
9/23/2018 10:00:00 PM||AKTIFBANK|10.40.24.142|||110000438458|109
9/23/2018 10:00:00 PM||AKTIFBANK|10.40.24.143|||110000438458|774
9/23/2018 10:00:00 PM||AKTIFBANK|10.40.25.144|||110000438458|183
9/23/2018 10:00:00 PM||AKTIFBANK|10.40.24.144|||110000438458|262
9/23/2018 10:00:00 PM||AKTIFBANK|10.40.25.145|||110000438458|293
9/23/2018 10:00:00 PM||AKTIFBANK|10.40.24.145|||110000438458|392
9/23/2018 10:00:00 PM||AKTIFBANK|10.40.25.147|||110000438458|87
9/23/2018 10:00:00 PM||AKTIFBANK|10.40.24.147|||110000438458|89
9/23/2018 10:00:00 PM||AKTIFBANK|10.40.25.148|||110000438458|997
9/23/2018 10:00:00 PM||AKTIFBANK|10.40.25.152|||110000438458|722
9/23/2018 10:00:00 PM||AKTIFBANK|10.40.25.153|||110000438458|217
9/23/2018 10:00:00 PM||AKTIFBANK|10.40.24.153|||110000438458|248
9/23/2018 10:00:00 PM||AKTIFBANK|10.40.25.154|||110000438458|42
9/23/2018 10:00:00 PM||AKTIFBANK|10.40.24.154|||110000438458|136
9/23/2018 10:00:00 PM||AKTIFBANK|10.40.25.155|||110000438458|484
9/23/2018 10:00:00 PM||AKTIFBANK|10.40.24.155|||110000438458|518
9/23/2018 10:00:00 PM||AKTIFBANK|10.40.25.157|||110000438458|334
9/23/2018 10:00:00 PM||AKTIFBANK|10.40.24.157|||110000438458|339
9/23/2018 10:00:00 PM||AKTIFBANK|10.40.25.158|||110000438458|159
9/23/2018 10:00:00 PM||AKTIFBANK|10.40.24.158|||110000438458|636
9/23/2018 10:00:00 PM||AKTIFBANK|10.40.25.159|||110000438458|164
9/23/2018 10:00:00 PM||AKTIFBANK|10.40.24.159|||110000438458|356
9/23/2018 10:00:00 PM||AKTIFBANK|10.40.25.160|||110000438458|196
9/23/2018 10:00:00 PM||AKTIFBANK|10.40.24.160|||110000438458|240
9/23/2018 10:00:00 PM||AKTIFBANK|10.40.25.161|||110000438458|250
9/23/2018 10:00:00 PM||AKTIFBANK|10.40.24.161|||110000438458|399
9/23/2018 10:00:00 PM||AKTIFBANK|10.40.25.162|||110000438458|246
9/23/2018 10:00:00 PM||AKTIFBANK|10.40.24.162|||110000438458|471
9/23/2018 10:00:00 PM||AKTIFBANK|10.40.25.163|||110000438458|45
9/23/2018 10:00:00 PM||AKTIFBANK|10.40.24.163|||110000438458|238
9/23/2018 10:00:00 PM||AKTIFBANK|10.40.25.164|||110000438458|881
9/23/2018 10:00:00 PM||AKTIFBANK|10.40.24.164|||110000438458|835
9/23/2018 10:00:00 PM||AKTIFBANK|10.40.25.165|||110000438458|319
9/23/2018 10:00:00 PM||AKTIFBANK|10.40.24.165|||110000438458|348
9/23/2018 10:00:00 PM||AKTIFBANK|10.40.25.166|||110000438458|136
9/23/2018 10:00:00 PM||AKTIFBANK|10.40.24.166|||110000438458|223
9/23/2018 10:00:00 PM||AKTIFBANK|10.40.25.168|||110000438458|318
9/23/2018 10:00:00 PM||AKTIFBANK|10.40.24.168|||110000438458|368
9/23/2018 10:00:00 PM||AKTIFBANK|10.40.25.169|||110000438458|333
9/23/2018 10:00:00 PM||AKTIFBANK|10.40.24.169|||110000438458|299
9/23/2018 10:00:00 PM||AKTIFBANK|10.40.25.170|||110000438458|442
9/23/2018 10:00:00 PM||AKTIFBANK|10.40.24.170|||110000438458|919
9/23/2018 10:00:00 PM||AKTIFBANK|10.40.25.179|||110000438458|919
9/23/2018 10:00:00 PM||AKTIFBANK|10.40.24.179|||110000438458|1026
9/23/2018 10:00:00 PM||AKTIFBANK|10.40.25.186|||110000438458|187
9/23/2018 10:00:00 PM||AKTIFBANK|10.40.24.186|||110000438458|209
9/23/2018 10:00:00 PM||MARS CINEMA|10.40.25.203|||110000472614|1341
9/23/2018 10:00:00 PM||MARS CINEMA|10.40.24.203|||110000472614|1340
9/23/2018 10:00:00 PM||MARS CINEMA|10.40.25.206|||110000472614|444
9/23/2018 10:00:00 PM||PEGASUS|10.40.26.62|||110000423831|303
9/23/2018 10:00:00 PM||PEGASUS|10.40.26.63|||110000423831|1746
9/23/2018 10:00:00 PM||PEGASUS|10.40.26.64|||110000423831|162
9/23/2018 10:00:00 PM||PEGASUS|10.40.27.67|||110000423831|1239
9/23/2018 10:00:00 PM||PEGASUS|10.40.27.68|||110000423831|319
9/23/2018 10:00:00 PM||PEGASUS|10.40.27.87|||110000423831|272
9/23/2018 10:00:00 PM||PEGASUS|10.40.26.87|||110000423831|304
9/23/2018 10:00:00 PM||BOYNER|10.40.27.95|||101367941673|480
9/23/2018 10:00:00 PM||BOYNER|10.40.26.95|||101367941673|432
9/23/2018 10:00:00 PM||BOYNER|10.40.27.96|||101367941673|861
9/23/2018 10:00:00 PM||BOYNER|10.40.26.96|||101367941673|904
9/23/2018 10:00:00 PM||BOYNER|10.40.27.99|||101367941673|285
9/23/2018 10:00:00 PM||BOYNER|10.40.26.99|||101367941673|301
