9/22/2018 10:00:00 PM||HAVAS|10.40.24.45|||110000479675|379
9/22/2018 10:00:00 PM||HAVAS|10.40.25.46|||110000479675|512
9/22/2018 10:00:00 PM||HAVAS|10.40.24.47|||110000479675|1016
9/22/2018 10:00:00 PM||PWC|10.40.24.67|||110000433262|575
9/22/2018 10:00:00 PM||PWC|10.40.25.68|||110000433262|933
9/22/2018 10:00:00 PM||PWC|10.40.24.68|||110000433262|473
9/22/2018 10:00:00 PM||PWC|10.40.25.69|||110000433262|276
9/22/2018 10:00:00 PM||PWC|10.40.24.69|||110000433262|278
9/22/2018 10:00:00 PM||CALIK HOLDING|10.40.25.94|||110000438408|689
9/22/2018 10:00:00 PM||CALIK HOLDING|10.40.24.94|||110000438408|732
9/22/2018 10:00:00 PM||CALIK HOLDING|10.40.25.97|||110000438408|620
9/22/2018 10:00:00 PM||CALIK HOLDING|10.40.25.100|||110000438408|77
9/22/2018 10:00:00 PM||CALIK HOLDING|10.40.24.100|||110000438408|71
9/22/2018 10:00:00 PM||CALIK HOLDING|10.40.25.101|||110000438408|610
9/22/2018 10:00:00 PM||CALIK HOLDING|10.40.25.102|||110000438408|322
9/22/2018 10:00:00 PM||CALIK HOLDING|10.40.24.102|||110000438408|303
9/22/2018 10:00:00 PM||CALIK HOLDING|10.40.25.103|||110000438408|266
9/22/2018 10:00:00 PM||CALIK HOLDING|10.40.24.103|||110000438408|290
9/22/2018 10:00:00 PM||CALIK HOLDING|10.40.25.104|||110000438408|1106
9/22/2018 10:00:00 PM||CALIK HOLDING|10.40.25.115|||110000438408|577
9/22/2018 10:00:00 PM||CALIK HOLDING|10.40.24.115|||110000438408|583
9/22/2018 10:00:00 PM||CALIK HOLDING|10.40.25.116|||110000438408|493
9/22/2018 10:00:00 PM||CALIK HOLDING|10.40.24.116|||110000438408|479
9/22/2018 10:00:00 PM||CALIK HOLDING|10.40.25.117|||110000438408|315
9/22/2018 10:00:00 PM||CALIK HOLDING|10.40.24.117|||110000438408|272
9/22/2018 10:00:00 PM||CALIK HOLDING|10.40.25.119|||110000438408|68
9/22/2018 10:00:00 PM||CALIK HOLDING|10.40.24.119|||110000438408|214
9/22/2018 10:00:00 PM||CALIK HOLDING|10.40.25.120|||110000438408|550
9/22/2018 10:00:00 PM||CALIK HOLDING|10.40.24.120|||110000438408|576
9/22/2018 10:00:00 PM||CALIK HOLDING|10.40.25.121|||110000438408|308
9/22/2018 10:00:00 PM||CALIK HOLDING|10.40.24.121|||110000438408|325
9/22/2018 10:00:00 PM||CALIK HOLDING|10.40.25.122|||110000438408|254
9/22/2018 10:00:00 PM||CALIK HOLDING|10.40.24.122|||110000438408|301
9/22/2018 10:00:00 PM||AKTIFBANK|10.40.25.128|||110000438458|267
9/22/2018 10:00:00 PM||AKTIFBANK|10.40.24.128|||110000438458|463
9/22/2018 10:00:00 PM||AKTIFBANK|10.40.25.130|||110000438458|723
9/22/2018 10:00:00 PM||AKTIFBANK|10.40.24.130|||110000438458|686
9/22/2018 10:00:00 PM||AKTIFBANK|10.40.25.131|||110000438458|600
9/22/2018 10:00:00 PM||AKTIFBANK|10.40.24.131|||110000438458|637
9/22/2018 10:00:00 PM||AKTIFBANK|10.40.25.132|||110000438458|421
9/22/2018 10:00:00 PM||AKTIFBANK|10.40.24.132|||110000438458|413
9/22/2018 10:00:00 PM||AKTIFBANK|10.40.25.133|||110000438458|392
9/22/2018 10:00:00 PM||AKTIFBANK|10.40.24.133|||110000438458|689
9/22/2018 10:00:00 PM||AKTIFBANK|10.40.25.138|||110000438458|245
9/22/2018 10:00:00 PM||AKTIFBANK|10.40.24.138|||110000438458|570
9/22/2018 10:00:00 PM||AKTIFBANK|10.40.25.139|||110000438458|152
9/22/2018 10:00:00 PM||AKTIFBANK|10.40.24.139|||110000438458|231
9/22/2018 10:00:00 PM||AKTIFBANK|10.40.25.140|||110000438458|254
9/22/2018 10:00:00 PM||AKTIFBANK|10.40.24.140|||110000438458|346
9/22/2018 10:00:00 PM||AKTIFBANK|10.40.25.141|||110000438458|494
9/22/2018 10:00:00 PM||AKTIFBANK|10.40.24.141|||110000438458|657
9/22/2018 10:00:00 PM||AKTIFBANK|10.40.25.142|||110000438458|37
9/22/2018 10:00:00 PM||AKTIFBANK|10.40.24.142|||110000438458|115
9/22/2018 10:00:00 PM||AKTIFBANK|10.40.24.143|||110000438458|798
9/22/2018 10:00:00 PM||AKTIFBANK|10.40.25.144|||110000438458|177
9/22/2018 10:00:00 PM||AKTIFBANK|10.40.24.144|||110000438458|271
9/22/2018 10:00:00 PM||AKTIFBANK|10.40.25.145|||110000438458|282
9/22/2018 10:00:00 PM||AKTIFBANK|10.40.24.145|||110000438458|407
9/22/2018 10:00:00 PM||AKTIFBANK|10.40.25.147|||110000438458|84
9/22/2018 10:00:00 PM||AKTIFBANK|10.40.24.147|||110000438458|87
9/22/2018 10:00:00 PM||AKTIFBANK|10.40.25.148|||110000438458|971
9/22/2018 10:00:00 PM||AKTIFBANK|10.40.25.152|||110000438458|726
9/22/2018 10:00:00 PM||AKTIFBANK|10.40.25.153|||110000438458|224
9/22/2018 10:00:00 PM||AKTIFBANK|10.40.24.153|||110000438458|239
9/22/2018 10:00:00 PM||AKTIFBANK|10.40.25.154|||110000438458|41
9/22/2018 10:00:00 PM||AKTIFBANK|10.40.24.154|||110000438458|131
9/22/2018 10:00:00 PM||AKTIFBANK|10.40.25.155|||110000438458|466
9/22/2018 10:00:00 PM||AKTIFBANK|10.40.24.155|||110000438458|500
9/22/2018 10:00:00 PM||AKTIFBANK|10.40.25.157|||110000438458|324
9/22/2018 10:00:00 PM||AKTIFBANK|10.40.24.157|||110000438458|350
9/22/2018 10:00:00 PM||AKTIFBANK|10.40.25.158|||110000438458|153
9/22/2018 10:00:00 PM||AKTIFBANK|10.40.24.158|||110000438458|609
9/22/2018 10:00:00 PM||AKTIFBANK|10.40.25.159|||110000438458|158
9/22/2018 10:00:00 PM||AKTIFBANK|10.40.24.159|||110000438458|344
9/22/2018 10:00:00 PM||AKTIFBANK|10.40.25.160|||110000438458|189
9/22/2018 10:00:00 PM||AKTIFBANK|10.40.24.160|||110000438458|232
9/22/2018 10:00:00 PM||AKTIFBANK|10.40.25.161|||110000438458|241
9/22/2018 10:00:00 PM||AKTIFBANK|10.40.24.161|||110000438458|413
9/22/2018 10:00:00 PM||AKTIFBANK|10.40.25.162|||110000438458|240
9/22/2018 10:00:00 PM||AKTIFBANK|10.40.24.162|||110000438458|487
9/22/2018 10:00:00 PM||AKTIFBANK|10.40.25.163|||110000438458|46
9/22/2018 10:00:00 PM||AKTIFBANK|10.40.24.163|||110000438458|250
9/22/2018 10:00:00 PM||AKTIFBANK|10.40.25.164|||110000438458|855
9/22/2018 10:00:00 PM||AKTIFBANK|10.40.24.164|||110000438458|871
9/22/2018 10:00:00 PM||AKTIFBANK|10.40.25.165|||110000438458|309
9/22/2018 10:00:00 PM||AKTIFBANK|10.40.24.165|||110000438458|363
9/22/2018 10:00:00 PM||AKTIFBANK|10.40.25.166|||110000438458|132
9/22/2018 10:00:00 PM||AKTIFBANK|10.40.24.166|||110000438458|215
9/22/2018 10:00:00 PM||AKTIFBANK|10.40.25.168|||110000438458|307
9/22/2018 10:00:00 PM||AKTIFBANK|10.40.24.168|||110000438458|381
9/22/2018 10:00:00 PM||AKTIFBANK|10.40.25.169|||110000438458|322
9/22/2018 10:00:00 PM||AKTIFBANK|10.40.24.169|||110000438458|309
9/22/2018 10:00:00 PM||AKTIFBANK|10.40.25.170|||110000438458|583
9/22/2018 10:00:00 PM||AKTIFBANK|10.40.24.170|||110000438458|764
9/22/2018 10:00:00 PM||AKTIFBANK|10.40.25.179|||110000438458|956
9/22/2018 10:00:00 PM||AKTIFBANK|10.40.24.179|||110000438458|996
9/22/2018 10:00:00 PM||AKTIFBANK|10.40.25.186|||110000438458|181
9/22/2018 10:00:00 PM||AKTIFBANK|10.40.24.186|||110000438458|218
9/22/2018 10:00:00 PM||MARS CINEMA|10.40.25.203|||110000472614|1299
9/22/2018 10:00:00 PM||MARS CINEMA|10.40.24.203|||110000472614|1393
9/22/2018 10:00:00 PM||MARS CINEMA|10.40.25.206|||110000472614|461
9/22/2018 10:00:00 PM||PEGASUS|10.40.26.64|||110000423831|154
9/22/2018 10:00:00 PM||PEGASUS|10.40.27.67|||110000423831|1282
9/22/2018 10:00:00 PM||PEGASUS|10.40.27.68|||110000423831|320
9/22/2018 10:00:00 PM||PEGASUS|10.40.27.87|||110000423831|280
9/22/2018 10:00:00 PM||PEGASUS|10.40.26.87|||110000423831|292
9/22/2018 10:00:00 PM||BOYNER|10.40.27.95|||101367941673|468
9/22/2018 10:00:00 PM||BOYNER|10.40.26.95|||101367941673|449
9/22/2018 10:00:00 PM||BOYNER|10.40.27.96|||101367941673|825
9/22/2018 10:00:00 PM||BOYNER|10.40.26.96|||101367941673|937
9/22/2018 10:00:00 PM||BOYNER|10.40.27.99|||101367941673|276
9/22/2018 10:00:00 PM||BOYNER|10.40.26.99|||101367941673|312
