28.10.2018 00:00:00||AKTİFBANK|10.40.24.172|||110000438458|96
28.10.2018 00:00:00||AKTİFBANK|10.40.25.134|||110000438458|93
28.10.2018 00:00:00||AKTİFBANK|10.40.24.134|||110000438458|93
28.10.2018 00:00:00||AKTİFBANK|10.40.24.135|||110000438458|98
28.10.2018 00:00:00||AKTİFBANK|10.40.25.137|||110000438458|57
28.10.2018 00:00:00||AKTİFBANK|10.40.25.171|||110000438458|12
28.10.2018 00:00:00||AKTİFBANK|10.40.25.172|||110000438458|88
28.10.2018 00:00:00||AKTİFBANK|10.40.25.174|||110000438458|53
28.10.2018 00:00:00||AKTİFBANK|10.40.25.135|||110000438458|96
28.10.2018 00:00:00||AKTİFBANK|10.40.24.137|||110000438458|57
28.10.2018 00:00:00||AKTİFBANK|10.40.24.171|||110000438458|11
28.10.2018 00:00:00||AKTİFBANK|10.40.25.173|||110000438458|96
28.10.2018 00:00:00||AKTİFBANK|10.40.24.173|||110000438458|94
28.10.2018 00:00:00||AKTİFBANK|10.40.24.174|||110000438458|60
28.10.2018 00:00:00||AKTİFBANK|10.40.24.133|||110000438458|75
28.10.2018 00:00:00||AKTİFBANK|10.40.24.138|||110000438458|120
28.10.2018 00:00:00||AKTİFBANK|10.40.24.139|||110000438458|30
28.10.2018 00:00:00||AKTİFBANK|10.40.24.149|||110000438458|110
28.10.2018 00:00:00||AKTİFBANK|10.40.24.150|||110000438458|553
28.10.2018 00:00:00||AKTİFBANK|10.40.24.145|||110000438458|60
28.10.2018 00:00:00||AKTİFBANK|10.40.24.164|||110000438458|230
28.10.2018 00:00:00||AKTİFBANK|10.40.25.133|||110000438458|70
28.10.2018 00:00:00||AKTİFBANK|10.40.24.145|||110000438458|90
28.10.2018 00:00:00||AKTİFBANK|10.40.24.158|||110000438458|80
28.10.2018 00:00:00||AKTİFBANK|10.40.24.164|||110000438458|70
28.10.2018 00:00:00||AKTİFBANK|10.40.25.138|||110000438458|80
28.10.2018 00:00:00||AKTİFBANK|10.40.25.139|||110000438458|10
28.10.2018 00:00:00||AKTİFBANK|10.40.25.140|||110000438458|35
28.10.2018 00:00:00||AKTİFBANK|10.40.25.151|||110000438458|515
28.10.2018 00:00:00||AKTİFBANK|10.40.25.141|||110000438458|100
28.10.2018 00:00:00||AKTİFBANK|10.40.25.141|||110000438458|100
28.10.2018 00:00:00||AKTİFBANK|10.40.25.142|||110000438458|75
28.10.2018 00:00:00||AKTİFBANK|10.40.25.133|||110000438458|110
28.10.2018 00:00:00||AKTİFBANK|10.40.25.149|||110000438458|100
28.10.2018 00:00:00||AKTİFBANK|10.40.25.149|||110000438458|90
28.10.2018 00:00:00||AKTİFBANK|10.40.25.149|||110000438458|92
28.10.2018 00:00:00||AKTİFBANK|10.40.25.140|||110000438458|30
28.10.2018 00:00:00||AKTİFBANK|10.40.25.150|||110000438458|545
28.10.2018 00:00:00||AKTİFBANK|10.40.25.139|||110000438458|170
28.10.2018 00:00:00||AKTİFBANK|10.40.25.139|||110000438458|40
28.10.2018 00:00:00||AKTİFBANK|10.40.25.140|||110000438458|80
28.10.2018 00:00:00||AKTİFBANK|10.40.25.140|||110000438458|70
28.10.2018 00:00:00||AKTİFBANK|10.40.25.140|||110000438458|30
28.10.2018 00:00:00||AKTİFBANK|10.40.25.151|||110000438458|517
28.10.2018 00:00:00||AKTİFBANK|10.40.25.151|||110000438458|500
28.10.2018 00:00:00||AKTİFBANK|10.40.25.141|||110000438458|40
28.10.2018 00:00:00||AKTİFBANK|10.40.25.141|||110000438458|100
28.10.2018 00:00:00||AKTİFBANK|10.40.25.141|||110000438458|80
28.10.2018 00:00:00||AKTİFBANK|10.40.25.142|||110000438458|37
28.10.2018 00:00:00||AKTİFBANK|10.40.25.149|||110000438458|70
28.10.2018 00:00:00||AKTİFBANK|10.40.25.149|||110000438458|110
28.10.2018 00:00:00||AKTİFBANK|10.40.25.149|||110000438458|90
28.10.2018 00:00:00||AKTİFBANK|10.40.25.149|||110000438458|98
28.10.2018 00:00:00||AKTİFBANK|10.40.25.149|||110000438458|113
28.10.2018 00:00:00||AKTİFBANK|10.40.24.139|||110000438458|62
28.10.2018 00:00:00||AKTİFBANK|10.40.25.153|||110000438458|10
28.10.2018 00:00:00||AKTİFBANK|10.40.25.150|||110000438458|557
28.10.2018 00:00:00||AKTİFBANK|10.40.25.153|||110000438458|70
28.10.2018 00:00:00||AKTİFBANK|10.40.25.163|||110000438458|42
28.10.2018 00:00:00||AKTİFBANK|10.40.24.141|||110000438458|63
28.10.2018 00:00:00||AKTİFBANK|10.40.24.151|||110000438458|500
28.10.2018 00:00:00||AKTİFBANK|10.40.25.153|||110000438458|80
28.10.2018 00:00:00||AKTİFBANK|10.40.24.149|||110000438458|80
28.10.2018 00:00:00||AKTİFBANK|10.40.24.141|||110000438458|50
28.10.2018 00:00:00||AKTİFBANK|10.40.25.133|||110000438458|280
28.10.2018 00:00:00||AKTİFBANK|10.40.25.133|||110000438458|90
28.10.2018 00:00:00||AKTİFBANK|10.40.24.149|||110000438458|88
28.10.2018 00:00:00||AKTİFBANK|10.40.24.162|||110000438458|210
28.10.2018 00:00:00||AKTİFBANK|10.40.24.162|||110000438458|30
28.10.2018 00:00:00||AKTİFBANK|10.40.24.162|||110000438458|40
28.10.2018 00:00:00||AKTİFBANK|10.40.25.133|||110000438458|150
28.10.2018 00:00:00||AKTİFBANK|10.40.25.138|||110000438458|130
28.10.2018 00:00:00||AKTİFBANK|10.40.25.149|||110000438458|70
28.10.2018 00:00:00||AKTİFBANK|10.40.25.149|||110000438458|70
28.10.2018 00:00:00||AKTİFBANK|10.40.25.149|||110000438458|30
28.10.2018 00:00:00||AKTİFBANK|10.40.25.149|||110000438458|70
28.10.2018 00:00:00||AKTİFBANK|10.40.25.149|||110000438458|70
28.10.2018 00:00:00||AKTİFBANK|10.40.25.141|||110000438458|100
28.10.2018 00:00:00||AKTİFBANK|10.40.25.149|||110000438458|130
28.10.2018 00:00:00||AKTİFBANK|10.40.25.138|||110000438458|90
28.10.2018 00:00:00||AKTİFBANK|10.40.25.138|||110000438458|73
28.10.2018 00:00:00||AKTİFBANK|10.40.25.139|||110000438458|100
28.10.2018 00:00:00||AKTİFBANK|10.40.24.145|||110000438458|70
28.10.2018 00:00:00||AKTİFBANK|10.40.24.149|||110000438458|160
28.10.2018 00:00:00||AKTİFBANK|10.40.25.138|||110000438458|32
28.10.2018 00:00:00||AKTİFBANK|10.40.25.138|||110000438458|10
28.10.2018 00:00:00||AKTİFBANK|10.40.25.153|||110000438458|60
28.10.2018 00:00:00||AKTİFBANK|10.40.24.150|||110000438458|548
28.10.2018 00:00:00||AKTİFBANK|10.40.25.128|||110000438458|70
28.10.2018 00:00:00||AKTİFBANK|10.40.25.128|||110000438458|90
28.10.2018 00:00:00||AKTİFBANK|10.40.25.128|||110000438458|90
28.10.2018 00:00:00||AKTİFBANK|10.40.25.128|||110000438458|40
28.10.2018 00:00:00||AKTİFBANK|10.40.25.128|||110000438458|50
28.10.2018 00:00:00||AKTİFBANK|10.40.25.129|||110000438458|80
28.10.2018 00:00:00||AKTİFBANK|10.40.25.129|||110000438458|77
28.10.2018 00:00:00||AKTİFBANK|10.40.25.129|||110000438458|138
28.10.2018 00:00:00||AKTİFBANK|10.40.25.129|||110000438458|102
28.10.2018 00:00:00||AKTİFBANK|10.40.25.129|||110000438458|48
28.10.2018 00:00:00||AKTİFBANK|10.40.25.129|||110000438458|90
28.10.2018 00:00:00||AKTİFBANK|10.40.25.129|||110000438458|95
28.10.2018 00:00:00||AKTİFBANK|10.40.25.130|||110000438458|70
28.10.2018 00:00:00||AKTİFBANK|10.40.25.130|||110000438458|50
28.10.2018 00:00:00||AKTİFBANK|10.40.25.130|||110000438458|80
28.10.2018 00:00:00||AKTİFBANK|10.40.25.130|||110000438458|40
28.10.2018 00:00:00||AKTİFBANK|10.40.25.130|||110000438458|60
28.10.2018 00:00:00||AKTİFBANK|10.40.25.130|||110000438458|100
28.10.2018 00:00:00||AKTİFBANK|10.40.25.130|||110000438458|90
28.10.2018 00:00:00||AKTİFBANK|10.40.25.131|||110000438458|20
28.10.2018 00:00:00||AKTİFBANK|10.40.25.131|||110000438458|75
28.10.2018 00:00:00||AKTİFBANK|10.40.25.131|||110000438458|100
28.10.2018 00:00:00||AKTİFBANK|10.40.25.131|||110000438458|20
28.10.2018 00:00:00||AKTİFBANK|10.40.25.131|||110000438458|118
28.10.2018 00:00:00||AKTİFBANK|10.40.25.132|||110000438458|60
28.10.2018 00:00:00||AKTİFBANK|10.40.25.132|||110000438458|62
28.10.2018 00:00:00||AKTİFBANK|10.40.25.132|||110000438458|53
28.10.2018 00:00:00||AKTİFBANK|10.40.25.132|||110000438458|53
28.10.2018 00:00:00||AKTİFBANK|10.40.25.132|||110000438458|30
28.10.2018 00:00:00||AKTİFBANK|10.40.25.143|||110000438458|307
28.10.2018 00:00:00||AKTİFBANK|10.40.25.144|||110000438458|80
28.10.2018 00:00:00||AKTİFBANK|10.40.25.144|||110000438458|50
28.10.2018 00:00:00||AKTİFBANK|10.40.25.144|||110000438458|20
28.10.2018 00:00:00||AKTİFBANK|10.40.25.154|||110000438458|10
28.10.2018 00:00:00||AKTİFBANK|10.40.25.154|||110000438458|10
28.10.2018 00:00:00||AKTİFBANK|10.40.25.154|||110000438458|10
28.10.2018 00:00:00||AKTİFBANK|10.40.25.157|||110000438458|70
28.10.2018 00:00:00||AKTİFBANK|10.40.25.157|||110000438458|70
28.10.2018 00:00:00||AKTİFBANK|10.40.25.157|||110000438458|72
28.10.2018 00:00:00||AKTİFBANK|10.40.25.157|||110000438458|82
28.10.2018 00:00:00||AKTİFBANK|10.40.25.157|||110000438458|42
28.10.2018 00:00:00||AKTİFBANK|10.40.25.159|||110000438458|60
28.10.2018 00:00:00||AKTİFBANK|10.40.25.159|||110000438458|10
28.10.2018 00:00:00||AKTİFBANK|10.40.25.159|||110000438458|90
28.10.2018 00:00:00||AKTİFBANK|10.40.25.158|||110000438458|55
28.10.2018 00:00:00||AKTİFBANK|10.40.25.158|||110000438458|75
28.10.2018 00:00:00||AKTİFBANK|10.40.25.158|||110000438458|65
28.10.2018 00:00:00||AKTİFBANK|10.40.25.158|||110000438458|50
28.10.2018 00:00:00||AKTİFBANK|10.40.25.160|||110000438458|90
28.10.2018 00:00:00||AKTİFBANK|10.40.25.161|||110000438458|80
28.10.2018 00:00:00||AKTİFBANK|10.40.25.161|||110000438458|70
28.10.2018 00:00:00||AKTİFBANK|10.40.25.161|||110000438458|52
28.10.2018 00:00:00||AKTİFBANK|10.40.25.145|||110000438458|90
28.10.2018 00:00:00||AKTİFBANK|10.40.25.145|||110000438458|60
28.10.2018 00:00:00||AKTİFBANK|10.40.25.145|||110000438458|60
28.10.2018 00:00:00||AKTİFBANK|10.40.25.145|||110000438458|30
28.10.2018 00:00:00||AKTİFBANK|10.40.25.145|||110000438458|50
28.10.2018 00:00:00||AKTİFBANK|10.40.25.147|||110000438458|90
28.10.2018 00:00:00||AKTİFBANK|10.40.25.162|||110000438458|30
28.10.2018 00:00:00||AKTİFBANK|10.40.25.162|||110000438458|30
28.10.2018 00:00:00||AKTİFBANK|10.40.25.162|||110000438458|60
28.10.2018 00:00:00||AKTİFBANK|10.40.25.164|||110000438458|60
28.10.2018 00:00:00||AKTİFBANK|10.40.25.164|||110000438458|280
28.10.2018 00:00:00||AKTİFBANK|10.40.25.164|||110000438458|50
28.10.2018 00:00:00||AKTİFBANK|10.40.25.164|||110000438458|260
28.10.2018 00:00:00||AKTİFBANK|10.40.25.164|||110000438458|270
28.10.2018 00:00:00||AKTİFBANK|10.40.25.165|||110000438458|110
28.10.2018 00:00:00||AKTİFBANK|10.40.25.165|||110000438458|72
28.10.2018 00:00:00||AKTİFBANK|10.40.25.165|||110000438458|80
28.10.2018 00:00:00||AKTİFBANK|10.40.25.165|||110000438458|100
28.10.2018 00:00:00||AKTİFBANK|10.40.25.166|||110000438458|90
28.10.2018 00:00:00||AKTİFBANK|10.40.25.166|||110000438458|10
28.10.2018 00:00:00||AKTİFBANK|10.40.25.166|||110000438458|10
28.10.2018 00:00:00||AKTİFBANK|10.40.25.166|||110000438458|40
28.10.2018 00:00:00||AKTİFBANK|10.40.25.148|||110000438458|130
28.10.2018 00:00:00||AKTİFBANK|10.40.25.148|||110000438458|50
28.10.2018 00:00:00||AKTİFBANK|10.40.25.148|||110000438458|100
28.10.2018 00:00:00||AKTİFBANK|10.40.25.148|||110000438458|130
28.10.2018 00:00:00||AKTİFBANK|10.40.25.148|||110000438458|90
28.10.2018 00:00:00||AKTİFBANK|10.40.25.148|||110000438458|80
28.10.2018 00:00:00||AKTİFBANK|10.40.25.148|||110000438458|70
28.10.2018 00:00:00||AKTİFBANK|10.40.25.148|||110000438458|50
28.10.2018 00:00:00||AKTİFBANK|10.40.25.148|||110000438458|80
28.10.2018 00:00:00||AKTİFBANK|10.40.25.148|||110000438458|40
28.10.2018 00:00:00||AKTİFBANK|10.40.25.148|||110000438458|100
28.10.2018 00:00:00||AKTİFBANK|10.40.25.148|||110000438458|60
28.10.2018 00:00:00||AKTİFBANK|10.40.25.155|||110000438458|70
28.10.2018 00:00:00||AKTİFBANK|10.40.25.155|||110000438458|90
28.10.2018 00:00:00||AKTİFBANK|10.40.25.155|||110000438458|110
28.10.2018 00:00:00||AKTİFBANK|10.40.25.155|||110000438458|120
28.10.2018 00:00:00||AKTİFBANK|10.40.25.155|||110000438458|110
28.10.2018 00:00:00||AKTİFBANK|10.40.25.156|||110000438458|20
28.10.2018 00:00:00||AKTİFBANK|10.40.25.156|||110000438458|30
28.10.2018 00:00:00||AKTİFBANK|10.40.25.139|||110000438458|70
28.10.2018 00:00:00||AKTİFBANK|10.40.25.139|||110000438458|80
28.10.2018 00:00:00||AKTİFBANK|10.40.25.150|||110000438458|517
28.10.2018 00:00:00||AKTİFBANK|10.40.25.129|||110000438458|60
28.10.2018 00:00:00||AKTİFBANK|10.40.25.129|||110000438458|87
28.10.2018 00:00:00||AKTİFBANK|10.40.25.129|||110000438458|142
28.10.2018 00:00:00||AKTİFBANK|10.40.25.130|||110000438458|70
28.10.2018 00:00:00||AKTİFBANK|10.40.25.130|||110000438458|130
28.10.2018 00:00:00||AKTİFBANK|10.40.25.130|||110000438458|100
28.10.2018 00:00:00||AKTİFBANK|10.40.25.131|||110000438458|48
28.10.2018 00:00:00||AKTİFBANK|10.40.25.143|||110000438458|60
28.10.2018 00:00:00||AKTİFBANK|10.40.25.143|||110000438458|245
28.10.2018 00:00:00||AKTİFBANK|10.40.25.143|||110000438458|260
28.10.2018 00:00:00||AKTİFBANK|10.40.25.158|||110000438458|105
28.10.2018 00:00:00||AKTİFBANK|10.40.25.160|||110000438458|110
28.10.2018 00:00:00||AKTİFBANK|10.40.25.162|||110000438458|32
28.10.2018 00:00:00||AKTİFBANK|10.40.25.162|||110000438458|40
28.10.2018 00:00:00||AKTİFBANK|10.40.24.140|||110000438458|160
28.10.2018 00:00:00||AKTİFBANK|10.40.24.140|||110000438458|80
28.10.2018 00:00:00||AKTİFBANK|10.40.24.140|||110000438458|40
28.10.2018 00:00:00||AKTİFBANK|10.40.24.140|||110000438458|30
28.10.2018 00:00:00||AKTİFBANK|10.40.24.140|||110000438458|30
28.10.2018 00:00:00||AKTİFBANK|10.40.24.140|||110000438458|27
28.10.2018 00:00:00||AKTİFBANK|10.40.24.149|||110000438458|80
28.10.2018 00:00:00||AKTİFBANK|10.40.24.149|||110000438458|120
28.10.2018 00:00:00||AKTİFBANK|10.40.24.149|||110000438458|92
28.10.2018 00:00:00||AKTİFBANK|10.40.24.149|||110000438458|67
28.10.2018 00:00:00||AKTİFBANK|10.40.24.149|||110000438458|52
28.10.2018 00:00:00||AKTİFBANK|10.40.24.149|||110000438458|140
28.10.2018 00:00:00||AKTİFBANK|10.40.24.149|||110000438458|90
28.10.2018 00:00:00||AKTİFBANK|10.40.24.149|||110000438458|90
28.10.2018 00:00:00||AKTİFBANK|10.40.24.149|||110000438458|102
28.10.2018 00:00:00||AKTİFBANK|10.40.24.149|||110000438458|80
28.10.2018 00:00:00||AKTİFBANK|10.40.24.133|||110000438458|270
28.10.2018 00:00:00||AKTİFBANK|10.40.24.133|||110000438458|143
28.10.2018 00:00:00||AKTİFBANK|10.40.24.133|||110000438458|120
28.10.2018 00:00:00||AKTİFBANK|10.40.24.133|||110000438458|90
28.10.2018 00:00:00||AKTİFBANK|10.40.24.138|||110000438458|115
28.10.2018 00:00:00||AKTİFBANK|10.40.24.138|||110000438458|140
28.10.2018 00:00:00||AKTİFBANK|10.40.24.138|||110000438458|115
28.10.2018 00:00:00||AKTİFBANK|10.40.24.138|||110000438458|30
28.10.2018 00:00:00||AKTİFBANK|10.40.24.138|||110000438458|50
28.10.2018 00:00:00||AKTİFBANK|10.40.24.139|||110000438458|160
28.10.2018 00:00:00||AKTİFBANK|10.40.24.139|||110000438458|92
28.10.2018 00:00:00||AKTİFBANK|10.40.24.139|||110000438458|120
28.10.2018 00:00:00||AKTİFBANK|10.40.24.141|||110000438458|205
28.10.2018 00:00:00||AKTİFBANK|10.40.24.141|||110000438458|100
28.10.2018 00:00:00||AKTİFBANK|10.40.24.141|||110000438458|100
28.10.2018 00:00:00||AKTİFBANK|10.40.24.141|||110000438458|60
28.10.2018 00:00:00||AKTİFBANK|10.40.24.141|||110000438458|80
28.10.2018 00:00:00||AKTİFBANK|10.40.25.152|||110000438458|110
28.10.2018 00:00:00||AKTİFBANK|10.40.25.152|||110000438458|50
28.10.2018 00:00:00||AKTİFBANK|10.40.25.152|||110000438458|140
28.10.2018 00:00:00||AKTİFBANK|10.40.25.152|||110000438458|70
28.10.2018 00:00:00||AKTİFBANK|10.40.25.152|||110000438458|90
28.10.2018 00:00:00||AKTİFBANK|10.40.25.152|||110000438458|160
28.10.2018 00:00:00||AKTİFBANK|10.40.25.152|||110000438458|50
28.10.2018 00:00:00||AKTİFBANK|10.40.25.152|||110000438458|90
28.10.2018 00:00:00||AKTİFBANK|10.40.25.152|||110000438458|30
28.10.2018 00:00:00||AKTİFBANK|10.40.25.152|||110000438458|80
28.10.2018 00:00:00||AKTİFBANK|10.40.25.152|||110000438458|30
28.10.2018 00:00:00||AKTİFBANK|10.40.24.150|||110000438458|552
28.10.2018 00:00:00||AKTİFBANK|10.40.24.151|||110000438458|530
28.10.2018 00:00:00||AKTİFBANK|10.40.24.151|||110000438458|530
28.10.2018 00:00:00||AKTİFBANK|10.40.24.128|||110000438458|60
28.10.2018 00:00:00||AKTİFBANK|10.40.24.128|||110000438458|70
28.10.2018 00:00:00||AKTİFBANK|10.40.24.128|||110000438458|98
28.10.2018 00:00:00||AKTİFBANK|10.40.24.128|||110000438458|40
28.10.2018 00:00:00||AKTİFBANK|10.40.24.128|||110000438458|70
28.10.2018 00:00:00||AKTİFBANK|10.40.24.128|||110000438458|70
28.10.2018 00:00:00||AKTİFBANK|10.40.24.129|||110000438458|100
28.10.2018 00:00:00||AKTİFBANK|10.40.24.129|||110000438458|70
28.10.2018 00:00:00||AKTİFBANK|10.40.24.129|||110000438458|110
28.10.2018 00:00:00||AKTİFBANK|10.40.24.129|||110000438458|120
28.10.2018 00:00:00||AKTİFBANK|10.40.24.129|||110000438458|40
28.10.2018 00:00:00||AKTİFBANK|10.40.24.129|||110000438458|70
28.10.2018 00:00:00||AKTİFBANK|10.40.24.129|||110000438458|70
28.10.2018 00:00:00||AKTİFBANK|10.40.24.129|||110000438458|90
28.10.2018 00:00:00||AKTİFBANK|10.40.24.129|||110000438458|80
28.10.2018 00:00:00||AKTİFBANK|10.40.24.129|||110000438458|140
28.10.2018 00:00:00||AKTİFBANK|10.40.24.130|||110000438458|40
28.10.2018 00:00:00||AKTİFBANK|10.40.24.130|||110000438458|40
28.10.2018 00:00:00||AKTİFBANK|10.40.24.130|||110000438458|65
28.10.2018 00:00:00||AKTİFBANK|10.40.24.130|||110000438458|43
28.10.2018 00:00:00||AKTİFBANK|10.40.24.130|||110000438458|62
28.10.2018 00:00:00||AKTİFBANK|10.40.24.130|||110000438458|78
28.10.2018 00:00:00||AKTİFBANK|10.40.24.130|||110000438458|87
28.10.2018 00:00:00||AKTİFBANK|10.40.24.130|||110000438458|38
28.10.2018 00:00:00||AKTİFBANK|10.40.24.130|||110000438458|130
28.10.2018 00:00:00||AKTİFBANK|10.40.24.130|||110000438458|110
28.10.2018 00:00:00||AKTİFBANK|10.40.24.131|||110000438458|78
28.10.2018 00:00:00||AKTİFBANK|10.40.24.131|||110000438458|90
28.10.2018 00:00:00||AKTİFBANK|10.40.24.131|||110000438458|110
28.10.2018 00:00:00||AKTİFBANK|10.40.24.131|||110000438458|117
28.10.2018 00:00:00||AKTİFBANK|10.40.24.131|||110000438458|22
28.10.2018 00:00:00||AKTİFBANK|10.40.24.131|||110000438458|160
28.10.2018 00:00:00||AKTİFBANK|10.40.24.131|||110000438458|60
28.10.2018 00:00:00||AKTİFBANK|10.40.24.131|||110000438458|108
28.10.2018 00:00:00||AKTİFBANK|10.40.24.132|||110000438458|30
28.10.2018 00:00:00||AKTİFBANK|10.40.24.132|||110000438458|82
28.10.2018 00:00:00||AKTİFBANK|10.40.24.132|||110000438458|53
28.10.2018 00:00:00||AKTİFBANK|10.40.24.132|||110000438458|190
28.10.2018 00:00:00||AKTİFBANK|10.40.24.132|||110000438458|62
28.10.2018 00:00:00||AKTİFBANK|10.40.24.143|||110000438458|70
28.10.2018 00:00:00||AKTİFBANK|10.40.24.143|||110000438458|270
28.10.2018 00:00:00||AKTİFBANK|10.40.24.143|||110000438458|312
28.10.2018 00:00:00||AKTİFBANK|10.40.24.143|||110000438458|207
28.10.2018 00:00:00||AKTİFBANK|10.40.24.144|||110000438458|70
28.10.2018 00:00:00||AKTİFBANK|10.40.24.144|||110000438458|107
28.10.2018 00:00:00||AKTİFBANK|10.40.24.144|||110000438458|132
28.10.2018 00:00:00||AKTİFBANK|10.40.24.148|||110000438458|70
28.10.2018 00:00:00||AKTİFBANK|10.40.24.148|||110000438458|170
28.10.2018 00:00:00||AKTİFBANK|10.40.24.148|||110000438458|90
28.10.2018 00:00:00||AKTİFBANK|10.40.24.148|||110000438458|110
28.10.2018 00:00:00||AKTİFBANK|10.40.24.148|||110000438458|80
28.10.2018 00:00:00||AKTİFBANK|10.40.24.148|||110000438458|90
28.10.2018 00:00:00||AKTİFBANK|10.40.24.148|||110000438458|90
28.10.2018 00:00:00||AKTİFBANK|10.40.24.148|||110000438458|100
28.10.2018 00:00:00||AKTİFBANK|10.40.24.148|||110000438458|90
28.10.2018 00:00:00||AKTİFBANK|10.40.24.148|||110000438458|60
28.10.2018 00:00:00||AKTİFBANK|10.40.24.148|||110000438458|30
28.10.2018 00:00:00||AKTİFBANK|10.40.24.148|||110000438458|80
28.10.2018 00:00:00||AKTİFBANK|10.40.24.153|||110000438458|10
28.10.2018 00:00:00||AKTİFBANK|10.40.24.153|||110000438458|90
28.10.2018 00:00:00||AKTİFBANK|10.40.24.153|||110000438458|70
28.10.2018 00:00:00||AKTİFBANK|10.40.24.153|||110000438458|80
28.10.2018 00:00:00||AKTİFBANK|10.40.24.157|||110000438458|30
28.10.2018 00:00:00||AKTİFBANK|10.40.24.157|||110000438458|70
28.10.2018 00:00:00||AKTİFBANK|10.40.24.157|||110000438458|70
28.10.2018 00:00:00||AKTİFBANK|10.40.24.157|||110000438458|40
28.10.2018 00:00:00||AKTİFBANK|10.40.24.157|||110000438458|80
28.10.2018 00:00:00||AKTİFBANK|10.40.24.157|||110000438458|40
28.10.2018 00:00:00||AKTİFBANK|10.40.24.158|||110000438458|82
28.10.2018 00:00:00||AKTİFBANK|10.40.24.158|||110000438458|112
28.10.2018 00:00:00||AKTİFBANK|10.40.24.159|||110000438458|133
28.10.2018 00:00:00||AKTİFBANK|10.40.24.159|||110000438458|52
28.10.2018 00:00:00||AKTİFBANK|10.40.24.159|||110000438458|183
28.10.2018 00:00:00||AKTİFBANK|10.40.24.160|||110000438458|50
28.10.2018 00:00:00||AKTİFBANK|10.40.24.160|||110000438458|90
28.10.2018 00:00:00||AKTİFBANK|10.40.24.160|||110000438458|103
28.10.2018 00:00:00||AKTİFBANK|10.40.24.161|||110000438458|200
28.10.2018 00:00:00||AKTİFBANK|10.40.24.161|||110000438458|80
28.10.2018 00:00:00||AKTİFBANK|10.40.24.161|||110000438458|40
28.10.2018 00:00:00||AKTİFBANK|10.40.24.161|||110000438458|30
28.10.2018 00:00:00||AKTİFBANK|10.40.24.161|||110000438458|30
28.10.2018 00:00:00||AKTİFBANK|10.40.24.161|||110000438458|20
28.10.2018 00:00:00||AKTİFBANK|10.40.24.161|||110000438458|90
28.10.2018 00:00:00||AKTİFBANK|10.40.24.145|||110000438458|30
28.10.2018 00:00:00||AKTİFBANK|10.40.24.145|||110000438458|70
28.10.2018 00:00:00||AKTİFBANK|10.40.24.145|||110000438458|50
28.10.2018 00:00:00||AKTİFBANK|10.40.24.147|||110000438458|90
28.10.2018 00:00:00||AKTİFBANK|10.40.24.162|||110000438458|40
28.10.2018 00:00:00||AKTİFBANK|10.40.24.162|||110000438458|40
28.10.2018 00:00:00||AKTİFBANK|10.40.24.162|||110000438458|100
28.10.2018 00:00:00||AKTİFBANK|10.40.24.162|||110000438458|10
28.10.2018 00:00:00||AKTİFBANK|10.40.24.162|||110000438458|50
28.10.2018 00:00:00||AKTİFBANK|10.40.24.163|||110000438458|30
28.10.2018 00:00:00||AKTİFBANK|10.40.24.163|||110000438458|70
28.10.2018 00:00:00||AKTİFBANK|10.40.24.164|||110000438458|57
28.10.2018 00:00:00||AKTİFBANK|10.40.24.164|||110000438458|332
28.10.2018 00:00:00||AKTİFBANK|10.40.24.164|||110000438458|210
28.10.2018 00:00:00||AKTİFBANK|10.40.24.165|||110000438458|73
28.10.2018 00:00:00||AKTİFBANK|10.40.24.165|||110000438458|80
28.10.2018 00:00:00||AKTİFBANK|10.40.24.165|||110000438458|50
28.10.2018 00:00:00||AKTİFBANK|10.40.24.165|||110000438458|120
28.10.2018 00:00:00||AKTİFBANK|10.40.24.166|||110000438458|80
28.10.2018 00:00:00||AKTİFBANK|10.40.24.166|||110000438458|90
28.10.2018 00:00:00||AKTİFBANK|10.40.24.166|||110000438458|10
28.10.2018 00:00:00||AKTİFBANK|10.40.25.168|||110000438458|90
28.10.2018 00:00:00||AKTİFBANK|10.40.25.168|||110000438458|70
28.10.2018 00:00:00||AKTİFBANK|10.40.25.168|||110000438458|50
28.10.2018 00:00:00||AKTİFBANK|10.40.25.168|||110000438458|40
28.10.2018 00:00:00||AKTİFBANK|10.40.25.168|||110000438458|60
28.10.2018 00:00:00||AKTİFBANK|10.40.24.168|||110000438458|90
28.10.2018 00:00:00||AKTİFBANK|10.40.24.168|||110000438458|80
28.10.2018 00:00:00||AKTİFBANK|10.40.24.168|||110000438458|70
28.10.2018 00:00:00||AKTİFBANK|10.40.24.168|||110000438458|70
28.10.2018 00:00:00||AKTİFBANK|10.40.24.168|||110000438458|30
28.10.2018 00:00:00||AKTİFBANK|10.40.24.154|||110000438458|70
28.10.2018 00:00:00||AKTİFBANK|10.40.24.154|||110000438458|20
28.10.2018 00:00:00||AKTİFBANK|10.40.24.154|||110000438458|10
28.10.2018 00:00:00||AKTİFBANK|10.40.24.154|||110000438458|10
28.10.2018 00:00:00||AKTİFBANK|10.40.24.154|||110000438458|10
28.10.2018 00:00:00||AKTİFBANK|10.40.24.154|||110000438458|10
28.10.2018 00:00:00||AKTİFBANK|10.40.24.155|||110000438458|60
28.10.2018 00:00:00||AKTİFBANK|10.40.24.155|||110000438458|103
28.10.2018 00:00:00||AKTİFBANK|10.40.24.155|||110000438458|132
28.10.2018 00:00:00||AKTİFBANK|10.40.24.155|||110000438458|80
28.10.2018 00:00:00||AKTİFBANK|10.40.24.155|||110000438458|113
28.10.2018 00:00:00||AKTİFBANK|10.40.24.155|||110000438458|100
28.10.2018 00:00:00||AKTİFBANK|10.40.25.169|||110000438458|85
28.10.2018 00:00:00||AKTİFBANK|10.40.25.169|||110000438458|90
28.10.2018 00:00:00||AKTİFBANK|10.40.25.169|||110000438458|70
28.10.2018 00:00:00||AKTİFBANK|10.40.25.169|||110000438458|77
28.10.2018 00:00:00||AKTİFBANK|10.40.24.169|||110000438458|73
28.10.2018 00:00:00||AKTİFBANK|10.40.24.169|||110000438458|87
28.10.2018 00:00:00||AKTİFBANK|10.40.24.169|||110000438458|80
28.10.2018 00:00:00||AKTİFBANK|10.40.24.169|||110000438458|80
28.10.2018 00:00:00||AKTİFBANK|10.40.25.170|||110000438458|30
28.10.2018 00:00:00||AKTİFBANK|10.40.25.170|||110000438458|30
28.10.2018 00:00:00||AKTİFBANK|10.40.25.170|||110000438458|200
28.10.2018 00:00:00||AKTİFBANK|10.40.25.170|||110000438458|100
28.10.2018 00:00:00||AKTİFBANK|10.40.25.170|||110000438458|80
28.10.2018 00:00:00||AKTİFBANK|10.40.25.170|||110000438458|120
28.10.2018 00:00:00||AKTİFBANK|10.40.24.170|||110000438458|60
28.10.2018 00:00:00||AKTİFBANK|10.40.24.170|||110000438458|60
28.10.2018 00:00:00||AKTİFBANK|10.40.24.170|||110000438458|287
28.10.2018 00:00:00||AKTİFBANK|10.40.24.170|||110000438458|142
28.10.2018 00:00:00||AKTİFBANK|10.40.24.170|||110000438458|78
28.10.2018 00:00:00||AKTİFBANK|10.40.24.170|||110000438458|100
28.10.2018 00:00:00||AKTİFBANK|10.40.24.170|||110000438458|75
28.10.2018 00:00:00||AKTİFBANK|10.40.25.178|||110000438458|590
28.10.2018 00:00:00||AKTİFBANK|10.40.25.178|||110000438458|560
28.10.2018 00:00:00||AKTİFBANK|10.40.25.178|||110000438458|550
28.10.2018 00:00:00||AKTİFBANK|10.40.24.178|||110000438458|550
28.10.2018 00:00:00||AKTİFBANK|10.40.24.178|||110000438458|547
28.10.2018 00:00:00||AKTİFBANK|10.40.24.178|||110000438458|540
28.10.2018 00:00:00||AKTİFBANK|10.40.25.179|||110000438458|397
28.10.2018 00:00:00||AKTİFBANK|10.40.25.179|||110000438458|357
28.10.2018 00:00:00||AKTİFBANK|10.40.25.179|||110000438458|362
28.10.2018 00:00:00||AKTİFBANK|10.40.24.179|||110000438458|320
28.10.2018 00:00:00||AKTİFBANK|10.40.24.179|||110000438458|330
28.10.2018 00:00:00||AKTİFBANK|10.40.24.179|||110000438458|320
28.10.2018 00:00:00||AKTİFBANK|10.40.24.142|||110000438458|40
28.10.2018 00:00:00||AKTİFBANK|10.40.24.156|||110000438458|50
28.10.2018 00:00:00||AKTİFBANK|10.40.24.156|||110000438458|50
28.10.2018 00:00:00||AKTİFBANK|10.40.25.186|||110000438458|90
28.10.2018 00:00:00||AKTİFBANK|10.40.25.186|||110000438458|20
28.10.2018 00:00:00||AKTİFBANK|10.40.25.186|||110000438458|70
28.10.2018 00:00:00||AKTİFBANK|10.40.24.186|||110000438458|90
28.10.2018 00:00:00||AKTİFBANK|10.40.24.186|||110000438458|30
28.10.2018 00:00:00||AKTİFBANK|10.40.24.186|||110000438458|58
28.10.2018 00:00:00||AKTİFBANK|10.40.24.186|||110000438458|40
28.10.2018 00:00:00||AKTİFBANK|10.40.24.152|||110000438458|10
28.10.2018 00:00:00||AKTİFBANK|10.40.24.152|||110000438458|50
28.10.2018 00:00:00||AKTİFBANK|10.40.24.152|||110000438458|82
28.10.2018 00:00:00||AKTİFBANK|10.40.24.152|||110000438458|92
28.10.2018 00:00:00||AKTİFBANK|10.40.24.152|||110000438458|100
28.10.2018 00:00:00||AKTİFBANK|10.40.24.152|||110000438458|112
28.10.2018 00:00:00||AKTİFBANK|10.40.24.152|||110000438458|357
28.10.2018 00:00:00||AKTİFBANK|10.40.24.152|||110000438458|75
28.10.2018 00:00:00||AKTİFBANK|10.40.24.152|||110000438458|90
28.10.2018 00:00:00||AKTİFBANK|10.40.24.152|||110000438458|30
28.10.2018 00:00:00||AKTİFBANK|10.40.24.152|||110000438458|70
28.10.2018 00:00:00||AKTİFBANK|10.40.24.152|||110000438458|30
28.10.2018 00:00:00||BARİKAT İNTERNET GÜVENLİĞİ|10.40.25.201|||110000479736|113
28.10.2018 00:00:00||BARİKAT İNTERNET GÜVENLİĞİ|10.40.25.201|||110000479736|100
28.10.2018 00:00:00||BARİKAT İNTERNET GÜVENLİĞİ|10.40.24.201|||110000479736|140
28.10.2018 00:00:00||BARİKAT İNTERNET GÜVENLİĞİ|10.40.24.201|||110000479736|100
28.10.2018 00:00:00||BOYNER|10.40.26.100|||101367941673|58
28.10.2018 00:00:00||BOYNER|10.40.26.101|||101367941673|166
28.10.2018 00:00:00||BOYNER|10.40.27.100|||101367941673|54
28.10.2018 00:00:00||BOYNER|10.40.27.101|||101367941673|165
28.10.2018 00:00:00||BOYNER|10.40.27.94|||101367941673|210
28.10.2018 00:00:00||BOYNER|10.40.27.94|||101367941673|90
28.10.2018 00:00:00||BOYNER|10.40.27.94|||101367941673|90
28.10.2018 00:00:00||BOYNER|10.40.27.94|||101367941673|100
28.10.2018 00:00:00||BOYNER|10.40.26.94|||101367941673|90
28.10.2018 00:00:00||BOYNER|10.40.26.94|||101367941673|80
28.10.2018 00:00:00||BOYNER|10.40.26.94|||101367941673|80
28.10.2018 00:00:00||BOYNER|10.40.27.95|||101367941673|137
28.10.2018 00:00:00||BOYNER|10.40.27.95|||101367941673|132
28.10.2018 00:00:00||BOYNER|10.40.27.95|||101367941673|243
28.10.2018 00:00:00||BOYNER|10.40.26.95|||101367941673|133
28.10.2018 00:00:00||BOYNER|10.40.26.95|||101367941673|200
28.10.2018 00:00:00||BOYNER|10.40.26.95|||101367941673|140
28.10.2018 00:00:00||BOYNER|10.40.27.96|||101367941673|60
28.10.2018 00:00:00||BOYNER|10.40.27.96|||101367941673|52
28.10.2018 00:00:00||BOYNER|10.40.27.96|||101367941673|50
28.10.2018 00:00:00||BOYNER|10.40.27.96|||101367941673|40
28.10.2018 00:00:00||BOYNER|10.40.27.96|||101367941673|40
28.10.2018 00:00:00||BOYNER|10.40.27.96|||101367941673|157
28.10.2018 00:00:00||BOYNER|10.40.27.96|||101367941673|158
28.10.2018 00:00:00||BOYNER|10.40.27.96|||101367941673|187
28.10.2018 00:00:00||BOYNER|10.40.27.96|||101367941673|168
28.10.2018 00:00:00||BOYNER|10.40.26.96|||101367941673|30
28.10.2018 00:00:00||BOYNER|10.40.26.96|||101367941673|38
28.10.2018 00:00:00||BOYNER|10.40.26.96|||101367941673|30
28.10.2018 00:00:00||BOYNER|10.40.26.96|||101367941673|40
28.10.2018 00:00:00||BOYNER|10.40.26.96|||101367941673|43
28.10.2018 00:00:00||BOYNER|10.40.26.96|||101367941673|50
28.10.2018 00:00:00||BOYNER|10.40.26.96|||101367941673|193
28.10.2018 00:00:00||BOYNER|10.40.26.96|||101367941673|203
28.10.2018 00:00:00||BOYNER|10.40.26.96|||101367941673|172
28.10.2018 00:00:00||BOYNER|10.40.26.96|||101367941673|190
28.10.2018 00:00:00||BOYNER|10.40.27.97|||101367941673|60
28.10.2018 00:00:00||BOYNER|10.40.27.97|||101367941673|668
28.10.2018 00:00:00||BOYNER|10.40.27.97|||101367941673|673
28.10.2018 00:00:00||BOYNER|10.40.27.97|||101367941673|715
28.10.2018 00:00:00||BOYNER|10.40.27.97|||101367941673|40
28.10.2018 00:00:00||BOYNER|10.40.27.97|||101367941673|30
28.10.2018 00:00:00||BOYNER|10.40.27.97|||101367941673|52
28.10.2018 00:00:00||BOYNER|10.40.27.97|||101367941673|30
28.10.2018 00:00:00||BOYNER|10.40.27.97|||101367941673|172
28.10.2018 00:00:00||BOYNER|10.40.27.97|||101367941673|172
28.10.2018 00:00:00||BOYNER|10.40.27.97|||101367941673|187
28.10.2018 00:00:00||BOYNER|10.40.27.97|||101367941673|193
28.10.2018 00:00:00||BOYNER|10.40.26.97|||101367941673|30
28.10.2018 00:00:00||BOYNER|10.40.26.97|||101367941673|667
28.10.2018 00:00:00||BOYNER|10.40.26.97|||101367941673|668
28.10.2018 00:00:00||BOYNER|10.40.26.97|||101367941673|675
28.10.2018 00:00:00||BOYNER|10.40.26.97|||101367941673|30
28.10.2018 00:00:00||BOYNER|10.40.26.97|||101367941673|40
28.10.2018 00:00:00||BOYNER|10.40.26.97|||101367941673|50
28.10.2018 00:00:00||BOYNER|10.40.26.97|||101367941673|60
28.10.2018 00:00:00||BOYNER|10.40.26.97|||101367941673|30
28.10.2018 00:00:00||BOYNER|10.40.26.97|||101367941673|158
28.10.2018 00:00:00||BOYNER|10.40.26.97|||101367941673|177
28.10.2018 00:00:00||BOYNER|10.40.26.97|||101367941673|173
28.10.2018 00:00:00||BOYNER|10.40.26.97|||101367941673|157
28.10.2018 00:00:00||BOYNER|10.40.27.99|||101367941673|132
28.10.2018 00:00:00||BOYNER|10.40.27.99|||101367941673|92
28.10.2018 00:00:00||BOYNER|10.40.27.99|||101367941673|82
28.10.2018 00:00:00||BOYNER|10.40.26.99|||101367941673|10
28.10.2018 00:00:00||BOYNER|10.40.26.99|||101367941673|108
28.10.2018 00:00:00||BOYNER|10.40.26.99|||101367941673|105
28.10.2018 00:00:00||BOYNER|10.40.26.99|||101367941673|80
28.10.2018 00:00:00||ÇALIK HOLDİNG|10.40.24.118|||110000438407|43
28.10.2018 00:00:00||ÇALIK HOLDİNG|10.40.25.99|||110000438407|136
28.10.2018 00:00:00||ÇALIK HOLDİNG|10.40.25.118|||110000438407|161
28.10.2018 00:00:00||ÇALIK HOLDİNG|10.40.25.120|||110000438407|90
28.10.2018 00:00:00||ÇALIK HOLDİNG|10.40.24.95|||110000438407|50
28.10.2018 00:00:00||ÇALIK HOLDİNG|10.40.25.97|||110000438407|80
28.10.2018 00:00:00||ÇALIK HOLDİNG|10.40.25.103|||110000438407|90
28.10.2018 00:00:00||ÇALIK HOLDİNG|10.40.25.120|||110000438407|40
28.10.2018 00:00:00||ÇALIK HOLDİNG|10.40.25.96|||110000438407|70
28.10.2018 00:00:00||ÇALIK HOLDİNG|10.40.25.96|||110000438407|90
28.10.2018 00:00:00||ÇALIK HOLDİNG|10.40.25.96|||110000438407|120
28.10.2018 00:00:00||ÇALIK HOLDİNG|10.40.25.96|||110000438407|90
28.10.2018 00:00:00||ÇALIK HOLDİNG|10.40.25.115|||110000438407|163
28.10.2018 00:00:00||ÇALIK HOLDİNG|10.40.25.115|||110000438407|70
28.10.2018 00:00:00||ÇALIK HOLDİNG|10.40.25.95|||110000438407|93
28.10.2018 00:00:00||ÇALIK HOLDİNG|10.40.25.96|||110000438407|90
28.10.2018 00:00:00||ÇALIK HOLDİNG|10.40.25.96|||110000438407|100
28.10.2018 00:00:00||ÇALIK HOLDİNG|10.40.25.120|||110000438407|20
28.10.2018 00:00:00||ÇALIK HOLDİNG|10.40.25.95|||110000438407|48
28.10.2018 00:00:00||ÇALIK HOLDİNG|10.40.24.94|||110000438407|203
28.10.2018 00:00:00||ÇALIK HOLDİNG|10.40.25.97|||110000438407|107
28.10.2018 00:00:00||ÇALIK HOLDİNG|10.40.25.120|||110000438407|60
28.10.2018 00:00:00||ÇALIK HOLDİNG|10.40.25.115|||110000438407|82
28.10.2018 00:00:00||ÇALIK HOLDİNG|10.40.25.115|||110000438407|70
28.10.2018 00:00:00||ÇALIK HOLDİNG|10.40.25.115|||110000438407|70
28.10.2018 00:00:00||ÇALIK HOLDİNG|10.40.25.101|||110000438407|50
28.10.2018 00:00:00||ÇALIK HOLDİNG|10.40.25.101|||110000438407|110
28.10.2018 00:00:00||ÇALIK HOLDİNG|10.40.25.101|||110000438407|30
28.10.2018 00:00:00||ÇALIK HOLDİNG|10.40.25.101|||110000438407|10
28.10.2018 00:00:00||ÇALIK HOLDİNG|10.40.25.101|||110000438407|90
28.10.2018 00:00:00||ÇALIK HOLDİNG|10.40.25.101|||110000438407|30
28.10.2018 00:00:00||ÇALIK HOLDİNG|10.40.25.101|||110000438407|40
28.10.2018 00:00:00||ÇALIK HOLDİNG|10.40.25.101|||110000438407|40
28.10.2018 00:00:00||ÇALIK HOLDİNG|10.40.25.101|||110000438407|90
28.10.2018 00:00:00||ÇALIK HOLDİNG|10.40.25.101|||110000438407|90
28.10.2018 00:00:00||ÇALIK HOLDİNG|10.40.25.101|||110000438407|90
28.10.2018 00:00:00||ÇALIK HOLDİNG|10.40.25.94|||110000438407|180
28.10.2018 00:00:00||ÇALIK HOLDİNG|10.40.25.94|||110000438407|180
28.10.2018 00:00:00||ÇALIK HOLDİNG|10.40.25.94|||110000438407|170
28.10.2018 00:00:00||ÇALIK HOLDİNG|10.40.25.94|||110000438407|180
28.10.2018 00:00:00||ÇALIK HOLDİNG|10.40.24.94|||110000438407|212
28.10.2018 00:00:00||ÇALIK HOLDİNG|10.40.24.94|||110000438407|203
28.10.2018 00:00:00||ÇALIK HOLDİNG|10.40.24.94|||110000438407|208
28.10.2018 00:00:00||ÇALIK HOLDİNG|10.40.25.95|||110000438407|20
28.10.2018 00:00:00||ÇALIK HOLDİNG|10.40.25.95|||110000438407|350
28.10.2018 00:00:00||ÇALIK HOLDİNG|10.40.25.95|||110000438407|353
28.10.2018 00:00:00||ÇALIK HOLDİNG|10.40.25.95|||110000438407|40
28.10.2018 00:00:00||ÇALIK HOLDİNG|10.40.24.95|||110000438407|100
28.10.2018 00:00:00||ÇALIK HOLDİNG|10.40.24.95|||110000438407|85
28.10.2018 00:00:00||ÇALIK HOLDİNG|10.40.24.95|||110000438407|390
28.10.2018 00:00:00||ÇALIK HOLDİNG|10.40.24.95|||110000438407|390
28.10.2018 00:00:00||ÇALIK HOLDİNG|10.40.25.96|||110000438407|90
28.10.2018 00:00:00||ÇALIK HOLDİNG|10.40.25.96|||110000438407|100
28.10.2018 00:00:00||ÇALIK HOLDİNG|10.40.25.96|||110000438407|100
28.10.2018 00:00:00||ÇALIK HOLDİNG|10.40.25.96|||110000438407|260
28.10.2018 00:00:00||ÇALIK HOLDİNG|10.40.25.96|||110000438407|260
28.10.2018 00:00:00||ÇALIK HOLDİNG|10.40.25.96|||110000438407|100
28.10.2018 00:00:00||ÇALIK HOLDİNG|10.40.25.96|||110000438407|90
28.10.2018 00:00:00||ÇALIK HOLDİNG|10.40.25.96|||110000438407|93
28.10.2018 00:00:00||ÇALIK HOLDİNG|10.40.25.97|||110000438407|88
28.10.2018 00:00:00||ÇALIK HOLDİNG|10.40.25.97|||110000438407|80
28.10.2018 00:00:00||ÇALIK HOLDİNG|10.40.25.97|||110000438407|303
28.10.2018 00:00:00||ÇALIK HOLDİNG|10.40.25.98|||110000438407|50
28.10.2018 00:00:00||ÇALIK HOLDİNG|10.40.25.98|||110000438407|167
28.10.2018 00:00:00||ÇALIK HOLDİNG|10.40.25.98|||110000438407|160
28.10.2018 00:00:00||ÇALIK HOLDİNG|10.40.25.98|||110000438407|168
28.10.2018 00:00:00||ÇALIK HOLDİNG|10.40.25.98|||110000438407|167
28.10.2018 00:00:00||ÇALIK HOLDİNG|10.40.25.98|||110000438407|60
28.10.2018 00:00:00||ÇALIK HOLDİNG|10.40.25.98|||110000438407|210
28.10.2018 00:00:00||ÇALIK HOLDİNG|10.40.25.98|||110000438407|180
28.10.2018 00:00:00||ÇALIK HOLDİNG|10.40.25.98|||110000438407|175
28.10.2018 00:00:00||ÇALIK HOLDİNG|10.40.25.98|||110000438407|212
28.10.2018 00:00:00||ÇALIK HOLDİNG|10.40.25.98|||110000438407|70
28.10.2018 00:00:00||ÇALIK HOLDİNG|10.40.25.98|||110000438407|315
28.10.2018 00:00:00||ÇALIK HOLDİNG|10.40.24.98|||110000438407|90
28.10.2018 00:00:00||ÇALIK HOLDİNG|10.40.24.98|||110000438407|157
28.10.2018 00:00:00||ÇALIK HOLDİNG|10.40.24.98|||110000438407|200
28.10.2018 00:00:00||ÇALIK HOLDİNG|10.40.24.98|||110000438407|200
28.10.2018 00:00:00||ÇALIK HOLDİNG|10.40.24.98|||110000438407|160
28.10.2018 00:00:00||ÇALIK HOLDİNG|10.40.24.98|||110000438407|30
28.10.2018 00:00:00||ÇALIK HOLDİNG|10.40.24.98|||110000438407|165
28.10.2018 00:00:00||ÇALIK HOLDİNG|10.40.24.98|||110000438407|180
28.10.2018 00:00:00||ÇALIK HOLDİNG|10.40.24.98|||110000438407|168
28.10.2018 00:00:00||ÇALIK HOLDİNG|10.40.24.98|||110000438407|170
28.10.2018 00:00:00||ÇALIK HOLDİNG|10.40.24.98|||110000438407|20
28.10.2018 00:00:00||ÇALIK HOLDİNG|10.40.24.98|||110000438407|290
28.10.2018 00:00:00||ÇALIK HOLDİNG|10.40.25.100|||110000438407|35
28.10.2018 00:00:00||ÇALIK HOLDİNG|10.40.25.100|||110000438407|40
28.10.2018 00:00:00||ÇALIK HOLDİNG|10.40.24.101|||110000438407|60
28.10.2018 00:00:00||ÇALIK HOLDİNG|10.40.24.101|||110000438407|110
28.10.2018 00:00:00||ÇALIK HOLDİNG|10.40.24.101|||110000438407|20
28.10.2018 00:00:00||ÇALIK HOLDİNG|10.40.24.101|||110000438407|20
28.10.2018 00:00:00||ÇALIK HOLDİNG|10.40.24.101|||110000438407|40
28.10.2018 00:00:00||ÇALIK HOLDİNG|10.40.24.101|||110000438407|82
28.10.2018 00:00:00||ÇALIK HOLDİNG|10.40.24.101|||110000438407|30
28.10.2018 00:00:00||ÇALIK HOLDİNG|10.40.24.101|||110000438407|10
28.10.2018 00:00:00||ÇALIK HOLDİNG|10.40.24.101|||110000438407|20
28.10.2018 00:00:00||ÇALIK HOLDİNG|10.40.24.101|||110000438407|50
28.10.2018 00:00:00||ÇALIK HOLDİNG|10.40.24.101|||110000438407|30
28.10.2018 00:00:00||ÇALIK HOLDİNG|10.40.24.101|||110000438407|80
28.10.2018 00:00:00||ÇALIK HOLDİNG|10.40.24.101|||110000438407|80
28.10.2018 00:00:00||ÇALIK HOLDİNG|10.40.24.101|||110000438407|90
28.10.2018 00:00:00||ÇALIK HOLDİNG|10.40.25.102|||110000438407|100
28.10.2018 00:00:00||ÇALIK HOLDİNG|10.40.25.102|||110000438407|90
28.10.2018 00:00:00||ÇALIK HOLDİNG|10.40.25.102|||110000438407|150
28.10.2018 00:00:00||ÇALIK HOLDİNG|10.40.24.102|||110000438407|100
28.10.2018 00:00:00||ÇALIK HOLDİNG|10.40.24.102|||110000438407|90
28.10.2018 00:00:00||ÇALIK HOLDİNG|10.40.24.102|||110000438407|140
28.10.2018 00:00:00||ÇALIK HOLDİNG|10.40.25.103|||110000438407|90
28.10.2018 00:00:00||ÇALIK HOLDİNG|10.40.25.103|||110000438407|80
28.10.2018 00:00:00||ÇALIK HOLDİNG|10.40.25.103|||110000438407|10
28.10.2018 00:00:00||ÇALIK HOLDİNG|10.40.25.115|||110000438407|85
28.10.2018 00:00:00||ÇALIK HOLDİNG|10.40.24.103|||110000438407|100
28.10.2018 00:00:00||ÇALIK HOLDİNG|10.40.24.103|||110000438407|80
28.10.2018 00:00:00||ÇALIK HOLDİNG|10.40.24.103|||110000438407|80
28.10.2018 00:00:00||ÇALIK HOLDİNG|10.40.24.103|||110000438407|20
28.10.2018 00:00:00||ÇALIK HOLDİNG|10.40.24.103|||110000438407|10
28.10.2018 00:00:00||ÇALIK HOLDİNG|10.40.25.113|||110000438407|238
28.10.2018 00:00:00||ÇALIK HOLDİNG|10.40.25.113|||110000438407|247
28.10.2018 00:00:00||ÇALIK HOLDİNG|10.40.25.113|||110000438407|207
28.10.2018 00:00:00||ÇALIK HOLDİNG|10.40.25.113|||110000438407|215
28.10.2018 00:00:00||ÇALIK HOLDİNG|10.40.24.113|||110000438407|245
28.10.2018 00:00:00||ÇALIK HOLDİNG|10.40.24.113|||110000438407|235
28.10.2018 00:00:00||ÇALIK HOLDİNG|10.40.24.113|||110000438407|200
28.10.2018 00:00:00||ÇALIK HOLDİNG|10.40.24.113|||110000438407|162
28.10.2018 00:00:00||ÇALIK HOLDİNG|10.40.25.114|||110000438407|183
28.10.2018 00:00:00||ÇALIK HOLDİNG|10.40.25.114|||110000438407|422
28.10.2018 00:00:00||ÇALIK HOLDİNG|10.40.25.114|||110000438407|40
28.10.2018 00:00:00||ÇALIK HOLDİNG|10.40.24.114|||110000438407|20
28.10.2018 00:00:00||ÇALIK HOLDİNG|10.40.24.114|||110000438407|40
28.10.2018 00:00:00||ÇALIK HOLDİNG|10.40.24.114|||110000438407|170
28.10.2018 00:00:00||ÇALIK HOLDİNG|10.40.24.114|||110000438407|377
28.10.2018 00:00:00||ÇALIK HOLDİNG|10.40.24.115|||110000438407|170
28.10.2018 00:00:00||ÇALIK HOLDİNG|10.40.24.115|||110000438407|80
28.10.2018 00:00:00||ÇALIK HOLDİNG|10.40.24.115|||110000438407|90
28.10.2018 00:00:00||ÇALIK HOLDİNG|10.40.24.115|||110000438407|80
28.10.2018 00:00:00||ÇALIK HOLDİNG|10.40.24.115|||110000438407|90
28.10.2018 00:00:00||ÇALIK HOLDİNG|10.40.24.115|||110000438407|70
28.10.2018 00:00:00||ÇALIK HOLDİNG|10.40.25.116|||110000438407|105
28.10.2018 00:00:00||ÇALIK HOLDİNG|10.40.25.116|||110000438407|102
28.10.2018 00:00:00||ÇALIK HOLDİNG|10.40.25.116|||110000438407|300
28.10.2018 00:00:00||ÇALIK HOLDİNG|10.40.24.116|||110000438407|280
28.10.2018 00:00:00||ÇALIK HOLDİNG|10.40.24.116|||110000438407|100
28.10.2018 00:00:00||ÇALIK HOLDİNG|10.40.24.116|||110000438407|100
28.10.2018 00:00:00||ÇALIK HOLDİNG|10.40.25.117|||110000438407|250
28.10.2018 00:00:00||ÇALIK HOLDİNG|10.40.25.117|||110000438407|30
28.10.2018 00:00:00||ÇALIK HOLDİNG|10.40.25.117|||110000438407|25
28.10.2018 00:00:00||ÇALIK HOLDİNG|10.40.25.119|||110000438407|30
28.10.2018 00:00:00||ÇALIK HOLDİNG|10.40.25.119|||110000438407|30
28.10.2018 00:00:00||ÇALIK HOLDİNG|10.40.24.119|||110000438407|150
28.10.2018 00:00:00||ÇALIK HOLDİNG|10.40.24.119|||110000438407|30
28.10.2018 00:00:00||ÇALIK HOLDİNG|10.40.24.119|||110000438407|50
28.10.2018 00:00:00||ÇALIK HOLDİNG|10.40.25.120|||110000438407|107
28.10.2018 00:00:00||ÇALIK HOLDİNG|10.40.25.120|||110000438407|50
28.10.2018 00:00:00||ÇALIK HOLDİNG|10.40.25.120|||110000438407|20
28.10.2018 00:00:00||ÇALIK HOLDİNG|10.40.25.120|||110000438407|20
28.10.2018 00:00:00||ÇALIK HOLDİNG|10.40.25.120|||110000438407|30
28.10.2018 00:00:00||ÇALIK HOLDİNG|10.40.25.120|||110000438407|90
28.10.2018 00:00:00||ÇALIK HOLDİNG|10.40.25.120|||110000438407|90
28.10.2018 00:00:00||ÇALIK HOLDİNG|10.40.24.120|||110000438407|20
28.10.2018 00:00:00||ÇALIK HOLDİNG|10.40.24.120|||110000438407|35
28.10.2018 00:00:00||ÇALIK HOLDİNG|10.40.24.120|||110000438407|110
28.10.2018 00:00:00||ÇALIK HOLDİNG|10.40.24.120|||110000438407|100
28.10.2018 00:00:00||ÇALIK HOLDİNG|10.40.24.120|||110000438407|40
28.10.2018 00:00:00||ÇALIK HOLDİNG|10.40.24.120|||110000438407|80
28.10.2018 00:00:00||ÇALIK HOLDİNG|10.40.24.120|||110000438407|80
28.10.2018 00:00:00||ÇALIK HOLDİNG|10.40.24.120|||110000438407|70
28.10.2018 00:00:00||ÇALIK HOLDİNG|10.40.25.121|||110000438407|90
28.10.2018 00:00:00||ÇALIK HOLDİNG|10.40.25.121|||110000438407|100
28.10.2018 00:00:00||ÇALIK HOLDİNG|10.40.25.121|||110000438407|150
28.10.2018 00:00:00||ÇALIK HOLDİNG|10.40.24.121|||110000438407|100
28.10.2018 00:00:00||ÇALIK HOLDİNG|10.40.24.121|||110000438407|100
28.10.2018 00:00:00||ÇALIK HOLDİNG|10.40.24.121|||110000438407|140
28.10.2018 00:00:00||ÇALIK HOLDİNG|10.40.25.122|||110000438407|90
28.10.2018 00:00:00||ÇALIK HOLDİNG|10.40.25.122|||110000438407|80
28.10.2018 00:00:00||ÇALIK HOLDİNG|10.40.25.122|||110000438407|80
28.10.2018 00:00:00||ÇALIK HOLDİNG|10.40.25.122|||110000438407|30
28.10.2018 00:00:00||ÇALIK HOLDİNG|10.40.25.122|||110000438407|10
28.10.2018 00:00:00||ÇALIK HOLDİNG|10.40.24.122|||110000438407|90
28.10.2018 00:00:00||ÇALIK HOLDİNG|10.40.24.122|||110000438407|80
28.10.2018 00:00:00||ÇALIK HOLDİNG|10.40.24.122|||110000438407|87
28.10.2018 00:00:00||ÇALIK HOLDİNG|10.40.24.117|||110000438407|200
28.10.2018 00:00:00||ÇALIK HOLDİNG|10.40.24.117|||110000438407|30
28.10.2018 00:00:00||ÇALIK HOLDİNG|10.40.24.117|||110000438407|30
28.10.2018 00:00:00||ÇALIK HOLDİNG|10.40.24.97|||110000438407|100
28.10.2018 00:00:00||ÇALIK HOLDİNG|10.40.24.97|||110000438407|90
28.10.2018 00:00:00||ÇALIK HOLDİNG|10.40.24.97|||110000438407|80
28.10.2018 00:00:00||ÇALIK HOLDİNG|10.40.24.97|||110000438407|90
28.10.2018 00:00:00||ÇALIK HOLDİNG|10.40.24.97|||110000438407|325
28.10.2018 00:00:00||ÇALIK HOLDİNG|10.40.24.100|||110000438407|30
28.10.2018 00:00:00||ÇALIK HOLDİNG|10.40.24.100|||110000438407|40
28.10.2018 00:00:00||FIBABANKA|10.40.27.54|||101571767266|310
28.10.2018 00:00:00||FIBABANKA|10.40.26.54|||101571767266|317
28.10.2018 00:00:00||FIBABANKA|10.40.27.55|||101571767266|109
28.10.2018 00:00:00||FIBABANKA|10.40.26.55|||101571767266|107
28.10.2018 00:00:00||FIBABANKA|10.40.24.55|||101571767266|111
28.10.2018 00:00:00||FIBABANKA|10.40.25.56|||101571767266|197
28.10.2018 00:00:00||FIBABANKA|10.40.25.54|||101571767266|330
28.10.2018 00:00:00||FIBABANKA|10.40.24.54|||101571767266|316
28.10.2018 00:00:00||FIBABANKA|10.40.25.55|||101571767266|111
28.10.2018 00:00:00||FIBABANKA|10.40.24.56|||101571767266|197
28.10.2018 00:00:00||FIBABANKA|10.40.26.53|||101571767266|40
28.10.2018 00:00:00||FIBABANKA|10.40.26.53|||101571767266|163
28.10.2018 00:00:00||FIBABANKA|10.40.25.57|||101571767266|90
28.10.2018 00:00:00||FIBABANKA|10.40.27.60|||101571767266|50
28.10.2018 00:00:00||FIBABANKA|10.40.25.76|||101571767266|10
28.10.2018 00:00:00||FIBABANKA|10.40.27.53|||101571767266|162
28.10.2018 00:00:00||FIBABANKA|10.40.27.53|||101571767266|168
28.10.2018 00:00:00||FIBABANKA|10.40.26.53|||101571767266|157
28.10.2018 00:00:00||FIBABANKA|10.40.27.57|||101571767266|83
28.10.2018 00:00:00||FIBABANKA|10.40.27.57|||101571767266|80
28.10.2018 00:00:00||FIBABANKA|10.40.27.57|||101571767266|80
28.10.2018 00:00:00||FIBABANKA|10.40.26.60|||101571767266|10
28.10.2018 00:00:00||FIBABANKA|10.40.25.57|||101571767266|90
28.10.2018 00:00:00||FIBABANKA|10.40.25.57|||101571767266|90
28.10.2018 00:00:00||FIBABANKA|10.40.25.57|||101571767266|90
28.10.2018 00:00:00||FIBABANKA|10.40.25.57|||101571767266|90
28.10.2018 00:00:00||FIBABANKA|10.40.25.57|||101571767266|58
28.10.2018 00:00:00||FIBABANKA|10.40.25.57|||101571767266|100
28.10.2018 00:00:00||FIBABANKA|10.40.25.57|||101571767266|78
28.10.2018 00:00:00||FIBABANKA|10.40.24.57|||101571767266|95
28.10.2018 00:00:00||FIBABANKA|10.40.24.57|||101571767266|70
28.10.2018 00:00:00||FIBABANKA|10.40.24.57|||101571767266|57
28.10.2018 00:00:00||FIBABANKA|10.40.26.51|||101571767266|20
28.10.2018 00:00:00||FIBABANKA|10.40.27.52|||101571767266|50
28.10.2018 00:00:00||FIBABANKA|10.40.27.52|||101571767266|60
28.10.2018 00:00:00||FIBABANKA|10.40.27.52|||101571767266|70
28.10.2018 00:00:00||FIBABANKA|10.40.27.73|||101571767266|10
28.10.2018 00:00:00||FIBABANKA|10.40.27.74|||101571767266|167
28.10.2018 00:00:00||FIBABANKA|10.40.27.60|||101571767266|90
28.10.2018 00:00:00||FIBABANKA|10.40.26.60|||101571767266|112
28.10.2018 00:00:00||FIBABANKA|10.40.26.60|||101571767266|150
28.10.2018 00:00:00||FIBABANKA|10.40.26.60|||101571767266|32
28.10.2018 00:00:00||FIBABANKA|10.40.25.53|||101571767266|30
28.10.2018 00:00:00||FIBABANKA|10.40.25.53|||101571767266|48
28.10.2018 00:00:00||FIBABANKA|10.40.27.60|||101571767266|50
28.10.2018 00:00:00||FIBABANKA|10.40.27.60|||101571767266|220
28.10.2018 00:00:00||FIBABANKA|10.40.27.60|||101571767266|230
28.10.2018 00:00:00||FIBABANKA|10.40.27.60|||101571767266|43
28.10.2018 00:00:00||FIBABANKA|10.40.27.60|||101571767266|160
28.10.2018 00:00:00||FIBABANKA|10.40.27.60|||101571767266|10
28.10.2018 00:00:00||FIBABANKA|10.40.27.53|||101571767266|58
28.10.2018 00:00:00||FIBABANKA|10.40.26.53|||101571767266|70
28.10.2018 00:00:00||FIBABANKA|10.40.26.53|||101571767266|65
28.10.2018 00:00:00||FIBABANKA|10.40.27.57|||101571767266|80
28.10.2018 00:00:00||FIBABANKA|10.40.25.51|||101571767266|20
28.10.2018 00:00:00||FIBABANKA|10.40.25.51|||101571767266|110
28.10.2018 00:00:00||FIBABANKA|10.40.24.51|||101571767266|20
28.10.2018 00:00:00||FIBABANKA|10.40.24.51|||101571767266|70
28.10.2018 00:00:00||FIBABANKA|10.40.24.51|||101571767266|100
28.10.2018 00:00:00||FIBABANKA|10.40.24.51|||101571767266|140
28.10.2018 00:00:00||FIBABANKA|10.40.24.51|||101571767266|30
28.10.2018 00:00:00||FIBABANKA|10.40.24.57|||101571767266|70
28.10.2018 00:00:00||FIBABANKA|10.40.24.57|||101571767266|90
28.10.2018 00:00:00||FIBABANKA|10.40.24.57|||101571767266|80
28.10.2018 00:00:00||FIBABANKA|10.40.24.57|||101571767266|80
28.10.2018 00:00:00||FIBABANKA|10.40.24.57|||101571767266|70
28.10.2018 00:00:00||FIBABANKA|10.40.24.52|||101571767266|32
28.10.2018 00:00:00||FIBABANKA|10.40.24.52|||101571767266|40
28.10.2018 00:00:00||FIBABANKA|10.40.24.52|||101571767266|10
28.10.2018 00:00:00||FIBABANKA|10.40.26.73|||101571767266|40
28.10.2018 00:00:00||FIBABANKA|10.40.27.53|||101571767266|70
28.10.2018 00:00:00||FIBABANKA|10.40.26.51|||101571767266|70
28.10.2018 00:00:00||FIBABANKA|10.40.26.52|||101571767266|30
28.10.2018 00:00:00||FIBABANKA|10.40.26.52|||101571767266|90
28.10.2018 00:00:00||FIBABANKA|10.40.26.52|||101571767266|30
28.10.2018 00:00:00||FIBABANKA|10.40.26.60|||101571767266|10
28.10.2018 00:00:00||FIBABANKA|10.40.26.60|||101571767266|10
28.10.2018 00:00:00||FIBABANKA|10.40.26.60|||101571767266|10
28.10.2018 00:00:00||FIBABANKA|10.40.26.60|||101571767266|235
28.10.2018 00:00:00||FIBABANKA|10.40.25.51|||101571767266|140
28.10.2018 00:00:00||FIBABANKA|10.40.25.51|||101571767266|40
28.10.2018 00:00:00||FIBABANKA|10.40.25.51|||101571767266|40
28.10.2018 00:00:00||FIBABANKA|10.40.25.51|||101571767266|70
28.10.2018 00:00:00||FIBABANKA|10.40.24.51|||101571767266|30
28.10.2018 00:00:00||FIBABANKA|10.40.25.59|||101571767266|70
28.10.2018 00:00:00||FIBABANKA|10.40.25.59|||101571767266|90
28.10.2018 00:00:00||FIBABANKA|10.40.25.59|||101571767266|90
28.10.2018 00:00:00||FIBABANKA|10.40.25.59|||101571767266|40
28.10.2018 00:00:00||FIBABANKA|10.40.25.59|||101571767266|120
28.10.2018 00:00:00||FIBABANKA|10.40.25.59|||101571767266|60
28.10.2018 00:00:00||FIBABANKA|10.40.25.59|||101571767266|50
28.10.2018 00:00:00||FIBABANKA|10.40.25.59|||101571767266|140
28.10.2018 00:00:00||FIBABANKA|10.40.25.59|||101571767266|50
28.10.2018 00:00:00||FIBABANKA|10.40.24.59|||101571767266|70
28.10.2018 00:00:00||FIBABANKA|10.40.24.59|||101571767266|123
28.10.2018 00:00:00||FIBABANKA|10.40.24.59|||101571767266|75
28.10.2018 00:00:00||FIBABANKA|10.40.24.59|||101571767266|50
28.10.2018 00:00:00||FIBABANKA|10.40.24.59|||101571767266|137
28.10.2018 00:00:00||FIBABANKA|10.40.24.59|||101571767266|70
28.10.2018 00:00:00||FIBABANKA|10.40.24.59|||101571767266|60
28.10.2018 00:00:00||FIBABANKA|10.40.24.59|||101571767266|140
28.10.2018 00:00:00||FIBABANKA|10.40.24.59|||101571767266|60
28.10.2018 00:00:00||FIBABANKA|10.40.25.60|||101571767266|108
28.10.2018 00:00:00||FIBABANKA|10.40.25.60|||101571767266|37
28.10.2018 00:00:00||FIBABANKA|10.40.25.60|||101571767266|110
28.10.2018 00:00:00||FIBABANKA|10.40.25.60|||101571767266|42
28.10.2018 00:00:00||FIBABANKA|10.40.24.60|||101571767266|110
28.10.2018 00:00:00||FIBABANKA|10.40.24.60|||101571767266|58
28.10.2018 00:00:00||FIBABANKA|10.40.24.60|||101571767266|40
28.10.2018 00:00:00||FIBABANKA|10.40.24.60|||101571767266|100
28.10.2018 00:00:00||FIBABANKA|10.40.24.60|||101571767266|50
28.10.2018 00:00:00||FIBABANKA|10.40.25.72|||101571767266|70
28.10.2018 00:00:00||FIBABANKA|10.40.25.72|||101571767266|40
28.10.2018 00:00:00||FIBABANKA|10.40.25.72|||101571767266|30
28.10.2018 00:00:00||FIBABANKA|10.40.24.72|||101571767266|140
28.10.2018 00:00:00||FIBABANKA|10.40.24.72|||101571767266|78
28.10.2018 00:00:00||FIBABANKA|10.40.24.72|||101571767266|30
28.10.2018 00:00:00||FIBABANKA|10.40.24.72|||101571767266|40
28.10.2018 00:00:00||FIBABANKA|10.40.25.74|||101571767266|30
28.10.2018 00:00:00||FIBABANKA|10.40.25.75|||101571767266|40
28.10.2018 00:00:00||FIBABANKA|10.40.25.75|||101571767266|80
28.10.2018 00:00:00||FIBABANKA|10.40.25.75|||101571767266|133
28.10.2018 00:00:00||FIBABANKA|10.40.25.75|||101571767266|168
28.10.2018 00:00:00||FIBABANKA|10.40.25.75|||101571767266|182
28.10.2018 00:00:00||FIBABANKA|10.40.25.75|||101571767266|193
28.10.2018 00:00:00||FIBABANKA|10.40.24.75|||101571767266|48
28.10.2018 00:00:00||FIBABANKA|10.40.24.75|||101571767266|50
28.10.2018 00:00:00||FIBABANKA|10.40.24.75|||101571767266|110
28.10.2018 00:00:00||FIBABANKA|10.40.24.75|||101571767266|172
28.10.2018 00:00:00||FIBABANKA|10.40.24.75|||101571767266|147
28.10.2018 00:00:00||FIBABANKA|10.40.24.76|||101571767266|32
28.10.2018 00:00:00||FIBABANKA|10.40.24.76|||101571767266|70
28.10.2018 00:00:00||FIBABANKA|10.40.24.76|||101571767266|20
28.10.2018 00:00:00||FIBABANKA|10.40.24.76|||101571767266|40
28.10.2018 00:00:00||FIBABANKA|10.40.24.76|||101571767266|10
28.10.2018 00:00:00||FIBABANKA|10.40.25.77|||101571767266|50
28.10.2018 00:00:00||FIBABANKA|10.40.25.77|||101571767266|38
28.10.2018 00:00:00||FIBABANKA|10.40.24.77|||101571767266|38
28.10.2018 00:00:00||FIBABANKA|10.40.24.77|||101571767266|37
28.10.2018 00:00:00||FIBABANKA|10.40.24.53|||101571767266|30
28.10.2018 00:00:00||FIBABANKA|10.40.24.53|||101571767266|58
28.10.2018 00:00:00||FIBABANKA|10.40.26.57|||101571767266|90
28.10.2018 00:00:00||FIBABANKA|10.40.26.57|||101571767266|85
28.10.2018 00:00:00||FIBABANKA|10.40.26.57|||101571767266|80
28.10.2018 00:00:00||FIBABANKA|10.40.26.57|||101571767266|68
28.10.2018 00:00:00||FIBABANKA|10.40.26.57|||101571767266|68
28.10.2018 00:00:00||FIBABANKA|10.40.27.72|||101571767266|40
28.10.2018 00:00:00||FIBABANKA|10.40.27.72|||101571767266|50
28.10.2018 00:00:00||FIBABANKA|10.40.27.72|||101571767266|40
28.10.2018 00:00:00||FIBABANKA|10.40.27.72|||101571767266|140
28.10.2018 00:00:00||FIBABANKA|10.40.27.72|||101571767266|60
28.10.2018 00:00:00||FIBABANKA|10.40.26.72|||101571767266|30
28.10.2018 00:00:00||FIBABANKA|10.40.26.72|||101571767266|140
28.10.2018 00:00:00||FIBABANKA|10.40.26.72|||101571767266|70
28.10.2018 00:00:00||FIBABANKA|10.40.26.72|||101571767266|30
28.10.2018 00:00:00||FIBABANKA|10.40.27.73|||101571767266|30
28.10.2018 00:00:00||FIBABANKA|10.40.27.73|||101571767266|100
28.10.2018 00:00:00||FIBABANKA|10.40.27.73|||101571767266|40
28.10.2018 00:00:00||FIBABANKA|10.40.27.73|||101571767266|40
28.10.2018 00:00:00||FIBABANKA|10.40.27.73|||101571767266|352
28.10.2018 00:00:00||FIBABANKA|10.40.26.73|||101571767266|40
28.10.2018 00:00:00||FIBABANKA|10.40.26.73|||101571767266|70
28.10.2018 00:00:00||FIBABANKA|10.40.26.73|||101571767266|30
28.10.2018 00:00:00||FIBABANKA|10.40.26.73|||101571767266|8
28.10.2018 00:00:00||FIBABANKA|10.40.27.74|||101571767266|75
28.10.2018 00:00:00||FIBABANKA|10.40.27.74|||101571767266|163
28.10.2018 00:00:00||FIBABANKA|10.40.27.74|||101571767266|172
28.10.2018 00:00:00||FIBABANKA|10.40.26.74|||101571767266|72
28.10.2018 00:00:00||FIBABANKA|10.40.26.74|||101571767266|192
28.10.2018 00:00:00||FIBABANKA|10.40.26.74|||101571767266|180
28.10.2018 00:00:00||FIBABANKA|10.40.26.74|||101571767266|173
28.10.2018 00:00:00||FIBABANKA|10.40.27.75|||101571767266|10
28.10.2018 00:00:00||FIBABANKA|10.40.27.75|||101571767266|10
28.10.2018 00:00:00||FIBABANKA|10.40.27.75|||101571767266|60
28.10.2018 00:00:00||FIBABANKA|10.40.26.75|||101571767266|10
28.10.2018 00:00:00||FIBABANKA|10.40.27.76|||101571767266|90
28.10.2018 00:00:00||FIBABANKA|10.40.26.76|||101571767266|102
28.10.2018 00:00:00||FIBABANKA|10.40.26.79|||101571767266|10
28.10.2018 00:00:00||FIBABANKA|10.40.27.79|||101571767266|10
28.10.2018 00:00:00||FIBABANKA|10.40.27.79|||101571767266|10
28.10.2018 00:00:00||FIBABANKA|10.40.26.79|||101571767266|10
28.10.2018 00:00:00||FIBABANKA|10.40.27.77|||101571767266|53
28.10.2018 00:00:00||FIBABANKA|10.40.27.77|||101571767266|32
28.10.2018 00:00:00||FIBABANKA|10.40.27.77|||101571767266|168
28.10.2018 00:00:00||FIBABANKA|10.40.26.77|||101571767266|42
28.10.2018 00:00:00||FIBABANKA|10.40.26.77|||101571767266|50
28.10.2018 00:00:00||FIBABANKA|10.40.26.77|||101571767266|175
28.10.2018 00:00:00||FIBABANKA|10.40.26.77|||101571767266|197
28.10.2018 00:00:00||FIBABANKA|10.40.26.77|||101571767266|68
28.10.2018 00:00:00||FIBABANKA|10.40.26.77|||101571767266|82
28.10.2018 00:00:00||FIBABANKA|10.40.26.77|||101571767266|180
28.10.2018 00:00:00||FIBABANKA|10.40.26.77|||101571767266|188
28.10.2018 00:00:00||FIBABANKA|10.40.27.77|||101571767266|50
28.10.2018 00:00:00||FIBABANKA|10.40.27.77|||101571767266|32
28.10.2018 00:00:00||FIBABANKA|10.40.27.77|||101571767266|167
28.10.2018 00:00:00||FIBABANKA|10.40.27.57|||101571767266|80
28.10.2018 00:00:00||FIBABANKA|10.40.26.60|||101571767266|218
28.10.2018 00:00:00||FIBABANKA|10.40.25.74|||101571767266|230
28.10.2018 00:00:00||FIBABANKA|10.40.24.75|||101571767266|178
28.10.2018 00:00:00||FIBABANKA|10.40.24.75|||101571767266|140
28.10.2018 00:00:00||FIBABANKA|10.40.24.53|||101571767266|167
28.10.2018 00:00:00||FIBABANKA|10.40.24.53|||101571767266|170
28.10.2018 00:00:00||FIBABANKA|10.40.25.52|||101571767266|10
28.10.2018 00:00:00||FIBABANKA|10.40.25.52|||101571767266|50
28.10.2018 00:00:00||FIBABANKA|10.40.25.52|||101571767266|75
28.10.2018 00:00:00||FIBABANKA|10.40.25.53|||101571767266|162
28.10.2018 00:00:00||FIBABANKA|10.40.25.53|||101571767266|140
28.10.2018 00:00:00||FIBABANKA|10.40.27.51|||101571767266|30
28.10.2018 00:00:00||FIBABANKA|10.40.27.51|||101571767266|20
28.10.2018 00:00:00||FIBABANKA|10.40.27.51|||101571767266|103
28.10.2018 00:00:00||FIBABANKA|10.40.27.51|||101571767266|140
28.10.2018 00:00:00||FIBABANKA|10.40.27.51|||101571767266|70
28.10.2018 00:00:00||FIBABANKA|10.40.27.51|||101571767266|40
28.10.2018 00:00:00||FIBABANKA|10.40.27.51|||101571767266|40
28.10.2018 00:00:00||FIBABANKA|10.40.26.51|||101571767266|10
28.10.2018 00:00:00||FIBABANKA|10.40.26.51|||101571767266|110
28.10.2018 00:00:00||FIBABANKA|10.40.26.51|||101571767266|130
28.10.2018 00:00:00||FIBABANKA|10.40.26.51|||101571767266|30
28.10.2018 00:00:00||FIBABANKA|10.40.26.51|||101571767266|30
28.10.2018 00:00:00||FIBABANKA|10.40.24.74|||101571767266|33
28.10.2018 00:00:00||FIBABANKA|10.40.25.76|||101571767266|60
28.10.2018 00:00:00||FIBABANKA|10.40.25.76|||101571767266|40
28.10.2018 00:00:00||FIBABANKA|10.40.25.76|||101571767266|10
28.10.2018 00:00:00||FIBABANKA|10.40.25.52|||101571767266|40
28.10.2018 00:00:00||FIBABANKA|10.40.25.52|||101571767266|30
28.10.2018 00:00:00||HAVAŞ|10.40.24.46|||110000479675|10
28.10.2018 00:00:00||HAVAŞ|10.40.24.48|||110000479675|738
28.10.2018 00:00:00||HAVAŞ|10.40.24.48|||110000479675|765
28.10.2018 00:00:00||HAVAŞ|10.40.25.48|||110000479675|737
28.10.2018 00:00:00||HAVAŞ|10.40.24.45|||110000479675|70
28.10.2018 00:00:00||HAVAŞ|10.40.25.45|||110000479675|65
28.10.2018 00:00:00||HAVAŞ|10.40.25.47|||110000479675|70
28.10.2018 00:00:00||HAVAŞ|10.40.24.46|||110000479675|80
28.10.2018 00:00:00||HAVAŞ|10.40.24.47|||110000479675|30
28.10.2018 00:00:00||HAVAŞ|10.40.24.47|||110000479675|90
28.10.2018 00:00:00||HAVAŞ|10.40.24.47|||110000479675|90
28.10.2018 00:00:00||HAVAŞ|10.40.25.46|||110000479675|10
28.10.2018 00:00:00||HAVAŞ|10.40.25.46|||110000479675|60
28.10.2018 00:00:00||HAVAŞ|10.40.24.48|||110000479675|750
28.10.2018 00:00:00||HAVAŞ|10.40.24.46|||110000479675|60
28.10.2018 00:00:00||HAVAŞ|10.40.24.46|||110000479675|72
28.10.2018 00:00:00||HAVAŞ|10.40.24.47|||110000479675|13
28.10.2018 00:00:00||HAVAŞ|10.40.25.48|||110000479675|733
28.10.2018 00:00:00||HAVAŞ|10.40.25.48|||110000479675|768
28.10.2018 00:00:00||HAVAŞ|10.40.25.45|||110000479675|97
28.10.2018 00:00:00||HAVAŞ|10.40.24.45|||110000479675|50
28.10.2018 00:00:00||HAVAŞ|10.40.24.45|||110000479675|170
28.10.2018 00:00:00||HAVAŞ|10.40.24.45|||110000479675|100
28.10.2018 00:00:00||HAVAŞ|10.40.25.47|||110000479675|70
28.10.2018 00:00:00||HAVAŞ|10.40.25.47|||110000479675|222
28.10.2018 00:00:00||HAVAŞ|10.40.25.47|||110000479675|57
28.10.2018 00:00:00||HAVAŞ|10.40.25.47|||110000479675|90
28.10.2018 00:00:00||HAVAŞ|10.40.25.47|||110000479675|90
28.10.2018 00:00:00||HAVAŞ|10.40.25.47|||110000479675|92
28.10.2018 00:00:00||HAVAŞ|10.40.25.47|||110000479675|113
28.10.2018 00:00:00||HAVAŞ|10.40.25.47|||110000479675|180
28.10.2018 00:00:00||HAVAŞ|10.40.25.47|||110000479675|90
28.10.2018 00:00:00||HAVAŞ|10.40.25.47|||110000479675|90
28.10.2018 00:00:00||HAVAŞ|10.40.25.47|||110000479675|90
28.10.2018 00:00:00||HAVAŞ|10.40.25.45|||110000479675|108
28.10.2018 00:00:00||HAVAŞ|10.40.25.45|||110000479675|88
28.10.2018 00:00:00||HAVAŞ|10.40.25.46|||110000479675|10
28.10.2018 00:00:00||HAVAŞ|10.40.25.46|||110000479675|10
28.10.2018 00:00:00||HAVAŞ|10.40.25.46|||110000479675|20
28.10.2018 00:00:00||HAVAŞ|10.40.25.46|||110000479675|20
28.10.2018 00:00:00||HAVAŞ|10.40.25.46|||110000479675|50
28.10.2018 00:00:00||HAVAŞ|10.40.25.46|||110000479675|100
28.10.2018 00:00:00||HAVAŞ|10.40.25.46|||110000479675|65
28.10.2018 00:00:00||HAVAŞ|10.40.25.46|||110000479675|72
28.10.2018 00:00:00||HAVAŞ|10.40.25.46|||110000479675|70
28.10.2018 00:00:00||HAVAŞ|10.40.24.46|||110000479675|20
28.10.2018 00:00:00||HAVAŞ|10.40.24.46|||110000479675|20
28.10.2018 00:00:00||HAVAŞ|10.40.24.46|||110000479675|2
28.10.2018 00:00:00||HAVAŞ|10.40.24.46|||110000479675|10
28.10.2018 00:00:00||HAVAŞ|10.40.24.46|||110000479675|10
28.10.2018 00:00:00||HAVAŞ|10.40.24.46|||110000479675|10
28.10.2018 00:00:00||HAVAŞ|10.40.24.46|||110000479675|60
28.10.2018 00:00:00||HAVAŞ|10.40.24.46|||110000479675|110
28.10.2018 00:00:00||HAVAŞ|10.40.24.47|||110000479675|30
28.10.2018 00:00:00||HAVAŞ|10.40.24.47|||110000479675|218
28.10.2018 00:00:00||HAVAŞ|10.40.24.47|||110000479675|60
28.10.2018 00:00:00||HAVAŞ|10.40.24.47|||110000479675|53
28.10.2018 00:00:00||HAVAŞ|10.40.24.47|||110000479675|155
28.10.2018 00:00:00||HAVAŞ|10.40.24.47|||110000479675|98
28.10.2018 00:00:00||HAVAŞ|10.40.24.47|||110000479675|100
28.10.2018 00:00:00||MARS CINEMA|10.40.24.203|||110000472614|102
28.10.2018 00:00:00||MARS CINEMA|10.40.24.204|||110000472614|40
28.10.2018 00:00:00||MARS CINEMA|10.40.24.203|||110000472614|83
28.10.2018 00:00:00||MARS CINEMA|10.40.24.203|||110000472614|160
28.10.2018 00:00:00||MARS CINEMA|10.40.24.203|||110000472614|80
28.10.2018 00:00:00||MARS CINEMA|10.40.24.204|||110000472614|58
28.10.2018 00:00:00||MARS CINEMA|10.40.24.203|||110000472614|103
28.10.2018 00:00:00||MARS CINEMA|10.40.24.204|||110000472614|20
28.10.2018 00:00:00||MARS CINEMA|10.40.24.204|||110000472614|92
28.10.2018 00:00:00||MARS CINEMA|10.40.25.203|||110000472614|150
28.10.2018 00:00:00||MARS CINEMA|10.40.25.203|||110000472614|82
28.10.2018 00:00:00||MARS CINEMA|10.40.25.203|||110000472614|182
28.10.2018 00:00:00||MARS CINEMA|10.40.25.203|||110000472614|95
28.10.2018 00:00:00||MARS CINEMA|10.40.25.203|||110000472614|80
28.10.2018 00:00:00||MARS CINEMA|10.40.25.203|||110000472614|112
28.10.2018 00:00:00||MARS CINEMA|10.40.25.203|||110000472614|80
28.10.2018 00:00:00||MARS CINEMA|10.40.25.203|||110000472614|155
28.10.2018 00:00:00||MARS CINEMA|10.40.25.203|||110000472614|90
28.10.2018 00:00:00||MARS CINEMA|10.40.25.203|||110000472614|110
28.10.2018 00:00:00||MARS CINEMA|10.40.25.203|||110000472614|90
28.10.2018 00:00:00||MARS CINEMA|10.40.25.203|||110000472614|68
28.10.2018 00:00:00||MARS CINEMA|10.40.25.203|||110000472614|187
28.10.2018 00:00:00||MARS CINEMA|10.40.25.204|||110000472614|110
28.10.2018 00:00:00||MARS CINEMA|10.40.25.204|||110000472614|70
28.10.2018 00:00:00||MARS CINEMA|10.40.25.204|||110000472614|80
28.10.2018 00:00:00||MARS CINEMA|10.40.25.204|||110000472614|100
28.10.2018 00:00:00||MARS CINEMA|10.40.25.204|||110000472614|20
28.10.2018 00:00:00||MARS CINEMA|10.40.25.204|||110000472614|20
28.10.2018 00:00:00||MARS CINEMA|10.40.25.204|||110000472614|30
28.10.2018 00:00:00||MARS CINEMA|10.40.25.204|||110000472614|40
28.10.2018 00:00:00||MARS CINEMA|10.40.25.204|||110000472614|90
28.10.2018 00:00:00||MARS CINEMA|10.40.25.204|||110000472614|120
28.10.2018 00:00:00||MARS CINEMA|10.40.25.204|||110000472614|80
28.10.2018 00:00:00||MARS CINEMA|10.40.25.204|||110000472614|80
28.10.2018 00:00:00||MARS CINEMA|10.40.25.204|||110000472614|110
28.10.2018 00:00:00||MARS CINEMA|10.40.25.204|||110000472614|100
28.10.2018 00:00:00||MARS CINEMA|10.40.24.203|||110000472614|80
28.10.2018 00:00:00||MARS CINEMA|10.40.24.203|||110000472614|92
28.10.2018 00:00:00||MARS CINEMA|10.40.24.203|||110000472614|143
28.10.2018 00:00:00||MARS CINEMA|10.40.24.203|||110000472614|62
28.10.2018 00:00:00||MARS CINEMA|10.40.24.203|||110000472614|142
28.10.2018 00:00:00||MARS CINEMA|10.40.24.203|||110000472614|155
28.10.2018 00:00:00||MARS CINEMA|10.40.24.203|||110000472614|100
28.10.2018 00:00:00||MARS CINEMA|10.40.24.203|||110000472614|185
28.10.2018 00:00:00||MARS CINEMA|10.40.24.204|||110000472614|110
28.10.2018 00:00:00||MARS CINEMA|10.40.24.204|||110000472614|93
28.10.2018 00:00:00||MARS CINEMA|10.40.24.204|||110000472614|90
28.10.2018 00:00:00||MARS CINEMA|10.40.24.204|||110000472614|20
28.10.2018 00:00:00||MARS CINEMA|10.40.24.204|||110000472614|10
28.10.2018 00:00:00||MARS CINEMA|10.40.24.204|||110000472614|90
28.10.2018 00:00:00||MARS CINEMA|10.40.24.204|||110000472614|125
28.10.2018 00:00:00||MARS CINEMA|10.40.24.204|||110000472614|90
28.10.2018 00:00:00||MARS CINEMA|10.40.24.204|||110000472614|112
28.10.2018 00:00:00||MARS CINEMA|10.40.24.204|||110000472614|80
28.10.2018 00:00:00||MARS CINEMA|10.40.25.206|||110000472614|122
28.10.2018 00:00:00||MARS CINEMA|10.40.25.206|||110000472614|40
28.10.2018 00:00:00||MARS CINEMA|10.40.25.206|||110000472614|40
28.10.2018 00:00:00||MARS CINEMA|10.40.25.206|||110000472614|40
28.10.2018 00:00:00||MARS CINEMA|10.40.25.206|||110000472614|20
28.10.2018 00:00:00||MARS CINEMA|10.40.25.206|||110000472614|20
28.10.2018 00:00:00||MARS CINEMA|10.40.25.206|||110000472614|30
28.10.2018 00:00:00||MARS CINEMA|10.40.25.206|||110000472614|60
28.10.2018 00:00:00||MARS CINEMA|10.40.25.206|||110000472614|40
28.10.2018 00:00:00||MARS CINEMA|10.40.25.206|||110000472614|87
28.10.2018 00:00:00||MARS CINEMA|10.40.25.206|||110000472614|90
28.10.2018 00:00:00||MARS CINEMA|10.40.24.206|||110000472614|153
28.10.2018 00:00:00||MARS CINEMA|10.40.24.206|||110000472614|40
28.10.2018 00:00:00||MARS CINEMA|10.40.24.206|||110000472614|40
28.10.2018 00:00:00||MARS CINEMA|10.40.24.206|||110000472614|42
28.10.2018 00:00:00||MARS CINEMA|10.40.24.206|||110000472614|30
28.10.2018 00:00:00||MARS CINEMA|10.40.24.206|||110000472614|30
28.10.2018 00:00:00||MARS CINEMA|10.40.24.206|||110000472614|193
28.10.2018 00:00:00||MARS CINEMA|10.40.24.206|||110000472614|162
28.10.2018 00:00:00||MARS CINEMA|10.40.24.206|||110000472614|20
28.10.2018 00:00:00||MARS CINEMA|10.40.24.206|||110000472614|80
28.10.2018 00:00:00||MARS CINEMA|10.40.24.206|||110000472614|73
28.10.2018 00:00:00||PEGASUS|10.40.27.84|||110000423831|216
28.10.2018 00:00:00||PEGASUS|10.40.26.85|||110000423831|121
28.10.2018 00:00:00||PEGASUS|10.40.27.66|||110000423831|113
28.10.2018 00:00:00||PEGASUS|10.40.26.66|||110000423831|93
28.10.2018 00:00:00||PEGASUS|10.40.26.84|||110000423831|221
28.10.2018 00:00:00||PEGASUS|10.40.27.85|||110000423831|117
28.10.2018 00:00:00||PEGASUS|10.40.27.67|||110000423831|338
28.10.2018 00:00:00||PEGASUS|10.40.27.67|||110000423831|40
28.10.2018 00:00:00||PEGASUS|10.40.26.62|||110000423831|10
28.10.2018 00:00:00||PEGASUS|10.40.26.62|||110000423831|190
28.10.2018 00:00:00||PEGASUS|10.40.26.63|||110000423831|70
28.10.2018 00:00:00||PEGASUS|10.40.26.63|||110000423831|30
28.10.2018 00:00:00||PEGASUS|10.40.26.63|||110000423831|60
28.10.2018 00:00:00||PEGASUS|10.40.26.63|||110000423831|30
28.10.2018 00:00:00||PEGASUS|10.40.26.63|||110000423831|230
28.10.2018 00:00:00||PEGASUS|10.40.26.63|||110000423831|140
28.10.2018 00:00:00||PEGASUS|10.40.26.63|||110000423831|110
28.10.2018 00:00:00||PEGASUS|10.40.26.63|||110000423831|60
28.10.2018 00:00:00||PEGASUS|10.40.26.67|||110000423831|170
28.10.2018 00:00:00||PEGASUS|10.40.27.68|||110000423831|90
28.10.2018 00:00:00||PEGASUS|10.40.27.68|||110000423831|90
28.10.2018 00:00:00||PEGASUS|10.40.27.68|||110000423831|90
28.10.2018 00:00:00||PEGASUS|10.40.27.68|||110000423831|50
28.10.2018 00:00:00||PEGASUS|10.40.26.68|||110000423831|90
28.10.2018 00:00:00||PEGASUS|10.40.26.68|||110000423831|90
28.10.2018 00:00:00||PEGASUS|10.40.26.68|||110000423831|50
28.10.2018 00:00:00||PEGASUS|10.40.27.63|||110000423831|40
28.10.2018 00:00:00||PEGASUS|10.40.27.86|||110000423831|340
28.10.2018 00:00:00||PEGASUS|10.40.27.63|||110000423831|50
28.10.2018 00:00:00||PEGASUS|10.40.27.63|||110000423831|60
28.10.2018 00:00:00||PEGASUS|10.40.27.64|||110000423831|80
28.10.2018 00:00:00||PEGASUS|10.40.27.64|||110000423831|70
28.10.2018 00:00:00||PEGASUS|10.40.27.63|||110000423831|60
28.10.2018 00:00:00||PEGASUS|10.40.27.63|||110000423831|70
28.10.2018 00:00:00||PEGASUS|10.40.27.63|||110000423831|90
28.10.2018 00:00:00||PEGASUS|10.40.26.63|||110000423831|110
28.10.2018 00:00:00||PEGASUS|10.40.27.67|||110000423831|360
28.10.2018 00:00:00||PEGASUS|10.40.27.64|||110000423831|272
28.10.2018 00:00:00||PEGASUS|10.40.27.64|||110000423831|267
28.10.2018 00:00:00||PEGASUS|10.40.27.63|||110000423831|73
28.10.2018 00:00:00||PEGASUS|10.40.27.63|||110000423831|63
28.10.2018 00:00:00||PEGASUS|10.40.27.63|||110000423831|80
28.10.2018 00:00:00||PEGASUS|10.40.26.63|||110000423831|110
28.10.2018 00:00:00||PEGASUS|10.40.26.63|||110000423831|110
28.10.2018 00:00:00||PEGASUS|10.40.27.81|||110000423831|460
28.10.2018 00:00:00||PEGASUS|10.40.27.81|||110000423831|430
28.10.2018 00:00:00||PEGASUS|10.40.26.63|||110000423831|90
28.10.2018 00:00:00||PEGASUS|10.40.26.63|||110000423831|60
28.10.2018 00:00:00||PEGASUS|10.40.26.67|||110000423831|30
28.10.2018 00:00:00||PEGASUS|10.40.26.67|||110000423831|340
28.10.2018 00:00:00||PEGASUS|10.40.26.67|||110000423831|62
28.10.2018 00:00:00||PEGASUS|10.40.26.67|||110000423831|40
28.10.2018 00:00:00||PEGASUS|10.40.26.67|||110000423831|70
28.10.2018 00:00:00||PEGASUS|10.40.26.68|||110000423831|100
28.10.2018 00:00:00||PEGASUS|10.40.27.64|||110000423831|308
28.10.2018 00:00:00||PEGASUS|10.40.27.64|||110000423831|278
28.10.2018 00:00:00||PEGASUS|10.40.27.64|||110000423831|303
28.10.2018 00:00:00||PEGASUS|10.40.27.64|||110000423831|272
28.10.2018 00:00:00||PEGASUS|10.40.27.64|||110000423831|272
28.10.2018 00:00:00||PEGASUS|10.40.27.86|||110000423831|340
28.10.2018 00:00:00||PEGASUS|10.40.27.63|||110000423831|90
28.10.2018 00:00:00||PEGASUS|10.40.26.63|||110000423831|130
28.10.2018 00:00:00||PEGASUS|10.40.26.63|||110000423831|60
28.10.2018 00:00:00||PEGASUS|10.40.26.63|||110000423831|80
28.10.2018 00:00:00||PEGASUS|10.40.26.67|||110000423831|340
28.10.2018 00:00:00||PEGASUS|10.40.27.63|||110000423831|50
28.10.2018 00:00:00||PEGASUS|10.40.27.63|||110000423831|60
28.10.2018 00:00:00||PEGASUS|10.40.27.81|||110000423831|450
28.10.2018 00:00:00||PEGASUS|10.40.26.62|||110000423831|90
28.10.2018 00:00:00||PEGASUS|10.40.26.63|||110000423831|50
28.10.2018 00:00:00||PEGASUS|10.40.26.63|||110000423831|100
28.10.2018 00:00:00||PEGASUS|10.40.26.63|||110000423831|40
28.10.2018 00:00:00||PEGASUS|10.40.26.63|||110000423831|70
28.10.2018 00:00:00||PEGASUS|10.40.26.67|||110000423831|340
28.10.2018 00:00:00||PEGASUS|10.40.27.64|||110000423831|285
28.10.2018 00:00:00||PEGASUS|10.40.27.64|||110000423831|273
28.10.2018 00:00:00||PEGASUS|10.40.27.64|||110000423831|263
28.10.2018 00:00:00||PEGASUS|10.40.27.64|||110000423831|293
28.10.2018 00:00:00||PEGASUS|10.40.27.64|||110000423831|360
28.10.2018 00:00:00||PEGASUS|10.40.27.86|||110000423831|40
28.10.2018 00:00:00||PEGASUS|10.40.27.63|||110000423831|70
28.10.2018 00:00:00||PEGASUS|10.40.27.63|||110000423831|80
28.10.2018 00:00:00||PEGASUS|10.40.27.63|||110000423831|73
28.10.2018 00:00:00||PEGASUS|10.40.27.63|||110000423831|90
28.10.2018 00:00:00||PEGASUS|10.40.27.63|||110000423831|160
28.10.2018 00:00:00||PEGASUS|10.40.27.63|||110000423831|232
28.10.2018 00:00:00||PEGASUS|10.40.27.63|||110000423831|55
28.10.2018 00:00:00||PEGASUS|10.40.26.64|||110000423831|80
28.10.2018 00:00:00||PEGASUS|10.40.26.64|||110000423831|80
28.10.2018 00:00:00||PEGASUS|10.40.26.82|||110000423831|210
28.10.2018 00:00:00||PEGASUS|10.40.26.82|||110000423831|108
28.10.2018 00:00:00||PEGASUS|10.40.26.82|||110000423831|113
28.10.2018 00:00:00||PEGASUS|10.40.26.82|||110000423831|158
28.10.2018 00:00:00||PEGASUS|10.40.26.82|||110000423831|143
28.10.2018 00:00:00||PEGASUS|10.40.26.82|||110000423831|143
28.10.2018 00:00:00||PEGASUS|10.40.26.82|||110000423831|192
28.10.2018 00:00:00||PEGASUS|10.40.26.82|||110000423831|37
28.10.2018 00:00:00||PEGASUS|10.40.26.82|||110000423831|53
28.10.2018 00:00:00||PEGASUS|10.40.26.82|||110000423831|20
28.10.2018 00:00:00||PEGASUS|10.40.26.82|||110000423831|67
28.10.2018 00:00:00||PEGASUS|10.40.26.82|||110000423831|50
28.10.2018 00:00:00||PEGASUS|10.40.26.82|||110000423831|38
28.10.2018 00:00:00||PEGASUS|10.40.27.83|||110000423831|578
28.10.2018 00:00:00||PEGASUS|10.40.27.83|||110000423831|70
28.10.2018 00:00:00||PEGASUS|10.40.27.83|||110000423831|565
28.10.2018 00:00:00||PEGASUS|10.40.27.83|||110000423831|565
28.10.2018 00:00:00||PEGASUS|10.40.27.83|||110000423831|70
28.10.2018 00:00:00||PEGASUS|10.40.26.83|||110000423831|508
28.10.2018 00:00:00||PEGASUS|10.40.26.83|||110000423831|50
28.10.2018 00:00:00||PEGASUS|10.40.26.83|||110000423831|400
28.10.2018 00:00:00||PEGASUS|10.40.26.83|||110000423831|507
28.10.2018 00:00:00||PEGASUS|10.40.26.83|||110000423831|507
28.10.2018 00:00:00||PEGASUS|10.40.26.86|||110000423831|360
28.10.2018 00:00:00||PEGASUS|10.40.26.86|||110000423831|137
28.10.2018 00:00:00||PEGASUS|10.40.26.86|||110000423831|350
28.10.2018 00:00:00||PEGASUS|10.40.26.86|||110000423831|50
28.10.2018 00:00:00||PEGASUS|10.40.26.86|||110000423831|30
28.10.2018 00:00:00||PEGASUS|10.40.26.86|||110000423831|350
28.10.2018 00:00:00||PEGASUS|10.40.26.86|||110000423831|40
28.10.2018 00:00:00||PEGASUS|10.40.27.87|||110000423831|90
28.10.2018 00:00:00||PEGASUS|10.40.27.87|||110000423831|90
28.10.2018 00:00:00||PEGASUS|10.40.27.87|||110000423831|90
28.10.2018 00:00:00||PEGASUS|10.40.27.87|||110000423831|20
28.10.2018 00:00:00||PEGASUS|10.40.26.87|||110000423831|90
28.10.2018 00:00:00||PEGASUS|10.40.26.87|||110000423831|90
28.10.2018 00:00:00||PEGASUS|10.40.26.87|||110000423831|90
28.10.2018 00:00:00||PEGASUS|10.40.26.87|||110000423831|60
28.10.2018 00:00:00||PEGASUS|10.40.26.87|||110000423831|20
28.10.2018 00:00:00||PEGASUS|10.40.26.81|||110000423831|410
28.10.2018 00:00:00||PEGASUS|10.40.26.81|||110000423831|428
28.10.2018 00:00:00||PEGASUS|10.40.26.81|||110000423831|430
28.10.2018 00:00:00||PEGASUS|10.40.27.82|||110000423831|220
28.10.2018 00:00:00||PEGASUS|10.40.27.82|||110000423831|30
28.10.2018 00:00:00||PEGASUS|10.40.27.82|||110000423831|108
28.10.2018 00:00:00||PEGASUS|10.40.27.82|||110000423831|83
28.10.2018 00:00:00||PEGASUS|10.40.27.82|||110000423831|160
28.10.2018 00:00:00||PEGASUS|10.40.27.82|||110000423831|123
28.10.2018 00:00:00||PEGASUS|10.40.27.82|||110000423831|177
28.10.2018 00:00:00||PEGASUS|10.40.27.82|||110000423831|115
28.10.2018 00:00:00||PEGASUS|10.40.27.82|||110000423831|62
28.10.2018 00:00:00||PEGASUS|10.40.27.82|||110000423831|80
28.10.2018 00:00:00||PEGASUS|10.40.27.82|||110000423831|50
28.10.2018 00:00:00||PEGASUS|10.40.27.82|||110000423831|33
28.10.2018 00:00:00||PEGASUS|10.40.27.82|||110000423831|40
28.10.2018 00:00:00||PEGASUS|10.40.27.67|||110000423831|50
28.10.2018 00:00:00||PEGASUS|10.40.27.67|||110000423831|70
28.10.2018 00:00:00||PEGASUS|10.40.27.67|||110000423831|130
28.10.2018 00:00:00||PEGASUS|10.40.27.67|||110000423831|10
28.10.2018 00:00:00||PEGASUS|10.40.27.67|||110000423831|340
28.10.2018 00:00:00||PEGASUS|10.40.27.82|||110000423831|68
28.10.2018 00:00:00||PEGASUS|10.40.27.86|||110000423831|170
28.10.2018 00:00:00||PEGASUS|10.40.27.86|||110000423831|70
28.10.2018 00:00:00||PEGASUS|10.40.27.86|||110000423831|20
28.10.2018 00:00:00||PEGASUS|10.40.27.86|||110000423831|350
28.10.2018 00:00:00||PETKIM|10.40.25.87|||110000437354|142
28.10.2018 00:00:00||PWC|10.40.24.66|||110000433262|90
28.10.2018 00:00:00||PWC|10.40.24.66|||110000433262|10
28.10.2018 00:00:00||PWC|10.40.24.66|||110000433262|30
28.10.2018 00:00:00||PWC|10.40.24.66|||110000433262|50
28.10.2018 00:00:00||PWC|10.40.24.66|||110000433262|440
28.10.2018 00:00:00||PWC|10.40.24.68|||110000433262|157
28.10.2018 00:00:00||PWC|10.40.24.66|||110000433262|50
28.10.2018 00:00:00||PWC|10.40.24.66|||110000433262|210
28.10.2018 00:00:00||PWC|10.40.24.66|||110000433262|210
28.10.2018 00:00:00||PWC|10.40.25.67|||110000433262|80
28.10.2018 00:00:00||PWC|10.40.25.67|||110000433262|90
28.10.2018 00:00:00||PWC|10.40.25.67|||110000433262|320
28.10.2018 00:00:00||PWC|10.40.25.67|||110000433262|250
28.10.2018 00:00:00||PWC|10.40.25.67|||110000433262|240
28.10.2018 00:00:00||PWC|10.40.25.67|||110000433262|250
28.10.2018 00:00:00||PWC|10.40.25.67|||110000433262|50
28.10.2018 00:00:00||PWC|10.40.25.67|||110000433262|30
28.10.2018 00:00:00||PWC|10.40.25.67|||110000433262|120
28.10.2018 00:00:00||PWC|10.40.24.67|||110000433262|10
28.10.2018 00:00:00||PWC|10.40.24.67|||110000433262|10
28.10.2018 00:00:00||PWC|10.40.24.67|||110000433262|370
28.10.2018 00:00:00||PWC|10.40.24.67|||110000433262|30
28.10.2018 00:00:00||PWC|10.40.24.67|||110000433262|70
28.10.2018 00:00:00||PWC|10.40.24.67|||110000433262|120
28.10.2018 00:00:00||PWC|10.40.25.68|||110000433262|142
28.10.2018 00:00:00||PWC|10.40.25.68|||110000433262|188
28.10.2018 00:00:00||PWC|10.40.25.68|||110000433262|70
28.10.2018 00:00:00||PWC|10.40.25.68|||110000433262|72
28.10.2018 00:00:00||PWC|10.40.25.68|||110000433262|153
28.10.2018 00:00:00||PWC|10.40.24.66|||110000433262|60
28.10.2018 00:00:00||PWC|10.40.24.66|||110000433262|30
28.10.2018 00:00:00||PWC|10.40.24.66|||110000433262|30
28.10.2018 00:00:00||PWC|10.40.24.68|||110000433262|102
28.10.2018 00:00:00||PWC|10.40.24.68|||110000433262|133
28.10.2018 00:00:00||PWC|10.40.24.68|||110000433262|397
28.10.2018 00:00:00||PWC|10.40.24.68|||110000433262|72
28.10.2018 00:00:00||PWC|10.40.24.68|||110000433262|65
28.10.2018 00:00:00||VSMART BİLGİ TEKNOLOJİLERİ|10.40.24.62|||110000474326|40
28.10.2018 00:00:00||VSMART BİLGİ TEKNOLOJİLERİ|10.40.24.62|||110000474326|68
28.10.2018 00:00:00||VSMART BİLGİ TEKNOLOJİLERİ|10.40.24.62|||110000474326|48
28.10.2018 00:00:00||VSMART BİLGİ TEKNOLOJİLERİ|10.40.25.62|||110000474326|70
28.10.2018 00:00:00||VSMART BİLGİ TEKNOLOJİLERİ|10.40.24.62|||110000474326|42
28.10.2018 00:00:00||VSMART BİLGİ TEKNOLOJİLERİ|10.40.24.62|||110000474326|30
28.10.2018 00:00:00||VSMART BİLGİ TEKNOLOJİLERİ|10.40.24.62|||110000474326|10
28.10.2018 00:00:00||VSMART BİLGİ TEKNOLOJİLERİ|10.40.25.62|||110000474326|40
28.10.2018 00:00:00||VSMART BİLGİ TEKNOLOJİLERİ|10.40.25.62|||110000474326|10
28.10.2018 00:00:00||VSMART BİLGİ TEKNOLOJİLERİ|10.40.25.62|||110000474326|10
28.10.2018 00:00:00||VSMART BİLGİ TEKNOLOJİLERİ|10.40.25.62|||110000474326|80
28.10.2018 00:00:00||VSMART BİLGİ TEKNOLOJİLERİ|10.40.25.62|||110000474326|90
28.10.2018 00:00:00||VSMART BİLGİ TEKNOLOJİLERİ|10.40.25.62|||110000474326|107
28.10.2018 00:00:00||VSMART BİLGİ TEKNOLOJİLERİ|10.40.24.62|||110000474326|10
