24.10.2018 00:00:00||AKTİFBANK|10.40.24.172|||110000438458|95
24.10.2018 00:00:00||AKTİFBANK|10.40.25.134|||110000438458|93
24.10.2018 00:00:00||AKTİFBANK|10.40.24.134|||110000438458|93
24.10.2018 00:00:00||AKTİFBANK|10.40.24.135|||110000438458|100
24.10.2018 00:00:00||AKTİFBANK|10.40.25.137|||110000438458|57
24.10.2018 00:00:00||AKTİFBANK|10.40.25.171|||110000438458|12
24.10.2018 00:00:00||AKTİFBANK|10.40.25.172|||110000438458|88
24.10.2018 00:00:00||AKTİFBANK|10.40.25.174|||110000438458|53
24.10.2018 00:00:00||AKTİFBANK|10.40.25.135|||110000438458|96
24.10.2018 00:00:00||AKTİFBANK|10.40.24.137|||110000438458|57
24.10.2018 00:00:00||AKTİFBANK|10.40.24.171|||110000438458|11
24.10.2018 00:00:00||AKTİFBANK|10.40.25.173|||110000438458|95
24.10.2018 00:00:00||AKTİFBANK|10.40.24.173|||110000438458|94
24.10.2018 00:00:00||AKTİFBANK|10.40.24.174|||110000438458|60
24.10.2018 00:00:00||AKTİFBANK|10.40.24.133|||110000438458|78
24.10.2018 00:00:00||AKTİFBANK|10.40.24.138|||110000438458|120
24.10.2018 00:00:00||AKTİFBANK|10.40.24.139|||110000438458|30
24.10.2018 00:00:00||AKTİFBANK|10.40.24.149|||110000438458|110
24.10.2018 00:00:00||AKTİFBANK|10.40.24.150|||110000438458|538
24.10.2018 00:00:00||AKTİFBANK|10.40.24.145|||110000438458|60
24.10.2018 00:00:00||AKTİFBANK|10.40.24.164|||110000438458|230
24.10.2018 00:00:00||AKTİFBANK|10.40.25.133|||110000438458|70
24.10.2018 00:00:00||AKTİFBANK|10.40.24.145|||110000438458|90
24.10.2018 00:00:00||AKTİFBANK|10.40.24.158|||110000438458|83
24.10.2018 00:00:00||AKTİFBANK|10.40.24.164|||110000438458|70
24.10.2018 00:00:00||AKTİFBANK|10.40.25.138|||110000438458|80
24.10.2018 00:00:00||AKTİFBANK|10.40.25.139|||110000438458|10
24.10.2018 00:00:00||AKTİFBANK|10.40.25.140|||110000438458|30
24.10.2018 00:00:00||AKTİFBANK|10.40.25.151|||110000438458|508
24.10.2018 00:00:00||AKTİFBANK|10.40.25.141|||110000438458|100
24.10.2018 00:00:00||AKTİFBANK|10.40.25.141|||110000438458|84
24.10.2018 00:00:00||AKTİFBANK|10.40.25.142|||110000438458|70
24.10.2018 00:00:00||AKTİFBANK|10.40.25.133|||110000438458|110
24.10.2018 00:00:00||AKTİFBANK|10.40.25.149|||110000438458|100
24.10.2018 00:00:00||AKTİFBANK|10.40.25.149|||110000438458|90
24.10.2018 00:00:00||AKTİFBANK|10.40.25.149|||110000438458|90
24.10.2018 00:00:00||AKTİFBANK|10.40.25.140|||110000438458|30
24.10.2018 00:00:00||AKTİFBANK|10.40.25.150|||110000438458|544
24.10.2018 00:00:00||AKTİFBANK|10.40.25.139|||110000438458|170
24.10.2018 00:00:00||AKTİFBANK|10.40.25.139|||110000438458|40
24.10.2018 00:00:00||AKTİFBANK|10.40.25.140|||110000438458|82
24.10.2018 00:00:00||AKTİFBANK|10.40.25.140|||110000438458|70
24.10.2018 00:00:00||AKTİFBANK|10.40.25.140|||110000438458|30
24.10.2018 00:00:00||AKTİFBANK|10.40.25.151|||110000438458|416
24.10.2018 00:00:00||AKTİFBANK|10.40.25.151|||110000438458|496
24.10.2018 00:00:00||AKTİFBANK|10.40.25.141|||110000438458|40
24.10.2018 00:00:00||AKTİFBANK|10.40.25.141|||110000438458|100
24.10.2018 00:00:00||AKTİFBANK|10.40.25.141|||110000438458|66
24.10.2018 00:00:00||AKTİFBANK|10.40.25.142|||110000438458|40
24.10.2018 00:00:00||AKTİFBANK|10.40.25.149|||110000438458|70
24.10.2018 00:00:00||AKTİFBANK|10.40.25.149|||110000438458|110
24.10.2018 00:00:00||AKTİFBANK|10.40.25.149|||110000438458|90
24.10.2018 00:00:00||AKTİFBANK|10.40.25.149|||110000438458|90
24.10.2018 00:00:00||AKTİFBANK|10.40.25.149|||110000438458|106
24.10.2018 00:00:00||AKTİFBANK|10.40.24.139|||110000438458|60
24.10.2018 00:00:00||AKTİFBANK|10.40.25.153|||110000438458|10
24.10.2018 00:00:00||AKTİFBANK|10.40.25.150|||110000438458|546
24.10.2018 00:00:00||AKTİFBANK|10.40.25.153|||110000438458|70
24.10.2018 00:00:00||AKTİFBANK|10.40.25.163|||110000438458|48
24.10.2018 00:00:00||AKTİFBANK|10.40.24.141|||110000438458|72
24.10.2018 00:00:00||AKTİFBANK|10.40.24.151|||110000438458|510
24.10.2018 00:00:00||AKTİFBANK|10.40.25.153|||110000438458|80
24.10.2018 00:00:00||AKTİFBANK|10.40.24.149|||110000438458|82
24.10.2018 00:00:00||AKTİFBANK|10.40.24.141|||110000438458|50
24.10.2018 00:00:00||AKTİFBANK|10.40.25.133|||110000438458|280
24.10.2018 00:00:00||AKTİFBANK|10.40.25.133|||110000438458|90
24.10.2018 00:00:00||AKTİFBANK|10.40.24.149|||110000438458|92
24.10.2018 00:00:00||AKTİFBANK|10.40.24.162|||110000438458|210
24.10.2018 00:00:00||AKTİFBANK|10.40.24.162|||110000438458|28
24.10.2018 00:00:00||AKTİFBANK|10.40.24.162|||110000438458|40
24.10.2018 00:00:00||AKTİFBANK|10.40.25.133|||110000438458|150
24.10.2018 00:00:00||AKTİFBANK|10.40.25.138|||110000438458|130
24.10.2018 00:00:00||AKTİFBANK|10.40.25.149|||110000438458|70
24.10.2018 00:00:00||AKTİFBANK|10.40.25.149|||110000438458|70
24.10.2018 00:00:00||AKTİFBANK|10.40.25.149|||110000438458|28
24.10.2018 00:00:00||AKTİFBANK|10.40.25.149|||110000438458|82
24.10.2018 00:00:00||AKTİFBANK|10.40.25.149|||110000438458|70
24.10.2018 00:00:00||AKTİFBANK|10.40.25.141|||110000438458|100
24.10.2018 00:00:00||AKTİFBANK|10.40.25.149|||110000438458|130
24.10.2018 00:00:00||AKTİFBANK|10.40.25.138|||110000438458|92
24.10.2018 00:00:00||AKTİFBANK|10.40.25.138|||110000438458|72
24.10.2018 00:00:00||AKTİFBANK|10.40.25.139|||110000438458|100
24.10.2018 00:00:00||AKTİFBANK|10.40.24.145|||110000438458|70
24.10.2018 00:00:00||AKTİFBANK|10.40.24.149|||110000438458|160
24.10.2018 00:00:00||AKTİFBANK|10.40.25.138|||110000438458|30
24.10.2018 00:00:00||AKTİFBANK|10.40.25.138|||110000438458|10
24.10.2018 00:00:00||AKTİFBANK|10.40.25.153|||110000438458|60
24.10.2018 00:00:00||AKTİFBANK|10.40.24.150|||110000438458|552
24.10.2018 00:00:00||AKTİFBANK|10.40.25.128|||110000438458|70
24.10.2018 00:00:00||AKTİFBANK|10.40.25.128|||110000438458|90
24.10.2018 00:00:00||AKTİFBANK|10.40.25.128|||110000438458|90
24.10.2018 00:00:00||AKTİFBANK|10.40.25.128|||110000438458|40
24.10.2018 00:00:00||AKTİFBANK|10.40.25.128|||110000438458|65
24.10.2018 00:00:00||AKTİFBANK|10.40.25.129|||110000438458|82
24.10.2018 00:00:00||AKTİFBANK|10.40.25.129|||110000438458|72
24.10.2018 00:00:00||AKTİFBANK|10.40.25.129|||110000438458|138
24.10.2018 00:00:00||AKTİFBANK|10.40.25.129|||110000438458|103
24.10.2018 00:00:00||AKTİFBANK|10.40.25.129|||110000438458|45
24.10.2018 00:00:00||AKTİFBANK|10.40.25.129|||110000438458|97
24.10.2018 00:00:00||AKTİFBANK|10.40.25.129|||110000438458|97
24.10.2018 00:00:00||AKTİFBANK|10.40.25.130|||110000438458|62
24.10.2018 00:00:00||AKTİFBANK|10.40.25.130|||110000438458|52
24.10.2018 00:00:00||AKTİFBANK|10.40.25.130|||110000438458|72
24.10.2018 00:00:00||AKTİFBANK|10.40.25.130|||110000438458|33
24.10.2018 00:00:00||AKTİFBANK|10.40.25.130|||110000438458|60
24.10.2018 00:00:00||AKTİFBANK|10.40.25.130|||110000438458|98
24.10.2018 00:00:00||AKTİFBANK|10.40.25.130|||110000438458|80
24.10.2018 00:00:00||AKTİFBANK|10.40.25.131|||110000438458|20
24.10.2018 00:00:00||AKTİFBANK|10.40.25.131|||110000438458|78
24.10.2018 00:00:00||AKTİFBANK|10.40.25.131|||110000438458|100
24.10.2018 00:00:00||AKTİFBANK|10.40.25.131|||110000438458|105
24.10.2018 00:00:00||AKTİFBANK|10.40.25.131|||110000438458|80
24.10.2018 00:00:00||AKTİFBANK|10.40.25.131|||110000438458|82
24.10.2018 00:00:00||AKTİFBANK|10.40.25.131|||110000438458|22
24.10.2018 00:00:00||AKTİFBANK|10.40.25.131|||110000438458|120
24.10.2018 00:00:00||AKTİFBANK|10.40.25.132|||110000438458|60
24.10.2018 00:00:00||AKTİFBANK|10.40.25.132|||110000438458|65
24.10.2018 00:00:00||AKTİFBANK|10.40.25.132|||110000438458|83
24.10.2018 00:00:00||AKTİFBANK|10.40.25.132|||110000438458|160
24.10.2018 00:00:00||AKTİFBANK|10.40.25.132|||110000438458|60
24.10.2018 00:00:00||AKTİFBANK|10.40.25.143|||110000438458|320
24.10.2018 00:00:00||AKTİFBANK|10.40.25.144|||110000438458|80
24.10.2018 00:00:00||AKTİFBANK|10.40.25.144|||110000438458|50
24.10.2018 00:00:00||AKTİFBANK|10.40.25.144|||110000438458|20
24.10.2018 00:00:00||AKTİFBANK|10.40.25.154|||110000438458|10
24.10.2018 00:00:00||AKTİFBANK|10.40.25.154|||110000438458|10
24.10.2018 00:00:00||AKTİFBANK|10.40.25.154|||110000438458|10
24.10.2018 00:00:00||AKTİFBANK|10.40.25.157|||110000438458|70
24.10.2018 00:00:00||AKTİFBANK|10.40.25.157|||110000438458|70
24.10.2018 00:00:00||AKTİFBANK|10.40.25.157|||110000438458|70
24.10.2018 00:00:00||AKTİFBANK|10.40.25.157|||110000438458|80
24.10.2018 00:00:00||AKTİFBANK|10.40.25.157|||110000438458|42
24.10.2018 00:00:00||AKTİFBANK|10.40.25.159|||110000438458|60
24.10.2018 00:00:00||AKTİFBANK|10.40.25.159|||110000438458|10
24.10.2018 00:00:00||AKTİFBANK|10.40.25.159|||110000438458|90
24.10.2018 00:00:00||AKTİFBANK|10.40.25.158|||110000438458|75
24.10.2018 00:00:00||AKTİFBANK|10.40.25.158|||110000438458|73
24.10.2018 00:00:00||AKTİFBANK|10.40.25.158|||110000438458|87
24.10.2018 00:00:00||AKTİFBANK|10.40.25.158|||110000438458|50
24.10.2018 00:00:00||AKTİFBANK|10.40.25.160|||110000438458|90
24.10.2018 00:00:00||AKTİFBANK|10.40.25.161|||110000438458|80
24.10.2018 00:00:00||AKTİFBANK|10.40.25.161|||110000438458|70
24.10.2018 00:00:00||AKTİFBANK|10.40.25.161|||110000438458|40
24.10.2018 00:00:00||AKTİFBANK|10.40.25.161|||110000438458|30
24.10.2018 00:00:00||AKTİFBANK|10.40.25.161|||110000438458|20
24.10.2018 00:00:00||AKTİFBANK|10.40.25.161|||110000438458|55
24.10.2018 00:00:00||AKTİFBANK|10.40.25.145|||110000438458|90
24.10.2018 00:00:00||AKTİFBANK|10.40.25.145|||110000438458|60
24.10.2018 00:00:00||AKTİFBANK|10.40.25.145|||110000438458|60
24.10.2018 00:00:00||AKTİFBANK|10.40.25.145|||110000438458|30
24.10.2018 00:00:00||AKTİFBANK|10.40.25.145|||110000438458|50
24.10.2018 00:00:00||AKTİFBANK|10.40.25.147|||110000438458|90
24.10.2018 00:00:00||AKTİFBANK|10.40.25.162|||110000438458|30
24.10.2018 00:00:00||AKTİFBANK|10.40.25.162|||110000438458|30
24.10.2018 00:00:00||AKTİFBANK|10.40.25.162|||110000438458|60
24.10.2018 00:00:00||AKTİFBANK|10.40.25.164|||110000438458|60
24.10.2018 00:00:00||AKTİFBANK|10.40.25.164|||110000438458|280
24.10.2018 00:00:00||AKTİFBANK|10.40.25.164|||110000438458|50
24.10.2018 00:00:00||AKTİFBANK|10.40.25.164|||110000438458|260
24.10.2018 00:00:00||AKTİFBANK|10.40.25.164|||110000438458|270
24.10.2018 00:00:00||AKTİFBANK|10.40.25.165|||110000438458|110
24.10.2018 00:00:00||AKTİFBANK|10.40.25.165|||110000438458|70
24.10.2018 00:00:00||AKTİFBANK|10.40.25.165|||110000438458|80
24.10.2018 00:00:00||AKTİFBANK|10.40.25.165|||110000438458|100
24.10.2018 00:00:00||AKTİFBANK|10.40.25.166|||110000438458|90
24.10.2018 00:00:00||AKTİFBANK|10.40.25.166|||110000438458|10
24.10.2018 00:00:00||AKTİFBANK|10.40.25.166|||110000438458|10
24.10.2018 00:00:00||AKTİFBANK|10.40.25.166|||110000438458|40
24.10.2018 00:00:00||AKTİFBANK|10.40.25.148|||110000438458|130
24.10.2018 00:00:00||AKTİFBANK|10.40.25.148|||110000438458|50
24.10.2018 00:00:00||AKTİFBANK|10.40.25.148|||110000438458|100
24.10.2018 00:00:00||AKTİFBANK|10.40.25.148|||110000438458|130
24.10.2018 00:00:00||AKTİFBANK|10.40.25.148|||110000438458|90
24.10.2018 00:00:00||AKTİFBANK|10.40.25.148|||110000438458|80
24.10.2018 00:00:00||AKTİFBANK|10.40.25.148|||110000438458|70
24.10.2018 00:00:00||AKTİFBANK|10.40.25.148|||110000438458|50
24.10.2018 00:00:00||AKTİFBANK|10.40.25.148|||110000438458|80
24.10.2018 00:00:00||AKTİFBANK|10.40.25.148|||110000438458|40
24.10.2018 00:00:00||AKTİFBANK|10.40.25.148|||110000438458|100
24.10.2018 00:00:00||AKTİFBANK|10.40.25.148|||110000438458|60
24.10.2018 00:00:00||AKTİFBANK|10.40.25.155|||110000438458|70
24.10.2018 00:00:00||AKTİFBANK|10.40.25.155|||110000438458|90
24.10.2018 00:00:00||AKTİFBANK|10.40.25.155|||110000438458|110
24.10.2018 00:00:00||AKTİFBANK|10.40.25.155|||110000438458|120
24.10.2018 00:00:00||AKTİFBANK|10.40.25.155|||110000438458|110
24.10.2018 00:00:00||AKTİFBANK|10.40.25.156|||110000438458|20
24.10.2018 00:00:00||AKTİFBANK|10.40.25.156|||110000438458|30
24.10.2018 00:00:00||AKTİFBANK|10.40.25.139|||110000438458|70
24.10.2018 00:00:00||AKTİFBANK|10.40.25.139|||110000438458|80
24.10.2018 00:00:00||AKTİFBANK|10.40.25.150|||110000438458|506
24.10.2018 00:00:00||AKTİFBANK|10.40.25.129|||110000438458|60
24.10.2018 00:00:00||AKTİFBANK|10.40.25.129|||110000438458|87
24.10.2018 00:00:00||AKTİFBANK|10.40.25.129|||110000438458|140
24.10.2018 00:00:00||AKTİFBANK|10.40.25.130|||110000438458|65
24.10.2018 00:00:00||AKTİFBANK|10.40.25.130|||110000438458|125
24.10.2018 00:00:00||AKTİFBANK|10.40.25.130|||110000438458|100
24.10.2018 00:00:00||AKTİFBANK|10.40.25.131|||110000438458|42
24.10.2018 00:00:00||AKTİFBANK|10.40.25.143|||110000438458|60
24.10.2018 00:00:00||AKTİFBANK|10.40.25.143|||110000438458|240
24.10.2018 00:00:00||AKTİFBANK|10.40.25.143|||110000438458|268
24.10.2018 00:00:00||AKTİFBANK|10.40.25.158|||110000438458|103
24.10.2018 00:00:00||AKTİFBANK|10.40.25.160|||110000438458|110
24.10.2018 00:00:00||AKTİFBANK|10.40.25.162|||110000438458|32
24.10.2018 00:00:00||AKTİFBANK|10.40.25.162|||110000438458|40
24.10.2018 00:00:00||AKTİFBANK|10.40.24.140|||110000438458|160
24.10.2018 00:00:00||AKTİFBANK|10.40.24.140|||110000438458|80
24.10.2018 00:00:00||AKTİFBANK|10.40.24.140|||110000438458|40
24.10.2018 00:00:00||AKTİFBANK|10.40.24.140|||110000438458|30
24.10.2018 00:00:00||AKTİFBANK|10.40.24.140|||110000438458|30
24.10.2018 00:00:00||AKTİFBANK|10.40.24.140|||110000438458|24
24.10.2018 00:00:00||AKTİFBANK|10.40.24.149|||110000438458|80
24.10.2018 00:00:00||AKTİFBANK|10.40.24.149|||110000438458|120
24.10.2018 00:00:00||AKTİFBANK|10.40.24.149|||110000438458|90
24.10.2018 00:00:00||AKTİFBANK|10.40.24.149|||110000438458|60
24.10.2018 00:00:00||AKTİFBANK|10.40.24.149|||110000438458|50
24.10.2018 00:00:00||AKTİFBANK|10.40.24.149|||110000438458|140
24.10.2018 00:00:00||AKTİFBANK|10.40.24.149|||110000438458|90
24.10.2018 00:00:00||AKTİFBANK|10.40.24.149|||110000438458|90
24.10.2018 00:00:00||AKTİFBANK|10.40.24.149|||110000438458|96
24.10.2018 00:00:00||AKTİFBANK|10.40.24.149|||110000438458|80
24.10.2018 00:00:00||AKTİFBANK|10.40.24.133|||110000438458|142
24.10.2018 00:00:00||AKTİFBANK|10.40.24.133|||110000438458|276
24.10.2018 00:00:00||AKTİFBANK|10.40.24.133|||110000438458|120
24.10.2018 00:00:00||AKTİFBANK|10.40.24.133|||110000438458|86
24.10.2018 00:00:00||AKTİFBANK|10.40.24.138|||110000438458|116
24.10.2018 00:00:00||AKTİFBANK|10.40.24.138|||110000438458|140
24.10.2018 00:00:00||AKTİFBANK|10.40.24.138|||110000438458|118
24.10.2018 00:00:00||AKTİFBANK|10.40.24.138|||110000438458|30
24.10.2018 00:00:00||AKTİFBANK|10.40.24.138|||110000438458|50
24.10.2018 00:00:00||AKTİFBANK|10.40.24.139|||110000438458|160
24.10.2018 00:00:00||AKTİFBANK|10.40.24.139|||110000438458|90
24.10.2018 00:00:00||AKTİFBANK|10.40.24.139|||110000438458|120
24.10.2018 00:00:00||AKTİFBANK|10.40.24.141|||110000438458|200
24.10.2018 00:00:00||AKTİFBANK|10.40.24.141|||110000438458|100
24.10.2018 00:00:00||AKTİFBANK|10.40.24.141|||110000438458|100
24.10.2018 00:00:00||AKTİFBANK|10.40.24.141|||110000438458|58
24.10.2018 00:00:00||AKTİFBANK|10.40.24.141|||110000438458|80
24.10.2018 00:00:00||AKTİFBANK|10.40.25.152|||110000438458|110
24.10.2018 00:00:00||AKTİFBANK|10.40.25.152|||110000438458|50
24.10.2018 00:00:00||AKTİFBANK|10.40.25.152|||110000438458|140
24.10.2018 00:00:00||AKTİFBANK|10.40.25.152|||110000438458|70
24.10.2018 00:00:00||AKTİFBANK|10.40.25.152|||110000438458|90
24.10.2018 00:00:00||AKTİFBANK|10.40.25.152|||110000438458|160
24.10.2018 00:00:00||AKTİFBANK|10.40.25.152|||110000438458|50
24.10.2018 00:00:00||AKTİFBANK|10.40.25.152|||110000438458|90
24.10.2018 00:00:00||AKTİFBANK|10.40.25.152|||110000438458|30
24.10.2018 00:00:00||AKTİFBANK|10.40.25.152|||110000438458|80
24.10.2018 00:00:00||AKTİFBANK|10.40.25.152|||110000438458|30
24.10.2018 00:00:00||AKTİFBANK|10.40.24.150|||110000438458|546
24.10.2018 00:00:00||AKTİFBANK|10.40.24.151|||110000438458|540
24.10.2018 00:00:00||AKTİFBANK|10.40.24.151|||110000438458|532
24.10.2018 00:00:00||AKTİFBANK|10.40.24.128|||110000438458|60
24.10.2018 00:00:00||AKTİFBANK|10.40.24.128|||110000438458|70
24.10.2018 00:00:00||AKTİFBANK|10.40.24.128|||110000438458|100
24.10.2018 00:00:00||AKTİFBANK|10.40.24.128|||110000438458|40
24.10.2018 00:00:00||AKTİFBANK|10.40.24.128|||110000438458|70
24.10.2018 00:00:00||AKTİFBANK|10.40.24.128|||110000438458|50
24.10.2018 00:00:00||AKTİFBANK|10.40.24.129|||110000438458|100
24.10.2018 00:00:00||AKTİFBANK|10.40.24.129|||110000438458|70
24.10.2018 00:00:00||AKTİFBANK|10.40.24.129|||110000438458|110
24.10.2018 00:00:00||AKTİFBANK|10.40.24.129|||110000438458|120
24.10.2018 00:00:00||AKTİFBANK|10.40.24.129|||110000438458|40
24.10.2018 00:00:00||AKTİFBANK|10.40.24.129|||110000438458|70
24.10.2018 00:00:00||AKTİFBANK|10.40.24.129|||110000438458|70
24.10.2018 00:00:00||AKTİFBANK|10.40.24.129|||110000438458|90
24.10.2018 00:00:00||AKTİFBANK|10.40.24.129|||110000438458|80
24.10.2018 00:00:00||AKTİFBANK|10.40.24.129|||110000438458|140
24.10.2018 00:00:00||AKTİFBANK|10.40.24.130|||110000438458|40
24.10.2018 00:00:00||AKTİFBANK|10.40.24.130|||110000438458|40
24.10.2018 00:00:00||AKTİFBANK|10.40.24.130|||110000438458|65
24.10.2018 00:00:00||AKTİFBANK|10.40.24.130|||110000438458|42
24.10.2018 00:00:00||AKTİFBANK|10.40.24.130|||110000438458|60
24.10.2018 00:00:00||AKTİFBANK|10.40.24.130|||110000438458|78
24.10.2018 00:00:00||AKTİFBANK|10.40.24.130|||110000438458|87
24.10.2018 00:00:00||AKTİFBANK|10.40.24.130|||110000438458|40
24.10.2018 00:00:00||AKTİFBANK|10.40.24.130|||110000438458|130
24.10.2018 00:00:00||AKTİFBANK|10.40.24.130|||110000438458|110
24.10.2018 00:00:00||AKTİFBANK|10.40.24.131|||110000438458|93
24.10.2018 00:00:00||AKTİFBANK|10.40.24.131|||110000438458|90
24.10.2018 00:00:00||AKTİFBANK|10.40.24.131|||110000438458|110
24.10.2018 00:00:00||AKTİFBANK|10.40.24.131|||110000438458|113
24.10.2018 00:00:00||AKTİFBANK|10.40.24.131|||110000438458|22
24.10.2018 00:00:00||AKTİFBANK|10.40.24.131|||110000438458|160
24.10.2018 00:00:00||AKTİFBANK|10.40.24.131|||110000438458|60
24.10.2018 00:00:00||AKTİFBANK|10.40.24.131|||110000438458|110
24.10.2018 00:00:00||AKTİFBANK|10.40.24.132|||110000438458|30
24.10.2018 00:00:00||AKTİFBANK|10.40.24.132|||110000438458|80
24.10.2018 00:00:00||AKTİFBANK|10.40.24.132|||110000438458|50
24.10.2018 00:00:00||AKTİFBANK|10.40.24.132|||110000438458|185
24.10.2018 00:00:00||AKTİFBANK|10.40.24.132|||110000438458|67
24.10.2018 00:00:00||AKTİFBANK|10.40.24.143|||110000438458|68
24.10.2018 00:00:00||AKTİFBANK|10.40.24.143|||110000438458|272
24.10.2018 00:00:00||AKTİFBANK|10.40.24.143|||110000438458|278
24.10.2018 00:00:00||AKTİFBANK|10.40.24.143|||110000438458|220
24.10.2018 00:00:00||AKTİFBANK|10.40.24.144|||110000438458|70
24.10.2018 00:00:00||AKTİFBANK|10.40.24.144|||110000438458|105
24.10.2018 00:00:00||AKTİFBANK|10.40.24.144|||110000438458|130
24.10.2018 00:00:00||AKTİFBANK|10.40.24.148|||110000438458|63
24.10.2018 00:00:00||AKTİFBANK|10.40.24.148|||110000438458|170
24.10.2018 00:00:00||AKTİFBANK|10.40.24.148|||110000438458|82
24.10.2018 00:00:00||AKTİFBANK|10.40.24.148|||110000438458|107
24.10.2018 00:00:00||AKTİFBANK|10.40.24.148|||110000438458|82
24.10.2018 00:00:00||AKTİFBANK|10.40.24.148|||110000438458|82
24.10.2018 00:00:00||AKTİFBANK|10.40.24.148|||110000438458|90
24.10.2018 00:00:00||AKTİFBANK|10.40.24.148|||110000438458|100
24.10.2018 00:00:00||AKTİFBANK|10.40.24.148|||110000438458|75
24.10.2018 00:00:00||AKTİFBANK|10.40.24.148|||110000438458|60
24.10.2018 00:00:00||AKTİFBANK|10.40.24.148|||110000438458|23
24.10.2018 00:00:00||AKTİFBANK|10.40.24.148|||110000438458|72
24.10.2018 00:00:00||AKTİFBANK|10.40.24.153|||110000438458|10
24.10.2018 00:00:00||AKTİFBANK|10.40.24.153|||110000438458|93
24.10.2018 00:00:00||AKTİFBANK|10.40.24.153|||110000438458|73
24.10.2018 00:00:00||AKTİFBANK|10.40.24.153|||110000438458|82
24.10.2018 00:00:00||AKTİFBANK|10.40.24.157|||110000438458|33
24.10.2018 00:00:00||AKTİFBANK|10.40.24.157|||110000438458|77
24.10.2018 00:00:00||AKTİFBANK|10.40.24.157|||110000438458|70
24.10.2018 00:00:00||AKTİFBANK|10.40.24.157|||110000438458|48
24.10.2018 00:00:00||AKTİFBANK|10.40.24.157|||110000438458|80
24.10.2018 00:00:00||AKTİFBANK|10.40.24.157|||110000438458|40
24.10.2018 00:00:00||AKTİFBANK|10.40.24.158|||110000438458|80
24.10.2018 00:00:00||AKTİFBANK|10.40.24.158|||110000438458|110
24.10.2018 00:00:00||AKTİFBANK|10.40.24.159|||110000438458|130
24.10.2018 00:00:00||AKTİFBANK|10.40.24.159|||110000438458|52
24.10.2018 00:00:00||AKTİFBANK|10.40.24.159|||110000438458|182
24.10.2018 00:00:00||AKTİFBANK|10.40.24.160|||110000438458|50
24.10.2018 00:00:00||AKTİFBANK|10.40.24.160|||110000438458|90
24.10.2018 00:00:00||AKTİFBANK|10.40.24.160|||110000438458|103
24.10.2018 00:00:00||AKTİFBANK|10.40.24.161|||110000438458|200
24.10.2018 00:00:00||AKTİFBANK|10.40.24.161|||110000438458|80
24.10.2018 00:00:00||AKTİFBANK|10.40.24.161|||110000438458|40
24.10.2018 00:00:00||AKTİFBANK|10.40.24.161|||110000438458|30
24.10.2018 00:00:00||AKTİFBANK|10.40.24.161|||110000438458|30
24.10.2018 00:00:00||AKTİFBANK|10.40.24.161|||110000438458|20
24.10.2018 00:00:00||AKTİFBANK|10.40.24.161|||110000438458|90
24.10.2018 00:00:00||AKTİFBANK|10.40.24.145|||110000438458|30
24.10.2018 00:00:00||AKTİFBANK|10.40.24.145|||110000438458|70
24.10.2018 00:00:00||AKTİFBANK|10.40.24.145|||110000438458|50
24.10.2018 00:00:00||AKTİFBANK|10.40.24.147|||110000438458|90
24.10.2018 00:00:00||AKTİFBANK|10.40.24.162|||110000438458|40
24.10.2018 00:00:00||AKTİFBANK|10.40.24.162|||110000438458|40
24.10.2018 00:00:00||AKTİFBANK|10.40.24.162|||110000438458|107
24.10.2018 00:00:00||AKTİFBANK|10.40.24.162|||110000438458|10
24.10.2018 00:00:00||AKTİFBANK|10.40.24.162|||110000438458|45
24.10.2018 00:00:00||AKTİFBANK|10.40.24.163|||110000438458|30
24.10.2018 00:00:00||AKTİFBANK|10.40.24.163|||110000438458|70
24.10.2018 00:00:00||AKTİFBANK|10.40.24.164|||110000438458|57
24.10.2018 00:00:00||AKTİFBANK|10.40.24.164|||110000438458|330
24.10.2018 00:00:00||AKTİFBANK|10.40.24.164|||110000438458|217
24.10.2018 00:00:00||AKTİFBANK|10.40.24.165|||110000438458|75
24.10.2018 00:00:00||AKTİFBANK|10.40.24.165|||110000438458|82
24.10.2018 00:00:00||AKTİFBANK|10.40.24.165|||110000438458|50
24.10.2018 00:00:00||AKTİFBANK|10.40.24.165|||110000438458|122
24.10.2018 00:00:00||AKTİFBANK|10.40.24.166|||110000438458|80
24.10.2018 00:00:00||AKTİFBANK|10.40.24.166|||110000438458|90
24.10.2018 00:00:00||AKTİFBANK|10.40.24.166|||110000438458|10
24.10.2018 00:00:00||AKTİFBANK|10.40.25.168|||110000438458|90
24.10.2018 00:00:00||AKTİFBANK|10.40.25.168|||110000438458|70
24.10.2018 00:00:00||AKTİFBANK|10.40.25.168|||110000438458|50
24.10.2018 00:00:00||AKTİFBANK|10.40.25.168|||110000438458|40
24.10.2018 00:00:00||AKTİFBANK|10.40.25.168|||110000438458|60
24.10.2018 00:00:00||AKTİFBANK|10.40.24.168|||110000438458|90
24.10.2018 00:00:00||AKTİFBANK|10.40.24.168|||110000438458|80
24.10.2018 00:00:00||AKTİFBANK|10.40.24.168|||110000438458|70
24.10.2018 00:00:00||AKTİFBANK|10.40.24.168|||110000438458|70
24.10.2018 00:00:00||AKTİFBANK|10.40.24.168|||110000438458|30
24.10.2018 00:00:00||AKTİFBANK|10.40.24.154|||110000438458|70
24.10.2018 00:00:00||AKTİFBANK|10.40.24.154|||110000438458|20
24.10.2018 00:00:00||AKTİFBANK|10.40.24.154|||110000438458|10
24.10.2018 00:00:00||AKTİFBANK|10.40.24.154|||110000438458|10
24.10.2018 00:00:00||AKTİFBANK|10.40.24.154|||110000438458|10
24.10.2018 00:00:00||AKTİFBANK|10.40.24.154|||110000438458|10
24.10.2018 00:00:00||AKTİFBANK|10.40.24.155|||110000438458|58
24.10.2018 00:00:00||AKTİFBANK|10.40.24.155|||110000438458|100
24.10.2018 00:00:00||AKTİFBANK|10.40.24.155|||110000438458|132
24.10.2018 00:00:00||AKTİFBANK|10.40.24.155|||110000438458|80
24.10.2018 00:00:00||AKTİFBANK|10.40.24.155|||110000438458|112
24.10.2018 00:00:00||AKTİFBANK|10.40.24.155|||110000438458|100
24.10.2018 00:00:00||AKTİFBANK|10.40.25.169|||110000438458|87
24.10.2018 00:00:00||AKTİFBANK|10.40.25.169|||110000438458|90
24.10.2018 00:00:00||AKTİFBANK|10.40.25.169|||110000438458|70
24.10.2018 00:00:00||AKTİFBANK|10.40.25.169|||110000438458|77
24.10.2018 00:00:00||AKTİFBANK|10.40.24.169|||110000438458|72
24.10.2018 00:00:00||AKTİFBANK|10.40.24.169|||110000438458|88
24.10.2018 00:00:00||AKTİFBANK|10.40.24.169|||110000438458|70
24.10.2018 00:00:00||AKTİFBANK|10.40.24.169|||110000438458|82
24.10.2018 00:00:00||AKTİFBANK|10.40.25.170|||110000438458|30
24.10.2018 00:00:00||AKTİFBANK|10.40.25.170|||110000438458|30
24.10.2018 00:00:00||AKTİFBANK|10.40.25.170|||110000438458|200
24.10.2018 00:00:00||AKTİFBANK|10.40.25.170|||110000438458|100
24.10.2018 00:00:00||AKTİFBANK|10.40.25.170|||110000438458|80
24.10.2018 00:00:00||AKTİFBANK|10.40.25.170|||110000438458|120
24.10.2018 00:00:00||AKTİFBANK|10.40.24.170|||110000438458|60
24.10.2018 00:00:00||AKTİFBANK|10.40.24.170|||110000438458|60
24.10.2018 00:00:00||AKTİFBANK|10.40.24.170|||110000438458|373
24.10.2018 00:00:00||AKTİFBANK|10.40.24.170|||110000438458|248
24.10.2018 00:00:00||AKTİFBANK|10.40.24.170|||110000438458|82
24.10.2018 00:00:00||AKTİFBANK|10.40.24.170|||110000438458|100
24.10.2018 00:00:00||AKTİFBANK|10.40.24.170|||110000438458|80
24.10.2018 00:00:00||AKTİFBANK|10.40.25.178|||110000438458|590
24.10.2018 00:00:00||AKTİFBANK|10.40.25.178|||110000438458|560
24.10.2018 00:00:00||AKTİFBANK|10.40.25.178|||110000438458|550
24.10.2018 00:00:00||AKTİFBANK|10.40.24.178|||110000438458|558
24.10.2018 00:00:00||AKTİFBANK|10.40.24.178|||110000438458|547
24.10.2018 00:00:00||AKTİFBANK|10.40.24.178|||110000438458|542
24.10.2018 00:00:00||AKTİFBANK|10.40.25.179|||110000438458|395
24.10.2018 00:00:00||AKTİFBANK|10.40.25.179|||110000438458|357
24.10.2018 00:00:00||AKTİFBANK|10.40.25.179|||110000438458|367
24.10.2018 00:00:00||AKTİFBANK|10.40.24.179|||110000438458|320
24.10.2018 00:00:00||AKTİFBANK|10.40.24.179|||110000438458|330
24.10.2018 00:00:00||AKTİFBANK|10.40.24.179|||110000438458|320
24.10.2018 00:00:00||AKTİFBANK|10.40.24.142|||110000438458|40
24.10.2018 00:00:00||AKTİFBANK|10.40.24.156|||110000438458|50
24.10.2018 00:00:00||AKTİFBANK|10.40.24.156|||110000438458|50
24.10.2018 00:00:00||AKTİFBANK|10.40.25.186|||110000438458|90
24.10.2018 00:00:00||AKTİFBANK|10.40.25.186|||110000438458|20
24.10.2018 00:00:00||AKTİFBANK|10.40.25.186|||110000438458|70
24.10.2018 00:00:00||AKTİFBANK|10.40.24.186|||110000438458|92
24.10.2018 00:00:00||AKTİFBANK|10.40.24.186|||110000438458|30
24.10.2018 00:00:00||AKTİFBANK|10.40.24.186|||110000438458|60
24.10.2018 00:00:00||AKTİFBANK|10.40.24.186|||110000438458|40
24.10.2018 00:00:00||AKTİFBANK|10.40.24.152|||110000438458|10
24.10.2018 00:00:00||AKTİFBANK|10.40.24.152|||110000438458|48
24.10.2018 00:00:00||AKTİFBANK|10.40.24.152|||110000438458|82
24.10.2018 00:00:00||AKTİFBANK|10.40.24.152|||110000438458|98
24.10.2018 00:00:00||AKTİFBANK|10.40.24.152|||110000438458|100
24.10.2018 00:00:00||AKTİFBANK|10.40.24.152|||110000438458|102
24.10.2018 00:00:00||AKTİFBANK|10.40.24.152|||110000438458|352
24.10.2018 00:00:00||AKTİFBANK|10.40.24.152|||110000438458|72
24.10.2018 00:00:00||AKTİFBANK|10.40.24.152|||110000438458|92
24.10.2018 00:00:00||AKTİFBANK|10.40.24.152|||110000438458|30
24.10.2018 00:00:00||AKTİFBANK|10.40.24.152|||110000438458|73
24.10.2018 00:00:00||AKTİFBANK|10.40.24.152|||110000438458|30
24.10.2018 00:00:00||BARİKAT İNTERNET GÜVENLİĞİ|10.40.25.201|||110000479736|115
24.10.2018 00:00:00||BARİKAT İNTERNET GÜVENLİĞİ|10.40.25.201|||110000479736|100
24.10.2018 00:00:00||BARİKAT İNTERNET GÜVENLİĞİ|10.40.24.201|||110000479736|135
24.10.2018 00:00:00||BARİKAT İNTERNET GÜVENLİĞİ|10.40.24.201|||110000479736|98
24.10.2018 00:00:00||BOYNER|10.40.26.100|||101367941673|57
24.10.2018 00:00:00||BOYNER|10.40.26.101|||101367941673|164
24.10.2018 00:00:00||BOYNER|10.40.27.100|||101367941673|53
24.10.2018 00:00:00||BOYNER|10.40.27.101|||101367941673|165
24.10.2018 00:00:00||BOYNER|10.40.27.94|||101367941673|210
24.10.2018 00:00:00||BOYNER|10.40.27.94|||101367941673|90
24.10.2018 00:00:00||BOYNER|10.40.27.94|||101367941673|90
24.10.2018 00:00:00||BOYNER|10.40.27.94|||101367941673|100
24.10.2018 00:00:00||BOYNER|10.40.26.94|||101367941673|90
24.10.2018 00:00:00||BOYNER|10.40.26.94|||101367941673|80
24.10.2018 00:00:00||BOYNER|10.40.26.94|||101367941673|80
24.10.2018 00:00:00||BOYNER|10.40.27.95|||101367941673|133
24.10.2018 00:00:00||BOYNER|10.40.27.95|||101367941673|128
24.10.2018 00:00:00||BOYNER|10.40.27.95|||101367941673|238
24.10.2018 00:00:00||BOYNER|10.40.26.95|||101367941673|127
24.10.2018 00:00:00||BOYNER|10.40.26.95|||101367941673|198
24.10.2018 00:00:00||BOYNER|10.40.26.95|||101367941673|138
24.10.2018 00:00:00||BOYNER|10.40.27.96|||101367941673|60
24.10.2018 00:00:00||BOYNER|10.40.27.96|||101367941673|52
24.10.2018 00:00:00||BOYNER|10.40.27.96|||101367941673|50
24.10.2018 00:00:00||BOYNER|10.40.27.96|||101367941673|40
24.10.2018 00:00:00||BOYNER|10.40.27.96|||101367941673|40
24.10.2018 00:00:00||BOYNER|10.40.27.96|||101367941673|157
24.10.2018 00:00:00||BOYNER|10.40.27.96|||101367941673|153
24.10.2018 00:00:00||BOYNER|10.40.27.96|||101367941673|182
24.10.2018 00:00:00||BOYNER|10.40.27.96|||101367941673|165
24.10.2018 00:00:00||BOYNER|10.40.26.96|||101367941673|30
24.10.2018 00:00:00||BOYNER|10.40.26.96|||101367941673|40
24.10.2018 00:00:00||BOYNER|10.40.26.96|||101367941673|30
24.10.2018 00:00:00||BOYNER|10.40.26.96|||101367941673|40
24.10.2018 00:00:00||BOYNER|10.40.26.96|||101367941673|40
24.10.2018 00:00:00||BOYNER|10.40.26.96|||101367941673|50
24.10.2018 00:00:00||BOYNER|10.40.26.96|||101367941673|195
24.10.2018 00:00:00||BOYNER|10.40.26.96|||101367941673|203
24.10.2018 00:00:00||BOYNER|10.40.26.96|||101367941673|172
24.10.2018 00:00:00||BOYNER|10.40.26.96|||101367941673|180
24.10.2018 00:00:00||BOYNER|10.40.27.97|||101367941673|60
24.10.2018 00:00:00||BOYNER|10.40.27.97|||101367941673|658
24.10.2018 00:00:00||BOYNER|10.40.27.97|||101367941673|660
24.10.2018 00:00:00||BOYNER|10.40.27.97|||101367941673|687
24.10.2018 00:00:00||BOYNER|10.40.27.97|||101367941673|40
24.10.2018 00:00:00||BOYNER|10.40.27.97|||101367941673|30
24.10.2018 00:00:00||BOYNER|10.40.27.97|||101367941673|52
24.10.2018 00:00:00||BOYNER|10.40.27.97|||101367941673|30
24.10.2018 00:00:00||BOYNER|10.40.27.97|||101367941673|175
24.10.2018 00:00:00||BOYNER|10.40.27.97|||101367941673|172
24.10.2018 00:00:00||BOYNER|10.40.27.97|||101367941673|182
24.10.2018 00:00:00||BOYNER|10.40.27.97|||101367941673|193
24.10.2018 00:00:00||BOYNER|10.40.26.97|||101367941673|30
24.10.2018 00:00:00||BOYNER|10.40.26.97|||101367941673|658
24.10.2018 00:00:00||BOYNER|10.40.26.97|||101367941673|648
24.10.2018 00:00:00||BOYNER|10.40.26.97|||101367941673|655
24.10.2018 00:00:00||BOYNER|10.40.26.97|||101367941673|33
24.10.2018 00:00:00||BOYNER|10.40.26.97|||101367941673|40
24.10.2018 00:00:00||BOYNER|10.40.26.97|||101367941673|52
24.10.2018 00:00:00||BOYNER|10.40.26.97|||101367941673|60
24.10.2018 00:00:00||BOYNER|10.40.26.97|||101367941673|30
24.10.2018 00:00:00||BOYNER|10.40.26.97|||101367941673|160
24.10.2018 00:00:00||BOYNER|10.40.26.97|||101367941673|172
24.10.2018 00:00:00||BOYNER|10.40.26.97|||101367941673|168
24.10.2018 00:00:00||BOYNER|10.40.26.97|||101367941673|153
24.10.2018 00:00:00||BOYNER|10.40.27.99|||101367941673|132
24.10.2018 00:00:00||BOYNER|10.40.27.99|||101367941673|90
24.10.2018 00:00:00||BOYNER|10.40.27.99|||101367941673|82
24.10.2018 00:00:00||BOYNER|10.40.26.99|||101367941673|10
24.10.2018 00:00:00||BOYNER|10.40.26.99|||101367941673|112
24.10.2018 00:00:00||BOYNER|10.40.26.99|||101367941673|108
24.10.2018 00:00:00||BOYNER|10.40.26.99|||101367941673|77
24.10.2018 00:00:00||ÇALIK HOLDİNG|10.40.24.118|||110000438407|43
24.10.2018 00:00:00||ÇALIK HOLDİNG|10.40.25.99|||110000438407|135
24.10.2018 00:00:00||ÇALIK HOLDİNG|10.40.25.118|||110000438407|161
24.10.2018 00:00:00||ÇALIK HOLDİNG|10.40.25.120|||110000438407|90
24.10.2018 00:00:00||ÇALIK HOLDİNG|10.40.24.95|||110000438407|50
24.10.2018 00:00:00||ÇALIK HOLDİNG|10.40.25.97|||110000438407|80
24.10.2018 00:00:00||ÇALIK HOLDİNG|10.40.25.103|||110000438407|90
24.10.2018 00:00:00||ÇALIK HOLDİNG|10.40.25.120|||110000438407|40
24.10.2018 00:00:00||ÇALIK HOLDİNG|10.40.25.96|||110000438407|70
24.10.2018 00:00:00||ÇALIK HOLDİNG|10.40.25.96|||110000438407|90
24.10.2018 00:00:00||ÇALIK HOLDİNG|10.40.25.96|||110000438407|122
24.10.2018 00:00:00||ÇALIK HOLDİNG|10.40.25.96|||110000438407|90
24.10.2018 00:00:00||ÇALIK HOLDİNG|10.40.25.115|||110000438407|160
24.10.2018 00:00:00||ÇALIK HOLDİNG|10.40.25.115|||110000438407|70
24.10.2018 00:00:00||ÇALIK HOLDİNG|10.40.25.95|||110000438407|95
24.10.2018 00:00:00||ÇALIK HOLDİNG|10.40.25.96|||110000438407|90
24.10.2018 00:00:00||ÇALIK HOLDİNG|10.40.25.96|||110000438407|100
24.10.2018 00:00:00||ÇALIK HOLDİNG|10.40.25.120|||110000438407|20
24.10.2018 00:00:00||ÇALIK HOLDİNG|10.40.25.95|||110000438407|53
24.10.2018 00:00:00||ÇALIK HOLDİNG|10.40.24.94|||110000438407|193
24.10.2018 00:00:00||ÇALIK HOLDİNG|10.40.25.97|||110000438407|102
24.10.2018 00:00:00||ÇALIK HOLDİNG|10.40.25.120|||110000438407|60
24.10.2018 00:00:00||ÇALIK HOLDİNG|10.40.25.115|||110000438407|80
24.10.2018 00:00:00||ÇALIK HOLDİNG|10.40.25.115|||110000438407|70
24.10.2018 00:00:00||ÇALIK HOLDİNG|10.40.25.115|||110000438407|68
24.10.2018 00:00:00||ÇALIK HOLDİNG|10.40.25.101|||110000438407|50
24.10.2018 00:00:00||ÇALIK HOLDİNG|10.40.25.101|||110000438407|110
24.10.2018 00:00:00||ÇALIK HOLDİNG|10.40.25.101|||110000438407|30
24.10.2018 00:00:00||ÇALIK HOLDİNG|10.40.25.101|||110000438407|10
24.10.2018 00:00:00||ÇALIK HOLDİNG|10.40.25.101|||110000438407|90
24.10.2018 00:00:00||ÇALIK HOLDİNG|10.40.25.101|||110000438407|30
24.10.2018 00:00:00||ÇALIK HOLDİNG|10.40.25.101|||110000438407|40
24.10.2018 00:00:00||ÇALIK HOLDİNG|10.40.25.101|||110000438407|40
24.10.2018 00:00:00||ÇALIK HOLDİNG|10.40.25.101|||110000438407|90
24.10.2018 00:00:00||ÇALIK HOLDİNG|10.40.25.101|||110000438407|90
24.10.2018 00:00:00||ÇALIK HOLDİNG|10.40.25.101|||110000438407|90
24.10.2018 00:00:00||ÇALIK HOLDİNG|10.40.25.94|||110000438407|180
24.10.2018 00:00:00||ÇALIK HOLDİNG|10.40.25.94|||110000438407|180
24.10.2018 00:00:00||ÇALIK HOLDİNG|10.40.25.94|||110000438407|170
24.10.2018 00:00:00||ÇALIK HOLDİNG|10.40.25.94|||110000438407|180
24.10.2018 00:00:00||ÇALIK HOLDİNG|10.40.24.94|||110000438407|208
24.10.2018 00:00:00||ÇALIK HOLDİNG|10.40.24.94|||110000438407|188
24.10.2018 00:00:00||ÇALIK HOLDİNG|10.40.24.94|||110000438407|193
24.10.2018 00:00:00||ÇALIK HOLDİNG|10.40.25.95|||110000438407|20
24.10.2018 00:00:00||ÇALIK HOLDİNG|10.40.25.95|||110000438407|348
24.10.2018 00:00:00||ÇALIK HOLDİNG|10.40.25.95|||110000438407|358
24.10.2018 00:00:00||ÇALIK HOLDİNG|10.40.25.95|||110000438407|40
24.10.2018 00:00:00||ÇALIK HOLDİNG|10.40.24.95|||110000438407|100
24.10.2018 00:00:00||ÇALIK HOLDİNG|10.40.24.95|||110000438407|82
24.10.2018 00:00:00||ÇALIK HOLDİNG|10.40.24.95|||110000438407|390
24.10.2018 00:00:00||ÇALIK HOLDİNG|10.40.24.95|||110000438407|388
24.10.2018 00:00:00||ÇALIK HOLDİNG|10.40.25.96|||110000438407|90
24.10.2018 00:00:00||ÇALIK HOLDİNG|10.40.25.96|||110000438407|100
24.10.2018 00:00:00||ÇALIK HOLDİNG|10.40.25.96|||110000438407|100
24.10.2018 00:00:00||ÇALIK HOLDİNG|10.40.25.96|||110000438407|258
24.10.2018 00:00:00||ÇALIK HOLDİNG|10.40.25.96|||110000438407|260
24.10.2018 00:00:00||ÇALIK HOLDİNG|10.40.25.96|||110000438407|100
24.10.2018 00:00:00||ÇALIK HOLDİNG|10.40.25.96|||110000438407|90
24.10.2018 00:00:00||ÇALIK HOLDİNG|10.40.25.96|||110000438407|92
24.10.2018 00:00:00||ÇALIK HOLDİNG|10.40.25.97|||110000438407|88
24.10.2018 00:00:00||ÇALIK HOLDİNG|10.40.25.97|||110000438407|80
24.10.2018 00:00:00||ÇALIK HOLDİNG|10.40.25.97|||110000438407|304
24.10.2018 00:00:00||ÇALIK HOLDİNG|10.40.25.98|||110000438407|50
24.10.2018 00:00:00||ÇALIK HOLDİNG|10.40.25.98|||110000438407|164
24.10.2018 00:00:00||ÇALIK HOLDİNG|10.40.25.98|||110000438407|160
24.10.2018 00:00:00||ÇALIK HOLDİNG|10.40.25.98|||110000438407|166
24.10.2018 00:00:00||ÇALIK HOLDİNG|10.40.25.98|||110000438407|166
24.10.2018 00:00:00||ÇALIK HOLDİNG|10.40.25.98|||110000438407|60
24.10.2018 00:00:00||ÇALIK HOLDİNG|10.40.25.98|||110000438407|210
24.10.2018 00:00:00||ÇALIK HOLDİNG|10.40.25.98|||110000438407|180
24.10.2018 00:00:00||ÇALIK HOLDİNG|10.40.25.98|||110000438407|170
24.10.2018 00:00:00||ÇALIK HOLDİNG|10.40.25.98|||110000438407|210
24.10.2018 00:00:00||ÇALIK HOLDİNG|10.40.25.98|||110000438407|70
24.10.2018 00:00:00||ÇALIK HOLDİNG|10.40.25.98|||110000438407|328
24.10.2018 00:00:00||ÇALIK HOLDİNG|10.40.24.98|||110000438407|90
24.10.2018 00:00:00||ÇALIK HOLDİNG|10.40.24.98|||110000438407|156
24.10.2018 00:00:00||ÇALIK HOLDİNG|10.40.24.98|||110000438407|200
24.10.2018 00:00:00||ÇALIK HOLDİNG|10.40.24.98|||110000438407|200
24.10.2018 00:00:00||ÇALIK HOLDİNG|10.40.24.98|||110000438407|162
24.10.2018 00:00:00||ÇALIK HOLDİNG|10.40.24.98|||110000438407|30
24.10.2018 00:00:00||ÇALIK HOLDİNG|10.40.24.98|||110000438407|166
24.10.2018 00:00:00||ÇALIK HOLDİNG|10.40.24.98|||110000438407|178
24.10.2018 00:00:00||ÇALIK HOLDİNG|10.40.24.98|||110000438407|170
24.10.2018 00:00:00||ÇALIK HOLDİNG|10.40.24.98|||110000438407|176
24.10.2018 00:00:00||ÇALIK HOLDİNG|10.40.24.98|||110000438407|20
24.10.2018 00:00:00||ÇALIK HOLDİNG|10.40.24.98|||110000438407|298
24.10.2018 00:00:00||ÇALIK HOLDİNG|10.40.25.100|||110000438407|36
24.10.2018 00:00:00||ÇALIK HOLDİNG|10.40.25.100|||110000438407|40
24.10.2018 00:00:00||ÇALIK HOLDİNG|10.40.24.101|||110000438407|60
24.10.2018 00:00:00||ÇALIK HOLDİNG|10.40.24.101|||110000438407|110
24.10.2018 00:00:00||ÇALIK HOLDİNG|10.40.24.101|||110000438407|20
24.10.2018 00:00:00||ÇALIK HOLDİNG|10.40.24.101|||110000438407|20
24.10.2018 00:00:00||ÇALIK HOLDİNG|10.40.24.101|||110000438407|40
24.10.2018 00:00:00||ÇALIK HOLDİNG|10.40.24.101|||110000438407|78
24.10.2018 00:00:00||ÇALIK HOLDİNG|10.40.24.101|||110000438407|30
24.10.2018 00:00:00||ÇALIK HOLDİNG|10.40.24.101|||110000438407|10
24.10.2018 00:00:00||ÇALIK HOLDİNG|10.40.24.101|||110000438407|20
24.10.2018 00:00:00||ÇALIK HOLDİNG|10.40.24.101|||110000438407|50
24.10.2018 00:00:00||ÇALIK HOLDİNG|10.40.24.101|||110000438407|30
24.10.2018 00:00:00||ÇALIK HOLDİNG|10.40.24.101|||110000438407|80
24.10.2018 00:00:00||ÇALIK HOLDİNG|10.40.24.101|||110000438407|80
24.10.2018 00:00:00||ÇALIK HOLDİNG|10.40.24.101|||110000438407|90
24.10.2018 00:00:00||ÇALIK HOLDİNG|10.40.25.102|||110000438407|100
24.10.2018 00:00:00||ÇALIK HOLDİNG|10.40.25.102|||110000438407|90
24.10.2018 00:00:00||ÇALIK HOLDİNG|10.40.25.102|||110000438407|150
24.10.2018 00:00:00||ÇALIK HOLDİNG|10.40.24.102|||110000438407|100
24.10.2018 00:00:00||ÇALIK HOLDİNG|10.40.24.102|||110000438407|90
24.10.2018 00:00:00||ÇALIK HOLDİNG|10.40.24.102|||110000438407|140
24.10.2018 00:00:00||ÇALIK HOLDİNG|10.40.25.103|||110000438407|90
24.10.2018 00:00:00||ÇALIK HOLDİNG|10.40.25.103|||110000438407|80
24.10.2018 00:00:00||ÇALIK HOLDİNG|10.40.25.103|||110000438407|10
24.10.2018 00:00:00||ÇALIK HOLDİNG|10.40.25.115|||110000438407|82
24.10.2018 00:00:00||ÇALIK HOLDİNG|10.40.24.103|||110000438407|100
24.10.2018 00:00:00||ÇALIK HOLDİNG|10.40.24.103|||110000438407|80
24.10.2018 00:00:00||ÇALIK HOLDİNG|10.40.24.103|||110000438407|80
24.10.2018 00:00:00||ÇALIK HOLDİNG|10.40.24.103|||110000438407|20
24.10.2018 00:00:00||ÇALIK HOLDİNG|10.40.24.103|||110000438407|10
24.10.2018 00:00:00||ÇALIK HOLDİNG|10.40.25.113|||110000438407|123
24.10.2018 00:00:00||ÇALIK HOLDİNG|10.40.25.113|||110000438407|250
24.10.2018 00:00:00||ÇALIK HOLDİNG|10.40.25.113|||110000438407|192
24.10.2018 00:00:00||ÇALIK HOLDİNG|10.40.25.113|||110000438407|200
24.10.2018 00:00:00||ÇALIK HOLDİNG|10.40.24.113|||110000438407|235
24.10.2018 00:00:00||ÇALIK HOLDİNG|10.40.24.113|||110000438407|235
24.10.2018 00:00:00||ÇALIK HOLDİNG|10.40.24.113|||110000438407|192
24.10.2018 00:00:00||ÇALIK HOLDİNG|10.40.24.113|||110000438407|152
24.10.2018 00:00:00||ÇALIK HOLDİNG|10.40.25.114|||110000438407|180
24.10.2018 00:00:00||ÇALIK HOLDİNG|10.40.25.114|||110000438407|407
24.10.2018 00:00:00||ÇALIK HOLDİNG|10.40.25.114|||110000438407|40
24.10.2018 00:00:00||ÇALIK HOLDİNG|10.40.24.114|||110000438407|20
24.10.2018 00:00:00||ÇALIK HOLDİNG|10.40.24.114|||110000438407|40
24.10.2018 00:00:00||ÇALIK HOLDİNG|10.40.24.114|||110000438407|157
24.10.2018 00:00:00||ÇALIK HOLDİNG|10.40.24.114|||110000438407|367
24.10.2018 00:00:00||ÇALIK HOLDİNG|10.40.24.115|||110000438407|152
24.10.2018 00:00:00||ÇALIK HOLDİNG|10.40.24.115|||110000438407|80
24.10.2018 00:00:00||ÇALIK HOLDİNG|10.40.24.115|||110000438407|88
24.10.2018 00:00:00||ÇALIK HOLDİNG|10.40.24.115|||110000438407|70
24.10.2018 00:00:00||ÇALIK HOLDİNG|10.40.24.115|||110000438407|82
24.10.2018 00:00:00||ÇALIK HOLDİNG|10.40.24.115|||110000438407|70
24.10.2018 00:00:00||ÇALIK HOLDİNG|10.40.25.116|||110000438407|100
24.10.2018 00:00:00||ÇALIK HOLDİNG|10.40.25.116|||110000438407|102
24.10.2018 00:00:00||ÇALIK HOLDİNG|10.40.25.116|||110000438407|303
24.10.2018 00:00:00||ÇALIK HOLDİNG|10.40.24.116|||110000438407|280
24.10.2018 00:00:00||ÇALIK HOLDİNG|10.40.24.116|||110000438407|100
24.10.2018 00:00:00||ÇALIK HOLDİNG|10.40.24.116|||110000438407|100
24.10.2018 00:00:00||ÇALIK HOLDİNG|10.40.25.117|||110000438407|250
24.10.2018 00:00:00||ÇALIK HOLDİNG|10.40.25.117|||110000438407|30
24.10.2018 00:00:00||ÇALIK HOLDİNG|10.40.25.117|||110000438407|27
24.10.2018 00:00:00||ÇALIK HOLDİNG|10.40.25.119|||110000438407|30
24.10.2018 00:00:00||ÇALIK HOLDİNG|10.40.25.119|||110000438407|30
24.10.2018 00:00:00||ÇALIK HOLDİNG|10.40.24.119|||110000438407|150
24.10.2018 00:00:00||ÇALIK HOLDİNG|10.40.24.119|||110000438407|30
24.10.2018 00:00:00||ÇALIK HOLDİNG|10.40.24.119|||110000438407|50
24.10.2018 00:00:00||ÇALIK HOLDİNG|10.40.25.120|||110000438407|107
24.10.2018 00:00:00||ÇALIK HOLDİNG|10.40.25.120|||110000438407|50
24.10.2018 00:00:00||ÇALIK HOLDİNG|10.40.25.120|||110000438407|20
24.10.2018 00:00:00||ÇALIK HOLDİNG|10.40.25.120|||110000438407|20
24.10.2018 00:00:00||ÇALIK HOLDİNG|10.40.25.120|||110000438407|30
24.10.2018 00:00:00||ÇALIK HOLDİNG|10.40.25.120|||110000438407|88
24.10.2018 00:00:00||ÇALIK HOLDİNG|10.40.25.120|||110000438407|90
24.10.2018 00:00:00||ÇALIK HOLDİNG|10.40.24.120|||110000438407|20
24.10.2018 00:00:00||ÇALIK HOLDİNG|10.40.24.120|||110000438407|35
24.10.2018 00:00:00||ÇALIK HOLDİNG|10.40.24.120|||110000438407|110
24.10.2018 00:00:00||ÇALIK HOLDİNG|10.40.24.120|||110000438407|100
24.10.2018 00:00:00||ÇALIK HOLDİNG|10.40.24.120|||110000438407|40
24.10.2018 00:00:00||ÇALIK HOLDİNG|10.40.24.120|||110000438407|80
24.10.2018 00:00:00||ÇALIK HOLDİNG|10.40.24.120|||110000438407|80
24.10.2018 00:00:00||ÇALIK HOLDİNG|10.40.24.120|||110000438407|70
24.10.2018 00:00:00||ÇALIK HOLDİNG|10.40.25.121|||110000438407|90
24.10.2018 00:00:00||ÇALIK HOLDİNG|10.40.25.121|||110000438407|100
24.10.2018 00:00:00||ÇALIK HOLDİNG|10.40.25.121|||110000438407|150
24.10.2018 00:00:00||ÇALIK HOLDİNG|10.40.24.121|||110000438407|100
24.10.2018 00:00:00||ÇALIK HOLDİNG|10.40.24.121|||110000438407|100
24.10.2018 00:00:00||ÇALIK HOLDİNG|10.40.24.121|||110000438407|140
24.10.2018 00:00:00||ÇALIK HOLDİNG|10.40.25.122|||110000438407|90
24.10.2018 00:00:00||ÇALIK HOLDİNG|10.40.25.122|||110000438407|80
24.10.2018 00:00:00||ÇALIK HOLDİNG|10.40.25.122|||110000438407|80
24.10.2018 00:00:00||ÇALIK HOLDİNG|10.40.25.122|||110000438407|30
24.10.2018 00:00:00||ÇALIK HOLDİNG|10.40.25.122|||110000438407|10
24.10.2018 00:00:00||ÇALIK HOLDİNG|10.40.24.122|||110000438407|90
24.10.2018 00:00:00||ÇALIK HOLDİNG|10.40.24.122|||110000438407|80
24.10.2018 00:00:00||ÇALIK HOLDİNG|10.40.24.122|||110000438407|87
24.10.2018 00:00:00||ÇALIK HOLDİNG|10.40.24.117|||110000438407|200
24.10.2018 00:00:00||ÇALIK HOLDİNG|10.40.24.117|||110000438407|30
24.10.2018 00:00:00||ÇALIK HOLDİNG|10.40.24.117|||110000438407|30
24.10.2018 00:00:00||ÇALIK HOLDİNG|10.40.24.97|||110000438407|100
24.10.2018 00:00:00||ÇALIK HOLDİNG|10.40.24.97|||110000438407|90
24.10.2018 00:00:00||ÇALIK HOLDİNG|10.40.24.97|||110000438407|80
24.10.2018 00:00:00||ÇALIK HOLDİNG|10.40.24.97|||110000438407|90
24.10.2018 00:00:00||ÇALIK HOLDİNG|10.40.24.97|||110000438407|320
24.10.2018 00:00:00||ÇALIK HOLDİNG|10.40.24.100|||110000438407|30
24.10.2018 00:00:00||ÇALIK HOLDİNG|10.40.24.100|||110000438407|40
24.10.2018 00:00:00||FIBABANKA|10.40.27.54|||101571767266|311
24.10.2018 00:00:00||FIBABANKA|10.40.26.54|||101571767266|317
24.10.2018 00:00:00||FIBABANKA|10.40.27.55|||101571767266|105
24.10.2018 00:00:00||FIBABANKA|10.40.26.55|||101571767266|105
24.10.2018 00:00:00||FIBABANKA|10.40.24.55|||101571767266|112
24.10.2018 00:00:00||FIBABANKA|10.40.25.56|||101571767266|197
24.10.2018 00:00:00||FIBABANKA|10.40.25.54|||101571767266|330
24.10.2018 00:00:00||FIBABANKA|10.40.24.54|||101571767266|317
24.10.2018 00:00:00||FIBABANKA|10.40.25.55|||101571767266|111
24.10.2018 00:00:00||FIBABANKA|10.40.24.56|||101571767266|194
24.10.2018 00:00:00||FIBABANKA|10.40.26.53|||101571767266|44
24.10.2018 00:00:00||FIBABANKA|10.40.26.53|||101571767266|168
24.10.2018 00:00:00||FIBABANKA|10.40.25.76|||101571767266|10
24.10.2018 00:00:00||FIBABANKA|10.40.27.53|||101571767266|172
24.10.2018 00:00:00||FIBABANKA|10.40.27.53|||101571767266|178
24.10.2018 00:00:00||FIBABANKA|10.40.26.53|||101571767266|170
24.10.2018 00:00:00||FIBABANKA|10.40.27.57|||101571767266|80
24.10.2018 00:00:00||FIBABANKA|10.40.27.57|||101571767266|80
24.10.2018 00:00:00||FIBABANKA|10.40.27.57|||101571767266|80
24.10.2018 00:00:00||FIBABANKA|10.40.25.57|||101571767266|90
24.10.2018 00:00:00||FIBABANKA|10.40.25.57|||101571767266|90
24.10.2018 00:00:00||FIBABANKA|10.40.25.57|||101571767266|90
24.10.2018 00:00:00||FIBABANKA|10.40.26.51|||101571767266|20
24.10.2018 00:00:00||FIBABANKA|10.40.27.52|||101571767266|50
24.10.2018 00:00:00||FIBABANKA|10.40.27.52|||101571767266|60
24.10.2018 00:00:00||FIBABANKA|10.40.27.52|||101571767266|70
24.10.2018 00:00:00||FIBABANKA|10.40.27.73|||101571767266|10
24.10.2018 00:00:00||FIBABANKA|10.40.27.74|||101571767266|183
24.10.2018 00:00:00||FIBABANKA|10.40.25.53|||101571767266|30
24.10.2018 00:00:00||FIBABANKA|10.40.25.53|||101571767266|50
24.10.2018 00:00:00||FIBABANKA|10.40.27.53|||101571767266|58
24.10.2018 00:00:00||FIBABANKA|10.40.26.53|||101571767266|60
24.10.2018 00:00:00||FIBABANKA|10.40.25.51|||101571767266|20
24.10.2018 00:00:00||FIBABANKA|10.40.25.51|||101571767266|110
24.10.2018 00:00:00||FIBABANKA|10.40.24.51|||101571767266|20
24.10.2018 00:00:00||FIBABANKA|10.40.24.51|||101571767266|70
24.10.2018 00:00:00||FIBABANKA|10.40.24.51|||101571767266|102
24.10.2018 00:00:00||FIBABANKA|10.40.24.51|||101571767266|140
24.10.2018 00:00:00||FIBABANKA|10.40.24.51|||101571767266|30
24.10.2018 00:00:00||FIBABANKA|10.40.24.57|||101571767266|90
24.10.2018 00:00:00||FIBABANKA|10.40.24.57|||101571767266|80
24.10.2018 00:00:00||FIBABANKA|10.40.24.57|||101571767266|80
24.10.2018 00:00:00||FIBABANKA|10.40.24.52|||101571767266|40
24.10.2018 00:00:00||FIBABANKA|10.40.24.52|||101571767266|10
24.10.2018 00:00:00||FIBABANKA|10.40.26.73|||101571767266|40
24.10.2018 00:00:00||FIBABANKA|10.40.27.53|||101571767266|70
24.10.2018 00:00:00||FIBABANKA|10.40.26.51|||101571767266|70
24.10.2018 00:00:00||FIBABANKA|10.40.26.52|||101571767266|30
24.10.2018 00:00:00||FIBABANKA|10.40.26.52|||101571767266|90
24.10.2018 00:00:00||FIBABANKA|10.40.26.52|||101571767266|30
24.10.2018 00:00:00||FIBABANKA|10.40.25.51|||101571767266|140
24.10.2018 00:00:00||FIBABANKA|10.40.25.51|||101571767266|40
24.10.2018 00:00:00||FIBABANKA|10.40.25.51|||101571767266|40
24.10.2018 00:00:00||FIBABANKA|10.40.25.51|||101571767266|73
24.10.2018 00:00:00||FIBABANKA|10.40.24.51|||101571767266|30
24.10.2018 00:00:00||FIBABANKA|10.40.24.58|||101571767266|10
24.10.2018 00:00:00||FIBABANKA|10.40.24.58|||101571767266|10
24.10.2018 00:00:00||FIBABANKA|10.40.25.59|||101571767266|70
24.10.2018 00:00:00||FIBABANKA|10.40.25.59|||101571767266|100
24.10.2018 00:00:00||FIBABANKA|10.40.25.59|||101571767266|62
24.10.2018 00:00:00||FIBABANKA|10.40.25.59|||101571767266|40
24.10.2018 00:00:00||FIBABANKA|10.40.25.59|||101571767266|120
24.10.2018 00:00:00||FIBABANKA|10.40.25.59|||101571767266|68
24.10.2018 00:00:00||FIBABANKA|10.40.25.59|||101571767266|60
24.10.2018 00:00:00||FIBABANKA|10.40.25.59|||101571767266|140
24.10.2018 00:00:00||FIBABANKA|10.40.25.59|||101571767266|50
24.10.2018 00:00:00||FIBABANKA|10.40.24.59|||101571767266|70
24.10.2018 00:00:00||FIBABANKA|10.40.24.59|||101571767266|127
24.10.2018 00:00:00||FIBABANKA|10.40.24.59|||101571767266|63
24.10.2018 00:00:00||FIBABANKA|10.40.24.59|||101571767266|50
24.10.2018 00:00:00||FIBABANKA|10.40.24.59|||101571767266|130
24.10.2018 00:00:00||FIBABANKA|10.40.24.59|||101571767266|70
24.10.2018 00:00:00||FIBABANKA|10.40.24.59|||101571767266|60
24.10.2018 00:00:00||FIBABANKA|10.40.24.59|||101571767266|140
24.10.2018 00:00:00||FIBABANKA|10.40.24.59|||101571767266|60
24.10.2018 00:00:00||FIBABANKA|10.40.25.60|||101571767266|100
24.10.2018 00:00:00||FIBABANKA|10.40.25.60|||101571767266|35
24.10.2018 00:00:00||FIBABANKA|10.40.25.60|||101571767266|110
24.10.2018 00:00:00||FIBABANKA|10.40.25.60|||101571767266|40
24.10.2018 00:00:00||FIBABANKA|10.40.24.60|||101571767266|110
24.10.2018 00:00:00||FIBABANKA|10.40.24.60|||101571767266|57
24.10.2018 00:00:00||FIBABANKA|10.40.24.60|||101571767266|40
24.10.2018 00:00:00||FIBABANKA|10.40.24.60|||101571767266|102
24.10.2018 00:00:00||FIBABANKA|10.40.24.60|||101571767266|50
24.10.2018 00:00:00||FIBABANKA|10.40.25.72|||101571767266|70
24.10.2018 00:00:00||FIBABANKA|10.40.25.72|||101571767266|40
24.10.2018 00:00:00||FIBABANKA|10.40.25.72|||101571767266|30
24.10.2018 00:00:00||FIBABANKA|10.40.24.72|||101571767266|140
24.10.2018 00:00:00||FIBABANKA|10.40.24.72|||101571767266|75
24.10.2018 00:00:00||FIBABANKA|10.40.24.72|||101571767266|30
24.10.2018 00:00:00||FIBABANKA|10.40.24.72|||101571767266|40
24.10.2018 00:00:00||FIBABANKA|10.40.25.74|||101571767266|30
24.10.2018 00:00:00||FIBABANKA|10.40.25.75|||101571767266|40
24.10.2018 00:00:00||FIBABANKA|10.40.25.75|||101571767266|80
24.10.2018 00:00:00||FIBABANKA|10.40.25.75|||101571767266|137
24.10.2018 00:00:00||FIBABANKA|10.40.25.75|||101571767266|172
24.10.2018 00:00:00||FIBABANKA|10.40.25.75|||101571767266|183
24.10.2018 00:00:00||FIBABANKA|10.40.25.75|||101571767266|198
24.10.2018 00:00:00||FIBABANKA|10.40.24.75|||101571767266|52
24.10.2018 00:00:00||FIBABANKA|10.40.24.75|||101571767266|50
24.10.2018 00:00:00||FIBABANKA|10.40.24.75|||101571767266|170
24.10.2018 00:00:00||FIBABANKA|10.40.24.75|||101571767266|148
24.10.2018 00:00:00||FIBABANKA|10.40.24.76|||101571767266|37
24.10.2018 00:00:00||FIBABANKA|10.40.24.76|||101571767266|67
24.10.2018 00:00:00||FIBABANKA|10.40.24.76|||101571767266|20
24.10.2018 00:00:00||FIBABANKA|10.40.24.76|||101571767266|40
24.10.2018 00:00:00||FIBABANKA|10.40.24.76|||101571767266|10
24.10.2018 00:00:00||FIBABANKA|10.40.24.53|||101571767266|30
24.10.2018 00:00:00||FIBABANKA|10.40.24.53|||101571767266|58
24.10.2018 00:00:00||FIBABANKA|10.40.26.57|||101571767266|90
24.10.2018 00:00:00||FIBABANKA|10.40.26.57|||101571767266|87
24.10.2018 00:00:00||FIBABANKA|10.40.26.57|||101571767266|80
24.10.2018 00:00:00||FIBABANKA|10.40.27.72|||101571767266|40
24.10.2018 00:00:00||FIBABANKA|10.40.27.72|||101571767266|50
24.10.2018 00:00:00||FIBABANKA|10.40.27.72|||101571767266|40
24.10.2018 00:00:00||FIBABANKA|10.40.27.72|||101571767266|140
24.10.2018 00:00:00||FIBABANKA|10.40.27.72|||101571767266|60
24.10.2018 00:00:00||FIBABANKA|10.40.26.72|||101571767266|30
24.10.2018 00:00:00||FIBABANKA|10.40.26.72|||101571767266|140
24.10.2018 00:00:00||FIBABANKA|10.40.26.72|||101571767266|70
24.10.2018 00:00:00||FIBABANKA|10.40.26.72|||101571767266|30
24.10.2018 00:00:00||FIBABANKA|10.40.27.73|||101571767266|30
24.10.2018 00:00:00||FIBABANKA|10.40.27.73|||101571767266|100
24.10.2018 00:00:00||FIBABANKA|10.40.27.73|||101571767266|40
24.10.2018 00:00:00||FIBABANKA|10.40.27.73|||101571767266|40
24.10.2018 00:00:00||FIBABANKA|10.40.27.73|||101571767266|260
24.10.2018 00:00:00||FIBABANKA|10.40.26.73|||101571767266|40
24.10.2018 00:00:00||FIBABANKA|10.40.26.73|||101571767266|70
24.10.2018 00:00:00||FIBABANKA|10.40.26.73|||101571767266|30
24.10.2018 00:00:00||FIBABANKA|10.40.26.73|||101571767266|10
24.10.2018 00:00:00||FIBABANKA|10.40.27.74|||101571767266|70
24.10.2018 00:00:00||FIBABANKA|10.40.27.74|||101571767266|172
24.10.2018 00:00:00||FIBABANKA|10.40.27.74|||101571767266|178
24.10.2018 00:00:00||FIBABANKA|10.40.26.74|||101571767266|70
24.10.2018 00:00:00||FIBABANKA|10.40.26.74|||101571767266|198
24.10.2018 00:00:00||FIBABANKA|10.40.26.74|||101571767266|185
24.10.2018 00:00:00||FIBABANKA|10.40.26.74|||101571767266|187
24.10.2018 00:00:00||FIBABANKA|10.40.27.75|||101571767266|10
24.10.2018 00:00:00||FIBABANKA|10.40.27.75|||101571767266|10
24.10.2018 00:00:00||FIBABANKA|10.40.26.79|||101571767266|10
24.10.2018 00:00:00||FIBABANKA|10.40.27.79|||101571767266|10
24.10.2018 00:00:00||FIBABANKA|10.40.27.79|||101571767266|10
24.10.2018 00:00:00||FIBABANKA|10.40.26.79|||101571767266|10
24.10.2018 00:00:00||FIBABANKA|10.40.27.77|||101571767266|155
24.10.2018 00:00:00||FIBABANKA|10.40.26.77|||101571767266|178
24.10.2018 00:00:00||FIBABANKA|10.40.27.77|||101571767266|157
24.10.2018 00:00:00||FIBABANKA|10.40.25.74|||101571767266|230
24.10.2018 00:00:00||FIBABANKA|10.40.24.75|||101571767266|178
24.10.2018 00:00:00||FIBABANKA|10.40.24.53|||101571767266|167
24.10.2018 00:00:00||FIBABANKA|10.40.24.53|||101571767266|178
24.10.2018 00:00:00||FIBABANKA|10.40.25.52|||101571767266|10
24.10.2018 00:00:00||FIBABANKA|10.40.25.52|||101571767266|50
24.10.2018 00:00:00||FIBABANKA|10.40.25.52|||101571767266|60
24.10.2018 00:00:00||FIBABANKA|10.40.25.53|||101571767266|158
24.10.2018 00:00:00||FIBABANKA|10.40.25.53|||101571767266|152
24.10.2018 00:00:00||FIBABANKA|10.40.27.51|||101571767266|30
24.10.2018 00:00:00||FIBABANKA|10.40.27.51|||101571767266|20
24.10.2018 00:00:00||FIBABANKA|10.40.27.51|||101571767266|100
24.10.2018 00:00:00||FIBABANKA|10.40.27.51|||101571767266|140
24.10.2018 00:00:00||FIBABANKA|10.40.27.51|||101571767266|70
24.10.2018 00:00:00||FIBABANKA|10.40.27.51|||101571767266|40
24.10.2018 00:00:00||FIBABANKA|10.40.27.51|||101571767266|40
24.10.2018 00:00:00||FIBABANKA|10.40.26.51|||101571767266|10
24.10.2018 00:00:00||FIBABANKA|10.40.26.51|||101571767266|110
24.10.2018 00:00:00||FIBABANKA|10.40.26.51|||101571767266|130
24.10.2018 00:00:00||FIBABANKA|10.40.26.51|||101571767266|30
24.10.2018 00:00:00||FIBABANKA|10.40.26.51|||101571767266|30
24.10.2018 00:00:00||FIBABANKA|10.40.24.74|||101571767266|30
24.10.2018 00:00:00||FIBABANKA|10.40.25.76|||101571767266|60
24.10.2018 00:00:00||FIBABANKA|10.40.25.76|||101571767266|40
24.10.2018 00:00:00||FIBABANKA|10.40.25.76|||101571767266|10
24.10.2018 00:00:00||HAVAŞ|10.40.24.46|||110000479675|10
24.10.2018 00:00:00||HAVAŞ|10.40.24.48|||110000479675|757
24.10.2018 00:00:00||HAVAŞ|10.40.24.48|||110000479675|755
24.10.2018 00:00:00||HAVAŞ|10.40.25.48|||110000479675|755
24.10.2018 00:00:00||HAVAŞ|10.40.24.45|||110000479675|70
24.10.2018 00:00:00||HAVAŞ|10.40.25.45|||110000479675|62
24.10.2018 00:00:00||HAVAŞ|10.40.25.47|||110000479675|70
24.10.2018 00:00:00||HAVAŞ|10.40.24.46|||110000479675|80
24.10.2018 00:00:00||HAVAŞ|10.40.24.47|||110000479675|30
24.10.2018 00:00:00||HAVAŞ|10.40.24.47|||110000479675|92
24.10.2018 00:00:00||HAVAŞ|10.40.24.47|||110000479675|90
24.10.2018 00:00:00||HAVAŞ|10.40.25.46|||110000479675|10
24.10.2018 00:00:00||HAVAŞ|10.40.25.46|||110000479675|60
24.10.2018 00:00:00||HAVAŞ|10.40.24.48|||110000479675|765
24.10.2018 00:00:00||HAVAŞ|10.40.24.46|||110000479675|60
24.10.2018 00:00:00||HAVAŞ|10.40.24.46|||110000479675|70
24.10.2018 00:00:00||HAVAŞ|10.40.24.47|||110000479675|17
24.10.2018 00:00:00||HAVAŞ|10.40.25.48|||110000479675|760
24.10.2018 00:00:00||HAVAŞ|10.40.25.48|||110000479675|780
24.10.2018 00:00:00||HAVAŞ|10.40.25.45|||110000479675|97
24.10.2018 00:00:00||HAVAŞ|10.40.24.45|||110000479675|50
24.10.2018 00:00:00||HAVAŞ|10.40.24.45|||110000479675|170
24.10.2018 00:00:00||HAVAŞ|10.40.24.45|||110000479675|100
24.10.2018 00:00:00||HAVAŞ|10.40.25.47|||110000479675|70
24.10.2018 00:00:00||HAVAŞ|10.40.25.47|||110000479675|223
24.10.2018 00:00:00||HAVAŞ|10.40.25.47|||110000479675|57
24.10.2018 00:00:00||HAVAŞ|10.40.25.47|||110000479675|87
24.10.2018 00:00:00||HAVAŞ|10.40.25.47|||110000479675|90
24.10.2018 00:00:00||HAVAŞ|10.40.25.47|||110000479675|90
24.10.2018 00:00:00||HAVAŞ|10.40.25.47|||110000479675|167
24.10.2018 00:00:00||HAVAŞ|10.40.25.47|||110000479675|178
24.10.2018 00:00:00||HAVAŞ|10.40.25.47|||110000479675|90
24.10.2018 00:00:00||HAVAŞ|10.40.25.47|||110000479675|90
24.10.2018 00:00:00||HAVAŞ|10.40.25.47|||110000479675|92
24.10.2018 00:00:00||HAVAŞ|10.40.25.45|||110000479675|103
24.10.2018 00:00:00||HAVAŞ|10.40.25.45|||110000479675|88
24.10.2018 00:00:00||HAVAŞ|10.40.25.46|||110000479675|10
24.10.2018 00:00:00||HAVAŞ|10.40.25.46|||110000479675|10
24.10.2018 00:00:00||HAVAŞ|10.40.25.46|||110000479675|20
24.10.2018 00:00:00||HAVAŞ|10.40.25.46|||110000479675|20
24.10.2018 00:00:00||HAVAŞ|10.40.25.46|||110000479675|50
24.10.2018 00:00:00||HAVAŞ|10.40.25.46|||110000479675|100
24.10.2018 00:00:00||HAVAŞ|10.40.25.46|||110000479675|62
24.10.2018 00:00:00||HAVAŞ|10.40.25.46|||110000479675|70
24.10.2018 00:00:00||HAVAŞ|10.40.25.46|||110000479675|70
24.10.2018 00:00:00||HAVAŞ|10.40.24.46|||110000479675|20
24.10.2018 00:00:00||HAVAŞ|10.40.24.46|||110000479675|20
24.10.2018 00:00:00||HAVAŞ|10.40.24.46|||110000479675|10
24.10.2018 00:00:00||HAVAŞ|10.40.24.46|||110000479675|10
24.10.2018 00:00:00||HAVAŞ|10.40.24.46|||110000479675|10
24.10.2018 00:00:00||HAVAŞ|10.40.24.46|||110000479675|60
24.10.2018 00:00:00||HAVAŞ|10.40.24.46|||110000479675|110
24.10.2018 00:00:00||HAVAŞ|10.40.24.47|||110000479675|30
24.10.2018 00:00:00||HAVAŞ|10.40.24.47|||110000479675|220
24.10.2018 00:00:00||HAVAŞ|10.40.24.47|||110000479675|60
24.10.2018 00:00:00||HAVAŞ|10.40.24.47|||110000479675|57
24.10.2018 00:00:00||HAVAŞ|10.40.24.47|||110000479675|160
24.10.2018 00:00:00||HAVAŞ|10.40.24.47|||110000479675|100
24.10.2018 00:00:00||HAVAŞ|10.40.24.47|||110000479675|100
24.10.2018 00:00:00||MARS CINEMA|10.40.24.203|||110000472614|100
24.10.2018 00:00:00||MARS CINEMA|10.40.24.204|||110000472614|40
24.10.2018 00:00:00||MARS CINEMA|10.40.24.203|||110000472614|77
24.10.2018 00:00:00||MARS CINEMA|10.40.24.203|||110000472614|165
24.10.2018 00:00:00||MARS CINEMA|10.40.24.203|||110000472614|80
24.10.2018 00:00:00||MARS CINEMA|10.40.24.204|||110000472614|65
24.10.2018 00:00:00||MARS CINEMA|10.40.24.203|||110000472614|103
24.10.2018 00:00:00||MARS CINEMA|10.40.24.204|||110000472614|20
24.10.2018 00:00:00||MARS CINEMA|10.40.24.204|||110000472614|92
24.10.2018 00:00:00||MARS CINEMA|10.40.25.203|||110000472614|155
24.10.2018 00:00:00||MARS CINEMA|10.40.25.203|||110000472614|88
24.10.2018 00:00:00||MARS CINEMA|10.40.25.203|||110000472614|183
24.10.2018 00:00:00||MARS CINEMA|10.40.25.203|||110000472614|90
24.10.2018 00:00:00||MARS CINEMA|10.40.25.203|||110000472614|80
24.10.2018 00:00:00||MARS CINEMA|10.40.25.203|||110000472614|110
24.10.2018 00:00:00||MARS CINEMA|10.40.25.203|||110000472614|80
24.10.2018 00:00:00||MARS CINEMA|10.40.25.203|||110000472614|155
24.10.2018 00:00:00||MARS CINEMA|10.40.25.203|||110000472614|92
24.10.2018 00:00:00||MARS CINEMA|10.40.25.203|||110000472614|113
24.10.2018 00:00:00||MARS CINEMA|10.40.25.203|||110000472614|92
24.10.2018 00:00:00||MARS CINEMA|10.40.25.203|||110000472614|63
24.10.2018 00:00:00||MARS CINEMA|10.40.25.203|||110000472614|188
24.10.2018 00:00:00||MARS CINEMA|10.40.25.204|||110000472614|110
24.10.2018 00:00:00||MARS CINEMA|10.40.25.204|||110000472614|70
24.10.2018 00:00:00||MARS CINEMA|10.40.25.204|||110000472614|80
24.10.2018 00:00:00||MARS CINEMA|10.40.25.204|||110000472614|100
24.10.2018 00:00:00||MARS CINEMA|10.40.25.204|||110000472614|20
24.10.2018 00:00:00||MARS CINEMA|10.40.25.204|||110000472614|20
24.10.2018 00:00:00||MARS CINEMA|10.40.25.204|||110000472614|30
24.10.2018 00:00:00||MARS CINEMA|10.40.25.204|||110000472614|40
24.10.2018 00:00:00||MARS CINEMA|10.40.25.204|||110000472614|90
24.10.2018 00:00:00||MARS CINEMA|10.40.25.204|||110000472614|120
24.10.2018 00:00:00||MARS CINEMA|10.40.25.204|||110000472614|80
24.10.2018 00:00:00||MARS CINEMA|10.40.25.204|||110000472614|80
24.10.2018 00:00:00||MARS CINEMA|10.40.25.204|||110000472614|110
24.10.2018 00:00:00||MARS CINEMA|10.40.25.204|||110000472614|100
24.10.2018 00:00:00||MARS CINEMA|10.40.24.203|||110000472614|80
24.10.2018 00:00:00||MARS CINEMA|10.40.24.203|||110000472614|90
24.10.2018 00:00:00||MARS CINEMA|10.40.24.203|||110000472614|150
24.10.2018 00:00:00||MARS CINEMA|10.40.24.203|||110000472614|53
24.10.2018 00:00:00||MARS CINEMA|10.40.24.203|||110000472614|140
24.10.2018 00:00:00||MARS CINEMA|10.40.24.203|||110000472614|147
24.10.2018 00:00:00||MARS CINEMA|10.40.24.203|||110000472614|102
24.10.2018 00:00:00||MARS CINEMA|10.40.24.203|||110000472614|185
24.10.2018 00:00:00||MARS CINEMA|10.40.24.204|||110000472614|110
24.10.2018 00:00:00||MARS CINEMA|10.40.24.204|||110000472614|97
24.10.2018 00:00:00||MARS CINEMA|10.40.24.204|||110000472614|90
24.10.2018 00:00:00||MARS CINEMA|10.40.24.204|||110000472614|20
24.10.2018 00:00:00||MARS CINEMA|10.40.24.204|||110000472614|10
24.10.2018 00:00:00||MARS CINEMA|10.40.24.204|||110000472614|90
24.10.2018 00:00:00||MARS CINEMA|10.40.24.204|||110000472614|120
24.10.2018 00:00:00||MARS CINEMA|10.40.24.204|||110000472614|92
24.10.2018 00:00:00||MARS CINEMA|10.40.24.204|||110000472614|110
24.10.2018 00:00:00||MARS CINEMA|10.40.24.204|||110000472614|82
24.10.2018 00:00:00||MARS CINEMA|10.40.25.206|||110000472614|123
24.10.2018 00:00:00||MARS CINEMA|10.40.25.206|||110000472614|40
24.10.2018 00:00:00||MARS CINEMA|10.40.25.206|||110000472614|40
24.10.2018 00:00:00||MARS CINEMA|10.40.25.206|||110000472614|40
24.10.2018 00:00:00||MARS CINEMA|10.40.25.206|||110000472614|20
24.10.2018 00:00:00||MARS CINEMA|10.40.25.206|||110000472614|20
24.10.2018 00:00:00||MARS CINEMA|10.40.25.206|||110000472614|30
24.10.2018 00:00:00||MARS CINEMA|10.40.25.206|||110000472614|60
24.10.2018 00:00:00||MARS CINEMA|10.40.25.206|||110000472614|40
24.10.2018 00:00:00||MARS CINEMA|10.40.25.206|||110000472614|80
24.10.2018 00:00:00||MARS CINEMA|10.40.25.206|||110000472614|90
24.10.2018 00:00:00||MARS CINEMA|10.40.24.206|||110000472614|150
24.10.2018 00:00:00||MARS CINEMA|10.40.24.206|||110000472614|40
24.10.2018 00:00:00||MARS CINEMA|10.40.24.206|||110000472614|40
24.10.2018 00:00:00||MARS CINEMA|10.40.24.206|||110000472614|40
24.10.2018 00:00:00||MARS CINEMA|10.40.24.206|||110000472614|30
24.10.2018 00:00:00||MARS CINEMA|10.40.24.206|||110000472614|30
24.10.2018 00:00:00||MARS CINEMA|10.40.24.206|||110000472614|197
24.10.2018 00:00:00||MARS CINEMA|10.40.24.206|||110000472614|160
24.10.2018 00:00:00||MARS CINEMA|10.40.24.206|||110000472614|20
24.10.2018 00:00:00||MARS CINEMA|10.40.24.206|||110000472614|80
24.10.2018 00:00:00||MARS CINEMA|10.40.24.206|||110000472614|78
24.10.2018 00:00:00||PEGASUS|10.40.27.84|||110000423831|216
24.10.2018 00:00:00||PEGASUS|10.40.26.85|||110000423831|122
24.10.2018 00:00:00||PEGASUS|10.40.27.66|||110000423831|113
24.10.2018 00:00:00||PEGASUS|10.40.26.66|||110000423831|93
24.10.2018 00:00:00||PEGASUS|10.40.26.84|||110000423831|221
24.10.2018 00:00:00||PEGASUS|10.40.27.85|||110000423831|117
24.10.2018 00:00:00||PEGASUS|10.40.27.67|||110000423831|340
24.10.2018 00:00:00||PEGASUS|10.40.27.67|||110000423831|40
24.10.2018 00:00:00||PEGASUS|10.40.26.62|||110000423831|10
24.10.2018 00:00:00||PEGASUS|10.40.26.62|||110000423831|190
24.10.2018 00:00:00||PEGASUS|10.40.26.63|||110000423831|70
24.10.2018 00:00:00||PEGASUS|10.40.26.63|||110000423831|30
24.10.2018 00:00:00||PEGASUS|10.40.26.63|||110000423831|60
24.10.2018 00:00:00||PEGASUS|10.40.26.63|||110000423831|30
24.10.2018 00:00:00||PEGASUS|10.40.26.63|||110000423831|230
24.10.2018 00:00:00||PEGASUS|10.40.26.63|||110000423831|140
24.10.2018 00:00:00||PEGASUS|10.40.26.63|||110000423831|110
24.10.2018 00:00:00||PEGASUS|10.40.26.63|||110000423831|60
24.10.2018 00:00:00||PEGASUS|10.40.26.67|||110000423831|170
24.10.2018 00:00:00||PEGASUS|10.40.27.68|||110000423831|90
24.10.2018 00:00:00||PEGASUS|10.40.27.68|||110000423831|88
24.10.2018 00:00:00||PEGASUS|10.40.27.68|||110000423831|90
24.10.2018 00:00:00||PEGASUS|10.40.27.68|||110000423831|50
24.10.2018 00:00:00||PEGASUS|10.40.26.68|||110000423831|90
24.10.2018 00:00:00||PEGASUS|10.40.26.68|||110000423831|90
24.10.2018 00:00:00||PEGASUS|10.40.26.68|||110000423831|50
24.10.2018 00:00:00||PEGASUS|10.40.27.63|||110000423831|80
24.10.2018 00:00:00||PEGASUS|10.40.27.86|||110000423831|340
24.10.2018 00:00:00||PEGASUS|10.40.27.63|||110000423831|50
24.10.2018 00:00:00||PEGASUS|10.40.27.63|||110000423831|60
24.10.2018 00:00:00||PEGASUS|10.40.27.64|||110000423831|80
24.10.2018 00:00:00||PEGASUS|10.40.27.64|||110000423831|70
24.10.2018 00:00:00||PEGASUS|10.40.27.63|||110000423831|60
24.10.2018 00:00:00||PEGASUS|10.40.27.63|||110000423831|90
24.10.2018 00:00:00||PEGASUS|10.40.27.63|||110000423831|90
24.10.2018 00:00:00||PEGASUS|10.40.26.63|||110000423831|110
24.10.2018 00:00:00||PEGASUS|10.40.27.67|||110000423831|360
24.10.2018 00:00:00||PEGASUS|10.40.27.64|||110000423831|268
24.10.2018 00:00:00||PEGASUS|10.40.27.64|||110000423831|266
24.10.2018 00:00:00||PEGASUS|10.40.27.63|||110000423831|84
24.10.2018 00:00:00||PEGASUS|10.40.27.63|||110000423831|64
24.10.2018 00:00:00||PEGASUS|10.40.27.63|||110000423831|80
24.10.2018 00:00:00||PEGASUS|10.40.26.63|||110000423831|110
24.10.2018 00:00:00||PEGASUS|10.40.26.63|||110000423831|110
24.10.2018 00:00:00||PEGASUS|10.40.27.81|||110000423831|448
24.10.2018 00:00:00||PEGASUS|10.40.27.81|||110000423831|432
24.10.2018 00:00:00||PEGASUS|10.40.26.63|||110000423831|90
24.10.2018 00:00:00||PEGASUS|10.40.26.63|||110000423831|60
24.10.2018 00:00:00||PEGASUS|10.40.26.67|||110000423831|30
24.10.2018 00:00:00||PEGASUS|10.40.26.67|||110000423831|340
24.10.2018 00:00:00||PEGASUS|10.40.26.67|||110000423831|60
24.10.2018 00:00:00||PEGASUS|10.40.26.67|||110000423831|40
24.10.2018 00:00:00||PEGASUS|10.40.26.67|||110000423831|70
24.10.2018 00:00:00||PEGASUS|10.40.26.68|||110000423831|100
24.10.2018 00:00:00||PEGASUS|10.40.27.64|||110000423831|290
24.10.2018 00:00:00||PEGASUS|10.40.27.64|||110000423831|266
24.10.2018 00:00:00||PEGASUS|10.40.27.64|||110000423831|292
24.10.2018 00:00:00||PEGASUS|10.40.27.64|||110000423831|268
24.10.2018 00:00:00||PEGASUS|10.40.27.64|||110000423831|268
24.10.2018 00:00:00||PEGASUS|10.40.27.86|||110000423831|340
24.10.2018 00:00:00||PEGASUS|10.40.27.63|||110000423831|90
24.10.2018 00:00:00||PEGASUS|10.40.26.63|||110000423831|130
24.10.2018 00:00:00||PEGASUS|10.40.26.63|||110000423831|60
24.10.2018 00:00:00||PEGASUS|10.40.26.63|||110000423831|80
24.10.2018 00:00:00||PEGASUS|10.40.26.67|||110000423831|340
24.10.2018 00:00:00||PEGASUS|10.40.27.63|||110000423831|50
24.10.2018 00:00:00||PEGASUS|10.40.27.63|||110000423831|60
24.10.2018 00:00:00||PEGASUS|10.40.27.81|||110000423831|428
24.10.2018 00:00:00||PEGASUS|10.40.26.62|||110000423831|90
24.10.2018 00:00:00||PEGASUS|10.40.26.63|||110000423831|50
24.10.2018 00:00:00||PEGASUS|10.40.26.63|||110000423831|100
24.10.2018 00:00:00||PEGASUS|10.40.26.63|||110000423831|40
24.10.2018 00:00:00||PEGASUS|10.40.26.63|||110000423831|70
24.10.2018 00:00:00||PEGASUS|10.40.26.67|||110000423831|340
24.10.2018 00:00:00||PEGASUS|10.40.27.64|||110000423831|280
24.10.2018 00:00:00||PEGASUS|10.40.27.64|||110000423831|270
24.10.2018 00:00:00||PEGASUS|10.40.27.64|||110000423831|262
24.10.2018 00:00:00||PEGASUS|10.40.27.64|||110000423831|284
24.10.2018 00:00:00||PEGASUS|10.40.27.64|||110000423831|316
24.10.2018 00:00:00||PEGASUS|10.40.27.86|||110000423831|40
24.10.2018 00:00:00||PEGASUS|10.40.27.63|||110000423831|72
24.10.2018 00:00:00||PEGASUS|10.40.27.63|||110000423831|80
24.10.2018 00:00:00||PEGASUS|10.40.27.63|||110000423831|76
24.10.2018 00:00:00||PEGASUS|10.40.27.63|||110000423831|90
24.10.2018 00:00:00||PEGASUS|10.40.27.63|||110000423831|154
24.10.2018 00:00:00||PEGASUS|10.40.27.63|||110000423831|228
24.10.2018 00:00:00||PEGASUS|10.40.27.63|||110000423831|56
24.10.2018 00:00:00||PEGASUS|10.40.26.64|||110000423831|80
24.10.2018 00:00:00||PEGASUS|10.40.26.64|||110000423831|80
24.10.2018 00:00:00||PEGASUS|10.40.26.82|||110000423831|210
24.10.2018 00:00:00||PEGASUS|10.40.26.82|||110000423831|110
24.10.2018 00:00:00||PEGASUS|10.40.26.82|||110000423831|150
24.10.2018 00:00:00||PEGASUS|10.40.26.82|||110000423831|150
24.10.2018 00:00:00||PEGASUS|10.40.26.82|||110000423831|143
24.10.2018 00:00:00||PEGASUS|10.40.26.82|||110000423831|143
24.10.2018 00:00:00||PEGASUS|10.40.26.82|||110000423831|187
24.10.2018 00:00:00||PEGASUS|10.40.26.82|||110000423831|37
24.10.2018 00:00:00||PEGASUS|10.40.26.82|||110000423831|50
24.10.2018 00:00:00||PEGASUS|10.40.26.82|||110000423831|20
24.10.2018 00:00:00||PEGASUS|10.40.26.82|||110000423831|60
24.10.2018 00:00:00||PEGASUS|10.40.26.82|||110000423831|50
24.10.2018 00:00:00||PEGASUS|10.40.26.82|||110000423831|38
24.10.2018 00:00:00||PEGASUS|10.40.27.83|||110000423831|580
24.10.2018 00:00:00||PEGASUS|10.40.27.83|||110000423831|70
24.10.2018 00:00:00||PEGASUS|10.40.27.83|||110000423831|572
24.10.2018 00:00:00||PEGASUS|10.40.27.83|||110000423831|558
24.10.2018 00:00:00||PEGASUS|10.40.27.83|||110000423831|73
24.10.2018 00:00:00||PEGASUS|10.40.26.83|||110000423831|510
24.10.2018 00:00:00||PEGASUS|10.40.26.83|||110000423831|50
24.10.2018 00:00:00||PEGASUS|10.40.26.83|||110000423831|398
24.10.2018 00:00:00||PEGASUS|10.40.26.83|||110000423831|505
24.10.2018 00:00:00||PEGASUS|10.40.26.83|||110000423831|508
24.10.2018 00:00:00||PEGASUS|10.40.26.86|||110000423831|360
24.10.2018 00:00:00||PEGASUS|10.40.26.86|||110000423831|137
24.10.2018 00:00:00||PEGASUS|10.40.26.86|||110000423831|350
24.10.2018 00:00:00||PEGASUS|10.40.26.86|||110000423831|50
24.10.2018 00:00:00||PEGASUS|10.40.26.86|||110000423831|30
24.10.2018 00:00:00||PEGASUS|10.40.26.86|||110000423831|350
24.10.2018 00:00:00||PEGASUS|10.40.26.86|||110000423831|40
24.10.2018 00:00:00||PEGASUS|10.40.27.87|||110000423831|90
24.10.2018 00:00:00||PEGASUS|10.40.27.87|||110000423831|88
24.10.2018 00:00:00||PEGASUS|10.40.27.87|||110000423831|90
24.10.2018 00:00:00||PEGASUS|10.40.27.87|||110000423831|20
24.10.2018 00:00:00||PEGASUS|10.40.26.87|||110000423831|90
24.10.2018 00:00:00||PEGASUS|10.40.26.87|||110000423831|90
24.10.2018 00:00:00||PEGASUS|10.40.26.87|||110000423831|90
24.10.2018 00:00:00||PEGASUS|10.40.26.87|||110000423831|60
24.10.2018 00:00:00||PEGASUS|10.40.26.87|||110000423831|20
24.10.2018 00:00:00||PEGASUS|10.40.26.81|||110000423831|398
24.10.2018 00:00:00||PEGASUS|10.40.26.81|||110000423831|417
24.10.2018 00:00:00||PEGASUS|10.40.26.81|||110000423831|417
24.10.2018 00:00:00||PEGASUS|10.40.27.82|||110000423831|220
24.10.2018 00:00:00||PEGASUS|10.40.27.82|||110000423831|30
24.10.2018 00:00:00||PEGASUS|10.40.27.82|||110000423831|110
24.10.2018 00:00:00||PEGASUS|10.40.27.82|||110000423831|80
24.10.2018 00:00:00||PEGASUS|10.40.27.82|||110000423831|160
24.10.2018 00:00:00||PEGASUS|10.40.27.82|||110000423831|127
24.10.2018 00:00:00||PEGASUS|10.40.27.82|||110000423831|172
24.10.2018 00:00:00||PEGASUS|10.40.27.82|||110000423831|112
24.10.2018 00:00:00||PEGASUS|10.40.27.82|||110000423831|62
24.10.2018 00:00:00||PEGASUS|10.40.27.82|||110000423831|107
24.10.2018 00:00:00||PEGASUS|10.40.27.82|||110000423831|50
24.10.2018 00:00:00||PEGASUS|10.40.27.82|||110000423831|32
24.10.2018 00:00:00||PEGASUS|10.40.27.82|||110000423831|40
24.10.2018 00:00:00||PEGASUS|10.40.27.67|||110000423831|50
24.10.2018 00:00:00||PEGASUS|10.40.27.67|||110000423831|70
24.10.2018 00:00:00||PEGASUS|10.40.27.67|||110000423831|130
24.10.2018 00:00:00||PEGASUS|10.40.27.67|||110000423831|10
24.10.2018 00:00:00||PEGASUS|10.40.27.67|||110000423831|340
24.10.2018 00:00:00||PEGASUS|10.40.27.82|||110000423831|63
24.10.2018 00:00:00||PEGASUS|10.40.27.86|||110000423831|170
24.10.2018 00:00:00||PEGASUS|10.40.27.86|||110000423831|70
24.10.2018 00:00:00||PEGASUS|10.40.27.86|||110000423831|20
24.10.2018 00:00:00||PEGASUS|10.40.27.86|||110000423831|350
24.10.2018 00:00:00||PETKIM|10.40.25.87|||110000437354|142
24.10.2018 00:00:00||PWC|10.40.24.66|||110000433262|85
24.10.2018 00:00:00||PWC|10.40.24.66|||110000433262|10
24.10.2018 00:00:00||PWC|10.40.24.66|||110000433262|30
24.10.2018 00:00:00||PWC|10.40.24.66|||110000433262|50
24.10.2018 00:00:00||PWC|10.40.24.66|||110000433262|440
24.10.2018 00:00:00||PWC|10.40.24.68|||110000433262|168
24.10.2018 00:00:00||PWC|10.40.24.66|||110000433262|50
24.10.2018 00:00:00||PWC|10.40.24.66|||110000433262|212
24.10.2018 00:00:00||PWC|10.40.24.66|||110000433262|210
24.10.2018 00:00:00||PWC|10.40.25.67|||110000433262|80
24.10.2018 00:00:00||PWC|10.40.25.67|||110000433262|90
24.10.2018 00:00:00||PWC|10.40.25.67|||110000433262|320
24.10.2018 00:00:00||PWC|10.40.25.67|||110000433262|250
24.10.2018 00:00:00||PWC|10.40.25.67|||110000433262|240
24.10.2018 00:00:00||PWC|10.40.25.67|||110000433262|250
24.10.2018 00:00:00||PWC|10.40.25.67|||110000433262|50
24.10.2018 00:00:00||PWC|10.40.25.67|||110000433262|30
24.10.2018 00:00:00||PWC|10.40.25.67|||110000433262|120
24.10.2018 00:00:00||PWC|10.40.24.67|||110000433262|10
24.10.2018 00:00:00||PWC|10.40.24.67|||110000433262|10
24.10.2018 00:00:00||PWC|10.40.24.67|||110000433262|370
24.10.2018 00:00:00||PWC|10.40.24.67|||110000433262|30
24.10.2018 00:00:00||PWC|10.40.24.67|||110000433262|70
24.10.2018 00:00:00||PWC|10.40.24.67|||110000433262|120
24.10.2018 00:00:00||PWC|10.40.25.68|||110000433262|142
24.10.2018 00:00:00||PWC|10.40.25.68|||110000433262|197
24.10.2018 00:00:00||PWC|10.40.25.68|||110000433262|72
24.10.2018 00:00:00||PWC|10.40.25.68|||110000433262|77
24.10.2018 00:00:00||PWC|10.40.25.68|||110000433262|158
24.10.2018 00:00:00||PWC|10.40.24.66|||110000433262|60
24.10.2018 00:00:00||PWC|10.40.24.66|||110000433262|30
24.10.2018 00:00:00||PWC|10.40.24.66|||110000433262|30
24.10.2018 00:00:00||PWC|10.40.24.68|||110000433262|118
24.10.2018 00:00:00||PWC|10.40.24.68|||110000433262|142
24.10.2018 00:00:00||PWC|10.40.24.68|||110000433262|407
24.10.2018 00:00:00||PWC|10.40.24.68|||110000433262|75
24.10.2018 00:00:00||PWC|10.40.24.68|||110000433262|70
24.10.2018 00:00:00||VSMART BİLGİ TEKNOLOJİLERİ|10.40.24.62|||110000474326|40
24.10.2018 00:00:00||VSMART BİLGİ TEKNOLOJİLERİ|10.40.24.62|||110000474326|68
24.10.2018 00:00:00||VSMART BİLGİ TEKNOLOJİLERİ|10.40.24.62|||110000474326|42
24.10.2018 00:00:00||VSMART BİLGİ TEKNOLOJİLERİ|10.40.25.62|||110000474326|70
24.10.2018 00:00:00||VSMART BİLGİ TEKNOLOJİLERİ|10.40.24.62|||110000474326|43
24.10.2018 00:00:00||VSMART BİLGİ TEKNOLOJİLERİ|10.40.24.62|||110000474326|30
24.10.2018 00:00:00||VSMART BİLGİ TEKNOLOJİLERİ|10.40.24.62|||110000474326|10
24.10.2018 00:00:00||VSMART BİLGİ TEKNOLOJİLERİ|10.40.25.62|||110000474326|37
24.10.2018 00:00:00||VSMART BİLGİ TEKNOLOJİLERİ|10.40.25.62|||110000474326|10
24.10.2018 00:00:00||VSMART BİLGİ TEKNOLOJİLERİ|10.40.25.62|||110000474326|10
24.10.2018 00:00:00||VSMART BİLGİ TEKNOLOJİLERİ|10.40.25.62|||110000474326|80
24.10.2018 00:00:00||VSMART BİLGİ TEKNOLOJİLERİ|10.40.25.62|||110000474326|87
24.10.2018 00:00:00||VSMART BİLGİ TEKNOLOJİLERİ|10.40.25.62|||110000474326|100
24.10.2018 00:00:00||VSMART BİLGİ TEKNOLOJİLERİ|10.40.24.62|||110000474326|10
