28.10.2018 03:00:00||AKTİFBANK|10.40.24.133|||110000438458|70
28.10.2018 03:00:00||AKTİFBANK|10.40.24.138|||110000438458|120
28.10.2018 03:00:00||AKTİFBANK|10.40.24.139|||110000438458|30
28.10.2018 03:00:00||AKTİFBANK|10.40.24.149|||110000438458|110
28.10.2018 03:00:00||AKTİFBANK|10.40.24.150|||110000438458|530
28.10.2018 03:00:00||AKTİFBANK|10.40.24.145|||110000438458|60
28.10.2018 03:00:00||AKTİFBANK|10.40.24.164|||110000438458|230
28.10.2018 03:00:00||AKTİFBANK|10.40.25.133|||110000438458|70
28.10.2018 03:00:00||AKTİFBANK|10.40.24.145|||110000438458|90
28.10.2018 03:00:00||AKTİFBANK|10.40.24.158|||110000438458|80
28.10.2018 03:00:00||AKTİFBANK|10.40.24.164|||110000438458|70
28.10.2018 03:00:00||AKTİFBANK|10.40.25.138|||110000438458|80
28.10.2018 03:00:00||AKTİFBANK|10.40.25.139|||110000438458|10
28.10.2018 03:00:00||AKTİFBANK|10.40.25.140|||110000438458|30
28.10.2018 03:00:00||AKTİFBANK|10.40.25.151|||110000438458|500
28.10.2018 03:00:00||AKTİFBANK|10.40.25.141|||110000438458|100
28.10.2018 03:00:00||AKTİFBANK|10.40.25.141|||110000438458|100
28.10.2018 03:00:00||AKTİFBANK|10.40.25.142|||110000438458|80
28.10.2018 03:00:00||AKTİFBANK|10.40.25.133|||110000438458|110
28.10.2018 03:00:00||AKTİFBANK|10.40.25.149|||110000438458|100
28.10.2018 03:00:00||AKTİFBANK|10.40.25.149|||110000438458|90
28.10.2018 03:00:00||AKTİFBANK|10.40.25.149|||110000438458|90
28.10.2018 03:00:00||AKTİFBANK|10.40.25.140|||110000438458|30
28.10.2018 03:00:00||AKTİFBANK|10.40.25.150|||110000438458|530
28.10.2018 03:00:00||AKTİFBANK|10.40.25.139|||110000438458|170
28.10.2018 03:00:00||AKTİFBANK|10.40.25.139|||110000438458|40
28.10.2018 03:00:00||AKTİFBANK|10.40.25.140|||110000438458|80
28.10.2018 03:00:00||AKTİFBANK|10.40.25.140|||110000438458|70
28.10.2018 03:00:00||AKTİFBANK|10.40.25.140|||110000438458|30
28.10.2018 03:00:00||AKTİFBANK|10.40.25.151|||110000438458|500
28.10.2018 03:00:00||AKTİFBANK|10.40.25.151|||110000438458|480
28.10.2018 03:00:00||AKTİFBANK|10.40.25.141|||110000438458|40
28.10.2018 03:00:00||AKTİFBANK|10.40.25.141|||110000438458|100
28.10.2018 03:00:00||AKTİFBANK|10.40.25.141|||110000438458|80
28.10.2018 03:00:00||AKTİFBANK|10.40.25.142|||110000438458|40
28.10.2018 03:00:00||AKTİFBANK|10.40.25.149|||110000438458|70
28.10.2018 03:00:00||AKTİFBANK|10.40.25.149|||110000438458|110
28.10.2018 03:00:00||AKTİFBANK|10.40.25.149|||110000438458|90
28.10.2018 03:00:00||AKTİFBANK|10.40.25.149|||110000438458|90
28.10.2018 03:00:00||AKTİFBANK|10.40.25.149|||110000438458|100
28.10.2018 03:00:00||AKTİFBANK|10.40.24.139|||110000438458|70
28.10.2018 03:00:00||AKTİFBANK|10.40.25.153|||110000438458|10
28.10.2018 03:00:00||AKTİFBANK|10.40.25.150|||110000438458|550
28.10.2018 03:00:00||AKTİFBANK|10.40.25.153|||110000438458|70
28.10.2018 03:00:00||AKTİFBANK|10.40.25.163|||110000438458|50
28.10.2018 03:00:00||AKTİFBANK|10.40.24.141|||110000438458|80
28.10.2018 03:00:00||AKTİFBANK|10.40.24.151|||110000438458|500
28.10.2018 03:00:00||AKTİFBANK|10.40.25.153|||110000438458|80
28.10.2018 03:00:00||AKTİFBANK|10.40.24.149|||110000438458|80
28.10.2018 03:00:00||AKTİFBANK|10.40.24.141|||110000438458|50
28.10.2018 03:00:00||AKTİFBANK|10.40.25.133|||110000438458|280
28.10.2018 03:00:00||AKTİFBANK|10.40.25.133|||110000438458|90
28.10.2018 03:00:00||AKTİFBANK|10.40.24.149|||110000438458|90
28.10.2018 03:00:00||AKTİFBANK|10.40.24.162|||110000438458|210
28.10.2018 03:00:00||AKTİFBANK|10.40.24.162|||110000438458|30
28.10.2018 03:00:00||AKTİFBANK|10.40.24.162|||110000438458|40
28.10.2018 03:00:00||AKTİFBANK|10.40.25.133|||110000438458|150
28.10.2018 03:00:00||AKTİFBANK|10.40.25.138|||110000438458|130
28.10.2018 03:00:00||AKTİFBANK|10.40.25.149|||110000438458|90
28.10.2018 03:00:00||AKTİFBANK|10.40.25.149|||110000438458|70
28.10.2018 03:00:00||AKTİFBANK|10.40.25.149|||110000438458|30
28.10.2018 03:00:00||AKTİFBANK|10.40.25.149|||110000438458|70
28.10.2018 03:00:00||AKTİFBANK|10.40.25.149|||110000438458|70
28.10.2018 03:00:00||AKTİFBANK|10.40.25.141|||110000438458|100
28.10.2018 03:00:00||AKTİFBANK|10.40.25.149|||110000438458|130
28.10.2018 03:00:00||AKTİFBANK|10.40.25.138|||110000438458|90
28.10.2018 03:00:00||AKTİFBANK|10.40.25.138|||110000438458|70
28.10.2018 03:00:00||AKTİFBANK|10.40.25.139|||110000438458|100
28.10.2018 03:00:00||AKTİFBANK|10.40.24.145|||110000438458|70
28.10.2018 03:00:00||AKTİFBANK|10.40.24.149|||110000438458|160
28.10.2018 03:00:00||AKTİFBANK|10.40.25.138|||110000438458|30
28.10.2018 03:00:00||AKTİFBANK|10.40.25.138|||110000438458|10
28.10.2018 03:00:00||AKTİFBANK|10.40.25.153|||110000438458|60
28.10.2018 03:00:00||AKTİFBANK|10.40.24.150|||110000438458|540
28.10.2018 03:00:00||AKTİFBANK|10.40.25.128|||110000438458|70
28.10.2018 03:00:00||AKTİFBANK|10.40.25.128|||110000438458|90
28.10.2018 03:00:00||AKTİFBANK|10.40.25.128|||110000438458|90
28.10.2018 03:00:00||AKTİFBANK|10.40.25.128|||110000438458|40
28.10.2018 03:00:00||AKTİFBANK|10.40.25.128|||110000438458|50
28.10.2018 03:00:00||AKTİFBANK|10.40.25.129|||110000438458|90
28.10.2018 03:00:00||AKTİFBANK|10.40.25.129|||110000438458|90
28.10.2018 03:00:00||AKTİFBANK|10.40.25.129|||110000438458|140
28.10.2018 03:00:00||AKTİFBANK|10.40.25.129|||110000438458|100
28.10.2018 03:00:00||AKTİFBANK|10.40.25.129|||110000438458|40
28.10.2018 03:00:00||AKTİFBANK|10.40.25.129|||110000438458|90
28.10.2018 03:00:00||AKTİFBANK|10.40.25.129|||110000438458|90
28.10.2018 03:00:00||AKTİFBANK|10.40.25.130|||110000438458|70
28.10.2018 03:00:00||AKTİFBANK|10.40.25.130|||110000438458|50
28.10.2018 03:00:00||AKTİFBANK|10.40.25.130|||110000438458|80
28.10.2018 03:00:00||AKTİFBANK|10.40.25.130|||110000438458|40
28.10.2018 03:00:00||AKTİFBANK|10.40.25.130|||110000438458|60
28.10.2018 03:00:00||AKTİFBANK|10.40.25.130|||110000438458|100
28.10.2018 03:00:00||AKTİFBANK|10.40.25.130|||110000438458|90
28.10.2018 03:00:00||AKTİFBANK|10.40.25.131|||110000438458|20
28.10.2018 03:00:00||AKTİFBANK|10.40.25.131|||110000438458|70
28.10.2018 03:00:00||AKTİFBANK|10.40.25.131|||110000438458|100
28.10.2018 03:00:00||AKTİFBANK|10.40.25.131|||110000438458|20
28.10.2018 03:00:00||AKTİFBANK|10.40.25.131|||110000438458|120
28.10.2018 03:00:00||AKTİFBANK|10.40.25.132|||110000438458|60
28.10.2018 03:00:00||AKTİFBANK|10.40.25.132|||110000438458|70
28.10.2018 03:00:00||AKTİFBANK|10.40.25.132|||110000438458|180
28.10.2018 03:00:00||AKTİFBANK|10.40.25.132|||110000438458|60
28.10.2018 03:00:00||AKTİFBANK|10.40.25.143|||110000438458|310
28.10.2018 03:00:00||AKTİFBANK|10.40.25.144|||110000438458|80
28.10.2018 03:00:00||AKTİFBANK|10.40.25.144|||110000438458|50
28.10.2018 03:00:00||AKTİFBANK|10.40.25.144|||110000438458|20
28.10.2018 03:00:00||AKTİFBANK|10.40.25.154|||110000438458|10
28.10.2018 03:00:00||AKTİFBANK|10.40.25.154|||110000438458|10
28.10.2018 03:00:00||AKTİFBANK|10.40.25.154|||110000438458|10
28.10.2018 03:00:00||AKTİFBANK|10.40.25.157|||110000438458|70
28.10.2018 03:00:00||AKTİFBANK|10.40.25.157|||110000438458|70
28.10.2018 03:00:00||AKTİFBANK|10.40.25.157|||110000438458|70
28.10.2018 03:00:00||AKTİFBANK|10.40.25.157|||110000438458|80
28.10.2018 03:00:00||AKTİFBANK|10.40.25.157|||110000438458|50
28.10.2018 03:00:00||AKTİFBANK|10.40.25.159|||110000438458|60
28.10.2018 03:00:00||AKTİFBANK|10.40.25.159|||110000438458|10
28.10.2018 03:00:00||AKTİFBANK|10.40.25.159|||110000438458|90
28.10.2018 03:00:00||AKTİFBANK|10.40.25.158|||110000438458|120
28.10.2018 03:00:00||AKTİFBANK|10.40.25.158|||110000438458|120
28.10.2018 03:00:00||AKTİFBANK|10.40.25.158|||110000438458|130
28.10.2018 03:00:00||AKTİFBANK|10.40.25.158|||110000438458|50
28.10.2018 03:00:00||AKTİFBANK|10.40.25.160|||110000438458|90
28.10.2018 03:00:00||AKTİFBANK|10.40.25.161|||110000438458|80
28.10.2018 03:00:00||AKTİFBANK|10.40.25.161|||110000438458|70
28.10.2018 03:00:00||AKTİFBANK|10.40.25.161|||110000438458|50
28.10.2018 03:00:00||AKTİFBANK|10.40.25.145|||110000438458|90
28.10.2018 03:00:00||AKTİFBANK|10.40.25.145|||110000438458|60
28.10.2018 03:00:00||AKTİFBANK|10.40.25.145|||110000438458|60
28.10.2018 03:00:00||AKTİFBANK|10.40.25.145|||110000438458|30
28.10.2018 03:00:00||AKTİFBANK|10.40.25.145|||110000438458|50
28.10.2018 03:00:00||AKTİFBANK|10.40.25.147|||110000438458|90
28.10.2018 03:00:00||AKTİFBANK|10.40.25.162|||110000438458|30
28.10.2018 03:00:00||AKTİFBANK|10.40.25.162|||110000438458|30
28.10.2018 03:00:00||AKTİFBANK|10.40.25.162|||110000438458|60
28.10.2018 03:00:00||AKTİFBANK|10.40.25.164|||110000438458|60
28.10.2018 03:00:00||AKTİFBANK|10.40.25.164|||110000438458|280
28.10.2018 03:00:00||AKTİFBANK|10.40.25.164|||110000438458|50
28.10.2018 03:00:00||AKTİFBANK|10.40.25.164|||110000438458|260
28.10.2018 03:00:00||AKTİFBANK|10.40.25.164|||110000438458|270
28.10.2018 03:00:00||AKTİFBANK|10.40.25.165|||110000438458|110
28.10.2018 03:00:00||AKTİFBANK|10.40.25.165|||110000438458|70
28.10.2018 03:00:00||AKTİFBANK|10.40.25.165|||110000438458|80
28.10.2018 03:00:00||AKTİFBANK|10.40.25.165|||110000438458|100
28.10.2018 03:00:00||AKTİFBANK|10.40.25.166|||110000438458|90
28.10.2018 03:00:00||AKTİFBANK|10.40.25.166|||110000438458|10
28.10.2018 03:00:00||AKTİFBANK|10.40.25.166|||110000438458|10
28.10.2018 03:00:00||AKTİFBANK|10.40.25.166|||110000438458|40
28.10.2018 03:00:00||AKTİFBANK|10.40.25.148|||110000438458|130
28.10.2018 03:00:00||AKTİFBANK|10.40.25.148|||110000438458|50
28.10.2018 03:00:00||AKTİFBANK|10.40.25.148|||110000438458|100
28.10.2018 03:00:00||AKTİFBANK|10.40.25.148|||110000438458|130
28.10.2018 03:00:00||AKTİFBANK|10.40.25.148|||110000438458|90
28.10.2018 03:00:00||AKTİFBANK|10.40.25.148|||110000438458|80
28.10.2018 03:00:00||AKTİFBANK|10.40.25.148|||110000438458|70
28.10.2018 03:00:00||AKTİFBANK|10.40.25.148|||110000438458|50
28.10.2018 03:00:00||AKTİFBANK|10.40.25.148|||110000438458|80
28.10.2018 03:00:00||AKTİFBANK|10.40.25.148|||110000438458|40
28.10.2018 03:00:00||AKTİFBANK|10.40.25.148|||110000438458|100
28.10.2018 03:00:00||AKTİFBANK|10.40.25.148|||110000438458|60
28.10.2018 03:00:00||AKTİFBANK|10.40.25.155|||110000438458|70
28.10.2018 03:00:00||AKTİFBANK|10.40.25.155|||110000438458|90
28.10.2018 03:00:00||AKTİFBANK|10.40.25.155|||110000438458|110
28.10.2018 03:00:00||AKTİFBANK|10.40.25.155|||110000438458|120
28.10.2018 03:00:00||AKTİFBANK|10.40.25.155|||110000438458|110
28.10.2018 03:00:00||AKTİFBANK|10.40.25.156|||110000438458|20
28.10.2018 03:00:00||AKTİFBANK|10.40.25.156|||110000438458|30
28.10.2018 03:00:00||AKTİFBANK|10.40.25.139|||110000438458|70
28.10.2018 03:00:00||AKTİFBANK|10.40.25.139|||110000438458|80
28.10.2018 03:00:00||AKTİFBANK|10.40.25.150|||110000438458|500
28.10.2018 03:00:00||AKTİFBANK|10.40.25.129|||110000438458|60
28.10.2018 03:00:00||AKTİFBANK|10.40.25.129|||110000438458|80
28.10.2018 03:00:00||AKTİFBANK|10.40.25.129|||110000438458|140
28.10.2018 03:00:00||AKTİFBANK|10.40.25.130|||110000438458|70
28.10.2018 03:00:00||AKTİFBANK|10.40.25.130|||110000438458|130
28.10.2018 03:00:00||AKTİFBANK|10.40.25.130|||110000438458|100
28.10.2018 03:00:00||AKTİFBANK|10.40.25.131|||110000438458|50
28.10.2018 03:00:00||AKTİFBANK|10.40.25.143|||110000438458|60
28.10.2018 03:00:00||AKTİFBANK|10.40.25.143|||110000438458|250
28.10.2018 03:00:00||AKTİFBANK|10.40.25.143|||110000438458|260
28.10.2018 03:00:00||AKTİFBANK|10.40.25.158|||110000438458|100
28.10.2018 03:00:00||AKTİFBANK|10.40.25.160|||110000438458|110
28.10.2018 03:00:00||AKTİFBANK|10.40.25.162|||110000438458|30
28.10.2018 03:00:00||AKTİFBANK|10.40.25.162|||110000438458|40
28.10.2018 03:00:00||AKTİFBANK|10.40.24.140|||110000438458|160
28.10.2018 03:00:00||AKTİFBANK|10.40.24.140|||110000438458|80
28.10.2018 03:00:00||AKTİFBANK|10.40.24.140|||110000438458|40
28.10.2018 03:00:00||AKTİFBANK|10.40.24.140|||110000438458|30
28.10.2018 03:00:00||AKTİFBANK|10.40.24.140|||110000438458|30
28.10.2018 03:00:00||AKTİFBANK|10.40.24.140|||110000438458|30
28.10.2018 03:00:00||AKTİFBANK|10.40.24.149|||110000438458|80
28.10.2018 03:00:00||AKTİFBANK|10.40.24.149|||110000438458|120
28.10.2018 03:00:00||AKTİFBANK|10.40.24.149|||110000438458|90
28.10.2018 03:00:00||AKTİFBANK|10.40.24.149|||110000438458|60
28.10.2018 03:00:00||AKTİFBANK|10.40.24.149|||110000438458|50
28.10.2018 03:00:00||AKTİFBANK|10.40.24.149|||110000438458|140
28.10.2018 03:00:00||AKTİFBANK|10.40.24.149|||110000438458|90
28.10.2018 03:00:00||AKTİFBANK|10.40.24.149|||110000438458|90
28.10.2018 03:00:00||AKTİFBANK|10.40.24.149|||110000438458|90
28.10.2018 03:00:00||AKTİFBANK|10.40.24.149|||110000438458|80
28.10.2018 03:00:00||AKTİFBANK|10.40.24.133|||110000438458|280
28.10.2018 03:00:00||AKTİFBANK|10.40.24.133|||110000438458|140
28.10.2018 03:00:00||AKTİFBANK|10.40.24.133|||110000438458|120
28.10.2018 03:00:00||AKTİFBANK|10.40.24.133|||110000438458|90
28.10.2018 03:00:00||AKTİFBANK|10.40.24.138|||110000438458|110
28.10.2018 03:00:00||AKTİFBANK|10.40.24.138|||110000438458|140
28.10.2018 03:00:00||AKTİFBANK|10.40.24.138|||110000438458|110
28.10.2018 03:00:00||AKTİFBANK|10.40.24.138|||110000438458|40
28.10.2018 03:00:00||AKTİFBANK|10.40.24.138|||110000438458|50
28.10.2018 03:00:00||AKTİFBANK|10.40.24.139|||110000438458|160
28.10.2018 03:00:00||AKTİFBANK|10.40.24.139|||110000438458|90
28.10.2018 03:00:00||AKTİFBANK|10.40.24.139|||110000438458|120
28.10.2018 03:00:00||AKTİFBANK|10.40.24.141|||110000438458|200
28.10.2018 03:00:00||AKTİFBANK|10.40.24.141|||110000438458|100
28.10.2018 03:00:00||AKTİFBANK|10.40.24.141|||110000438458|100
28.10.2018 03:00:00||AKTİFBANK|10.40.24.141|||110000438458|80
28.10.2018 03:00:00||AKTİFBANK|10.40.24.141|||110000438458|80
28.10.2018 03:00:00||AKTİFBANK|10.40.25.152|||110000438458|110
28.10.2018 03:00:00||AKTİFBANK|10.40.25.152|||110000438458|50
28.10.2018 03:00:00||AKTİFBANK|10.40.25.152|||110000438458|140
28.10.2018 03:00:00||AKTİFBANK|10.40.25.152|||110000438458|70
28.10.2018 03:00:00||AKTİFBANK|10.40.25.152|||110000438458|90
28.10.2018 03:00:00||AKTİFBANK|10.40.25.152|||110000438458|160
28.10.2018 03:00:00||AKTİFBANK|10.40.25.152|||110000438458|50
28.10.2018 03:00:00||AKTİFBANK|10.40.25.152|||110000438458|90
28.10.2018 03:00:00||AKTİFBANK|10.40.25.152|||110000438458|30
28.10.2018 03:00:00||AKTİFBANK|10.40.25.152|||110000438458|80
28.10.2018 03:00:00||AKTİFBANK|10.40.25.152|||110000438458|30
28.10.2018 03:00:00||AKTİFBANK|10.40.24.150|||110000438458|540
28.10.2018 03:00:00||AKTİFBANK|10.40.24.151|||110000438458|530
28.10.2018 03:00:00||AKTİFBANK|10.40.24.151|||110000438458|530
28.10.2018 03:00:00||AKTİFBANK|10.40.24.128|||110000438458|60
28.10.2018 03:00:00||AKTİFBANK|10.40.24.128|||110000438458|70
28.10.2018 03:00:00||AKTİFBANK|10.40.24.128|||110000438458|100
28.10.2018 03:00:00||AKTİFBANK|10.40.24.128|||110000438458|40
28.10.2018 03:00:00||AKTİFBANK|10.40.24.128|||110000438458|70
28.10.2018 03:00:00||AKTİFBANK|10.40.24.128|||110000438458|70
28.10.2018 03:00:00||AKTİFBANK|10.40.24.129|||110000438458|100
28.10.2018 03:00:00||AKTİFBANK|10.40.24.129|||110000438458|70
28.10.2018 03:00:00||AKTİFBANK|10.40.24.129|||110000438458|110
28.10.2018 03:00:00||AKTİFBANK|10.40.24.129|||110000438458|120
28.10.2018 03:00:00||AKTİFBANK|10.40.24.129|||110000438458|40
28.10.2018 03:00:00||AKTİFBANK|10.40.24.129|||110000438458|70
28.10.2018 03:00:00||AKTİFBANK|10.40.24.129|||110000438458|70
28.10.2018 03:00:00||AKTİFBANK|10.40.24.129|||110000438458|90
28.10.2018 03:00:00||AKTİFBANK|10.40.24.129|||110000438458|80
28.10.2018 03:00:00||AKTİFBANK|10.40.24.129|||110000438458|140
28.10.2018 03:00:00||AKTİFBANK|10.40.24.130|||110000438458|40
28.10.2018 03:00:00||AKTİFBANK|10.40.24.130|||110000438458|40
28.10.2018 03:00:00||AKTİFBANK|10.40.24.130|||110000438458|70
28.10.2018 03:00:00||AKTİFBANK|10.40.24.130|||110000438458|40
28.10.2018 03:00:00||AKTİFBANK|10.40.24.130|||110000438458|60
28.10.2018 03:00:00||AKTİFBANK|10.40.24.130|||110000438458|70
28.10.2018 03:00:00||AKTİFBANK|10.40.24.130|||110000438458|80
28.10.2018 03:00:00||AKTİFBANK|10.40.24.130|||110000438458|40
28.10.2018 03:00:00||AKTİFBANK|10.40.24.130|||110000438458|130
28.10.2018 03:00:00||AKTİFBANK|10.40.24.130|||110000438458|110
28.10.2018 03:00:00||AKTİFBANK|10.40.24.131|||110000438458|70
28.10.2018 03:00:00||AKTİFBANK|10.40.24.131|||110000438458|90
28.10.2018 03:00:00||AKTİFBANK|10.40.24.131|||110000438458|110
28.10.2018 03:00:00||AKTİFBANK|10.40.24.131|||110000438458|120
28.10.2018 03:00:00||AKTİFBANK|10.40.24.131|||110000438458|20
28.10.2018 03:00:00||AKTİFBANK|10.40.24.131|||110000438458|160
28.10.2018 03:00:00||AKTİFBANK|10.40.24.131|||110000438458|60
28.10.2018 03:00:00||AKTİFBANK|10.40.24.131|||110000438458|110
28.10.2018 03:00:00||AKTİFBANK|10.40.24.132|||110000438458|30
28.10.2018 03:00:00||AKTİFBANK|10.40.24.132|||110000438458|80
28.10.2018 03:00:00||AKTİFBANK|10.40.24.132|||110000438458|50
28.10.2018 03:00:00||AKTİFBANK|10.40.24.132|||110000438458|200
28.10.2018 03:00:00||AKTİFBANK|10.40.24.132|||110000438458|60
28.10.2018 03:00:00||AKTİFBANK|10.40.24.143|||110000438458|60
28.10.2018 03:00:00||AKTİFBANK|10.40.24.143|||110000438458|270
28.10.2018 03:00:00||AKTİFBANK|10.40.24.143|||110000438458|330
28.10.2018 03:00:00||AKTİFBANK|10.40.24.143|||110000438458|200
28.10.2018 03:00:00||AKTİFBANK|10.40.24.144|||110000438458|70
28.10.2018 03:00:00||AKTİFBANK|10.40.24.144|||110000438458|110
28.10.2018 03:00:00||AKTİFBANK|10.40.24.144|||110000438458|130
28.10.2018 03:00:00||AKTİFBANK|10.40.24.148|||110000438458|70
28.10.2018 03:00:00||AKTİFBANK|10.40.24.148|||110000438458|170
28.10.2018 03:00:00||AKTİFBANK|10.40.24.148|||110000438458|90
28.10.2018 03:00:00||AKTİFBANK|10.40.24.148|||110000438458|110
28.10.2018 03:00:00||AKTİFBANK|10.40.24.148|||110000438458|80
28.10.2018 03:00:00||AKTİFBANK|10.40.24.148|||110000438458|90
28.10.2018 03:00:00||AKTİFBANK|10.40.24.148|||110000438458|90
28.10.2018 03:00:00||AKTİFBANK|10.40.24.148|||110000438458|100
28.10.2018 03:00:00||AKTİFBANK|10.40.24.148|||110000438458|90
28.10.2018 03:00:00||AKTİFBANK|10.40.24.148|||110000438458|60
28.10.2018 03:00:00||AKTİFBANK|10.40.24.148|||110000438458|30
28.10.2018 03:00:00||AKTİFBANK|10.40.24.148|||110000438458|80
28.10.2018 03:00:00||AKTİFBANK|10.40.24.153|||110000438458|10
28.10.2018 03:00:00||AKTİFBANK|10.40.24.153|||110000438458|90
28.10.2018 03:00:00||AKTİFBANK|10.40.24.153|||110000438458|70
28.10.2018 03:00:00||AKTİFBANK|10.40.24.153|||110000438458|80
28.10.2018 03:00:00||AKTİFBANK|10.40.24.157|||110000438458|30
28.10.2018 03:00:00||AKTİFBANK|10.40.24.157|||110000438458|70
28.10.2018 03:00:00||AKTİFBANK|10.40.24.157|||110000438458|70
28.10.2018 03:00:00||AKTİFBANK|10.40.24.157|||110000438458|40
28.10.2018 03:00:00||AKTİFBANK|10.40.24.157|||110000438458|80
28.10.2018 03:00:00||AKTİFBANK|10.40.24.157|||110000438458|40
28.10.2018 03:00:00||AKTİFBANK|10.40.24.158|||110000438458|80
28.10.2018 03:00:00||AKTİFBANK|10.40.24.158|||110000438458|110
28.10.2018 03:00:00||AKTİFBANK|10.40.24.159|||110000438458|130
28.10.2018 03:00:00||AKTİFBANK|10.40.24.159|||110000438458|50
28.10.2018 03:00:00||AKTİFBANK|10.40.24.159|||110000438458|180
28.10.2018 03:00:00||AKTİFBANK|10.40.24.160|||110000438458|50
28.10.2018 03:00:00||AKTİFBANK|10.40.24.160|||110000438458|90
28.10.2018 03:00:00||AKTİFBANK|10.40.24.160|||110000438458|100
28.10.2018 03:00:00||AKTİFBANK|10.40.24.161|||110000438458|200
28.10.2018 03:00:00||AKTİFBANK|10.40.24.161|||110000438458|80
28.10.2018 03:00:00||AKTİFBANK|10.40.24.161|||110000438458|40
28.10.2018 03:00:00||AKTİFBANK|10.40.24.161|||110000438458|30
28.10.2018 03:00:00||AKTİFBANK|10.40.24.161|||110000438458|30
28.10.2018 03:00:00||AKTİFBANK|10.40.24.161|||110000438458|20
28.10.2018 03:00:00||AKTİFBANK|10.40.24.161|||110000438458|90
28.10.2018 03:00:00||AKTİFBANK|10.40.24.145|||110000438458|30
28.10.2018 03:00:00||AKTİFBANK|10.40.24.145|||110000438458|70
28.10.2018 03:00:00||AKTİFBANK|10.40.24.145|||110000438458|50
28.10.2018 03:00:00||AKTİFBANK|10.40.24.147|||110000438458|90
28.10.2018 03:00:00||AKTİFBANK|10.40.24.162|||110000438458|40
28.10.2018 03:00:00||AKTİFBANK|10.40.24.162|||110000438458|40
28.10.2018 03:00:00||AKTİFBANK|10.40.24.162|||110000438458|100
28.10.2018 03:00:00||AKTİFBANK|10.40.24.162|||110000438458|10
28.10.2018 03:00:00||AKTİFBANK|10.40.24.162|||110000438458|50
28.10.2018 03:00:00||AKTİFBANK|10.40.24.163|||110000438458|30
28.10.2018 03:00:00||AKTİFBANK|10.40.24.163|||110000438458|70
28.10.2018 03:00:00||AKTİFBANK|10.40.24.164|||110000438458|70
28.10.2018 03:00:00||AKTİFBANK|10.40.24.164|||110000438458|330
28.10.2018 03:00:00||AKTİFBANK|10.40.24.164|||110000438458|210
28.10.2018 03:00:00||AKTİFBANK|10.40.24.165|||110000438458|80
28.10.2018 03:00:00||AKTİFBANK|10.40.24.165|||110000438458|80
28.10.2018 03:00:00||AKTİFBANK|10.40.24.165|||110000438458|50
28.10.2018 03:00:00||AKTİFBANK|10.40.24.165|||110000438458|120
28.10.2018 03:00:00||AKTİFBANK|10.40.24.166|||110000438458|80
28.10.2018 03:00:00||AKTİFBANK|10.40.24.166|||110000438458|90
28.10.2018 03:00:00||AKTİFBANK|10.40.24.166|||110000438458|10
28.10.2018 03:00:00||AKTİFBANK|10.40.25.168|||110000438458|90
28.10.2018 03:00:00||AKTİFBANK|10.40.25.168|||110000438458|70
28.10.2018 03:00:00||AKTİFBANK|10.40.25.168|||110000438458|50
28.10.2018 03:00:00||AKTİFBANK|10.40.25.168|||110000438458|40
28.10.2018 03:00:00||AKTİFBANK|10.40.25.168|||110000438458|60
28.10.2018 03:00:00||AKTİFBANK|10.40.24.168|||110000438458|90
28.10.2018 03:00:00||AKTİFBANK|10.40.24.168|||110000438458|80
28.10.2018 03:00:00||AKTİFBANK|10.40.24.168|||110000438458|70
28.10.2018 03:00:00||AKTİFBANK|10.40.24.168|||110000438458|70
28.10.2018 03:00:00||AKTİFBANK|10.40.24.168|||110000438458|30
28.10.2018 03:00:00||AKTİFBANK|10.40.24.154|||110000438458|70
28.10.2018 03:00:00||AKTİFBANK|10.40.24.154|||110000438458|20
28.10.2018 03:00:00||AKTİFBANK|10.40.24.154|||110000438458|10
28.10.2018 03:00:00||AKTİFBANK|10.40.24.154|||110000438458|10
28.10.2018 03:00:00||AKTİFBANK|10.40.24.154|||110000438458|10
28.10.2018 03:00:00||AKTİFBANK|10.40.24.154|||110000438458|10
28.10.2018 03:00:00||AKTİFBANK|10.40.24.155|||110000438458|60
28.10.2018 03:00:00||AKTİFBANK|10.40.24.155|||110000438458|100
28.10.2018 03:00:00||AKTİFBANK|10.40.24.155|||110000438458|130
28.10.2018 03:00:00||AKTİFBANK|10.40.24.155|||110000438458|80
28.10.2018 03:00:00||AKTİFBANK|10.40.24.155|||110000438458|110
28.10.2018 03:00:00||AKTİFBANK|10.40.24.155|||110000438458|100
28.10.2018 03:00:00||AKTİFBANK|10.40.25.169|||110000438458|90
28.10.2018 03:00:00||AKTİFBANK|10.40.25.169|||110000438458|90
28.10.2018 03:00:00||AKTİFBANK|10.40.25.169|||110000438458|70
28.10.2018 03:00:00||AKTİFBANK|10.40.25.169|||110000438458|70
28.10.2018 03:00:00||AKTİFBANK|10.40.24.169|||110000438458|60
28.10.2018 03:00:00||AKTİFBANK|10.40.24.169|||110000438458|90
28.10.2018 03:00:00||AKTİFBANK|10.40.24.169|||110000438458|70
28.10.2018 03:00:00||AKTİFBANK|10.40.24.169|||110000438458|80
28.10.2018 03:00:00||AKTİFBANK|10.40.25.170|||110000438458|30
28.10.2018 03:00:00||AKTİFBANK|10.40.25.170|||110000438458|30
28.10.2018 03:00:00||AKTİFBANK|10.40.25.170|||110000438458|200
28.10.2018 03:00:00||AKTİFBANK|10.40.25.170|||110000438458|100
28.10.2018 03:00:00||AKTİFBANK|10.40.25.170|||110000438458|80
28.10.2018 03:00:00||AKTİFBANK|10.40.25.170|||110000438458|120
28.10.2018 03:00:00||AKTİFBANK|10.40.24.170|||110000438458|60
28.10.2018 03:00:00||AKTİFBANK|10.40.24.170|||110000438458|60
28.10.2018 03:00:00||AKTİFBANK|10.40.24.170|||110000438458|370
28.10.2018 03:00:00||AKTİFBANK|10.40.24.170|||110000438458|140
28.10.2018 03:00:00||AKTİFBANK|10.40.24.170|||110000438458|80
28.10.2018 03:00:00||AKTİFBANK|10.40.24.170|||110000438458|110
28.10.2018 03:00:00||AKTİFBANK|10.40.24.170|||110000438458|90
28.10.2018 03:00:00||AKTİFBANK|10.40.25.178|||110000438458|590
28.10.2018 03:00:00||AKTİFBANK|10.40.25.178|||110000438458|560
28.10.2018 03:00:00||AKTİFBANK|10.40.25.178|||110000438458|550
28.10.2018 03:00:00||AKTİFBANK|10.40.24.178|||110000438458|540
28.10.2018 03:00:00||AKTİFBANK|10.40.24.178|||110000438458|550
28.10.2018 03:00:00||AKTİFBANK|10.40.24.178|||110000438458|530
28.10.2018 03:00:00||AKTİFBANK|10.40.25.179|||110000438458|390
28.10.2018 03:00:00||AKTİFBANK|10.40.25.179|||110000438458|350
28.10.2018 03:00:00||AKTİFBANK|10.40.25.179|||110000438458|360
28.10.2018 03:00:00||AKTİFBANK|10.40.24.179|||110000438458|320
28.10.2018 03:00:00||AKTİFBANK|10.40.24.179|||110000438458|330
28.10.2018 03:00:00||AKTİFBANK|10.40.24.179|||110000438458|320
28.10.2018 03:00:00||AKTİFBANK|10.40.24.142|||110000438458|40
28.10.2018 03:00:00||AKTİFBANK|10.40.24.156|||110000438458|50
28.10.2018 03:00:00||AKTİFBANK|10.40.24.156|||110000438458|50
28.10.2018 03:00:00||AKTİFBANK|10.40.25.186|||110000438458|90
28.10.2018 03:00:00||AKTİFBANK|10.40.25.186|||110000438458|20
28.10.2018 03:00:00||AKTİFBANK|10.40.25.186|||110000438458|70
28.10.2018 03:00:00||AKTİFBANK|10.40.24.186|||110000438458|90
28.10.2018 03:00:00||AKTİFBANK|10.40.24.186|||110000438458|30
28.10.2018 03:00:00||AKTİFBANK|10.40.24.186|||110000438458|60
28.10.2018 03:00:00||AKTİFBANK|10.40.24.186|||110000438458|40
28.10.2018 03:00:00||AKTİFBANK|10.40.24.152|||110000438458|10
28.10.2018 03:00:00||AKTİFBANK|10.40.24.152|||110000438458|50
28.10.2018 03:00:00||AKTİFBANK|10.40.24.152|||110000438458|90
28.10.2018 03:00:00||AKTİFBANK|10.40.24.152|||110000438458|130
28.10.2018 03:00:00||AKTİFBANK|10.40.24.152|||110000438458|100
28.10.2018 03:00:00||AKTİFBANK|10.40.24.152|||110000438458|100
28.10.2018 03:00:00||AKTİFBANK|10.40.24.152|||110000438458|180
28.10.2018 03:00:00||AKTİFBANK|10.40.24.152|||110000438458|80
28.10.2018 03:00:00||AKTİFBANK|10.40.24.152|||110000438458|90
28.10.2018 03:00:00||AKTİFBANK|10.40.24.152|||110000438458|30
28.10.2018 03:00:00||AKTİFBANK|10.40.24.152|||110000438458|70
28.10.2018 03:00:00||AKTİFBANK|10.40.24.152|||110000438458|30
28.10.2018 03:00:00||BARİKAT İNTERNET GÜVENLİĞİ|10.40.25.201|||110000479736|110
28.10.2018 03:00:00||BARİKAT İNTERNET GÜVENLİĞİ|10.40.25.201|||110000479736|100
28.10.2018 03:00:00||BARİKAT İNTERNET GÜVENLİĞİ|10.40.24.201|||110000479736|140
28.10.2018 03:00:00||BARİKAT İNTERNET GÜVENLİĞİ|10.40.24.201|||110000479736|100
28.10.2018 03:00:00||BOYNER|10.40.27.94|||101367941673|210
28.10.2018 03:00:00||BOYNER|10.40.27.94|||101367941673|90
28.10.2018 03:00:00||BOYNER|10.40.27.94|||101367941673|90
28.10.2018 03:00:00||BOYNER|10.40.27.94|||101367941673|100
28.10.2018 03:00:00||BOYNER|10.40.26.94|||101367941673|90
28.10.2018 03:00:00||BOYNER|10.40.26.94|||101367941673|80
28.10.2018 03:00:00||BOYNER|10.40.26.94|||101367941673|80
28.10.2018 03:00:00||BOYNER|10.40.27.95|||101367941673|130
28.10.2018 03:00:00||BOYNER|10.40.27.95|||101367941673|130
28.10.2018 03:00:00||BOYNER|10.40.27.95|||101367941673|230
28.10.2018 03:00:00||BOYNER|10.40.26.95|||101367941673|130
28.10.2018 03:00:00||BOYNER|10.40.26.95|||101367941673|190
28.10.2018 03:00:00||BOYNER|10.40.26.95|||101367941673|140
28.10.2018 03:00:00||BOYNER|10.40.27.96|||101367941673|60
28.10.2018 03:00:00||BOYNER|10.40.27.96|||101367941673|50
28.10.2018 03:00:00||BOYNER|10.40.27.96|||101367941673|50
28.10.2018 03:00:00||BOYNER|10.40.27.96|||101367941673|40
28.10.2018 03:00:00||BOYNER|10.40.27.96|||101367941673|30
28.10.2018 03:00:00||BOYNER|10.40.27.96|||101367941673|170
28.10.2018 03:00:00||BOYNER|10.40.27.96|||101367941673|150
28.10.2018 03:00:00||BOYNER|10.40.27.96|||101367941673|170
28.10.2018 03:00:00||BOYNER|10.40.27.96|||101367941673|170
28.10.2018 03:00:00||BOYNER|10.40.26.96|||101367941673|30
28.10.2018 03:00:00||BOYNER|10.40.26.96|||101367941673|40
28.10.2018 03:00:00||BOYNER|10.40.26.96|||101367941673|30
28.10.2018 03:00:00||BOYNER|10.40.26.96|||101367941673|40
28.10.2018 03:00:00||BOYNER|10.40.26.96|||101367941673|40
28.10.2018 03:00:00||BOYNER|10.40.26.96|||101367941673|50
28.10.2018 03:00:00||BOYNER|10.40.26.96|||101367941673|190
28.10.2018 03:00:00||BOYNER|10.40.26.96|||101367941673|220
28.10.2018 03:00:00||BOYNER|10.40.26.96|||101367941673|160
28.10.2018 03:00:00||BOYNER|10.40.26.96|||101367941673|190
28.10.2018 03:00:00||BOYNER|10.40.27.97|||101367941673|60
28.10.2018 03:00:00||BOYNER|10.40.27.97|||101367941673|650
28.10.2018 03:00:00||BOYNER|10.40.27.97|||101367941673|650
28.10.2018 03:00:00||BOYNER|10.40.27.97|||101367941673|690
28.10.2018 03:00:00||BOYNER|10.40.27.97|||101367941673|40
28.10.2018 03:00:00||BOYNER|10.40.27.97|||101367941673|30
28.10.2018 03:00:00||BOYNER|10.40.27.97|||101367941673|50
28.10.2018 03:00:00||BOYNER|10.40.27.97|||101367941673|30
28.10.2018 03:00:00||BOYNER|10.40.27.97|||101367941673|170
28.10.2018 03:00:00||BOYNER|10.40.27.97|||101367941673|180
28.10.2018 03:00:00||BOYNER|10.40.27.97|||101367941673|180
28.10.2018 03:00:00||BOYNER|10.40.27.97|||101367941673|200
28.10.2018 03:00:00||BOYNER|10.40.26.97|||101367941673|30
28.10.2018 03:00:00||BOYNER|10.40.26.97|||101367941673|640
28.10.2018 03:00:00||BOYNER|10.40.26.97|||101367941673|640
28.10.2018 03:00:00||BOYNER|10.40.26.97|||101367941673|650
28.10.2018 03:00:00||BOYNER|10.40.26.97|||101367941673|30
28.10.2018 03:00:00||BOYNER|10.40.26.97|||101367941673|40
28.10.2018 03:00:00||BOYNER|10.40.26.97|||101367941673|50
28.10.2018 03:00:00||BOYNER|10.40.26.97|||101367941673|60
28.10.2018 03:00:00||BOYNER|10.40.26.97|||101367941673|30
28.10.2018 03:00:00||BOYNER|10.40.26.97|||101367941673|160
28.10.2018 03:00:00||BOYNER|10.40.26.97|||101367941673|170
28.10.2018 03:00:00||BOYNER|10.40.26.97|||101367941673|190
28.10.2018 03:00:00||BOYNER|10.40.26.97|||101367941673|160
28.10.2018 03:00:00||BOYNER|10.40.27.99|||101367941673|120
28.10.2018 03:00:00||BOYNER|10.40.27.99|||101367941673|90
28.10.2018 03:00:00||BOYNER|10.40.27.99|||101367941673|70
28.10.2018 03:00:00||BOYNER|10.40.26.99|||101367941673|10
28.10.2018 03:00:00||BOYNER|10.40.26.99|||101367941673|110
28.10.2018 03:00:00||BOYNER|10.40.26.99|||101367941673|110
28.10.2018 03:00:00||BOYNER|10.40.26.99|||101367941673|70
28.10.2018 03:00:00||ÇALIK HOLDİNG|10.40.25.120|||110000438407|90
28.10.2018 03:00:00||ÇALIK HOLDİNG|10.40.24.95|||110000438407|50
28.10.2018 03:00:00||ÇALIK HOLDİNG|10.40.25.97|||110000438407|80
28.10.2018 03:00:00||ÇALIK HOLDİNG|10.40.25.103|||110000438407|90
28.10.2018 03:00:00||ÇALIK HOLDİNG|10.40.25.120|||110000438407|40
28.10.2018 03:00:00||ÇALIK HOLDİNG|10.40.25.96|||110000438407|70
28.10.2018 03:00:00||ÇALIK HOLDİNG|10.40.25.96|||110000438407|90
28.10.2018 03:00:00||ÇALIK HOLDİNG|10.40.25.96|||110000438407|120
28.10.2018 03:00:00||ÇALIK HOLDİNG|10.40.25.96|||110000438407|90
28.10.2018 03:00:00||ÇALIK HOLDİNG|10.40.25.115|||110000438407|170
28.10.2018 03:00:00||ÇALIK HOLDİNG|10.40.25.115|||110000438407|70
28.10.2018 03:00:00||ÇALIK HOLDİNG|10.40.25.95|||110000438407|90
28.10.2018 03:00:00||ÇALIK HOLDİNG|10.40.25.96|||110000438407|90
28.10.2018 03:00:00||ÇALIK HOLDİNG|10.40.25.96|||110000438407|100
28.10.2018 03:00:00||ÇALIK HOLDİNG|10.40.25.120|||110000438407|20
28.10.2018 03:00:00||ÇALIK HOLDİNG|10.40.25.95|||110000438407|50
28.10.2018 03:00:00||ÇALIK HOLDİNG|10.40.24.94|||110000438407|210
28.10.2018 03:00:00||ÇALIK HOLDİNG|10.40.25.97|||110000438407|100
28.10.2018 03:00:00||ÇALIK HOLDİNG|10.40.25.120|||110000438407|60
28.10.2018 03:00:00||ÇALIK HOLDİNG|10.40.25.115|||110000438407|80
28.10.2018 03:00:00||ÇALIK HOLDİNG|10.40.25.115|||110000438407|60
28.10.2018 03:00:00||ÇALIK HOLDİNG|10.40.25.115|||110000438407|60
28.10.2018 03:00:00||ÇALIK HOLDİNG|10.40.25.101|||110000438407|50
28.10.2018 03:00:00||ÇALIK HOLDİNG|10.40.25.101|||110000438407|110
28.10.2018 03:00:00||ÇALIK HOLDİNG|10.40.25.101|||110000438407|30
28.10.2018 03:00:00||ÇALIK HOLDİNG|10.40.25.101|||110000438407|10
28.10.2018 03:00:00||ÇALIK HOLDİNG|10.40.25.101|||110000438407|90
28.10.2018 03:00:00||ÇALIK HOLDİNG|10.40.25.101|||110000438407|30
28.10.2018 03:00:00||ÇALIK HOLDİNG|10.40.25.101|||110000438407|40
28.10.2018 03:00:00||ÇALIK HOLDİNG|10.40.25.101|||110000438407|40
28.10.2018 03:00:00||ÇALIK HOLDİNG|10.40.25.101|||110000438407|90
28.10.2018 03:00:00||ÇALIK HOLDİNG|10.40.25.101|||110000438407|90
28.10.2018 03:00:00||ÇALIK HOLDİNG|10.40.25.101|||110000438407|90
28.10.2018 03:00:00||ÇALIK HOLDİNG|10.40.25.94|||110000438407|180
28.10.2018 03:00:00||ÇALIK HOLDİNG|10.40.25.94|||110000438407|180
28.10.2018 03:00:00||ÇALIK HOLDİNG|10.40.25.94|||110000438407|170
28.10.2018 03:00:00||ÇALIK HOLDİNG|10.40.25.94|||110000438407|180
28.10.2018 03:00:00||ÇALIK HOLDİNG|10.40.24.94|||110000438407|210
28.10.2018 03:00:00||ÇALIK HOLDİNG|10.40.24.94|||110000438407|190
28.10.2018 03:00:00||ÇALIK HOLDİNG|10.40.24.94|||110000438407|180
28.10.2018 03:00:00||ÇALIK HOLDİNG|10.40.25.95|||110000438407|20
28.10.2018 03:00:00||ÇALIK HOLDİNG|10.40.25.95|||110000438407|340
28.10.2018 03:00:00||ÇALIK HOLDİNG|10.40.25.95|||110000438407|350
28.10.2018 03:00:00||ÇALIK HOLDİNG|10.40.25.95|||110000438407|40
28.10.2018 03:00:00||ÇALIK HOLDİNG|10.40.24.95|||110000438407|90
28.10.2018 03:00:00||ÇALIK HOLDİNG|10.40.24.95|||110000438407|80
28.10.2018 03:00:00||ÇALIK HOLDİNG|10.40.24.95|||110000438407|370
28.10.2018 03:00:00||ÇALIK HOLDİNG|10.40.24.95|||110000438407|380
28.10.2018 03:00:00||ÇALIK HOLDİNG|10.40.25.96|||110000438407|90
28.10.2018 03:00:00||ÇALIK HOLDİNG|10.40.25.96|||110000438407|100
28.10.2018 03:00:00||ÇALIK HOLDİNG|10.40.25.96|||110000438407|110
28.10.2018 03:00:00||ÇALIK HOLDİNG|10.40.25.96|||110000438407|280
28.10.2018 03:00:00||ÇALIK HOLDİNG|10.40.25.96|||110000438407|260
28.10.2018 03:00:00||ÇALIK HOLDİNG|10.40.25.96|||110000438407|100
28.10.2018 03:00:00||ÇALIK HOLDİNG|10.40.25.96|||110000438407|90
28.10.2018 03:00:00||ÇALIK HOLDİNG|10.40.25.96|||110000438407|100
28.10.2018 03:00:00||ÇALIK HOLDİNG|10.40.25.97|||110000438407|90
28.10.2018 03:00:00||ÇALIK HOLDİNG|10.40.25.97|||110000438407|80
28.10.2018 03:00:00||ÇALIK HOLDİNG|10.40.25.97|||110000438407|310
28.10.2018 03:00:00||ÇALIK HOLDİNG|10.40.25.98|||110000438407|50
28.10.2018 03:00:00||ÇALIK HOLDİNG|10.40.25.98|||110000438407|160
28.10.2018 03:00:00||ÇALIK HOLDİNG|10.40.25.98|||110000438407|160
28.10.2018 03:00:00||ÇALIK HOLDİNG|10.40.25.98|||110000438407|170
28.10.2018 03:00:00||ÇALIK HOLDİNG|10.40.25.98|||110000438407|170
28.10.2018 03:00:00||ÇALIK HOLDİNG|10.40.25.98|||110000438407|60
28.10.2018 03:00:00||ÇALIK HOLDİNG|10.40.25.98|||110000438407|210
28.10.2018 03:00:00||ÇALIK HOLDİNG|10.40.25.98|||110000438407|180
28.10.2018 03:00:00||ÇALIK HOLDİNG|10.40.25.98|||110000438407|170
28.10.2018 03:00:00||ÇALIK HOLDİNG|10.40.25.98|||110000438407|210
28.10.2018 03:00:00||ÇALIK HOLDİNG|10.40.25.98|||110000438407|70
28.10.2018 03:00:00||ÇALIK HOLDİNG|10.40.25.98|||110000438407|330
28.10.2018 03:00:00||ÇALIK HOLDİNG|10.40.24.98|||110000438407|90
28.10.2018 03:00:00||ÇALIK HOLDİNG|10.40.24.98|||110000438407|150
28.10.2018 03:00:00||ÇALIK HOLDİNG|10.40.24.98|||110000438407|200
28.10.2018 03:00:00||ÇALIK HOLDİNG|10.40.24.98|||110000438407|200
28.10.2018 03:00:00||ÇALIK HOLDİNG|10.40.24.98|||110000438407|160
28.10.2018 03:00:00||ÇALIK HOLDİNG|10.40.24.98|||110000438407|30
28.10.2018 03:00:00||ÇALIK HOLDİNG|10.40.24.98|||110000438407|160
28.10.2018 03:00:00||ÇALIK HOLDİNG|10.40.24.98|||110000438407|180
28.10.2018 03:00:00||ÇALIK HOLDİNG|10.40.24.98|||110000438407|170
28.10.2018 03:00:00||ÇALIK HOLDİNG|10.40.24.98|||110000438407|170
28.10.2018 03:00:00||ÇALIK HOLDİNG|10.40.24.98|||110000438407|20
28.10.2018 03:00:00||ÇALIK HOLDİNG|10.40.24.98|||110000438407|300
28.10.2018 03:00:00||ÇALIK HOLDİNG|10.40.25.100|||110000438407|30
28.10.2018 03:00:00||ÇALIK HOLDİNG|10.40.25.100|||110000438407|40
28.10.2018 03:00:00||ÇALIK HOLDİNG|10.40.24.101|||110000438407|60
28.10.2018 03:00:00||ÇALIK HOLDİNG|10.40.24.101|||110000438407|110
28.10.2018 03:00:00||ÇALIK HOLDİNG|10.40.24.101|||110000438407|20
28.10.2018 03:00:00||ÇALIK HOLDİNG|10.40.24.101|||110000438407|20
28.10.2018 03:00:00||ÇALIK HOLDİNG|10.40.24.101|||110000438407|40
28.10.2018 03:00:00||ÇALIK HOLDİNG|10.40.24.101|||110000438407|110
28.10.2018 03:00:00||ÇALIK HOLDİNG|10.40.24.101|||110000438407|30
28.10.2018 03:00:00||ÇALIK HOLDİNG|10.40.24.101|||110000438407|10
28.10.2018 03:00:00||ÇALIK HOLDİNG|10.40.24.101|||110000438407|20
28.10.2018 03:00:00||ÇALIK HOLDİNG|10.40.24.101|||110000438407|50
28.10.2018 03:00:00||ÇALIK HOLDİNG|10.40.24.101|||110000438407|30
28.10.2018 03:00:00||ÇALIK HOLDİNG|10.40.24.101|||110000438407|80
28.10.2018 03:00:00||ÇALIK HOLDİNG|10.40.24.101|||110000438407|80
28.10.2018 03:00:00||ÇALIK HOLDİNG|10.40.24.101|||110000438407|90
28.10.2018 03:00:00||ÇALIK HOLDİNG|10.40.25.102|||110000438407|100
28.10.2018 03:00:00||ÇALIK HOLDİNG|10.40.25.102|||110000438407|90
28.10.2018 03:00:00||ÇALIK HOLDİNG|10.40.25.102|||110000438407|150
28.10.2018 03:00:00||ÇALIK HOLDİNG|10.40.24.102|||110000438407|100
28.10.2018 03:00:00||ÇALIK HOLDİNG|10.40.24.102|||110000438407|90
28.10.2018 03:00:00||ÇALIK HOLDİNG|10.40.24.102|||110000438407|140
28.10.2018 03:00:00||ÇALIK HOLDİNG|10.40.25.103|||110000438407|90
28.10.2018 03:00:00||ÇALIK HOLDİNG|10.40.25.103|||110000438407|80
28.10.2018 03:00:00||ÇALIK HOLDİNG|10.40.25.103|||110000438407|10
28.10.2018 03:00:00||ÇALIK HOLDİNG|10.40.25.115|||110000438407|80
28.10.2018 03:00:00||ÇALIK HOLDİNG|10.40.24.103|||110000438407|100
28.10.2018 03:00:00||ÇALIK HOLDİNG|10.40.24.103|||110000438407|80
28.10.2018 03:00:00||ÇALIK HOLDİNG|10.40.24.103|||110000438407|80
28.10.2018 03:00:00||ÇALIK HOLDİNG|10.40.24.103|||110000438407|20
28.10.2018 03:00:00||ÇALIK HOLDİNG|10.40.24.103|||110000438407|10
28.10.2018 03:00:00||ÇALIK HOLDİNG|10.40.25.113|||110000438407|230
28.10.2018 03:00:00||ÇALIK HOLDİNG|10.40.25.113|||110000438407|250
28.10.2018 03:00:00||ÇALIK HOLDİNG|10.40.25.113|||110000438407|190
28.10.2018 03:00:00||ÇALIK HOLDİNG|10.40.25.113|||110000438407|210
28.10.2018 03:00:00||ÇALIK HOLDİNG|10.40.24.113|||110000438407|240
28.10.2018 03:00:00||ÇALIK HOLDİNG|10.40.24.113|||110000438407|220
28.10.2018 03:00:00||ÇALIK HOLDİNG|10.40.24.113|||110000438407|210
28.10.2018 03:00:00||ÇALIK HOLDİNG|10.40.24.113|||110000438407|160
28.10.2018 03:00:00||ÇALIK HOLDİNG|10.40.25.114|||110000438407|170
28.10.2018 03:00:00||ÇALIK HOLDİNG|10.40.25.114|||110000438407|420
28.10.2018 03:00:00||ÇALIK HOLDİNG|10.40.25.114|||110000438407|40
28.10.2018 03:00:00||ÇALIK HOLDİNG|10.40.24.114|||110000438407|20
28.10.2018 03:00:00||ÇALIK HOLDİNG|10.40.24.114|||110000438407|40
28.10.2018 03:00:00||ÇALIK HOLDİNG|10.40.24.114|||110000438407|160
28.10.2018 03:00:00||ÇALIK HOLDİNG|10.40.24.114|||110000438407|390
28.10.2018 03:00:00||ÇALIK HOLDİNG|10.40.24.115|||110000438407|170
28.10.2018 03:00:00||ÇALIK HOLDİNG|10.40.24.115|||110000438407|80
28.10.2018 03:00:00||ÇALIK HOLDİNG|10.40.24.115|||110000438407|90
28.10.2018 03:00:00||ÇALIK HOLDİNG|10.40.24.115|||110000438407|80
28.10.2018 03:00:00||ÇALIK HOLDİNG|10.40.24.115|||110000438407|90
28.10.2018 03:00:00||ÇALIK HOLDİNG|10.40.24.115|||110000438407|70
28.10.2018 03:00:00||ÇALIK HOLDİNG|10.40.25.116|||110000438407|110
28.10.2018 03:00:00||ÇALIK HOLDİNG|10.40.25.116|||110000438407|100
28.10.2018 03:00:00||ÇALIK HOLDİNG|10.40.25.116|||110000438407|290
28.10.2018 03:00:00||ÇALIK HOLDİNG|10.40.24.116|||110000438407|280
28.10.2018 03:00:00||ÇALIK HOLDİNG|10.40.24.116|||110000438407|100
28.10.2018 03:00:00||ÇALIK HOLDİNG|10.40.24.116|||110000438407|100
28.10.2018 03:00:00||ÇALIK HOLDİNG|10.40.25.117|||110000438407|250
28.10.2018 03:00:00||ÇALIK HOLDİNG|10.40.25.117|||110000438407|30
28.10.2018 03:00:00||ÇALIK HOLDİNG|10.40.25.117|||110000438407|30
28.10.2018 03:00:00||ÇALIK HOLDİNG|10.40.25.119|||110000438407|30
28.10.2018 03:00:00||ÇALIK HOLDİNG|10.40.25.119|||110000438407|30
28.10.2018 03:00:00||ÇALIK HOLDİNG|10.40.24.119|||110000438407|150
28.10.2018 03:00:00||ÇALIK HOLDİNG|10.40.24.119|||110000438407|30
28.10.2018 03:00:00||ÇALIK HOLDİNG|10.40.24.119|||110000438407|50
28.10.2018 03:00:00||ÇALIK HOLDİNG|10.40.25.120|||110000438407|110
28.10.2018 03:00:00||ÇALIK HOLDİNG|10.40.25.120|||110000438407|50
28.10.2018 03:00:00||ÇALIK HOLDİNG|10.40.25.120|||110000438407|20
28.10.2018 03:00:00||ÇALIK HOLDİNG|10.40.25.120|||110000438407|20
28.10.2018 03:00:00||ÇALIK HOLDİNG|10.40.25.120|||110000438407|30
28.10.2018 03:00:00||ÇALIK HOLDİNG|10.40.25.120|||110000438407|90
28.10.2018 03:00:00||ÇALIK HOLDİNG|10.40.25.120|||110000438407|90
28.10.2018 03:00:00||ÇALIK HOLDİNG|10.40.24.120|||110000438407|20
28.10.2018 03:00:00||ÇALIK HOLDİNG|10.40.24.120|||110000438407|30
28.10.2018 03:00:00||ÇALIK HOLDİNG|10.40.24.120|||110000438407|110
28.10.2018 03:00:00||ÇALIK HOLDİNG|10.40.24.120|||110000438407|100
28.10.2018 03:00:00||ÇALIK HOLDİNG|10.40.24.120|||110000438407|40
28.10.2018 03:00:00||ÇALIK HOLDİNG|10.40.24.120|||110000438407|80
28.10.2018 03:00:00||ÇALIK HOLDİNG|10.40.24.120|||110000438407|80
28.10.2018 03:00:00||ÇALIK HOLDİNG|10.40.24.120|||110000438407|70
28.10.2018 03:00:00||ÇALIK HOLDİNG|10.40.25.121|||110000438407|90
28.10.2018 03:00:00||ÇALIK HOLDİNG|10.40.25.121|||110000438407|100
28.10.2018 03:00:00||ÇALIK HOLDİNG|10.40.25.121|||110000438407|150
28.10.2018 03:00:00||ÇALIK HOLDİNG|10.40.24.121|||110000438407|100
28.10.2018 03:00:00||ÇALIK HOLDİNG|10.40.24.121|||110000438407|100
28.10.2018 03:00:00||ÇALIK HOLDİNG|10.40.24.121|||110000438407|140
28.10.2018 03:00:00||ÇALIK HOLDİNG|10.40.25.122|||110000438407|90
28.10.2018 03:00:00||ÇALIK HOLDİNG|10.40.25.122|||110000438407|80
28.10.2018 03:00:00||ÇALIK HOLDİNG|10.40.25.122|||110000438407|80
28.10.2018 03:00:00||ÇALIK HOLDİNG|10.40.25.122|||110000438407|30
28.10.2018 03:00:00||ÇALIK HOLDİNG|10.40.25.122|||110000438407|10
28.10.2018 03:00:00||ÇALIK HOLDİNG|10.40.24.122|||110000438407|90
28.10.2018 03:00:00||ÇALIK HOLDİNG|10.40.24.122|||110000438407|80
28.10.2018 03:00:00||ÇALIK HOLDİNG|10.40.24.122|||110000438407|80
28.10.2018 03:00:00||ÇALIK HOLDİNG|10.40.24.117|||110000438407|200
28.10.2018 03:00:00||ÇALIK HOLDİNG|10.40.24.117|||110000438407|30
28.10.2018 03:00:00||ÇALIK HOLDİNG|10.40.24.117|||110000438407|30
28.10.2018 03:00:00||ÇALIK HOLDİNG|10.40.24.97|||110000438407|100
28.10.2018 03:00:00||ÇALIK HOLDİNG|10.40.24.97|||110000438407|90
28.10.2018 03:00:00||ÇALIK HOLDİNG|10.40.24.97|||110000438407|80
28.10.2018 03:00:00||ÇALIK HOLDİNG|10.40.24.97|||110000438407|90
28.10.2018 03:00:00||ÇALIK HOLDİNG|10.40.24.97|||110000438407|320
28.10.2018 03:00:00||ÇALIK HOLDİNG|10.40.24.100|||110000438407|30
28.10.2018 03:00:00||ÇALIK HOLDİNG|10.40.24.100|||110000438407|40
28.10.2018 03:00:00||FIBABANKA|10.40.26.53|||101571767266|40
28.10.2018 03:00:00||FIBABANKA|10.40.26.53|||101571767266|160
28.10.2018 03:00:00||FIBABANKA|10.40.25.57|||101571767266|90
28.10.2018 03:00:00||FIBABANKA|10.40.27.60|||101571767266|50
28.10.2018 03:00:00||FIBABANKA|10.40.25.76|||101571767266|10
28.10.2018 03:00:00||FIBABANKA|10.40.27.53|||101571767266|160
28.10.2018 03:00:00||FIBABANKA|10.40.27.53|||101571767266|160
28.10.2018 03:00:00||FIBABANKA|10.40.26.53|||101571767266|150
28.10.2018 03:00:00||FIBABANKA|10.40.27.57|||101571767266|80
28.10.2018 03:00:00||FIBABANKA|10.40.27.57|||101571767266|80
28.10.2018 03:00:00||FIBABANKA|10.40.27.57|||101571767266|80
28.10.2018 03:00:00||FIBABANKA|10.40.26.60|||101571767266|10
28.10.2018 03:00:00||FIBABANKA|10.40.25.57|||101571767266|90
28.10.2018 03:00:00||FIBABANKA|10.40.25.57|||101571767266|90
28.10.2018 03:00:00||FIBABANKA|10.40.25.57|||101571767266|90
28.10.2018 03:00:00||FIBABANKA|10.40.25.57|||101571767266|90
28.10.2018 03:00:00||FIBABANKA|10.40.25.57|||101571767266|110
28.10.2018 03:00:00||FIBABANKA|10.40.25.57|||101571767266|100
28.10.2018 03:00:00||FIBABANKA|10.40.25.57|||101571767266|80
28.10.2018 03:00:00||FIBABANKA|10.40.24.57|||101571767266|100
28.10.2018 03:00:00||FIBABANKA|10.40.24.57|||101571767266|70
28.10.2018 03:00:00||FIBABANKA|10.40.24.57|||101571767266|80
28.10.2018 03:00:00||FIBABANKA|10.40.26.51|||101571767266|20
28.10.2018 03:00:00||FIBABANKA|10.40.27.52|||101571767266|50
28.10.2018 03:00:00||FIBABANKA|10.40.27.52|||101571767266|60
28.10.2018 03:00:00||FIBABANKA|10.40.27.52|||101571767266|70
28.10.2018 03:00:00||FIBABANKA|10.40.27.73|||101571767266|10
28.10.2018 03:00:00||FIBABANKA|10.40.27.74|||101571767266|160
28.10.2018 03:00:00||FIBABANKA|10.40.27.60|||101571767266|90
28.10.2018 03:00:00||FIBABANKA|10.40.26.60|||101571767266|110
28.10.2018 03:00:00||FIBABANKA|10.40.26.60|||101571767266|140
28.10.2018 03:00:00||FIBABANKA|10.40.26.60|||101571767266|30
28.10.2018 03:00:00||FIBABANKA|10.40.25.53|||101571767266|30
28.10.2018 03:00:00||FIBABANKA|10.40.25.53|||101571767266|50
28.10.2018 03:00:00||FIBABANKA|10.40.27.60|||101571767266|50
28.10.2018 03:00:00||FIBABANKA|10.40.27.60|||101571767266|210
28.10.2018 03:00:00||FIBABANKA|10.40.27.60|||101571767266|230
28.10.2018 03:00:00||FIBABANKA|10.40.27.60|||101571767266|40
28.10.2018 03:00:00||FIBABANKA|10.40.27.60|||101571767266|160
28.10.2018 03:00:00||FIBABANKA|10.40.27.60|||101571767266|10
28.10.2018 03:00:00||FIBABANKA|10.40.27.53|||101571767266|60
28.10.2018 03:00:00||FIBABANKA|10.40.26.53|||101571767266|70
28.10.2018 03:00:00||FIBABANKA|10.40.26.53|||101571767266|60
28.10.2018 03:00:00||FIBABANKA|10.40.27.57|||101571767266|80
28.10.2018 03:00:00||FIBABANKA|10.40.25.51|||101571767266|20
28.10.2018 03:00:00||FIBABANKA|10.40.25.51|||101571767266|110
28.10.2018 03:00:00||FIBABANKA|10.40.24.51|||101571767266|20
28.10.2018 03:00:00||FIBABANKA|10.40.24.51|||101571767266|70
28.10.2018 03:00:00||FIBABANKA|10.40.24.51|||101571767266|100
28.10.2018 03:00:00||FIBABANKA|10.40.24.51|||101571767266|140
28.10.2018 03:00:00||FIBABANKA|10.40.24.51|||101571767266|30
28.10.2018 03:00:00||FIBABANKA|10.40.24.57|||101571767266|70
28.10.2018 03:00:00||FIBABANKA|10.40.24.57|||101571767266|90
28.10.2018 03:00:00||FIBABANKA|10.40.24.57|||101571767266|80
28.10.2018 03:00:00||FIBABANKA|10.40.24.57|||101571767266|80
28.10.2018 03:00:00||FIBABANKA|10.40.24.57|||101571767266|70
28.10.2018 03:00:00||FIBABANKA|10.40.24.52|||101571767266|30
28.10.2018 03:00:00||FIBABANKA|10.40.24.52|||101571767266|40
28.10.2018 03:00:00||FIBABANKA|10.40.24.52|||101571767266|10
28.10.2018 03:00:00||FIBABANKA|10.40.26.73|||101571767266|40
28.10.2018 03:00:00||FIBABANKA|10.40.27.53|||101571767266|70
28.10.2018 03:00:00||FIBABANKA|10.40.26.51|||101571767266|70
28.10.2018 03:00:00||FIBABANKA|10.40.26.52|||101571767266|30
28.10.2018 03:00:00||FIBABANKA|10.40.26.52|||101571767266|90
28.10.2018 03:00:00||FIBABANKA|10.40.26.52|||101571767266|30
28.10.2018 03:00:00||FIBABANKA|10.40.26.60|||101571767266|10
28.10.2018 03:00:00||FIBABANKA|10.40.26.60|||101571767266|10
28.10.2018 03:00:00||FIBABANKA|10.40.26.60|||101571767266|10
28.10.2018 03:00:00||FIBABANKA|10.40.26.60|||101571767266|230
28.10.2018 03:00:00||FIBABANKA|10.40.25.51|||101571767266|140
28.10.2018 03:00:00||FIBABANKA|10.40.25.51|||101571767266|40
28.10.2018 03:00:00||FIBABANKA|10.40.25.51|||101571767266|40
28.10.2018 03:00:00||FIBABANKA|10.40.25.51|||101571767266|80
28.10.2018 03:00:00||FIBABANKA|10.40.24.51|||101571767266|30
28.10.2018 03:00:00||FIBABANKA|10.40.25.59|||101571767266|70
28.10.2018 03:00:00||FIBABANKA|10.40.25.59|||101571767266|90
28.10.2018 03:00:00||FIBABANKA|10.40.25.59|||101571767266|90
28.10.2018 03:00:00||FIBABANKA|10.40.25.59|||101571767266|40
28.10.2018 03:00:00||FIBABANKA|10.40.25.59|||101571767266|120
28.10.2018 03:00:00||FIBABANKA|10.40.25.59|||101571767266|60
28.10.2018 03:00:00||FIBABANKA|10.40.25.59|||101571767266|50
28.10.2018 03:00:00||FIBABANKA|10.40.25.59|||101571767266|140
28.10.2018 03:00:00||FIBABANKA|10.40.25.59|||101571767266|50
28.10.2018 03:00:00||FIBABANKA|10.40.24.59|||101571767266|70
28.10.2018 03:00:00||FIBABANKA|10.40.24.59|||101571767266|130
28.10.2018 03:00:00||FIBABANKA|10.40.24.59|||101571767266|80
28.10.2018 03:00:00||FIBABANKA|10.40.24.59|||101571767266|50
28.10.2018 03:00:00||FIBABANKA|10.40.24.59|||101571767266|140
28.10.2018 03:00:00||FIBABANKA|10.40.24.59|||101571767266|70
28.10.2018 03:00:00||FIBABANKA|10.40.24.59|||101571767266|60
28.10.2018 03:00:00||FIBABANKA|10.40.24.59|||101571767266|140
28.10.2018 03:00:00||FIBABANKA|10.40.24.59|||101571767266|60
28.10.2018 03:00:00||FIBABANKA|10.40.25.60|||101571767266|110
28.10.2018 03:00:00||FIBABANKA|10.40.25.60|||101571767266|30
28.10.2018 03:00:00||FIBABANKA|10.40.25.60|||101571767266|110
28.10.2018 03:00:00||FIBABANKA|10.40.25.60|||101571767266|40
28.10.2018 03:00:00||FIBABANKA|10.40.24.60|||101571767266|110
28.10.2018 03:00:00||FIBABANKA|10.40.24.60|||101571767266|60
28.10.2018 03:00:00||FIBABANKA|10.40.24.60|||101571767266|40
28.10.2018 03:00:00||FIBABANKA|10.40.24.60|||101571767266|100
28.10.2018 03:00:00||FIBABANKA|10.40.24.60|||101571767266|50
28.10.2018 03:00:00||FIBABANKA|10.40.25.72|||101571767266|70
28.10.2018 03:00:00||FIBABANKA|10.40.25.72|||101571767266|40
28.10.2018 03:00:00||FIBABANKA|10.40.25.72|||101571767266|30
28.10.2018 03:00:00||FIBABANKA|10.40.24.72|||101571767266|140
28.10.2018 03:00:00||FIBABANKA|10.40.24.72|||101571767266|70
28.10.2018 03:00:00||FIBABANKA|10.40.24.72|||101571767266|30
28.10.2018 03:00:00||FIBABANKA|10.40.24.72|||101571767266|40
28.10.2018 03:00:00||FIBABANKA|10.40.25.74|||101571767266|30
28.10.2018 03:00:00||FIBABANKA|10.40.25.75|||101571767266|40
28.10.2018 03:00:00||FIBABANKA|10.40.25.75|||101571767266|80
28.10.2018 03:00:00||FIBABANKA|10.40.25.75|||101571767266|140
28.10.2018 03:00:00||FIBABANKA|10.40.25.75|||101571767266|170
28.10.2018 03:00:00||FIBABANKA|10.40.25.75|||101571767266|180
28.10.2018 03:00:00||FIBABANKA|10.40.25.75|||101571767266|200
28.10.2018 03:00:00||FIBABANKA|10.40.24.75|||101571767266|50
28.10.2018 03:00:00||FIBABANKA|10.40.24.75|||101571767266|20
28.10.2018 03:00:00||FIBABANKA|10.40.24.75|||101571767266|110
28.10.2018 03:00:00||FIBABANKA|10.40.24.75|||101571767266|160
28.10.2018 03:00:00||FIBABANKA|10.40.24.75|||101571767266|140
28.10.2018 03:00:00||FIBABANKA|10.40.24.76|||101571767266|50
28.10.2018 03:00:00||FIBABANKA|10.40.24.76|||101571767266|70
28.10.2018 03:00:00||FIBABANKA|10.40.24.76|||101571767266|20
28.10.2018 03:00:00||FIBABANKA|10.40.24.76|||101571767266|40
28.10.2018 03:00:00||FIBABANKA|10.40.24.76|||101571767266|10
28.10.2018 03:00:00||FIBABANKA|10.40.25.77|||101571767266|50
28.10.2018 03:00:00||FIBABANKA|10.40.25.77|||101571767266|40
28.10.2018 03:00:00||FIBABANKA|10.40.24.77|||101571767266|40
28.10.2018 03:00:00||FIBABANKA|10.40.24.77|||101571767266|40
28.10.2018 03:00:00||FIBABANKA|10.40.24.53|||101571767266|30
28.10.2018 03:00:00||FIBABANKA|10.40.24.53|||101571767266|60
28.10.2018 03:00:00||FIBABANKA|10.40.26.57|||101571767266|90
28.10.2018 03:00:00||FIBABANKA|10.40.26.57|||101571767266|80
28.10.2018 03:00:00||FIBABANKA|10.40.26.57|||101571767266|80
28.10.2018 03:00:00||FIBABANKA|10.40.26.57|||101571767266|70
28.10.2018 03:00:00||FIBABANKA|10.40.26.57|||101571767266|60
28.10.2018 03:00:00||FIBABANKA|10.40.27.72|||101571767266|40
28.10.2018 03:00:00||FIBABANKA|10.40.27.72|||101571767266|50
28.10.2018 03:00:00||FIBABANKA|10.40.27.72|||101571767266|40
28.10.2018 03:00:00||FIBABANKA|10.40.27.72|||101571767266|140
28.10.2018 03:00:00||FIBABANKA|10.40.27.72|||101571767266|60
28.10.2018 03:00:00||FIBABANKA|10.40.26.72|||101571767266|30
28.10.2018 03:00:00||FIBABANKA|10.40.26.72|||101571767266|140
28.10.2018 03:00:00||FIBABANKA|10.40.26.72|||101571767266|70
28.10.2018 03:00:00||FIBABANKA|10.40.26.72|||101571767266|30
28.10.2018 03:00:00||FIBABANKA|10.40.27.73|||101571767266|30
28.10.2018 03:00:00||FIBABANKA|10.40.27.73|||101571767266|100
28.10.2018 03:00:00||FIBABANKA|10.40.27.73|||101571767266|40
28.10.2018 03:00:00||FIBABANKA|10.40.27.73|||101571767266|40
28.10.2018 03:00:00||FIBABANKA|10.40.27.73|||101571767266|360
28.10.2018 03:00:00||FIBABANKA|10.40.26.73|||101571767266|40
28.10.2018 03:00:00||FIBABANKA|10.40.26.73|||101571767266|70
28.10.2018 03:00:00||FIBABANKA|10.40.26.73|||101571767266|30
28.10.2018 03:00:00||FIBABANKA|10.40.26.73|||101571767266|10
28.10.2018 03:00:00||FIBABANKA|10.40.27.74|||101571767266|70
28.10.2018 03:00:00||FIBABANKA|10.40.27.74|||101571767266|180
28.10.2018 03:00:00||FIBABANKA|10.40.27.74|||101571767266|180
28.10.2018 03:00:00||FIBABANKA|10.40.26.74|||101571767266|70
28.10.2018 03:00:00||FIBABANKA|10.40.26.74|||101571767266|200
28.10.2018 03:00:00||FIBABANKA|10.40.26.74|||101571767266|180
28.10.2018 03:00:00||FIBABANKA|10.40.26.74|||101571767266|180
28.10.2018 03:00:00||FIBABANKA|10.40.27.75|||101571767266|10
28.10.2018 03:00:00||FIBABANKA|10.40.27.75|||101571767266|10
28.10.2018 03:00:00||FIBABANKA|10.40.27.75|||101571767266|60
28.10.2018 03:00:00||FIBABANKA|10.40.26.75|||101571767266|10
28.10.2018 03:00:00||FIBABANKA|10.40.27.76|||101571767266|90
28.10.2018 03:00:00||FIBABANKA|10.40.26.76|||101571767266|100
28.10.2018 03:00:00||FIBABANKA|10.40.26.79|||101571767266|10
28.10.2018 03:00:00||FIBABANKA|10.40.27.79|||101571767266|10
28.10.2018 03:00:00||FIBABANKA|10.40.27.79|||101571767266|10
28.10.2018 03:00:00||FIBABANKA|10.40.26.79|||101571767266|10
28.10.2018 03:00:00||FIBABANKA|10.40.27.77|||101571767266|50
28.10.2018 03:00:00||FIBABANKA|10.40.27.77|||101571767266|30
28.10.2018 03:00:00||FIBABANKA|10.40.27.77|||101571767266|170
28.10.2018 03:00:00||FIBABANKA|10.40.26.77|||101571767266|40
28.10.2018 03:00:00||FIBABANKA|10.40.26.77|||101571767266|50
28.10.2018 03:00:00||FIBABANKA|10.40.26.77|||101571767266|180
28.10.2018 03:00:00||FIBABANKA|10.40.26.77|||101571767266|200
28.10.2018 03:00:00||FIBABANKA|10.40.26.77|||101571767266|70
28.10.2018 03:00:00||FIBABANKA|10.40.26.77|||101571767266|70
28.10.2018 03:00:00||FIBABANKA|10.40.26.77|||101571767266|170
28.10.2018 03:00:00||FIBABANKA|10.40.26.77|||101571767266|190
28.10.2018 03:00:00||FIBABANKA|10.40.27.77|||101571767266|50
28.10.2018 03:00:00||FIBABANKA|10.40.27.77|||101571767266|30
28.10.2018 03:00:00||FIBABANKA|10.40.27.77|||101571767266|170
28.10.2018 03:00:00||FIBABANKA|10.40.27.57|||101571767266|80
28.10.2018 03:00:00||FIBABANKA|10.40.26.60|||101571767266|210
28.10.2018 03:00:00||FIBABANKA|10.40.25.74|||101571767266|230
28.10.2018 03:00:00||FIBABANKA|10.40.24.75|||101571767266|170
28.10.2018 03:00:00||FIBABANKA|10.40.24.75|||101571767266|140
28.10.2018 03:00:00||FIBABANKA|10.40.24.53|||101571767266|160
28.10.2018 03:00:00||FIBABANKA|10.40.24.53|||101571767266|170
28.10.2018 03:00:00||FIBABANKA|10.40.25.52|||101571767266|10
28.10.2018 03:00:00||FIBABANKA|10.40.25.52|||101571767266|50
28.10.2018 03:00:00||FIBABANKA|10.40.25.52|||101571767266|70
28.10.2018 03:00:00||FIBABANKA|10.40.25.53|||101571767266|150
28.10.2018 03:00:00||FIBABANKA|10.40.25.53|||101571767266|140
28.10.2018 03:00:00||FIBABANKA|10.40.27.51|||101571767266|30
28.10.2018 03:00:00||FIBABANKA|10.40.27.51|||101571767266|20
28.10.2018 03:00:00||FIBABANKA|10.40.27.51|||101571767266|100
28.10.2018 03:00:00||FIBABANKA|10.40.27.51|||101571767266|140
28.10.2018 03:00:00||FIBABANKA|10.40.27.51|||101571767266|70
28.10.2018 03:00:00||FIBABANKA|10.40.27.51|||101571767266|40
28.10.2018 03:00:00||FIBABANKA|10.40.27.51|||101571767266|40
28.10.2018 03:00:00||FIBABANKA|10.40.26.51|||101571767266|10
28.10.2018 03:00:00||FIBABANKA|10.40.26.51|||101571767266|110
28.10.2018 03:00:00||FIBABANKA|10.40.26.51|||101571767266|130
28.10.2018 03:00:00||FIBABANKA|10.40.26.51|||101571767266|30
28.10.2018 03:00:00||FIBABANKA|10.40.26.51|||101571767266|30
28.10.2018 03:00:00||FIBABANKA|10.40.24.74|||101571767266|30
28.10.2018 03:00:00||FIBABANKA|10.40.25.76|||101571767266|60
28.10.2018 03:00:00||FIBABANKA|10.40.25.76|||101571767266|40
28.10.2018 03:00:00||FIBABANKA|10.40.25.76|||101571767266|10
28.10.2018 03:00:00||FIBABANKA|10.40.25.52|||101571767266|40
28.10.2018 03:00:00||FIBABANKA|10.40.25.52|||101571767266|30
28.10.2018 03:00:00||HAVAŞ|10.40.24.46|||110000479675|10
28.10.2018 03:00:00||HAVAŞ|10.40.24.48|||110000479675|750
28.10.2018 03:00:00||HAVAŞ|10.40.24.48|||110000479675|770
28.10.2018 03:00:00||HAVAŞ|10.40.25.48|||110000479675|750
28.10.2018 03:00:00||HAVAŞ|10.40.24.45|||110000479675|70
28.10.2018 03:00:00||HAVAŞ|10.40.25.45|||110000479675|60
28.10.2018 03:00:00||HAVAŞ|10.40.25.47|||110000479675|70
28.10.2018 03:00:00||HAVAŞ|10.40.24.46|||110000479675|80
28.10.2018 03:00:00||HAVAŞ|10.40.24.47|||110000479675|30
28.10.2018 03:00:00||HAVAŞ|10.40.24.47|||110000479675|90
28.10.2018 03:00:00||HAVAŞ|10.40.24.47|||110000479675|90
28.10.2018 03:00:00||HAVAŞ|10.40.25.46|||110000479675|10
28.10.2018 03:00:00||HAVAŞ|10.40.25.46|||110000479675|60
28.10.2018 03:00:00||HAVAŞ|10.40.24.48|||110000479675|750
28.10.2018 03:00:00||HAVAŞ|10.40.24.46|||110000479675|60
28.10.2018 03:00:00||HAVAŞ|10.40.24.46|||110000479675|70
28.10.2018 03:00:00||HAVAŞ|10.40.24.47|||110000479675|10
28.10.2018 03:00:00||HAVAŞ|10.40.25.48|||110000479675|750
28.10.2018 03:00:00||HAVAŞ|10.40.25.48|||110000479675|790
28.10.2018 03:00:00||HAVAŞ|10.40.25.45|||110000479675|90
28.10.2018 03:00:00||HAVAŞ|10.40.24.45|||110000479675|50
28.10.2018 03:00:00||HAVAŞ|10.40.24.45|||110000479675|170
28.10.2018 03:00:00||HAVAŞ|10.40.24.45|||110000479675|100
28.10.2018 03:00:00||HAVAŞ|10.40.25.47|||110000479675|70
28.10.2018 03:00:00||HAVAŞ|10.40.25.47|||110000479675|220
28.10.2018 03:00:00||HAVAŞ|10.40.25.47|||110000479675|50
28.10.2018 03:00:00||HAVAŞ|10.40.25.47|||110000479675|90
28.10.2018 03:00:00||HAVAŞ|10.40.25.47|||110000479675|90
28.10.2018 03:00:00||HAVAŞ|10.40.25.47|||110000479675|90
28.10.2018 03:00:00||HAVAŞ|10.40.25.47|||110000479675|110
28.10.2018 03:00:00||HAVAŞ|10.40.25.47|||110000479675|180
28.10.2018 03:00:00||HAVAŞ|10.40.25.47|||110000479675|90
28.10.2018 03:00:00||HAVAŞ|10.40.25.47|||110000479675|90
28.10.2018 03:00:00||HAVAŞ|10.40.25.47|||110000479675|90
28.10.2018 03:00:00||HAVAŞ|10.40.25.45|||110000479675|110
28.10.2018 03:00:00||HAVAŞ|10.40.25.45|||110000479675|90
28.10.2018 03:00:00||HAVAŞ|10.40.25.46|||110000479675|10
28.10.2018 03:00:00||HAVAŞ|10.40.25.46|||110000479675|10
28.10.2018 03:00:00||HAVAŞ|10.40.25.46|||110000479675|20
28.10.2018 03:00:00||HAVAŞ|10.40.25.46|||110000479675|20
28.10.2018 03:00:00||HAVAŞ|10.40.25.46|||110000479675|50
28.10.2018 03:00:00||HAVAŞ|10.40.25.46|||110000479675|100
28.10.2018 03:00:00||HAVAŞ|10.40.25.46|||110000479675|60
28.10.2018 03:00:00||HAVAŞ|10.40.25.46|||110000479675|70
28.10.2018 03:00:00||HAVAŞ|10.40.25.46|||110000479675|70
28.10.2018 03:00:00||HAVAŞ|10.40.24.46|||110000479675|20
28.10.2018 03:00:00||HAVAŞ|10.40.24.46|||110000479675|20
28.10.2018 03:00:00||HAVAŞ|10.40.24.46|||110000479675|10
28.10.2018 03:00:00||HAVAŞ|10.40.24.46|||110000479675|10
28.10.2018 03:00:00||HAVAŞ|10.40.24.46|||110000479675|10
28.10.2018 03:00:00||HAVAŞ|10.40.24.46|||110000479675|60
28.10.2018 03:00:00||HAVAŞ|10.40.24.46|||110000479675|110
28.10.2018 03:00:00||HAVAŞ|10.40.24.47|||110000479675|30
28.10.2018 03:00:00||HAVAŞ|10.40.24.47|||110000479675|220
28.10.2018 03:00:00||HAVAŞ|10.40.24.47|||110000479675|60
28.10.2018 03:00:00||HAVAŞ|10.40.24.47|||110000479675|50
28.10.2018 03:00:00||HAVAŞ|10.40.24.47|||110000479675|150
28.10.2018 03:00:00||HAVAŞ|10.40.24.47|||110000479675|100
28.10.2018 03:00:00||HAVAŞ|10.40.24.47|||110000479675|100
28.10.2018 03:00:00||MARS CINEMA|10.40.24.203|||110000472614|110
28.10.2018 03:00:00||MARS CINEMA|10.40.24.204|||110000472614|40
28.10.2018 03:00:00||MARS CINEMA|10.40.24.203|||110000472614|80
28.10.2018 03:00:00||MARS CINEMA|10.40.24.203|||110000472614|170
28.10.2018 03:00:00||MARS CINEMA|10.40.24.203|||110000472614|80
28.10.2018 03:00:00||MARS CINEMA|10.40.24.204|||110000472614|70
28.10.2018 03:00:00||MARS CINEMA|10.40.24.203|||110000472614|100
28.10.2018 03:00:00||MARS CINEMA|10.40.24.204|||110000472614|20
28.10.2018 03:00:00||MARS CINEMA|10.40.24.204|||110000472614|100
28.10.2018 03:00:00||MARS CINEMA|10.40.25.203|||110000472614|160
28.10.2018 03:00:00||MARS CINEMA|10.40.25.203|||110000472614|60
28.10.2018 03:00:00||MARS CINEMA|10.40.25.203|||110000472614|180
28.10.2018 03:00:00||MARS CINEMA|10.40.25.203|||110000472614|90
28.10.2018 03:00:00||MARS CINEMA|10.40.25.203|||110000472614|80
28.10.2018 03:00:00||MARS CINEMA|10.40.25.203|||110000472614|110
28.10.2018 03:00:00||MARS CINEMA|10.40.25.203|||110000472614|80
28.10.2018 03:00:00||MARS CINEMA|10.40.25.203|||110000472614|140
28.10.2018 03:00:00||MARS CINEMA|10.40.25.203|||110000472614|90
28.10.2018 03:00:00||MARS CINEMA|10.40.25.203|||110000472614|110
28.10.2018 03:00:00||MARS CINEMA|10.40.25.203|||110000472614|90
28.10.2018 03:00:00||MARS CINEMA|10.40.25.203|||110000472614|60
28.10.2018 03:00:00||MARS CINEMA|10.40.25.203|||110000472614|190
28.10.2018 03:00:00||MARS CINEMA|10.40.25.204|||110000472614|110
28.10.2018 03:00:00||MARS CINEMA|10.40.25.204|||110000472614|70
28.10.2018 03:00:00||MARS CINEMA|10.40.25.204|||110000472614|80
28.10.2018 03:00:00||MARS CINEMA|10.40.25.204|||110000472614|100
28.10.2018 03:00:00||MARS CINEMA|10.40.25.204|||110000472614|20
28.10.2018 03:00:00||MARS CINEMA|10.40.25.204|||110000472614|20
28.10.2018 03:00:00||MARS CINEMA|10.40.25.204|||110000472614|30
28.10.2018 03:00:00||MARS CINEMA|10.40.25.204|||110000472614|40
28.10.2018 03:00:00||MARS CINEMA|10.40.25.204|||110000472614|90
28.10.2018 03:00:00||MARS CINEMA|10.40.25.204|||110000472614|120
28.10.2018 03:00:00||MARS CINEMA|10.40.25.204|||110000472614|80
28.10.2018 03:00:00||MARS CINEMA|10.40.25.204|||110000472614|80
28.10.2018 03:00:00||MARS CINEMA|10.40.25.204|||110000472614|110
28.10.2018 03:00:00||MARS CINEMA|10.40.25.204|||110000472614|100
28.10.2018 03:00:00||MARS CINEMA|10.40.24.203|||110000472614|80
28.10.2018 03:00:00||MARS CINEMA|10.40.24.203|||110000472614|90
28.10.2018 03:00:00||MARS CINEMA|10.40.24.203|||110000472614|140
28.10.2018 03:00:00||MARS CINEMA|10.40.24.203|||110000472614|60
28.10.2018 03:00:00||MARS CINEMA|10.40.24.203|||110000472614|140
28.10.2018 03:00:00||MARS CINEMA|10.40.24.203|||110000472614|140
28.10.2018 03:00:00||MARS CINEMA|10.40.24.203|||110000472614|100
28.10.2018 03:00:00||MARS CINEMA|10.40.24.203|||110000472614|180
28.10.2018 03:00:00||MARS CINEMA|10.40.24.204|||110000472614|110
28.10.2018 03:00:00||MARS CINEMA|10.40.24.204|||110000472614|90
28.10.2018 03:00:00||MARS CINEMA|10.40.24.204|||110000472614|90
28.10.2018 03:00:00||MARS CINEMA|10.40.24.204|||110000472614|20
28.10.2018 03:00:00||MARS CINEMA|10.40.24.204|||110000472614|10
28.10.2018 03:00:00||MARS CINEMA|10.40.24.204|||110000472614|100
28.10.2018 03:00:00||MARS CINEMA|10.40.24.204|||110000472614|120
28.10.2018 03:00:00||MARS CINEMA|10.40.24.204|||110000472614|90
28.10.2018 03:00:00||MARS CINEMA|10.40.24.204|||110000472614|110
28.10.2018 03:00:00||MARS CINEMA|10.40.24.204|||110000472614|80
28.10.2018 03:00:00||MARS CINEMA|10.40.25.206|||110000472614|120
28.10.2018 03:00:00||MARS CINEMA|10.40.25.206|||110000472614|40
28.10.2018 03:00:00||MARS CINEMA|10.40.25.206|||110000472614|40
28.10.2018 03:00:00||MARS CINEMA|10.40.25.206|||110000472614|40
28.10.2018 03:00:00||MARS CINEMA|10.40.25.206|||110000472614|20
28.10.2018 03:00:00||MARS CINEMA|10.40.25.206|||110000472614|20
28.10.2018 03:00:00||MARS CINEMA|10.40.25.206|||110000472614|30
28.10.2018 03:00:00||MARS CINEMA|10.40.25.206|||110000472614|60
28.10.2018 03:00:00||MARS CINEMA|10.40.25.206|||110000472614|40
28.10.2018 03:00:00||MARS CINEMA|10.40.25.206|||110000472614|80
28.10.2018 03:00:00||MARS CINEMA|10.40.25.206|||110000472614|90
28.10.2018 03:00:00||MARS CINEMA|10.40.24.206|||110000472614|150
28.10.2018 03:00:00||MARS CINEMA|10.40.24.206|||110000472614|40
28.10.2018 03:00:00||MARS CINEMA|10.40.24.206|||110000472614|40
28.10.2018 03:00:00||MARS CINEMA|10.40.24.206|||110000472614|40
28.10.2018 03:00:00||MARS CINEMA|10.40.24.206|||110000472614|30
28.10.2018 03:00:00||MARS CINEMA|10.40.24.206|||110000472614|30
28.10.2018 03:00:00||MARS CINEMA|10.40.24.206|||110000472614|200
28.10.2018 03:00:00||MARS CINEMA|10.40.24.206|||110000472614|160
28.10.2018 03:00:00||MARS CINEMA|10.40.24.206|||110000472614|20
28.10.2018 03:00:00||MARS CINEMA|10.40.24.206|||110000472614|80
28.10.2018 03:00:00||MARS CINEMA|10.40.24.206|||110000472614|80
28.10.2018 03:00:00||PEGASUS|10.40.27.67|||110000423831|340
28.10.2018 03:00:00||PEGASUS|10.40.27.67|||110000423831|40
28.10.2018 03:00:00||PEGASUS|10.40.26.62|||110000423831|10
28.10.2018 03:00:00||PEGASUS|10.40.26.62|||110000423831|190
28.10.2018 03:00:00||PEGASUS|10.40.26.63|||110000423831|70
28.10.2018 03:00:00||PEGASUS|10.40.26.63|||110000423831|30
28.10.2018 03:00:00||PEGASUS|10.40.26.63|||110000423831|60
28.10.2018 03:00:00||PEGASUS|10.40.26.63|||110000423831|30
28.10.2018 03:00:00||PEGASUS|10.40.26.63|||110000423831|230
28.10.2018 03:00:00||PEGASUS|10.40.26.63|||110000423831|140
28.10.2018 03:00:00||PEGASUS|10.40.26.63|||110000423831|110
28.10.2018 03:00:00||PEGASUS|10.40.26.63|||110000423831|60
28.10.2018 03:00:00||PEGASUS|10.40.26.67|||110000423831|170
28.10.2018 03:00:00||PEGASUS|10.40.27.68|||110000423831|90
28.10.2018 03:00:00||PEGASUS|10.40.27.68|||110000423831|80
28.10.2018 03:00:00||PEGASUS|10.40.27.68|||110000423831|90
28.10.2018 03:00:00||PEGASUS|10.40.27.68|||110000423831|50
28.10.2018 03:00:00||PEGASUS|10.40.26.68|||110000423831|90
28.10.2018 03:00:00||PEGASUS|10.40.26.68|||110000423831|90
28.10.2018 03:00:00||PEGASUS|10.40.26.68|||110000423831|50
28.10.2018 03:00:00||PEGASUS|10.40.27.63|||110000423831|40
28.10.2018 03:00:00||PEGASUS|10.40.27.86|||110000423831|340
28.10.2018 03:00:00||PEGASUS|10.40.27.63|||110000423831|50
28.10.2018 03:00:00||PEGASUS|10.40.27.63|||110000423831|60
28.10.2018 03:00:00||PEGASUS|10.40.27.64|||110000423831|80
28.10.2018 03:00:00||PEGASUS|10.40.27.64|||110000423831|70
28.10.2018 03:00:00||PEGASUS|10.40.27.63|||110000423831|60
28.10.2018 03:00:00||PEGASUS|10.40.27.63|||110000423831|70
28.10.2018 03:00:00||PEGASUS|10.40.27.63|||110000423831|90
28.10.2018 03:00:00||PEGASUS|10.40.26.63|||110000423831|110
28.10.2018 03:00:00||PEGASUS|10.40.27.67|||110000423831|360
28.10.2018 03:00:00||PEGASUS|10.40.27.64|||110000423831|270
28.10.2018 03:00:00||PEGASUS|10.40.27.64|||110000423831|250
28.10.2018 03:00:00||PEGASUS|10.40.27.63|||110000423831|70
28.10.2018 03:00:00||PEGASUS|10.40.27.63|||110000423831|60
28.10.2018 03:00:00||PEGASUS|10.40.27.63|||110000423831|80
28.10.2018 03:00:00||PEGASUS|10.40.26.63|||110000423831|110
28.10.2018 03:00:00||PEGASUS|10.40.26.63|||110000423831|110
28.10.2018 03:00:00||PEGASUS|10.40.27.81|||110000423831|460
28.10.2018 03:00:00||PEGASUS|10.40.27.81|||110000423831|430
28.10.2018 03:00:00||PEGASUS|10.40.26.63|||110000423831|90
28.10.2018 03:00:00||PEGASUS|10.40.26.63|||110000423831|60
28.10.2018 03:00:00||PEGASUS|10.40.26.67|||110000423831|30
28.10.2018 03:00:00||PEGASUS|10.40.26.67|||110000423831|340
28.10.2018 03:00:00||PEGASUS|10.40.26.67|||110000423831|60
28.10.2018 03:00:00||PEGASUS|10.40.26.67|||110000423831|40
28.10.2018 03:00:00||PEGASUS|10.40.26.67|||110000423831|70
28.10.2018 03:00:00||PEGASUS|10.40.26.68|||110000423831|100
28.10.2018 03:00:00||PEGASUS|10.40.27.64|||110000423831|310
28.10.2018 03:00:00||PEGASUS|10.40.27.64|||110000423831|260
28.10.2018 03:00:00||PEGASUS|10.40.27.64|||110000423831|290
28.10.2018 03:00:00||PEGASUS|10.40.27.64|||110000423831|270
28.10.2018 03:00:00||PEGASUS|10.40.27.64|||110000423831|260
28.10.2018 03:00:00||PEGASUS|10.40.27.86|||110000423831|340
28.10.2018 03:00:00||PEGASUS|10.40.27.63|||110000423831|90
28.10.2018 03:00:00||PEGASUS|10.40.26.63|||110000423831|130
28.10.2018 03:00:00||PEGASUS|10.40.26.63|||110000423831|60
28.10.2018 03:00:00||PEGASUS|10.40.26.63|||110000423831|80
28.10.2018 03:00:00||PEGASUS|10.40.26.67|||110000423831|340
28.10.2018 03:00:00||PEGASUS|10.40.27.63|||110000423831|50
28.10.2018 03:00:00||PEGASUS|10.40.27.63|||110000423831|60
28.10.2018 03:00:00||PEGASUS|10.40.27.81|||110000423831|450
28.10.2018 03:00:00||PEGASUS|10.40.26.62|||110000423831|90
28.10.2018 03:00:00||PEGASUS|10.40.26.63|||110000423831|50
28.10.2018 03:00:00||PEGASUS|10.40.26.63|||110000423831|100
28.10.2018 03:00:00||PEGASUS|10.40.26.63|||110000423831|40
28.10.2018 03:00:00||PEGASUS|10.40.26.63|||110000423831|70
28.10.2018 03:00:00||PEGASUS|10.40.26.67|||110000423831|340
28.10.2018 03:00:00||PEGASUS|10.40.27.64|||110000423831|280
28.10.2018 03:00:00||PEGASUS|10.40.27.64|||110000423831|290
28.10.2018 03:00:00||PEGASUS|10.40.27.64|||110000423831|260
28.10.2018 03:00:00||PEGASUS|10.40.27.64|||110000423831|340
28.10.2018 03:00:00||PEGASUS|10.40.27.64|||110000423831|360
28.10.2018 03:00:00||PEGASUS|10.40.27.86|||110000423831|40
28.10.2018 03:00:00||PEGASUS|10.40.27.63|||110000423831|60
28.10.2018 03:00:00||PEGASUS|10.40.27.63|||110000423831|80
28.10.2018 03:00:00||PEGASUS|10.40.27.63|||110000423831|70
28.10.2018 03:00:00||PEGASUS|10.40.27.63|||110000423831|90
28.10.2018 03:00:00||PEGASUS|10.40.27.63|||110000423831|170
28.10.2018 03:00:00||PEGASUS|10.40.27.63|||110000423831|230
28.10.2018 03:00:00||PEGASUS|10.40.27.63|||110000423831|60
28.10.2018 03:00:00||PEGASUS|10.40.26.64|||110000423831|80
28.10.2018 03:00:00||PEGASUS|10.40.26.64|||110000423831|80
28.10.2018 03:00:00||PEGASUS|10.40.26.82|||110000423831|210
28.10.2018 03:00:00||PEGASUS|10.40.26.82|||110000423831|110
28.10.2018 03:00:00||PEGASUS|10.40.26.82|||110000423831|110
28.10.2018 03:00:00||PEGASUS|10.40.26.82|||110000423831|150
28.10.2018 03:00:00||PEGASUS|10.40.26.82|||110000423831|140
28.10.2018 03:00:00||PEGASUS|10.40.26.82|||110000423831|130
28.10.2018 03:00:00||PEGASUS|10.40.26.82|||110000423831|180
28.10.2018 03:00:00||PEGASUS|10.40.26.82|||110000423831|30
28.10.2018 03:00:00||PEGASUS|10.40.26.82|||110000423831|50
28.10.2018 03:00:00||PEGASUS|10.40.26.82|||110000423831|20
28.10.2018 03:00:00||PEGASUS|10.40.26.82|||110000423831|70
28.10.2018 03:00:00||PEGASUS|10.40.26.82|||110000423831|50
28.10.2018 03:00:00||PEGASUS|10.40.26.82|||110000423831|40
28.10.2018 03:00:00||PEGASUS|10.40.27.83|||110000423831|570
28.10.2018 03:00:00||PEGASUS|10.40.27.83|||110000423831|70
28.10.2018 03:00:00||PEGASUS|10.40.27.83|||110000423831|570
28.10.2018 03:00:00||PEGASUS|10.40.27.83|||110000423831|560
28.10.2018 03:00:00||PEGASUS|10.40.27.83|||110000423831|90
28.10.2018 03:00:00||PEGASUS|10.40.26.83|||110000423831|510
28.10.2018 03:00:00||PEGASUS|10.40.26.83|||110000423831|50
28.10.2018 03:00:00||PEGASUS|10.40.26.83|||110000423831|400
28.10.2018 03:00:00||PEGASUS|10.40.26.83|||110000423831|510
28.10.2018 03:00:00||PEGASUS|10.40.26.83|||110000423831|500
28.10.2018 03:00:00||PEGASUS|10.40.26.86|||110000423831|360
28.10.2018 03:00:00||PEGASUS|10.40.26.86|||110000423831|140
28.10.2018 03:00:00||PEGASUS|10.40.26.86|||110000423831|350
28.10.2018 03:00:00||PEGASUS|10.40.26.86|||110000423831|50
28.10.2018 03:00:00||PEGASUS|10.40.26.86|||110000423831|30
28.10.2018 03:00:00||PEGASUS|10.40.26.86|||110000423831|350
28.10.2018 03:00:00||PEGASUS|10.40.26.86|||110000423831|40
28.10.2018 03:00:00||PEGASUS|10.40.27.87|||110000423831|90
28.10.2018 03:00:00||PEGASUS|10.40.27.87|||110000423831|90
28.10.2018 03:00:00||PEGASUS|10.40.27.87|||110000423831|90
28.10.2018 03:00:00||PEGASUS|10.40.27.87|||110000423831|20
28.10.2018 03:00:00||PEGASUS|10.40.26.87|||110000423831|90
28.10.2018 03:00:00||PEGASUS|10.40.26.87|||110000423831|90
28.10.2018 03:00:00||PEGASUS|10.40.26.87|||110000423831|90
28.10.2018 03:00:00||PEGASUS|10.40.26.87|||110000423831|60
28.10.2018 03:00:00||PEGASUS|10.40.26.87|||110000423831|20
28.10.2018 03:00:00||PEGASUS|10.40.26.81|||110000423831|410
28.10.2018 03:00:00||PEGASUS|10.40.26.81|||110000423831|430
28.10.2018 03:00:00||PEGASUS|10.40.26.81|||110000423831|440
28.10.2018 03:00:00||PEGASUS|10.40.27.82|||110000423831|220
28.10.2018 03:00:00||PEGASUS|10.40.27.82|||110000423831|30
28.10.2018 03:00:00||PEGASUS|10.40.27.82|||110000423831|110
28.10.2018 03:00:00||PEGASUS|10.40.27.82|||110000423831|80
28.10.2018 03:00:00||PEGASUS|10.40.27.82|||110000423831|150
28.10.2018 03:00:00||PEGASUS|10.40.27.82|||110000423831|120
28.10.2018 03:00:00||PEGASUS|10.40.27.82|||110000423831|170
28.10.2018 03:00:00||PEGASUS|10.40.27.82|||110000423831|110
28.10.2018 03:00:00||PEGASUS|10.40.27.82|||110000423831|60
28.10.2018 03:00:00||PEGASUS|10.40.27.82|||110000423831|80
28.10.2018 03:00:00||PEGASUS|10.40.27.82|||110000423831|50
28.10.2018 03:00:00||PEGASUS|10.40.27.82|||110000423831|40
28.10.2018 03:00:00||PEGASUS|10.40.27.82|||110000423831|40
28.10.2018 03:00:00||PEGASUS|10.40.27.67|||110000423831|50
28.10.2018 03:00:00||PEGASUS|10.40.27.67|||110000423831|70
28.10.2018 03:00:00||PEGASUS|10.40.27.67|||110000423831|130
28.10.2018 03:00:00||PEGASUS|10.40.27.67|||110000423831|10
28.10.2018 03:00:00||PEGASUS|10.40.27.67|||110000423831|340
28.10.2018 03:00:00||PEGASUS|10.40.27.82|||110000423831|90
28.10.2018 03:00:00||PEGASUS|10.40.27.86|||110000423831|170
28.10.2018 03:00:00||PEGASUS|10.40.27.86|||110000423831|70
28.10.2018 03:00:00||PEGASUS|10.40.27.86|||110000423831|20
28.10.2018 03:00:00||PEGASUS|10.40.27.86|||110000423831|350
28.10.2018 03:00:00||PWC|10.40.24.66|||110000433262|90
28.10.2018 03:00:00||PWC|10.40.24.66|||110000433262|10
28.10.2018 03:00:00||PWC|10.40.24.66|||110000433262|30
28.10.2018 03:00:00||PWC|10.40.24.66|||110000433262|50
28.10.2018 03:00:00||PWC|10.40.24.66|||110000433262|440
28.10.2018 03:00:00||PWC|10.40.24.68|||110000433262|150
28.10.2018 03:00:00||PWC|10.40.24.66|||110000433262|50
28.10.2018 03:00:00||PWC|10.40.24.66|||110000433262|210
28.10.2018 03:00:00||PWC|10.40.24.66|||110000433262|210
28.10.2018 03:00:00||PWC|10.40.25.67|||110000433262|80
28.10.2018 03:00:00||PWC|10.40.25.67|||110000433262|90
28.10.2018 03:00:00||PWC|10.40.25.67|||110000433262|320
28.10.2018 03:00:00||PWC|10.40.25.67|||110000433262|250
28.10.2018 03:00:00||PWC|10.40.25.67|||110000433262|240
28.10.2018 03:00:00||PWC|10.40.25.67|||110000433262|250
28.10.2018 03:00:00||PWC|10.40.25.67|||110000433262|50
28.10.2018 03:00:00||PWC|10.40.25.67|||110000433262|30
28.10.2018 03:00:00||PWC|10.40.25.67|||110000433262|120
28.10.2018 03:00:00||PWC|10.40.24.67|||110000433262|10
28.10.2018 03:00:00||PWC|10.40.24.67|||110000433262|10
28.10.2018 03:00:00||PWC|10.40.24.67|||110000433262|370
28.10.2018 03:00:00||PWC|10.40.24.67|||110000433262|30
28.10.2018 03:00:00||PWC|10.40.24.67|||110000433262|70
28.10.2018 03:00:00||PWC|10.40.24.67|||110000433262|120
28.10.2018 03:00:00||PWC|10.40.25.68|||110000433262|130
28.10.2018 03:00:00||PWC|10.40.25.68|||110000433262|190
28.10.2018 03:00:00||PWC|10.40.25.68|||110000433262|70
28.10.2018 03:00:00||PWC|10.40.25.68|||110000433262|70
28.10.2018 03:00:00||PWC|10.40.25.68|||110000433262|140
28.10.2018 03:00:00||PWC|10.40.24.66|||110000433262|60
28.10.2018 03:00:00||PWC|10.40.24.66|||110000433262|30
28.10.2018 03:00:00||PWC|10.40.24.66|||110000433262|30
28.10.2018 03:00:00||PWC|10.40.24.68|||110000433262|110
28.10.2018 03:00:00||PWC|10.40.24.68|||110000433262|140
28.10.2018 03:00:00||PWC|10.40.24.68|||110000433262|400
28.10.2018 03:00:00||PWC|10.40.24.68|||110000433262|70
28.10.2018 03:00:00||PWC|10.40.24.68|||110000433262|60
28.10.2018 03:00:00||VSMART BİLGİ TEKNOLOJİLERİ|10.40.24.62|||110000474326|40
28.10.2018 03:00:00||VSMART BİLGİ TEKNOLOJİLERİ|10.40.24.62|||110000474326|60
28.10.2018 03:00:00||VSMART BİLGİ TEKNOLOJİLERİ|10.40.24.62|||110000474326|40
28.10.2018 03:00:00||VSMART BİLGİ TEKNOLOJİLERİ|10.40.25.62|||110000474326|70
28.10.2018 03:00:00||VSMART BİLGİ TEKNOLOJİLERİ|10.40.24.62|||110000474326|40
28.10.2018 03:00:00||VSMART BİLGİ TEKNOLOJİLERİ|10.40.24.62|||110000474326|30
28.10.2018 03:00:00||VSMART BİLGİ TEKNOLOJİLERİ|10.40.24.62|||110000474326|10
28.10.2018 03:00:00||VSMART BİLGİ TEKNOLOJİLERİ|10.40.25.62|||110000474326|40
28.10.2018 03:00:00||VSMART BİLGİ TEKNOLOJİLERİ|10.40.25.62|||110000474326|10
28.10.2018 03:00:00||VSMART BİLGİ TEKNOLOJİLERİ|10.40.25.62|||110000474326|10
28.10.2018 03:00:00||VSMART BİLGİ TEKNOLOJİLERİ|10.40.25.62|||110000474326|80
28.10.2018 03:00:00||VSMART BİLGİ TEKNOLOJİLERİ|10.40.25.62|||110000474326|90
28.10.2018 03:00:00||VSMART BİLGİ TEKNOLOJİLERİ|10.40.25.62|||110000474326|100
28.10.2018 03:00:00||VSMART BİLGİ TEKNOLOJİLERİ|10.40.24.62|||110000474326|10
