9/26/2018 11:00:00 PM||HAVAS|10.40.24.45|||110000479675|381
9/26/2018 11:00:00 PM||HAVAS|10.40.25.46|||110000479675|507
9/26/2018 11:00:00 PM||HAVAS|10.40.24.47|||110000479675|993
9/26/2018 11:00:00 PM||PWC|10.40.24.67|||110000433262|568
9/26/2018 11:00:00 PM||PWC|10.40.25.68|||110000433262|916
9/26/2018 11:00:00 PM||PWC|10.40.25.69|||110000433262|278
9/26/2018 11:00:00 PM||PWC|10.40.24.69|||110000433262|280
9/26/2018 11:00:00 PM||CALIK HOLDING|10.40.25.94|||110000438408|689
9/26/2018 11:00:00 PM||CALIK HOLDING|10.40.24.94|||110000438408|704
9/26/2018 11:00:00 PM||CALIK HOLDING|10.40.25.97|||110000438408|608
9/26/2018 11:00:00 PM||CALIK HOLDING|10.40.25.100|||110000438408|76
9/26/2018 11:00:00 PM||CALIK HOLDING|10.40.24.100|||110000438408|74
9/26/2018 11:00:00 PM||CALIK HOLDING|10.40.25.102|||110000438408|333
9/26/2018 11:00:00 PM||CALIK HOLDING|10.40.24.102|||110000438408|302
9/26/2018 11:00:00 PM||CALIK HOLDING|10.40.25.103|||110000438408|265
9/26/2018 11:00:00 PM||CALIK HOLDING|10.40.24.103|||110000438408|291
9/26/2018 11:00:00 PM||CALIK HOLDING|10.40.25.104|||110000438408|1105
9/26/2018 11:00:00 PM||CALIK HOLDING|10.40.25.115|||110000438408|530
9/26/2018 11:00:00 PM||CALIK HOLDING|10.40.24.115|||110000438408|558
9/26/2018 11:00:00 PM||CALIK HOLDING|10.40.25.116|||110000438408|489
9/26/2018 11:00:00 PM||CALIK HOLDING|10.40.24.116|||110000438408|476
9/26/2018 11:00:00 PM||CALIK HOLDING|10.40.25.117|||110000438408|294
9/26/2018 11:00:00 PM||CALIK HOLDING|10.40.24.117|||110000438408|248
9/26/2018 11:00:00 PM||CALIK HOLDING|10.40.25.119|||110000438408|67
9/26/2018 11:00:00 PM||CALIK HOLDING|10.40.24.119|||110000438408|223
9/26/2018 11:00:00 PM||CALIK HOLDING|10.40.25.120|||110000438408|551
9/26/2018 11:00:00 PM||CALIK HOLDING|10.40.24.120|||110000438408|556
9/26/2018 11:00:00 PM||CALIK HOLDING|10.40.25.121|||110000438408|318
9/26/2018 11:00:00 PM||CALIK HOLDING|10.40.24.121|||110000438408|313
9/26/2018 11:00:00 PM||CALIK HOLDING|10.40.25.122|||110000438408|245
9/26/2018 11:00:00 PM||CALIK HOLDING|10.40.24.122|||110000438408|301
9/26/2018 11:00:00 PM||AKTIFBANK|10.40.25.128|||110000438458|271
9/26/2018 11:00:00 PM||AKTIFBANK|10.40.24.128|||110000438458|443
9/26/2018 11:00:00 PM||AKTIFBANK|10.40.24.130|||110000438458|665
9/26/2018 11:00:00 PM||AKTIFBANK|10.40.25.131|||110000438458|598
9/26/2018 11:00:00 PM||AKTIFBANK|10.40.24.131|||110000438458|615
9/26/2018 11:00:00 PM||AKTIFBANK|10.40.25.132|||110000438458|414
9/26/2018 11:00:00 PM||AKTIFBANK|10.40.24.132|||110000438458|407
9/26/2018 11:00:00 PM||AKTIFBANK|10.40.25.133|||110000438458|378
9/26/2018 11:00:00 PM||AKTIFBANK|10.40.24.133|||110000438458|663
9/26/2018 11:00:00 PM||AKTIFBANK|10.40.25.138|||110000438458|251
9/26/2018 11:00:00 PM||AKTIFBANK|10.40.24.138|||110000438458|540
9/26/2018 11:00:00 PM||AKTIFBANK|10.40.25.139|||110000438458|152
9/26/2018 11:00:00 PM||AKTIFBANK|10.40.24.139|||110000438458|230
9/26/2018 11:00:00 PM||AKTIFBANK|10.40.25.140|||110000438458|255
9/26/2018 11:00:00 PM||AKTIFBANK|10.40.24.140|||110000438458|345
9/26/2018 11:00:00 PM||AKTIFBANK|10.40.25.141|||110000438458|473
9/26/2018 11:00:00 PM||AKTIFBANK|10.40.24.141|||110000438458|630
9/26/2018 11:00:00 PM||AKTIFBANK|10.40.25.142|||110000438458|37
9/26/2018 11:00:00 PM||AKTIFBANK|10.40.24.142|||110000438458|113
9/26/2018 11:00:00 PM||AKTIFBANK|10.40.24.143|||110000438458|774
9/26/2018 11:00:00 PM||AKTIFBANK|10.40.25.144|||110000438458|177
9/26/2018 11:00:00 PM||AKTIFBANK|10.40.24.144|||110000438458|262
9/26/2018 11:00:00 PM||AKTIFBANK|10.40.25.145|||110000438458|282
9/26/2018 11:00:00 PM||AKTIFBANK|10.40.24.145|||110000438458|393
9/26/2018 11:00:00 PM||AKTIFBANK|10.40.25.147|||110000438458|84
9/26/2018 11:00:00 PM||AKTIFBANK|10.40.24.147|||110000438458|86
9/26/2018 11:00:00 PM||AKTIFBANK|10.40.25.148|||110000438458|959
9/26/2018 11:00:00 PM||AKTIFBANK|10.40.25.152|||110000438458|866
9/26/2018 11:00:00 PM||AKTIFBANK|10.40.25.153|||110000438458|216
9/26/2018 11:00:00 PM||AKTIFBANK|10.40.24.153|||110000438458|247
9/26/2018 11:00:00 PM||AKTIFBANK|10.40.25.154|||110000438458|40
9/26/2018 11:00:00 PM||AKTIFBANK|10.40.24.154|||110000438458|131
9/26/2018 11:00:00 PM||AKTIFBANK|10.40.25.155|||110000438458|464
9/26/2018 11:00:00 PM||AKTIFBANK|10.40.24.155|||110000438458|514
9/26/2018 11:00:00 PM||AKTIFBANK|10.40.25.157|||110000438458|320
9/26/2018 11:00:00 PM||AKTIFBANK|10.40.24.157|||110000438458|341
9/26/2018 11:00:00 PM||AKTIFBANK|10.40.25.158|||110000438458|156
9/26/2018 11:00:00 PM||AKTIFBANK|10.40.24.158|||110000438458|606
9/26/2018 11:00:00 PM||AKTIFBANK|10.40.25.159|||110000438458|159
9/26/2018 11:00:00 PM||AKTIFBANK|10.40.24.159|||110000438458|343
9/26/2018 11:00:00 PM||AKTIFBANK|10.40.25.160|||110000438458|190
9/26/2018 11:00:00 PM||AKTIFBANK|10.40.24.160|||110000438458|239
9/26/2018 11:00:00 PM||AKTIFBANK|10.40.25.161|||110000438458|304
9/26/2018 11:00:00 PM||AKTIFBANK|10.40.25.162|||110000438458|239
9/26/2018 11:00:00 PM||AKTIFBANK|10.40.24.162|||110000438458|471
9/26/2018 11:00:00 PM||AKTIFBANK|10.40.25.163|||110000438458|45
9/26/2018 11:00:00 PM||AKTIFBANK|10.40.24.163|||110000438458|230
9/26/2018 11:00:00 PM||AKTIFBANK|10.40.25.164|||110000438458|879
9/26/2018 11:00:00 PM||AKTIFBANK|10.40.24.164|||110000438458|863
9/26/2018 11:00:00 PM||AKTIFBANK|10.40.25.165|||110000438458|309
9/26/2018 11:00:00 PM||AKTIFBANK|10.40.24.165|||110000438458|359
9/26/2018 11:00:00 PM||AKTIFBANK|10.40.25.166|||110000438458|131
9/26/2018 11:00:00 PM||AKTIFBANK|10.40.24.166|||110000438458|201
9/26/2018 11:00:00 PM||AKTIFBANK|10.40.25.168|||110000438458|306
9/26/2018 11:00:00 PM||AKTIFBANK|10.40.24.168|||110000438458|381
9/26/2018 11:00:00 PM||AKTIFBANK|10.40.25.169|||110000438458|321
9/26/2018 11:00:00 PM||AKTIFBANK|10.40.24.169|||110000438458|299
9/26/2018 11:00:00 PM||AKTIFBANK|10.40.25.170|||110000438458|390
9/26/2018 11:00:00 PM||AKTIFBANK|10.40.24.170|||110000438458|862
9/26/2018 11:00:00 PM||AKTIFBANK|10.40.25.179|||110000438458|918
9/26/2018 11:00:00 PM||AKTIFBANK|10.40.24.179|||110000438458|1027
9/26/2018 11:00:00 PM||AKTIFBANK|10.40.25.186|||110000438458|180
9/26/2018 11:00:00 PM||AKTIFBANK|10.40.24.186|||110000438458|209
9/26/2018 11:00:00 PM||MARS CINEMA|10.40.25.203|||110000472614|1362
9/26/2018 11:00:00 PM||MARS CINEMA|10.40.24.203|||110000472614|1408
9/26/2018 11:00:00 PM||MARS CINEMA|10.40.25.206|||110000472614|450
9/26/2018 11:00:00 PM||PEGASUS|10.40.26.62|||110000423831|300
9/26/2018 11:00:00 PM||PEGASUS|10.40.26.64|||110000423831|157
9/26/2018 11:00:00 PM||PEGASUS|10.40.27.67|||110000423831|1293
9/26/2018 11:00:00 PM||PEGASUS|10.40.27.68|||110000423831|308
9/26/2018 11:00:00 PM||PEGASUS|10.40.27.87|||110000423831|271
9/26/2018 11:00:00 PM||PEGASUS|10.40.26.87|||110000423831|294
9/26/2018 11:00:00 PM||BOYNER|10.40.27.95|||101367941673|451
9/26/2018 11:00:00 PM||BOYNER|10.40.26.95|||101367941673|418
9/26/2018 11:00:00 PM||BOYNER|10.40.27.96|||101367941673|836
9/26/2018 11:00:00 PM||BOYNER|10.40.26.96|||101367941673|912
9/26/2018 11:00:00 PM||BOYNER|10.40.27.99|||101367941673|274
9/26/2018 11:00:00 PM||BOYNER|10.40.26.99|||101367941673|300
