07.10.2018 03:00:00||AKTİFBANK|10.40.24.172|||110000438458|95
07.10.2018 03:00:00||AKTİFBANK|10.40.25.134|||110000438458|93
07.10.2018 03:00:00||AKTİFBANK|10.40.24.134|||110000438458|93
07.10.2018 03:00:00||AKTİFBANK|10.40.24.135|||110000438458|97
07.10.2018 03:00:00||AKTİFBANK|10.40.25.137|||110000438458|57
07.10.2018 03:00:00||AKTİFBANK|10.40.25.171|||110000438458|12
07.10.2018 03:00:00||AKTİFBANK|10.40.25.172|||110000438458|89
07.10.2018 03:00:00||AKTİFBANK|10.40.25.174|||110000438458|53
07.10.2018 03:00:00||AKTİFBANK|10.40.25.135|||110000438458|93
07.10.2018 03:00:00||AKTİFBANK|10.40.24.137|||110000438458|57
07.10.2018 03:00:00||AKTİFBANK|10.40.24.171|||110000438458|16
07.10.2018 03:00:00||AKTİFBANK|10.40.24.173|||110000438458|93
07.10.2018 03:00:00||AKTİFBANK|10.40.24.174|||110000438458|59
07.10.2018 03:00:00||AKTİFBANK|10.40.24.133|||110000438458|80
07.10.2018 03:00:00||AKTİFBANK|10.40.24.138|||110000438458|120
07.10.2018 03:00:00||AKTİFBANK|10.40.24.139|||110000438458|30
07.10.2018 03:00:00||AKTİFBANK|10.40.24.149|||110000438458|110
07.10.2018 03:00:00||AKTİFBANK|10.40.24.150|||110000438458|543
07.10.2018 03:00:00||AKTİFBANK|10.40.24.145|||110000438458|70
07.10.2018 03:00:00||AKTİFBANK|10.40.24.164|||110000438458|227
07.10.2018 03:00:00||AKTİFBANK|10.40.25.133|||110000438458|62
07.10.2018 03:00:00||AKTİFBANK|10.40.24.145|||110000438458|90
07.10.2018 03:00:00||AKTİFBANK|10.40.24.158|||110000438458|80
07.10.2018 03:00:00||AKTİFBANK|10.40.24.160|||110000438458|10
07.10.2018 03:00:00||AKTİFBANK|10.40.24.164|||110000438458|70
07.10.2018 03:00:00||AKTİFBANK|10.40.25.138|||110000438458|80
07.10.2018 03:00:00||AKTİFBANK|10.40.25.139|||110000438458|10
07.10.2018 03:00:00||AKTİFBANK|10.40.25.139|||110000438458|10
07.10.2018 03:00:00||AKTİFBANK|10.40.25.139|||110000438458|20
07.10.2018 03:00:00||AKTİFBANK|10.40.25.140|||110000438458|30
07.10.2018 03:00:00||AKTİFBANK|10.40.25.151|||110000438458|495
07.10.2018 03:00:00||AKTİFBANK|10.40.25.141|||110000438458|100
07.10.2018 03:00:00||AKTİFBANK|10.40.25.141|||110000438458|85
07.10.2018 03:00:00||AKTİFBANK|10.40.25.133|||110000438458|97
07.10.2018 03:00:00||AKTİFBANK|10.40.25.149|||110000438458|100
07.10.2018 03:00:00||AKTİFBANK|10.40.25.149|||110000438458|92
07.10.2018 03:00:00||AKTİFBANK|10.40.25.149|||110000438458|90
07.10.2018 03:00:00||AKTİFBANK|10.40.25.140|||110000438458|30
07.10.2018 03:00:00||AKTİFBANK|10.40.25.150|||110000438458|535
07.10.2018 03:00:00||AKTİFBANK|10.40.25.139|||110000438458|40
07.10.2018 03:00:00||AKTİFBANK|10.40.25.140|||110000438458|80
07.10.2018 03:00:00||AKTİFBANK|10.40.25.140|||110000438458|70
07.10.2018 03:00:00||AKTİFBANK|10.40.25.140|||110000438458|30
07.10.2018 03:00:00||AKTİFBANK|10.40.25.151|||110000438458|513
07.10.2018 03:00:00||AKTİFBANK|10.40.25.151|||110000438458|487
07.10.2018 03:00:00||AKTİFBANK|10.40.25.141|||110000438458|40
07.10.2018 03:00:00||AKTİFBANK|10.40.25.141|||110000438458|100
07.10.2018 03:00:00||AKTİFBANK|10.40.25.141|||110000438458|53
07.10.2018 03:00:00||AKTİFBANK|10.40.25.142|||110000438458|30
07.10.2018 03:00:00||AKTİFBANK|10.40.25.149|||110000438458|70
07.10.2018 03:00:00||AKTİFBANK|10.40.25.149|||110000438458|110
07.10.2018 03:00:00||AKTİFBANK|10.40.25.149|||110000438458|92
07.10.2018 03:00:00||AKTİFBANK|10.40.25.149|||110000438458|90
07.10.2018 03:00:00||AKTİFBANK|10.40.25.149|||110000438458|100
07.10.2018 03:00:00||AKTİFBANK|10.40.24.139|||110000438458|60
07.10.2018 03:00:00||AKTİFBANK|10.40.25.153|||110000438458|10
07.10.2018 03:00:00||AKTİFBANK|10.40.25.150|||110000438458|565
07.10.2018 03:00:00||AKTİFBANK|10.40.25.153|||110000438458|70
07.10.2018 03:00:00||AKTİFBANK|10.40.25.163|||110000438458|50
07.10.2018 03:00:00||AKTİFBANK|10.40.24.141|||110000438458|77
07.10.2018 03:00:00||AKTİFBANK|10.40.24.151|||110000438458|502
07.10.2018 03:00:00||AKTİFBANK|10.40.24.162|||110000438458|10
07.10.2018 03:00:00||AKTİFBANK|10.40.25.153|||110000438458|80
07.10.2018 03:00:00||AKTİFBANK|10.40.24.149|||110000438458|87
07.10.2018 03:00:00||AKTİFBANK|10.40.24.141|||110000438458|50
07.10.2018 03:00:00||AKTİFBANK|10.40.25.133|||110000438458|275
07.10.2018 03:00:00||AKTİFBANK|10.40.25.133|||110000438458|90
07.10.2018 03:00:00||AKTİFBANK|10.40.24.149|||110000438458|90
07.10.2018 03:00:00||AKTİFBANK|10.40.24.162|||110000438458|55
07.10.2018 03:00:00||AKTİFBANK|10.40.24.162|||110000438458|30
07.10.2018 03:00:00||AKTİFBANK|10.40.24.162|||110000438458|38
07.10.2018 03:00:00||AKTİFBANK|10.40.25.133|||110000438458|143
07.10.2018 03:00:00||AKTİFBANK|10.40.25.138|||110000438458|130
07.10.2018 03:00:00||AKTİFBANK|10.40.25.149|||110000438458|57
07.10.2018 03:00:00||AKTİFBANK|10.40.25.149|||110000438458|70
07.10.2018 03:00:00||AKTİFBANK|10.40.25.149|||110000438458|28
07.10.2018 03:00:00||AKTİFBANK|10.40.25.149|||110000438458|68
07.10.2018 03:00:00||AKTİFBANK|10.40.25.149|||110000438458|70
07.10.2018 03:00:00||AKTİFBANK|10.40.25.141|||110000438458|100
07.10.2018 03:00:00||AKTİFBANK|10.40.25.149|||110000438458|130
07.10.2018 03:00:00||AKTİFBANK|10.40.25.138|||110000438458|93
07.10.2018 03:00:00||AKTİFBANK|10.40.25.138|||110000438458|72
07.10.2018 03:00:00||AKTİFBANK|10.40.25.139|||110000438458|102
07.10.2018 03:00:00||AKTİFBANK|10.40.24.145|||110000438458|70
07.10.2018 03:00:00||AKTİFBANK|10.40.24.149|||110000438458|160
07.10.2018 03:00:00||AKTİFBANK|10.40.25.138|||110000438458|30
07.10.2018 03:00:00||AKTİFBANK|10.40.25.138|||110000438458|10
07.10.2018 03:00:00||AKTİFBANK|10.40.25.153|||110000438458|60
07.10.2018 03:00:00||AKTİFBANK|10.40.24.150|||110000438458|547
07.10.2018 03:00:00||AKTİFBANK|10.40.25.128|||110000438458|70
07.10.2018 03:00:00||AKTİFBANK|10.40.25.128|||110000438458|90
07.10.2018 03:00:00||AKTİFBANK|10.40.25.128|||110000438458|40
07.10.2018 03:00:00||AKTİFBANK|10.40.25.128|||110000438458|70
07.10.2018 03:00:00||AKTİFBANK|10.40.25.129|||110000438458|80
07.10.2018 03:00:00||AKTİFBANK|10.40.25.129|||110000438458|62
07.10.2018 03:00:00||AKTİFBANK|10.40.25.129|||110000438458|140
07.10.2018 03:00:00||AKTİFBANK|10.40.25.129|||110000438458|103
07.10.2018 03:00:00||AKTİFBANK|10.40.25.129|||110000438458|48
07.10.2018 03:00:00||AKTİFBANK|10.40.25.129|||110000438458|90
07.10.2018 03:00:00||AKTİFBANK|10.40.25.129|||110000438458|93
07.10.2018 03:00:00||AKTİFBANK|10.40.25.130|||110000438458|60
07.10.2018 03:00:00||AKTİFBANK|10.40.25.130|||110000438458|50
07.10.2018 03:00:00||AKTİFBANK|10.40.25.130|||110000438458|72
07.10.2018 03:00:00||AKTİFBANK|10.40.25.130|||110000438458|33
07.10.2018 03:00:00||AKTİFBANK|10.40.25.130|||110000438458|60
07.10.2018 03:00:00||AKTİFBANK|10.40.25.130|||110000438458|98
07.10.2018 03:00:00||AKTİFBANK|10.40.25.130|||110000438458|82
07.10.2018 03:00:00||AKTİFBANK|10.40.25.131|||110000438458|73
07.10.2018 03:00:00||AKTİFBANK|10.40.25.131|||110000438458|100
07.10.2018 03:00:00||AKTİFBANK|10.40.25.131|||110000438458|100
07.10.2018 03:00:00||AKTİFBANK|10.40.25.131|||110000438458|80
07.10.2018 03:00:00||AKTİFBANK|10.40.25.131|||110000438458|80
07.10.2018 03:00:00||AKTİFBANK|10.40.25.131|||110000438458|20
07.10.2018 03:00:00||AKTİFBANK|10.40.25.131|||110000438458|120
07.10.2018 03:00:00||AKTİFBANK|10.40.25.132|||110000438458|60
07.10.2018 03:00:00||AKTİFBANK|10.40.25.132|||110000438458|60
07.10.2018 03:00:00||AKTİFBANK|10.40.25.132|||110000438458|83
07.10.2018 03:00:00||AKTİFBANK|10.40.25.132|||110000438458|168
07.10.2018 03:00:00||AKTİFBANK|10.40.25.132|||110000438458|63
07.10.2018 03:00:00||AKTİFBANK|10.40.25.143|||110000438458|303
07.10.2018 03:00:00||AKTİFBANK|10.40.25.144|||110000438458|70
07.10.2018 03:00:00||AKTİFBANK|10.40.25.144|||110000438458|50
07.10.2018 03:00:00||AKTİFBANK|10.40.25.144|||110000438458|63
07.10.2018 03:00:00||AKTİFBANK|10.40.25.154|||110000438458|10
07.10.2018 03:00:00||AKTİFBANK|10.40.25.154|||110000438458|10
07.10.2018 03:00:00||AKTİFBANK|10.40.25.154|||110000438458|10
07.10.2018 03:00:00||AKTİFBANK|10.40.25.157|||110000438458|70
07.10.2018 03:00:00||AKTİFBANK|10.40.25.157|||110000438458|70
07.10.2018 03:00:00||AKTİFBANK|10.40.25.157|||110000438458|73
07.10.2018 03:00:00||AKTİFBANK|10.40.25.157|||110000438458|80
07.10.2018 03:00:00||AKTİFBANK|10.40.25.157|||110000438458|40
07.10.2018 03:00:00||AKTİFBANK|10.40.25.159|||110000438458|60
07.10.2018 03:00:00||AKTİFBANK|10.40.25.159|||110000438458|10
07.10.2018 03:00:00||AKTİFBANK|10.40.25.159|||110000438458|90
07.10.2018 03:00:00||AKTİFBANK|10.40.25.158|||110000438458|50
07.10.2018 03:00:00||AKTİFBANK|10.40.25.160|||110000438458|90
07.10.2018 03:00:00||AKTİFBANK|10.40.25.161|||110000438458|80
07.10.2018 03:00:00||AKTİFBANK|10.40.25.161|||110000438458|70
07.10.2018 03:00:00||AKTİFBANK|10.40.25.161|||110000438458|40
07.10.2018 03:00:00||AKTİFBANK|10.40.25.161|||110000438458|30
07.10.2018 03:00:00||AKTİFBANK|10.40.25.161|||110000438458|20
07.10.2018 03:00:00||AKTİFBANK|10.40.25.161|||110000438458|50
07.10.2018 03:00:00||AKTİFBANK|10.40.25.145|||110000438458|90
07.10.2018 03:00:00||AKTİFBANK|10.40.25.145|||110000438458|60
07.10.2018 03:00:00||AKTİFBANK|10.40.25.145|||110000438458|60
07.10.2018 03:00:00||AKTİFBANK|10.40.25.145|||110000438458|30
07.10.2018 03:00:00||AKTİFBANK|10.40.25.145|||110000438458|50
07.10.2018 03:00:00||AKTİFBANK|10.40.25.147|||110000438458|90
07.10.2018 03:00:00||AKTİFBANK|10.40.25.162|||110000438458|30
07.10.2018 03:00:00||AKTİFBANK|10.40.25.162|||110000438458|30
07.10.2018 03:00:00||AKTİFBANK|10.40.25.162|||110000438458|60
07.10.2018 03:00:00||AKTİFBANK|10.40.25.164|||110000438458|60
07.10.2018 03:00:00||AKTİFBANK|10.40.25.164|||110000438458|280
07.10.2018 03:00:00||AKTİFBANK|10.40.25.164|||110000438458|50
07.10.2018 03:00:00||AKTİFBANK|10.40.25.164|||110000438458|260
07.10.2018 03:00:00||AKTİFBANK|10.40.25.164|||110000438458|270
07.10.2018 03:00:00||AKTİFBANK|10.40.25.165|||110000438458|140
07.10.2018 03:00:00||AKTİFBANK|10.40.25.165|||110000438458|72
07.10.2018 03:00:00||AKTİFBANK|10.40.25.165|||110000438458|70
07.10.2018 03:00:00||AKTİFBANK|10.40.25.165|||110000438458|100
07.10.2018 03:00:00||AKTİFBANK|10.40.25.166|||110000438458|40
07.10.2018 03:00:00||AKTİFBANK|10.40.25.166|||110000438458|90
07.10.2018 03:00:00||AKTİFBANK|10.40.25.148|||110000438458|130
07.10.2018 03:00:00||AKTİFBANK|10.40.25.148|||110000438458|50
07.10.2018 03:00:00||AKTİFBANK|10.40.25.148|||110000438458|100
07.10.2018 03:00:00||AKTİFBANK|10.40.25.148|||110000438458|130
07.10.2018 03:00:00||AKTİFBANK|10.40.25.148|||110000438458|90
07.10.2018 03:00:00||AKTİFBANK|10.40.25.148|||110000438458|80
07.10.2018 03:00:00||AKTİFBANK|10.40.25.148|||110000438458|70
07.10.2018 03:00:00||AKTİFBANK|10.40.25.148|||110000438458|50
07.10.2018 03:00:00||AKTİFBANK|10.40.25.148|||110000438458|80
07.10.2018 03:00:00||AKTİFBANK|10.40.25.148|||110000438458|40
07.10.2018 03:00:00||AKTİFBANK|10.40.25.148|||110000438458|100
07.10.2018 03:00:00||AKTİFBANK|10.40.25.148|||110000438458|60
07.10.2018 03:00:00||AKTİFBANK|10.40.25.155|||110000438458|70
07.10.2018 03:00:00||AKTİFBANK|10.40.25.155|||110000438458|92
07.10.2018 03:00:00||AKTİFBANK|10.40.25.155|||110000438458|103
07.10.2018 03:00:00||AKTİFBANK|10.40.25.155|||110000438458|120
07.10.2018 03:00:00||AKTİFBANK|10.40.25.155|||110000438458|103
07.10.2018 03:00:00||AKTİFBANK|10.40.25.139|||110000438458|72
07.10.2018 03:00:00||AKTİFBANK|10.40.25.139|||110000438458|80
07.10.2018 03:00:00||AKTİFBANK|10.40.25.150|||110000438458|518
07.10.2018 03:00:00||AKTİFBANK|10.40.25.129|||110000438458|60
07.10.2018 03:00:00||AKTİFBANK|10.40.25.129|||110000438458|83
07.10.2018 03:00:00||AKTİFBANK|10.40.25.129|||110000438458|142
07.10.2018 03:00:00||AKTİFBANK|10.40.25.130|||110000438458|60
07.10.2018 03:00:00||AKTİFBANK|10.40.25.130|||110000438458|123
07.10.2018 03:00:00||AKTİFBANK|10.40.25.130|||110000438458|100
07.10.2018 03:00:00||AKTİFBANK|10.40.25.131|||110000438458|48
07.10.2018 03:00:00||AKTİFBANK|10.40.25.143|||110000438458|60
07.10.2018 03:00:00||AKTİFBANK|10.40.25.143|||110000438458|240
07.10.2018 03:00:00||AKTİFBANK|10.40.25.143|||110000438458|253
07.10.2018 03:00:00||AKTİFBANK|10.40.25.158|||110000438458|100
07.10.2018 03:00:00||AKTİFBANK|10.40.25.160|||110000438458|110
07.10.2018 03:00:00||AKTİFBANK|10.40.25.162|||110000438458|40
07.10.2018 03:00:00||AKTİFBANK|10.40.25.162|||110000438458|32
07.10.2018 03:00:00||AKTİFBANK|10.40.25.162|||110000438458|42
07.10.2018 03:00:00||AKTİFBANK|10.40.24.140|||110000438458|22
07.10.2018 03:00:00||AKTİFBANK|10.40.24.140|||110000438458|80
07.10.2018 03:00:00||AKTİFBANK|10.40.24.140|||110000438458|40
07.10.2018 03:00:00||AKTİFBANK|10.40.24.140|||110000438458|30
07.10.2018 03:00:00||AKTİFBANK|10.40.24.140|||110000438458|30
07.10.2018 03:00:00||AKTİFBANK|10.40.24.140|||110000438458|50
07.10.2018 03:00:00||AKTİFBANK|10.40.24.140|||110000438458|40
07.10.2018 03:00:00||AKTİFBANK|10.40.24.140|||110000438458|18
07.10.2018 03:00:00||AKTİFBANK|10.40.24.140|||110000438458|27
07.10.2018 03:00:00||AKTİFBANK|10.40.24.149|||110000438458|80
07.10.2018 03:00:00||AKTİFBANK|10.40.24.149|||110000438458|118
07.10.2018 03:00:00||AKTİFBANK|10.40.24.149|||110000438458|93
07.10.2018 03:00:00||AKTİFBANK|10.40.24.149|||110000438458|57
07.10.2018 03:00:00||AKTİFBANK|10.40.24.149|||110000438458|50
07.10.2018 03:00:00||AKTİFBANK|10.40.24.149|||110000438458|138
07.10.2018 03:00:00||AKTİFBANK|10.40.24.149|||110000438458|90
07.10.2018 03:00:00||AKTİFBANK|10.40.24.149|||110000438458|90
07.10.2018 03:00:00||AKTİFBANK|10.40.24.149|||110000438458|92
07.10.2018 03:00:00||AKTİFBANK|10.40.24.149|||110000438458|80
07.10.2018 03:00:00||AKTİFBANK|10.40.24.133|||110000438458|142
07.10.2018 03:00:00||AKTİFBANK|10.40.24.133|||110000438458|120
07.10.2018 03:00:00||AKTİFBANK|10.40.24.133|||110000438458|87
07.10.2018 03:00:00||AKTİFBANK|10.40.24.138|||110000438458|113
07.10.2018 03:00:00||AKTİFBANK|10.40.24.138|||110000438458|130
07.10.2018 03:00:00||AKTİFBANK|10.40.24.138|||110000438458|110
07.10.2018 03:00:00||AKTİFBANK|10.40.24.138|||110000438458|30
07.10.2018 03:00:00||AKTİFBANK|10.40.24.138|||110000438458|50
07.10.2018 03:00:00||AKTİFBANK|10.40.24.139|||110000438458|40
07.10.2018 03:00:00||AKTİFBANK|10.40.24.139|||110000438458|50
07.10.2018 03:00:00||AKTİFBANK|10.40.24.139|||110000438458|92
07.10.2018 03:00:00||AKTİFBANK|10.40.24.139|||110000438458|120
07.10.2018 03:00:00||AKTİFBANK|10.40.24.141|||110000438458|202
07.10.2018 03:00:00||AKTİFBANK|10.40.24.141|||110000438458|100
07.10.2018 03:00:00||AKTİFBANK|10.40.24.141|||110000438458|100
07.10.2018 03:00:00||AKTİFBANK|10.40.24.141|||110000438458|72
07.10.2018 03:00:00||AKTİFBANK|10.40.24.141|||110000438458|80
07.10.2018 03:00:00||AKTİFBANK|10.40.25.152|||110000438458|102
07.10.2018 03:00:00||AKTİFBANK|10.40.25.152|||110000438458|40
07.10.2018 03:00:00||AKTİFBANK|10.40.25.152|||110000438458|113
07.10.2018 03:00:00||AKTİFBANK|10.40.25.152|||110000438458|70
07.10.2018 03:00:00||AKTİFBANK|10.40.25.152|||110000438458|90
07.10.2018 03:00:00||AKTİFBANK|10.40.25.152|||110000438458|53
07.10.2018 03:00:00||AKTİFBANK|10.40.25.152|||110000438458|93
07.10.2018 03:00:00||AKTİFBANK|10.40.25.152|||110000438458|30
07.10.2018 03:00:00||AKTİFBANK|10.40.25.152|||110000438458|80
07.10.2018 03:00:00||AKTİFBANK|10.40.25.152|||110000438458|30
07.10.2018 03:00:00||AKTİFBANK|10.40.24.150|||110000438458|550
07.10.2018 03:00:00||AKTİFBANK|10.40.24.151|||110000438458|508
07.10.2018 03:00:00||AKTİFBANK|10.40.24.151|||110000438458|520
07.10.2018 03:00:00||AKTİFBANK|10.40.24.128|||110000438458|150
07.10.2018 03:00:00||AKTİFBANK|10.40.24.128|||110000438458|70
07.10.2018 03:00:00||AKTİFBANK|10.40.24.128|||110000438458|98
07.10.2018 03:00:00||AKTİFBANK|10.40.24.128|||110000438458|40
07.10.2018 03:00:00||AKTİFBANK|10.40.24.128|||110000438458|70
07.10.2018 03:00:00||AKTİFBANK|10.40.24.128|||110000438458|50
07.10.2018 03:00:00||AKTİFBANK|10.40.24.129|||110000438458|98
07.10.2018 03:00:00||AKTİFBANK|10.40.24.129|||110000438458|65
07.10.2018 03:00:00||AKTİFBANK|10.40.24.129|||110000438458|108
07.10.2018 03:00:00||AKTİFBANK|10.40.24.129|||110000438458|118
07.10.2018 03:00:00||AKTİFBANK|10.40.24.129|||110000438458|30
07.10.2018 03:00:00||AKTİFBANK|10.40.24.129|||110000438458|70
07.10.2018 03:00:00||AKTİFBANK|10.40.24.129|||110000438458|70
07.10.2018 03:00:00||AKTİFBANK|10.40.24.129|||110000438458|90
07.10.2018 03:00:00||AKTİFBANK|10.40.24.129|||110000438458|82
07.10.2018 03:00:00||AKTİFBANK|10.40.24.129|||110000438458|142
07.10.2018 03:00:00||AKTİFBANK|10.40.24.130|||110000438458|43
07.10.2018 03:00:00||AKTİFBANK|10.40.24.130|||110000438458|40
07.10.2018 03:00:00||AKTİFBANK|10.40.24.130|||110000438458|68
07.10.2018 03:00:00||AKTİFBANK|10.40.24.130|||110000438458|42
07.10.2018 03:00:00||AKTİFBANK|10.40.24.130|||110000438458|60
07.10.2018 03:00:00||AKTİFBANK|10.40.24.130|||110000438458|72
07.10.2018 03:00:00||AKTİFBANK|10.40.24.130|||110000438458|87
07.10.2018 03:00:00||AKTİFBANK|10.40.24.130|||110000438458|37
07.10.2018 03:00:00||AKTİFBANK|10.40.24.130|||110000438458|130
07.10.2018 03:00:00||AKTİFBANK|10.40.24.130|||110000438458|110
07.10.2018 03:00:00||AKTİFBANK|10.40.24.131|||110000438458|13
07.10.2018 03:00:00||AKTİFBANK|10.40.24.131|||110000438458|83
07.10.2018 03:00:00||AKTİFBANK|10.40.24.131|||110000438458|90
07.10.2018 03:00:00||AKTİFBANK|10.40.24.131|||110000438458|110
07.10.2018 03:00:00||AKTİFBANK|10.40.24.131|||110000438458|107
07.10.2018 03:00:00||AKTİFBANK|10.40.24.131|||110000438458|20
07.10.2018 03:00:00||AKTİFBANK|10.40.24.131|||110000438458|160
07.10.2018 03:00:00||AKTİFBANK|10.40.24.131|||110000438458|60
07.10.2018 03:00:00||AKTİFBANK|10.40.24.131|||110000438458|110
07.10.2018 03:00:00||AKTİFBANK|10.40.24.132|||110000438458|40
07.10.2018 03:00:00||AKTİFBANK|10.40.24.132|||110000438458|80
07.10.2018 03:00:00||AKTİFBANK|10.40.24.132|||110000438458|50
07.10.2018 03:00:00||AKTİFBANK|10.40.24.132|||110000438458|180
07.10.2018 03:00:00||AKTİFBANK|10.40.24.132|||110000438458|70
07.10.2018 03:00:00||AKTİFBANK|10.40.24.143|||110000438458|70
07.10.2018 03:00:00||AKTİFBANK|10.40.24.143|||110000438458|270
07.10.2018 03:00:00||AKTİFBANK|10.40.24.143|||110000438458|320
07.10.2018 03:00:00||AKTİFBANK|10.40.24.143|||110000438458|202
07.10.2018 03:00:00||AKTİFBANK|10.40.24.144|||110000438458|80
07.10.2018 03:00:00||AKTİFBANK|10.40.24.144|||110000438458|103
07.10.2018 03:00:00||AKTİFBANK|10.40.24.144|||110000438458|85
07.10.2018 03:00:00||AKTİFBANK|10.40.24.148|||110000438458|52
07.10.2018 03:00:00||AKTİFBANK|10.40.24.148|||110000438458|168
07.10.2018 03:00:00||AKTİFBANK|10.40.24.148|||110000438458|80
07.10.2018 03:00:00||AKTİFBANK|10.40.24.148|||110000438458|110
07.10.2018 03:00:00||AKTİFBANK|10.40.24.148|||110000438458|83
07.10.2018 03:00:00||AKTİFBANK|10.40.24.148|||110000438458|80
07.10.2018 03:00:00||AKTİFBANK|10.40.24.148|||110000438458|92
07.10.2018 03:00:00||AKTİFBANK|10.40.24.148|||110000438458|100
07.10.2018 03:00:00||AKTİFBANK|10.40.24.148|||110000438458|73
07.10.2018 03:00:00||AKTİFBANK|10.40.24.148|||110000438458|50
07.10.2018 03:00:00||AKTİFBANK|10.40.24.148|||110000438458|30
07.10.2018 03:00:00||AKTİFBANK|10.40.24.148|||110000438458|72
07.10.2018 03:00:00||AKTİFBANK|10.40.24.153|||110000438458|10
07.10.2018 03:00:00||AKTİFBANK|10.40.24.153|||110000438458|90
07.10.2018 03:00:00||AKTİFBANK|10.40.24.153|||110000438458|72
07.10.2018 03:00:00||AKTİFBANK|10.40.24.153|||110000438458|78
07.10.2018 03:00:00||AKTİFBANK|10.40.24.157|||110000438458|30
07.10.2018 03:00:00||AKTİFBANK|10.40.24.157|||110000438458|73
07.10.2018 03:00:00||AKTİFBANK|10.40.24.157|||110000438458|70
07.10.2018 03:00:00||AKTİFBANK|10.40.24.157|||110000438458|42
07.10.2018 03:00:00||AKTİFBANK|10.40.24.157|||110000438458|80
07.10.2018 03:00:00||AKTİFBANK|10.40.24.157|||110000438458|45
07.10.2018 03:00:00||AKTİFBANK|10.40.24.158|||110000438458|110
07.10.2018 03:00:00||AKTİFBANK|10.40.24.158|||110000438458|110
07.10.2018 03:00:00||AKTİFBANK|10.40.24.158|||110000438458|130
07.10.2018 03:00:00||AKTİFBANK|10.40.24.158|||110000438458|80
07.10.2018 03:00:00||AKTİFBANK|10.40.24.158|||110000438458|113
07.10.2018 03:00:00||AKTİFBANK|10.40.24.159|||110000438458|130
07.10.2018 03:00:00||AKTİFBANK|10.40.24.159|||110000438458|52
07.10.2018 03:00:00||AKTİFBANK|10.40.24.159|||110000438458|182
07.10.2018 03:00:00||AKTİFBANK|10.40.24.160|||110000438458|10
07.10.2018 03:00:00||AKTİFBANK|10.40.24.160|||110000438458|3
07.10.2018 03:00:00||AKTİFBANK|10.40.24.160|||110000438458|90
07.10.2018 03:00:00||AKTİFBANK|10.40.24.160|||110000438458|100
07.10.2018 03:00:00||AKTİFBANK|10.40.24.161|||110000438458|180
07.10.2018 03:00:00||AKTİFBANK|10.40.24.161|||110000438458|80
07.10.2018 03:00:00||AKTİFBANK|10.40.24.161|||110000438458|40
07.10.2018 03:00:00||AKTİFBANK|10.40.24.161|||110000438458|30
07.10.2018 03:00:00||AKTİFBANK|10.40.24.161|||110000438458|30
07.10.2018 03:00:00||AKTİFBANK|10.40.24.161|||110000438458|20
07.10.2018 03:00:00||AKTİFBANK|10.40.24.161|||110000438458|90
07.10.2018 03:00:00||AKTİFBANK|10.40.24.145|||110000438458|20
07.10.2018 03:00:00||AKTİFBANK|10.40.24.145|||110000438458|90
07.10.2018 03:00:00||AKTİFBANK|10.40.24.145|||110000438458|60
07.10.2018 03:00:00||AKTİFBANK|10.40.24.147|||110000438458|90
07.10.2018 03:00:00||AKTİFBANK|10.40.24.162|||110000438458|80
07.10.2018 03:00:00||AKTİFBANK|10.40.24.162|||110000438458|55
07.10.2018 03:00:00||AKTİFBANK|10.40.24.162|||110000438458|40
07.10.2018 03:00:00||AKTİFBANK|10.40.24.162|||110000438458|40
07.10.2018 03:00:00||AKTİFBANK|10.40.24.162|||110000438458|62
07.10.2018 03:00:00||AKTİFBANK|10.40.24.162|||110000438458|10
07.10.2018 03:00:00||AKTİFBANK|10.40.24.162|||110000438458|50
07.10.2018 03:00:00||AKTİFBANK|10.40.24.163|||110000438458|30
07.10.2018 03:00:00||AKTİFBANK|10.40.24.163|||110000438458|73
07.10.2018 03:00:00||AKTİFBANK|10.40.24.164|||110000438458|57
07.10.2018 03:00:00||AKTİFBANK|10.40.24.164|||110000438458|330
07.10.2018 03:00:00||AKTİFBANK|10.40.24.164|||110000438458|210
07.10.2018 03:00:00||AKTİFBANK|10.40.24.165|||110000438458|80
07.10.2018 03:00:00||AKTİFBANK|10.40.24.165|||110000438458|80
07.10.2018 03:00:00||AKTİFBANK|10.40.24.165|||110000438458|120
07.10.2018 03:00:00||AKTİFBANK|10.40.24.166|||110000438458|80
07.10.2018 03:00:00||AKTİFBANK|10.40.24.166|||110000438458|90
07.10.2018 03:00:00||AKTİFBANK|10.40.24.166|||110000438458|10
07.10.2018 03:00:00||AKTİFBANK|10.40.24.166|||110000438458|10
07.10.2018 03:00:00||AKTİFBANK|10.40.24.166|||110000438458|10
07.10.2018 03:00:00||AKTİFBANK|10.40.25.168|||110000438458|90
07.10.2018 03:00:00||AKTİFBANK|10.40.25.168|||110000438458|70
07.10.2018 03:00:00||AKTİFBANK|10.40.25.168|||110000438458|50
07.10.2018 03:00:00||AKTİFBANK|10.40.25.168|||110000438458|40
07.10.2018 03:00:00||AKTİFBANK|10.40.25.168|||110000438458|60
07.10.2018 03:00:00||AKTİFBANK|10.40.24.168|||110000438458|90
07.10.2018 03:00:00||AKTİFBANK|10.40.24.168|||110000438458|38
07.10.2018 03:00:00||AKTİFBANK|10.40.24.168|||110000438458|80
07.10.2018 03:00:00||AKTİFBANK|10.40.24.168|||110000438458|70
07.10.2018 03:00:00||AKTİFBANK|10.40.24.168|||110000438458|70
07.10.2018 03:00:00||AKTİFBANK|10.40.24.168|||110000438458|30
07.10.2018 03:00:00||AKTİFBANK|10.40.24.154|||110000438458|70
07.10.2018 03:00:00||AKTİFBANK|10.40.24.154|||110000438458|20
07.10.2018 03:00:00||AKTİFBANK|10.40.24.154|||110000438458|10
07.10.2018 03:00:00||AKTİFBANK|10.40.24.154|||110000438458|10
07.10.2018 03:00:00||AKTİFBANK|10.40.24.154|||110000438458|10
07.10.2018 03:00:00||AKTİFBANK|10.40.24.154|||110000438458|10
07.10.2018 03:00:00||AKTİFBANK|10.40.24.155|||110000438458|100
07.10.2018 03:00:00||AKTİFBANK|10.40.24.155|||110000438458|130
07.10.2018 03:00:00||AKTİFBANK|10.40.24.155|||110000438458|80
07.10.2018 03:00:00||AKTİFBANK|10.40.24.155|||110000438458|112
07.10.2018 03:00:00||AKTİFBANK|10.40.24.155|||110000438458|100
07.10.2018 03:00:00||AKTİFBANK|10.40.25.169|||110000438458|92
07.10.2018 03:00:00||AKTİFBANK|10.40.25.169|||110000438458|118
07.10.2018 03:00:00||AKTİFBANK|10.40.25.169|||110000438458|70
07.10.2018 03:00:00||AKTİFBANK|10.40.25.169|||110000438458|80
07.10.2018 03:00:00||AKTİFBANK|10.40.24.169|||110000438458|67
07.10.2018 03:00:00||AKTİFBANK|10.40.24.169|||110000438458|88
07.10.2018 03:00:00||AKTİFBANK|10.40.24.169|||110000438458|87
07.10.2018 03:00:00||AKTİFBANK|10.40.24.169|||110000438458|80
07.10.2018 03:00:00||AKTİFBANK|10.40.25.170|||110000438458|30
07.10.2018 03:00:00||AKTİFBANK|10.40.25.170|||110000438458|30
07.10.2018 03:00:00||AKTİFBANK|10.40.25.170|||110000438458|150
07.10.2018 03:00:00||AKTİFBANK|10.40.25.170|||110000438458|203
07.10.2018 03:00:00||AKTİFBANK|10.40.25.170|||110000438458|107
07.10.2018 03:00:00||AKTİFBANK|10.40.25.170|||110000438458|80
07.10.2018 03:00:00||AKTİFBANK|10.40.25.170|||110000438458|122
07.10.2018 03:00:00||AKTİFBANK|10.40.24.170|||110000438458|60
07.10.2018 03:00:00||AKTİFBANK|10.40.24.170|||110000438458|60
07.10.2018 03:00:00||AKTİFBANK|10.40.24.170|||110000438458|265
07.10.2018 03:00:00||AKTİFBANK|10.40.24.170|||110000438458|75
07.10.2018 03:00:00||AKTİFBANK|10.40.24.170|||110000438458|78
07.10.2018 03:00:00||AKTİFBANK|10.40.24.170|||110000438458|103
07.10.2018 03:00:00||AKTİFBANK|10.40.24.170|||110000438458|62
07.10.2018 03:00:00||AKTİFBANK|10.40.25.178|||110000438458|545
07.10.2018 03:00:00||AKTİFBANK|10.40.25.178|||110000438458|545
07.10.2018 03:00:00||AKTİFBANK|10.40.25.178|||110000438458|547
07.10.2018 03:00:00||AKTİFBANK|10.40.24.178|||110000438458|538
07.10.2018 03:00:00||AKTİFBANK|10.40.24.178|||110000438458|528
07.10.2018 03:00:00||AKTİFBANK|10.40.24.178|||110000438458|527
07.10.2018 03:00:00||AKTİFBANK|10.40.25.179|||110000438458|393
07.10.2018 03:00:00||AKTİFBANK|10.40.25.179|||110000438458|317
07.10.2018 03:00:00||AKTİFBANK|10.40.25.179|||110000438458|310
07.10.2018 03:00:00||AKTİFBANK|10.40.24.179|||110000438458|368
07.10.2018 03:00:00||AKTİFBANK|10.40.24.179|||110000438458|363
07.10.2018 03:00:00||AKTİFBANK|10.40.24.179|||110000438458|373
07.10.2018 03:00:00||AKTİFBANK|10.40.24.142|||110000438458|70
07.10.2018 03:00:00||AKTİFBANK|10.40.24.142|||110000438458|40
07.10.2018 03:00:00||AKTİFBANK|10.40.25.186|||110000438458|90
07.10.2018 03:00:00||AKTİFBANK|10.40.25.186|||110000438458|20
07.10.2018 03:00:00||AKTİFBANK|10.40.25.186|||110000438458|70
07.10.2018 03:00:00||AKTİFBANK|10.40.24.186|||110000438458|90
07.10.2018 03:00:00||AKTİFBANK|10.40.24.186|||110000438458|20
07.10.2018 03:00:00||AKTİFBANK|10.40.24.186|||110000438458|58
07.10.2018 03:00:00||AKTİFBANK|10.40.24.186|||110000438458|40
07.10.2018 03:00:00||AKTİFBANK|10.40.24.152|||110000438458|20
07.10.2018 03:00:00||AKTİFBANK|10.40.24.152|||110000438458|50
07.10.2018 03:00:00||AKTİFBANK|10.40.24.152|||110000438458|85
07.10.2018 03:00:00||AKTİFBANK|10.40.24.152|||110000438458|103
07.10.2018 03:00:00||AKTİFBANK|10.40.24.152|||110000438458|100
07.10.2018 03:00:00||AKTİFBANK|10.40.24.152|||110000438458|103
07.10.2018 03:00:00||AKTİFBANK|10.40.24.152|||110000438458|320
07.10.2018 03:00:00||AKTİFBANK|10.40.24.152|||110000438458|73
07.10.2018 03:00:00||AKTİFBANK|10.40.24.152|||110000438458|92
07.10.2018 03:00:00||AKTİFBANK|10.40.24.152|||110000438458|30
07.10.2018 03:00:00||AKTİFBANK|10.40.24.152|||110000438458|75
07.10.2018 03:00:00||AKTİFBANK|10.40.24.152|||110000438458|30
07.10.2018 03:00:00||BARİKAT İNTERNET GÜVENLİĞİ|10.40.25.201|||110000479736|118
07.10.2018 03:00:00||BARİKAT İNTERNET GÜVENLİĞİ|10.40.25.201|||110000479736|100
07.10.2018 03:00:00||BARİKAT İNTERNET GÜVENLİĞİ|10.40.24.201|||110000479736|130
07.10.2018 03:00:00||BARİKAT İNTERNET GÜVENLİĞİ|10.40.24.201|||110000479736|93
07.10.2018 03:00:00||BOYNER|10.40.26.100|||101367941673|57
07.10.2018 03:00:00||BOYNER|10.40.26.101|||101367941673|157
07.10.2018 03:00:00||BOYNER|10.40.27.100|||101367941673|51
07.10.2018 03:00:00||BOYNER|10.40.27.101|||101367941673|165
07.10.2018 03:00:00||BOYNER|10.40.27.94|||101367941673|210
07.10.2018 03:00:00||BOYNER|10.40.27.94|||101367941673|90
07.10.2018 03:00:00||BOYNER|10.40.27.94|||101367941673|90
07.10.2018 03:00:00||BOYNER|10.40.27.94|||101367941673|100
07.10.2018 03:00:00||BOYNER|10.40.26.94|||101367941673|90
07.10.2018 03:00:00||BOYNER|10.40.26.94|||101367941673|80
07.10.2018 03:00:00||BOYNER|10.40.26.94|||101367941673|80
07.10.2018 03:00:00||BOYNER|10.40.27.95|||101367941673|135
07.10.2018 03:00:00||BOYNER|10.40.27.95|||101367941673|130
07.10.2018 03:00:00||BOYNER|10.40.27.95|||101367941673|233
07.10.2018 03:00:00||BOYNER|10.40.26.95|||101367941673|132
07.10.2018 03:00:00||BOYNER|10.40.26.95|||101367941673|200
07.10.2018 03:00:00||BOYNER|10.40.26.95|||101367941673|140
07.10.2018 03:00:00||BOYNER|10.40.27.96|||101367941673|60
07.10.2018 03:00:00||BOYNER|10.40.27.96|||101367941673|50
07.10.2018 03:00:00||BOYNER|10.40.27.96|||101367941673|50
07.10.2018 03:00:00||BOYNER|10.40.27.96|||101367941673|40
07.10.2018 03:00:00||BOYNER|10.40.27.96|||101367941673|40
07.10.2018 03:00:00||BOYNER|10.40.27.96|||101367941673|150
07.10.2018 03:00:00||BOYNER|10.40.27.96|||101367941673|153
07.10.2018 03:00:00||BOYNER|10.40.27.96|||101367941673|177
07.10.2018 03:00:00||BOYNER|10.40.27.96|||101367941673|173
07.10.2018 03:00:00||BOYNER|10.40.26.96|||101367941673|30
07.10.2018 03:00:00||BOYNER|10.40.26.96|||101367941673|40
07.10.2018 03:00:00||BOYNER|10.40.26.96|||101367941673|30
07.10.2018 03:00:00||BOYNER|10.40.26.96|||101367941673|40
07.10.2018 03:00:00||BOYNER|10.40.26.96|||101367941673|40
07.10.2018 03:00:00||BOYNER|10.40.26.96|||101367941673|50
07.10.2018 03:00:00||BOYNER|10.40.26.96|||101367941673|193
07.10.2018 03:00:00||BOYNER|10.40.26.96|||101367941673|203
07.10.2018 03:00:00||BOYNER|10.40.26.96|||101367941673|167
07.10.2018 03:00:00||BOYNER|10.40.26.96|||101367941673|182
07.10.2018 03:00:00||BOYNER|10.40.27.97|||101367941673|60
07.10.2018 03:00:00||BOYNER|10.40.27.97|||101367941673|643
07.10.2018 03:00:00||BOYNER|10.40.27.97|||101367941673|645
07.10.2018 03:00:00||BOYNER|10.40.27.97|||101367941673|678
07.10.2018 03:00:00||BOYNER|10.40.27.97|||101367941673|50
07.10.2018 03:00:00||BOYNER|10.40.27.97|||101367941673|33
07.10.2018 03:00:00||BOYNER|10.40.27.97|||101367941673|50
07.10.2018 03:00:00||BOYNER|10.40.27.97|||101367941673|30
07.10.2018 03:00:00||BOYNER|10.40.27.97|||101367941673|173
07.10.2018 03:00:00||BOYNER|10.40.27.97|||101367941673|172
07.10.2018 03:00:00||BOYNER|10.40.27.97|||101367941673|187
07.10.2018 03:00:00||BOYNER|10.40.27.97|||101367941673|198
07.10.2018 03:00:00||BOYNER|10.40.26.97|||101367941673|30
07.10.2018 03:00:00||BOYNER|10.40.26.97|||101367941673|645
07.10.2018 03:00:00||BOYNER|10.40.26.97|||101367941673|642
07.10.2018 03:00:00||BOYNER|10.40.26.97|||101367941673|650
07.10.2018 03:00:00||BOYNER|10.40.26.97|||101367941673|30
07.10.2018 03:00:00||BOYNER|10.40.26.97|||101367941673|40
07.10.2018 03:00:00||BOYNER|10.40.26.97|||101367941673|52
07.10.2018 03:00:00||BOYNER|10.40.26.97|||101367941673|60
07.10.2018 03:00:00||BOYNER|10.40.26.97|||101367941673|30
07.10.2018 03:00:00||BOYNER|10.40.26.97|||101367941673|160
07.10.2018 03:00:00||BOYNER|10.40.26.97|||101367941673|175
07.10.2018 03:00:00||BOYNER|10.40.26.97|||101367941673|165
07.10.2018 03:00:00||BOYNER|10.40.26.97|||101367941673|158
07.10.2018 03:00:00||BOYNER|10.40.27.99|||101367941673|123
07.10.2018 03:00:00||BOYNER|10.40.27.99|||101367941673|83
07.10.2018 03:00:00||BOYNER|10.40.27.99|||101367941673|73
07.10.2018 03:00:00||BOYNER|10.40.26.99|||101367941673|12
07.10.2018 03:00:00||BOYNER|10.40.26.99|||101367941673|117
07.10.2018 03:00:00||BOYNER|10.40.26.99|||101367941673|93
07.10.2018 03:00:00||BOYNER|10.40.26.99|||101367941673|63
07.10.2018 03:00:00||ÇALIK HOLDİNG|10.40.24.118|||110000438407|43
07.10.2018 03:00:00||ÇALIK HOLDİNG|10.40.25.99|||110000438407|136
07.10.2018 03:00:00||ÇALIK HOLDİNG|10.40.25.118|||110000438407|160
07.10.2018 03:00:00||ÇALIK HOLDİNG|10.40.25.120|||110000438407|90
07.10.2018 03:00:00||ÇALIK HOLDİNG|10.40.24.95|||110000438407|50
07.10.2018 03:00:00||ÇALIK HOLDİNG|10.40.25.97|||110000438407|80
07.10.2018 03:00:00||ÇALIK HOLDİNG|10.40.25.103|||110000438407|90
07.10.2018 03:00:00||ÇALIK HOLDİNG|10.40.25.120|||110000438407|58
07.10.2018 03:00:00||ÇALIK HOLDİNG|10.40.25.96|||110000438407|70
07.10.2018 03:00:00||ÇALIK HOLDİNG|10.40.25.96|||110000438407|90
07.10.2018 03:00:00||ÇALIK HOLDİNG|10.40.25.96|||110000438407|127
07.10.2018 03:00:00||ÇALIK HOLDİNG|10.40.25.96|||110000438407|90
07.10.2018 03:00:00||ÇALIK HOLDİNG|10.40.25.115|||110000438407|158
07.10.2018 03:00:00||ÇALIK HOLDİNG|10.40.25.115|||110000438407|70
07.10.2018 03:00:00||ÇALIK HOLDİNG|10.40.25.95|||110000438407|93
07.10.2018 03:00:00||ÇALIK HOLDİNG|10.40.25.96|||110000438407|90
07.10.2018 03:00:00||ÇALIK HOLDİNG|10.40.25.96|||110000438407|100
07.10.2018 03:00:00||ÇALIK HOLDİNG|10.40.25.120|||110000438407|20
07.10.2018 03:00:00||ÇALIK HOLDİNG|10.40.25.95|||110000438407|48
07.10.2018 03:00:00||ÇALIK HOLDİNG|10.40.24.94|||110000438407|203
07.10.2018 03:00:00||ÇALIK HOLDİNG|10.40.25.97|||110000438407|103
07.10.2018 03:00:00||ÇALIK HOLDİNG|10.40.25.120|||110000438407|60
07.10.2018 03:00:00||ÇALIK HOLDİNG|10.40.25.115|||110000438407|80
07.10.2018 03:00:00||ÇALIK HOLDİNG|10.40.25.115|||110000438407|70
07.10.2018 03:00:00||ÇALIK HOLDİNG|10.40.25.115|||110000438407|68
07.10.2018 03:00:00||ÇALIK HOLDİNG|10.40.25.101|||110000438407|50
07.10.2018 03:00:00||ÇALIK HOLDİNG|10.40.25.101|||110000438407|110
07.10.2018 03:00:00||ÇALIK HOLDİNG|10.40.25.101|||110000438407|32
07.10.2018 03:00:00||ÇALIK HOLDİNG|10.40.25.101|||110000438407|10
07.10.2018 03:00:00||ÇALIK HOLDİNG|10.40.25.101|||110000438407|77
07.10.2018 03:00:00||ÇALIK HOLDİNG|10.40.25.101|||110000438407|35
07.10.2018 03:00:00||ÇALIK HOLDİNG|10.40.25.101|||110000438407|40
07.10.2018 03:00:00||ÇALIK HOLDİNG|10.40.25.101|||110000438407|90
07.10.2018 03:00:00||ÇALIK HOLDİNG|10.40.25.101|||110000438407|90
07.10.2018 03:00:00||ÇALIK HOLDİNG|10.40.25.101|||110000438407|90
07.10.2018 03:00:00||ÇALIK HOLDİNG|10.40.25.94|||110000438407|180
07.10.2018 03:00:00||ÇALIK HOLDİNG|10.40.25.94|||110000438407|180
07.10.2018 03:00:00||ÇALIK HOLDİNG|10.40.25.94|||110000438407|170
07.10.2018 03:00:00||ÇALIK HOLDİNG|10.40.25.94|||110000438407|180
07.10.2018 03:00:00||ÇALIK HOLDİNG|10.40.24.94|||110000438407|205
07.10.2018 03:00:00||ÇALIK HOLDİNG|10.40.24.94|||110000438407|187
07.10.2018 03:00:00||ÇALIK HOLDİNG|10.40.24.94|||110000438407|187
07.10.2018 03:00:00||ÇALIK HOLDİNG|10.40.25.95|||110000438407|20
07.10.2018 03:00:00||ÇALIK HOLDİNG|10.40.25.95|||110000438407|368
07.10.2018 03:00:00||ÇALIK HOLDİNG|10.40.25.95|||110000438407|352
07.10.2018 03:00:00||ÇALIK HOLDİNG|10.40.25.95|||110000438407|40
07.10.2018 03:00:00||ÇALIK HOLDİNG|10.40.24.95|||110000438407|100
07.10.2018 03:00:00||ÇALIK HOLDİNG|10.40.24.95|||110000438407|78
07.10.2018 03:00:00||ÇALIK HOLDİNG|10.40.24.95|||110000438407|413
07.10.2018 03:00:00||ÇALIK HOLDİNG|10.40.24.95|||110000438407|388
07.10.2018 03:00:00||ÇALIK HOLDİNG|10.40.25.96|||110000438407|90
07.10.2018 03:00:00||ÇALIK HOLDİNG|10.40.25.96|||110000438407|100
07.10.2018 03:00:00||ÇALIK HOLDİNG|10.40.25.96|||110000438407|107
07.10.2018 03:00:00||ÇALIK HOLDİNG|10.40.25.96|||110000438407|278
07.10.2018 03:00:00||ÇALIK HOLDİNG|10.40.25.96|||110000438407|260
07.10.2018 03:00:00||ÇALIK HOLDİNG|10.40.25.96|||110000438407|100
07.10.2018 03:00:00||ÇALIK HOLDİNG|10.40.25.96|||110000438407|90
07.10.2018 03:00:00||ÇALIK HOLDİNG|10.40.25.96|||110000438407|98
07.10.2018 03:00:00||ÇALIK HOLDİNG|10.40.25.97|||110000438407|88
07.10.2018 03:00:00||ÇALIK HOLDİNG|10.40.25.97|||110000438407|80
07.10.2018 03:00:00||ÇALIK HOLDİNG|10.40.25.97|||110000438407|305
07.10.2018 03:00:00||ÇALIK HOLDİNG|10.40.25.98|||110000438407|50
07.10.2018 03:00:00||ÇALIK HOLDİNG|10.40.25.98|||110000438407|160
07.10.2018 03:00:00||ÇALIK HOLDİNG|10.40.25.98|||110000438407|157
07.10.2018 03:00:00||ÇALIK HOLDİNG|10.40.25.98|||110000438407|167
07.10.2018 03:00:00||ÇALIK HOLDİNG|10.40.25.98|||110000438407|167
07.10.2018 03:00:00||ÇALIK HOLDİNG|10.40.25.98|||110000438407|62
07.10.2018 03:00:00||ÇALIK HOLDİNG|10.40.25.98|||110000438407|210
07.10.2018 03:00:00||ÇALIK HOLDİNG|10.40.25.98|||110000438407|183
07.10.2018 03:00:00||ÇALIK HOLDİNG|10.40.25.98|||110000438407|170
07.10.2018 03:00:00||ÇALIK HOLDİNG|10.40.25.98|||110000438407|212
07.10.2018 03:00:00||ÇALIK HOLDİNG|10.40.25.98|||110000438407|70
07.10.2018 03:00:00||ÇALIK HOLDİNG|10.40.25.98|||110000438407|335
07.10.2018 03:00:00||ÇALIK HOLDİNG|10.40.24.98|||110000438407|90
07.10.2018 03:00:00||ÇALIK HOLDİNG|10.40.24.98|||110000438407|152
07.10.2018 03:00:00||ÇALIK HOLDİNG|10.40.24.98|||110000438407|200
07.10.2018 03:00:00||ÇALIK HOLDİNG|10.40.24.98|||110000438407|200
07.10.2018 03:00:00||ÇALIK HOLDİNG|10.40.24.98|||110000438407|160
07.10.2018 03:00:00||ÇALIK HOLDİNG|10.40.24.98|||110000438407|30
07.10.2018 03:00:00||ÇALIK HOLDİNG|10.40.24.98|||110000438407|163
07.10.2018 03:00:00||ÇALIK HOLDİNG|10.40.24.98|||110000438407|180
07.10.2018 03:00:00||ÇALIK HOLDİNG|10.40.24.98|||110000438407|170
07.10.2018 03:00:00||ÇALIK HOLDİNG|10.40.24.98|||110000438407|173
07.10.2018 03:00:00||ÇALIK HOLDİNG|10.40.24.98|||110000438407|20
07.10.2018 03:00:00||ÇALIK HOLDİNG|10.40.24.98|||110000438407|305
07.10.2018 03:00:00||ÇALIK HOLDİNG|10.40.25.100|||110000438407|35
07.10.2018 03:00:00||ÇALIK HOLDİNG|10.40.25.100|||110000438407|40
07.10.2018 03:00:00||ÇALIK HOLDİNG|10.40.24.101|||110000438407|60
07.10.2018 03:00:00||ÇALIK HOLDİNG|10.40.24.101|||110000438407|110
07.10.2018 03:00:00||ÇALIK HOLDİNG|10.40.24.101|||110000438407|20
07.10.2018 03:00:00||ÇALIK HOLDİNG|10.40.24.101|||110000438407|20
07.10.2018 03:00:00||ÇALIK HOLDİNG|10.40.24.101|||110000438407|40
07.10.2018 03:00:00||ÇALIK HOLDİNG|10.40.24.101|||110000438407|92
07.10.2018 03:00:00||ÇALIK HOLDİNG|10.40.24.101|||110000438407|30
07.10.2018 03:00:00||ÇALIK HOLDİNG|10.40.24.101|||110000438407|10
07.10.2018 03:00:00||ÇALIK HOLDİNG|10.40.24.101|||110000438407|20
07.10.2018 03:00:00||ÇALIK HOLDİNG|10.40.24.101|||110000438407|50
07.10.2018 03:00:00||ÇALIK HOLDİNG|10.40.24.101|||110000438407|30
07.10.2018 03:00:00||ÇALIK HOLDİNG|10.40.24.101|||110000438407|80
07.10.2018 03:00:00||ÇALIK HOLDİNG|10.40.24.101|||110000438407|80
07.10.2018 03:00:00||ÇALIK HOLDİNG|10.40.24.101|||110000438407|100
07.10.2018 03:00:00||ÇALIK HOLDİNG|10.40.25.102|||110000438407|100
07.10.2018 03:00:00||ÇALIK HOLDİNG|10.40.25.102|||110000438407|100
07.10.2018 03:00:00||ÇALIK HOLDİNG|10.40.25.102|||110000438407|150
07.10.2018 03:00:00||ÇALIK HOLDİNG|10.40.24.102|||110000438407|100
07.10.2018 03:00:00||ÇALIK HOLDİNG|10.40.24.102|||110000438407|100
07.10.2018 03:00:00||ÇALIK HOLDİNG|10.40.24.102|||110000438407|140
07.10.2018 03:00:00||ÇALIK HOLDİNG|10.40.25.103|||110000438407|90
07.10.2018 03:00:00||ÇALIK HOLDİNG|10.40.25.103|||110000438407|80
07.10.2018 03:00:00||ÇALIK HOLDİNG|10.40.25.103|||110000438407|2
07.10.2018 03:00:00||ÇALIK HOLDİNG|10.40.25.115|||110000438407|80
07.10.2018 03:00:00||ÇALIK HOLDİNG|10.40.24.103|||110000438407|98
07.10.2018 03:00:00||ÇALIK HOLDİNG|10.40.24.103|||110000438407|80
07.10.2018 03:00:00||ÇALIK HOLDİNG|10.40.24.103|||110000438407|80
07.10.2018 03:00:00||ÇALIK HOLDİNG|10.40.24.103|||110000438407|20
07.10.2018 03:00:00||ÇALIK HOLDİNG|10.40.24.103|||110000438407|20
07.10.2018 03:00:00||ÇALIK HOLDİNG|10.40.25.113|||110000438407|115
07.10.2018 03:00:00||ÇALIK HOLDİNG|10.40.25.113|||110000438407|240
07.10.2018 03:00:00||ÇALIK HOLDİNG|10.40.25.113|||110000438407|190
07.10.2018 03:00:00||ÇALIK HOLDİNG|10.40.25.113|||110000438407|203
07.10.2018 03:00:00||ÇALIK HOLDİNG|10.40.24.113|||110000438407|230
07.10.2018 03:00:00||ÇALIK HOLDİNG|10.40.24.113|||110000438407|227
07.10.2018 03:00:00||ÇALIK HOLDİNG|10.40.24.113|||110000438407|192
07.10.2018 03:00:00||ÇALIK HOLDİNG|10.40.24.113|||110000438407|158
07.10.2018 03:00:00||ÇALIK HOLDİNG|10.40.25.114|||110000438407|187
07.10.2018 03:00:00||ÇALIK HOLDİNG|10.40.25.114|||110000438407|415
07.10.2018 03:00:00||ÇALIK HOLDİNG|10.40.25.114|||110000438407|40
07.10.2018 03:00:00||ÇALIK HOLDİNG|10.40.24.114|||110000438407|20
07.10.2018 03:00:00||ÇALIK HOLDİNG|10.40.24.114|||110000438407|40
07.10.2018 03:00:00||ÇALIK HOLDİNG|10.40.24.114|||110000438407|165
07.10.2018 03:00:00||ÇALIK HOLDİNG|10.40.24.114|||110000438407|372
07.10.2018 03:00:00||ÇALIK HOLDİNG|10.40.24.115|||110000438407|150
07.10.2018 03:00:00||ÇALIK HOLDİNG|10.40.24.115|||110000438407|80
07.10.2018 03:00:00||ÇALIK HOLDİNG|10.40.24.115|||110000438407|90
07.10.2018 03:00:00||ÇALIK HOLDİNG|10.40.24.115|||110000438407|70
07.10.2018 03:00:00||ÇALIK HOLDİNG|10.40.24.115|||110000438407|82
07.10.2018 03:00:00||ÇALIK HOLDİNG|10.40.24.115|||110000438407|70
07.10.2018 03:00:00||ÇALIK HOLDİNG|10.40.25.116|||110000438407|103
07.10.2018 03:00:00||ÇALIK HOLDİNG|10.40.25.116|||110000438407|102
07.10.2018 03:00:00||ÇALIK HOLDİNG|10.40.25.116|||110000438407|288
07.10.2018 03:00:00||ÇALIK HOLDİNG|10.40.24.116|||110000438407|275
07.10.2018 03:00:00||ÇALIK HOLDİNG|10.40.24.116|||110000438407|102
07.10.2018 03:00:00||ÇALIK HOLDİNG|10.40.24.116|||110000438407|100
07.10.2018 03:00:00||ÇALIK HOLDİNG|10.40.25.117|||110000438407|242
07.10.2018 03:00:00||ÇALIK HOLDİNG|10.40.25.117|||110000438407|30
07.10.2018 03:00:00||ÇALIK HOLDİNG|10.40.25.117|||110000438407|25
07.10.2018 03:00:00||ÇALIK HOLDİNG|10.40.25.119|||110000438407|30
07.10.2018 03:00:00||ÇALIK HOLDİNG|10.40.25.119|||110000438407|30
07.10.2018 03:00:00||ÇALIK HOLDİNG|10.40.24.119|||110000438407|150
07.10.2018 03:00:00||ÇALIK HOLDİNG|10.40.24.119|||110000438407|30
07.10.2018 03:00:00||ÇALIK HOLDİNG|10.40.24.119|||110000438407|50
07.10.2018 03:00:00||ÇALIK HOLDİNG|10.40.25.120|||110000438407|103
07.10.2018 03:00:00||ÇALIK HOLDİNG|10.40.25.120|||110000438407|50
07.10.2018 03:00:00||ÇALIK HOLDİNG|10.40.25.120|||110000438407|20
07.10.2018 03:00:00||ÇALIK HOLDİNG|10.40.25.120|||110000438407|30
07.10.2018 03:00:00||ÇALIK HOLDİNG|10.40.25.120|||110000438407|88
07.10.2018 03:00:00||ÇALIK HOLDİNG|10.40.25.120|||110000438407|90
07.10.2018 03:00:00||ÇALIK HOLDİNG|10.40.24.120|||110000438407|20
07.10.2018 03:00:00||ÇALIK HOLDİNG|10.40.24.120|||110000438407|30
07.10.2018 03:00:00||ÇALIK HOLDİNG|10.40.24.120|||110000438407|110
07.10.2018 03:00:00||ÇALIK HOLDİNG|10.40.24.120|||110000438407|10
07.10.2018 03:00:00||ÇALIK HOLDİNG|10.40.24.120|||110000438407|20
07.10.2018 03:00:00||ÇALIK HOLDİNG|10.40.24.120|||110000438407|100
07.10.2018 03:00:00||ÇALIK HOLDİNG|10.40.24.120|||110000438407|40
07.10.2018 03:00:00||ÇALIK HOLDİNG|10.40.24.120|||110000438407|80
07.10.2018 03:00:00||ÇALIK HOLDİNG|10.40.24.120|||110000438407|80
07.10.2018 03:00:00||ÇALIK HOLDİNG|10.40.24.120|||110000438407|70
07.10.2018 03:00:00||ÇALIK HOLDİNG|10.40.25.121|||110000438407|90
07.10.2018 03:00:00||ÇALIK HOLDİNG|10.40.25.121|||110000438407|100
07.10.2018 03:00:00||ÇALIK HOLDİNG|10.40.25.121|||110000438407|140
07.10.2018 03:00:00||ÇALIK HOLDİNG|10.40.24.121|||110000438407|100
07.10.2018 03:00:00||ÇALIK HOLDİNG|10.40.24.121|||110000438407|100
07.10.2018 03:00:00||ÇALIK HOLDİNG|10.40.24.121|||110000438407|150
07.10.2018 03:00:00||ÇALIK HOLDİNG|10.40.25.122|||110000438407|90
07.10.2018 03:00:00||ÇALIK HOLDİNG|10.40.25.122|||110000438407|80
07.10.2018 03:00:00||ÇALIK HOLDİNG|10.40.25.122|||110000438407|80
07.10.2018 03:00:00||ÇALIK HOLDİNG|10.40.24.122|||110000438407|90
07.10.2018 03:00:00||ÇALIK HOLDİNG|10.40.24.122|||110000438407|80
07.10.2018 03:00:00||ÇALIK HOLDİNG|10.40.24.122|||110000438407|90
07.10.2018 03:00:00||ÇALIK HOLDİNG|10.40.24.122|||110000438407|30
07.10.2018 03:00:00||ÇALIK HOLDİNG|10.40.24.122|||110000438407|10
07.10.2018 03:00:00||ÇALIK HOLDİNG|10.40.24.117|||110000438407|200
07.10.2018 03:00:00||ÇALIK HOLDİNG|10.40.24.117|||110000438407|30
07.10.2018 03:00:00||ÇALIK HOLDİNG|10.40.24.117|||110000438407|30
07.10.2018 03:00:00||ÇALIK HOLDİNG|10.40.24.97|||110000438407|98
07.10.2018 03:00:00||ÇALIK HOLDİNG|10.40.24.97|||110000438407|90
07.10.2018 03:00:00||ÇALIK HOLDİNG|10.40.24.97|||110000438407|80
07.10.2018 03:00:00||ÇALIK HOLDİNG|10.40.24.97|||110000438407|90
07.10.2018 03:00:00||ÇALIK HOLDİNG|10.40.24.97|||110000438407|322
07.10.2018 03:00:00||ÇALIK HOLDİNG|10.40.24.100|||110000438407|30
07.10.2018 03:00:00||ÇALIK HOLDİNG|10.40.24.100|||110000438407|40
07.10.2018 03:00:00||FIBABANKA|10.40.27.54|||101571767266|309
07.10.2018 03:00:00||FIBABANKA|10.40.26.54|||101571767266|317
07.10.2018 03:00:00||FIBABANKA|10.40.27.55|||101571767266|110
07.10.2018 03:00:00||FIBABANKA|10.40.26.55|||101571767266|109
07.10.2018 03:00:00||FIBABANKA|10.40.24.55|||101571767266|111
07.10.2018 03:00:00||FIBABANKA|10.40.25.56|||101571767266|198
07.10.2018 03:00:00||FIBABANKA|10.40.25.54|||101571767266|256
07.10.2018 03:00:00||FIBABANKA|10.40.24.54|||101571767266|385
07.10.2018 03:00:00||FIBABANKA|10.40.25.55|||101571767266|113
07.10.2018 03:00:00||FIBABANKA|10.40.24.56|||101571767266|196
07.10.2018 03:00:00||FIBABANKA|10.40.26.53|||101571767266|42
07.10.2018 03:00:00||FIBABANKA|10.40.26.53|||101571767266|153
07.10.2018 03:00:00||FIBABANKA|10.40.25.76|||101571767266|10
07.10.2018 03:00:00||FIBABANKA|10.40.27.53|||101571767266|158
07.10.2018 03:00:00||FIBABANKA|10.40.27.53|||101571767266|177
07.10.2018 03:00:00||FIBABANKA|10.40.26.53|||101571767266|163
07.10.2018 03:00:00||FIBABANKA|10.40.27.57|||101571767266|82
07.10.2018 03:00:00||FIBABANKA|10.40.27.57|||101571767266|80
07.10.2018 03:00:00||FIBABANKA|10.40.27.57|||101571767266|80
07.10.2018 03:00:00||FIBABANKA|10.40.25.57|||101571767266|90
07.10.2018 03:00:00||FIBABANKA|10.40.25.57|||101571767266|90
07.10.2018 03:00:00||FIBABANKA|10.40.25.57|||101571767266|90
07.10.2018 03:00:00||FIBABANKA|10.40.26.51|||101571767266|20
07.10.2018 03:00:00||FIBABANKA|10.40.27.52|||101571767266|50
07.10.2018 03:00:00||FIBABANKA|10.40.27.52|||101571767266|60
07.10.2018 03:00:00||FIBABANKA|10.40.27.52|||101571767266|70
07.10.2018 03:00:00||FIBABANKA|10.40.27.74|||101571767266|165
07.10.2018 03:00:00||FIBABANKA|10.40.25.53|||101571767266|30
07.10.2018 03:00:00||FIBABANKA|10.40.25.53|||101571767266|50
07.10.2018 03:00:00||FIBABANKA|10.40.27.53|||101571767266|60
07.10.2018 03:00:00||FIBABANKA|10.40.26.53|||101571767266|60
07.10.2018 03:00:00||FIBABANKA|10.40.25.51|||101571767266|20
07.10.2018 03:00:00||FIBABANKA|10.40.25.51|||101571767266|110
07.10.2018 03:00:00||FIBABANKA|10.40.24.51|||101571767266|20
07.10.2018 03:00:00||FIBABANKA|10.40.24.51|||101571767266|70
07.10.2018 03:00:00||FIBABANKA|10.40.24.51|||101571767266|108
07.10.2018 03:00:00||FIBABANKA|10.40.24.51|||101571767266|142
07.10.2018 03:00:00||FIBABANKA|10.40.24.51|||101571767266|30
07.10.2018 03:00:00||FIBABANKA|10.40.24.57|||101571767266|90
07.10.2018 03:00:00||FIBABANKA|10.40.24.57|||101571767266|80
07.10.2018 03:00:00||FIBABANKA|10.40.24.57|||101571767266|80
07.10.2018 03:00:00||FIBABANKA|10.40.24.52|||101571767266|10
07.10.2018 03:00:00||FIBABANKA|10.40.26.73|||101571767266|40
07.10.2018 03:00:00||FIBABANKA|10.40.27.53|||101571767266|65
07.10.2018 03:00:00||FIBABANKA|10.40.26.51|||101571767266|70
07.10.2018 03:00:00||FIBABANKA|10.40.26.52|||101571767266|30
07.10.2018 03:00:00||FIBABANKA|10.40.26.52|||101571767266|90
07.10.2018 03:00:00||FIBABANKA|10.40.26.52|||101571767266|30
07.10.2018 03:00:00||FIBABANKA|10.40.25.51|||101571767266|130
07.10.2018 03:00:00||FIBABANKA|10.40.25.51|||101571767266|40
07.10.2018 03:00:00||FIBABANKA|10.40.25.51|||101571767266|40
07.10.2018 03:00:00||FIBABANKA|10.40.25.51|||101571767266|72
07.10.2018 03:00:00||FIBABANKA|10.40.24.51|||101571767266|30
07.10.2018 03:00:00||FIBABANKA|10.40.25.59|||101571767266|70
07.10.2018 03:00:00||FIBABANKA|10.40.25.59|||101571767266|90
07.10.2018 03:00:00||FIBABANKA|10.40.25.59|||101571767266|100
07.10.2018 03:00:00||FIBABANKA|10.40.25.59|||101571767266|40
07.10.2018 03:00:00||FIBABANKA|10.40.25.59|||101571767266|130
07.10.2018 03:00:00||FIBABANKA|10.40.25.59|||101571767266|68
07.10.2018 03:00:00||FIBABANKA|10.40.25.59|||101571767266|50
07.10.2018 03:00:00||FIBABANKA|10.40.25.59|||101571767266|172
07.10.2018 03:00:00||FIBABANKA|10.40.25.59|||101571767266|62
07.10.2018 03:00:00||FIBABANKA|10.40.24.59|||101571767266|70
07.10.2018 03:00:00||FIBABANKA|10.40.24.59|||101571767266|120
07.10.2018 03:00:00||FIBABANKA|10.40.24.59|||101571767266|78
07.10.2018 03:00:00||FIBABANKA|10.40.24.59|||101571767266|50
07.10.2018 03:00:00||FIBABANKA|10.40.24.59|||101571767266|130
07.10.2018 03:00:00||FIBABANKA|10.40.24.59|||101571767266|70
07.10.2018 03:00:00||FIBABANKA|10.40.24.59|||101571767266|60
07.10.2018 03:00:00||FIBABANKA|10.40.24.59|||101571767266|162
07.10.2018 03:00:00||FIBABANKA|10.40.24.59|||101571767266|70
07.10.2018 03:00:00||FIBABANKA|10.40.25.60|||101571767266|120
07.10.2018 03:00:00||FIBABANKA|10.40.25.60|||101571767266|35
07.10.2018 03:00:00||FIBABANKA|10.40.25.60|||101571767266|110
07.10.2018 03:00:00||FIBABANKA|10.40.25.60|||101571767266|40
07.10.2018 03:00:00||FIBABANKA|10.40.24.60|||101571767266|125
07.10.2018 03:00:00||FIBABANKA|10.40.24.60|||101571767266|57
07.10.2018 03:00:00||FIBABANKA|10.40.24.60|||101571767266|40
07.10.2018 03:00:00||FIBABANKA|10.40.24.60|||101571767266|100
07.10.2018 03:00:00||FIBABANKA|10.40.24.60|||101571767266|58
07.10.2018 03:00:00||FIBABANKA|10.40.25.72|||101571767266|70
07.10.2018 03:00:00||FIBABANKA|10.40.25.72|||101571767266|40
07.10.2018 03:00:00||FIBABANKA|10.40.25.72|||101571767266|30
07.10.2018 03:00:00||FIBABANKA|10.40.24.72|||101571767266|140
07.10.2018 03:00:00||FIBABANKA|10.40.24.72|||101571767266|75
07.10.2018 03:00:00||FIBABANKA|10.40.24.72|||101571767266|30
07.10.2018 03:00:00||FIBABANKA|10.40.24.72|||101571767266|40
07.10.2018 03:00:00||FIBABANKA|10.40.25.74|||101571767266|40
07.10.2018 03:00:00||FIBABANKA|10.40.25.74|||101571767266|30
07.10.2018 03:00:00||FIBABANKA|10.40.25.74|||101571767266|40
07.10.2018 03:00:00||FIBABANKA|10.40.25.74|||101571767266|40
07.10.2018 03:00:00||FIBABANKA|10.40.25.74|||101571767266|40
07.10.2018 03:00:00||FIBABANKA|10.40.25.75|||101571767266|137
07.10.2018 03:00:00||FIBABANKA|10.40.25.75|||101571767266|157
07.10.2018 03:00:00||FIBABANKA|10.40.25.75|||101571767266|170
07.10.2018 03:00:00||FIBABANKA|10.40.25.75|||101571767266|195
07.10.2018 03:00:00||FIBABANKA|10.40.24.75|||101571767266|157
07.10.2018 03:00:00||FIBABANKA|10.40.24.75|||101571767266|145
07.10.2018 03:00:00||FIBABANKA|10.40.24.76|||101571767266|38
07.10.2018 03:00:00||FIBABANKA|10.40.24.76|||101571767266|68
07.10.2018 03:00:00||FIBABANKA|10.40.24.76|||101571767266|10
07.10.2018 03:00:00||FIBABANKA|10.40.24.53|||101571767266|30
07.10.2018 03:00:00||FIBABANKA|10.40.24.53|||101571767266|62
07.10.2018 03:00:00||FIBABANKA|10.40.26.57|||101571767266|90
07.10.2018 03:00:00||FIBABANKA|10.40.26.57|||101571767266|87
07.10.2018 03:00:00||FIBABANKA|10.40.26.57|||101571767266|80
07.10.2018 03:00:00||FIBABANKA|10.40.27.72|||101571767266|50
07.10.2018 03:00:00||FIBABANKA|10.40.27.72|||101571767266|40
07.10.2018 03:00:00||FIBABANKA|10.40.27.72|||101571767266|132
07.10.2018 03:00:00||FIBABANKA|10.40.27.72|||101571767266|62
07.10.2018 03:00:00||FIBABANKA|10.40.27.72|||101571767266|30
07.10.2018 03:00:00||FIBABANKA|10.40.26.72|||101571767266|30
07.10.2018 03:00:00||FIBABANKA|10.40.26.72|||101571767266|150
07.10.2018 03:00:00||FIBABANKA|10.40.26.72|||101571767266|70
07.10.2018 03:00:00||FIBABANKA|10.40.26.72|||101571767266|30
07.10.2018 03:00:00||FIBABANKA|10.40.27.73|||101571767266|30
07.10.2018 03:00:00||FIBABANKA|10.40.27.73|||101571767266|100
07.10.2018 03:00:00||FIBABANKA|10.40.27.73|||101571767266|30
07.10.2018 03:00:00||FIBABANKA|10.40.27.73|||101571767266|20
07.10.2018 03:00:00||FIBABANKA|10.40.27.73|||101571767266|40
07.10.2018 03:00:00||FIBABANKA|10.40.27.73|||101571767266|40
07.10.2018 03:00:00||FIBABANKA|10.40.27.73|||101571767266|40
07.10.2018 03:00:00||FIBABANKA|10.40.27.73|||101571767266|40
07.10.2018 03:00:00||FIBABANKA|10.40.26.73|||101571767266|40
07.10.2018 03:00:00||FIBABANKA|10.40.26.73|||101571767266|70
07.10.2018 03:00:00||FIBABANKA|10.40.26.73|||101571767266|30
07.10.2018 03:00:00||FIBABANKA|10.40.27.74|||101571767266|75
07.10.2018 03:00:00||FIBABANKA|10.40.27.74|||101571767266|142
07.10.2018 03:00:00||FIBABANKA|10.40.27.74|||101571767266|165
07.10.2018 03:00:00||FIBABANKA|10.40.26.74|||101571767266|72
07.10.2018 03:00:00||FIBABANKA|10.40.26.74|||101571767266|175
07.10.2018 03:00:00||FIBABANKA|10.40.26.74|||101571767266|170
07.10.2018 03:00:00||FIBABANKA|10.40.26.74|||101571767266|167
07.10.2018 03:00:00||FIBABANKA|10.40.27.75|||101571767266|10
07.10.2018 03:00:00||FIBABANKA|10.40.27.75|||101571767266|10
07.10.2018 03:00:00||FIBABANKA|10.40.26.79|||101571767266|10
07.10.2018 03:00:00||FIBABANKA|10.40.27.79|||101571767266|10
07.10.2018 03:00:00||FIBABANKA|10.40.26.79|||101571767266|10
07.10.2018 03:00:00||FIBABANKA|10.40.27.77|||101571767266|162
07.10.2018 03:00:00||FIBABANKA|10.40.26.77|||101571767266|188
07.10.2018 03:00:00||FIBABANKA|10.40.27.77|||101571767266|163
07.10.2018 03:00:00||FIBABANKA|10.40.24.75|||101571767266|170
07.10.2018 03:00:00||FIBABANKA|10.40.24.53|||101571767266|178
07.10.2018 03:00:00||FIBABANKA|10.40.24.53|||101571767266|182
07.10.2018 03:00:00||FIBABANKA|10.40.25.52|||101571767266|10
07.10.2018 03:00:00||FIBABANKA|10.40.25.52|||101571767266|62
07.10.2018 03:00:00||FIBABANKA|10.40.25.53|||101571767266|165
07.10.2018 03:00:00||FIBABANKA|10.40.25.53|||101571767266|155
07.10.2018 03:00:00||FIBABANKA|10.40.27.51|||101571767266|30
07.10.2018 03:00:00||FIBABANKA|10.40.27.51|||101571767266|20
07.10.2018 03:00:00||FIBABANKA|10.40.27.51|||101571767266|102
07.10.2018 03:00:00||FIBABANKA|10.40.27.51|||101571767266|130
07.10.2018 03:00:00||FIBABANKA|10.40.27.51|||101571767266|70
07.10.2018 03:00:00||FIBABANKA|10.40.27.51|||101571767266|40
07.10.2018 03:00:00||FIBABANKA|10.40.27.51|||101571767266|40
07.10.2018 03:00:00||FIBABANKA|10.40.26.51|||101571767266|10
07.10.2018 03:00:00||FIBABANKA|10.40.26.51|||101571767266|110
07.10.2018 03:00:00||FIBABANKA|10.40.26.51|||101571767266|130
07.10.2018 03:00:00||FIBABANKA|10.40.26.51|||101571767266|30
07.10.2018 03:00:00||FIBABANKA|10.40.26.51|||101571767266|30
07.10.2018 03:00:00||FIBABANKA|10.40.24.74|||101571767266|30
07.10.2018 03:00:00||FIBABANKA|10.40.24.74|||101571767266|30
07.10.2018 03:00:00||FIBABANKA|10.40.25.76|||101571767266|60
07.10.2018 03:00:00||FIBABANKA|10.40.25.76|||101571767266|40
07.10.2018 03:00:00||FIBABANKA|10.40.25.76|||101571767266|10
07.10.2018 03:00:00||HAVAŞ|10.40.24.46|||110000479675|10
07.10.2018 03:00:00||HAVAŞ|10.40.24.48|||110000479675|740
07.10.2018 03:00:00||HAVAŞ|10.40.24.48|||110000479675|742
07.10.2018 03:00:00||HAVAŞ|10.40.25.48|||110000479675|730
07.10.2018 03:00:00||HAVAŞ|10.40.24.45|||110000479675|83
07.10.2018 03:00:00||HAVAŞ|10.40.25.45|||110000479675|62
07.10.2018 03:00:00||HAVAŞ|10.40.25.47|||110000479675|70
07.10.2018 03:00:00||HAVAŞ|10.40.24.46|||110000479675|80
07.10.2018 03:00:00||HAVAŞ|10.40.24.47|||110000479675|30
07.10.2018 03:00:00||HAVAŞ|10.40.24.47|||110000479675|90
07.10.2018 03:00:00||HAVAŞ|10.40.24.47|||110000479675|90
07.10.2018 03:00:00||HAVAŞ|10.40.25.46|||110000479675|10
07.10.2018 03:00:00||HAVAŞ|10.40.25.46|||110000479675|60
07.10.2018 03:00:00||HAVAŞ|10.40.24.48|||110000479675|748
07.10.2018 03:00:00||HAVAŞ|10.40.24.46|||110000479675|60
07.10.2018 03:00:00||HAVAŞ|10.40.24.46|||110000479675|70
07.10.2018 03:00:00||HAVAŞ|10.40.24.47|||110000479675|108
07.10.2018 03:00:00||HAVAŞ|10.40.25.48|||110000479675|738
07.10.2018 03:00:00||HAVAŞ|10.40.25.48|||110000479675|758
07.10.2018 03:00:00||HAVAŞ|10.40.25.45|||110000479675|90
07.10.2018 03:00:00||HAVAŞ|10.40.24.45|||110000479675|55
07.10.2018 03:00:00||HAVAŞ|10.40.24.45|||110000479675|158
07.10.2018 03:00:00||HAVAŞ|10.40.24.45|||110000479675|90
07.10.2018 03:00:00||HAVAŞ|10.40.25.47|||110000479675|70
07.10.2018 03:00:00||HAVAŞ|10.40.25.47|||110000479675|220
07.10.2018 03:00:00||HAVAŞ|10.40.25.47|||110000479675|57
07.10.2018 03:00:00||HAVAŞ|10.40.25.47|||110000479675|88
07.10.2018 03:00:00||HAVAŞ|10.40.25.47|||110000479675|87
07.10.2018 03:00:00||HAVAŞ|10.40.25.47|||110000479675|90
07.10.2018 03:00:00||HAVAŞ|10.40.25.47|||110000479675|10
07.10.2018 03:00:00||HAVAŞ|10.40.25.47|||110000479675|180
07.10.2018 03:00:00||HAVAŞ|10.40.25.47|||110000479675|90
07.10.2018 03:00:00||HAVAŞ|10.40.25.47|||110000479675|90
07.10.2018 03:00:00||HAVAŞ|10.40.25.47|||110000479675|90
07.10.2018 03:00:00||HAVAŞ|10.40.25.45|||110000479675|83
07.10.2018 03:00:00||HAVAŞ|10.40.25.45|||110000479675|82
07.10.2018 03:00:00||HAVAŞ|10.40.25.46|||110000479675|10
07.10.2018 03:00:00||HAVAŞ|10.40.25.46|||110000479675|10
07.10.2018 03:00:00||HAVAŞ|10.40.25.46|||110000479675|20
07.10.2018 03:00:00||HAVAŞ|10.40.25.46|||110000479675|20
07.10.2018 03:00:00||HAVAŞ|10.40.25.46|||110000479675|50
07.10.2018 03:00:00||HAVAŞ|10.40.25.46|||110000479675|100
07.10.2018 03:00:00||HAVAŞ|10.40.25.46|||110000479675|60
07.10.2018 03:00:00||HAVAŞ|10.40.25.46|||110000479675|70
07.10.2018 03:00:00||HAVAŞ|10.40.25.46|||110000479675|70
07.10.2018 03:00:00||HAVAŞ|10.40.24.46|||110000479675|20
07.10.2018 03:00:00||HAVAŞ|10.40.24.46|||110000479675|20
07.10.2018 03:00:00||HAVAŞ|10.40.24.46|||110000479675|10
07.10.2018 03:00:00||HAVAŞ|10.40.24.46|||110000479675|10
07.10.2018 03:00:00||HAVAŞ|10.40.24.46|||110000479675|10
07.10.2018 03:00:00||HAVAŞ|10.40.24.46|||110000479675|10
07.10.2018 03:00:00||HAVAŞ|10.40.24.46|||110000479675|60
07.10.2018 03:00:00||HAVAŞ|10.40.24.46|||110000479675|110
07.10.2018 03:00:00||HAVAŞ|10.40.24.47|||110000479675|30
07.10.2018 03:00:00||HAVAŞ|10.40.24.47|||110000479675|215
07.10.2018 03:00:00||HAVAŞ|10.40.24.47|||110000479675|60
07.10.2018 03:00:00||HAVAŞ|10.40.24.47|||110000479675|55
07.10.2018 03:00:00||HAVAŞ|10.40.24.47|||110000479675|157
07.10.2018 03:00:00||HAVAŞ|10.40.24.47|||110000479675|100
07.10.2018 03:00:00||HAVAŞ|10.40.24.47|||110000479675|100
07.10.2018 03:00:00||MARS CINEMA|10.40.24.203|||110000472614|100
07.10.2018 03:00:00||MARS CINEMA|10.40.24.204|||110000472614|40
07.10.2018 03:00:00||MARS CINEMA|10.40.24.203|||110000472614|77
07.10.2018 03:00:00||MARS CINEMA|10.40.24.203|||110000472614|165
07.10.2018 03:00:00||MARS CINEMA|10.40.24.203|||110000472614|80
07.10.2018 03:00:00||MARS CINEMA|10.40.24.204|||110000472614|70
07.10.2018 03:00:00||MARS CINEMA|10.40.24.203|||110000472614|100
07.10.2018 03:00:00||MARS CINEMA|10.40.24.204|||110000472614|20
07.10.2018 03:00:00||MARS CINEMA|10.40.24.204|||110000472614|93
07.10.2018 03:00:00||MARS CINEMA|10.40.25.203|||110000472614|138
07.10.2018 03:00:00||MARS CINEMA|10.40.25.203|||110000472614|87
07.10.2018 03:00:00||MARS CINEMA|10.40.25.203|||110000472614|175
07.10.2018 03:00:00||MARS CINEMA|10.40.25.203|||110000472614|90
07.10.2018 03:00:00||MARS CINEMA|10.40.25.203|||110000472614|80
07.10.2018 03:00:00||MARS CINEMA|10.40.25.203|||110000472614|110
07.10.2018 03:00:00||MARS CINEMA|10.40.25.203|||110000472614|122
07.10.2018 03:00:00||MARS CINEMA|10.40.25.203|||110000472614|147
07.10.2018 03:00:00||MARS CINEMA|10.40.25.203|||110000472614|100
07.10.2018 03:00:00||MARS CINEMA|10.40.25.203|||110000472614|93
07.10.2018 03:00:00||MARS CINEMA|10.40.25.203|||110000472614|62
07.10.2018 03:00:00||MARS CINEMA|10.40.25.203|||110000472614|187
07.10.2018 03:00:00||MARS CINEMA|10.40.25.204|||110000472614|110
07.10.2018 03:00:00||MARS CINEMA|10.40.25.204|||110000472614|70
07.10.2018 03:00:00||MARS CINEMA|10.40.25.204|||110000472614|80
07.10.2018 03:00:00||MARS CINEMA|10.40.25.204|||110000472614|100
07.10.2018 03:00:00||MARS CINEMA|10.40.25.204|||110000472614|20
07.10.2018 03:00:00||MARS CINEMA|10.40.25.204|||110000472614|20
07.10.2018 03:00:00||MARS CINEMA|10.40.25.204|||110000472614|30
07.10.2018 03:00:00||MARS CINEMA|10.40.25.204|||110000472614|40
07.10.2018 03:00:00||MARS CINEMA|10.40.25.204|||110000472614|90
07.10.2018 03:00:00||MARS CINEMA|10.40.25.204|||110000472614|120
07.10.2018 03:00:00||MARS CINEMA|10.40.25.204|||110000472614|80
07.10.2018 03:00:00||MARS CINEMA|10.40.25.204|||110000472614|80
07.10.2018 03:00:00||MARS CINEMA|10.40.25.204|||110000472614|110
07.10.2018 03:00:00||MARS CINEMA|10.40.25.204|||110000472614|100
07.10.2018 03:00:00||MARS CINEMA|10.40.24.203|||110000472614|80
07.10.2018 03:00:00||MARS CINEMA|10.40.24.203|||110000472614|90
07.10.2018 03:00:00||MARS CINEMA|10.40.24.203|||110000472614|135
07.10.2018 03:00:00||MARS CINEMA|10.40.24.203|||110000472614|152
07.10.2018 03:00:00||MARS CINEMA|10.40.24.203|||110000472614|168
07.10.2018 03:00:00||MARS CINEMA|10.40.24.203|||110000472614|100
07.10.2018 03:00:00||MARS CINEMA|10.40.24.203|||110000472614|182
07.10.2018 03:00:00||MARS CINEMA|10.40.24.204|||110000472614|110
07.10.2018 03:00:00||MARS CINEMA|10.40.24.204|||110000472614|90
07.10.2018 03:00:00||MARS CINEMA|10.40.24.204|||110000472614|90
07.10.2018 03:00:00||MARS CINEMA|10.40.24.204|||110000472614|20
07.10.2018 03:00:00||MARS CINEMA|10.40.24.204|||110000472614|10
07.10.2018 03:00:00||MARS CINEMA|10.40.24.204|||110000472614|97
07.10.2018 03:00:00||MARS CINEMA|10.40.24.204|||110000472614|120
07.10.2018 03:00:00||MARS CINEMA|10.40.24.204|||110000472614|90
07.10.2018 03:00:00||MARS CINEMA|10.40.24.204|||110000472614|108
07.10.2018 03:00:00||MARS CINEMA|10.40.24.204|||110000472614|80
07.10.2018 03:00:00||MARS CINEMA|10.40.25.206|||110000472614|40
07.10.2018 03:00:00||MARS CINEMA|10.40.25.206|||110000472614|40
07.10.2018 03:00:00||MARS CINEMA|10.40.25.206|||110000472614|40
07.10.2018 03:00:00||MARS CINEMA|10.40.25.206|||110000472614|20
07.10.2018 03:00:00||MARS CINEMA|10.40.25.206|||110000472614|20
07.10.2018 03:00:00||MARS CINEMA|10.40.25.206|||110000472614|30
07.10.2018 03:00:00||MARS CINEMA|10.40.25.206|||110000472614|60
07.10.2018 03:00:00||MARS CINEMA|10.40.25.206|||110000472614|40
07.10.2018 03:00:00||MARS CINEMA|10.40.25.206|||110000472614|80
07.10.2018 03:00:00||MARS CINEMA|10.40.25.206|||110000472614|80
07.10.2018 03:00:00||MARS CINEMA|10.40.24.206|||110000472614|40
07.10.2018 03:00:00||MARS CINEMA|10.40.24.206|||110000472614|40
07.10.2018 03:00:00||MARS CINEMA|10.40.24.206|||110000472614|40
07.10.2018 03:00:00||MARS CINEMA|10.40.24.206|||110000472614|30
07.10.2018 03:00:00||MARS CINEMA|10.40.24.206|||110000472614|30
07.10.2018 03:00:00||MARS CINEMA|10.40.24.206|||110000472614|30
07.10.2018 03:00:00||MARS CINEMA|10.40.24.206|||110000472614|192
07.10.2018 03:00:00||MARS CINEMA|10.40.24.206|||110000472614|120
07.10.2018 03:00:00||MARS CINEMA|10.40.24.206|||110000472614|20
07.10.2018 03:00:00||MARS CINEMA|10.40.24.206|||110000472614|88
07.10.2018 03:00:00||MARS CINEMA|10.40.24.206|||110000472614|80
07.10.2018 03:00:00||PEGASUS|10.40.26.85|||110000423831|122
07.10.2018 03:00:00||PEGASUS|10.40.27.66|||110000423831|99
07.10.2018 03:00:00||PEGASUS|10.40.26.66|||110000423831|107
07.10.2018 03:00:00||PEGASUS|10.40.26.84|||110000423831|213
07.10.2018 03:00:00||PEGASUS|10.40.27.85|||110000423831|117
07.10.2018 03:00:00||PEGASUS|10.40.27.67|||110000423831|340
07.10.2018 03:00:00||PEGASUS|10.40.27.67|||110000423831|40
07.10.2018 03:00:00||PEGASUS|10.40.26.62|||110000423831|10
07.10.2018 03:00:00||PEGASUS|10.40.26.62|||110000423831|190
07.10.2018 03:00:00||PEGASUS|10.40.26.63|||110000423831|70
07.10.2018 03:00:00||PEGASUS|10.40.26.63|||110000423831|30
07.10.2018 03:00:00||PEGASUS|10.40.26.63|||110000423831|60
07.10.2018 03:00:00||PEGASUS|10.40.26.63|||110000423831|23
07.10.2018 03:00:00||PEGASUS|10.40.26.63|||110000423831|237
07.10.2018 03:00:00||PEGASUS|10.40.26.63|||110000423831|140
07.10.2018 03:00:00||PEGASUS|10.40.26.63|||110000423831|60
07.10.2018 03:00:00||PEGASUS|10.40.26.67|||110000423831|170
07.10.2018 03:00:00||PEGASUS|10.40.27.68|||110000423831|90
07.10.2018 03:00:00||PEGASUS|10.40.27.68|||110000423831|83
07.10.2018 03:00:00||PEGASUS|10.40.27.68|||110000423831|90
07.10.2018 03:00:00||PEGASUS|10.40.27.68|||110000423831|50
07.10.2018 03:00:00||PEGASUS|10.40.26.68|||110000423831|90
07.10.2018 03:00:00||PEGASUS|10.40.26.68|||110000423831|90
07.10.2018 03:00:00||PEGASUS|10.40.26.68|||110000423831|50
07.10.2018 03:00:00||PEGASUS|10.40.27.63|||110000423831|40
07.10.2018 03:00:00||PEGASUS|10.40.27.86|||110000423831|340
07.10.2018 03:00:00||PEGASUS|10.40.27.63|||110000423831|50
07.10.2018 03:00:00||PEGASUS|10.40.27.63|||110000423831|60
07.10.2018 03:00:00||PEGASUS|10.40.27.64|||110000423831|70
07.10.2018 03:00:00||PEGASUS|10.40.27.64|||110000423831|70
07.10.2018 03:00:00||PEGASUS|10.40.27.63|||110000423831|60
07.10.2018 03:00:00||PEGASUS|10.40.27.63|||110000423831|70
07.10.2018 03:00:00||PEGASUS|10.40.27.63|||110000423831|90
07.10.2018 03:00:00||PEGASUS|10.40.26.63|||110000423831|113
07.10.2018 03:00:00||PEGASUS|10.40.27.67|||110000423831|360
07.10.2018 03:00:00||PEGASUS|10.40.27.64|||110000423831|253
07.10.2018 03:00:00||PEGASUS|10.40.27.64|||110000423831|270
07.10.2018 03:00:00||PEGASUS|10.40.27.63|||110000423831|72
07.10.2018 03:00:00||PEGASUS|10.40.27.63|||110000423831|75
07.10.2018 03:00:00||PEGASUS|10.40.27.63|||110000423831|80
07.10.2018 03:00:00||PEGASUS|10.40.26.63|||110000423831|110
07.10.2018 03:00:00||PEGASUS|10.40.26.63|||110000423831|283
07.10.2018 03:00:00||PEGASUS|10.40.27.81|||110000423831|482
07.10.2018 03:00:00||PEGASUS|10.40.27.81|||110000423831|398
07.10.2018 03:00:00||PEGASUS|10.40.26.63|||110000423831|90
07.10.2018 03:00:00||PEGASUS|10.40.26.63|||110000423831|47
07.10.2018 03:00:00||PEGASUS|10.40.26.67|||110000423831|30
07.10.2018 03:00:00||PEGASUS|10.40.26.67|||110000423831|340
07.10.2018 03:00:00||PEGASUS|10.40.26.67|||110000423831|60
07.10.2018 03:00:00||PEGASUS|10.40.26.67|||110000423831|40
07.10.2018 03:00:00||PEGASUS|10.40.26.67|||110000423831|70
07.10.2018 03:00:00||PEGASUS|10.40.26.68|||110000423831|100
07.10.2018 03:00:00||PEGASUS|10.40.27.64|||110000423831|277
07.10.2018 03:00:00||PEGASUS|10.40.27.64|||110000423831|262
07.10.2018 03:00:00||PEGASUS|10.40.27.64|||110000423831|280
07.10.2018 03:00:00||PEGASUS|10.40.27.64|||110000423831|260
07.10.2018 03:00:00||PEGASUS|10.40.27.64|||110000423831|267
07.10.2018 03:00:00||PEGASUS|10.40.27.86|||110000423831|340
07.10.2018 03:00:00||PEGASUS|10.40.27.63|||110000423831|90
07.10.2018 03:00:00||PEGASUS|10.40.26.63|||110000423831|130
07.10.2018 03:00:00||PEGASUS|10.40.26.63|||110000423831|58
07.10.2018 03:00:00||PEGASUS|10.40.26.63|||110000423831|92
07.10.2018 03:00:00||PEGASUS|10.40.26.67|||110000423831|340
07.10.2018 03:00:00||PEGASUS|10.40.27.63|||110000423831|52
07.10.2018 03:00:00||PEGASUS|10.40.27.63|||110000423831|60
07.10.2018 03:00:00||PEGASUS|10.40.27.81|||110000423831|460
07.10.2018 03:00:00||PEGASUS|10.40.26.62|||110000423831|90
07.10.2018 03:00:00||PEGASUS|10.40.26.62|||110000423831|2
07.10.2018 03:00:00||PEGASUS|10.40.26.63|||110000423831|50
07.10.2018 03:00:00||PEGASUS|10.40.26.63|||110000423831|95
07.10.2018 03:00:00||PEGASUS|10.40.26.63|||110000423831|40
07.10.2018 03:00:00||PEGASUS|10.40.26.63|||110000423831|50
07.10.2018 03:00:00||PEGASUS|10.40.26.67|||110000423831|340
07.10.2018 03:00:00||PEGASUS|10.40.27.64|||110000423831|265
07.10.2018 03:00:00||PEGASUS|10.40.27.64|||110000423831|265
07.10.2018 03:00:00||PEGASUS|10.40.27.64|||110000423831|262
07.10.2018 03:00:00||PEGASUS|10.40.27.64|||110000423831|318
07.10.2018 03:00:00||PEGASUS|10.40.27.64|||110000423831|290
07.10.2018 03:00:00||PEGASUS|10.40.27.86|||110000423831|40
07.10.2018 03:00:00||PEGASUS|10.40.27.63|||110000423831|70
07.10.2018 03:00:00||PEGASUS|10.40.27.63|||110000423831|80
07.10.2018 03:00:00||PEGASUS|10.40.27.63|||110000423831|78
07.10.2018 03:00:00||PEGASUS|10.40.27.63|||110000423831|223
07.10.2018 03:00:00||PEGASUS|10.40.27.63|||110000423831|57
07.10.2018 03:00:00||PEGASUS|10.40.26.64|||110000423831|80
07.10.2018 03:00:00||PEGASUS|10.40.26.64|||110000423831|80
07.10.2018 03:00:00||PEGASUS|10.40.26.82|||110000423831|210
07.10.2018 03:00:00||PEGASUS|10.40.26.82|||110000423831|110
07.10.2018 03:00:00||PEGASUS|10.40.26.82|||110000423831|80
07.10.2018 03:00:00||PEGASUS|10.40.26.82|||110000423831|150
07.10.2018 03:00:00||PEGASUS|10.40.26.82|||110000423831|140
07.10.2018 03:00:00||PEGASUS|10.40.26.82|||110000423831|140
07.10.2018 03:00:00||PEGASUS|10.40.26.82|||110000423831|180
07.10.2018 03:00:00||PEGASUS|10.40.26.82|||110000423831|30
07.10.2018 03:00:00||PEGASUS|10.40.26.82|||110000423831|40
07.10.2018 03:00:00||PEGASUS|10.40.26.82|||110000423831|20
07.10.2018 03:00:00||PEGASUS|10.40.26.82|||110000423831|70
07.10.2018 03:00:00||PEGASUS|10.40.26.82|||110000423831|50
07.10.2018 03:00:00||PEGASUS|10.40.26.82|||110000423831|40
07.10.2018 03:00:00||PEGASUS|10.40.27.83|||110000423831|572
07.10.2018 03:00:00||PEGASUS|10.40.27.83|||110000423831|70
07.10.2018 03:00:00||PEGASUS|10.40.27.83|||110000423831|503
07.10.2018 03:00:00||PEGASUS|10.40.27.83|||110000423831|95
07.10.2018 03:00:00||PEGASUS|10.40.27.83|||110000423831|157
07.10.2018 03:00:00||PEGASUS|10.40.27.83|||110000423831|80
07.10.2018 03:00:00||PEGASUS|10.40.27.83|||110000423831|492
07.10.2018 03:00:00||PEGASUS|10.40.27.83|||110000423831|73
07.10.2018 03:00:00||PEGASUS|10.40.26.83|||110000423831|532
07.10.2018 03:00:00||PEGASUS|10.40.26.83|||110000423831|50
07.10.2018 03:00:00||PEGASUS|10.40.26.83|||110000423831|397
07.10.2018 03:00:00||PEGASUS|10.40.26.83|||110000423831|158
07.10.2018 03:00:00||PEGASUS|10.40.26.83|||110000423831|103
07.10.2018 03:00:00||PEGASUS|10.40.26.83|||110000423831|532
07.10.2018 03:00:00||PEGASUS|10.40.26.83|||110000423831|110
07.10.2018 03:00:00||PEGASUS|10.40.26.83|||110000423831|542
07.10.2018 03:00:00||PEGASUS|10.40.26.86|||110000423831|360
07.10.2018 03:00:00||PEGASUS|10.40.26.86|||110000423831|137
07.10.2018 03:00:00||PEGASUS|10.40.26.86|||110000423831|350
07.10.2018 03:00:00||PEGASUS|10.40.26.86|||110000423831|50
07.10.2018 03:00:00||PEGASUS|10.40.26.86|||110000423831|30
07.10.2018 03:00:00||PEGASUS|10.40.26.86|||110000423831|350
07.10.2018 03:00:00||PEGASUS|10.40.26.86|||110000423831|40
07.10.2018 03:00:00||PEGASUS|10.40.26.86|||110000423831|50
07.10.2018 03:00:00||PEGASUS|10.40.27.87|||110000423831|90
07.10.2018 03:00:00||PEGASUS|10.40.27.87|||110000423831|90
07.10.2018 03:00:00||PEGASUS|10.40.27.87|||110000423831|90
07.10.2018 03:00:00||PEGASUS|10.40.27.87|||110000423831|20
07.10.2018 03:00:00||PEGASUS|10.40.26.87|||110000423831|90
07.10.2018 03:00:00||PEGASUS|10.40.26.87|||110000423831|90
07.10.2018 03:00:00||PEGASUS|10.40.26.87|||110000423831|90
07.10.2018 03:00:00||PEGASUS|10.40.26.87|||110000423831|20
07.10.2018 03:00:00||PEGASUS|10.40.26.87|||110000423831|2
07.10.2018 03:00:00||PEGASUS|10.40.26.81|||110000423831|432
07.10.2018 03:00:00||PEGASUS|10.40.26.81|||110000423831|448
07.10.2018 03:00:00||PEGASUS|10.40.26.81|||110000423831|452
07.10.2018 03:00:00||PEGASUS|10.40.27.82|||110000423831|220
07.10.2018 03:00:00||PEGASUS|10.40.27.82|||110000423831|30
07.10.2018 03:00:00||PEGASUS|10.40.27.82|||110000423831|112
07.10.2018 03:00:00||PEGASUS|10.40.27.82|||110000423831|80
07.10.2018 03:00:00||PEGASUS|10.40.27.82|||110000423831|150
07.10.2018 03:00:00||PEGASUS|10.40.27.82|||110000423831|120
07.10.2018 03:00:00||PEGASUS|10.40.27.82|||110000423831|163
07.10.2018 03:00:00||PEGASUS|10.40.27.82|||110000423831|118
07.10.2018 03:00:00||PEGASUS|10.40.27.82|||110000423831|60
07.10.2018 03:00:00||PEGASUS|10.40.27.82|||110000423831|58
07.10.2018 03:00:00||PEGASUS|10.40.27.82|||110000423831|50
07.10.2018 03:00:00||PEGASUS|10.40.27.82|||110000423831|33
07.10.2018 03:00:00||PEGASUS|10.40.27.82|||110000423831|40
07.10.2018 03:00:00||PEGASUS|10.40.27.67|||110000423831|50
07.10.2018 03:00:00||PEGASUS|10.40.27.67|||110000423831|70
07.10.2018 03:00:00||PEGASUS|10.40.27.67|||110000423831|130
07.10.2018 03:00:00||PEGASUS|10.40.27.67|||110000423831|10
07.10.2018 03:00:00||PEGASUS|10.40.27.67|||110000423831|340
07.10.2018 03:00:00||PEGASUS|10.40.27.82|||110000423831|75
07.10.2018 03:00:00||PEGASUS|10.40.27.86|||110000423831|165
07.10.2018 03:00:00||PEGASUS|10.40.27.86|||110000423831|70
07.10.2018 03:00:00||PEGASUS|10.40.27.86|||110000423831|20
07.10.2018 03:00:00||PEGASUS|10.40.27.86|||110000423831|340
07.10.2018 03:00:00||PWC|10.40.24.66|||110000433262|80
07.10.2018 03:00:00||PWC|10.40.24.66|||110000433262|10
07.10.2018 03:00:00||PWC|10.40.24.66|||110000433262|30
07.10.2018 03:00:00||PWC|10.40.24.66|||110000433262|55
07.10.2018 03:00:00||PWC|10.40.24.66|||110000433262|442
07.10.2018 03:00:00||PWC|10.40.24.68|||110000433262|148
07.10.2018 03:00:00||PWC|10.40.24.66|||110000433262|40
07.10.2018 03:00:00||PWC|10.40.24.66|||110000433262|212
07.10.2018 03:00:00||PWC|10.40.24.66|||110000433262|210
07.10.2018 03:00:00||PWC|10.40.25.67|||110000433262|80
07.10.2018 03:00:00||PWC|10.40.25.67|||110000433262|90
07.10.2018 03:00:00||PWC|10.40.25.67|||110000433262|320
07.10.2018 03:00:00||PWC|10.40.25.67|||110000433262|250
07.10.2018 03:00:00||PWC|10.40.25.67|||110000433262|240
07.10.2018 03:00:00||PWC|10.40.25.67|||110000433262|250
07.10.2018 03:00:00||PWC|10.40.25.67|||110000433262|50
07.10.2018 03:00:00||PWC|10.40.25.67|||110000433262|30
07.10.2018 03:00:00||PWC|10.40.25.67|||110000433262|120
07.10.2018 03:00:00||PWC|10.40.24.67|||110000433262|20
07.10.2018 03:00:00||PWC|10.40.24.67|||110000433262|10
07.10.2018 03:00:00||PWC|10.40.24.67|||110000433262|372
07.10.2018 03:00:00||PWC|10.40.24.67|||110000433262|30
07.10.2018 03:00:00||PWC|10.40.24.67|||110000433262|52
07.10.2018 03:00:00||PWC|10.40.24.67|||110000433262|110
07.10.2018 03:00:00||PWC|10.40.25.68|||110000433262|127
07.10.2018 03:00:00||PWC|10.40.25.68|||110000433262|178
07.10.2018 03:00:00||PWC|10.40.25.68|||110000433262|375
07.10.2018 03:00:00||PWC|10.40.25.68|||110000433262|67
07.10.2018 03:00:00||PWC|10.40.25.68|||110000433262|73
07.10.2018 03:00:00||PWC|10.40.25.68|||110000433262|143
07.10.2018 03:00:00||PWC|10.40.24.66|||110000433262|60
07.10.2018 03:00:00||PWC|10.40.24.66|||110000433262|30
07.10.2018 03:00:00||PWC|10.40.24.66|||110000433262|40
07.10.2018 03:00:00||PWC|10.40.24.68|||110000433262|102
07.10.2018 03:00:00||PWC|10.40.24.68|||110000433262|135
07.10.2018 03:00:00||PWC|10.40.24.68|||110000433262|65
07.10.2018 03:00:00||PWC|10.40.24.68|||110000433262|63
07.10.2018 03:00:00||VSMART BİLGİ TEKNOLOJİLERİ|10.40.24.62|||110000474326|42
07.10.2018 03:00:00||VSMART BİLGİ TEKNOLOJİLERİ|10.40.24.62|||110000474326|70
07.10.2018 03:00:00||VSMART BİLGİ TEKNOLOJİLERİ|10.40.24.62|||110000474326|33
07.10.2018 03:00:00||VSMART BİLGİ TEKNOLOJİLERİ|10.40.25.62|||110000474326|63
07.10.2018 03:00:00||VSMART BİLGİ TEKNOLOJİLERİ|10.40.24.62|||110000474326|52
07.10.2018 03:00:00||VSMART BİLGİ TEKNOLOJİLERİ|10.40.24.62|||110000474326|32
07.10.2018 03:00:00||VSMART BİLGİ TEKNOLOJİLERİ|10.40.24.62|||110000474326|10
07.10.2018 03:00:00||VSMART BİLGİ TEKNOLOJİLERİ|10.40.25.62|||110000474326|40
07.10.2018 03:00:00||VSMART BİLGİ TEKNOLOJİLERİ|10.40.25.62|||110000474326|10
07.10.2018 03:00:00||VSMART BİLGİ TEKNOLOJİLERİ|10.40.25.62|||110000474326|10
07.10.2018 03:00:00||VSMART BİLGİ TEKNOLOJİLERİ|10.40.25.62|||110000474326|80
07.10.2018 03:00:00||VSMART BİLGİ TEKNOLOJİLERİ|10.40.25.62|||110000474326|82
07.10.2018 03:00:00||VSMART BİLGİ TEKNOLOJİLERİ|10.40.25.62|||110000474326|107
07.10.2018 03:00:00||VSMART BİLGİ TEKNOLOJİLERİ|10.40.24.62|||110000474326|10
