20.10.2018 06:00:00||AKTİFBANK|10.40.25.174|||110000438458|53
20.10.2018 06:00:00||AKTİFBANK|10.40.25.134|||110000438458|94
20.10.2018 06:00:00||AKTİFBANK|10.40.25.135|||110000438458|95
20.10.2018 06:00:00||AKTİFBANK|10.40.24.135|||110000438458|98
20.10.2018 06:00:00||AKTİFBANK|10.40.24.137|||110000438458|58
20.10.2018 06:00:00||AKTİFBANK|10.40.24.171|||110000438458|11
20.10.2018 06:00:00||AKTİFBANK|10.40.25.172|||110000438458|88
20.10.2018 06:00:00||AKTİFBANK|10.40.24.173|||110000438458|92
20.10.2018 06:00:00||AKTİFBANK|10.40.24.174|||110000438458|60
20.10.2018 06:00:00||AKTİFBANK|10.40.24.172|||110000438458|96
20.10.2018 06:00:00||AKTİFBANK|10.40.24.134|||110000438458|94
20.10.2018 06:00:00||AKTİFBANK|10.40.25.137|||110000438458|57
20.10.2018 06:00:00||AKTİFBANK|10.40.25.171|||110000438458|12
20.10.2018 06:00:00||AKTİFBANK|10.40.24.158|||110000438458|82
20.10.2018 06:00:00||AKTİFBANK|10.40.24.164|||110000438458|68
20.10.2018 06:00:00||AKTİFBANK|10.40.25.138|||110000438458|80
20.10.2018 06:00:00||AKTİFBANK|10.40.25.139|||110000438458|10
20.10.2018 06:00:00||AKTİFBANK|10.40.25.140|||110000438458|32
20.10.2018 06:00:00||AKTİFBANK|10.40.25.151|||110000438458|522
20.10.2018 06:00:00||AKTİFBANK|10.40.25.141|||110000438458|100
20.10.2018 06:00:00||AKTİFBANK|10.40.25.141|||110000438458|75
20.10.2018 06:00:00||AKTİFBANK|10.40.25.142|||110000438458|73
20.10.2018 06:00:00||AKTİFBANK|10.40.25.133|||110000438458|110
20.10.2018 06:00:00||AKTİFBANK|10.40.25.149|||110000438458|100
20.10.2018 06:00:00||AKTİFBANK|10.40.25.149|||110000438458|90
20.10.2018 06:00:00||AKTİFBANK|10.40.25.149|||110000438458|88
20.10.2018 06:00:00||AKTİFBANK|10.40.25.140|||110000438458|30
20.10.2018 06:00:00||AKTİFBANK|10.40.25.150|||110000438458|548
20.10.2018 06:00:00||AKTİFBANK|10.40.25.139|||110000438458|170
20.10.2018 06:00:00||AKTİFBANK|10.40.25.139|||110000438458|40
20.10.2018 06:00:00||AKTİFBANK|10.40.25.140|||110000438458|80
20.10.2018 06:00:00||AKTİFBANK|10.40.25.140|||110000438458|70
20.10.2018 06:00:00||AKTİFBANK|10.40.25.140|||110000438458|30
20.10.2018 06:00:00||AKTİFBANK|10.40.25.151|||110000438458|523
20.10.2018 06:00:00||AKTİFBANK|10.40.25.151|||110000438458|507
20.10.2018 06:00:00||AKTİFBANK|10.40.25.141|||110000438458|40
20.10.2018 06:00:00||AKTİFBANK|10.40.25.141|||110000438458|100
20.10.2018 06:00:00||AKTİFBANK|10.40.25.141|||110000438458|75
20.10.2018 06:00:00||AKTİFBANK|10.40.25.142|||110000438458|40
20.10.2018 06:00:00||AKTİFBANK|10.40.25.149|||110000438458|70
20.10.2018 06:00:00||AKTİFBANK|10.40.25.149|||110000438458|110
20.10.2018 06:00:00||AKTİFBANK|10.40.25.149|||110000438458|90
20.10.2018 06:00:00||AKTİFBANK|10.40.25.149|||110000438458|93
20.10.2018 06:00:00||AKTİFBANK|10.40.25.149|||110000438458|103
20.10.2018 06:00:00||AKTİFBANK|10.40.24.139|||110000438458|60
20.10.2018 06:00:00||AKTİFBANK|10.40.25.153|||110000438458|10
20.10.2018 06:00:00||AKTİFBANK|10.40.25.150|||110000438458|565
20.10.2018 06:00:00||AKTİFBANK|10.40.25.153|||110000438458|70
20.10.2018 06:00:00||AKTİFBANK|10.40.25.163|||110000438458|50
20.10.2018 06:00:00||AKTİFBANK|10.40.24.141|||110000438458|68
20.10.2018 06:00:00||AKTİFBANK|10.40.24.151|||110000438458|523
20.10.2018 06:00:00||AKTİFBANK|10.40.25.153|||110000438458|80
20.10.2018 06:00:00||AKTİFBANK|10.40.24.149|||110000438458|83
20.10.2018 06:00:00||AKTİFBANK|10.40.24.141|||110000438458|50
20.10.2018 06:00:00||AKTİFBANK|10.40.25.133|||110000438458|280
20.10.2018 06:00:00||AKTİFBANK|10.40.25.133|||110000438458|90
20.10.2018 06:00:00||AKTİFBANK|10.40.24.149|||110000438458|90
20.10.2018 06:00:00||AKTİFBANK|10.40.24.162|||110000438458|210
20.10.2018 06:00:00||AKTİFBANK|10.40.24.162|||110000438458|30
20.10.2018 06:00:00||AKTİFBANK|10.40.24.162|||110000438458|40
20.10.2018 06:00:00||AKTİFBANK|10.40.25.133|||110000438458|150
20.10.2018 06:00:00||AKTİFBANK|10.40.25.138|||110000438458|130
20.10.2018 06:00:00||AKTİFBANK|10.40.25.149|||110000438458|60
20.10.2018 06:00:00||AKTİFBANK|10.40.25.149|||110000438458|70
20.10.2018 06:00:00||AKTİFBANK|10.40.25.149|||110000438458|30
20.10.2018 06:00:00||AKTİFBANK|10.40.25.149|||110000438458|68
20.10.2018 06:00:00||AKTİFBANK|10.40.25.149|||110000438458|70
20.10.2018 06:00:00||AKTİFBANK|10.40.25.141|||110000438458|100
20.10.2018 06:00:00||AKTİFBANK|10.40.25.149|||110000438458|130
20.10.2018 06:00:00||AKTİFBANK|10.40.25.138|||110000438458|92
20.10.2018 06:00:00||AKTİFBANK|10.40.25.138|||110000438458|72
20.10.2018 06:00:00||AKTİFBANK|10.40.25.139|||110000438458|100
20.10.2018 06:00:00||AKTİFBANK|10.40.24.145|||110000438458|70
20.10.2018 06:00:00||AKTİFBANK|10.40.24.149|||110000438458|160
20.10.2018 06:00:00||AKTİFBANK|10.40.25.138|||110000438458|30
20.10.2018 06:00:00||AKTİFBANK|10.40.25.138|||110000438458|10
20.10.2018 06:00:00||AKTİFBANK|10.40.25.153|||110000438458|60
20.10.2018 06:00:00||AKTİFBANK|10.40.24.150|||110000438458|550
20.10.2018 06:00:00||AKTİFBANK|10.40.25.128|||110000438458|70
20.10.2018 06:00:00||AKTİFBANK|10.40.25.128|||110000438458|90
20.10.2018 06:00:00||AKTİFBANK|10.40.25.128|||110000438458|90
20.10.2018 06:00:00||AKTİFBANK|10.40.25.128|||110000438458|40
20.10.2018 06:00:00||AKTİFBANK|10.40.25.128|||110000438458|60
20.10.2018 06:00:00||AKTİFBANK|10.40.25.129|||110000438458|90
20.10.2018 06:00:00||AKTİFBANK|10.40.25.129|||110000438458|65
20.10.2018 06:00:00||AKTİFBANK|10.40.25.129|||110000438458|140
20.10.2018 06:00:00||AKTİFBANK|10.40.25.129|||110000438458|102
20.10.2018 06:00:00||AKTİFBANK|10.40.25.129|||110000438458|40
20.10.2018 06:00:00||AKTİFBANK|10.40.25.129|||110000438458|92
20.10.2018 06:00:00||AKTİFBANK|10.40.25.129|||110000438458|93
20.10.2018 06:00:00||AKTİFBANK|10.40.25.130|||110000438458|63
20.10.2018 06:00:00||AKTİFBANK|10.40.25.130|||110000438458|50
20.10.2018 06:00:00||AKTİFBANK|10.40.25.130|||110000438458|72
20.10.2018 06:00:00||AKTİFBANK|10.40.25.130|||110000438458|33
20.10.2018 06:00:00||AKTİFBANK|10.40.25.130|||110000438458|60
20.10.2018 06:00:00||AKTİFBANK|10.40.25.130|||110000438458|102
20.10.2018 06:00:00||AKTİFBANK|10.40.25.130|||110000438458|85
20.10.2018 06:00:00||AKTİFBANK|10.40.25.131|||110000438458|20
20.10.2018 06:00:00||AKTİFBANK|10.40.25.131|||110000438458|77
20.10.2018 06:00:00||AKTİFBANK|10.40.25.131|||110000438458|100
20.10.2018 06:00:00||AKTİFBANK|10.40.25.131|||110000438458|102
20.10.2018 06:00:00||AKTİFBANK|10.40.25.131|||110000438458|82
20.10.2018 06:00:00||AKTİFBANK|10.40.25.131|||110000438458|83
20.10.2018 06:00:00||AKTİFBANK|10.40.25.131|||110000438458|22
20.10.2018 06:00:00||AKTİFBANK|10.40.25.131|||110000438458|120
20.10.2018 06:00:00||AKTİFBANK|10.40.25.132|||110000438458|62
20.10.2018 06:00:00||AKTİFBANK|10.40.25.132|||110000438458|62
20.10.2018 06:00:00||AKTİFBANK|10.40.25.132|||110000438458|80
20.10.2018 06:00:00||AKTİFBANK|10.40.25.132|||110000438458|172
20.10.2018 06:00:00||AKTİFBANK|10.40.25.132|||110000438458|60
20.10.2018 06:00:00||AKTİFBANK|10.40.25.143|||110000438458|320
20.10.2018 06:00:00||AKTİFBANK|10.40.25.144|||110000438458|80
20.10.2018 06:00:00||AKTİFBANK|10.40.25.144|||110000438458|50
20.10.2018 06:00:00||AKTİFBANK|10.40.25.144|||110000438458|20
20.10.2018 06:00:00||AKTİFBANK|10.40.25.154|||110000438458|10
20.10.2018 06:00:00||AKTİFBANK|10.40.25.154|||110000438458|10
20.10.2018 06:00:00||AKTİFBANK|10.40.25.154|||110000438458|10
20.10.2018 06:00:00||AKTİFBANK|10.40.25.157|||110000438458|70
20.10.2018 06:00:00||AKTİFBANK|10.40.25.157|||110000438458|70
20.10.2018 06:00:00||AKTİFBANK|10.40.25.157|||110000438458|72
20.10.2018 06:00:00||AKTİFBANK|10.40.25.157|||110000438458|82
20.10.2018 06:00:00||AKTİFBANK|10.40.25.157|||110000438458|40
20.10.2018 06:00:00||AKTİFBANK|10.40.25.159|||110000438458|60
20.10.2018 06:00:00||AKTİFBANK|10.40.25.159|||110000438458|10
20.10.2018 06:00:00||AKTİFBANK|10.40.25.159|||110000438458|90
20.10.2018 06:00:00||AKTİFBANK|10.40.25.158|||110000438458|92
20.10.2018 06:00:00||AKTİFBANK|10.40.25.158|||110000438458|73
20.10.2018 06:00:00||AKTİFBANK|10.40.25.158|||110000438458|87
20.10.2018 06:00:00||AKTİFBANK|10.40.25.158|||110000438458|50
20.10.2018 06:00:00||AKTİFBANK|10.40.25.160|||110000438458|90
20.10.2018 06:00:00||AKTİFBANK|10.40.25.161|||110000438458|80
20.10.2018 06:00:00||AKTİFBANK|10.40.25.161|||110000438458|70
20.10.2018 06:00:00||AKTİFBANK|10.40.25.161|||110000438458|40
20.10.2018 06:00:00||AKTİFBANK|10.40.25.161|||110000438458|30
20.10.2018 06:00:00||AKTİFBANK|10.40.25.161|||110000438458|20
20.10.2018 06:00:00||AKTİFBANK|10.40.25.161|||110000438458|57
20.10.2018 06:00:00||AKTİFBANK|10.40.25.145|||110000438458|90
20.10.2018 06:00:00||AKTİFBANK|10.40.25.145|||110000438458|60
20.10.2018 06:00:00||AKTİFBANK|10.40.25.145|||110000438458|60
20.10.2018 06:00:00||AKTİFBANK|10.40.25.145|||110000438458|30
20.10.2018 06:00:00||AKTİFBANK|10.40.25.145|||110000438458|50
20.10.2018 06:00:00||AKTİFBANK|10.40.25.147|||110000438458|90
20.10.2018 06:00:00||AKTİFBANK|10.40.25.162|||110000438458|30
20.10.2018 06:00:00||AKTİFBANK|10.40.25.162|||110000438458|30
20.10.2018 06:00:00||AKTİFBANK|10.40.25.162|||110000438458|60
20.10.2018 06:00:00||AKTİFBANK|10.40.25.164|||110000438458|60
20.10.2018 06:00:00||AKTİFBANK|10.40.25.164|||110000438458|280
20.10.2018 06:00:00||AKTİFBANK|10.40.25.164|||110000438458|50
20.10.2018 06:00:00||AKTİFBANK|10.40.25.164|||110000438458|260
20.10.2018 06:00:00||AKTİFBANK|10.40.25.164|||110000438458|270
20.10.2018 06:00:00||AKTİFBANK|10.40.25.165|||110000438458|110
20.10.2018 06:00:00||AKTİFBANK|10.40.25.165|||110000438458|70
20.10.2018 06:00:00||AKTİFBANK|10.40.25.165|||110000438458|80
20.10.2018 06:00:00||AKTİFBANK|10.40.25.165|||110000438458|100
20.10.2018 06:00:00||AKTİFBANK|10.40.25.166|||110000438458|90
20.10.2018 06:00:00||AKTİFBANK|10.40.25.166|||110000438458|10
20.10.2018 06:00:00||AKTİFBANK|10.40.25.166|||110000438458|10
20.10.2018 06:00:00||AKTİFBANK|10.40.25.166|||110000438458|10
20.10.2018 06:00:00||AKTİFBANK|10.40.25.166|||110000438458|40
20.10.2018 06:00:00||AKTİFBANK|10.40.25.148|||110000438458|130
20.10.2018 06:00:00||AKTİFBANK|10.40.25.148|||110000438458|50
20.10.2018 06:00:00||AKTİFBANK|10.40.25.148|||110000438458|100
20.10.2018 06:00:00||AKTİFBANK|10.40.25.148|||110000438458|130
20.10.2018 06:00:00||AKTİFBANK|10.40.25.148|||110000438458|90
20.10.2018 06:00:00||AKTİFBANK|10.40.25.148|||110000438458|80
20.10.2018 06:00:00||AKTİFBANK|10.40.25.148|||110000438458|70
20.10.2018 06:00:00||AKTİFBANK|10.40.25.148|||110000438458|50
20.10.2018 06:00:00||AKTİFBANK|10.40.25.148|||110000438458|80
20.10.2018 06:00:00||AKTİFBANK|10.40.25.148|||110000438458|40
20.10.2018 06:00:00||AKTİFBANK|10.40.25.148|||110000438458|100
20.10.2018 06:00:00||AKTİFBANK|10.40.25.148|||110000438458|60
20.10.2018 06:00:00||AKTİFBANK|10.40.25.155|||110000438458|70
20.10.2018 06:00:00||AKTİFBANK|10.40.25.155|||110000438458|90
20.10.2018 06:00:00||AKTİFBANK|10.40.25.155|||110000438458|110
20.10.2018 06:00:00||AKTİFBANK|10.40.25.155|||110000438458|120
20.10.2018 06:00:00||AKTİFBANK|10.40.25.155|||110000438458|110
20.10.2018 06:00:00||AKTİFBANK|10.40.25.156|||110000438458|20
20.10.2018 06:00:00||AKTİFBANK|10.40.25.156|||110000438458|30
20.10.2018 06:00:00||AKTİFBANK|10.40.25.139|||110000438458|70
20.10.2018 06:00:00||AKTİFBANK|10.40.25.139|||110000438458|80
20.10.2018 06:00:00||AKTİFBANK|10.40.25.150|||110000438458|523
20.10.2018 06:00:00||AKTİFBANK|10.40.25.129|||110000438458|60
20.10.2018 06:00:00||AKTİFBANK|10.40.25.129|||110000438458|85
20.10.2018 06:00:00||AKTİFBANK|10.40.25.129|||110000438458|142
20.10.2018 06:00:00||AKTİFBANK|10.40.25.130|||110000438458|77
20.10.2018 06:00:00||AKTİFBANK|10.40.25.130|||110000438458|130
20.10.2018 06:00:00||AKTİFBANK|10.40.25.130|||110000438458|100
20.10.2018 06:00:00||AKTİFBANK|10.40.25.131|||110000438458|43
20.10.2018 06:00:00||AKTİFBANK|10.40.25.143|||110000438458|60
20.10.2018 06:00:00||AKTİFBANK|10.40.25.143|||110000438458|243
20.10.2018 06:00:00||AKTİFBANK|10.40.25.143|||110000438458|267
20.10.2018 06:00:00||AKTİFBANK|10.40.25.158|||110000438458|103
20.10.2018 06:00:00||AKTİFBANK|10.40.25.160|||110000438458|110
20.10.2018 06:00:00||AKTİFBANK|10.40.25.162|||110000438458|32
20.10.2018 06:00:00||AKTİFBANK|10.40.25.162|||110000438458|43
20.10.2018 06:00:00||AKTİFBANK|10.40.24.140|||110000438458|160
20.10.2018 06:00:00||AKTİFBANK|10.40.24.140|||110000438458|80
20.10.2018 06:00:00||AKTİFBANK|10.40.24.140|||110000438458|40
20.10.2018 06:00:00||AKTİFBANK|10.40.24.140|||110000438458|30
20.10.2018 06:00:00||AKTİFBANK|10.40.24.140|||110000438458|30
20.10.2018 06:00:00||AKTİFBANK|10.40.24.140|||110000438458|27
20.10.2018 06:00:00||AKTİFBANK|10.40.24.149|||110000438458|80
20.10.2018 06:00:00||AKTİFBANK|10.40.24.149|||110000438458|120
20.10.2018 06:00:00||AKTİFBANK|10.40.24.149|||110000438458|90
20.10.2018 06:00:00||AKTİFBANK|10.40.24.149|||110000438458|50
20.10.2018 06:00:00||AKTİFBANK|10.40.24.149|||110000438458|50
20.10.2018 06:00:00||AKTİFBANK|10.40.24.149|||110000438458|140
20.10.2018 06:00:00||AKTİFBANK|10.40.24.149|||110000438458|90
20.10.2018 06:00:00||AKTİFBANK|10.40.24.149|||110000438458|90
20.10.2018 06:00:00||AKTİFBANK|10.40.24.149|||110000438458|95
20.10.2018 06:00:00||AKTİFBANK|10.40.24.149|||110000438458|80
20.10.2018 06:00:00||AKTİFBANK|10.40.24.133|||110000438458|145
20.10.2018 06:00:00||AKTİFBANK|10.40.24.133|||110000438458|275
20.10.2018 06:00:00||AKTİFBANK|10.40.24.133|||110000438458|120
20.10.2018 06:00:00||AKTİFBANK|10.40.24.133|||110000438458|88
20.10.2018 06:00:00||AKTİFBANK|10.40.24.138|||110000438458|112
20.10.2018 06:00:00||AKTİFBANK|10.40.24.138|||110000438458|140
20.10.2018 06:00:00||AKTİFBANK|10.40.24.138|||110000438458|113
20.10.2018 06:00:00||AKTİFBANK|10.40.24.138|||110000438458|30
20.10.2018 06:00:00||AKTİFBANK|10.40.24.138|||110000438458|50
20.10.2018 06:00:00||AKTİFBANK|10.40.24.139|||110000438458|160
20.10.2018 06:00:00||AKTİFBANK|10.40.24.139|||110000438458|92
20.10.2018 06:00:00||AKTİFBANK|10.40.24.139|||110000438458|120
20.10.2018 06:00:00||AKTİFBANK|10.40.24.141|||110000438458|200
20.10.2018 06:00:00||AKTİFBANK|10.40.24.141|||110000438458|100
20.10.2018 06:00:00||AKTİFBANK|10.40.24.141|||110000438458|100
20.10.2018 06:00:00||AKTİFBANK|10.40.24.141|||110000438458|68
20.10.2018 06:00:00||AKTİFBANK|10.40.24.141|||110000438458|80
20.10.2018 06:00:00||AKTİFBANK|10.40.25.152|||110000438458|110
20.10.2018 06:00:00||AKTİFBANK|10.40.25.152|||110000438458|50
20.10.2018 06:00:00||AKTİFBANK|10.40.25.152|||110000438458|140
20.10.2018 06:00:00||AKTİFBANK|10.40.25.152|||110000438458|70
20.10.2018 06:00:00||AKTİFBANK|10.40.25.152|||110000438458|90
20.10.2018 06:00:00||AKTİFBANK|10.40.25.152|||110000438458|160
20.10.2018 06:00:00||AKTİFBANK|10.40.25.152|||110000438458|50
20.10.2018 06:00:00||AKTİFBANK|10.40.25.152|||110000438458|90
20.10.2018 06:00:00||AKTİFBANK|10.40.25.152|||110000438458|30
20.10.2018 06:00:00||AKTİFBANK|10.40.25.152|||110000438458|80
20.10.2018 06:00:00||AKTİFBANK|10.40.25.152|||110000438458|30
20.10.2018 06:00:00||AKTİFBANK|10.40.24.150|||110000438458|567
20.10.2018 06:00:00||AKTİFBANK|10.40.24.151|||110000438458|525
20.10.2018 06:00:00||AKTİFBANK|10.40.24.151|||110000438458|533
20.10.2018 06:00:00||AKTİFBANK|10.40.24.128|||110000438458|60
20.10.2018 06:00:00||AKTİFBANK|10.40.24.128|||110000438458|70
20.10.2018 06:00:00||AKTİFBANK|10.40.24.128|||110000438458|100
20.10.2018 06:00:00||AKTİFBANK|10.40.24.128|||110000438458|40
20.10.2018 06:00:00||AKTİFBANK|10.40.24.128|||110000438458|70
20.10.2018 06:00:00||AKTİFBANK|10.40.24.128|||110000438458|60
20.10.2018 06:00:00||AKTİFBANK|10.40.24.129|||110000438458|100
20.10.2018 06:00:00||AKTİFBANK|10.40.24.129|||110000438458|70
20.10.2018 06:00:00||AKTİFBANK|10.40.24.129|||110000438458|110
20.10.2018 06:00:00||AKTİFBANK|10.40.24.129|||110000438458|120
20.10.2018 06:00:00||AKTİFBANK|10.40.24.129|||110000438458|40
20.10.2018 06:00:00||AKTİFBANK|10.40.24.129|||110000438458|70
20.10.2018 06:00:00||AKTİFBANK|10.40.24.129|||110000438458|70
20.10.2018 06:00:00||AKTİFBANK|10.40.24.129|||110000438458|90
20.10.2018 06:00:00||AKTİFBANK|10.40.24.129|||110000438458|80
20.10.2018 06:00:00||AKTİFBANK|10.40.24.129|||110000438458|140
20.10.2018 06:00:00||AKTİFBANK|10.40.24.130|||110000438458|40
20.10.2018 06:00:00||AKTİFBANK|10.40.24.130|||110000438458|40
20.10.2018 06:00:00||AKTİFBANK|10.40.24.130|||110000438458|70
20.10.2018 06:00:00||AKTİFBANK|10.40.24.130|||110000438458|42
20.10.2018 06:00:00||AKTİFBANK|10.40.24.130|||110000438458|60
20.10.2018 06:00:00||AKTİFBANK|10.40.24.130|||110000438458|72
20.10.2018 06:00:00||AKTİFBANK|10.40.24.130|||110000438458|85
20.10.2018 06:00:00||AKTİFBANK|10.40.24.130|||110000438458|37
20.10.2018 06:00:00||AKTİFBANK|10.40.24.130|||110000438458|130
20.10.2018 06:00:00||AKTİFBANK|10.40.24.130|||110000438458|110
20.10.2018 06:00:00||AKTİFBANK|10.40.24.131|||110000438458|78
20.10.2018 06:00:00||AKTİFBANK|10.40.24.131|||110000438458|88
20.10.2018 06:00:00||AKTİFBANK|10.40.24.131|||110000438458|112
20.10.2018 06:00:00||AKTİFBANK|10.40.24.131|||110000438458|112
20.10.2018 06:00:00||AKTİFBANK|10.40.24.131|||110000438458|20
20.10.2018 06:00:00||AKTİFBANK|10.40.24.131|||110000438458|160
20.10.2018 06:00:00||AKTİFBANK|10.40.24.131|||110000438458|60
20.10.2018 06:00:00||AKTİFBANK|10.40.24.131|||110000438458|110
20.10.2018 06:00:00||AKTİFBANK|10.40.24.132|||110000438458|35
20.10.2018 06:00:00||AKTİFBANK|10.40.24.132|||110000438458|78
20.10.2018 06:00:00||AKTİFBANK|10.40.24.132|||110000438458|53
20.10.2018 06:00:00||AKTİFBANK|10.40.24.132|||110000438458|202
20.10.2018 06:00:00||AKTİFBANK|10.40.24.132|||110000438458|68
20.10.2018 06:00:00||AKTİFBANK|10.40.24.143|||110000438458|67
20.10.2018 06:00:00||AKTİFBANK|10.40.24.143|||110000438458|270
20.10.2018 06:00:00||AKTİFBANK|10.40.24.143|||110000438458|278
20.10.2018 06:00:00||AKTİFBANK|10.40.24.143|||110000438458|222
20.10.2018 06:00:00||AKTİFBANK|10.40.24.144|||110000438458|70
20.10.2018 06:00:00||AKTİFBANK|10.40.24.144|||110000438458|107
20.10.2018 06:00:00||AKTİFBANK|10.40.24.144|||110000438458|130
20.10.2018 06:00:00||AKTİFBANK|10.40.24.148|||110000438458|57
20.10.2018 06:00:00||AKTİFBANK|10.40.24.148|||110000438458|167
20.10.2018 06:00:00||AKTİFBANK|10.40.24.148|||110000438458|80
20.10.2018 06:00:00||AKTİFBANK|10.40.24.148|||110000438458|110
20.10.2018 06:00:00||AKTİFBANK|10.40.24.148|||110000438458|80
20.10.2018 06:00:00||AKTİFBANK|10.40.24.148|||110000438458|80
20.10.2018 06:00:00||AKTİFBANK|10.40.24.148|||110000438458|92
20.10.2018 06:00:00||AKTİFBANK|10.40.24.148|||110000438458|102
20.10.2018 06:00:00||AKTİFBANK|10.40.24.148|||110000438458|80
20.10.2018 06:00:00||AKTİFBANK|10.40.24.148|||110000438458|60
20.10.2018 06:00:00||AKTİFBANK|10.40.24.148|||110000438458|32
20.10.2018 06:00:00||AKTİFBANK|10.40.24.148|||110000438458|70
20.10.2018 06:00:00||AKTİFBANK|10.40.24.153|||110000438458|10
20.10.2018 06:00:00||AKTİFBANK|10.40.24.153|||110000438458|92
20.10.2018 06:00:00||AKTİFBANK|10.40.24.153|||110000438458|73
20.10.2018 06:00:00||AKTİFBANK|10.40.24.153|||110000438458|83
20.10.2018 06:00:00||AKTİFBANK|10.40.24.157|||110000438458|30
20.10.2018 06:00:00||AKTİFBANK|10.40.24.157|||110000438458|75
20.10.2018 06:00:00||AKTİFBANK|10.40.24.157|||110000438458|73
20.10.2018 06:00:00||AKTİFBANK|10.40.24.157|||110000438458|42
20.10.2018 06:00:00||AKTİFBANK|10.40.24.157|||110000438458|82
20.10.2018 06:00:00||AKTİFBANK|10.40.24.157|||110000438458|42
20.10.2018 06:00:00||AKTİFBANK|10.40.24.158|||110000438458|82
20.10.2018 06:00:00||AKTİFBANK|10.40.24.158|||110000438458|110
20.10.2018 06:00:00||AKTİFBANK|10.40.24.159|||110000438458|132
20.10.2018 06:00:00||AKTİFBANK|10.40.24.159|||110000438458|50
20.10.2018 06:00:00||AKTİFBANK|10.40.24.159|||110000438458|180
20.10.2018 06:00:00||AKTİFBANK|10.40.24.160|||110000438458|50
20.10.2018 06:00:00||AKTİFBANK|10.40.24.160|||110000438458|92
20.10.2018 06:00:00||AKTİFBANK|10.40.24.160|||110000438458|100
20.10.2018 06:00:00||AKTİFBANK|10.40.24.161|||110000438458|202
20.10.2018 06:00:00||AKTİFBANK|10.40.24.161|||110000438458|80
20.10.2018 06:00:00||AKTİFBANK|10.40.24.161|||110000438458|40
20.10.2018 06:00:00||AKTİFBANK|10.40.24.161|||110000438458|30
20.10.2018 06:00:00||AKTİFBANK|10.40.24.161|||110000438458|30
20.10.2018 06:00:00||AKTİFBANK|10.40.24.161|||110000438458|20
20.10.2018 06:00:00||AKTİFBANK|10.40.24.161|||110000438458|90
20.10.2018 06:00:00||AKTİFBANK|10.40.24.145|||110000438458|30
20.10.2018 06:00:00||AKTİFBANK|10.40.24.145|||110000438458|70
20.10.2018 06:00:00||AKTİFBANK|10.40.24.145|||110000438458|60
20.10.2018 06:00:00||AKTİFBANK|10.40.24.147|||110000438458|90
20.10.2018 06:00:00||AKTİFBANK|10.40.24.162|||110000438458|40
20.10.2018 06:00:00||AKTİFBANK|10.40.24.162|||110000438458|40
20.10.2018 06:00:00||AKTİFBANK|10.40.24.162|||110000438458|107
20.10.2018 06:00:00||AKTİFBANK|10.40.24.162|||110000438458|10
20.10.2018 06:00:00||AKTİFBANK|10.40.24.162|||110000438458|52
20.10.2018 06:00:00||AKTİFBANK|10.40.24.163|||110000438458|30
20.10.2018 06:00:00||AKTİFBANK|10.40.24.163|||110000438458|72
20.10.2018 06:00:00||AKTİFBANK|10.40.24.164|||110000438458|60
20.10.2018 06:00:00||AKTİFBANK|10.40.24.164|||110000438458|330
20.10.2018 06:00:00||AKTİFBANK|10.40.24.164|||110000438458|220
20.10.2018 06:00:00||AKTİFBANK|10.40.24.165|||110000438458|77
20.10.2018 06:00:00||AKTİFBANK|10.40.24.165|||110000438458|80
20.10.2018 06:00:00||AKTİFBANK|10.40.24.165|||110000438458|50
20.10.2018 06:00:00||AKTİFBANK|10.40.24.165|||110000438458|122
20.10.2018 06:00:00||AKTİFBANK|10.40.24.166|||110000438458|88
20.10.2018 06:00:00||AKTİFBANK|10.40.24.166|||110000438458|90
20.10.2018 06:00:00||AKTİFBANK|10.40.24.166|||110000438458|10
20.10.2018 06:00:00||AKTİFBANK|10.40.25.168|||110000438458|90
20.10.2018 06:00:00||AKTİFBANK|10.40.25.168|||110000438458|70
20.10.2018 06:00:00||AKTİFBANK|10.40.25.168|||110000438458|50
20.10.2018 06:00:00||AKTİFBANK|10.40.25.168|||110000438458|40
20.10.2018 06:00:00||AKTİFBANK|10.40.25.168|||110000438458|60
20.10.2018 06:00:00||AKTİFBANK|10.40.24.168|||110000438458|90
20.10.2018 06:00:00||AKTİFBANK|10.40.24.168|||110000438458|80
20.10.2018 06:00:00||AKTİFBANK|10.40.24.168|||110000438458|70
20.10.2018 06:00:00||AKTİFBANK|10.40.24.168|||110000438458|70
20.10.2018 06:00:00||AKTİFBANK|10.40.24.168|||110000438458|30
20.10.2018 06:00:00||AKTİFBANK|10.40.24.154|||110000438458|70
20.10.2018 06:00:00||AKTİFBANK|10.40.24.154|||110000438458|20
20.10.2018 06:00:00||AKTİFBANK|10.40.24.154|||110000438458|10
20.10.2018 06:00:00||AKTİFBANK|10.40.24.154|||110000438458|10
20.10.2018 06:00:00||AKTİFBANK|10.40.24.154|||110000438458|10
20.10.2018 06:00:00||AKTİFBANK|10.40.24.154|||110000438458|10
20.10.2018 06:00:00||AKTİFBANK|10.40.24.155|||110000438458|62
20.10.2018 06:00:00||AKTİFBANK|10.40.24.155|||110000438458|100
20.10.2018 06:00:00||AKTİFBANK|10.40.24.155|||110000438458|130
20.10.2018 06:00:00||AKTİFBANK|10.40.24.155|||110000438458|80
20.10.2018 06:00:00||AKTİFBANK|10.40.24.155|||110000438458|110
20.10.2018 06:00:00||AKTİFBANK|10.40.24.155|||110000438458|100
20.10.2018 06:00:00||AKTİFBANK|10.40.25.169|||110000438458|87
20.10.2018 06:00:00||AKTİFBANK|10.40.25.169|||110000438458|103
20.10.2018 06:00:00||AKTİFBANK|10.40.25.169|||110000438458|70
20.10.2018 06:00:00||AKTİFBANK|10.40.25.169|||110000438458|93
20.10.2018 06:00:00||AKTİFBANK|10.40.24.169|||110000438458|75
20.10.2018 06:00:00||AKTİFBANK|10.40.24.169|||110000438458|85
20.10.2018 06:00:00||AKTİFBANK|10.40.24.169|||110000438458|82
20.10.2018 06:00:00||AKTİFBANK|10.40.24.169|||110000438458|82
20.10.2018 06:00:00||AKTİFBANK|10.40.25.170|||110000438458|30
20.10.2018 06:00:00||AKTİFBANK|10.40.25.170|||110000438458|30
20.10.2018 06:00:00||AKTİFBANK|10.40.25.170|||110000438458|200
20.10.2018 06:00:00||AKTİFBANK|10.40.25.170|||110000438458|100
20.10.2018 06:00:00||AKTİFBANK|10.40.25.170|||110000438458|80
20.10.2018 06:00:00||AKTİFBANK|10.40.25.170|||110000438458|120
20.10.2018 06:00:00||AKTİFBANK|10.40.24.170|||110000438458|60
20.10.2018 06:00:00||AKTİFBANK|10.40.24.170|||110000438458|60
20.10.2018 06:00:00||AKTİFBANK|10.40.24.170|||110000438458|352
20.10.2018 06:00:00||AKTİFBANK|10.40.24.170|||110000438458|148
20.10.2018 06:00:00||AKTİFBANK|10.40.24.170|||110000438458|82
20.10.2018 06:00:00||AKTİFBANK|10.40.24.170|||110000438458|102
20.10.2018 06:00:00||AKTİFBANK|10.40.24.170|||110000438458|83
20.10.2018 06:00:00||AKTİFBANK|10.40.25.178|||110000438458|590
20.10.2018 06:00:00||AKTİFBANK|10.40.25.178|||110000438458|560
20.10.2018 06:00:00||AKTİFBANK|10.40.25.178|||110000438458|550
20.10.2018 06:00:00||AKTİFBANK|10.40.24.178|||110000438458|560
20.10.2018 06:00:00||AKTİFBANK|10.40.24.178|||110000438458|543
20.10.2018 06:00:00||AKTİFBANK|10.40.24.178|||110000438458|553
20.10.2018 06:00:00||AKTİFBANK|10.40.25.179|||110000438458|393
20.10.2018 06:00:00||AKTİFBANK|10.40.25.179|||110000438458|363
20.10.2018 06:00:00||AKTİFBANK|10.40.25.179|||110000438458|367
20.10.2018 06:00:00||AKTİFBANK|10.40.24.179|||110000438458|323
20.10.2018 06:00:00||AKTİFBANK|10.40.24.179|||110000438458|323
20.10.2018 06:00:00||AKTİFBANK|10.40.24.179|||110000438458|318
20.10.2018 06:00:00||AKTİFBANK|10.40.24.142|||110000438458|40
20.10.2018 06:00:00||AKTİFBANK|10.40.24.156|||110000438458|50
20.10.2018 06:00:00||AKTİFBANK|10.40.24.156|||110000438458|50
20.10.2018 06:00:00||AKTİFBANK|10.40.25.186|||110000438458|90
20.10.2018 06:00:00||AKTİFBANK|10.40.25.186|||110000438458|20
20.10.2018 06:00:00||AKTİFBANK|10.40.25.186|||110000438458|70
20.10.2018 06:00:00||AKTİFBANK|10.40.24.186|||110000438458|92
20.10.2018 06:00:00||AKTİFBANK|10.40.24.186|||110000438458|30
20.10.2018 06:00:00||AKTİFBANK|10.40.24.186|||110000438458|58
20.10.2018 06:00:00||AKTİFBANK|10.40.24.186|||110000438458|40
20.10.2018 06:00:00||AKTİFBANK|10.40.24.152|||110000438458|10
20.10.2018 06:00:00||AKTİFBANK|10.40.24.152|||110000438458|50
20.10.2018 06:00:00||AKTİFBANK|10.40.24.152|||110000438458|90
20.10.2018 06:00:00||AKTİFBANK|10.40.24.152|||110000438458|103
20.10.2018 06:00:00||AKTİFBANK|10.40.24.152|||110000438458|97
20.10.2018 06:00:00||AKTİFBANK|10.40.24.152|||110000438458|107
20.10.2018 06:00:00||AKTİFBANK|10.40.24.152|||110000438458|320
20.10.2018 06:00:00||AKTİFBANK|10.40.24.152|||110000438458|77
20.10.2018 06:00:00||AKTİFBANK|10.40.24.152|||110000438458|92
20.10.2018 06:00:00||AKTİFBANK|10.40.24.152|||110000438458|30
20.10.2018 06:00:00||AKTİFBANK|10.40.24.152|||110000438458|78
20.10.2018 06:00:00||AKTİFBANK|10.40.24.152|||110000438458|30
20.10.2018 06:00:00||AKTİFBANK|10.40.24.133|||110000438458|73
20.10.2018 06:00:00||AKTİFBANK|10.40.24.138|||110000438458|120
20.10.2018 06:00:00||AKTİFBANK|10.40.24.139|||110000438458|30
20.10.2018 06:00:00||AKTİFBANK|10.40.24.149|||110000438458|110
20.10.2018 06:00:00||AKTİFBANK|10.40.24.150|||110000438458|543
20.10.2018 06:00:00||AKTİFBANK|10.40.24.145|||110000438458|60
20.10.2018 06:00:00||AKTİFBANK|10.40.24.164|||110000438458|228
20.10.2018 06:00:00||AKTİFBANK|10.40.25.133|||110000438458|70
20.10.2018 06:00:00||AKTİFBANK|10.40.24.145|||110000438458|90
20.10.2018 06:00:00||BARİKAT İNTERNET GÜVENLİĞİ|10.40.25.201|||110000479736|118
20.10.2018 06:00:00||BARİKAT İNTERNET GÜVENLİĞİ|10.40.25.201|||110000479736|102
20.10.2018 06:00:00||BARİKAT İNTERNET GÜVENLİĞİ|10.40.24.201|||110000479736|137
20.10.2018 06:00:00||BARİKAT İNTERNET GÜVENLİĞİ|10.40.24.201|||110000479736|93
20.10.2018 06:00:00||BOYNER|10.40.27.100|||101367941673|52
20.10.2018 06:00:00||BOYNER|10.40.27.101|||101367941673|165
20.10.2018 06:00:00||BOYNER|10.40.26.101|||101367941673|169
20.10.2018 06:00:00||BOYNER|10.40.26.100|||101367941673|57
20.10.2018 06:00:00||BOYNER|10.40.27.94|||101367941673|210
20.10.2018 06:00:00||BOYNER|10.40.27.94|||101367941673|90
20.10.2018 06:00:00||BOYNER|10.40.27.94|||101367941673|90
20.10.2018 06:00:00||BOYNER|10.40.27.94|||101367941673|100
20.10.2018 06:00:00||BOYNER|10.40.26.94|||101367941673|90
20.10.2018 06:00:00||BOYNER|10.40.26.94|||101367941673|80
20.10.2018 06:00:00||BOYNER|10.40.26.94|||101367941673|80
20.10.2018 06:00:00||BOYNER|10.40.27.95|||101367941673|120
20.10.2018 06:00:00||BOYNER|10.40.27.95|||101367941673|130
20.10.2018 06:00:00||BOYNER|10.40.27.95|||101367941673|232
20.10.2018 06:00:00||BOYNER|10.40.26.95|||101367941673|98
20.10.2018 06:00:00||BOYNER|10.40.26.95|||101367941673|200
20.10.2018 06:00:00||BOYNER|10.40.26.95|||101367941673|140
20.10.2018 06:00:00||BOYNER|10.40.27.96|||101367941673|60
20.10.2018 06:00:00||BOYNER|10.40.27.96|||101367941673|50
20.10.2018 06:00:00||BOYNER|10.40.27.96|||101367941673|50
20.10.2018 06:00:00||BOYNER|10.40.27.96|||101367941673|40
20.10.2018 06:00:00||BOYNER|10.40.27.96|||101367941673|35
20.10.2018 06:00:00||BOYNER|10.40.27.96|||101367941673|153
20.10.2018 06:00:00||BOYNER|10.40.27.96|||101367941673|150
20.10.2018 06:00:00||BOYNER|10.40.27.96|||101367941673|173
20.10.2018 06:00:00||BOYNER|10.40.27.96|||101367941673|167
20.10.2018 06:00:00||BOYNER|10.40.26.96|||101367941673|30
20.10.2018 06:00:00||BOYNER|10.40.26.96|||101367941673|40
20.10.2018 06:00:00||BOYNER|10.40.26.96|||101367941673|30
20.10.2018 06:00:00||BOYNER|10.40.26.96|||101367941673|40
20.10.2018 06:00:00||BOYNER|10.40.26.96|||101367941673|40
20.10.2018 06:00:00||BOYNER|10.40.26.96|||101367941673|50
20.10.2018 06:00:00||BOYNER|10.40.26.96|||101367941673|183
20.10.2018 06:00:00||BOYNER|10.40.26.96|||101367941673|198
20.10.2018 06:00:00||BOYNER|10.40.26.96|||101367941673|165
20.10.2018 06:00:00||BOYNER|10.40.26.96|||101367941673|173
20.10.2018 06:00:00||BOYNER|10.40.27.97|||101367941673|60
20.10.2018 06:00:00||BOYNER|10.40.27.97|||101367941673|642
20.10.2018 06:00:00||BOYNER|10.40.27.97|||101367941673|647
20.10.2018 06:00:00||BOYNER|10.40.27.97|||101367941673|680
20.10.2018 06:00:00||BOYNER|10.40.27.97|||101367941673|42
20.10.2018 06:00:00||BOYNER|10.40.27.97|||101367941673|30
20.10.2018 06:00:00||BOYNER|10.40.27.97|||101367941673|52
20.10.2018 06:00:00||BOYNER|10.40.27.97|||101367941673|30
20.10.2018 06:00:00||BOYNER|10.40.27.97|||101367941673|177
20.10.2018 06:00:00||BOYNER|10.40.27.97|||101367941673|180
20.10.2018 06:00:00||BOYNER|10.40.27.97|||101367941673|193
20.10.2018 06:00:00||BOYNER|10.40.27.97|||101367941673|197
20.10.2018 06:00:00||BOYNER|10.40.26.97|||101367941673|30
20.10.2018 06:00:00||BOYNER|10.40.26.97|||101367941673|642
20.10.2018 06:00:00||BOYNER|10.40.26.97|||101367941673|638
20.10.2018 06:00:00||BOYNER|10.40.26.97|||101367941673|647
20.10.2018 06:00:00||BOYNER|10.40.26.97|||101367941673|33
20.10.2018 06:00:00||BOYNER|10.40.26.97|||101367941673|40
20.10.2018 06:00:00||BOYNER|10.40.26.97|||101367941673|50
20.10.2018 06:00:00||BOYNER|10.40.26.97|||101367941673|60
20.10.2018 06:00:00||BOYNER|10.40.26.97|||101367941673|30
20.10.2018 06:00:00||BOYNER|10.40.26.97|||101367941673|165
20.10.2018 06:00:00||BOYNER|10.40.26.97|||101367941673|182
20.10.2018 06:00:00||BOYNER|10.40.26.97|||101367941673|175
20.10.2018 06:00:00||BOYNER|10.40.26.97|||101367941673|160
20.10.2018 06:00:00||BOYNER|10.40.27.99|||101367941673|128
20.10.2018 06:00:00||BOYNER|10.40.27.99|||101367941673|93
20.10.2018 06:00:00||BOYNER|10.40.27.99|||101367941673|77
20.10.2018 06:00:00||BOYNER|10.40.26.99|||101367941673|12
20.10.2018 06:00:00||BOYNER|10.40.26.99|||101367941673|110
20.10.2018 06:00:00||BOYNER|10.40.26.99|||101367941673|95
20.10.2018 06:00:00||BOYNER|10.40.26.99|||101367941673|73
20.10.2018 06:00:00||ÇALIK HOLDİNG|10.40.25.99|||110000438407|136
20.10.2018 06:00:00||ÇALIK HOLDİNG|10.40.25.118|||110000438407|160
20.10.2018 06:00:00||ÇALIK HOLDİNG|10.40.24.118|||110000438407|43
20.10.2018 06:00:00||ÇALIK HOLDİNG|10.40.25.120|||110000438407|90
20.10.2018 06:00:00||ÇALIK HOLDİNG|10.40.24.95|||110000438407|50
20.10.2018 06:00:00||ÇALIK HOLDİNG|10.40.25.97|||110000438407|80
20.10.2018 06:00:00||ÇALIK HOLDİNG|10.40.25.103|||110000438407|90
20.10.2018 06:00:00||ÇALIK HOLDİNG|10.40.25.120|||110000438407|40
20.10.2018 06:00:00||ÇALIK HOLDİNG|10.40.25.96|||110000438407|70
20.10.2018 06:00:00||ÇALIK HOLDİNG|10.40.25.96|||110000438407|90
20.10.2018 06:00:00||ÇALIK HOLDİNG|10.40.25.96|||110000438407|120
20.10.2018 06:00:00||ÇALIK HOLDİNG|10.40.25.96|||110000438407|90
20.10.2018 06:00:00||ÇALIK HOLDİNG|10.40.25.115|||110000438407|163
20.10.2018 06:00:00||ÇALIK HOLDİNG|10.40.25.115|||110000438407|70
20.10.2018 06:00:00||ÇALIK HOLDİNG|10.40.25.95|||110000438407|92
20.10.2018 06:00:00||ÇALIK HOLDİNG|10.40.25.96|||110000438407|90
20.10.2018 06:00:00||ÇALIK HOLDİNG|10.40.25.96|||110000438407|100
20.10.2018 06:00:00||ÇALIK HOLDİNG|10.40.25.120|||110000438407|20
20.10.2018 06:00:00||ÇALIK HOLDİNG|10.40.25.95|||110000438407|52
20.10.2018 06:00:00||ÇALIK HOLDİNG|10.40.24.94|||110000438407|180
20.10.2018 06:00:00||ÇALIK HOLDİNG|10.40.25.97|||110000438407|107
20.10.2018 06:00:00||ÇALIK HOLDİNG|10.40.25.120|||110000438407|60
20.10.2018 06:00:00||ÇALIK HOLDİNG|10.40.25.115|||110000438407|83
20.10.2018 06:00:00||ÇALIK HOLDİNG|10.40.25.115|||110000438407|65
20.10.2018 06:00:00||ÇALIK HOLDİNG|10.40.25.115|||110000438407|67
20.10.2018 06:00:00||ÇALIK HOLDİNG|10.40.25.101|||110000438407|50
20.10.2018 06:00:00||ÇALIK HOLDİNG|10.40.25.101|||110000438407|110
20.10.2018 06:00:00||ÇALIK HOLDİNG|10.40.25.101|||110000438407|30
20.10.2018 06:00:00||ÇALIK HOLDİNG|10.40.25.101|||110000438407|10
20.10.2018 06:00:00||ÇALIK HOLDİNG|10.40.25.101|||110000438407|90
20.10.2018 06:00:00||ÇALIK HOLDİNG|10.40.25.101|||110000438407|30
20.10.2018 06:00:00||ÇALIK HOLDİNG|10.40.25.101|||110000438407|40
20.10.2018 06:00:00||ÇALIK HOLDİNG|10.40.25.101|||110000438407|40
20.10.2018 06:00:00||ÇALIK HOLDİNG|10.40.25.101|||110000438407|90
20.10.2018 06:00:00||ÇALIK HOLDİNG|10.40.25.101|||110000438407|90
20.10.2018 06:00:00||ÇALIK HOLDİNG|10.40.25.101|||110000438407|90
20.10.2018 06:00:00||ÇALIK HOLDİNG|10.40.25.94|||110000438407|180
20.10.2018 06:00:00||ÇALIK HOLDİNG|10.40.25.94|||110000438407|180
20.10.2018 06:00:00||ÇALIK HOLDİNG|10.40.25.94|||110000438407|170
20.10.2018 06:00:00||ÇALIK HOLDİNG|10.40.25.94|||110000438407|180
20.10.2018 06:00:00||ÇALIK HOLDİNG|10.40.24.94|||110000438407|195
20.10.2018 06:00:00||ÇALIK HOLDİNG|10.40.24.94|||110000438407|177
20.10.2018 06:00:00||ÇALIK HOLDİNG|10.40.24.94|||110000438407|185
20.10.2018 06:00:00||ÇALIK HOLDİNG|10.40.25.95|||110000438407|20
20.10.2018 06:00:00||ÇALIK HOLDİNG|10.40.25.95|||110000438407|348
20.10.2018 06:00:00||ÇALIK HOLDİNG|10.40.25.95|||110000438407|365
20.10.2018 06:00:00||ÇALIK HOLDİNG|10.40.25.95|||110000438407|40
20.10.2018 06:00:00||ÇALIK HOLDİNG|10.40.24.95|||110000438407|100
20.10.2018 06:00:00||ÇALIK HOLDİNG|10.40.24.95|||110000438407|92
20.10.2018 06:00:00||ÇALIK HOLDİNG|10.40.24.95|||110000438407|383
20.10.2018 06:00:00||ÇALIK HOLDİNG|10.40.24.95|||110000438407|400
20.10.2018 06:00:00||ÇALIK HOLDİNG|10.40.25.96|||110000438407|90
20.10.2018 06:00:00||ÇALIK HOLDİNG|10.40.25.96|||110000438407|98
20.10.2018 06:00:00||ÇALIK HOLDİNG|10.40.25.96|||110000438407|100
20.10.2018 06:00:00||ÇALIK HOLDİNG|10.40.25.96|||110000438407|253
20.10.2018 06:00:00||ÇALIK HOLDİNG|10.40.25.96|||110000438407|263
20.10.2018 06:00:00||ÇALIK HOLDİNG|10.40.25.96|||110000438407|100
20.10.2018 06:00:00||ÇALIK HOLDİNG|10.40.25.96|||110000438407|90
20.10.2018 06:00:00||ÇALIK HOLDİNG|10.40.25.96|||110000438407|92
20.10.2018 06:00:00||ÇALIK HOLDİNG|10.40.25.97|||110000438407|88
20.10.2018 06:00:00||ÇALIK HOLDİNG|10.40.25.97|||110000438407|80
20.10.2018 06:00:00||ÇALIK HOLDİNG|10.40.25.97|||110000438407|295
20.10.2018 06:00:00||ÇALIK HOLDİNG|10.40.25.98|||110000438407|60
20.10.2018 06:00:00||ÇALIK HOLDİNG|10.40.25.98|||110000438407|170
20.10.2018 06:00:00||ÇALIK HOLDİNG|10.40.25.98|||110000438407|162
20.10.2018 06:00:00||ÇALIK HOLDİNG|10.40.25.98|||110000438407|170
20.10.2018 06:00:00||ÇALIK HOLDİNG|10.40.25.98|||110000438407|170
20.10.2018 06:00:00||ÇALIK HOLDİNG|10.40.25.98|||110000438407|70
20.10.2018 06:00:00||ÇALIK HOLDİNG|10.40.25.98|||110000438407|210
20.10.2018 06:00:00||ÇALIK HOLDİNG|10.40.25.98|||110000438407|180
20.10.2018 06:00:00||ÇALIK HOLDİNG|10.40.25.98|||110000438407|170
20.10.2018 06:00:00||ÇALIK HOLDİNG|10.40.25.98|||110000438407|218
20.10.2018 06:00:00||ÇALIK HOLDİNG|10.40.25.98|||110000438407|80
20.10.2018 06:00:00||ÇALIK HOLDİNG|10.40.25.98|||110000438407|300
20.10.2018 06:00:00||ÇALIK HOLDİNG|10.40.24.98|||110000438407|100
20.10.2018 06:00:00||ÇALIK HOLDİNG|10.40.24.98|||110000438407|160
20.10.2018 06:00:00||ÇALIK HOLDİNG|10.40.24.98|||110000438407|202
20.10.2018 06:00:00||ÇALIK HOLDİNG|10.40.24.98|||110000438407|200
20.10.2018 06:00:00||ÇALIK HOLDİNG|10.40.24.98|||110000438407|163
20.10.2018 06:00:00||ÇALIK HOLDİNG|10.40.24.98|||110000438407|30
20.10.2018 06:00:00||ÇALIK HOLDİNG|10.40.24.98|||110000438407|170
20.10.2018 06:00:00||ÇALIK HOLDİNG|10.40.24.98|||110000438407|180
20.10.2018 06:00:00||ÇALIK HOLDİNG|10.40.24.98|||110000438407|172
20.10.2018 06:00:00||ÇALIK HOLDİNG|10.40.24.98|||110000438407|177
20.10.2018 06:00:00||ÇALIK HOLDİNG|10.40.24.98|||110000438407|23
20.10.2018 06:00:00||ÇALIK HOLDİNG|10.40.24.98|||110000438407|270
20.10.2018 06:00:00||ÇALIK HOLDİNG|10.40.25.100|||110000438407|38
20.10.2018 06:00:00||ÇALIK HOLDİNG|10.40.25.100|||110000438407|40
20.10.2018 06:00:00||ÇALIK HOLDİNG|10.40.24.101|||110000438407|60
20.10.2018 06:00:00||ÇALIK HOLDİNG|10.40.24.101|||110000438407|110
20.10.2018 06:00:00||ÇALIK HOLDİNG|10.40.24.101|||110000438407|20
20.10.2018 06:00:00||ÇALIK HOLDİNG|10.40.24.101|||110000438407|20
20.10.2018 06:00:00||ÇALIK HOLDİNG|10.40.24.101|||110000438407|40
20.10.2018 06:00:00||ÇALIK HOLDİNG|10.40.24.101|||110000438407|73
20.10.2018 06:00:00||ÇALIK HOLDİNG|10.40.24.101|||110000438407|30
20.10.2018 06:00:00||ÇALIK HOLDİNG|10.40.24.101|||110000438407|10
20.10.2018 06:00:00||ÇALIK HOLDİNG|10.40.24.101|||110000438407|20
20.10.2018 06:00:00||ÇALIK HOLDİNG|10.40.24.101|||110000438407|50
20.10.2018 06:00:00||ÇALIK HOLDİNG|10.40.24.101|||110000438407|30
20.10.2018 06:00:00||ÇALIK HOLDİNG|10.40.24.101|||110000438407|80
20.10.2018 06:00:00||ÇALIK HOLDİNG|10.40.24.101|||110000438407|80
20.10.2018 06:00:00||ÇALIK HOLDİNG|10.40.24.101|||110000438407|90
20.10.2018 06:00:00||ÇALIK HOLDİNG|10.40.25.102|||110000438407|100
20.10.2018 06:00:00||ÇALIK HOLDİNG|10.40.25.102|||110000438407|90
20.10.2018 06:00:00||ÇALIK HOLDİNG|10.40.25.102|||110000438407|150
20.10.2018 06:00:00||ÇALIK HOLDİNG|10.40.24.102|||110000438407|100
20.10.2018 06:00:00||ÇALIK HOLDİNG|10.40.24.102|||110000438407|90
20.10.2018 06:00:00||ÇALIK HOLDİNG|10.40.24.102|||110000438407|140
20.10.2018 06:00:00||ÇALIK HOLDİNG|10.40.25.103|||110000438407|90
20.10.2018 06:00:00||ÇALIK HOLDİNG|10.40.25.103|||110000438407|80
20.10.2018 06:00:00||ÇALIK HOLDİNG|10.40.25.103|||110000438407|10
20.10.2018 06:00:00||ÇALIK HOLDİNG|10.40.25.115|||110000438407|80
20.10.2018 06:00:00||ÇALIK HOLDİNG|10.40.24.103|||110000438407|100
20.10.2018 06:00:00||ÇALIK HOLDİNG|10.40.24.103|||110000438407|80
20.10.2018 06:00:00||ÇALIK HOLDİNG|10.40.24.103|||110000438407|80
20.10.2018 06:00:00||ÇALIK HOLDİNG|10.40.24.103|||110000438407|20
20.10.2018 06:00:00||ÇALIK HOLDİNG|10.40.24.103|||110000438407|10
20.10.2018 06:00:00||ÇALIK HOLDİNG|10.40.25.113|||110000438407|223
20.10.2018 06:00:00||ÇALIK HOLDİNG|10.40.25.113|||110000438407|235
20.10.2018 06:00:00||ÇALIK HOLDİNG|10.40.25.113|||110000438407|185
20.10.2018 06:00:00||ÇALIK HOLDİNG|10.40.25.113|||110000438407|197
20.10.2018 06:00:00||ÇALIK HOLDİNG|10.40.24.113|||110000438407|222
20.10.2018 06:00:00||ÇALIK HOLDİNG|10.40.24.113|||110000438407|222
20.10.2018 06:00:00||ÇALIK HOLDİNG|10.40.24.113|||110000438407|182
20.10.2018 06:00:00||ÇALIK HOLDİNG|10.40.24.113|||110000438407|145
20.10.2018 06:00:00||ÇALIK HOLDİNG|10.40.25.114|||110000438407|170
20.10.2018 06:00:00||ÇALIK HOLDİNG|10.40.25.114|||110000438407|408
20.10.2018 06:00:00||ÇALIK HOLDİNG|10.40.25.114|||110000438407|40
20.10.2018 06:00:00||ÇALIK HOLDİNG|10.40.24.114|||110000438407|20
20.10.2018 06:00:00||ÇALIK HOLDİNG|10.40.24.114|||110000438407|40
20.10.2018 06:00:00||ÇALIK HOLDİNG|10.40.24.114|||110000438407|165
20.10.2018 06:00:00||ÇALIK HOLDİNG|10.40.24.114|||110000438407|373
20.10.2018 06:00:00||ÇALIK HOLDİNG|10.40.24.115|||110000438407|152
20.10.2018 06:00:00||ÇALIK HOLDİNG|10.40.24.115|||110000438407|80
20.10.2018 06:00:00||ÇALIK HOLDİNG|10.40.24.115|||110000438407|88
20.10.2018 06:00:00||ÇALIK HOLDİNG|10.40.24.115|||110000438407|70
20.10.2018 06:00:00||ÇALIK HOLDİNG|10.40.24.115|||110000438407|83
20.10.2018 06:00:00||ÇALIK HOLDİNG|10.40.24.115|||110000438407|70
20.10.2018 06:00:00||ÇALIK HOLDİNG|10.40.25.116|||110000438407|105
20.10.2018 06:00:00||ÇALIK HOLDİNG|10.40.25.116|||110000438407|95
20.10.2018 06:00:00||ÇALIK HOLDİNG|10.40.25.116|||110000438407|282
20.10.2018 06:00:00||ÇALIK HOLDİNG|10.40.24.116|||110000438407|270
20.10.2018 06:00:00||ÇALIK HOLDİNG|10.40.24.116|||110000438407|97
20.10.2018 06:00:00||ÇALIK HOLDİNG|10.40.24.116|||110000438407|107
20.10.2018 06:00:00||ÇALIK HOLDİNG|10.40.25.117|||110000438407|250
20.10.2018 06:00:00||ÇALIK HOLDİNG|10.40.25.117|||110000438407|30
20.10.2018 06:00:00||ÇALIK HOLDİNG|10.40.25.117|||110000438407|25
20.10.2018 06:00:00||ÇALIK HOLDİNG|10.40.25.119|||110000438407|30
20.10.2018 06:00:00||ÇALIK HOLDİNG|10.40.25.119|||110000438407|30
20.10.2018 06:00:00||ÇALIK HOLDİNG|10.40.24.119|||110000438407|150
20.10.2018 06:00:00||ÇALIK HOLDİNG|10.40.24.119|||110000438407|30
20.10.2018 06:00:00||ÇALIK HOLDİNG|10.40.24.119|||110000438407|50
20.10.2018 06:00:00||ÇALIK HOLDİNG|10.40.25.120|||110000438407|107
20.10.2018 06:00:00||ÇALIK HOLDİNG|10.40.25.120|||110000438407|50
20.10.2018 06:00:00||ÇALIK HOLDİNG|10.40.25.120|||110000438407|20
20.10.2018 06:00:00||ÇALIK HOLDİNG|10.40.25.120|||110000438407|20
20.10.2018 06:00:00||ÇALIK HOLDİNG|10.40.25.120|||110000438407|30
20.10.2018 06:00:00||ÇALIK HOLDİNG|10.40.25.120|||110000438407|85
20.10.2018 06:00:00||ÇALIK HOLDİNG|10.40.25.120|||110000438407|90
20.10.2018 06:00:00||ÇALIK HOLDİNG|10.40.24.120|||110000438407|20
20.10.2018 06:00:00||ÇALIK HOLDİNG|10.40.24.120|||110000438407|37
20.10.2018 06:00:00||ÇALIK HOLDİNG|10.40.24.120|||110000438407|110
20.10.2018 06:00:00||ÇALIK HOLDİNG|10.40.24.120|||110000438407|100
20.10.2018 06:00:00||ÇALIK HOLDİNG|10.40.24.120|||110000438407|40
20.10.2018 06:00:00||ÇALIK HOLDİNG|10.40.24.120|||110000438407|80
20.10.2018 06:00:00||ÇALIK HOLDİNG|10.40.24.120|||110000438407|80
20.10.2018 06:00:00||ÇALIK HOLDİNG|10.40.24.120|||110000438407|70
20.10.2018 06:00:00||ÇALIK HOLDİNG|10.40.25.121|||110000438407|90
20.10.2018 06:00:00||ÇALIK HOLDİNG|10.40.25.121|||110000438407|100
20.10.2018 06:00:00||ÇALIK HOLDİNG|10.40.25.121|||110000438407|150
20.10.2018 06:00:00||ÇALIK HOLDİNG|10.40.24.121|||110000438407|100
20.10.2018 06:00:00||ÇALIK HOLDİNG|10.40.24.121|||110000438407|100
20.10.2018 06:00:00||ÇALIK HOLDİNG|10.40.24.121|||110000438407|140
20.10.2018 06:00:00||ÇALIK HOLDİNG|10.40.25.122|||110000438407|90
20.10.2018 06:00:00||ÇALIK HOLDİNG|10.40.25.122|||110000438407|80
20.10.2018 06:00:00||ÇALIK HOLDİNG|10.40.25.122|||110000438407|80
20.10.2018 06:00:00||ÇALIK HOLDİNG|10.40.25.122|||110000438407|30
20.10.2018 06:00:00||ÇALIK HOLDİNG|10.40.25.122|||110000438407|10
20.10.2018 06:00:00||ÇALIK HOLDİNG|10.40.24.122|||110000438407|90
20.10.2018 06:00:00||ÇALIK HOLDİNG|10.40.24.122|||110000438407|80
20.10.2018 06:00:00||ÇALIK HOLDİNG|10.40.24.122|||110000438407|85
20.10.2018 06:00:00||ÇALIK HOLDİNG|10.40.24.117|||110000438407|200
20.10.2018 06:00:00||ÇALIK HOLDİNG|10.40.24.117|||110000438407|30
20.10.2018 06:00:00||ÇALIK HOLDİNG|10.40.24.117|||110000438407|30
20.10.2018 06:00:00||ÇALIK HOLDİNG|10.40.24.97|||110000438407|100
20.10.2018 06:00:00||ÇALIK HOLDİNG|10.40.24.97|||110000438407|90
20.10.2018 06:00:00||ÇALIK HOLDİNG|10.40.24.97|||110000438407|80
20.10.2018 06:00:00||ÇALIK HOLDİNG|10.40.24.97|||110000438407|90
20.10.2018 06:00:00||ÇALIK HOLDİNG|10.40.24.97|||110000438407|307
20.10.2018 06:00:00||ÇALIK HOLDİNG|10.40.24.100|||110000438407|30
20.10.2018 06:00:00||ÇALIK HOLDİNG|10.40.24.100|||110000438407|40
20.10.2018 06:00:00||FIBABANKA|10.40.25.54|||101571767266|330
20.10.2018 06:00:00||FIBABANKA|10.40.27.54|||101571767266|313
20.10.2018 06:00:00||FIBABANKA|10.40.27.55|||101571767266|109
20.10.2018 06:00:00||FIBABANKA|10.40.24.54|||101571767266|320
20.10.2018 06:00:00||FIBABANKA|10.40.25.55|||101571767266|111
20.10.2018 06:00:00||FIBABANKA|10.40.24.55|||101571767266|112
20.10.2018 06:00:00||FIBABANKA|10.40.24.56|||101571767266|197
20.10.2018 06:00:00||FIBABANKA|10.40.25.56|||101571767266|199
20.10.2018 06:00:00||FIBABANKA|10.40.26.55|||101571767266|109
20.10.2018 06:00:00||FIBABANKA|10.40.26.54|||101571767266|317
20.10.2018 06:00:00||FIBABANKA|10.40.25.57|||101571767266|90
20.10.2018 06:00:00||FIBABANKA|10.40.25.57|||101571767266|90
20.10.2018 06:00:00||FIBABANKA|10.40.25.57|||101571767266|90
20.10.2018 06:00:00||FIBABANKA|10.40.26.51|||101571767266|20
20.10.2018 06:00:00||FIBABANKA|10.40.27.52|||101571767266|50
20.10.2018 06:00:00||FIBABANKA|10.40.27.52|||101571767266|60
20.10.2018 06:00:00||FIBABANKA|10.40.27.52|||101571767266|70
20.10.2018 06:00:00||FIBABANKA|10.40.27.73|||101571767266|10
20.10.2018 06:00:00||FIBABANKA|10.40.27.74|||101571767266|168
20.10.2018 06:00:00||FIBABANKA|10.40.25.53|||101571767266|30
20.10.2018 06:00:00||FIBABANKA|10.40.25.53|||101571767266|50
20.10.2018 06:00:00||FIBABANKA|10.40.27.53|||101571767266|60
20.10.2018 06:00:00||FIBABANKA|10.40.26.53|||101571767266|60
20.10.2018 06:00:00||FIBABANKA|10.40.25.51|||101571767266|20
20.10.2018 06:00:00||FIBABANKA|10.40.25.51|||101571767266|110
20.10.2018 06:00:00||FIBABANKA|10.40.24.51|||101571767266|20
20.10.2018 06:00:00||FIBABANKA|10.40.24.51|||101571767266|70
20.10.2018 06:00:00||FIBABANKA|10.40.24.51|||101571767266|100
20.10.2018 06:00:00||FIBABANKA|10.40.24.51|||101571767266|140
20.10.2018 06:00:00||FIBABANKA|10.40.24.51|||101571767266|30
20.10.2018 06:00:00||FIBABANKA|10.40.24.57|||101571767266|90
20.10.2018 06:00:00||FIBABANKA|10.40.24.57|||101571767266|80
20.10.2018 06:00:00||FIBABANKA|10.40.24.57|||101571767266|80
20.10.2018 06:00:00||FIBABANKA|10.40.24.52|||101571767266|40
20.10.2018 06:00:00||FIBABANKA|10.40.24.52|||101571767266|10
20.10.2018 06:00:00||FIBABANKA|10.40.26.73|||101571767266|40
20.10.2018 06:00:00||FIBABANKA|10.40.27.53|||101571767266|70
20.10.2018 06:00:00||FIBABANKA|10.40.26.51|||101571767266|70
20.10.2018 06:00:00||FIBABANKA|10.40.26.52|||101571767266|30
20.10.2018 06:00:00||FIBABANKA|10.40.26.52|||101571767266|90
20.10.2018 06:00:00||FIBABANKA|10.40.26.52|||101571767266|30
20.10.2018 06:00:00||FIBABANKA|10.40.25.51|||101571767266|140
20.10.2018 06:00:00||FIBABANKA|10.40.25.51|||101571767266|40
20.10.2018 06:00:00||FIBABANKA|10.40.25.51|||101571767266|40
20.10.2018 06:00:00||FIBABANKA|10.40.25.51|||101571767266|70
20.10.2018 06:00:00||FIBABANKA|10.40.24.51|||101571767266|30
20.10.2018 06:00:00||FIBABANKA|10.40.24.58|||101571767266|10
20.10.2018 06:00:00||FIBABANKA|10.40.24.58|||101571767266|10
20.10.2018 06:00:00||FIBABANKA|10.40.25.59|||101571767266|70
20.10.2018 06:00:00||FIBABANKA|10.40.25.59|||101571767266|92
20.10.2018 06:00:00||FIBABANKA|10.40.25.59|||101571767266|93
20.10.2018 06:00:00||FIBABANKA|10.40.25.59|||101571767266|40
20.10.2018 06:00:00||FIBABANKA|10.40.25.59|||101571767266|122
20.10.2018 06:00:00||FIBABANKA|10.40.25.59|||101571767266|62
20.10.2018 06:00:00||FIBABANKA|10.40.25.59|||101571767266|60
20.10.2018 06:00:00||FIBABANKA|10.40.25.59|||101571767266|172
20.10.2018 06:00:00||FIBABANKA|10.40.25.59|||101571767266|62
20.10.2018 06:00:00||FIBABANKA|10.40.24.59|||101571767266|70
20.10.2018 06:00:00||FIBABANKA|10.40.24.59|||101571767266|122
20.10.2018 06:00:00||FIBABANKA|10.40.24.59|||101571767266|73
20.10.2018 06:00:00||FIBABANKA|10.40.24.59|||101571767266|50
20.10.2018 06:00:00||FIBABANKA|10.40.24.59|||101571767266|128
20.10.2018 06:00:00||FIBABANKA|10.40.24.59|||101571767266|70
20.10.2018 06:00:00||FIBABANKA|10.40.24.59|||101571767266|60
20.10.2018 06:00:00||FIBABANKA|10.40.24.59|||101571767266|162
20.10.2018 06:00:00||FIBABANKA|10.40.24.59|||101571767266|70
20.10.2018 06:00:00||FIBABANKA|10.40.25.60|||101571767266|118
20.10.2018 06:00:00||FIBABANKA|10.40.25.60|||101571767266|37
20.10.2018 06:00:00||FIBABANKA|10.40.25.60|||101571767266|110
20.10.2018 06:00:00||FIBABANKA|10.40.25.60|||101571767266|42
20.10.2018 06:00:00||FIBABANKA|10.40.24.60|||101571767266|123
20.10.2018 06:00:00||FIBABANKA|10.40.24.60|||101571767266|58
20.10.2018 06:00:00||FIBABANKA|10.40.24.60|||101571767266|40
20.10.2018 06:00:00||FIBABANKA|10.40.24.60|||101571767266|103
20.10.2018 06:00:00||FIBABANKA|10.40.24.60|||101571767266|50
20.10.2018 06:00:00||FIBABANKA|10.40.25.72|||101571767266|70
20.10.2018 06:00:00||FIBABANKA|10.40.25.72|||101571767266|40
20.10.2018 06:00:00||FIBABANKA|10.40.25.72|||101571767266|30
20.10.2018 06:00:00||FIBABANKA|10.40.24.72|||101571767266|140
20.10.2018 06:00:00||FIBABANKA|10.40.24.72|||101571767266|78
20.10.2018 06:00:00||FIBABANKA|10.40.24.72|||101571767266|30
20.10.2018 06:00:00||FIBABANKA|10.40.24.72|||101571767266|40
20.10.2018 06:00:00||FIBABANKA|10.40.25.74|||101571767266|30
20.10.2018 06:00:00||FIBABANKA|10.40.25.75|||101571767266|38
20.10.2018 06:00:00||FIBABANKA|10.40.25.75|||101571767266|75
20.10.2018 06:00:00||FIBABANKA|10.40.25.75|||101571767266|132
20.10.2018 06:00:00||FIBABANKA|10.40.25.75|||101571767266|168
20.10.2018 06:00:00||FIBABANKA|10.40.25.75|||101571767266|180
20.10.2018 06:00:00||FIBABANKA|10.40.25.75|||101571767266|202
20.10.2018 06:00:00||FIBABANKA|10.40.24.75|||101571767266|53
20.10.2018 06:00:00||FIBABANKA|10.40.24.75|||101571767266|50
20.10.2018 06:00:00||FIBABANKA|10.40.24.75|||101571767266|165
20.10.2018 06:00:00||FIBABANKA|10.40.24.75|||101571767266|150
20.10.2018 06:00:00||FIBABANKA|10.40.24.76|||101571767266|35
20.10.2018 06:00:00||FIBABANKA|10.40.24.76|||101571767266|70
20.10.2018 06:00:00||FIBABANKA|10.40.24.76|||101571767266|10
20.10.2018 06:00:00||FIBABANKA|10.40.24.53|||101571767266|30
20.10.2018 06:00:00||FIBABANKA|10.40.24.53|||101571767266|60
20.10.2018 06:00:00||FIBABANKA|10.40.26.57|||101571767266|90
20.10.2018 06:00:00||FIBABANKA|10.40.26.57|||101571767266|85
20.10.2018 06:00:00||FIBABANKA|10.40.26.57|||101571767266|80
20.10.2018 06:00:00||FIBABANKA|10.40.27.72|||101571767266|40
20.10.2018 06:00:00||FIBABANKA|10.40.27.72|||101571767266|50
20.10.2018 06:00:00||FIBABANKA|10.40.27.72|||101571767266|38
20.10.2018 06:00:00||FIBABANKA|10.40.27.72|||101571767266|140
20.10.2018 06:00:00||FIBABANKA|10.40.27.72|||101571767266|62
20.10.2018 06:00:00||FIBABANKA|10.40.26.72|||101571767266|30
20.10.2018 06:00:00||FIBABANKA|10.40.26.72|||101571767266|140
20.10.2018 06:00:00||FIBABANKA|10.40.26.72|||101571767266|70
20.10.2018 06:00:00||FIBABANKA|10.40.26.72|||101571767266|30
20.10.2018 06:00:00||FIBABANKA|10.40.27.73|||101571767266|32
20.10.2018 06:00:00||FIBABANKA|10.40.27.73|||101571767266|100
20.10.2018 06:00:00||FIBABANKA|10.40.27.73|||101571767266|40
20.10.2018 06:00:00||FIBABANKA|10.40.27.73|||101571767266|45
20.10.2018 06:00:00||FIBABANKA|10.40.27.73|||101571767266|262
20.10.2018 06:00:00||FIBABANKA|10.40.26.73|||101571767266|40
20.10.2018 06:00:00||FIBABANKA|10.40.26.73|||101571767266|70
20.10.2018 06:00:00||FIBABANKA|10.40.26.73|||101571767266|30
20.10.2018 06:00:00||FIBABANKA|10.40.26.73|||101571767266|3
20.10.2018 06:00:00||FIBABANKA|10.40.27.74|||101571767266|73
20.10.2018 06:00:00||FIBABANKA|10.40.27.74|||101571767266|158
20.10.2018 06:00:00||FIBABANKA|10.40.27.74|||101571767266|178
20.10.2018 06:00:00||FIBABANKA|10.40.26.74|||101571767266|70
20.10.2018 06:00:00||FIBABANKA|10.40.26.74|||101571767266|188
20.10.2018 06:00:00||FIBABANKA|10.40.26.74|||101571767266|182
20.10.2018 06:00:00||FIBABANKA|10.40.26.74|||101571767266|172
20.10.2018 06:00:00||FIBABANKA|10.40.27.75|||101571767266|10
20.10.2018 06:00:00||FIBABANKA|10.40.27.75|||101571767266|10
20.10.2018 06:00:00||FIBABANKA|10.40.26.79|||101571767266|10
20.10.2018 06:00:00||FIBABANKA|10.40.27.79|||101571767266|10
20.10.2018 06:00:00||FIBABANKA|10.40.27.79|||101571767266|10
20.10.2018 06:00:00||FIBABANKA|10.40.26.79|||101571767266|10
20.10.2018 06:00:00||FIBABANKA|10.40.27.77|||101571767266|165
20.10.2018 06:00:00||FIBABANKA|10.40.26.77|||101571767266|192
20.10.2018 06:00:00||FIBABANKA|10.40.27.77|||101571767266|162
20.10.2018 06:00:00||FIBABANKA|10.40.25.74|||101571767266|230
20.10.2018 06:00:00||FIBABANKA|10.40.24.75|||101571767266|177
20.10.2018 06:00:00||FIBABANKA|10.40.24.53|||101571767266|168
20.10.2018 06:00:00||FIBABANKA|10.40.24.53|||101571767266|175
20.10.2018 06:00:00||FIBABANKA|10.40.25.52|||101571767266|10
20.10.2018 06:00:00||FIBABANKA|10.40.25.52|||101571767266|50
20.10.2018 06:00:00||FIBABANKA|10.40.25.52|||101571767266|60
20.10.2018 06:00:00||FIBABANKA|10.40.25.53|||101571767266|153
20.10.2018 06:00:00||FIBABANKA|10.40.25.53|||101571767266|148
20.10.2018 06:00:00||FIBABANKA|10.40.27.51|||101571767266|30
20.10.2018 06:00:00||FIBABANKA|10.40.27.51|||101571767266|20
20.10.2018 06:00:00||FIBABANKA|10.40.27.51|||101571767266|100
20.10.2018 06:00:00||FIBABANKA|10.40.27.51|||101571767266|140
20.10.2018 06:00:00||FIBABANKA|10.40.27.51|||101571767266|70
20.10.2018 06:00:00||FIBABANKA|10.40.27.51|||101571767266|40
20.10.2018 06:00:00||FIBABANKA|10.40.27.51|||101571767266|40
20.10.2018 06:00:00||FIBABANKA|10.40.26.51|||101571767266|10
20.10.2018 06:00:00||FIBABANKA|10.40.26.51|||101571767266|110
20.10.2018 06:00:00||FIBABANKA|10.40.26.51|||101571767266|130
20.10.2018 06:00:00||FIBABANKA|10.40.26.51|||101571767266|30
20.10.2018 06:00:00||FIBABANKA|10.40.26.51|||101571767266|30
20.10.2018 06:00:00||FIBABANKA|10.40.24.74|||101571767266|32
20.10.2018 06:00:00||FIBABANKA|10.40.25.76|||101571767266|60
20.10.2018 06:00:00||FIBABANKA|10.40.25.76|||101571767266|40
20.10.2018 06:00:00||FIBABANKA|10.40.25.76|||101571767266|10
20.10.2018 06:00:00||FIBABANKA|10.40.26.53|||101571767266|42
20.10.2018 06:00:00||FIBABANKA|10.40.26.53|||101571767266|160
20.10.2018 06:00:00||FIBABANKA|10.40.25.76|||101571767266|10
20.10.2018 06:00:00||FIBABANKA|10.40.27.53|||101571767266|162
20.10.2018 06:00:00||FIBABANKA|10.40.27.53|||101571767266|162
20.10.2018 06:00:00||FIBABANKA|10.40.26.53|||101571767266|153
20.10.2018 06:00:00||FIBABANKA|10.40.27.57|||101571767266|80
20.10.2018 06:00:00||FIBABANKA|10.40.27.57|||101571767266|80
20.10.2018 06:00:00||FIBABANKA|10.40.27.57|||101571767266|80
20.10.2018 06:00:00||HAVAŞ|10.40.24.48|||110000479675|747
20.10.2018 06:00:00||HAVAŞ|10.40.24.48|||110000479675|738
20.10.2018 06:00:00||HAVAŞ|10.40.25.48|||110000479675|750
20.10.2018 06:00:00||HAVAŞ|10.40.24.45|||110000479675|70
20.10.2018 06:00:00||HAVAŞ|10.40.25.45|||110000479675|65
20.10.2018 06:00:00||HAVAŞ|10.40.25.47|||110000479675|70
20.10.2018 06:00:00||HAVAŞ|10.40.24.46|||110000479675|80
20.10.2018 06:00:00||HAVAŞ|10.40.24.47|||110000479675|30
20.10.2018 06:00:00||HAVAŞ|10.40.24.47|||110000479675|90
20.10.2018 06:00:00||HAVAŞ|10.40.24.47|||110000479675|90
20.10.2018 06:00:00||HAVAŞ|10.40.25.46|||110000479675|10
20.10.2018 06:00:00||HAVAŞ|10.40.25.46|||110000479675|60
20.10.2018 06:00:00||HAVAŞ|10.40.24.48|||110000479675|755
20.10.2018 06:00:00||HAVAŞ|10.40.24.46|||110000479675|60
20.10.2018 06:00:00||HAVAŞ|10.40.24.46|||110000479675|70
20.10.2018 06:00:00||HAVAŞ|10.40.24.47|||110000479675|15
20.10.2018 06:00:00||HAVAŞ|10.40.25.48|||110000479675|743
20.10.2018 06:00:00||HAVAŞ|10.40.25.48|||110000479675|767
20.10.2018 06:00:00||HAVAŞ|10.40.25.45|||110000479675|93
20.10.2018 06:00:00||HAVAŞ|10.40.24.45|||110000479675|50
20.10.2018 06:00:00||HAVAŞ|10.40.24.45|||110000479675|170
20.10.2018 06:00:00||HAVAŞ|10.40.24.45|||110000479675|100
20.10.2018 06:00:00||HAVAŞ|10.40.25.47|||110000479675|70
20.10.2018 06:00:00||HAVAŞ|10.40.25.47|||110000479675|220
20.10.2018 06:00:00||HAVAŞ|10.40.25.47|||110000479675|53
20.10.2018 06:00:00||HAVAŞ|10.40.25.47|||110000479675|87
20.10.2018 06:00:00||HAVAŞ|10.40.25.47|||110000479675|90
20.10.2018 06:00:00||HAVAŞ|10.40.25.47|||110000479675|90
20.10.2018 06:00:00||HAVAŞ|10.40.25.47|||110000479675|173
20.10.2018 06:00:00||HAVAŞ|10.40.25.47|||110000479675|180
20.10.2018 06:00:00||HAVAŞ|10.40.25.47|||110000479675|90
20.10.2018 06:00:00||HAVAŞ|10.40.25.47|||110000479675|90
20.10.2018 06:00:00||HAVAŞ|10.40.25.47|||110000479675|92
20.10.2018 06:00:00||HAVAŞ|10.40.25.45|||110000479675|95
20.10.2018 06:00:00||HAVAŞ|10.40.25.45|||110000479675|90
20.10.2018 06:00:00||HAVAŞ|10.40.25.46|||110000479675|10
20.10.2018 06:00:00||HAVAŞ|10.40.25.46|||110000479675|10
20.10.2018 06:00:00||HAVAŞ|10.40.25.46|||110000479675|20
20.10.2018 06:00:00||HAVAŞ|10.40.25.46|||110000479675|20
20.10.2018 06:00:00||HAVAŞ|10.40.25.46|||110000479675|50
20.10.2018 06:00:00||HAVAŞ|10.40.25.46|||110000479675|100
20.10.2018 06:00:00||HAVAŞ|10.40.25.46|||110000479675|53
20.10.2018 06:00:00||HAVAŞ|10.40.25.46|||110000479675|70
20.10.2018 06:00:00||HAVAŞ|10.40.25.46|||110000479675|70
20.10.2018 06:00:00||HAVAŞ|10.40.24.46|||110000479675|20
20.10.2018 06:00:00||HAVAŞ|10.40.24.46|||110000479675|20
20.10.2018 06:00:00||HAVAŞ|10.40.24.46|||110000479675|10
20.10.2018 06:00:00||HAVAŞ|10.40.24.46|||110000479675|10
20.10.2018 06:00:00||HAVAŞ|10.40.24.46|||110000479675|10
20.10.2018 06:00:00||HAVAŞ|10.40.24.46|||110000479675|60
20.10.2018 06:00:00||HAVAŞ|10.40.24.46|||110000479675|110
20.10.2018 06:00:00||HAVAŞ|10.40.24.47|||110000479675|30
20.10.2018 06:00:00||HAVAŞ|10.40.24.47|||110000479675|215
20.10.2018 06:00:00||HAVAŞ|10.40.24.47|||110000479675|60
20.10.2018 06:00:00||HAVAŞ|10.40.24.47|||110000479675|52
20.10.2018 06:00:00||HAVAŞ|10.40.24.47|||110000479675|157
20.10.2018 06:00:00||HAVAŞ|10.40.24.47|||110000479675|100
20.10.2018 06:00:00||HAVAŞ|10.40.24.47|||110000479675|102
20.10.2018 06:00:00||HAVAŞ|10.40.24.46|||110000479675|10
20.10.2018 06:00:00||MARS CINEMA|10.40.24.203|||110000472614|75
20.10.2018 06:00:00||MARS CINEMA|10.40.24.203|||110000472614|160
20.10.2018 06:00:00||MARS CINEMA|10.40.24.203|||110000472614|82
20.10.2018 06:00:00||MARS CINEMA|10.40.24.204|||110000472614|63
20.10.2018 06:00:00||MARS CINEMA|10.40.24.203|||110000472614|100
20.10.2018 06:00:00||MARS CINEMA|10.40.24.204|||110000472614|20
20.10.2018 06:00:00||MARS CINEMA|10.40.24.204|||110000472614|95
20.10.2018 06:00:00||MARS CINEMA|10.40.25.203|||110000472614|157
20.10.2018 06:00:00||MARS CINEMA|10.40.25.203|||110000472614|80
20.10.2018 06:00:00||MARS CINEMA|10.40.25.203|||110000472614|182
20.10.2018 06:00:00||MARS CINEMA|10.40.25.203|||110000472614|90
20.10.2018 06:00:00||MARS CINEMA|10.40.25.203|||110000472614|80
20.10.2018 06:00:00||MARS CINEMA|10.40.25.203|||110000472614|110
20.10.2018 06:00:00||MARS CINEMA|10.40.25.203|||110000472614|80
20.10.2018 06:00:00||MARS CINEMA|10.40.25.203|||110000472614|155
20.10.2018 06:00:00||MARS CINEMA|10.40.25.203|||110000472614|90
20.10.2018 06:00:00||MARS CINEMA|10.40.25.203|||110000472614|112
20.10.2018 06:00:00||MARS CINEMA|10.40.25.203|||110000472614|92
20.10.2018 06:00:00||MARS CINEMA|10.40.25.203|||110000472614|63
20.10.2018 06:00:00||MARS CINEMA|10.40.25.203|||110000472614|190
20.10.2018 06:00:00||MARS CINEMA|10.40.25.204|||110000472614|110
20.10.2018 06:00:00||MARS CINEMA|10.40.25.204|||110000472614|70
20.10.2018 06:00:00||MARS CINEMA|10.40.25.204|||110000472614|80
20.10.2018 06:00:00||MARS CINEMA|10.40.25.204|||110000472614|100
20.10.2018 06:00:00||MARS CINEMA|10.40.25.204|||110000472614|20
20.10.2018 06:00:00||MARS CINEMA|10.40.25.204|||110000472614|20
20.10.2018 06:00:00||MARS CINEMA|10.40.25.204|||110000472614|30
20.10.2018 06:00:00||MARS CINEMA|10.40.25.204|||110000472614|40
20.10.2018 06:00:00||MARS CINEMA|10.40.25.204|||110000472614|90
20.10.2018 06:00:00||MARS CINEMA|10.40.25.204|||110000472614|120
20.10.2018 06:00:00||MARS CINEMA|10.40.25.204|||110000472614|80
20.10.2018 06:00:00||MARS CINEMA|10.40.25.204|||110000472614|80
20.10.2018 06:00:00||MARS CINEMA|10.40.25.204|||110000472614|110
20.10.2018 06:00:00||MARS CINEMA|10.40.25.204|||110000472614|100
20.10.2018 06:00:00||MARS CINEMA|10.40.24.203|||110000472614|80
20.10.2018 06:00:00||MARS CINEMA|10.40.24.203|||110000472614|93
20.10.2018 06:00:00||MARS CINEMA|10.40.24.203|||110000472614|142
20.10.2018 06:00:00||MARS CINEMA|10.40.24.203|||110000472614|63
20.10.2018 06:00:00||MARS CINEMA|10.40.24.203|||110000472614|140
20.10.2018 06:00:00||MARS CINEMA|10.40.24.203|||110000472614|153
20.10.2018 06:00:00||MARS CINEMA|10.40.24.203|||110000472614|100
20.10.2018 06:00:00||MARS CINEMA|10.40.24.203|||110000472614|182
20.10.2018 06:00:00||MARS CINEMA|10.40.24.204|||110000472614|110
20.10.2018 06:00:00||MARS CINEMA|10.40.24.204|||110000472614|97
20.10.2018 06:00:00||MARS CINEMA|10.40.24.204|||110000472614|90
20.10.2018 06:00:00||MARS CINEMA|10.40.24.204|||110000472614|20
20.10.2018 06:00:00||MARS CINEMA|10.40.24.204|||110000472614|10
20.10.2018 06:00:00||MARS CINEMA|10.40.24.204|||110000472614|90
20.10.2018 06:00:00||MARS CINEMA|10.40.24.204|||110000472614|118
20.10.2018 06:00:00||MARS CINEMA|10.40.24.204|||110000472614|90
20.10.2018 06:00:00||MARS CINEMA|10.40.24.204|||110000472614|103
20.10.2018 06:00:00||MARS CINEMA|10.40.24.204|||110000472614|80
20.10.2018 06:00:00||MARS CINEMA|10.40.25.206|||110000472614|120
20.10.2018 06:00:00||MARS CINEMA|10.40.25.206|||110000472614|40
20.10.2018 06:00:00||MARS CINEMA|10.40.25.206|||110000472614|40
20.10.2018 06:00:00||MARS CINEMA|10.40.25.206|||110000472614|40
20.10.2018 06:00:00||MARS CINEMA|10.40.25.206|||110000472614|20
20.10.2018 06:00:00||MARS CINEMA|10.40.25.206|||110000472614|20
20.10.2018 06:00:00||MARS CINEMA|10.40.25.206|||110000472614|30
20.10.2018 06:00:00||MARS CINEMA|10.40.25.206|||110000472614|62
20.10.2018 06:00:00||MARS CINEMA|10.40.25.206|||110000472614|40
20.10.2018 06:00:00||MARS CINEMA|10.40.25.206|||110000472614|80
20.10.2018 06:00:00||MARS CINEMA|10.40.25.206|||110000472614|90
20.10.2018 06:00:00||MARS CINEMA|10.40.24.206|||110000472614|153
20.10.2018 06:00:00||MARS CINEMA|10.40.24.206|||110000472614|40
20.10.2018 06:00:00||MARS CINEMA|10.40.24.206|||110000472614|40
20.10.2018 06:00:00||MARS CINEMA|10.40.24.206|||110000472614|45
20.10.2018 06:00:00||MARS CINEMA|10.40.24.206|||110000472614|30
20.10.2018 06:00:00||MARS CINEMA|10.40.24.206|||110000472614|30
20.10.2018 06:00:00||MARS CINEMA|10.40.24.206|||110000472614|197
20.10.2018 06:00:00||MARS CINEMA|10.40.24.206|||110000472614|160
20.10.2018 06:00:00||MARS CINEMA|10.40.24.206|||110000472614|20
20.10.2018 06:00:00||MARS CINEMA|10.40.24.206|||110000472614|80
20.10.2018 06:00:00||MARS CINEMA|10.40.24.206|||110000472614|77
20.10.2018 06:00:00||MARS CINEMA|10.40.24.203|||110000472614|102
20.10.2018 06:00:00||MARS CINEMA|10.40.24.204|||110000472614|40
20.10.2018 06:00:00||PEGASUS|10.40.27.66|||110000423831|113
20.10.2018 06:00:00||PEGASUS|10.40.26.66|||110000423831|95
20.10.2018 06:00:00||PEGASUS|10.40.26.84|||110000423831|217
20.10.2018 06:00:00||PEGASUS|10.40.27.85|||110000423831|116
20.10.2018 06:00:00||PEGASUS|10.40.26.85|||110000423831|120
20.10.2018 06:00:00||PEGASUS|10.40.27.64|||110000423831|72
20.10.2018 06:00:00||PEGASUS|10.40.27.64|||110000423831|70
20.10.2018 06:00:00||PEGASUS|10.40.27.63|||110000423831|60
20.10.2018 06:00:00||PEGASUS|10.40.27.63|||110000423831|70
20.10.2018 06:00:00||PEGASUS|10.40.27.63|||110000423831|90
20.10.2018 06:00:00||PEGASUS|10.40.26.63|||110000423831|110
20.10.2018 06:00:00||PEGASUS|10.40.27.67|||110000423831|363
20.10.2018 06:00:00||PEGASUS|10.40.27.64|||110000423831|273
20.10.2018 06:00:00||PEGASUS|10.40.27.64|||110000423831|260
20.10.2018 06:00:00||PEGASUS|10.40.27.63|||110000423831|77
20.10.2018 06:00:00||PEGASUS|10.40.27.63|||110000423831|72
20.10.2018 06:00:00||PEGASUS|10.40.27.63|||110000423831|80
20.10.2018 06:00:00||PEGASUS|10.40.26.63|||110000423831|110
20.10.2018 06:00:00||PEGASUS|10.40.26.63|||110000423831|110
20.10.2018 06:00:00||PEGASUS|10.40.27.81|||110000423831|447
20.10.2018 06:00:00||PEGASUS|10.40.27.81|||110000423831|413
20.10.2018 06:00:00||PEGASUS|10.40.26.63|||110000423831|90
20.10.2018 06:00:00||PEGASUS|10.40.26.63|||110000423831|60
20.10.2018 06:00:00||PEGASUS|10.40.26.67|||110000423831|30
20.10.2018 06:00:00||PEGASUS|10.40.26.67|||110000423831|340
20.10.2018 06:00:00||PEGASUS|10.40.26.67|||110000423831|60
20.10.2018 06:00:00||PEGASUS|10.40.26.67|||110000423831|40
20.10.2018 06:00:00||PEGASUS|10.40.26.67|||110000423831|70
20.10.2018 06:00:00||PEGASUS|10.40.26.68|||110000423831|100
20.10.2018 06:00:00||PEGASUS|10.40.27.64|||110000423831|278
20.10.2018 06:00:00||PEGASUS|10.40.27.64|||110000423831|262
20.10.2018 06:00:00||PEGASUS|10.40.27.64|||110000423831|278
20.10.2018 06:00:00||PEGASUS|10.40.27.64|||110000423831|265
20.10.2018 06:00:00||PEGASUS|10.40.27.64|||110000423831|272
20.10.2018 06:00:00||PEGASUS|10.40.27.86|||110000423831|340
20.10.2018 06:00:00||PEGASUS|10.40.27.63|||110000423831|90
20.10.2018 06:00:00||PEGASUS|10.40.26.63|||110000423831|130
20.10.2018 06:00:00||PEGASUS|10.40.26.63|||110000423831|60
20.10.2018 06:00:00||PEGASUS|10.40.26.63|||110000423831|80
20.10.2018 06:00:00||PEGASUS|10.40.26.67|||110000423831|340
20.10.2018 06:00:00||PEGASUS|10.40.27.63|||110000423831|52
20.10.2018 06:00:00||PEGASUS|10.40.27.63|||110000423831|58
20.10.2018 06:00:00||PEGASUS|10.40.27.81|||110000423831|420
20.10.2018 06:00:00||PEGASUS|10.40.26.62|||110000423831|90
20.10.2018 06:00:00||PEGASUS|10.40.26.63|||110000423831|50
20.10.2018 06:00:00||PEGASUS|10.40.26.63|||110000423831|100
20.10.2018 06:00:00||PEGASUS|10.40.26.63|||110000423831|40
20.10.2018 06:00:00||PEGASUS|10.40.26.63|||110000423831|70
20.10.2018 06:00:00||PEGASUS|10.40.26.67|||110000423831|340
20.10.2018 06:00:00||PEGASUS|10.40.27.64|||110000423831|273
20.10.2018 06:00:00||PEGASUS|10.40.27.64|||110000423831|263
20.10.2018 06:00:00||PEGASUS|10.40.27.64|||110000423831|263
20.10.2018 06:00:00||PEGASUS|10.40.27.64|||110000423831|292
20.10.2018 06:00:00||PEGASUS|10.40.27.64|||110000423831|310
20.10.2018 06:00:00||PEGASUS|10.40.27.86|||110000423831|40
20.10.2018 06:00:00||PEGASUS|10.40.27.63|||110000423831|70
20.10.2018 06:00:00||PEGASUS|10.40.27.63|||110000423831|80
20.10.2018 06:00:00||PEGASUS|10.40.27.63|||110000423831|80
20.10.2018 06:00:00||PEGASUS|10.40.27.63|||110000423831|92
20.10.2018 06:00:00||PEGASUS|10.40.27.63|||110000423831|153
20.10.2018 06:00:00||PEGASUS|10.40.27.63|||110000423831|220
20.10.2018 06:00:00||PEGASUS|10.40.27.63|||110000423831|57
20.10.2018 06:00:00||PEGASUS|10.40.26.64|||110000423831|80
20.10.2018 06:00:00||PEGASUS|10.40.26.64|||110000423831|80
20.10.2018 06:00:00||PEGASUS|10.40.26.82|||110000423831|210
20.10.2018 06:00:00||PEGASUS|10.40.26.82|||110000423831|110
20.10.2018 06:00:00||PEGASUS|10.40.26.82|||110000423831|80
20.10.2018 06:00:00||PEGASUS|10.40.26.82|||110000423831|150
20.10.2018 06:00:00||PEGASUS|10.40.26.82|||110000423831|140
20.10.2018 06:00:00||PEGASUS|10.40.26.82|||110000423831|140
20.10.2018 06:00:00||PEGASUS|10.40.26.82|||110000423831|180
20.10.2018 06:00:00||PEGASUS|10.40.26.82|||110000423831|30
20.10.2018 06:00:00||PEGASUS|10.40.26.82|||110000423831|40
20.10.2018 06:00:00||PEGASUS|10.40.26.82|||110000423831|20
20.10.2018 06:00:00||PEGASUS|10.40.26.82|||110000423831|70
20.10.2018 06:00:00||PEGASUS|10.40.26.82|||110000423831|50
20.10.2018 06:00:00||PEGASUS|10.40.26.82|||110000423831|40
20.10.2018 06:00:00||PEGASUS|10.40.27.83|||110000423831|568
20.10.2018 06:00:00||PEGASUS|10.40.27.83|||110000423831|70
20.10.2018 06:00:00||PEGASUS|10.40.27.83|||110000423831|565
20.10.2018 06:00:00||PEGASUS|10.40.27.83|||110000423831|553
20.10.2018 06:00:00||PEGASUS|10.40.27.83|||110000423831|77
20.10.2018 06:00:00||PEGASUS|10.40.26.83|||110000423831|503
20.10.2018 06:00:00||PEGASUS|10.40.26.83|||110000423831|50
20.10.2018 06:00:00||PEGASUS|10.40.26.83|||110000423831|397
20.10.2018 06:00:00||PEGASUS|10.40.26.83|||110000423831|500
20.10.2018 06:00:00||PEGASUS|10.40.26.83|||110000423831|505
20.10.2018 06:00:00||PEGASUS|10.40.26.86|||110000423831|360
20.10.2018 06:00:00||PEGASUS|10.40.26.86|||110000423831|138
20.10.2018 06:00:00||PEGASUS|10.40.26.86|||110000423831|350
20.10.2018 06:00:00||PEGASUS|10.40.26.86|||110000423831|48
20.10.2018 06:00:00||PEGASUS|10.40.26.86|||110000423831|30
20.10.2018 06:00:00||PEGASUS|10.40.26.86|||110000423831|350
20.10.2018 06:00:00||PEGASUS|10.40.26.86|||110000423831|40
20.10.2018 06:00:00||PEGASUS|10.40.27.87|||110000423831|90
20.10.2018 06:00:00||PEGASUS|10.40.27.87|||110000423831|90
20.10.2018 06:00:00||PEGASUS|10.40.27.87|||110000423831|90
20.10.2018 06:00:00||PEGASUS|10.40.27.87|||110000423831|20
20.10.2018 06:00:00||PEGASUS|10.40.26.87|||110000423831|90
20.10.2018 06:00:00||PEGASUS|10.40.26.87|||110000423831|90
20.10.2018 06:00:00||PEGASUS|10.40.26.87|||110000423831|90
20.10.2018 06:00:00||PEGASUS|10.40.26.87|||110000423831|60
20.10.2018 06:00:00||PEGASUS|10.40.26.87|||110000423831|20
20.10.2018 06:00:00||PEGASUS|10.40.26.81|||110000423831|395
20.10.2018 06:00:00||PEGASUS|10.40.26.81|||110000423831|398
20.10.2018 06:00:00||PEGASUS|10.40.26.81|||110000423831|415
20.10.2018 06:00:00||PEGASUS|10.40.27.82|||110000423831|220
20.10.2018 06:00:00||PEGASUS|10.40.27.82|||110000423831|30
20.10.2018 06:00:00||PEGASUS|10.40.27.82|||110000423831|113
20.10.2018 06:00:00||PEGASUS|10.40.27.82|||110000423831|80
20.10.2018 06:00:00||PEGASUS|10.40.27.82|||110000423831|150
20.10.2018 06:00:00||PEGASUS|10.40.27.82|||110000423831|120
20.10.2018 06:00:00||PEGASUS|10.40.27.82|||110000423831|168
20.10.2018 06:00:00||PEGASUS|10.40.27.82|||110000423831|115
20.10.2018 06:00:00||PEGASUS|10.40.27.82|||110000423831|65
20.10.2018 06:00:00||PEGASUS|10.40.27.82|||110000423831|82
20.10.2018 06:00:00||PEGASUS|10.40.27.82|||110000423831|50
20.10.2018 06:00:00||PEGASUS|10.40.27.82|||110000423831|37
20.10.2018 06:00:00||PEGASUS|10.40.27.82|||110000423831|40
20.10.2018 06:00:00||PEGASUS|10.40.27.67|||110000423831|50
20.10.2018 06:00:00||PEGASUS|10.40.27.67|||110000423831|70
20.10.2018 06:00:00||PEGASUS|10.40.27.67|||110000423831|130
20.10.2018 06:00:00||PEGASUS|10.40.27.67|||110000423831|10
20.10.2018 06:00:00||PEGASUS|10.40.27.67|||110000423831|340
20.10.2018 06:00:00||PEGASUS|10.40.27.82|||110000423831|72
20.10.2018 06:00:00||PEGASUS|10.40.27.86|||110000423831|170
20.10.2018 06:00:00||PEGASUS|10.40.27.86|||110000423831|70
20.10.2018 06:00:00||PEGASUS|10.40.27.86|||110000423831|20
20.10.2018 06:00:00||PEGASUS|10.40.27.86|||110000423831|350
20.10.2018 06:00:00||PEGASUS|10.40.27.67|||110000423831|340
20.10.2018 06:00:00||PEGASUS|10.40.27.67|||110000423831|40
20.10.2018 06:00:00||PEGASUS|10.40.26.62|||110000423831|10
20.10.2018 06:00:00||PEGASUS|10.40.26.62|||110000423831|190
20.10.2018 06:00:00||PEGASUS|10.40.26.63|||110000423831|70
20.10.2018 06:00:00||PEGASUS|10.40.26.63|||110000423831|30
20.10.2018 06:00:00||PEGASUS|10.40.26.63|||110000423831|60
20.10.2018 06:00:00||PEGASUS|10.40.26.63|||110000423831|30
20.10.2018 06:00:00||PEGASUS|10.40.26.63|||110000423831|230
20.10.2018 06:00:00||PEGASUS|10.40.26.63|||110000423831|140
20.10.2018 06:00:00||PEGASUS|10.40.26.63|||110000423831|110
20.10.2018 06:00:00||PEGASUS|10.40.26.63|||110000423831|60
20.10.2018 06:00:00||PEGASUS|10.40.26.67|||110000423831|170
20.10.2018 06:00:00||PEGASUS|10.40.27.68|||110000423831|90
20.10.2018 06:00:00||PEGASUS|10.40.27.68|||110000423831|88
20.10.2018 06:00:00||PEGASUS|10.40.27.68|||110000423831|90
20.10.2018 06:00:00||PEGASUS|10.40.27.68|||110000423831|52
20.10.2018 06:00:00||PEGASUS|10.40.26.68|||110000423831|90
20.10.2018 06:00:00||PEGASUS|10.40.26.68|||110000423831|90
20.10.2018 06:00:00||PEGASUS|10.40.26.68|||110000423831|50
20.10.2018 06:00:00||PEGASUS|10.40.27.63|||110000423831|40
20.10.2018 06:00:00||PEGASUS|10.40.27.86|||110000423831|340
20.10.2018 06:00:00||PEGASUS|10.40.27.63|||110000423831|50
20.10.2018 06:00:00||PEGASUS|10.40.27.63|||110000423831|60
20.10.2018 06:00:00||PWC|10.40.24.66|||110000433262|83
20.10.2018 06:00:00||PWC|10.40.24.66|||110000433262|10
20.10.2018 06:00:00||PWC|10.40.24.66|||110000433262|30
20.10.2018 06:00:00||PWC|10.40.24.66|||110000433262|55
20.10.2018 06:00:00||PWC|10.40.24.66|||110000433262|440
20.10.2018 06:00:00||PWC|10.40.24.68|||110000433262|160
20.10.2018 06:00:00||PWC|10.40.24.66|||110000433262|40
20.10.2018 06:00:00||PWC|10.40.24.66|||110000433262|210
20.10.2018 06:00:00||PWC|10.40.24.66|||110000433262|210
20.10.2018 06:00:00||PWC|10.40.25.67|||110000433262|80
20.10.2018 06:00:00||PWC|10.40.25.67|||110000433262|90
20.10.2018 06:00:00||PWC|10.40.25.67|||110000433262|320
20.10.2018 06:00:00||PWC|10.40.25.67|||110000433262|250
20.10.2018 06:00:00||PWC|10.40.25.67|||110000433262|240
20.10.2018 06:00:00||PWC|10.40.25.67|||110000433262|250
20.10.2018 06:00:00||PWC|10.40.25.67|||110000433262|50
20.10.2018 06:00:00||PWC|10.40.25.67|||110000433262|30
20.10.2018 06:00:00||PWC|10.40.25.67|||110000433262|120
20.10.2018 06:00:00||PWC|10.40.24.67|||110000433262|12
20.10.2018 06:00:00||PWC|10.40.24.67|||110000433262|10
20.10.2018 06:00:00||PWC|10.40.24.67|||110000433262|387
20.10.2018 06:00:00||PWC|10.40.24.67|||110000433262|30
20.10.2018 06:00:00||PWC|10.40.24.67|||110000433262|72
20.10.2018 06:00:00||PWC|10.40.24.67|||110000433262|123
20.10.2018 06:00:00||PWC|10.40.25.68|||110000433262|118
20.10.2018 06:00:00||PWC|10.40.25.68|||110000433262|188
20.10.2018 06:00:00||PWC|10.40.25.68|||110000433262|75
20.10.2018 06:00:00||PWC|10.40.25.68|||110000433262|80
20.10.2018 06:00:00||PWC|10.40.25.68|||110000433262|153
20.10.2018 06:00:00||PWC|10.40.24.66|||110000433262|60
20.10.2018 06:00:00||PWC|10.40.24.66|||110000433262|30
20.10.2018 06:00:00||PWC|10.40.24.66|||110000433262|30
20.10.2018 06:00:00||PWC|10.40.24.68|||110000433262|88
20.10.2018 06:00:00||PWC|10.40.24.68|||110000433262|135
20.10.2018 06:00:00||PWC|10.40.24.68|||110000433262|388
20.10.2018 06:00:00||PWC|10.40.24.68|||110000433262|78
20.10.2018 06:00:00||PWC|10.40.24.68|||110000433262|70
20.10.2018 06:00:00||VSMART BİLGİ TEKNOLOJİLERİ|10.40.24.62|||110000474326|42
20.10.2018 06:00:00||VSMART BİLGİ TEKNOLOJİLERİ|10.40.24.62|||110000474326|70
20.10.2018 06:00:00||VSMART BİLGİ TEKNOLOJİLERİ|10.40.24.62|||110000474326|50
20.10.2018 06:00:00||VSMART BİLGİ TEKNOLOJİLERİ|10.40.25.62|||110000474326|68
20.10.2018 06:00:00||VSMART BİLGİ TEKNOLOJİLERİ|10.40.24.62|||110000474326|40
20.10.2018 06:00:00||VSMART BİLGİ TEKNOLOJİLERİ|10.40.24.62|||110000474326|32
20.10.2018 06:00:00||VSMART BİLGİ TEKNOLOJİLERİ|10.40.24.62|||110000474326|10
20.10.2018 06:00:00||VSMART BİLGİ TEKNOLOJİLERİ|10.40.25.62|||110000474326|37
20.10.2018 06:00:00||VSMART BİLGİ TEKNOLOJİLERİ|10.40.25.62|||110000474326|10
20.10.2018 06:00:00||VSMART BİLGİ TEKNOLOJİLERİ|10.40.25.62|||110000474326|10
20.10.2018 06:00:00||VSMART BİLGİ TEKNOLOJİLERİ|10.40.25.62|||110000474326|80
20.10.2018 06:00:00||VSMART BİLGİ TEKNOLOJİLERİ|10.40.25.62|||110000474326|82
20.10.2018 06:00:00||VSMART BİLGİ TEKNOLOJİLERİ|10.40.25.62|||110000474326|103
20.10.2018 06:00:00||VSMART BİLGİ TEKNOLOJİLERİ|10.40.24.62|||110000474326|10
