21.10.2018 11:00:00||AKTİFBANK|10.40.25.174|||110000438458|53
21.10.2018 11:00:00||AKTİFBANK|10.40.25.134|||110000438458|92
21.10.2018 11:00:00||AKTİFBANK|10.40.25.135|||110000438458|99
21.10.2018 11:00:00||AKTİFBANK|10.40.24.135|||110000438458|103
21.10.2018 11:00:00||AKTİFBANK|10.40.24.137|||110000438458|57
21.10.2018 11:00:00||AKTİFBANK|10.40.24.171|||110000438458|11
21.10.2018 11:00:00||AKTİFBANK|10.40.25.172|||110000438458|88
21.10.2018 11:00:00||AKTİFBANK|10.40.24.173|||110000438458|94
21.10.2018 11:00:00||AKTİFBANK|10.40.24.174|||110000438458|60
21.10.2018 11:00:00||AKTİFBANK|10.40.24.172|||110000438458|96
21.10.2018 11:00:00||AKTİFBANK|10.40.24.134|||110000438458|94
21.10.2018 11:00:00||AKTİFBANK|10.40.25.137|||110000438458|57
21.10.2018 11:00:00||AKTİFBANK|10.40.25.171|||110000438458|12
21.10.2018 11:00:00||AKTİFBANK|10.40.24.158|||110000438458|82
21.10.2018 11:00:00||AKTİFBANK|10.40.24.164|||110000438458|68
21.10.2018 11:00:00||AKTİFBANK|10.40.25.138|||110000438458|80
21.10.2018 11:00:00||AKTİFBANK|10.40.25.139|||110000438458|10
21.10.2018 11:00:00||AKTİFBANK|10.40.25.140|||110000438458|32
21.10.2018 11:00:00||AKTİFBANK|10.40.25.151|||110000438458|513
21.10.2018 11:00:00||AKTİFBANK|10.40.25.141|||110000438458|100
21.10.2018 11:00:00||AKTİFBANK|10.40.25.141|||110000438458|88
21.10.2018 11:00:00||AKTİFBANK|10.40.25.142|||110000438458|73
21.10.2018 11:00:00||AKTİFBANK|10.40.25.133|||110000438458|110
21.10.2018 11:00:00||AKTİFBANK|10.40.25.149|||110000438458|100
21.10.2018 11:00:00||AKTİFBANK|10.40.25.149|||110000438458|90
21.10.2018 11:00:00||AKTİFBANK|10.40.25.149|||110000438458|92
21.10.2018 11:00:00||AKTİFBANK|10.40.25.140|||110000438458|30
21.10.2018 11:00:00||AKTİFBANK|10.40.25.150|||110000438458|535
21.10.2018 11:00:00||AKTİFBANK|10.40.25.139|||110000438458|170
21.10.2018 11:00:00||AKTİFBANK|10.40.25.139|||110000438458|40
21.10.2018 11:00:00||AKTİFBANK|10.40.25.140|||110000438458|80
21.10.2018 11:00:00||AKTİFBANK|10.40.25.140|||110000438458|70
21.10.2018 11:00:00||AKTİFBANK|10.40.25.140|||110000438458|30
21.10.2018 11:00:00||AKTİFBANK|10.40.25.151|||110000438458|515
21.10.2018 11:00:00||AKTİFBANK|10.40.25.151|||110000438458|498
21.10.2018 11:00:00||AKTİFBANK|10.40.25.141|||110000438458|40
21.10.2018 11:00:00||AKTİFBANK|10.40.25.141|||110000438458|100
21.10.2018 11:00:00||AKTİFBANK|10.40.25.141|||110000438458|68
21.10.2018 11:00:00||AKTİFBANK|10.40.25.142|||110000438458|40
21.10.2018 11:00:00||AKTİFBANK|10.40.25.149|||110000438458|70
21.10.2018 11:00:00||AKTİFBANK|10.40.25.149|||110000438458|110
21.10.2018 11:00:00||AKTİFBANK|10.40.25.149|||110000438458|92
21.10.2018 11:00:00||AKTİFBANK|10.40.25.149|||110000438458|90
21.10.2018 11:00:00||AKTİFBANK|10.40.25.149|||110000438458|100
21.10.2018 11:00:00||AKTİFBANK|10.40.24.139|||110000438458|60
21.10.2018 11:00:00||AKTİFBANK|10.40.25.153|||110000438458|10
21.10.2018 11:00:00||AKTİFBANK|10.40.25.150|||110000438458|545
21.10.2018 11:00:00||AKTİFBANK|10.40.25.153|||110000438458|70
21.10.2018 11:00:00||AKTİFBANK|10.40.25.163|||110000438458|50
21.10.2018 11:00:00||AKTİFBANK|10.40.24.141|||110000438458|72
21.10.2018 11:00:00||AKTİFBANK|10.40.24.151|||110000438458|512
21.10.2018 11:00:00||AKTİFBANK|10.40.25.153|||110000438458|80
21.10.2018 11:00:00||AKTİFBANK|10.40.24.149|||110000438458|85
21.10.2018 11:00:00||AKTİFBANK|10.40.24.141|||110000438458|50
21.10.2018 11:00:00||AKTİFBANK|10.40.25.133|||110000438458|280
21.10.2018 11:00:00||AKTİFBANK|10.40.25.133|||110000438458|90
21.10.2018 11:00:00||AKTİFBANK|10.40.24.149|||110000438458|90
21.10.2018 11:00:00||AKTİFBANK|10.40.24.162|||110000438458|210
21.10.2018 11:00:00||AKTİFBANK|10.40.24.162|||110000438458|30
21.10.2018 11:00:00||AKTİFBANK|10.40.24.162|||110000438458|40
21.10.2018 11:00:00||AKTİFBANK|10.40.25.133|||110000438458|150
21.10.2018 11:00:00||AKTİFBANK|10.40.25.138|||110000438458|130
21.10.2018 11:00:00||AKTİFBANK|10.40.25.149|||110000438458|73
21.10.2018 11:00:00||AKTİFBANK|10.40.25.149|||110000438458|70
21.10.2018 11:00:00||AKTİFBANK|10.40.25.149|||110000438458|27
21.10.2018 11:00:00||AKTİFBANK|10.40.25.149|||110000438458|75
21.10.2018 11:00:00||AKTİFBANK|10.40.25.149|||110000438458|70
21.10.2018 11:00:00||AKTİFBANK|10.40.25.141|||110000438458|100
21.10.2018 11:00:00||AKTİFBANK|10.40.25.149|||110000438458|130
21.10.2018 11:00:00||AKTİFBANK|10.40.25.138|||110000438458|92
21.10.2018 11:00:00||AKTİFBANK|10.40.25.138|||110000438458|72
21.10.2018 11:00:00||AKTİFBANK|10.40.25.139|||110000438458|100
21.10.2018 11:00:00||AKTİFBANK|10.40.24.145|||110000438458|70
21.10.2018 11:00:00||AKTİFBANK|10.40.24.149|||110000438458|160
21.10.2018 11:00:00||AKTİFBANK|10.40.25.138|||110000438458|30
21.10.2018 11:00:00||AKTİFBANK|10.40.25.138|||110000438458|12
21.10.2018 11:00:00||AKTİFBANK|10.40.25.153|||110000438458|60
21.10.2018 11:00:00||AKTİFBANK|10.40.24.150|||110000438458|542
21.10.2018 11:00:00||AKTİFBANK|10.40.25.128|||110000438458|70
21.10.2018 11:00:00||AKTİFBANK|10.40.25.128|||110000438458|90
21.10.2018 11:00:00||AKTİFBANK|10.40.25.128|||110000438458|90
21.10.2018 11:00:00||AKTİFBANK|10.40.25.128|||110000438458|40
21.10.2018 11:00:00||AKTİFBANK|10.40.25.128|||110000438458|53
21.10.2018 11:00:00||AKTİFBANK|10.40.25.129|||110000438458|85
21.10.2018 11:00:00||AKTİFBANK|10.40.25.129|||110000438458|62
21.10.2018 11:00:00||AKTİFBANK|10.40.25.129|||110000438458|132
21.10.2018 11:00:00||AKTİFBANK|10.40.25.129|||110000438458|100
21.10.2018 11:00:00||AKTİFBANK|10.40.25.129|||110000438458|40
21.10.2018 11:00:00||AKTİFBANK|10.40.25.129|||110000438458|93
21.10.2018 11:00:00||AKTİFBANK|10.40.25.129|||110000438458|102
21.10.2018 11:00:00||AKTİFBANK|10.40.25.130|||110000438458|60
21.10.2018 11:00:00||AKTİFBANK|10.40.25.130|||110000438458|50
21.10.2018 11:00:00||AKTİFBANK|10.40.25.130|||110000438458|72
21.10.2018 11:00:00||AKTİFBANK|10.40.25.130|||110000438458|32
21.10.2018 11:00:00||AKTİFBANK|10.40.25.130|||110000438458|60
21.10.2018 11:00:00||AKTİFBANK|10.40.25.130|||110000438458|98
21.10.2018 11:00:00||AKTİFBANK|10.40.25.130|||110000438458|80
21.10.2018 11:00:00||AKTİFBANK|10.40.25.131|||110000438458|20
21.10.2018 11:00:00||AKTİFBANK|10.40.25.131|||110000438458|75
21.10.2018 11:00:00||AKTİFBANK|10.40.25.131|||110000438458|100
21.10.2018 11:00:00||AKTİFBANK|10.40.25.131|||110000438458|103
21.10.2018 11:00:00||AKTİFBANK|10.40.25.131|||110000438458|83
21.10.2018 11:00:00||AKTİFBANK|10.40.25.131|||110000438458|82
21.10.2018 11:00:00||AKTİFBANK|10.40.25.131|||110000438458|20
21.10.2018 11:00:00||AKTİFBANK|10.40.25.131|||110000438458|120
21.10.2018 11:00:00||AKTİFBANK|10.40.25.132|||110000438458|60
21.10.2018 11:00:00||AKTİFBANK|10.40.25.132|||110000438458|68
21.10.2018 11:00:00||AKTİFBANK|10.40.25.132|||110000438458|80
21.10.2018 11:00:00||AKTİFBANK|10.40.25.132|||110000438458|165
21.10.2018 11:00:00||AKTİFBANK|10.40.25.132|||110000438458|60
21.10.2018 11:00:00||AKTİFBANK|10.40.25.143|||110000438458|308
21.10.2018 11:00:00||AKTİFBANK|10.40.25.144|||110000438458|80
21.10.2018 11:00:00||AKTİFBANK|10.40.25.144|||110000438458|50
21.10.2018 11:00:00||AKTİFBANK|10.40.25.144|||110000438458|20
21.10.2018 11:00:00||AKTİFBANK|10.40.25.154|||110000438458|10
21.10.2018 11:00:00||AKTİFBANK|10.40.25.154|||110000438458|10
21.10.2018 11:00:00||AKTİFBANK|10.40.25.154|||110000438458|10
21.10.2018 11:00:00||AKTİFBANK|10.40.25.157|||110000438458|70
21.10.2018 11:00:00||AKTİFBANK|10.40.25.157|||110000438458|70
21.10.2018 11:00:00||AKTİFBANK|10.40.25.157|||110000438458|70
21.10.2018 11:00:00||AKTİFBANK|10.40.25.157|||110000438458|80
21.10.2018 11:00:00||AKTİFBANK|10.40.25.157|||110000438458|40
21.10.2018 11:00:00||AKTİFBANK|10.40.25.159|||110000438458|60
21.10.2018 11:00:00||AKTİFBANK|10.40.25.159|||110000438458|10
21.10.2018 11:00:00||AKTİFBANK|10.40.25.159|||110000438458|90
21.10.2018 11:00:00||AKTİFBANK|10.40.25.158|||110000438458|40
21.10.2018 11:00:00||AKTİFBANK|10.40.25.158|||110000438458|82
21.10.2018 11:00:00||AKTİFBANK|10.40.25.158|||110000438458|43
21.10.2018 11:00:00||AKTİFBANK|10.40.25.158|||110000438458|50
21.10.2018 11:00:00||AKTİFBANK|10.40.25.160|||110000438458|90
21.10.2018 11:00:00||AKTİFBANK|10.40.25.161|||110000438458|80
21.10.2018 11:00:00||AKTİFBANK|10.40.25.161|||110000438458|70
21.10.2018 11:00:00||AKTİFBANK|10.40.25.161|||110000438458|40
21.10.2018 11:00:00||AKTİFBANK|10.40.25.161|||110000438458|30
21.10.2018 11:00:00||AKTİFBANK|10.40.25.161|||110000438458|20
21.10.2018 11:00:00||AKTİFBANK|10.40.25.161|||110000438458|58
21.10.2018 11:00:00||AKTİFBANK|10.40.25.145|||110000438458|90
21.10.2018 11:00:00||AKTİFBANK|10.40.25.145|||110000438458|60
21.10.2018 11:00:00||AKTİFBANK|10.40.25.145|||110000438458|60
21.10.2018 11:00:00||AKTİFBANK|10.40.25.145|||110000438458|30
21.10.2018 11:00:00||AKTİFBANK|10.40.25.145|||110000438458|50
21.10.2018 11:00:00||AKTİFBANK|10.40.25.147|||110000438458|90
21.10.2018 11:00:00||AKTİFBANK|10.40.25.162|||110000438458|30
21.10.2018 11:00:00||AKTİFBANK|10.40.25.162|||110000438458|30
21.10.2018 11:00:00||AKTİFBANK|10.40.25.162|||110000438458|60
21.10.2018 11:00:00||AKTİFBANK|10.40.25.164|||110000438458|60
21.10.2018 11:00:00||AKTİFBANK|10.40.25.164|||110000438458|280
21.10.2018 11:00:00||AKTİFBANK|10.40.25.164|||110000438458|50
21.10.2018 11:00:00||AKTİFBANK|10.40.25.164|||110000438458|260
21.10.2018 11:00:00||AKTİFBANK|10.40.25.164|||110000438458|270
21.10.2018 11:00:00||AKTİFBANK|10.40.25.165|||110000438458|110
21.10.2018 11:00:00||AKTİFBANK|10.40.25.165|||110000438458|70
21.10.2018 11:00:00||AKTİFBANK|10.40.25.165|||110000438458|80
21.10.2018 11:00:00||AKTİFBANK|10.40.25.165|||110000438458|100
21.10.2018 11:00:00||AKTİFBANK|10.40.25.166|||110000438458|90
21.10.2018 11:00:00||AKTİFBANK|10.40.25.166|||110000438458|10
21.10.2018 11:00:00||AKTİFBANK|10.40.25.166|||110000438458|10
21.10.2018 11:00:00||AKTİFBANK|10.40.25.166|||110000438458|10
21.10.2018 11:00:00||AKTİFBANK|10.40.25.166|||110000438458|40
21.10.2018 11:00:00||AKTİFBANK|10.40.25.148|||110000438458|130
21.10.2018 11:00:00||AKTİFBANK|10.40.25.148|||110000438458|50
21.10.2018 11:00:00||AKTİFBANK|10.40.25.148|||110000438458|100
21.10.2018 11:00:00||AKTİFBANK|10.40.25.148|||110000438458|130
21.10.2018 11:00:00||AKTİFBANK|10.40.25.148|||110000438458|90
21.10.2018 11:00:00||AKTİFBANK|10.40.25.148|||110000438458|80
21.10.2018 11:00:00||AKTİFBANK|10.40.25.148|||110000438458|70
21.10.2018 11:00:00||AKTİFBANK|10.40.25.148|||110000438458|50
21.10.2018 11:00:00||AKTİFBANK|10.40.25.148|||110000438458|80
21.10.2018 11:00:00||AKTİFBANK|10.40.25.148|||110000438458|40
21.10.2018 11:00:00||AKTİFBANK|10.40.25.148|||110000438458|100
21.10.2018 11:00:00||AKTİFBANK|10.40.25.148|||110000438458|60
21.10.2018 11:00:00||AKTİFBANK|10.40.25.155|||110000438458|70
21.10.2018 11:00:00||AKTİFBANK|10.40.25.155|||110000438458|90
21.10.2018 11:00:00||AKTİFBANK|10.40.25.155|||110000438458|110
21.10.2018 11:00:00||AKTİFBANK|10.40.25.155|||110000438458|120
21.10.2018 11:00:00||AKTİFBANK|10.40.25.155|||110000438458|110
21.10.2018 11:00:00||AKTİFBANK|10.40.25.156|||110000438458|20
21.10.2018 11:00:00||AKTİFBANK|10.40.25.156|||110000438458|30
21.10.2018 11:00:00||AKTİFBANK|10.40.25.139|||110000438458|70
21.10.2018 11:00:00||AKTİFBANK|10.40.25.139|||110000438458|80
21.10.2018 11:00:00||AKTİFBANK|10.40.25.150|||110000438458|515
21.10.2018 11:00:00||AKTİFBANK|10.40.25.129|||110000438458|60
21.10.2018 11:00:00||AKTİFBANK|10.40.25.129|||110000438458|83
21.10.2018 11:00:00||AKTİFBANK|10.40.25.129|||110000438458|140
21.10.2018 11:00:00||AKTİFBANK|10.40.25.130|||110000438458|70
21.10.2018 11:00:00||AKTİFBANK|10.40.25.130|||110000438458|127
21.10.2018 11:00:00||AKTİFBANK|10.40.25.130|||110000438458|100
21.10.2018 11:00:00||AKTİFBANK|10.40.25.131|||110000438458|42
21.10.2018 11:00:00||AKTİFBANK|10.40.25.143|||110000438458|60
21.10.2018 11:00:00||AKTİFBANK|10.40.25.143|||110000438458|243
21.10.2018 11:00:00||AKTİFBANK|10.40.25.143|||110000438458|257
21.10.2018 11:00:00||AKTİFBANK|10.40.25.158|||110000438458|108
21.10.2018 11:00:00||AKTİFBANK|10.40.25.160|||110000438458|110
21.10.2018 11:00:00||AKTİFBANK|10.40.25.162|||110000438458|32
21.10.2018 11:00:00||AKTİFBANK|10.40.25.162|||110000438458|40
21.10.2018 11:00:00||AKTİFBANK|10.40.24.140|||110000438458|162
21.10.2018 11:00:00||AKTİFBANK|10.40.24.140|||110000438458|80
21.10.2018 11:00:00||AKTİFBANK|10.40.24.140|||110000438458|40
21.10.2018 11:00:00||AKTİFBANK|10.40.24.140|||110000438458|30
21.10.2018 11:00:00||AKTİFBANK|10.40.24.140|||110000438458|30
21.10.2018 11:00:00||AKTİFBANK|10.40.24.140|||110000438458|27
21.10.2018 11:00:00||AKTİFBANK|10.40.24.149|||110000438458|80
21.10.2018 11:00:00||AKTİFBANK|10.40.24.149|||110000438458|120
21.10.2018 11:00:00||AKTİFBANK|10.40.24.149|||110000438458|92
21.10.2018 11:00:00||AKTİFBANK|10.40.24.149|||110000438458|65
21.10.2018 11:00:00||AKTİFBANK|10.40.24.149|||110000438458|52
21.10.2018 11:00:00||AKTİFBANK|10.40.24.149|||110000438458|142
21.10.2018 11:00:00||AKTİFBANK|10.40.24.149|||110000438458|90
21.10.2018 11:00:00||AKTİFBANK|10.40.24.149|||110000438458|90
21.10.2018 11:00:00||AKTİFBANK|10.40.24.149|||110000438458|90
21.10.2018 11:00:00||AKTİFBANK|10.40.24.149|||110000438458|80
21.10.2018 11:00:00||AKTİFBANK|10.40.24.133|||110000438458|142
21.10.2018 11:00:00||AKTİFBANK|10.40.24.133|||110000438458|272
21.10.2018 11:00:00||AKTİFBANK|10.40.24.133|||110000438458|120
21.10.2018 11:00:00||AKTİFBANK|10.40.24.133|||110000438458|85
21.10.2018 11:00:00||AKTİFBANK|10.40.24.138|||110000438458|112
21.10.2018 11:00:00||AKTİFBANK|10.40.24.138|||110000438458|140
21.10.2018 11:00:00||AKTİFBANK|10.40.24.138|||110000438458|117
21.10.2018 11:00:00||AKTİFBANK|10.40.24.138|||110000438458|33
21.10.2018 11:00:00||AKTİFBANK|10.40.24.138|||110000438458|50
21.10.2018 11:00:00||AKTİFBANK|10.40.24.139|||110000438458|162
21.10.2018 11:00:00||AKTİFBANK|10.40.24.139|||110000438458|90
21.10.2018 11:00:00||AKTİFBANK|10.40.24.139|||110000438458|122
21.10.2018 11:00:00||AKTİFBANK|10.40.24.141|||110000438458|200
21.10.2018 11:00:00||AKTİFBANK|10.40.24.141|||110000438458|100
21.10.2018 11:00:00||AKTİFBANK|10.40.24.141|||110000438458|100
21.10.2018 11:00:00||AKTİFBANK|10.40.24.141|||110000438458|67
21.10.2018 11:00:00||AKTİFBANK|10.40.24.141|||110000438458|80
21.10.2018 11:00:00||AKTİFBANK|10.40.25.152|||110000438458|110
21.10.2018 11:00:00||AKTİFBANK|10.40.25.152|||110000438458|50
21.10.2018 11:00:00||AKTİFBANK|10.40.25.152|||110000438458|140
21.10.2018 11:00:00||AKTİFBANK|10.40.25.152|||110000438458|70
21.10.2018 11:00:00||AKTİFBANK|10.40.25.152|||110000438458|90
21.10.2018 11:00:00||AKTİFBANK|10.40.25.152|||110000438458|160
21.10.2018 11:00:00||AKTİFBANK|10.40.25.152|||110000438458|50
21.10.2018 11:00:00||AKTİFBANK|10.40.25.152|||110000438458|90
21.10.2018 11:00:00||AKTİFBANK|10.40.25.152|||110000438458|30
21.10.2018 11:00:00||AKTİFBANK|10.40.25.152|||110000438458|80
21.10.2018 11:00:00||AKTİFBANK|10.40.25.152|||110000438458|30
21.10.2018 11:00:00||AKTİFBANK|10.40.24.150|||110000438458|552
21.10.2018 11:00:00||AKTİFBANK|10.40.24.151|||110000438458|520
21.10.2018 11:00:00||AKTİFBANK|10.40.24.151|||110000438458|532
21.10.2018 11:00:00||AKTİFBANK|10.40.24.128|||110000438458|60
21.10.2018 11:00:00||AKTİFBANK|10.40.24.128|||110000438458|70
21.10.2018 11:00:00||AKTİFBANK|10.40.24.128|||110000438458|100
21.10.2018 11:00:00||AKTİFBANK|10.40.24.128|||110000438458|40
21.10.2018 11:00:00||AKTİFBANK|10.40.24.128|||110000438458|70
21.10.2018 11:00:00||AKTİFBANK|10.40.24.128|||110000438458|60
21.10.2018 11:00:00||AKTİFBANK|10.40.24.129|||110000438458|100
21.10.2018 11:00:00||AKTİFBANK|10.40.24.129|||110000438458|70
21.10.2018 11:00:00||AKTİFBANK|10.40.24.129|||110000438458|110
21.10.2018 11:00:00||AKTİFBANK|10.40.24.129|||110000438458|120
21.10.2018 11:00:00||AKTİFBANK|10.40.24.129|||110000438458|40
21.10.2018 11:00:00||AKTİFBANK|10.40.24.129|||110000438458|70
21.10.2018 11:00:00||AKTİFBANK|10.40.24.129|||110000438458|70
21.10.2018 11:00:00||AKTİFBANK|10.40.24.129|||110000438458|90
21.10.2018 11:00:00||AKTİFBANK|10.40.24.129|||110000438458|80
21.10.2018 11:00:00||AKTİFBANK|10.40.24.129|||110000438458|140
21.10.2018 11:00:00||AKTİFBANK|10.40.24.130|||110000438458|42
21.10.2018 11:00:00||AKTİFBANK|10.40.24.130|||110000438458|40
21.10.2018 11:00:00||AKTİFBANK|10.40.24.130|||110000438458|67
21.10.2018 11:00:00||AKTİFBANK|10.40.24.130|||110000438458|43
21.10.2018 11:00:00||AKTİFBANK|10.40.24.130|||110000438458|60
21.10.2018 11:00:00||AKTİFBANK|10.40.24.130|||110000438458|72
21.10.2018 11:00:00||AKTİFBANK|10.40.24.130|||110000438458|87
21.10.2018 11:00:00||AKTİFBANK|10.40.24.130|||110000438458|35
21.10.2018 11:00:00||AKTİFBANK|10.40.24.130|||110000438458|130
21.10.2018 11:00:00||AKTİFBANK|10.40.24.130|||110000438458|110
21.10.2018 11:00:00||AKTİFBANK|10.40.24.131|||110000438458|77
21.10.2018 11:00:00||AKTİFBANK|10.40.24.131|||110000438458|90
21.10.2018 11:00:00||AKTİFBANK|10.40.24.131|||110000438458|110
21.10.2018 11:00:00||AKTİFBANK|10.40.24.131|||110000438458|107
21.10.2018 11:00:00||AKTİFBANK|10.40.24.131|||110000438458|20
21.10.2018 11:00:00||AKTİFBANK|10.40.24.131|||110000438458|160
21.10.2018 11:00:00||AKTİFBANK|10.40.24.131|||110000438458|60
21.10.2018 11:00:00||AKTİFBANK|10.40.24.131|||110000438458|110
21.10.2018 11:00:00||AKTİFBANK|10.40.24.132|||110000438458|32
21.10.2018 11:00:00||AKTİFBANK|10.40.24.132|||110000438458|83
21.10.2018 11:00:00||AKTİFBANK|10.40.24.132|||110000438458|52
21.10.2018 11:00:00||AKTİFBANK|10.40.24.132|||110000438458|187
21.10.2018 11:00:00||AKTİFBANK|10.40.24.132|||110000438458|65
21.10.2018 11:00:00||AKTİFBANK|10.40.24.143|||110000438458|67
21.10.2018 11:00:00||AKTİFBANK|10.40.24.143|||110000438458|270
21.10.2018 11:00:00||AKTİFBANK|10.40.24.143|||110000438458|315
21.10.2018 11:00:00||AKTİFBANK|10.40.24.143|||110000438458|210
21.10.2018 11:00:00||AKTİFBANK|10.40.24.144|||110000438458|70
21.10.2018 11:00:00||AKTİFBANK|10.40.24.144|||110000438458|107
21.10.2018 11:00:00||AKTİFBANK|10.40.24.144|||110000438458|130
21.10.2018 11:00:00||AKTİFBANK|10.40.24.148|||110000438458|67
21.10.2018 11:00:00||AKTİFBANK|10.40.24.148|||110000438458|170
21.10.2018 11:00:00||AKTİFBANK|10.40.24.148|||110000438458|80
21.10.2018 11:00:00||AKTİFBANK|10.40.24.148|||110000438458|110
21.10.2018 11:00:00||AKTİFBANK|10.40.24.148|||110000438458|80
21.10.2018 11:00:00||AKTİFBANK|10.40.24.148|||110000438458|82
21.10.2018 11:00:00||AKTİFBANK|10.40.24.148|||110000438458|93
21.10.2018 11:00:00||AKTİFBANK|10.40.24.148|||110000438458|102
21.10.2018 11:00:00||AKTİFBANK|10.40.24.148|||110000438458|78
21.10.2018 11:00:00||AKTİFBANK|10.40.24.148|||110000438458|62
21.10.2018 11:00:00||AKTİFBANK|10.40.24.148|||110000438458|33
21.10.2018 11:00:00||AKTİFBANK|10.40.24.148|||110000438458|75
21.10.2018 11:00:00||AKTİFBANK|10.40.24.153|||110000438458|10
21.10.2018 11:00:00||AKTİFBANK|10.40.24.153|||110000438458|93
21.10.2018 11:00:00||AKTİFBANK|10.40.24.153|||110000438458|72
21.10.2018 11:00:00||AKTİFBANK|10.40.24.153|||110000438458|75
21.10.2018 11:00:00||AKTİFBANK|10.40.24.157|||110000438458|30
21.10.2018 11:00:00||AKTİFBANK|10.40.24.157|||110000438458|77
21.10.2018 11:00:00||AKTİFBANK|10.40.24.157|||110000438458|70
21.10.2018 11:00:00||AKTİFBANK|10.40.24.157|||110000438458|45
21.10.2018 11:00:00||AKTİFBANK|10.40.24.157|||110000438458|80
21.10.2018 11:00:00||AKTİFBANK|10.40.24.157|||110000438458|43
21.10.2018 11:00:00||AKTİFBANK|10.40.24.158|||110000438458|80
21.10.2018 11:00:00||AKTİFBANK|10.40.24.158|||110000438458|110
21.10.2018 11:00:00||AKTİFBANK|10.40.24.159|||110000438458|133
21.10.2018 11:00:00||AKTİFBANK|10.40.24.159|||110000438458|53
21.10.2018 11:00:00||AKTİFBANK|10.40.24.159|||110000438458|180
21.10.2018 11:00:00||AKTİFBANK|10.40.24.160|||110000438458|50
21.10.2018 11:00:00||AKTİFBANK|10.40.24.160|||110000438458|92
21.10.2018 11:00:00||AKTİFBANK|10.40.24.160|||110000438458|102
21.10.2018 11:00:00||AKTİFBANK|10.40.24.161|||110000438458|202
21.10.2018 11:00:00||AKTİFBANK|10.40.24.161|||110000438458|80
21.10.2018 11:00:00||AKTİFBANK|10.40.24.161|||110000438458|40
21.10.2018 11:00:00||AKTİFBANK|10.40.24.161|||110000438458|30
21.10.2018 11:00:00||AKTİFBANK|10.40.24.161|||110000438458|30
21.10.2018 11:00:00||AKTİFBANK|10.40.24.161|||110000438458|20
21.10.2018 11:00:00||AKTİFBANK|10.40.24.161|||110000438458|90
21.10.2018 11:00:00||AKTİFBANK|10.40.24.145|||110000438458|30
21.10.2018 11:00:00||AKTİFBANK|10.40.24.145|||110000438458|70
21.10.2018 11:00:00||AKTİFBANK|10.40.24.145|||110000438458|60
21.10.2018 11:00:00||AKTİFBANK|10.40.24.147|||110000438458|90
21.10.2018 11:00:00||AKTİFBANK|10.40.24.162|||110000438458|40
21.10.2018 11:00:00||AKTİFBANK|10.40.24.162|||110000438458|40
21.10.2018 11:00:00||AKTİFBANK|10.40.24.162|||110000438458|102
21.10.2018 11:00:00||AKTİFBANK|10.40.24.162|||110000438458|10
21.10.2018 11:00:00||AKTİFBANK|10.40.24.162|||110000438458|50
21.10.2018 11:00:00||AKTİFBANK|10.40.24.163|||110000438458|30
21.10.2018 11:00:00||AKTİFBANK|10.40.24.163|||110000438458|70
21.10.2018 11:00:00||AKTİFBANK|10.40.24.164|||110000438458|60
21.10.2018 11:00:00||AKTİFBANK|10.40.24.164|||110000438458|330
21.10.2018 11:00:00||AKTİFBANK|10.40.24.164|||110000438458|220
21.10.2018 11:00:00||AKTİFBANK|10.40.24.165|||110000438458|77
21.10.2018 11:00:00||AKTİFBANK|10.40.24.165|||110000438458|80
21.10.2018 11:00:00||AKTİFBANK|10.40.24.165|||110000438458|50
21.10.2018 11:00:00||AKTİFBANK|10.40.24.165|||110000438458|120
21.10.2018 11:00:00||AKTİFBANK|10.40.24.166|||110000438458|80
21.10.2018 11:00:00||AKTİFBANK|10.40.24.166|||110000438458|90
21.10.2018 11:00:00||AKTİFBANK|10.40.24.166|||110000438458|10
21.10.2018 11:00:00||AKTİFBANK|10.40.25.168|||110000438458|90
21.10.2018 11:00:00||AKTİFBANK|10.40.25.168|||110000438458|70
21.10.2018 11:00:00||AKTİFBANK|10.40.25.168|||110000438458|50
21.10.2018 11:00:00||AKTİFBANK|10.40.25.168|||110000438458|40
21.10.2018 11:00:00||AKTİFBANK|10.40.25.168|||110000438458|60
21.10.2018 11:00:00||AKTİFBANK|10.40.24.168|||110000438458|90
21.10.2018 11:00:00||AKTİFBANK|10.40.24.168|||110000438458|80
21.10.2018 11:00:00||AKTİFBANK|10.40.24.168|||110000438458|70
21.10.2018 11:00:00||AKTİFBANK|10.40.24.168|||110000438458|70
21.10.2018 11:00:00||AKTİFBANK|10.40.24.168|||110000438458|30
21.10.2018 11:00:00||AKTİFBANK|10.40.24.154|||110000438458|70
21.10.2018 11:00:00||AKTİFBANK|10.40.24.154|||110000438458|20
21.10.2018 11:00:00||AKTİFBANK|10.40.24.154|||110000438458|10
21.10.2018 11:00:00||AKTİFBANK|10.40.24.154|||110000438458|10
21.10.2018 11:00:00||AKTİFBANK|10.40.24.154|||110000438458|10
21.10.2018 11:00:00||AKTİFBANK|10.40.24.154|||110000438458|10
21.10.2018 11:00:00||AKTİFBANK|10.40.24.155|||110000438458|60
21.10.2018 11:00:00||AKTİFBANK|10.40.24.155|||110000438458|102
21.10.2018 11:00:00||AKTİFBANK|10.40.24.155|||110000438458|132
21.10.2018 11:00:00||AKTİFBANK|10.40.24.155|||110000438458|80
21.10.2018 11:00:00||AKTİFBANK|10.40.24.155|||110000438458|110
21.10.2018 11:00:00||AKTİFBANK|10.40.24.155|||110000438458|100
21.10.2018 11:00:00||AKTİFBANK|10.40.25.169|||110000438458|88
21.10.2018 11:00:00||AKTİFBANK|10.40.25.169|||110000438458|105
21.10.2018 11:00:00||AKTİFBANK|10.40.25.169|||110000438458|73
21.10.2018 11:00:00||AKTİFBANK|10.40.25.169|||110000438458|80
21.10.2018 11:00:00||AKTİFBANK|10.40.24.169|||110000438458|67
21.10.2018 11:00:00||AKTİFBANK|10.40.24.169|||110000438458|83
21.10.2018 11:00:00||AKTİFBANK|10.40.24.169|||110000438458|73
21.10.2018 11:00:00||AKTİFBANK|10.40.24.169|||110000438458|80
21.10.2018 11:00:00||AKTİFBANK|10.40.25.170|||110000438458|30
21.10.2018 11:00:00||AKTİFBANK|10.40.25.170|||110000438458|30
21.10.2018 11:00:00||AKTİFBANK|10.40.25.170|||110000438458|200
21.10.2018 11:00:00||AKTİFBANK|10.40.25.170|||110000438458|100
21.10.2018 11:00:00||AKTİFBANK|10.40.25.170|||110000438458|80
21.10.2018 11:00:00||AKTİFBANK|10.40.25.170|||110000438458|120
21.10.2018 11:00:00||AKTİFBANK|10.40.24.170|||110000438458|60
21.10.2018 11:00:00||AKTİFBANK|10.40.24.170|||110000438458|60
21.10.2018 11:00:00||AKTİFBANK|10.40.24.170|||110000438458|350
21.10.2018 11:00:00||AKTİFBANK|10.40.24.170|||110000438458|242
21.10.2018 11:00:00||AKTİFBANK|10.40.24.170|||110000438458|75
21.10.2018 11:00:00||AKTİFBANK|10.40.24.170|||110000438458|102
21.10.2018 11:00:00||AKTİFBANK|10.40.24.170|||110000438458|85
21.10.2018 11:00:00||AKTİFBANK|10.40.25.178|||110000438458|590
21.10.2018 11:00:00||AKTİFBANK|10.40.25.178|||110000438458|560
21.10.2018 11:00:00||AKTİFBANK|10.40.25.178|||110000438458|550
21.10.2018 11:00:00||AKTİFBANK|10.40.24.178|||110000438458|558
21.10.2018 11:00:00||AKTİFBANK|10.40.24.178|||110000438458|547
21.10.2018 11:00:00||AKTİFBANK|10.40.24.178|||110000438458|540
21.10.2018 11:00:00||AKTİFBANK|10.40.25.179|||110000438458|397
21.10.2018 11:00:00||AKTİFBANK|10.40.25.179|||110000438458|363
21.10.2018 11:00:00||AKTİFBANK|10.40.25.179|||110000438458|352
21.10.2018 11:00:00||AKTİFBANK|10.40.24.179|||110000438458|317
21.10.2018 11:00:00||AKTİFBANK|10.40.24.179|||110000438458|317
21.10.2018 11:00:00||AKTİFBANK|10.40.24.179|||110000438458|322
21.10.2018 11:00:00||AKTİFBANK|10.40.24.142|||110000438458|40
21.10.2018 11:00:00||AKTİFBANK|10.40.24.156|||110000438458|50
21.10.2018 11:00:00||AKTİFBANK|10.40.24.156|||110000438458|50
21.10.2018 11:00:00||AKTİFBANK|10.40.25.186|||110000438458|90
21.10.2018 11:00:00||AKTİFBANK|10.40.25.186|||110000438458|20
21.10.2018 11:00:00||AKTİFBANK|10.40.25.186|||110000438458|70
21.10.2018 11:00:00||AKTİFBANK|10.40.24.186|||110000438458|90
21.10.2018 11:00:00||AKTİFBANK|10.40.24.186|||110000438458|30
21.10.2018 11:00:00||AKTİFBANK|10.40.24.186|||110000438458|60
21.10.2018 11:00:00||AKTİFBANK|10.40.24.186|||110000438458|40
21.10.2018 11:00:00||AKTİFBANK|10.40.24.152|||110000438458|10
21.10.2018 11:00:00||AKTİFBANK|10.40.24.152|||110000438458|48
21.10.2018 11:00:00||AKTİFBANK|10.40.24.152|||110000438458|102
21.10.2018 11:00:00||AKTİFBANK|10.40.24.152|||110000438458|108
21.10.2018 11:00:00||AKTİFBANK|10.40.24.152|||110000438458|93
21.10.2018 11:00:00||AKTİFBANK|10.40.24.152|||110000438458|100
21.10.2018 11:00:00||AKTİFBANK|10.40.24.152|||110000438458|305
21.10.2018 11:00:00||AKTİFBANK|10.40.24.152|||110000438458|75
21.10.2018 11:00:00||AKTİFBANK|10.40.24.152|||110000438458|93
21.10.2018 11:00:00||AKTİFBANK|10.40.24.152|||110000438458|30
21.10.2018 11:00:00||AKTİFBANK|10.40.24.152|||110000438458|75
21.10.2018 11:00:00||AKTİFBANK|10.40.24.152|||110000438458|30
21.10.2018 11:00:00||AKTİFBANK|10.40.24.133|||110000438458|80
21.10.2018 11:00:00||AKTİFBANK|10.40.24.138|||110000438458|120
21.10.2018 11:00:00||AKTİFBANK|10.40.24.139|||110000438458|30
21.10.2018 11:00:00||AKTİFBANK|10.40.24.149|||110000438458|110
21.10.2018 11:00:00||AKTİFBANK|10.40.24.150|||110000438458|552
21.10.2018 11:00:00||AKTİFBANK|10.40.24.145|||110000438458|60
21.10.2018 11:00:00||AKTİFBANK|10.40.24.164|||110000438458|225
21.10.2018 11:00:00||AKTİFBANK|10.40.25.133|||110000438458|70
21.10.2018 11:00:00||AKTİFBANK|10.40.24.145|||110000438458|90
21.10.2018 11:00:00||BARİKAT İNTERNET GÜVENLİĞİ|10.40.25.201|||110000479736|115
21.10.2018 11:00:00||BARİKAT İNTERNET GÜVENLİĞİ|10.40.25.201|||110000479736|100
21.10.2018 11:00:00||BARİKAT İNTERNET GÜVENLİĞİ|10.40.24.201|||110000479736|130
21.10.2018 11:00:00||BARİKAT İNTERNET GÜVENLİĞİ|10.40.24.201|||110000479736|90
21.10.2018 11:00:00||BOYNER|10.40.27.100|||101367941673|52
21.10.2018 11:00:00||BOYNER|10.40.27.101|||101367941673|165
21.10.2018 11:00:00||BOYNER|10.40.26.101|||101367941673|167
21.10.2018 11:00:00||BOYNER|10.40.26.100|||101367941673|56
21.10.2018 11:00:00||BOYNER|10.40.27.94|||101367941673|210
21.10.2018 11:00:00||BOYNER|10.40.27.94|||101367941673|90
21.10.2018 11:00:00||BOYNER|10.40.27.94|||101367941673|90
21.10.2018 11:00:00||BOYNER|10.40.27.94|||101367941673|100
21.10.2018 11:00:00||BOYNER|10.40.26.94|||101367941673|90
21.10.2018 11:00:00||BOYNER|10.40.26.94|||101367941673|80
21.10.2018 11:00:00||BOYNER|10.40.26.94|||101367941673|80
21.10.2018 11:00:00||BOYNER|10.40.27.95|||101367941673|120
21.10.2018 11:00:00||BOYNER|10.40.27.95|||101367941673|125
21.10.2018 11:00:00||BOYNER|10.40.27.95|||101367941673|228
21.10.2018 11:00:00||BOYNER|10.40.26.95|||101367941673|112
21.10.2018 11:00:00||BOYNER|10.40.26.95|||101367941673|197
21.10.2018 11:00:00||BOYNER|10.40.26.95|||101367941673|135
21.10.2018 11:00:00||BOYNER|10.40.27.96|||101367941673|60
21.10.2018 11:00:00||BOYNER|10.40.27.96|||101367941673|50
21.10.2018 11:00:00||BOYNER|10.40.27.96|||101367941673|50
21.10.2018 11:00:00||BOYNER|10.40.27.96|||101367941673|40
21.10.2018 11:00:00||BOYNER|10.40.27.96|||101367941673|30
21.10.2018 11:00:00||BOYNER|10.40.27.96|||101367941673|148
21.10.2018 11:00:00||BOYNER|10.40.27.96|||101367941673|148
21.10.2018 11:00:00||BOYNER|10.40.27.96|||101367941673|178
21.10.2018 11:00:00||BOYNER|10.40.27.96|||101367941673|175
21.10.2018 11:00:00||BOYNER|10.40.26.96|||101367941673|30
21.10.2018 11:00:00||BOYNER|10.40.26.96|||101367941673|40
21.10.2018 11:00:00||BOYNER|10.40.26.96|||101367941673|30
21.10.2018 11:00:00||BOYNER|10.40.26.96|||101367941673|40
21.10.2018 11:00:00||BOYNER|10.40.26.96|||101367941673|40
21.10.2018 11:00:00||BOYNER|10.40.26.96|||101367941673|50
21.10.2018 11:00:00||BOYNER|10.40.26.96|||101367941673|185
21.10.2018 11:00:00||BOYNER|10.40.26.96|||101367941673|193
21.10.2018 11:00:00||BOYNER|10.40.26.96|||101367941673|160
21.10.2018 11:00:00||BOYNER|10.40.26.96|||101367941673|173
21.10.2018 11:00:00||BOYNER|10.40.27.97|||101367941673|60
21.10.2018 11:00:00||BOYNER|10.40.27.97|||101367941673|652
21.10.2018 11:00:00||BOYNER|10.40.27.97|||101367941673|650
21.10.2018 11:00:00||BOYNER|10.40.27.97|||101367941673|693
21.10.2018 11:00:00||BOYNER|10.40.27.97|||101367941673|45
21.10.2018 11:00:00||BOYNER|10.40.27.97|||101367941673|33
21.10.2018 11:00:00||BOYNER|10.40.27.97|||101367941673|58
21.10.2018 11:00:00||BOYNER|10.40.27.97|||101367941673|30
21.10.2018 11:00:00||BOYNER|10.40.27.97|||101367941673|185
21.10.2018 11:00:00||BOYNER|10.40.27.97|||101367941673|183
21.10.2018 11:00:00||BOYNER|10.40.27.97|||101367941673|195
21.10.2018 11:00:00||BOYNER|10.40.27.97|||101367941673|205
21.10.2018 11:00:00||BOYNER|10.40.26.97|||101367941673|30
21.10.2018 11:00:00||BOYNER|10.40.26.97|||101367941673|648
21.10.2018 11:00:00||BOYNER|10.40.26.97|||101367941673|648
21.10.2018 11:00:00||BOYNER|10.40.26.97|||101367941673|652
21.10.2018 11:00:00||BOYNER|10.40.26.97|||101367941673|30
21.10.2018 11:00:00||BOYNER|10.40.26.97|||101367941673|40
21.10.2018 11:00:00||BOYNER|10.40.26.97|||101367941673|52
21.10.2018 11:00:00||BOYNER|10.40.26.97|||101367941673|60
21.10.2018 11:00:00||BOYNER|10.40.26.97|||101367941673|30
21.10.2018 11:00:00||BOYNER|10.40.26.97|||101367941673|173
21.10.2018 11:00:00||BOYNER|10.40.26.97|||101367941673|183
21.10.2018 11:00:00||BOYNER|10.40.26.97|||101367941673|185
21.10.2018 11:00:00||BOYNER|10.40.26.97|||101367941673|170
21.10.2018 11:00:00||BOYNER|10.40.27.99|||101367941673|130
21.10.2018 11:00:00||BOYNER|10.40.27.99|||101367941673|107
21.10.2018 11:00:00||BOYNER|10.40.27.99|||101367941673|78
21.10.2018 11:00:00||BOYNER|10.40.26.99|||101367941673|10
21.10.2018 11:00:00||BOYNER|10.40.26.99|||101367941673|113
21.10.2018 11:00:00||BOYNER|10.40.26.99|||101367941673|103
21.10.2018 11:00:00||BOYNER|10.40.26.99|||101367941673|72
21.10.2018 11:00:00||ÇALIK HOLDİNG|10.40.25.99|||110000438407|135
21.10.2018 11:00:00||ÇALIK HOLDİNG|10.40.25.118|||110000438407|160
21.10.2018 11:00:00||ÇALIK HOLDİNG|10.40.24.118|||110000438407|43
21.10.2018 11:00:00||ÇALIK HOLDİNG|10.40.25.120|||110000438407|90
21.10.2018 11:00:00||ÇALIK HOLDİNG|10.40.24.95|||110000438407|50
21.10.2018 11:00:00||ÇALIK HOLDİNG|10.40.25.97|||110000438407|80
21.10.2018 11:00:00||ÇALIK HOLDİNG|10.40.25.103|||110000438407|90
21.10.2018 11:00:00||ÇALIK HOLDİNG|10.40.25.120|||110000438407|40
21.10.2018 11:00:00||ÇALIK HOLDİNG|10.40.25.96|||110000438407|70
21.10.2018 11:00:00||ÇALIK HOLDİNG|10.40.25.96|||110000438407|90
21.10.2018 11:00:00||ÇALIK HOLDİNG|10.40.25.96|||110000438407|120
21.10.2018 11:00:00||ÇALIK HOLDİNG|10.40.25.96|||110000438407|90
21.10.2018 11:00:00||ÇALIK HOLDİNG|10.40.25.115|||110000438407|160
21.10.2018 11:00:00||ÇALIK HOLDİNG|10.40.25.115|||110000438407|70
21.10.2018 11:00:00||ÇALIK HOLDİNG|10.40.25.95|||110000438407|97
21.10.2018 11:00:00||ÇALIK HOLDİNG|10.40.25.96|||110000438407|90
21.10.2018 11:00:00||ÇALIK HOLDİNG|10.40.25.96|||110000438407|100
21.10.2018 11:00:00||ÇALIK HOLDİNG|10.40.25.120|||110000438407|20
21.10.2018 11:00:00||ÇALIK HOLDİNG|10.40.25.95|||110000438407|52
21.10.2018 11:00:00||ÇALIK HOLDİNG|10.40.24.94|||110000438407|185
21.10.2018 11:00:00||ÇALIK HOLDİNG|10.40.25.97|||110000438407|102
21.10.2018 11:00:00||ÇALIK HOLDİNG|10.40.25.120|||110000438407|60
21.10.2018 11:00:00||ÇALIK HOLDİNG|10.40.25.115|||110000438407|80
21.10.2018 11:00:00||ÇALIK HOLDİNG|10.40.25.115|||110000438407|68
21.10.2018 11:00:00||ÇALIK HOLDİNG|10.40.25.115|||110000438407|65
21.10.2018 11:00:00||ÇALIK HOLDİNG|10.40.25.101|||110000438407|50
21.10.2018 11:00:00||ÇALIK HOLDİNG|10.40.25.101|||110000438407|110
21.10.2018 11:00:00||ÇALIK HOLDİNG|10.40.25.101|||110000438407|30
21.10.2018 11:00:00||ÇALIK HOLDİNG|10.40.25.101|||110000438407|10
21.10.2018 11:00:00||ÇALIK HOLDİNG|10.40.25.101|||110000438407|90
21.10.2018 11:00:00||ÇALIK HOLDİNG|10.40.25.101|||110000438407|30
21.10.2018 11:00:00||ÇALIK HOLDİNG|10.40.25.101|||110000438407|40
21.10.2018 11:00:00||ÇALIK HOLDİNG|10.40.25.101|||110000438407|40
21.10.2018 11:00:00||ÇALIK HOLDİNG|10.40.25.101|||110000438407|90
21.10.2018 11:00:00||ÇALIK HOLDİNG|10.40.25.101|||110000438407|90
21.10.2018 11:00:00||ÇALIK HOLDİNG|10.40.25.101|||110000438407|90
21.10.2018 11:00:00||ÇALIK HOLDİNG|10.40.25.94|||110000438407|180
21.10.2018 11:00:00||ÇALIK HOLDİNG|10.40.25.94|||110000438407|180
21.10.2018 11:00:00||ÇALIK HOLDİNG|10.40.25.94|||110000438407|170
21.10.2018 11:00:00||ÇALIK HOLDİNG|10.40.25.94|||110000438407|180
21.10.2018 11:00:00||ÇALIK HOLDİNG|10.40.24.94|||110000438407|187
21.10.2018 11:00:00||ÇALIK HOLDİNG|10.40.24.94|||110000438407|195
21.10.2018 11:00:00||ÇALIK HOLDİNG|10.40.24.94|||110000438407|202
21.10.2018 11:00:00||ÇALIK HOLDİNG|10.40.25.95|||110000438407|20
21.10.2018 11:00:00||ÇALIK HOLDİNG|10.40.25.95|||110000438407|340
21.10.2018 11:00:00||ÇALIK HOLDİNG|10.40.25.95|||110000438407|355
21.10.2018 11:00:00||ÇALIK HOLDİNG|10.40.25.95|||110000438407|40
21.10.2018 11:00:00||ÇALIK HOLDİNG|10.40.24.95|||110000438407|100
21.10.2018 11:00:00||ÇALIK HOLDİNG|10.40.24.95|||110000438407|87
21.10.2018 11:00:00||ÇALIK HOLDİNG|10.40.24.95|||110000438407|387
21.10.2018 11:00:00||ÇALIK HOLDİNG|10.40.24.95|||110000438407|388
21.10.2018 11:00:00||ÇALIK HOLDİNG|10.40.25.96|||110000438407|90
21.10.2018 11:00:00||ÇALIK HOLDİNG|10.40.25.96|||110000438407|98
21.10.2018 11:00:00||ÇALIK HOLDİNG|10.40.25.96|||110000438407|100
21.10.2018 11:00:00||ÇALIK HOLDİNG|10.40.25.96|||110000438407|257
21.10.2018 11:00:00||ÇALIK HOLDİNG|10.40.25.96|||110000438407|270
21.10.2018 11:00:00||ÇALIK HOLDİNG|10.40.25.96|||110000438407|100
21.10.2018 11:00:00||ÇALIK HOLDİNG|10.40.25.96|||110000438407|90
21.10.2018 11:00:00||ÇALIK HOLDİNG|10.40.25.96|||110000438407|95
21.10.2018 11:00:00||ÇALIK HOLDİNG|10.40.25.97|||110000438407|90
21.10.2018 11:00:00||ÇALIK HOLDİNG|10.40.25.97|||110000438407|80
21.10.2018 11:00:00||ÇALIK HOLDİNG|10.40.25.97|||110000438407|300
21.10.2018 11:00:00||ÇALIK HOLDİNG|10.40.25.98|||110000438407|60
21.10.2018 11:00:00||ÇALIK HOLDİNG|10.40.25.98|||110000438407|163
21.10.2018 11:00:00||ÇALIK HOLDİNG|10.40.25.98|||110000438407|160
21.10.2018 11:00:00||ÇALIK HOLDİNG|10.40.25.98|||110000438407|170
21.10.2018 11:00:00||ÇALIK HOLDİNG|10.40.25.98|||110000438407|165
21.10.2018 11:00:00||ÇALIK HOLDİNG|10.40.25.98|||110000438407|60
21.10.2018 11:00:00||ÇALIK HOLDİNG|10.40.25.98|||110000438407|212
21.10.2018 11:00:00||ÇALIK HOLDİNG|10.40.25.98|||110000438407|182
21.10.2018 11:00:00||ÇALIK HOLDİNG|10.40.25.98|||110000438407|170
21.10.2018 11:00:00||ÇALIK HOLDİNG|10.40.25.98|||110000438407|217
21.10.2018 11:00:00||ÇALIK HOLDİNG|10.40.25.98|||110000438407|77
21.10.2018 11:00:00||ÇALIK HOLDİNG|10.40.25.98|||110000438407|313
21.10.2018 11:00:00||ÇALIK HOLDİNG|10.40.24.98|||110000438407|98
21.10.2018 11:00:00||ÇALIK HOLDİNG|10.40.24.98|||110000438407|157
21.10.2018 11:00:00||ÇALIK HOLDİNG|10.40.24.98|||110000438407|200
21.10.2018 11:00:00||ÇALIK HOLDİNG|10.40.24.98|||110000438407|200
21.10.2018 11:00:00||ÇALIK HOLDİNG|10.40.24.98|||110000438407|160
21.10.2018 11:00:00||ÇALIK HOLDİNG|10.40.24.98|||110000438407|30
21.10.2018 11:00:00||ÇALIK HOLDİNG|10.40.24.98|||110000438407|165
21.10.2018 11:00:00||ÇALIK HOLDİNG|10.40.24.98|||110000438407|182
21.10.2018 11:00:00||ÇALIK HOLDİNG|10.40.24.98|||110000438407|170
21.10.2018 11:00:00||ÇALIK HOLDİNG|10.40.24.98|||110000438407|175
21.10.2018 11:00:00||ÇALIK HOLDİNG|10.40.24.98|||110000438407|20
21.10.2018 11:00:00||ÇALIK HOLDİNG|10.40.24.98|||110000438407|292
21.10.2018 11:00:00||ÇALIK HOLDİNG|10.40.25.100|||110000438407|35
21.10.2018 11:00:00||ÇALIK HOLDİNG|10.40.25.100|||110000438407|40
21.10.2018 11:00:00||ÇALIK HOLDİNG|10.40.24.101|||110000438407|60
21.10.2018 11:00:00||ÇALIK HOLDİNG|10.40.24.101|||110000438407|110
21.10.2018 11:00:00||ÇALIK HOLDİNG|10.40.24.101|||110000438407|20
21.10.2018 11:00:00||ÇALIK HOLDİNG|10.40.24.101|||110000438407|20
21.10.2018 11:00:00||ÇALIK HOLDİNG|10.40.24.101|||110000438407|40
21.10.2018 11:00:00||ÇALIK HOLDİNG|10.40.24.101|||110000438407|73
21.10.2018 11:00:00||ÇALIK HOLDİNG|10.40.24.101|||110000438407|30
21.10.2018 11:00:00||ÇALIK HOLDİNG|10.40.24.101|||110000438407|10
21.10.2018 11:00:00||ÇALIK HOLDİNG|10.40.24.101|||110000438407|20
21.10.2018 11:00:00||ÇALIK HOLDİNG|10.40.24.101|||110000438407|50
21.10.2018 11:00:00||ÇALIK HOLDİNG|10.40.24.101|||110000438407|30
21.10.2018 11:00:00||ÇALIK HOLDİNG|10.40.24.101|||110000438407|80
21.10.2018 11:00:00||ÇALIK HOLDİNG|10.40.24.101|||110000438407|80
21.10.2018 11:00:00||ÇALIK HOLDİNG|10.40.24.101|||110000438407|90
21.10.2018 11:00:00||ÇALIK HOLDİNG|10.40.25.102|||110000438407|100
21.10.2018 11:00:00||ÇALIK HOLDİNG|10.40.25.102|||110000438407|90
21.10.2018 11:00:00||ÇALIK HOLDİNG|10.40.25.102|||110000438407|150
21.10.2018 11:00:00||ÇALIK HOLDİNG|10.40.24.102|||110000438407|100
21.10.2018 11:00:00||ÇALIK HOLDİNG|10.40.24.102|||110000438407|90
21.10.2018 11:00:00||ÇALIK HOLDİNG|10.40.24.102|||110000438407|140
21.10.2018 11:00:00||ÇALIK HOLDİNG|10.40.25.103|||110000438407|90
21.10.2018 11:00:00||ÇALIK HOLDİNG|10.40.25.103|||110000438407|80
21.10.2018 11:00:00||ÇALIK HOLDİNG|10.40.25.103|||110000438407|10
21.10.2018 11:00:00||ÇALIK HOLDİNG|10.40.25.115|||110000438407|80
21.10.2018 11:00:00||ÇALIK HOLDİNG|10.40.24.103|||110000438407|100
21.10.2018 11:00:00||ÇALIK HOLDİNG|10.40.24.103|||110000438407|80
21.10.2018 11:00:00||ÇALIK HOLDİNG|10.40.24.103|||110000438407|80
21.10.2018 11:00:00||ÇALIK HOLDİNG|10.40.24.103|||110000438407|20
21.10.2018 11:00:00||ÇALIK HOLDİNG|10.40.24.103|||110000438407|10
21.10.2018 11:00:00||ÇALIK HOLDİNG|10.40.25.113|||110000438407|220
21.10.2018 11:00:00||ÇALIK HOLDİNG|10.40.25.113|||110000438407|232
21.10.2018 11:00:00||ÇALIK HOLDİNG|10.40.25.113|||110000438407|190
21.10.2018 11:00:00||ÇALIK HOLDİNG|10.40.25.113|||110000438407|195
21.10.2018 11:00:00||ÇALIK HOLDİNG|10.40.24.113|||110000438407|227
21.10.2018 11:00:00||ÇALIK HOLDİNG|10.40.24.113|||110000438407|222
21.10.2018 11:00:00||ÇALIK HOLDİNG|10.40.24.113|||110000438407|185
21.10.2018 11:00:00||ÇALIK HOLDİNG|10.40.24.113|||110000438407|148
21.10.2018 11:00:00||ÇALIK HOLDİNG|10.40.25.114|||110000438407|178
21.10.2018 11:00:00||ÇALIK HOLDİNG|10.40.25.114|||110000438407|410
21.10.2018 11:00:00||ÇALIK HOLDİNG|10.40.25.114|||110000438407|40
21.10.2018 11:00:00||ÇALIK HOLDİNG|10.40.24.114|||110000438407|20
21.10.2018 11:00:00||ÇALIK HOLDİNG|10.40.24.114|||110000438407|40
21.10.2018 11:00:00||ÇALIK HOLDİNG|10.40.24.114|||110000438407|157
21.10.2018 11:00:00||ÇALIK HOLDİNG|10.40.24.114|||110000438407|373
21.10.2018 11:00:00||ÇALIK HOLDİNG|10.40.24.115|||110000438407|153
21.10.2018 11:00:00||ÇALIK HOLDİNG|10.40.24.115|||110000438407|80
21.10.2018 11:00:00||ÇALIK HOLDİNG|10.40.24.115|||110000438407|90
21.10.2018 11:00:00||ÇALIK HOLDİNG|10.40.24.115|||110000438407|70
21.10.2018 11:00:00||ÇALIK HOLDİNG|10.40.24.115|||110000438407|83
21.10.2018 11:00:00||ÇALIK HOLDİNG|10.40.24.115|||110000438407|70
21.10.2018 11:00:00||ÇALIK HOLDİNG|10.40.25.116|||110000438407|102
21.10.2018 11:00:00||ÇALIK HOLDİNG|10.40.25.116|||110000438407|103
21.10.2018 11:00:00||ÇALIK HOLDİNG|10.40.25.116|||110000438407|292
21.10.2018 11:00:00||ÇALIK HOLDİNG|10.40.24.116|||110000438407|277
21.10.2018 11:00:00||ÇALIK HOLDİNG|10.40.24.116|||110000438407|102
21.10.2018 11:00:00||ÇALIK HOLDİNG|10.40.24.116|||110000438407|105
21.10.2018 11:00:00||ÇALIK HOLDİNG|10.40.25.117|||110000438407|250
21.10.2018 11:00:00||ÇALIK HOLDİNG|10.40.25.117|||110000438407|30
21.10.2018 11:00:00||ÇALIK HOLDİNG|10.40.25.117|||110000438407|27
21.10.2018 11:00:00||ÇALIK HOLDİNG|10.40.25.119|||110000438407|30
21.10.2018 11:00:00||ÇALIK HOLDİNG|10.40.25.119|||110000438407|30
21.10.2018 11:00:00||ÇALIK HOLDİNG|10.40.24.119|||110000438407|150
21.10.2018 11:00:00||ÇALIK HOLDİNG|10.40.24.119|||110000438407|30
21.10.2018 11:00:00||ÇALIK HOLDİNG|10.40.24.119|||110000438407|50
21.10.2018 11:00:00||ÇALIK HOLDİNG|10.40.25.120|||110000438407|107
21.10.2018 11:00:00||ÇALIK HOLDİNG|10.40.25.120|||110000438407|50
21.10.2018 11:00:00||ÇALIK HOLDİNG|10.40.25.120|||110000438407|20
21.10.2018 11:00:00||ÇALIK HOLDİNG|10.40.25.120|||110000438407|22
21.10.2018 11:00:00||ÇALIK HOLDİNG|10.40.25.120|||110000438407|30
21.10.2018 11:00:00||ÇALIK HOLDİNG|10.40.25.120|||110000438407|87
21.10.2018 11:00:00||ÇALIK HOLDİNG|10.40.25.120|||110000438407|90
21.10.2018 11:00:00||ÇALIK HOLDİNG|10.40.24.120|||110000438407|20
21.10.2018 11:00:00||ÇALIK HOLDİNG|10.40.24.120|||110000438407|32
21.10.2018 11:00:00||ÇALIK HOLDİNG|10.40.24.120|||110000438407|110
21.10.2018 11:00:00||ÇALIK HOLDİNG|10.40.24.120|||110000438407|100
21.10.2018 11:00:00||ÇALIK HOLDİNG|10.40.24.120|||110000438407|40
21.10.2018 11:00:00||ÇALIK HOLDİNG|10.40.24.120|||110000438407|80
21.10.2018 11:00:00||ÇALIK HOLDİNG|10.40.24.120|||110000438407|80
21.10.2018 11:00:00||ÇALIK HOLDİNG|10.40.24.120|||110000438407|70
21.10.2018 11:00:00||ÇALIK HOLDİNG|10.40.25.121|||110000438407|90
21.10.2018 11:00:00||ÇALIK HOLDİNG|10.40.25.121|||110000438407|102
21.10.2018 11:00:00||ÇALIK HOLDİNG|10.40.25.121|||110000438407|150
21.10.2018 11:00:00||ÇALIK HOLDİNG|10.40.24.121|||110000438407|100
21.10.2018 11:00:00||ÇALIK HOLDİNG|10.40.24.121|||110000438407|100
21.10.2018 11:00:00||ÇALIK HOLDİNG|10.40.24.121|||110000438407|140
21.10.2018 11:00:00||ÇALIK HOLDİNG|10.40.25.122|||110000438407|90
21.10.2018 11:00:00||ÇALIK HOLDİNG|10.40.25.122|||110000438407|80
21.10.2018 11:00:00||ÇALIK HOLDİNG|10.40.25.122|||110000438407|80
21.10.2018 11:00:00||ÇALIK HOLDİNG|10.40.25.122|||110000438407|30
21.10.2018 11:00:00||ÇALIK HOLDİNG|10.40.25.122|||110000438407|10
21.10.2018 11:00:00||ÇALIK HOLDİNG|10.40.24.122|||110000438407|90
21.10.2018 11:00:00||ÇALIK HOLDİNG|10.40.24.122|||110000438407|80
21.10.2018 11:00:00||ÇALIK HOLDİNG|10.40.24.122|||110000438407|90
21.10.2018 11:00:00||ÇALIK HOLDİNG|10.40.24.117|||110000438407|200
21.10.2018 11:00:00||ÇALIK HOLDİNG|10.40.24.117|||110000438407|30
21.10.2018 11:00:00||ÇALIK HOLDİNG|10.40.24.117|||110000438407|30
21.10.2018 11:00:00||ÇALIK HOLDİNG|10.40.24.97|||110000438407|100
21.10.2018 11:00:00||ÇALIK HOLDİNG|10.40.24.97|||110000438407|90
21.10.2018 11:00:00||ÇALIK HOLDİNG|10.40.24.97|||110000438407|80
21.10.2018 11:00:00||ÇALIK HOLDİNG|10.40.24.97|||110000438407|90
21.10.2018 11:00:00||ÇALIK HOLDİNG|10.40.24.97|||110000438407|312
21.10.2018 11:00:00||ÇALIK HOLDİNG|10.40.24.100|||110000438407|30
21.10.2018 11:00:00||ÇALIK HOLDİNG|10.40.24.100|||110000438407|40
21.10.2018 11:00:00||FIBABANKA|10.40.25.54|||101571767266|330
21.10.2018 11:00:00||FIBABANKA|10.40.27.54|||101571767266|308
21.10.2018 11:00:00||FIBABANKA|10.40.27.55|||101571767266|106
21.10.2018 11:00:00||FIBABANKA|10.40.24.54|||101571767266|315
21.10.2018 11:00:00||FIBABANKA|10.40.25.55|||101571767266|111
21.10.2018 11:00:00||FIBABANKA|10.40.24.55|||101571767266|112
21.10.2018 11:00:00||FIBABANKA|10.40.24.56|||101571767266|197
21.10.2018 11:00:00||FIBABANKA|10.40.25.56|||101571767266|198
21.10.2018 11:00:00||FIBABANKA|10.40.26.55|||101571767266|107
21.10.2018 11:00:00||FIBABANKA|10.40.26.54|||101571767266|317
21.10.2018 11:00:00||FIBABANKA|10.40.25.57|||101571767266|90
21.10.2018 11:00:00||FIBABANKA|10.40.25.57|||101571767266|90
21.10.2018 11:00:00||FIBABANKA|10.40.25.57|||101571767266|90
21.10.2018 11:00:00||FIBABANKA|10.40.26.51|||101571767266|20
21.10.2018 11:00:00||FIBABANKA|10.40.27.52|||101571767266|50
21.10.2018 11:00:00||FIBABANKA|10.40.27.52|||101571767266|60
21.10.2018 11:00:00||FIBABANKA|10.40.27.52|||101571767266|70
21.10.2018 11:00:00||FIBABANKA|10.40.27.73|||101571767266|10
21.10.2018 11:00:00||FIBABANKA|10.40.27.74|||101571767266|170
21.10.2018 11:00:00||FIBABANKA|10.40.25.53|||101571767266|30
21.10.2018 11:00:00||FIBABANKA|10.40.25.53|||101571767266|52
21.10.2018 11:00:00||FIBABANKA|10.40.27.53|||101571767266|60
21.10.2018 11:00:00||FIBABANKA|10.40.26.53|||101571767266|62
21.10.2018 11:00:00||FIBABANKA|10.40.25.51|||101571767266|20
21.10.2018 11:00:00||FIBABANKA|10.40.25.51|||101571767266|110
21.10.2018 11:00:00||FIBABANKA|10.40.24.51|||101571767266|20
21.10.2018 11:00:00||FIBABANKA|10.40.24.51|||101571767266|70
21.10.2018 11:00:00||FIBABANKA|10.40.24.51|||101571767266|100
21.10.2018 11:00:00||FIBABANKA|10.40.24.51|||101571767266|140
21.10.2018 11:00:00||FIBABANKA|10.40.24.51|||101571767266|30
21.10.2018 11:00:00||FIBABANKA|10.40.24.57|||101571767266|90
21.10.2018 11:00:00||FIBABANKA|10.40.24.57|||101571767266|80
21.10.2018 11:00:00||FIBABANKA|10.40.24.57|||101571767266|80
21.10.2018 11:00:00||FIBABANKA|10.40.24.52|||101571767266|40
21.10.2018 11:00:00||FIBABANKA|10.40.24.52|||101571767266|10
21.10.2018 11:00:00||FIBABANKA|10.40.26.73|||101571767266|40
21.10.2018 11:00:00||FIBABANKA|10.40.27.53|||101571767266|67
21.10.2018 11:00:00||FIBABANKA|10.40.26.51|||101571767266|72
21.10.2018 11:00:00||FIBABANKA|10.40.26.52|||101571767266|30
21.10.2018 11:00:00||FIBABANKA|10.40.26.52|||101571767266|90
21.10.2018 11:00:00||FIBABANKA|10.40.26.52|||101571767266|30
21.10.2018 11:00:00||FIBABANKA|10.40.25.51|||101571767266|140
21.10.2018 11:00:00||FIBABANKA|10.40.25.51|||101571767266|40
21.10.2018 11:00:00||FIBABANKA|10.40.25.51|||101571767266|40
21.10.2018 11:00:00||FIBABANKA|10.40.25.51|||101571767266|70
21.10.2018 11:00:00||FIBABANKA|10.40.24.51|||101571767266|30
21.10.2018 11:00:00||FIBABANKA|10.40.24.58|||101571767266|10
21.10.2018 11:00:00||FIBABANKA|10.40.24.58|||101571767266|10
21.10.2018 11:00:00||FIBABANKA|10.40.25.59|||101571767266|70
21.10.2018 11:00:00||FIBABANKA|10.40.25.59|||101571767266|92
21.10.2018 11:00:00||FIBABANKA|10.40.25.59|||101571767266|100
21.10.2018 11:00:00||FIBABANKA|10.40.25.59|||101571767266|40
21.10.2018 11:00:00||FIBABANKA|10.40.25.59|||101571767266|123
21.10.2018 11:00:00||FIBABANKA|10.40.25.59|||101571767266|62
21.10.2018 11:00:00||FIBABANKA|10.40.25.59|||101571767266|60
21.10.2018 11:00:00||FIBABANKA|10.40.25.59|||101571767266|173
21.10.2018 11:00:00||FIBABANKA|10.40.25.59|||101571767266|65
21.10.2018 11:00:00||FIBABANKA|10.40.24.59|||101571767266|70
21.10.2018 11:00:00||FIBABANKA|10.40.24.59|||101571767266|120
21.10.2018 11:00:00||FIBABANKA|10.40.24.59|||101571767266|77
21.10.2018 11:00:00||FIBABANKA|10.40.24.59|||101571767266|50
21.10.2018 11:00:00||FIBABANKA|10.40.24.59|||101571767266|130
21.10.2018 11:00:00||FIBABANKA|10.40.24.59|||101571767266|70
21.10.2018 11:00:00||FIBABANKA|10.40.24.59|||101571767266|60
21.10.2018 11:00:00||FIBABANKA|10.40.24.59|||101571767266|167
21.10.2018 11:00:00||FIBABANKA|10.40.24.59|||101571767266|70
21.10.2018 11:00:00||FIBABANKA|10.40.25.60|||101571767266|115
21.10.2018 11:00:00||FIBABANKA|10.40.25.60|||101571767266|35
21.10.2018 11:00:00||FIBABANKA|10.40.25.60|||101571767266|110
21.10.2018 11:00:00||FIBABANKA|10.40.25.60|||101571767266|40
21.10.2018 11:00:00||FIBABANKA|10.40.24.60|||101571767266|123
21.10.2018 11:00:00||FIBABANKA|10.40.24.60|||101571767266|58
21.10.2018 11:00:00||FIBABANKA|10.40.24.60|||101571767266|40
21.10.2018 11:00:00||FIBABANKA|10.40.24.60|||101571767266|100
21.10.2018 11:00:00||FIBABANKA|10.40.24.60|||101571767266|50
21.10.2018 11:00:00||FIBABANKA|10.40.25.72|||101571767266|70
21.10.2018 11:00:00||FIBABANKA|10.40.25.72|||101571767266|40
21.10.2018 11:00:00||FIBABANKA|10.40.25.72|||101571767266|30
21.10.2018 11:00:00||FIBABANKA|10.40.24.72|||101571767266|140
21.10.2018 11:00:00||FIBABANKA|10.40.24.72|||101571767266|75
21.10.2018 11:00:00||FIBABANKA|10.40.24.72|||101571767266|30
21.10.2018 11:00:00||FIBABANKA|10.40.24.72|||101571767266|40
21.10.2018 11:00:00||FIBABANKA|10.40.25.74|||101571767266|30
21.10.2018 11:00:00||FIBABANKA|10.40.25.75|||101571767266|40
21.10.2018 11:00:00||FIBABANKA|10.40.25.75|||101571767266|82
21.10.2018 11:00:00||FIBABANKA|10.40.25.75|||101571767266|135
21.10.2018 11:00:00||FIBABANKA|10.40.25.75|||101571767266|168
21.10.2018 11:00:00||FIBABANKA|10.40.25.75|||101571767266|187
21.10.2018 11:00:00||FIBABANKA|10.40.25.75|||101571767266|203
21.10.2018 11:00:00||FIBABANKA|10.40.24.75|||101571767266|53
21.10.2018 11:00:00||FIBABANKA|10.40.24.75|||101571767266|52
21.10.2018 11:00:00||FIBABANKA|10.40.24.75|||101571767266|170
21.10.2018 11:00:00||FIBABANKA|10.40.24.75|||101571767266|153
21.10.2018 11:00:00||FIBABANKA|10.40.24.76|||101571767266|35
21.10.2018 11:00:00||FIBABANKA|10.40.24.76|||101571767266|70
21.10.2018 11:00:00||FIBABANKA|10.40.24.76|||101571767266|10
21.10.2018 11:00:00||FIBABANKA|10.40.24.53|||101571767266|30
21.10.2018 11:00:00||FIBABANKA|10.40.24.53|||101571767266|60
21.10.2018 11:00:00||FIBABANKA|10.40.26.57|||101571767266|92
21.10.2018 11:00:00||FIBABANKA|10.40.26.57|||101571767266|83
21.10.2018 11:00:00||FIBABANKA|10.40.26.57|||101571767266|80
21.10.2018 11:00:00||FIBABANKA|10.40.27.72|||101571767266|40
21.10.2018 11:00:00||FIBABANKA|10.40.27.72|||101571767266|50
21.10.2018 11:00:00||FIBABANKA|10.40.27.72|||101571767266|40
21.10.2018 11:00:00||FIBABANKA|10.40.27.72|||101571767266|140
21.10.2018 11:00:00||FIBABANKA|10.40.27.72|||101571767266|60
21.10.2018 11:00:00||FIBABANKA|10.40.26.72|||101571767266|30
21.10.2018 11:00:00||FIBABANKA|10.40.26.72|||101571767266|140
21.10.2018 11:00:00||FIBABANKA|10.40.26.72|||101571767266|70
21.10.2018 11:00:00||FIBABANKA|10.40.26.72|||101571767266|30
21.10.2018 11:00:00||FIBABANKA|10.40.27.73|||101571767266|30
21.10.2018 11:00:00||FIBABANKA|10.40.27.73|||101571767266|100
21.10.2018 11:00:00||FIBABANKA|10.40.27.73|||101571767266|40
21.10.2018 11:00:00||FIBABANKA|10.40.27.73|||101571767266|42
21.10.2018 11:00:00||FIBABANKA|10.40.27.73|||101571767266|260
21.10.2018 11:00:00||FIBABANKA|10.40.26.73|||101571767266|40
21.10.2018 11:00:00||FIBABANKA|10.40.26.73|||101571767266|70
21.10.2018 11:00:00||FIBABANKA|10.40.26.73|||101571767266|30
21.10.2018 11:00:00||FIBABANKA|10.40.26.73|||101571767266|7
21.10.2018 11:00:00||FIBABANKA|10.40.27.74|||101571767266|75
21.10.2018 11:00:00||FIBABANKA|10.40.27.74|||101571767266|160
21.10.2018 11:00:00||FIBABANKA|10.40.27.74|||101571767266|170
21.10.2018 11:00:00||FIBABANKA|10.40.26.74|||101571767266|70
21.10.2018 11:00:00||FIBABANKA|10.40.26.74|||101571767266|192
21.10.2018 11:00:00||FIBABANKA|10.40.26.74|||101571767266|177
21.10.2018 11:00:00||FIBABANKA|10.40.26.74|||101571767266|172
21.10.2018 11:00:00||FIBABANKA|10.40.27.75|||101571767266|10
21.10.2018 11:00:00||FIBABANKA|10.40.27.75|||101571767266|10
21.10.2018 11:00:00||FIBABANKA|10.40.26.79|||101571767266|10
21.10.2018 11:00:00||FIBABANKA|10.40.27.79|||101571767266|10
21.10.2018 11:00:00||FIBABANKA|10.40.27.79|||101571767266|10
21.10.2018 11:00:00||FIBABANKA|10.40.26.79|||101571767266|10
21.10.2018 11:00:00||FIBABANKA|10.40.27.77|||101571767266|157
21.10.2018 11:00:00||FIBABANKA|10.40.26.77|||101571767266|180
21.10.2018 11:00:00||FIBABANKA|10.40.27.77|||101571767266|160
21.10.2018 11:00:00||FIBABANKA|10.40.25.74|||101571767266|230
21.10.2018 11:00:00||FIBABANKA|10.40.24.75|||101571767266|173
21.10.2018 11:00:00||FIBABANKA|10.40.24.53|||101571767266|167
21.10.2018 11:00:00||FIBABANKA|10.40.24.53|||101571767266|173
21.10.2018 11:00:00||FIBABANKA|10.40.25.52|||101571767266|10
21.10.2018 11:00:00||FIBABANKA|10.40.25.52|||101571767266|50
21.10.2018 11:00:00||FIBABANKA|10.40.25.52|||101571767266|62
21.10.2018 11:00:00||FIBABANKA|10.40.25.53|||101571767266|158
21.10.2018 11:00:00||FIBABANKA|10.40.25.53|||101571767266|143
21.10.2018 11:00:00||FIBABANKA|10.40.27.51|||101571767266|30
21.10.2018 11:00:00||FIBABANKA|10.40.27.51|||101571767266|20
21.10.2018 11:00:00||FIBABANKA|10.40.27.51|||101571767266|100
21.10.2018 11:00:00||FIBABANKA|10.40.27.51|||101571767266|140
21.10.2018 11:00:00||FIBABANKA|10.40.27.51|||101571767266|70
21.10.2018 11:00:00||FIBABANKA|10.40.27.51|||101571767266|40
21.10.2018 11:00:00||FIBABANKA|10.40.27.51|||101571767266|40
21.10.2018 11:00:00||FIBABANKA|10.40.26.51|||101571767266|10
21.10.2018 11:00:00||FIBABANKA|10.40.26.51|||101571767266|112
21.10.2018 11:00:00||FIBABANKA|10.40.26.51|||101571767266|130
21.10.2018 11:00:00||FIBABANKA|10.40.26.51|||101571767266|30
21.10.2018 11:00:00||FIBABANKA|10.40.26.51|||101571767266|30
21.10.2018 11:00:00||FIBABANKA|10.40.24.74|||101571767266|32
21.10.2018 11:00:00||FIBABANKA|10.40.25.76|||101571767266|60
21.10.2018 11:00:00||FIBABANKA|10.40.25.76|||101571767266|40
21.10.2018 11:00:00||FIBABANKA|10.40.25.76|||101571767266|10
21.10.2018 11:00:00||FIBABANKA|10.40.26.53|||101571767266|43
21.10.2018 11:00:00||FIBABANKA|10.40.26.53|||101571767266|148
21.10.2018 11:00:00||FIBABANKA|10.40.25.76|||101571767266|10
21.10.2018 11:00:00||FIBABANKA|10.40.27.53|||101571767266|145
21.10.2018 11:00:00||FIBABANKA|10.40.27.53|||101571767266|157
21.10.2018 11:00:00||FIBABANKA|10.40.26.53|||101571767266|147
21.10.2018 11:00:00||FIBABANKA|10.40.27.57|||101571767266|82
21.10.2018 11:00:00||FIBABANKA|10.40.27.57|||101571767266|80
21.10.2018 11:00:00||FIBABANKA|10.40.27.57|||101571767266|80
21.10.2018 11:00:00||HAVAŞ|10.40.24.48|||110000479675|747
21.10.2018 11:00:00||HAVAŞ|10.40.24.48|||110000479675|748
21.10.2018 11:00:00||HAVAŞ|10.40.25.48|||110000479675|745
21.10.2018 11:00:00||HAVAŞ|10.40.24.45|||110000479675|70
21.10.2018 11:00:00||HAVAŞ|10.40.25.45|||110000479675|68
21.10.2018 11:00:00||HAVAŞ|10.40.25.47|||110000479675|70
21.10.2018 11:00:00||HAVAŞ|10.40.24.46|||110000479675|80
21.10.2018 11:00:00||HAVAŞ|10.40.24.47|||110000479675|30
21.10.2018 11:00:00||HAVAŞ|10.40.24.47|||110000479675|90
21.10.2018 11:00:00||HAVAŞ|10.40.24.47|||110000479675|90
21.10.2018 11:00:00||HAVAŞ|10.40.25.46|||110000479675|10
21.10.2018 11:00:00||HAVAŞ|10.40.25.46|||110000479675|60
21.10.2018 11:00:00||HAVAŞ|10.40.24.48|||110000479675|757
21.10.2018 11:00:00||HAVAŞ|10.40.24.46|||110000479675|60
21.10.2018 11:00:00||HAVAŞ|10.40.24.46|||110000479675|70
21.10.2018 11:00:00||HAVAŞ|10.40.24.47|||110000479675|12
21.10.2018 11:00:00||HAVAŞ|10.40.25.48|||110000479675|753
21.10.2018 11:00:00||HAVAŞ|10.40.25.48|||110000479675|790
21.10.2018 11:00:00||HAVAŞ|10.40.25.45|||110000479675|97
21.10.2018 11:00:00||HAVAŞ|10.40.24.45|||110000479675|50
21.10.2018 11:00:00||HAVAŞ|10.40.24.45|||110000479675|170
21.10.2018 11:00:00||HAVAŞ|10.40.24.45|||110000479675|100
21.10.2018 11:00:00||HAVAŞ|10.40.25.47|||110000479675|70
21.10.2018 11:00:00||HAVAŞ|10.40.25.47|||110000479675|225
21.10.2018 11:00:00||HAVAŞ|10.40.25.47|||110000479675|58
21.10.2018 11:00:00||HAVAŞ|10.40.25.47|||110000479675|88
21.10.2018 11:00:00||HAVAŞ|10.40.25.47|||110000479675|88
21.10.2018 11:00:00||HAVAŞ|10.40.25.47|||110000479675|90
21.10.2018 11:00:00||HAVAŞ|10.40.25.47|||110000479675|112
21.10.2018 11:00:00||HAVAŞ|10.40.25.47|||110000479675|180
21.10.2018 11:00:00||HAVAŞ|10.40.25.47|||110000479675|90
21.10.2018 11:00:00||HAVAŞ|10.40.25.47|||110000479675|90
21.10.2018 11:00:00||HAVAŞ|10.40.25.47|||110000479675|92
21.10.2018 11:00:00||HAVAŞ|10.40.25.45|||110000479675|92
21.10.2018 11:00:00||HAVAŞ|10.40.25.45|||110000479675|87
21.10.2018 11:00:00||HAVAŞ|10.40.25.46|||110000479675|10
21.10.2018 11:00:00||HAVAŞ|10.40.25.46|||110000479675|10
21.10.2018 11:00:00||HAVAŞ|10.40.25.46|||110000479675|20
21.10.2018 11:00:00||HAVAŞ|10.40.25.46|||110000479675|20
21.10.2018 11:00:00||HAVAŞ|10.40.25.46|||110000479675|50
21.10.2018 11:00:00||HAVAŞ|10.40.25.46|||110000479675|100
21.10.2018 11:00:00||HAVAŞ|10.40.25.46|||110000479675|62
21.10.2018 11:00:00||HAVAŞ|10.40.25.46|||110000479675|70
21.10.2018 11:00:00||HAVAŞ|10.40.25.46|||110000479675|70
21.10.2018 11:00:00||HAVAŞ|10.40.24.46|||110000479675|20
21.10.2018 11:00:00||HAVAŞ|10.40.24.46|||110000479675|20
21.10.2018 11:00:00||HAVAŞ|10.40.24.46|||110000479675|2
21.10.2018 11:00:00||HAVAŞ|10.40.24.46|||110000479675|10
21.10.2018 11:00:00||HAVAŞ|10.40.24.46|||110000479675|10
21.10.2018 11:00:00||HAVAŞ|10.40.24.46|||110000479675|10
21.10.2018 11:00:00||HAVAŞ|10.40.24.46|||110000479675|60
21.10.2018 11:00:00||HAVAŞ|10.40.24.46|||110000479675|110
21.10.2018 11:00:00||HAVAŞ|10.40.24.47|||110000479675|30
21.10.2018 11:00:00||HAVAŞ|10.40.24.47|||110000479675|213
21.10.2018 11:00:00||HAVAŞ|10.40.24.47|||110000479675|60
21.10.2018 11:00:00||HAVAŞ|10.40.24.47|||110000479675|55
21.10.2018 11:00:00||HAVAŞ|10.40.24.47|||110000479675|158
21.10.2018 11:00:00||HAVAŞ|10.40.24.47|||110000479675|100
21.10.2018 11:00:00||HAVAŞ|10.40.24.47|||110000479675|100
21.10.2018 11:00:00||HAVAŞ|10.40.24.46|||110000479675|10
21.10.2018 11:00:00||MARS CINEMA|10.40.24.203|||110000472614|90
21.10.2018 11:00:00||MARS CINEMA|10.40.24.203|||110000472614|163
21.10.2018 11:00:00||MARS CINEMA|10.40.24.203|||110000472614|80
21.10.2018 11:00:00||MARS CINEMA|10.40.24.204|||110000472614|67
21.10.2018 11:00:00||MARS CINEMA|10.40.24.203|||110000472614|102
21.10.2018 11:00:00||MARS CINEMA|10.40.24.204|||110000472614|20
21.10.2018 11:00:00||MARS CINEMA|10.40.24.204|||110000472614|93
21.10.2018 11:00:00||MARS CINEMA|10.40.25.203|||110000472614|152
21.10.2018 11:00:00||MARS CINEMA|10.40.25.203|||110000472614|87
21.10.2018 11:00:00||MARS CINEMA|10.40.25.203|||110000472614|177
21.10.2018 11:00:00||MARS CINEMA|10.40.25.203|||110000472614|100
21.10.2018 11:00:00||MARS CINEMA|10.40.25.203|||110000472614|87
21.10.2018 11:00:00||MARS CINEMA|10.40.25.203|||110000472614|112
21.10.2018 11:00:00||MARS CINEMA|10.40.25.203|||110000472614|85
21.10.2018 11:00:00||MARS CINEMA|10.40.25.203|||110000472614|157
21.10.2018 11:00:00||MARS CINEMA|10.40.25.203|||110000472614|90
21.10.2018 11:00:00||MARS CINEMA|10.40.25.203|||110000472614|110
21.10.2018 11:00:00||MARS CINEMA|10.40.25.203|||110000472614|92
21.10.2018 11:00:00||MARS CINEMA|10.40.25.203|||110000472614|62
21.10.2018 11:00:00||MARS CINEMA|10.40.25.203|||110000472614|185
21.10.2018 11:00:00||MARS CINEMA|10.40.25.204|||110000472614|110
21.10.2018 11:00:00||MARS CINEMA|10.40.25.204|||110000472614|70
21.10.2018 11:00:00||MARS CINEMA|10.40.25.204|||110000472614|80
21.10.2018 11:00:00||MARS CINEMA|10.40.25.204|||110000472614|100
21.10.2018 11:00:00||MARS CINEMA|10.40.25.204|||110000472614|20
21.10.2018 11:00:00||MARS CINEMA|10.40.25.204|||110000472614|20
21.10.2018 11:00:00||MARS CINEMA|10.40.25.204|||110000472614|30
21.10.2018 11:00:00||MARS CINEMA|10.40.25.204|||110000472614|40
21.10.2018 11:00:00||MARS CINEMA|10.40.25.204|||110000472614|90
21.10.2018 11:00:00||MARS CINEMA|10.40.25.204|||110000472614|120
21.10.2018 11:00:00||MARS CINEMA|10.40.25.204|||110000472614|80
21.10.2018 11:00:00||MARS CINEMA|10.40.25.204|||110000472614|80
21.10.2018 11:00:00||MARS CINEMA|10.40.25.204|||110000472614|110
21.10.2018 11:00:00||MARS CINEMA|10.40.25.204|||110000472614|100
21.10.2018 11:00:00||MARS CINEMA|10.40.24.203|||110000472614|80
21.10.2018 11:00:00||MARS CINEMA|10.40.24.203|||110000472614|95
21.10.2018 11:00:00||MARS CINEMA|10.40.24.203|||110000472614|145
21.10.2018 11:00:00||MARS CINEMA|10.40.24.203|||110000472614|68
21.10.2018 11:00:00||MARS CINEMA|10.40.24.203|||110000472614|140
21.10.2018 11:00:00||MARS CINEMA|10.40.24.203|||110000472614|150
21.10.2018 11:00:00||MARS CINEMA|10.40.24.203|||110000472614|100
21.10.2018 11:00:00||MARS CINEMA|10.40.24.203|||110000472614|185
21.10.2018 11:00:00||MARS CINEMA|10.40.24.204|||110000472614|110
21.10.2018 11:00:00||MARS CINEMA|10.40.24.204|||110000472614|97
21.10.2018 11:00:00||MARS CINEMA|10.40.24.204|||110000472614|92
21.10.2018 11:00:00||MARS CINEMA|10.40.24.204|||110000472614|20
21.10.2018 11:00:00||MARS CINEMA|10.40.24.204|||110000472614|10
21.10.2018 11:00:00||MARS CINEMA|10.40.24.204|||110000472614|90
21.10.2018 11:00:00||MARS CINEMA|10.40.24.204|||110000472614|120
21.10.2018 11:00:00||MARS CINEMA|10.40.24.204|||110000472614|93
21.10.2018 11:00:00||MARS CINEMA|10.40.24.204|||110000472614|110
21.10.2018 11:00:00||MARS CINEMA|10.40.24.204|||110000472614|80
21.10.2018 11:00:00||MARS CINEMA|10.40.25.206|||110000472614|122
21.10.2018 11:00:00||MARS CINEMA|10.40.25.206|||110000472614|40
21.10.2018 11:00:00||MARS CINEMA|10.40.25.206|||110000472614|40
21.10.2018 11:00:00||MARS CINEMA|10.40.25.206|||110000472614|40
21.10.2018 11:00:00||MARS CINEMA|10.40.25.206|||110000472614|20
21.10.2018 11:00:00||MARS CINEMA|10.40.25.206|||110000472614|20
21.10.2018 11:00:00||MARS CINEMA|10.40.25.206|||110000472614|30
21.10.2018 11:00:00||MARS CINEMA|10.40.25.206|||110000472614|60
21.10.2018 11:00:00||MARS CINEMA|10.40.25.206|||110000472614|40
21.10.2018 11:00:00||MARS CINEMA|10.40.25.206|||110000472614|90
21.10.2018 11:00:00||MARS CINEMA|10.40.25.206|||110000472614|90
21.10.2018 11:00:00||MARS CINEMA|10.40.24.206|||110000472614|157
21.10.2018 11:00:00||MARS CINEMA|10.40.24.206|||110000472614|40
21.10.2018 11:00:00||MARS CINEMA|10.40.24.206|||110000472614|40
21.10.2018 11:00:00||MARS CINEMA|10.40.24.206|||110000472614|42
21.10.2018 11:00:00||MARS CINEMA|10.40.24.206|||110000472614|30
21.10.2018 11:00:00||MARS CINEMA|10.40.24.206|||110000472614|30
21.10.2018 11:00:00||MARS CINEMA|10.40.24.206|||110000472614|203
21.10.2018 11:00:00||MARS CINEMA|10.40.24.206|||110000472614|162
21.10.2018 11:00:00||MARS CINEMA|10.40.24.206|||110000472614|20
21.10.2018 11:00:00||MARS CINEMA|10.40.24.206|||110000472614|80
21.10.2018 11:00:00||MARS CINEMA|10.40.24.206|||110000472614|78
21.10.2018 11:00:00||MARS CINEMA|10.40.24.203|||110000472614|100
21.10.2018 11:00:00||MARS CINEMA|10.40.24.204|||110000472614|40
21.10.2018 11:00:00||PEGASUS|10.40.27.66|||110000423831|113
21.10.2018 11:00:00||PEGASUS|10.40.26.66|||110000423831|93
21.10.2018 11:00:00||PEGASUS|10.40.26.84|||110000423831|218
21.10.2018 11:00:00||PEGASUS|10.40.27.85|||110000423831|116
21.10.2018 11:00:00||PEGASUS|10.40.26.85|||110000423831|120
21.10.2018 11:00:00||PEGASUS|10.40.27.64|||110000423831|70
21.10.2018 11:00:00||PEGASUS|10.40.27.64|||110000423831|70
21.10.2018 11:00:00||PEGASUS|10.40.27.63|||110000423831|60
21.10.2018 11:00:00||PEGASUS|10.40.27.63|||110000423831|70
21.10.2018 11:00:00||PEGASUS|10.40.27.63|||110000423831|90
21.10.2018 11:00:00||PEGASUS|10.40.26.63|||110000423831|110
21.10.2018 11:00:00||PEGASUS|10.40.27.67|||110000423831|363
21.10.2018 11:00:00||PEGASUS|10.40.27.64|||110000423831|270
21.10.2018 11:00:00||PEGASUS|10.40.27.64|||110000423831|262
21.10.2018 11:00:00||PEGASUS|10.40.27.63|||110000423831|75
21.10.2018 11:00:00||PEGASUS|10.40.27.63|||110000423831|70
21.10.2018 11:00:00||PEGASUS|10.40.27.63|||110000423831|80
21.10.2018 11:00:00||PEGASUS|10.40.26.63|||110000423831|110
21.10.2018 11:00:00||PEGASUS|10.40.26.63|||110000423831|110
21.10.2018 11:00:00||PEGASUS|10.40.27.81|||110000423831|450
21.10.2018 11:00:00||PEGASUS|10.40.27.81|||110000423831|418
21.10.2018 11:00:00||PEGASUS|10.40.26.63|||110000423831|90
21.10.2018 11:00:00||PEGASUS|10.40.26.63|||110000423831|60
21.10.2018 11:00:00||PEGASUS|10.40.26.67|||110000423831|30
21.10.2018 11:00:00||PEGASUS|10.40.26.67|||110000423831|340
21.10.2018 11:00:00||PEGASUS|10.40.26.67|||110000423831|60
21.10.2018 11:00:00||PEGASUS|10.40.26.67|||110000423831|40
21.10.2018 11:00:00||PEGASUS|10.40.26.67|||110000423831|70
21.10.2018 11:00:00||PEGASUS|10.40.26.68|||110000423831|100
21.10.2018 11:00:00||PEGASUS|10.40.27.64|||110000423831|288
21.10.2018 11:00:00||PEGASUS|10.40.27.64|||110000423831|265
21.10.2018 11:00:00||PEGASUS|10.40.27.64|||110000423831|295
21.10.2018 11:00:00||PEGASUS|10.40.27.64|||110000423831|267
21.10.2018 11:00:00||PEGASUS|10.40.27.64|||110000423831|270
21.10.2018 11:00:00||PEGASUS|10.40.27.86|||110000423831|340
21.10.2018 11:00:00||PEGASUS|10.40.27.63|||110000423831|90
21.10.2018 11:00:00||PEGASUS|10.40.26.63|||110000423831|130
21.10.2018 11:00:00||PEGASUS|10.40.26.63|||110000423831|60
21.10.2018 11:00:00||PEGASUS|10.40.26.63|||110000423831|80
21.10.2018 11:00:00||PEGASUS|10.40.26.67|||110000423831|340
21.10.2018 11:00:00||PEGASUS|10.40.27.63|||110000423831|50
21.10.2018 11:00:00||PEGASUS|10.40.27.63|||110000423831|60
21.10.2018 11:00:00||PEGASUS|10.40.27.81|||110000423831|418
21.10.2018 11:00:00||PEGASUS|10.40.26.62|||110000423831|90
21.10.2018 11:00:00||PEGASUS|10.40.26.63|||110000423831|50
21.10.2018 11:00:00||PEGASUS|10.40.26.63|||110000423831|100
21.10.2018 11:00:00||PEGASUS|10.40.26.63|||110000423831|40
21.10.2018 11:00:00||PEGASUS|10.40.26.63|||110000423831|70
21.10.2018 11:00:00||PEGASUS|10.40.26.67|||110000423831|347
21.10.2018 11:00:00||PEGASUS|10.40.27.64|||110000423831|280
21.10.2018 11:00:00||PEGASUS|10.40.27.64|||110000423831|277
21.10.2018 11:00:00||PEGASUS|10.40.27.64|||110000423831|262
21.10.2018 11:00:00||PEGASUS|10.40.27.64|||110000423831|287
21.10.2018 11:00:00||PEGASUS|10.40.27.64|||110000423831|323
21.10.2018 11:00:00||PEGASUS|10.40.27.86|||110000423831|40
21.10.2018 11:00:00||PEGASUS|10.40.27.63|||110000423831|67
21.10.2018 11:00:00||PEGASUS|10.40.27.63|||110000423831|80
21.10.2018 11:00:00||PEGASUS|10.40.27.63|||110000423831|80
21.10.2018 11:00:00||PEGASUS|10.40.27.63|||110000423831|90
21.10.2018 11:00:00||PEGASUS|10.40.27.63|||110000423831|158
21.10.2018 11:00:00||PEGASUS|10.40.27.63|||110000423831|223
21.10.2018 11:00:00||PEGASUS|10.40.27.63|||110000423831|52
21.10.2018 11:00:00||PEGASUS|10.40.26.64|||110000423831|80
21.10.2018 11:00:00||PEGASUS|10.40.26.64|||110000423831|80
21.10.2018 11:00:00||PEGASUS|10.40.26.82|||110000423831|210
21.10.2018 11:00:00||PEGASUS|10.40.26.82|||110000423831|110
21.10.2018 11:00:00||PEGASUS|10.40.26.82|||110000423831|80
21.10.2018 11:00:00||PEGASUS|10.40.26.82|||110000423831|150
21.10.2018 11:00:00||PEGASUS|10.40.26.82|||110000423831|140
21.10.2018 11:00:00||PEGASUS|10.40.26.82|||110000423831|140
21.10.2018 11:00:00||PEGASUS|10.40.26.82|||110000423831|180
21.10.2018 11:00:00||PEGASUS|10.40.26.82|||110000423831|30
21.10.2018 11:00:00||PEGASUS|10.40.26.82|||110000423831|40
21.10.2018 11:00:00||PEGASUS|10.40.26.82|||110000423831|20
21.10.2018 11:00:00||PEGASUS|10.40.26.82|||110000423831|70
21.10.2018 11:00:00||PEGASUS|10.40.26.82|||110000423831|50
21.10.2018 11:00:00||PEGASUS|10.40.26.82|||110000423831|40
21.10.2018 11:00:00||PEGASUS|10.40.27.83|||110000423831|577
21.10.2018 11:00:00||PEGASUS|10.40.27.83|||110000423831|70
21.10.2018 11:00:00||PEGASUS|10.40.27.83|||110000423831|565
21.10.2018 11:00:00||PEGASUS|10.40.27.83|||110000423831|560
21.10.2018 11:00:00||PEGASUS|10.40.27.83|||110000423831|70
21.10.2018 11:00:00||PEGASUS|10.40.26.83|||110000423831|510
21.10.2018 11:00:00||PEGASUS|10.40.26.83|||110000423831|50
21.10.2018 11:00:00||PEGASUS|10.40.26.83|||110000423831|400
21.10.2018 11:00:00||PEGASUS|10.40.26.83|||110000423831|505
21.10.2018 11:00:00||PEGASUS|10.40.26.83|||110000423831|502
21.10.2018 11:00:00||PEGASUS|10.40.26.86|||110000423831|360
21.10.2018 11:00:00||PEGASUS|10.40.26.86|||110000423831|140
21.10.2018 11:00:00||PEGASUS|10.40.26.86|||110000423831|350
21.10.2018 11:00:00||PEGASUS|10.40.26.86|||110000423831|45
21.10.2018 11:00:00||PEGASUS|10.40.26.86|||110000423831|30
21.10.2018 11:00:00||PEGASUS|10.40.26.86|||110000423831|350
21.10.2018 11:00:00||PEGASUS|10.40.26.86|||110000423831|40
21.10.2018 11:00:00||PEGASUS|10.40.27.87|||110000423831|90
21.10.2018 11:00:00||PEGASUS|10.40.27.87|||110000423831|87
21.10.2018 11:00:00||PEGASUS|10.40.27.87|||110000423831|90
21.10.2018 11:00:00||PEGASUS|10.40.27.87|||110000423831|20
21.10.2018 11:00:00||PEGASUS|10.40.26.87|||110000423831|90
21.10.2018 11:00:00||PEGASUS|10.40.26.87|||110000423831|90
21.10.2018 11:00:00||PEGASUS|10.40.26.87|||110000423831|90
21.10.2018 11:00:00||PEGASUS|10.40.26.87|||110000423831|60
21.10.2018 11:00:00||PEGASUS|10.40.26.87|||110000423831|20
21.10.2018 11:00:00||PEGASUS|10.40.26.81|||110000423831|387
21.10.2018 11:00:00||PEGASUS|10.40.26.81|||110000423831|408
21.10.2018 11:00:00||PEGASUS|10.40.26.81|||110000423831|420
21.10.2018 11:00:00||PEGASUS|10.40.27.82|||110000423831|220
21.10.2018 11:00:00||PEGASUS|10.40.27.82|||110000423831|30
21.10.2018 11:00:00||PEGASUS|10.40.27.82|||110000423831|110
21.10.2018 11:00:00||PEGASUS|10.40.27.82|||110000423831|80
21.10.2018 11:00:00||PEGASUS|10.40.27.82|||110000423831|155
21.10.2018 11:00:00||PEGASUS|10.40.27.82|||110000423831|120
21.10.2018 11:00:00||PEGASUS|10.40.27.82|||110000423831|168
21.10.2018 11:00:00||PEGASUS|10.40.27.82|||110000423831|118
21.10.2018 11:00:00||PEGASUS|10.40.27.82|||110000423831|63
21.10.2018 11:00:00||PEGASUS|10.40.27.82|||110000423831|80
21.10.2018 11:00:00||PEGASUS|10.40.27.82|||110000423831|50
21.10.2018 11:00:00||PEGASUS|10.40.27.82|||110000423831|37
21.10.2018 11:00:00||PEGASUS|10.40.27.82|||110000423831|40
21.10.2018 11:00:00||PEGASUS|10.40.27.67|||110000423831|50
21.10.2018 11:00:00||PEGASUS|10.40.27.67|||110000423831|70
21.10.2018 11:00:00||PEGASUS|10.40.27.67|||110000423831|132
21.10.2018 11:00:00||PEGASUS|10.40.27.67|||110000423831|10
21.10.2018 11:00:00||PEGASUS|10.40.27.67|||110000423831|340
21.10.2018 11:00:00||PEGASUS|10.40.27.82|||110000423831|75
21.10.2018 11:00:00||PEGASUS|10.40.27.86|||110000423831|170
21.10.2018 11:00:00||PEGASUS|10.40.27.86|||110000423831|70
21.10.2018 11:00:00||PEGASUS|10.40.27.86|||110000423831|20
21.10.2018 11:00:00||PEGASUS|10.40.27.86|||110000423831|350
21.10.2018 11:00:00||PEGASUS|10.40.27.67|||110000423831|340
21.10.2018 11:00:00||PEGASUS|10.40.27.67|||110000423831|40
21.10.2018 11:00:00||PEGASUS|10.40.26.62|||110000423831|10
21.10.2018 11:00:00||PEGASUS|10.40.26.62|||110000423831|190
21.10.2018 11:00:00||PEGASUS|10.40.26.63|||110000423831|70
21.10.2018 11:00:00||PEGASUS|10.40.26.63|||110000423831|30
21.10.2018 11:00:00||PEGASUS|10.40.26.63|||110000423831|60
21.10.2018 11:00:00||PEGASUS|10.40.26.63|||110000423831|30
21.10.2018 11:00:00||PEGASUS|10.40.26.63|||110000423831|230
21.10.2018 11:00:00||PEGASUS|10.40.26.63|||110000423831|140
21.10.2018 11:00:00||PEGASUS|10.40.26.63|||110000423831|110
21.10.2018 11:00:00||PEGASUS|10.40.26.63|||110000423831|60
21.10.2018 11:00:00||PEGASUS|10.40.26.67|||110000423831|170
21.10.2018 11:00:00||PEGASUS|10.40.27.68|||110000423831|90
21.10.2018 11:00:00||PEGASUS|10.40.27.68|||110000423831|87
21.10.2018 11:00:00||PEGASUS|10.40.27.68|||110000423831|90
21.10.2018 11:00:00||PEGASUS|10.40.27.68|||110000423831|50
21.10.2018 11:00:00||PEGASUS|10.40.26.68|||110000423831|90
21.10.2018 11:00:00||PEGASUS|10.40.26.68|||110000423831|90
21.10.2018 11:00:00||PEGASUS|10.40.26.68|||110000423831|50
21.10.2018 11:00:00||PEGASUS|10.40.27.63|||110000423831|40
21.10.2018 11:00:00||PEGASUS|10.40.27.86|||110000423831|340
21.10.2018 11:00:00||PEGASUS|10.40.27.63|||110000423831|50
21.10.2018 11:00:00||PEGASUS|10.40.27.63|||110000423831|60
21.10.2018 11:00:00||PWC|10.40.24.66|||110000433262|83
21.10.2018 11:00:00||PWC|10.40.24.66|||110000433262|10
21.10.2018 11:00:00||PWC|10.40.24.66|||110000433262|30
21.10.2018 11:00:00||PWC|10.40.24.66|||110000433262|50
21.10.2018 11:00:00||PWC|10.40.24.66|||110000433262|440
21.10.2018 11:00:00||PWC|10.40.24.68|||110000433262|160
21.10.2018 11:00:00||PWC|10.40.24.66|||110000433262|40
21.10.2018 11:00:00||PWC|10.40.24.66|||110000433262|210
21.10.2018 11:00:00||PWC|10.40.24.66|||110000433262|210
21.10.2018 11:00:00||PWC|10.40.25.67|||110000433262|80
21.10.2018 11:00:00||PWC|10.40.25.67|||110000433262|90
21.10.2018 11:00:00||PWC|10.40.25.67|||110000433262|320
21.10.2018 11:00:00||PWC|10.40.25.67|||110000433262|250
21.10.2018 11:00:00||PWC|10.40.25.67|||110000433262|240
21.10.2018 11:00:00||PWC|10.40.25.67|||110000433262|250
21.10.2018 11:00:00||PWC|10.40.25.67|||110000433262|50
21.10.2018 11:00:00||PWC|10.40.25.67|||110000433262|30
21.10.2018 11:00:00||PWC|10.40.25.67|||110000433262|120
21.10.2018 11:00:00||PWC|10.40.24.67|||110000433262|10
21.10.2018 11:00:00||PWC|10.40.24.67|||110000433262|10
21.10.2018 11:00:00||PWC|10.40.24.67|||110000433262|370
21.10.2018 11:00:00||PWC|10.40.24.67|||110000433262|30
21.10.2018 11:00:00||PWC|10.40.24.67|||110000433262|70
21.10.2018 11:00:00||PWC|10.40.24.67|||110000433262|120
21.10.2018 11:00:00||PWC|10.40.25.68|||110000433262|127
21.10.2018 11:00:00||PWC|10.40.25.68|||110000433262|183
21.10.2018 11:00:00||PWC|10.40.25.68|||110000433262|72
21.10.2018 11:00:00||PWC|10.40.25.68|||110000433262|77
21.10.2018 11:00:00||PWC|10.40.25.68|||110000433262|147
21.10.2018 11:00:00||PWC|10.40.24.66|||110000433262|60
21.10.2018 11:00:00||PWC|10.40.24.66|||110000433262|30
21.10.2018 11:00:00||PWC|10.40.24.66|||110000433262|30
21.10.2018 11:00:00||PWC|10.40.24.68|||110000433262|102
21.10.2018 11:00:00||PWC|10.40.24.68|||110000433262|147
21.10.2018 11:00:00||PWC|10.40.24.68|||110000433262|400
21.10.2018 11:00:00||PWC|10.40.24.68|||110000433262|75
21.10.2018 11:00:00||PWC|10.40.24.68|||110000433262|70
21.10.2018 11:00:00||VSMART BİLGİ TEKNOLOJİLERİ|10.40.24.62|||110000474326|40
21.10.2018 11:00:00||VSMART BİLGİ TEKNOLOJİLERİ|10.40.24.62|||110000474326|70
21.10.2018 11:00:00||VSMART BİLGİ TEKNOLOJİLERİ|10.40.24.62|||110000474326|35
21.10.2018 11:00:00||VSMART BİLGİ TEKNOLOJİLERİ|10.40.25.62|||110000474326|67
21.10.2018 11:00:00||VSMART BİLGİ TEKNOLOJİLERİ|10.40.24.62|||110000474326|42
21.10.2018 11:00:00||VSMART BİLGİ TEKNOLOJİLERİ|10.40.24.62|||110000474326|30
21.10.2018 11:00:00||VSMART BİLGİ TEKNOLOJİLERİ|10.40.24.62|||110000474326|10
21.10.2018 11:00:00||VSMART BİLGİ TEKNOLOJİLERİ|10.40.25.62|||110000474326|40
21.10.2018 11:00:00||VSMART BİLGİ TEKNOLOJİLERİ|10.40.25.62|||110000474326|10
21.10.2018 11:00:00||VSMART BİLGİ TEKNOLOJİLERİ|10.40.25.62|||110000474326|10
21.10.2018 11:00:00||VSMART BİLGİ TEKNOLOJİLERİ|10.40.25.62|||110000474326|80
21.10.2018 11:00:00||VSMART BİLGİ TEKNOLOJİLERİ|10.40.25.62|||110000474326|87
21.10.2018 11:00:00||VSMART BİLGİ TEKNOLOJİLERİ|10.40.25.62|||110000474326|102
21.10.2018 11:00:00||VSMART BİLGİ TEKNOLOJİLERİ|10.40.24.62|||110000474326|10
