9/14/2018 7:00:00 AM||HAVAS|10.40.25.45|||110000479675|330
9/14/2018 7:00:00 AM||HAVAS|10.40.24.45|||110000479675|401
9/14/2018 7:00:00 AM||HAVAS|10.40.25.46|||110000479675|492
9/14/2018 7:00:00 AM||PWC|10.40.24.67|||110000433262|592
9/14/2018 7:00:00 AM||PWC|10.40.25.68|||110000433262|708
9/14/2018 7:00:00 AM||PWC|10.40.25.69|||110000433262|287
9/14/2018 7:00:00 AM||PWC|10.40.24.69|||110000433262|290
9/14/2018 7:00:00 AM||CALIK HOLDING|10.40.25.94|||110000438408|630
9/14/2018 7:00:00 AM||CALIK HOLDING|10.40.24.94|||110000438408|695
9/14/2018 7:00:00 AM||CALIK HOLDING|10.40.25.97|||110000438408|603
9/14/2018 7:00:00 AM||CALIK HOLDING|10.40.25.100|||110000438408|77
9/14/2018 7:00:00 AM||CALIK HOLDING|10.40.24.100|||110000438408|74
9/14/2018 7:00:00 AM||CALIK HOLDING|10.40.25.101|||110000438408|614
9/14/2018 7:00:00 AM||CALIK HOLDING|10.40.24.101|||110000438408|750
9/14/2018 7:00:00 AM||CALIK HOLDING|10.40.25.102|||110000438408|332
9/14/2018 7:00:00 AM||CALIK HOLDING|10.40.24.102|||110000438408|314
9/14/2018 7:00:00 AM||CALIK HOLDING|10.40.25.103|||110000438408|256
9/14/2018 7:00:00 AM||CALIK HOLDING|10.40.24.103|||110000438408|302
9/14/2018 7:00:00 AM||CALIK HOLDING|10.40.25.104|||110000438408|1120
9/14/2018 7:00:00 AM||CALIK HOLDING|10.40.24.113|||110000438408|704
9/14/2018 7:00:00 AM||CALIK HOLDING|10.40.24.114|||110000438408|547
9/14/2018 7:00:00 AM||CALIK HOLDING|10.40.25.115|||110000438408|524
9/14/2018 7:00:00 AM||CALIK HOLDING|10.40.24.115|||110000438408|535
9/14/2018 7:00:00 AM||CALIK HOLDING|10.40.25.116|||110000438408|469
9/14/2018 7:00:00 AM||CALIK HOLDING|10.40.24.116|||110000438408|441
9/14/2018 7:00:00 AM||CALIK HOLDING|10.40.25.117|||110000438408|289
9/14/2018 7:00:00 AM||CALIK HOLDING|10.40.24.117|||110000438408|251
9/14/2018 7:00:00 AM||CALIK HOLDING|10.40.25.119|||110000438408|68
9/14/2018 7:00:00 AM||CALIK HOLDING|10.40.24.119|||110000438408|214
9/14/2018 7:00:00 AM||CALIK HOLDING|10.40.25.120|||110000438408|572
9/14/2018 7:00:00 AM||CALIK HOLDING|10.40.24.120|||110000438408|579
9/14/2018 7:00:00 AM||CALIK HOLDING|10.40.25.121|||110000438408|319
9/14/2018 7:00:00 AM||CALIK HOLDING|10.40.24.121|||110000438408|312
9/14/2018 7:00:00 AM||CALIK HOLDING|10.40.25.122|||110000438408|256
9/14/2018 7:00:00 AM||CALIK HOLDING|10.40.24.122|||110000438408|301
9/14/2018 7:00:00 AM||AKTIFBANK|10.40.25.128|||110000438458|271
9/14/2018 7:00:00 AM||AKTIFBANK|10.40.24.128|||110000438458|461
9/14/2018 7:00:00 AM||AKTIFBANK|10.40.25.129|||110000438458|678
9/14/2018 7:00:00 AM||AKTIFBANK|10.40.25.130|||110000438458|718
9/14/2018 7:00:00 AM||AKTIFBANK|10.40.24.130|||110000438458|689
9/14/2018 7:00:00 AM||AKTIFBANK|10.40.25.131|||110000438458|625
9/14/2018 7:00:00 AM||AKTIFBANK|10.40.24.131|||110000438458|616
9/14/2018 7:00:00 AM||AKTIFBANK|10.40.25.132|||110000438458|423
9/14/2018 7:00:00 AM||AKTIFBANK|10.40.24.132|||110000438458|417
9/14/2018 7:00:00 AM||AKTIFBANK|10.40.25.133|||110000438458|387
9/14/2018 7:00:00 AM||AKTIFBANK|10.40.24.133|||110000438458|691
9/14/2018 7:00:00 AM||AKTIFBANK|10.40.25.138|||110000438458|245
9/14/2018 7:00:00 AM||AKTIFBANK|10.40.24.138|||110000438458|548
9/14/2018 7:00:00 AM||AKTIFBANK|10.40.25.139|||110000438458|153
9/14/2018 7:00:00 AM||AKTIFBANK|10.40.24.139|||110000438458|239
9/14/2018 7:00:00 AM||AKTIFBANK|10.40.25.140|||110000438458|254
9/14/2018 7:00:00 AM||AKTIFBANK|10.40.24.140|||110000438458|360
9/14/2018 7:00:00 AM||AKTIFBANK|10.40.25.141|||110000438458|493
9/14/2018 7:00:00 AM||AKTIFBANK|10.40.24.141|||110000438458|661
9/14/2018 7:00:00 AM||AKTIFBANK|10.40.25.142|||110000438458|37
9/14/2018 7:00:00 AM||AKTIFBANK|10.40.25.143|||110000438458|818
9/14/2018 7:00:00 AM||AKTIFBANK|10.40.25.144|||110000438458|180
9/14/2018 7:00:00 AM||AKTIFBANK|10.40.24.144|||110000438458|259
9/14/2018 7:00:00 AM||AKTIFBANK|10.40.25.145|||110000438458|282
9/14/2018 7:00:00 AM||AKTIFBANK|10.40.24.145|||110000438458|407
9/14/2018 7:00:00 AM||AKTIFBANK|10.40.25.147|||110000438458|85
9/14/2018 7:00:00 AM||AKTIFBANK|10.40.24.147|||110000438458|90
9/14/2018 7:00:00 AM||AKTIFBANK|10.40.25.148|||110000438458|967
9/14/2018 7:00:00 AM||AKTIFBANK|10.40.25.152|||110000438458|750
9/14/2018 7:00:00 AM||AKTIFBANK|10.40.25.153|||110000438458|208
9/14/2018 7:00:00 AM||AKTIFBANK|10.40.24.153|||110000438458|259
9/14/2018 7:00:00 AM||AKTIFBANK|10.40.25.154|||110000438458|41
9/14/2018 7:00:00 AM||AKTIFBANK|10.40.24.154|||110000438458|136
9/14/2018 7:00:00 AM||AKTIFBANK|10.40.25.155|||110000438458|466
9/14/2018 7:00:00 AM||AKTIFBANK|10.40.24.155|||110000438458|496
9/14/2018 7:00:00 AM||AKTIFBANK|10.40.25.157|||110000438458|336
9/14/2018 7:00:00 AM||AKTIFBANK|10.40.24.157|||110000438458|352
9/14/2018 7:00:00 AM||AKTIFBANK|10.40.25.158|||110000438458|160
9/14/2018 7:00:00 AM||AKTIFBANK|10.40.24.158|||110000438458|611
9/14/2018 7:00:00 AM||AKTIFBANK|10.40.25.159|||110000438458|163
9/14/2018 7:00:00 AM||AKTIFBANK|10.40.24.159|||110000438458|345
9/14/2018 7:00:00 AM||AKTIFBANK|10.40.25.160|||110000438458|190
9/14/2018 7:00:00 AM||AKTIFBANK|10.40.24.160|||110000438458|231
9/14/2018 7:00:00 AM||AKTIFBANK|10.40.25.161|||110000438458|241
9/14/2018 7:00:00 AM||AKTIFBANK|10.40.24.161|||110000438458|405
9/14/2018 7:00:00 AM||AKTIFBANK|10.40.25.162|||110000438458|197
9/14/2018 7:00:00 AM||AKTIFBANK|10.40.24.162|||110000438458|516
9/14/2018 7:00:00 AM||AKTIFBANK|10.40.25.163|||110000438458|44
9/14/2018 7:00:00 AM||AKTIFBANK|10.40.25.164|||110000438458|890
9/14/2018 7:00:00 AM||AKTIFBANK|10.40.24.164|||110000438458|867
9/14/2018 7:00:00 AM||AKTIFBANK|10.40.25.165|||110000438458|311
9/14/2018 7:00:00 AM||AKTIFBANK|10.40.24.165|||110000438458|364
9/14/2018 7:00:00 AM||AKTIFBANK|10.40.25.166|||110000438458|129
9/14/2018 7:00:00 AM||AKTIFBANK|10.40.24.166|||110000438458|222
9/14/2018 7:00:00 AM||AKTIFBANK|10.40.25.168|||110000438458|318
9/14/2018 7:00:00 AM||AKTIFBANK|10.40.24.168|||110000438458|382
9/14/2018 7:00:00 AM||AKTIFBANK|10.40.25.169|||110000438458|323
9/14/2018 7:00:00 AM||AKTIFBANK|10.40.24.169|||110000438458|311
9/14/2018 7:00:00 AM||AKTIFBANK|10.40.25.170|||110000438458|423
9/14/2018 7:00:00 AM||AKTIFBANK|10.40.24.170|||110000438458|839
9/14/2018 7:00:00 AM||AKTIFBANK|10.40.25.179|||110000438458|918
9/14/2018 7:00:00 AM||AKTIFBANK|10.40.24.179|||110000438458|989
9/14/2018 7:00:00 AM||AKTIFBANK|10.40.25.186|||110000438458|188
9/14/2018 7:00:00 AM||AKTIFBANK|10.40.24.186|||110000438458|217
9/14/2018 7:00:00 AM||MARS CINEMA|10.40.25.206|||110000472614|290
9/14/2018 7:00:00 AM||PEGASUS|10.40.26.62|||110000423831|219
9/14/2018 7:00:00 AM||PEGASUS|10.40.26.63|||110000423831|1739
9/14/2018 7:00:00 AM||PEGASUS|10.40.26.64|||110000423831|163
9/14/2018 7:00:00 AM||PEGASUS|10.40.27.67|||110000423831|1284
9/14/2018 7:00:00 AM||PEGASUS|10.40.27.68|||110000423831|306
9/14/2018 7:00:00 AM||PEGASUS|10.40.27.87|||110000423831|280
9/14/2018 7:00:00 AM||PEGASUS|10.40.26.87|||110000423831|304
9/14/2018 7:00:00 AM||BOYNER|10.40.26.95|||101367941673|415
