31.10.2018 19:00:00||AKTİFBANK|10.40.24.172|||110000438458|96
31.10.2018 19:00:00||AKTİFBANK|10.40.25.134|||110000438458|93
31.10.2018 19:00:00||AKTİFBANK|10.40.24.134|||110000438458|94
31.10.2018 19:00:00||AKTİFBANK|10.40.24.135|||110000438458|97
31.10.2018 19:00:00||AKTİFBANK|10.40.25.137|||110000438458|57
31.10.2018 19:00:00||AKTİFBANK|10.40.25.171|||110000438458|12
31.10.2018 19:00:00||AKTİFBANK|10.40.25.172|||110000438458|88
31.10.2018 19:00:00||AKTİFBANK|10.40.25.174|||110000438458|53
31.10.2018 19:00:00||AKTİFBANK|10.40.25.135|||110000438458|94
31.10.2018 19:00:00||AKTİFBANK|10.40.24.137|||110000438458|57
31.10.2018 19:00:00||AKTİFBANK|10.40.24.171|||110000438458|11
31.10.2018 19:00:00||AKTİFBANK|10.40.25.173|||110000438458|96
31.10.2018 19:00:00||AKTİFBANK|10.40.24.173|||110000438458|94
31.10.2018 19:00:00||AKTİFBANK|10.40.24.174|||110000438458|60
31.10.2018 19:00:00||AKTİFBANK|10.40.24.133|||110000438458|86
31.10.2018 19:00:00||AKTİFBANK|10.40.24.138|||110000438458|106
31.10.2018 19:00:00||AKTİFBANK|10.40.24.139|||110000438458|30
31.10.2018 19:00:00||AKTİFBANK|10.40.24.149|||110000438458|110
31.10.2018 19:00:00||AKTİFBANK|10.40.24.150|||110000438458|556
31.10.2018 19:00:00||AKTİFBANK|10.40.24.145|||110000438458|60
31.10.2018 19:00:00||AKTİFBANK|10.40.24.164|||110000438458|230
31.10.2018 19:00:00||AKTİFBANK|10.40.25.133|||110000438458|70
31.10.2018 19:00:00||AKTİFBANK|10.40.24.145|||110000438458|90
31.10.2018 19:00:00||AKTİFBANK|10.40.24.158|||110000438458|82
31.10.2018 19:00:00||AKTİFBANK|10.40.24.164|||110000438458|70
31.10.2018 19:00:00||AKTİFBANK|10.40.25.138|||110000438458|80
31.10.2018 19:00:00||AKTİFBANK|10.40.25.139|||110000438458|10
31.10.2018 19:00:00||AKTİFBANK|10.40.25.140|||110000438458|30
31.10.2018 19:00:00||AKTİFBANK|10.40.25.151|||110000438458|518
31.10.2018 19:00:00||AKTİFBANK|10.40.25.141|||110000438458|100
31.10.2018 19:00:00||AKTİFBANK|10.40.25.141|||110000438458|100
31.10.2018 19:00:00||AKTİFBANK|10.40.25.142|||110000438458|72
31.10.2018 19:00:00||AKTİFBANK|10.40.25.133|||110000438458|110
31.10.2018 19:00:00||AKTİFBANK|10.40.25.149|||110000438458|100
31.10.2018 19:00:00||AKTİFBANK|10.40.25.149|||110000438458|90
31.10.2018 19:00:00||AKTİFBANK|10.40.25.149|||110000438458|90
31.10.2018 19:00:00||AKTİFBANK|10.40.25.140|||110000438458|30
31.10.2018 19:00:00||AKTİFBANK|10.40.25.150|||110000438458|564
31.10.2018 19:00:00||AKTİFBANK|10.40.25.139|||110000438458|170
31.10.2018 19:00:00||AKTİFBANK|10.40.25.139|||110000438458|40
31.10.2018 19:00:00||AKTİFBANK|10.40.25.140|||110000438458|80
31.10.2018 19:00:00||AKTİFBANK|10.40.25.140|||110000438458|70
31.10.2018 19:00:00||AKTİFBANK|10.40.25.140|||110000438458|30
31.10.2018 19:00:00||AKTİFBANK|10.40.25.151|||110000438458|524
31.10.2018 19:00:00||AKTİFBANK|10.40.25.151|||110000438458|508
31.10.2018 19:00:00||AKTİFBANK|10.40.25.141|||110000438458|40
31.10.2018 19:00:00||AKTİFBANK|10.40.25.141|||110000438458|100
31.10.2018 19:00:00||AKTİFBANK|10.40.25.141|||110000438458|80
31.10.2018 19:00:00||AKTİFBANK|10.40.25.142|||110000438458|40
31.10.2018 19:00:00||AKTİFBANK|10.40.25.149|||110000438458|70
31.10.2018 19:00:00||AKTİFBANK|10.40.25.149|||110000438458|110
31.10.2018 19:00:00||AKTİFBANK|10.40.25.149|||110000438458|90
31.10.2018 19:00:00||AKTİFBANK|10.40.25.149|||110000438458|90
31.10.2018 19:00:00||AKTİFBANK|10.40.25.149|||110000438458|102
31.10.2018 19:00:00||AKTİFBANK|10.40.24.139|||110000438458|62
31.10.2018 19:00:00||AKTİFBANK|10.40.25.153|||110000438458|10
31.10.2018 19:00:00||AKTİFBANK|10.40.25.150|||110000438458|564
31.10.2018 19:00:00||AKTİFBANK|10.40.25.153|||110000438458|70
31.10.2018 19:00:00||AKTİFBANK|10.40.25.163|||110000438458|50
31.10.2018 19:00:00||AKTİFBANK|10.40.24.141|||110000438458|66
31.10.2018 19:00:00||AKTİFBANK|10.40.24.151|||110000438458|500
31.10.2018 19:00:00||AKTİFBANK|10.40.25.153|||110000438458|80
31.10.2018 19:00:00||AKTİFBANK|10.40.24.149|||110000438458|88
31.10.2018 19:00:00||AKTİFBANK|10.40.24.141|||110000438458|50
31.10.2018 19:00:00||AKTİFBANK|10.40.25.133|||110000438458|280
31.10.2018 19:00:00||AKTİFBANK|10.40.25.133|||110000438458|90
31.10.2018 19:00:00||AKTİFBANK|10.40.24.149|||110000438458|92
31.10.2018 19:00:00||AKTİFBANK|10.40.24.162|||110000438458|212
31.10.2018 19:00:00||AKTİFBANK|10.40.24.162|||110000438458|30
31.10.2018 19:00:00||AKTİFBANK|10.40.24.162|||110000438458|40
31.10.2018 19:00:00||AKTİFBANK|10.40.25.133|||110000438458|150
31.10.2018 19:00:00||AKTİFBANK|10.40.25.138|||110000438458|130
31.10.2018 19:00:00||AKTİFBANK|10.40.25.149|||110000438458|74
31.10.2018 19:00:00||AKTİFBANK|10.40.25.149|||110000438458|70
31.10.2018 19:00:00||AKTİFBANK|10.40.25.149|||110000438458|26
31.10.2018 19:00:00||AKTİFBANK|10.40.25.149|||110000438458|74
31.10.2018 19:00:00||AKTİFBANK|10.40.25.149|||110000438458|70
31.10.2018 19:00:00||AKTİFBANK|10.40.25.141|||110000438458|100
31.10.2018 19:00:00||AKTİFBANK|10.40.25.149|||110000438458|130
31.10.2018 19:00:00||AKTİFBANK|10.40.25.138|||110000438458|78
31.10.2018 19:00:00||AKTİFBANK|10.40.25.138|||110000438458|72
31.10.2018 19:00:00||AKTİFBANK|10.40.25.139|||110000438458|100
31.10.2018 19:00:00||AKTİFBANK|10.40.24.145|||110000438458|70
31.10.2018 19:00:00||AKTİFBANK|10.40.24.149|||110000438458|160
31.10.2018 19:00:00||AKTİFBANK|10.40.25.138|||110000438458|30
31.10.2018 19:00:00||AKTİFBANK|10.40.25.138|||110000438458|16
31.10.2018 19:00:00||AKTİFBANK|10.40.25.153|||110000438458|60
31.10.2018 19:00:00||AKTİFBANK|10.40.24.150|||110000438458|564
31.10.2018 19:00:00||AKTİFBANK|10.40.25.128|||110000438458|70
31.10.2018 19:00:00||AKTİFBANK|10.40.25.128|||110000438458|90
31.10.2018 19:00:00||AKTİFBANK|10.40.25.128|||110000438458|90
31.10.2018 19:00:00||AKTİFBANK|10.40.25.128|||110000438458|40
31.10.2018 19:00:00||AKTİFBANK|10.40.25.128|||110000438458|54
31.10.2018 19:00:00||AKTİFBANK|10.40.25.129|||110000438458|82
31.10.2018 19:00:00||AKTİFBANK|10.40.25.129|||110000438458|80
31.10.2018 19:00:00||AKTİFBANK|10.40.25.129|||110000438458|130
31.10.2018 19:00:00||AKTİFBANK|10.40.25.129|||110000438458|100
31.10.2018 19:00:00||AKTİFBANK|10.40.25.129|||110000438458|94
31.10.2018 19:00:00||AKTİFBANK|10.40.25.130|||110000438458|70
31.10.2018 19:00:00||AKTİFBANK|10.40.25.130|||110000438458|50
31.10.2018 19:00:00||AKTİFBANK|10.40.25.130|||110000438458|80
31.10.2018 19:00:00||AKTİFBANK|10.40.25.130|||110000438458|40
31.10.2018 19:00:00||AKTİFBANK|10.40.25.130|||110000438458|60
31.10.2018 19:00:00||AKTİFBANK|10.40.25.130|||110000438458|100
31.10.2018 19:00:00||AKTİFBANK|10.40.25.130|||110000438458|90
31.10.2018 19:00:00||AKTİFBANK|10.40.25.131|||110000438458|20
31.10.2018 19:00:00||AKTİFBANK|10.40.25.131|||110000438458|84
31.10.2018 19:00:00||AKTİFBANK|10.40.25.131|||110000438458|100
31.10.2018 19:00:00||AKTİFBANK|10.40.25.131|||110000438458|102
31.10.2018 19:00:00||AKTİFBANK|10.40.25.131|||110000438458|86
31.10.2018 19:00:00||AKTİFBANK|10.40.25.131|||110000438458|80
31.10.2018 19:00:00||AKTİFBANK|10.40.25.131|||110000438458|20
31.10.2018 19:00:00||AKTİFBANK|10.40.25.131|||110000438458|120
31.10.2018 19:00:00||AKTİFBANK|10.40.25.132|||110000438458|62
31.10.2018 19:00:00||AKTİFBANK|10.40.25.132|||110000438458|74
31.10.2018 19:00:00||AKTİFBANK|10.40.25.132|||110000438458|52
31.10.2018 19:00:00||AKTİFBANK|10.40.25.132|||110000438458|70
31.10.2018 19:00:00||AKTİFBANK|10.40.25.132|||110000438458|38
31.10.2018 19:00:00||AKTİFBANK|10.40.25.143|||110000438458|322
31.10.2018 19:00:00||AKTİFBANK|10.40.25.144|||110000438458|80
31.10.2018 19:00:00||AKTİFBANK|10.40.25.144|||110000438458|50
31.10.2018 19:00:00||AKTİFBANK|10.40.25.144|||110000438458|20
31.10.2018 19:00:00||AKTİFBANK|10.40.25.154|||110000438458|10
31.10.2018 19:00:00||AKTİFBANK|10.40.25.154|||110000438458|10
31.10.2018 19:00:00||AKTİFBANK|10.40.25.154|||110000438458|10
31.10.2018 19:00:00||AKTİFBANK|10.40.25.157|||110000438458|70
31.10.2018 19:00:00||AKTİFBANK|10.40.25.157|||110000438458|70
31.10.2018 19:00:00||AKTİFBANK|10.40.25.157|||110000438458|70
31.10.2018 19:00:00||AKTİFBANK|10.40.25.157|||110000438458|80
31.10.2018 19:00:00||AKTİFBANK|10.40.25.157|||110000438458|40
31.10.2018 19:00:00||AKTİFBANK|10.40.25.159|||110000438458|60
31.10.2018 19:00:00||AKTİFBANK|10.40.25.159|||110000438458|10
31.10.2018 19:00:00||AKTİFBANK|10.40.25.159|||110000438458|90
31.10.2018 19:00:00||AKTİFBANK|10.40.25.158|||110000438458|66
31.10.2018 19:00:00||AKTİFBANK|10.40.25.158|||110000438458|44
31.10.2018 19:00:00||AKTİFBANK|10.40.25.158|||110000438458|104
31.10.2018 19:00:00||AKTİFBANK|10.40.25.158|||110000438458|50
31.10.2018 19:00:00||AKTİFBANK|10.40.25.160|||110000438458|90
31.10.2018 19:00:00||AKTİFBANK|10.40.25.161|||110000438458|80
31.10.2018 19:00:00||AKTİFBANK|10.40.25.161|||110000438458|70
31.10.2018 19:00:00||AKTİFBANK|10.40.25.161|||110000438458|52
31.10.2018 19:00:00||AKTİFBANK|10.40.25.145|||110000438458|90
31.10.2018 19:00:00||AKTİFBANK|10.40.25.145|||110000438458|60
31.10.2018 19:00:00||AKTİFBANK|10.40.25.145|||110000438458|60
31.10.2018 19:00:00||AKTİFBANK|10.40.25.145|||110000438458|30
31.10.2018 19:00:00||AKTİFBANK|10.40.25.145|||110000438458|50
31.10.2018 19:00:00||AKTİFBANK|10.40.25.147|||110000438458|90
31.10.2018 19:00:00||AKTİFBANK|10.40.25.162|||110000438458|30
31.10.2018 19:00:00||AKTİFBANK|10.40.25.162|||110000438458|30
31.10.2018 19:00:00||AKTİFBANK|10.40.25.162|||110000438458|60
31.10.2018 19:00:00||AKTİFBANK|10.40.25.164|||110000438458|60
31.10.2018 19:00:00||AKTİFBANK|10.40.25.164|||110000438458|280
31.10.2018 19:00:00||AKTİFBANK|10.40.25.164|||110000438458|50
31.10.2018 19:00:00||AKTİFBANK|10.40.25.164|||110000438458|260
31.10.2018 19:00:00||AKTİFBANK|10.40.25.164|||110000438458|270
31.10.2018 19:00:00||AKTİFBANK|10.40.25.165|||110000438458|110
31.10.2018 19:00:00||AKTİFBANK|10.40.25.165|||110000438458|70
31.10.2018 19:00:00||AKTİFBANK|10.40.25.165|||110000438458|80
31.10.2018 19:00:00||AKTİFBANK|10.40.25.165|||110000438458|102
31.10.2018 19:00:00||AKTİFBANK|10.40.25.166|||110000438458|90
31.10.2018 19:00:00||AKTİFBANK|10.40.25.166|||110000438458|10
31.10.2018 19:00:00||AKTİFBANK|10.40.25.166|||110000438458|10
31.10.2018 19:00:00||AKTİFBANK|10.40.25.166|||110000438458|40
31.10.2018 19:00:00||AKTİFBANK|10.40.25.148|||110000438458|130
31.10.2018 19:00:00||AKTİFBANK|10.40.25.148|||110000438458|50
31.10.2018 19:00:00||AKTİFBANK|10.40.25.148|||110000438458|100
31.10.2018 19:00:00||AKTİFBANK|10.40.25.148|||110000438458|130
31.10.2018 19:00:00||AKTİFBANK|10.40.25.148|||110000438458|90
31.10.2018 19:00:00||AKTİFBANK|10.40.25.148|||110000438458|80
31.10.2018 19:00:00||AKTİFBANK|10.40.25.148|||110000438458|70
31.10.2018 19:00:00||AKTİFBANK|10.40.25.148|||110000438458|50
31.10.2018 19:00:00||AKTİFBANK|10.40.25.148|||110000438458|80
31.10.2018 19:00:00||AKTİFBANK|10.40.25.148|||110000438458|40
31.10.2018 19:00:00||AKTİFBANK|10.40.25.148|||110000438458|100
31.10.2018 19:00:00||AKTİFBANK|10.40.25.148|||110000438458|60
31.10.2018 19:00:00||AKTİFBANK|10.40.25.155|||110000438458|70
31.10.2018 19:00:00||AKTİFBANK|10.40.25.155|||110000438458|90
31.10.2018 19:00:00||AKTİFBANK|10.40.25.155|||110000438458|110
31.10.2018 19:00:00||AKTİFBANK|10.40.25.155|||110000438458|120
31.10.2018 19:00:00||AKTİFBANK|10.40.25.155|||110000438458|110
31.10.2018 19:00:00||AKTİFBANK|10.40.25.156|||110000438458|20
31.10.2018 19:00:00||AKTİFBANK|10.40.25.156|||110000438458|28
31.10.2018 19:00:00||AKTİFBANK|10.40.25.139|||110000438458|70
31.10.2018 19:00:00||AKTİFBANK|10.40.25.139|||110000438458|80
31.10.2018 19:00:00||AKTİFBANK|10.40.25.150|||110000438458|526
31.10.2018 19:00:00||AKTİFBANK|10.40.25.129|||110000438458|84
31.10.2018 19:00:00||AKTİFBANK|10.40.25.129|||110000438458|142
31.10.2018 19:00:00||AKTİFBANK|10.40.25.130|||110000438458|70
31.10.2018 19:00:00||AKTİFBANK|10.40.25.130|||110000438458|130
31.10.2018 19:00:00||AKTİFBANK|10.40.25.130|||110000438458|100
31.10.2018 19:00:00||AKTİFBANK|10.40.25.131|||110000438458|46
31.10.2018 19:00:00||AKTİFBANK|10.40.25.143|||110000438458|60
31.10.2018 19:00:00||AKTİFBANK|10.40.25.143|||110000438458|248
31.10.2018 19:00:00||AKTİFBANK|10.40.25.143|||110000438458|268
31.10.2018 19:00:00||AKTİFBANK|10.40.25.158|||110000438458|102
31.10.2018 19:00:00||AKTİFBANK|10.40.25.160|||110000438458|110
31.10.2018 19:00:00||AKTİFBANK|10.40.25.162|||110000438458|30
31.10.2018 19:00:00||AKTİFBANK|10.40.25.162|||110000438458|40
31.10.2018 19:00:00||AKTİFBANK|10.40.24.140|||110000438458|160
31.10.2018 19:00:00||AKTİFBANK|10.40.24.140|||110000438458|80
31.10.2018 19:00:00||AKTİFBANK|10.40.24.140|||110000438458|40
31.10.2018 19:00:00||AKTİFBANK|10.40.24.140|||110000438458|30
31.10.2018 19:00:00||AKTİFBANK|10.40.24.140|||110000438458|30
31.10.2018 19:00:00||AKTİFBANK|10.40.24.140|||110000438458|30
31.10.2018 19:00:00||AKTİFBANK|10.40.24.149|||110000438458|80
31.10.2018 19:00:00||AKTİFBANK|10.40.24.149|||110000438458|120
31.10.2018 19:00:00||AKTİFBANK|10.40.24.149|||110000438458|90
31.10.2018 19:00:00||AKTİFBANK|10.40.24.149|||110000438458|60
31.10.2018 19:00:00||AKTİFBANK|10.40.24.149|||110000438458|52
31.10.2018 19:00:00||AKTİFBANK|10.40.24.149|||110000438458|140
31.10.2018 19:00:00||AKTİFBANK|10.40.24.149|||110000438458|90
31.10.2018 19:00:00||AKTİFBANK|10.40.24.149|||110000438458|90
31.10.2018 19:00:00||AKTİFBANK|10.40.24.149|||110000438458|90
31.10.2018 19:00:00||AKTİFBANK|10.40.24.149|||110000438458|80
31.10.2018 19:00:00||AKTİFBANK|10.40.24.133|||110000438458|146
31.10.2018 19:00:00||AKTİFBANK|10.40.24.133|||110000438458|120
31.10.2018 19:00:00||AKTİFBANK|10.40.24.133|||110000438458|88
31.10.2018 19:00:00||AKTİFBANK|10.40.24.138|||110000438458|116
31.10.2018 19:00:00||AKTİFBANK|10.40.24.138|||110000438458|140
31.10.2018 19:00:00||AKTİFBANK|10.40.24.138|||110000438458|114
31.10.2018 19:00:00||AKTİFBANK|10.40.24.138|||110000438458|30
31.10.2018 19:00:00||AKTİFBANK|10.40.24.138|||110000438458|50
31.10.2018 19:00:00||AKTİFBANK|10.40.24.139|||110000438458|160
31.10.2018 19:00:00||AKTİFBANK|10.40.24.139|||110000438458|90
31.10.2018 19:00:00||AKTİFBANK|10.40.24.139|||110000438458|122
31.10.2018 19:00:00||AKTİFBANK|10.40.24.141|||110000438458|200
31.10.2018 19:00:00||AKTİFBANK|10.40.24.141|||110000438458|100
31.10.2018 19:00:00||AKTİFBANK|10.40.24.141|||110000438458|100
31.10.2018 19:00:00||AKTİFBANK|10.40.24.141|||110000438458|64
31.10.2018 19:00:00||AKTİFBANK|10.40.24.141|||110000438458|80
31.10.2018 19:00:00||AKTİFBANK|10.40.25.152|||110000438458|110
31.10.2018 19:00:00||AKTİFBANK|10.40.25.152|||110000438458|50
31.10.2018 19:00:00||AKTİFBANK|10.40.25.152|||110000438458|140
31.10.2018 19:00:00||AKTİFBANK|10.40.25.152|||110000438458|70
31.10.2018 19:00:00||AKTİFBANK|10.40.25.152|||110000438458|90
31.10.2018 19:00:00||AKTİFBANK|10.40.25.152|||110000438458|160
31.10.2018 19:00:00||AKTİFBANK|10.40.25.152|||110000438458|50
31.10.2018 19:00:00||AKTİFBANK|10.40.25.152|||110000438458|90
31.10.2018 19:00:00||AKTİFBANK|10.40.25.152|||110000438458|30
31.10.2018 19:00:00||AKTİFBANK|10.40.25.152|||110000438458|80
31.10.2018 19:00:00||AKTİFBANK|10.40.25.152|||110000438458|30
31.10.2018 19:00:00||AKTİFBANK|10.40.24.150|||110000438458|572
31.10.2018 19:00:00||AKTİFBANK|10.40.24.151|||110000438458|530
31.10.2018 19:00:00||AKTİFBANK|10.40.24.151|||110000438458|530
31.10.2018 19:00:00||AKTİFBANK|10.40.24.128|||110000438458|60
31.10.2018 19:00:00||AKTİFBANK|10.40.24.128|||110000438458|70
31.10.2018 19:00:00||AKTİFBANK|10.40.24.128|||110000438458|100
31.10.2018 19:00:00||AKTİFBANK|10.40.24.128|||110000438458|40
31.10.2018 19:00:00||AKTİFBANK|10.40.24.128|||110000438458|70
31.10.2018 19:00:00||AKTİFBANK|10.40.24.128|||110000438458|56
31.10.2018 19:00:00||AKTİFBANK|10.40.24.129|||110000438458|100
31.10.2018 19:00:00||AKTİFBANK|10.40.24.129|||110000438458|70
31.10.2018 19:00:00||AKTİFBANK|10.40.24.129|||110000438458|110
31.10.2018 19:00:00||AKTİFBANK|10.40.24.129|||110000438458|120
31.10.2018 19:00:00||AKTİFBANK|10.40.24.129|||110000438458|40
31.10.2018 19:00:00||AKTİFBANK|10.40.24.129|||110000438458|70
31.10.2018 19:00:00||AKTİFBANK|10.40.24.129|||110000438458|70
31.10.2018 19:00:00||AKTİFBANK|10.40.24.129|||110000438458|90
31.10.2018 19:00:00||AKTİFBANK|10.40.24.129|||110000438458|80
31.10.2018 19:00:00||AKTİFBANK|10.40.24.129|||110000438458|140
31.10.2018 19:00:00||AKTİFBANK|10.40.24.130|||110000438458|46
31.10.2018 19:00:00||AKTİFBANK|10.40.24.130|||110000438458|40
31.10.2018 19:00:00||AKTİFBANK|10.40.24.130|||110000438458|68
31.10.2018 19:00:00||AKTİFBANK|10.40.24.130|||110000438458|42
31.10.2018 19:00:00||AKTİFBANK|10.40.24.130|||110000438458|60
31.10.2018 19:00:00||AKTİFBANK|10.40.24.130|||110000438458|78
31.10.2018 19:00:00||AKTİFBANK|10.40.24.130|||110000438458|86
31.10.2018 19:00:00||AKTİFBANK|10.40.24.130|||110000438458|38
31.10.2018 19:00:00||AKTİFBANK|10.40.24.130|||110000438458|130
31.10.2018 19:00:00||AKTİFBANK|10.40.24.130|||110000438458|110
31.10.2018 19:00:00||AKTİFBANK|10.40.24.131|||110000438458|88
31.10.2018 19:00:00||AKTİFBANK|10.40.24.131|||110000438458|90
31.10.2018 19:00:00||AKTİFBANK|10.40.24.131|||110000438458|110
31.10.2018 19:00:00||AKTİFBANK|10.40.24.131|||110000438458|112
31.10.2018 19:00:00||AKTİFBANK|10.40.24.131|||110000438458|28
31.10.2018 19:00:00||AKTİFBANK|10.40.24.131|||110000438458|160
31.10.2018 19:00:00||AKTİFBANK|10.40.24.131|||110000438458|60
31.10.2018 19:00:00||AKTİFBANK|10.40.24.131|||110000438458|110
31.10.2018 19:00:00||AKTİFBANK|10.40.24.132|||110000438458|30
31.10.2018 19:00:00||AKTİFBANK|10.40.24.132|||110000438458|88
31.10.2018 19:00:00||AKTİFBANK|10.40.24.132|||110000438458|50
31.10.2018 19:00:00||AKTİFBANK|10.40.24.132|||110000438458|198
31.10.2018 19:00:00||AKTİFBANK|10.40.24.132|||110000438458|70
31.10.2018 19:00:00||AKTİFBANK|10.40.24.143|||110000438458|70
31.10.2018 19:00:00||AKTİFBANK|10.40.24.143|||110000438458|268
31.10.2018 19:00:00||AKTİFBANK|10.40.24.143|||110000438458|284
31.10.2018 19:00:00||AKTİFBANK|10.40.24.143|||110000438458|220
31.10.2018 19:00:00||AKTİFBANK|10.40.24.144|||110000438458|70
31.10.2018 19:00:00||AKTİFBANK|10.40.24.144|||110000438458|108
31.10.2018 19:00:00||AKTİFBANK|10.40.24.144|||110000438458|130
31.10.2018 19:00:00||AKTİFBANK|10.40.24.148|||110000438458|70
31.10.2018 19:00:00||AKTİFBANK|10.40.24.148|||110000438458|170
31.10.2018 19:00:00||AKTİFBANK|10.40.24.148|||110000438458|90
31.10.2018 19:00:00||AKTİFBANK|10.40.24.148|||110000438458|110
31.10.2018 19:00:00||AKTİFBANK|10.40.24.148|||110000438458|80
31.10.2018 19:00:00||AKTİFBANK|10.40.24.148|||110000438458|90
31.10.2018 19:00:00||AKTİFBANK|10.40.24.148|||110000438458|90
31.10.2018 19:00:00||AKTİFBANK|10.40.24.148|||110000438458|100
31.10.2018 19:00:00||AKTİFBANK|10.40.24.148|||110000438458|90
31.10.2018 19:00:00||AKTİFBANK|10.40.24.148|||110000438458|60
31.10.2018 19:00:00||AKTİFBANK|10.40.24.148|||110000438458|30
31.10.2018 19:00:00||AKTİFBANK|10.40.24.148|||110000438458|80
31.10.2018 19:00:00||AKTİFBANK|10.40.24.153|||110000438458|10
31.10.2018 19:00:00||AKTİFBANK|10.40.24.153|||110000438458|90
31.10.2018 19:00:00||AKTİFBANK|10.40.24.153|||110000438458|70
31.10.2018 19:00:00||AKTİFBANK|10.40.24.153|||110000438458|80
31.10.2018 19:00:00||AKTİFBANK|10.40.24.157|||110000438458|30
31.10.2018 19:00:00||AKTİFBANK|10.40.24.157|||110000438458|70
31.10.2018 19:00:00||AKTİFBANK|10.40.24.157|||110000438458|70
31.10.2018 19:00:00||AKTİFBANK|10.40.24.157|||110000438458|40
31.10.2018 19:00:00||AKTİFBANK|10.40.24.157|||110000438458|80
31.10.2018 19:00:00||AKTİFBANK|10.40.24.157|||110000438458|40
31.10.2018 19:00:00||AKTİFBANK|10.40.24.158|||110000438458|80
31.10.2018 19:00:00||AKTİFBANK|10.40.24.158|||110000438458|110
31.10.2018 19:00:00||AKTİFBANK|10.40.24.159|||110000438458|130
31.10.2018 19:00:00||AKTİFBANK|10.40.24.159|||110000438458|58
31.10.2018 19:00:00||AKTİFBANK|10.40.24.159|||110000438458|184
31.10.2018 19:00:00||AKTİFBANK|10.40.24.160|||110000438458|50
31.10.2018 19:00:00||AKTİFBANK|10.40.24.160|||110000438458|90
31.10.2018 19:00:00||AKTİFBANK|10.40.24.160|||110000438458|100
31.10.2018 19:00:00||AKTİFBANK|10.40.24.161|||110000438458|200
31.10.2018 19:00:00||AKTİFBANK|10.40.24.161|||110000438458|80
31.10.2018 19:00:00||AKTİFBANK|10.40.24.161|||110000438458|40
31.10.2018 19:00:00||AKTİFBANK|10.40.24.161|||110000438458|30
31.10.2018 19:00:00||AKTİFBANK|10.40.24.161|||110000438458|30
31.10.2018 19:00:00||AKTİFBANK|10.40.24.161|||110000438458|20
31.10.2018 19:00:00||AKTİFBANK|10.40.24.161|||110000438458|90
31.10.2018 19:00:00||AKTİFBANK|10.40.24.145|||110000438458|30
31.10.2018 19:00:00||AKTİFBANK|10.40.24.145|||110000438458|70
31.10.2018 19:00:00||AKTİFBANK|10.40.24.145|||110000438458|50
31.10.2018 19:00:00||AKTİFBANK|10.40.24.147|||110000438458|90
31.10.2018 19:00:00||AKTİFBANK|10.40.24.162|||110000438458|40
31.10.2018 19:00:00||AKTİFBANK|10.40.24.162|||110000438458|40
31.10.2018 19:00:00||AKTİFBANK|10.40.24.162|||110000438458|116
31.10.2018 19:00:00||AKTİFBANK|10.40.24.162|||110000438458|10
31.10.2018 19:00:00||AKTİFBANK|10.40.24.162|||110000438458|52
31.10.2018 19:00:00||AKTİFBANK|10.40.24.163|||110000438458|30
31.10.2018 19:00:00||AKTİFBANK|10.40.24.163|||110000438458|70
31.10.2018 19:00:00||AKTİFBANK|10.40.24.164|||110000438458|56
31.10.2018 19:00:00||AKTİFBANK|10.40.24.164|||110000438458|330
31.10.2018 19:00:00||AKTİFBANK|10.40.24.164|||110000438458|212
31.10.2018 19:00:00||AKTİFBANK|10.40.24.165|||110000438458|76
31.10.2018 19:00:00||AKTİFBANK|10.40.24.165|||110000438458|80
31.10.2018 19:00:00||AKTİFBANK|10.40.24.165|||110000438458|50
31.10.2018 19:00:00||AKTİFBANK|10.40.24.165|||110000438458|126
31.10.2018 19:00:00||AKTİFBANK|10.40.24.166|||110000438458|80
31.10.2018 19:00:00||AKTİFBANK|10.40.24.166|||110000438458|90
31.10.2018 19:00:00||AKTİFBANK|10.40.24.166|||110000438458|10
31.10.2018 19:00:00||AKTİFBANK|10.40.25.168|||110000438458|90
31.10.2018 19:00:00||AKTİFBANK|10.40.25.168|||110000438458|70
31.10.2018 19:00:00||AKTİFBANK|10.40.25.168|||110000438458|50
31.10.2018 19:00:00||AKTİFBANK|10.40.25.168|||110000438458|40
31.10.2018 19:00:00||AKTİFBANK|10.40.25.168|||110000438458|60
31.10.2018 19:00:00||AKTİFBANK|10.40.24.168|||110000438458|90
31.10.2018 19:00:00||AKTİFBANK|10.40.24.168|||110000438458|80
31.10.2018 19:00:00||AKTİFBANK|10.40.24.168|||110000438458|70
31.10.2018 19:00:00||AKTİFBANK|10.40.24.168|||110000438458|70
31.10.2018 19:00:00||AKTİFBANK|10.40.24.168|||110000438458|30
31.10.2018 19:00:00||AKTİFBANK|10.40.24.154|||110000438458|70
31.10.2018 19:00:00||AKTİFBANK|10.40.24.154|||110000438458|20
31.10.2018 19:00:00||AKTİFBANK|10.40.24.154|||110000438458|10
31.10.2018 19:00:00||AKTİFBANK|10.40.24.154|||110000438458|10
31.10.2018 19:00:00||AKTİFBANK|10.40.24.154|||110000438458|10
31.10.2018 19:00:00||AKTİFBANK|10.40.24.154|||110000438458|10
31.10.2018 19:00:00||AKTİFBANK|10.40.24.155|||110000438458|58
31.10.2018 19:00:00||AKTİFBANK|10.40.24.155|||110000438458|100
31.10.2018 19:00:00||AKTİFBANK|10.40.24.155|||110000438458|130
31.10.2018 19:00:00||AKTİFBANK|10.40.24.155|||110000438458|80
31.10.2018 19:00:00||AKTİFBANK|10.40.24.155|||110000438458|110
31.10.2018 19:00:00||AKTİFBANK|10.40.24.155|||110000438458|100
31.10.2018 19:00:00||AKTİFBANK|10.40.25.169|||110000438458|92
31.10.2018 19:00:00||AKTİFBANK|10.40.25.169|||110000438458|96
31.10.2018 19:00:00||AKTİFBANK|10.40.25.169|||110000438458|70
31.10.2018 19:00:00||AKTİFBANK|10.40.25.169|||110000438458|74
31.10.2018 19:00:00||AKTİFBANK|10.40.24.169|||110000438458|78
31.10.2018 19:00:00||AKTİFBANK|10.40.24.169|||110000438458|82
31.10.2018 19:00:00||AKTİFBANK|10.40.24.169|||110000438458|66
31.10.2018 19:00:00||AKTİFBANK|10.40.24.169|||110000438458|82
31.10.2018 19:00:00||AKTİFBANK|10.40.25.170|||110000438458|30
31.10.2018 19:00:00||AKTİFBANK|10.40.25.170|||110000438458|30
31.10.2018 19:00:00||AKTİFBANK|10.40.25.170|||110000438458|200
31.10.2018 19:00:00||AKTİFBANK|10.40.25.170|||110000438458|100
31.10.2018 19:00:00||AKTİFBANK|10.40.25.170|||110000438458|80
31.10.2018 19:00:00||AKTİFBANK|10.40.25.170|||110000438458|120
31.10.2018 19:00:00||AKTİFBANK|10.40.24.170|||110000438458|60
31.10.2018 19:00:00||AKTİFBANK|10.40.24.170|||110000438458|60
31.10.2018 19:00:00||AKTİFBANK|10.40.24.170|||110000438458|326
31.10.2018 19:00:00||AKTİFBANK|10.40.24.170|||110000438458|80
31.10.2018 19:00:00||AKTİFBANK|10.40.24.170|||110000438458|102
31.10.2018 19:00:00||AKTİFBANK|10.40.24.170|||110000438458|80
31.10.2018 19:00:00||AKTİFBANK|10.40.25.178|||110000438458|590
31.10.2018 19:00:00||AKTİFBANK|10.40.25.178|||110000438458|560
31.10.2018 19:00:00||AKTİFBANK|10.40.25.178|||110000438458|550
31.10.2018 19:00:00||AKTİFBANK|10.40.24.178|||110000438458|566
31.10.2018 19:00:00||AKTİFBANK|10.40.24.178|||110000438458|558
31.10.2018 19:00:00||AKTİFBANK|10.40.24.178|||110000438458|550
31.10.2018 19:00:00||AKTİFBANK|10.40.25.179|||110000438458|402
31.10.2018 19:00:00||AKTİFBANK|10.40.25.179|||110000438458|366
31.10.2018 19:00:00||AKTİFBANK|10.40.25.179|||110000438458|360
31.10.2018 19:00:00||AKTİFBANK|10.40.24.179|||110000438458|320
31.10.2018 19:00:00||AKTİFBANK|10.40.24.179|||110000438458|330
31.10.2018 19:00:00||AKTİFBANK|10.40.24.179|||110000438458|320
31.10.2018 19:00:00||AKTİFBANK|10.40.24.142|||110000438458|40
31.10.2018 19:00:00||AKTİFBANK|10.40.24.156|||110000438458|50
31.10.2018 19:00:00||AKTİFBANK|10.40.24.156|||110000438458|50
31.10.2018 19:00:00||AKTİFBANK|10.40.25.186|||110000438458|90
31.10.2018 19:00:00||AKTİFBANK|10.40.25.186|||110000438458|20
31.10.2018 19:00:00||AKTİFBANK|10.40.25.186|||110000438458|70
31.10.2018 19:00:00||AKTİFBANK|10.40.24.186|||110000438458|90
31.10.2018 19:00:00||AKTİFBANK|10.40.24.186|||110000438458|30
31.10.2018 19:00:00||AKTİFBANK|10.40.24.186|||110000438458|56
31.10.2018 19:00:00||AKTİFBANK|10.40.24.186|||110000438458|40
31.10.2018 19:00:00||AKTİFBANK|10.40.24.152|||110000438458|10
31.10.2018 19:00:00||AKTİFBANK|10.40.24.152|||110000438458|50
31.10.2018 19:00:00||AKTİFBANK|10.40.24.152|||110000438458|92
31.10.2018 19:00:00||AKTİFBANK|10.40.24.152|||110000438458|102
31.10.2018 19:00:00||AKTİFBANK|10.40.24.152|||110000438458|104
31.10.2018 19:00:00||AKTİFBANK|10.40.24.152|||110000438458|110
31.10.2018 19:00:00||AKTİFBANK|10.40.24.152|||110000438458|330
31.10.2018 19:00:00||AKTİFBANK|10.40.24.152|||110000438458|76
31.10.2018 19:00:00||AKTİFBANK|10.40.24.152|||110000438458|90
31.10.2018 19:00:00||AKTİFBANK|10.40.24.152|||110000438458|30
31.10.2018 19:00:00||AKTİFBANK|10.40.24.152|||110000438458|76
31.10.2018 19:00:00||AKTİFBANK|10.40.24.152|||110000438458|30
31.10.2018 19:00:00||BARİKAT İNTERNET GÜVENLİĞİ|10.40.25.201|||110000479736|118
31.10.2018 19:00:00||BARİKAT İNTERNET GÜVENLİĞİ|10.40.25.201|||110000479736|100
31.10.2018 19:00:00||BARİKAT İNTERNET GÜVENLİĞİ|10.40.24.201|||110000479736|140
31.10.2018 19:00:00||BARİKAT İNTERNET GÜVENLİĞİ|10.40.24.201|||110000479736|100
31.10.2018 19:00:00||BOYNER|10.40.26.100|||101367941673|56
31.10.2018 19:00:00||BOYNER|10.40.26.101|||101367941673|166
31.10.2018 19:00:00||BOYNER|10.40.27.100|||101367941673|51
31.10.2018 19:00:00||BOYNER|10.40.27.101|||101367941673|165
31.10.2018 19:00:00||BOYNER|10.40.27.94|||101367941673|210
31.10.2018 19:00:00||BOYNER|10.40.27.94|||101367941673|90
31.10.2018 19:00:00||BOYNER|10.40.27.94|||101367941673|90
31.10.2018 19:00:00||BOYNER|10.40.27.94|||101367941673|100
31.10.2018 19:00:00||BOYNER|10.40.26.94|||101367941673|90
31.10.2018 19:00:00||BOYNER|10.40.26.94|||101367941673|80
31.10.2018 19:00:00||BOYNER|10.40.26.94|||101367941673|80
31.10.2018 19:00:00||BOYNER|10.40.27.95|||101367941673|132
31.10.2018 19:00:00||BOYNER|10.40.27.95|||101367941673|126
31.10.2018 19:00:00||BOYNER|10.40.27.95|||101367941673|228
31.10.2018 19:00:00||BOYNER|10.40.26.95|||101367941673|122
31.10.2018 19:00:00||BOYNER|10.40.26.95|||101367941673|194
31.10.2018 19:00:00||BOYNER|10.40.26.95|||101367941673|136
31.10.2018 19:00:00||BOYNER|10.40.27.96|||101367941673|60
31.10.2018 19:00:00||BOYNER|10.40.27.96|||101367941673|50
31.10.2018 19:00:00||BOYNER|10.40.27.96|||101367941673|50
31.10.2018 19:00:00||BOYNER|10.40.27.96|||101367941673|40
31.10.2018 19:00:00||BOYNER|10.40.27.96|||101367941673|40
31.10.2018 19:00:00||BOYNER|10.40.27.96|||101367941673|148
31.10.2018 19:00:00||BOYNER|10.40.27.96|||101367941673|154
31.10.2018 19:00:00||BOYNER|10.40.27.96|||101367941673|174
31.10.2018 19:00:00||BOYNER|10.40.27.96|||101367941673|168
31.10.2018 19:00:00||BOYNER|10.40.26.96|||101367941673|30
31.10.2018 19:00:00||BOYNER|10.40.26.96|||101367941673|40
31.10.2018 19:00:00||BOYNER|10.40.26.96|||101367941673|30
31.10.2018 19:00:00||BOYNER|10.40.26.96|||101367941673|40
31.10.2018 19:00:00||BOYNER|10.40.26.96|||101367941673|40
31.10.2018 19:00:00||BOYNER|10.40.26.96|||101367941673|50
31.10.2018 19:00:00||BOYNER|10.40.26.96|||101367941673|190
31.10.2018 19:00:00||BOYNER|10.40.26.96|||101367941673|200
31.10.2018 19:00:00||BOYNER|10.40.26.96|||101367941673|164
31.10.2018 19:00:00||BOYNER|10.40.26.96|||101367941673|174
31.10.2018 19:00:00||BOYNER|10.40.27.97|||101367941673|60
31.10.2018 19:00:00||BOYNER|10.40.27.97|||101367941673|658
31.10.2018 19:00:00||BOYNER|10.40.27.97|||101367941673|666
31.10.2018 19:00:00||BOYNER|10.40.27.97|||101367941673|698
31.10.2018 19:00:00||BOYNER|10.40.27.97|||101367941673|40
31.10.2018 19:00:00||BOYNER|10.40.27.97|||101367941673|30
31.10.2018 19:00:00||BOYNER|10.40.27.97|||101367941673|52
31.10.2018 19:00:00||BOYNER|10.40.27.97|||101367941673|30
31.10.2018 19:00:00||BOYNER|10.40.27.97|||101367941673|174
31.10.2018 19:00:00||BOYNER|10.40.27.97|||101367941673|174
31.10.2018 19:00:00||BOYNER|10.40.27.97|||101367941673|186
31.10.2018 19:00:00||BOYNER|10.40.27.97|||101367941673|194
31.10.2018 19:00:00||BOYNER|10.40.26.97|||101367941673|30
31.10.2018 19:00:00||BOYNER|10.40.26.97|||101367941673|656
31.10.2018 19:00:00||BOYNER|10.40.26.97|||101367941673|654
31.10.2018 19:00:00||BOYNER|10.40.26.97|||101367941673|664
31.10.2018 19:00:00||BOYNER|10.40.26.97|||101367941673|32
31.10.2018 19:00:00||BOYNER|10.40.26.97|||101367941673|40
31.10.2018 19:00:00||BOYNER|10.40.26.97|||101367941673|50
31.10.2018 19:00:00||BOYNER|10.40.26.97|||101367941673|60
31.10.2018 19:00:00||BOYNER|10.40.26.97|||101367941673|30
31.10.2018 19:00:00||BOYNER|10.40.26.97|||101367941673|166
31.10.2018 19:00:00||BOYNER|10.40.26.97|||101367941673|176
31.10.2018 19:00:00||BOYNER|10.40.26.97|||101367941673|172
31.10.2018 19:00:00||BOYNER|10.40.26.97|||101367941673|160
31.10.2018 19:00:00||BOYNER|10.40.27.99|||101367941673|132
31.10.2018 19:00:00||BOYNER|10.40.27.99|||101367941673|78
31.10.2018 19:00:00||BOYNER|10.40.27.99|||101367941673|76
31.10.2018 19:00:00||BOYNER|10.40.26.99|||101367941673|10
31.10.2018 19:00:00||BOYNER|10.40.26.99|||101367941673|110
31.10.2018 19:00:00||BOYNER|10.40.26.99|||101367941673|94
31.10.2018 19:00:00||BOYNER|10.40.26.99|||101367941673|72
31.10.2018 19:00:00||ÇALIK HOLDİNG|10.40.24.118|||110000438407|39
31.10.2018 19:00:00||ÇALIK HOLDİNG|10.40.25.99|||110000438407|134
31.10.2018 19:00:00||ÇALIK HOLDİNG|10.40.25.118|||110000438407|272
31.10.2018 19:00:00||ÇALIK HOLDİNG|10.40.25.120|||110000438407|90
31.10.2018 19:00:00||ÇALIK HOLDİNG|10.40.24.95|||110000438407|48
31.10.2018 19:00:00||ÇALIK HOLDİNG|10.40.25.97|||110000438407|80
31.10.2018 19:00:00||ÇALIK HOLDİNG|10.40.25.103|||110000438407|90
31.10.2018 19:00:00||ÇALIK HOLDİNG|10.40.25.120|||110000438407|44
31.10.2018 19:00:00||ÇALIK HOLDİNG|10.40.25.96|||110000438407|70
31.10.2018 19:00:00||ÇALIK HOLDİNG|10.40.25.96|||110000438407|90
31.10.2018 19:00:00||ÇALIK HOLDİNG|10.40.25.96|||110000438407|122
31.10.2018 19:00:00||ÇALIK HOLDİNG|10.40.25.96|||110000438407|90
31.10.2018 19:00:00||ÇALIK HOLDİNG|10.40.25.115|||110000438407|162
31.10.2018 19:00:00||ÇALIK HOLDİNG|10.40.25.115|||110000438407|70
31.10.2018 19:00:00||ÇALIK HOLDİNG|10.40.25.95|||110000438407|92
31.10.2018 19:00:00||ÇALIK HOLDİNG|10.40.25.96|||110000438407|90
31.10.2018 19:00:00||ÇALIK HOLDİNG|10.40.25.96|||110000438407|100
31.10.2018 19:00:00||ÇALIK HOLDİNG|10.40.25.120|||110000438407|20
31.10.2018 19:00:00||ÇALIK HOLDİNG|10.40.25.95|||110000438407|58
31.10.2018 19:00:00||ÇALIK HOLDİNG|10.40.24.94|||110000438407|198
31.10.2018 19:00:00||ÇALIK HOLDİNG|10.40.25.97|||110000438407|100
31.10.2018 19:00:00||ÇALIK HOLDİNG|10.40.25.120|||110000438407|60
31.10.2018 19:00:00||ÇALIK HOLDİNG|10.40.25.115|||110000438407|80
31.10.2018 19:00:00||ÇALIK HOLDİNG|10.40.25.115|||110000438407|68
31.10.2018 19:00:00||ÇALIK HOLDİNG|10.40.25.115|||110000438407|60
31.10.2018 19:00:00||ÇALIK HOLDİNG|10.40.25.101|||110000438407|50
31.10.2018 19:00:00||ÇALIK HOLDİNG|10.40.25.101|||110000438407|110
31.10.2018 19:00:00||ÇALIK HOLDİNG|10.40.25.101|||110000438407|30
31.10.2018 19:00:00||ÇALIK HOLDİNG|10.40.25.101|||110000438407|10
31.10.2018 19:00:00||ÇALIK HOLDİNG|10.40.25.101|||110000438407|90
31.10.2018 19:00:00||ÇALIK HOLDİNG|10.40.25.101|||110000438407|30
31.10.2018 19:00:00||ÇALIK HOLDİNG|10.40.25.101|||110000438407|40
31.10.2018 19:00:00||ÇALIK HOLDİNG|10.40.25.101|||110000438407|40
31.10.2018 19:00:00||ÇALIK HOLDİNG|10.40.25.101|||110000438407|90
31.10.2018 19:00:00||ÇALIK HOLDİNG|10.40.25.101|||110000438407|90
31.10.2018 19:00:00||ÇALIK HOLDİNG|10.40.25.101|||110000438407|90
31.10.2018 19:00:00||ÇALIK HOLDİNG|10.40.25.94|||110000438407|180
31.10.2018 19:00:00||ÇALIK HOLDİNG|10.40.25.94|||110000438407|180
31.10.2018 19:00:00||ÇALIK HOLDİNG|10.40.25.94|||110000438407|170
31.10.2018 19:00:00||ÇALIK HOLDİNG|10.40.25.94|||110000438407|180
31.10.2018 19:00:00||ÇALIK HOLDİNG|10.40.24.94|||110000438407|198
31.10.2018 19:00:00||ÇALIK HOLDİNG|10.40.24.94|||110000438407|186
31.10.2018 19:00:00||ÇALIK HOLDİNG|10.40.24.94|||110000438407|188
31.10.2018 19:00:00||ÇALIK HOLDİNG|10.40.25.95|||110000438407|20
31.10.2018 19:00:00||ÇALIK HOLDİNG|10.40.25.95|||110000438407|348
31.10.2018 19:00:00||ÇALIK HOLDİNG|10.40.25.95|||110000438407|360
31.10.2018 19:00:00||ÇALIK HOLDİNG|10.40.25.95|||110000438407|40
31.10.2018 19:00:00||ÇALIK HOLDİNG|10.40.24.95|||110000438407|98
31.10.2018 19:00:00||ÇALIK HOLDİNG|10.40.24.95|||110000438407|90
31.10.2018 19:00:00||ÇALIK HOLDİNG|10.40.24.95|||110000438407|384
31.10.2018 19:00:00||ÇALIK HOLDİNG|10.40.24.95|||110000438407|396
31.10.2018 19:00:00||ÇALIK HOLDİNG|10.40.25.96|||110000438407|90
31.10.2018 19:00:00||ÇALIK HOLDİNG|10.40.25.96|||110000438407|100
31.10.2018 19:00:00||ÇALIK HOLDİNG|10.40.25.96|||110000438407|100
31.10.2018 19:00:00||ÇALIK HOLDİNG|10.40.25.96|||110000438407|256
31.10.2018 19:00:00||ÇALIK HOLDİNG|10.40.25.96|||110000438407|262
31.10.2018 19:00:00||ÇALIK HOLDİNG|10.40.25.96|||110000438407|100
31.10.2018 19:00:00||ÇALIK HOLDİNG|10.40.25.96|||110000438407|90
31.10.2018 19:00:00||ÇALIK HOLDİNG|10.40.25.96|||110000438407|94
31.10.2018 19:00:00||ÇALIK HOLDİNG|10.40.25.97|||110000438407|88
31.10.2018 19:00:00||ÇALIK HOLDİNG|10.40.25.97|||110000438407|80
31.10.2018 19:00:00||ÇALIK HOLDİNG|10.40.25.97|||110000438407|290
31.10.2018 19:00:00||ÇALIK HOLDİNG|10.40.25.98|||110000438407|50
31.10.2018 19:00:00||ÇALIK HOLDİNG|10.40.25.98|||110000438407|166
31.10.2018 19:00:00||ÇALIK HOLDİNG|10.40.25.98|||110000438407|160
31.10.2018 19:00:00||ÇALIK HOLDİNG|10.40.25.98|||110000438407|170
31.10.2018 19:00:00||ÇALIK HOLDİNG|10.40.25.98|||110000438407|170
31.10.2018 19:00:00||ÇALIK HOLDİNG|10.40.25.98|||110000438407|62
31.10.2018 19:00:00||ÇALIK HOLDİNG|10.40.25.98|||110000438407|210
31.10.2018 19:00:00||ÇALIK HOLDİNG|10.40.25.98|||110000438407|178
31.10.2018 19:00:00||ÇALIK HOLDİNG|10.40.25.98|||110000438407|166
31.10.2018 19:00:00||ÇALIK HOLDİNG|10.40.25.98|||110000438407|210
31.10.2018 19:00:00||ÇALIK HOLDİNG|10.40.25.98|||110000438407|70
31.10.2018 19:00:00||ÇALIK HOLDİNG|10.40.25.98|||110000438407|308
31.10.2018 19:00:00||ÇALIK HOLDİNG|10.40.24.98|||110000438407|90
31.10.2018 19:00:00||ÇALIK HOLDİNG|10.40.24.98|||110000438407|158
31.10.2018 19:00:00||ÇALIK HOLDİNG|10.40.24.98|||110000438407|200
31.10.2018 19:00:00||ÇALIK HOLDİNG|10.40.24.98|||110000438407|200
31.10.2018 19:00:00||ÇALIK HOLDİNG|10.40.24.98|||110000438407|160
31.10.2018 19:00:00||ÇALIK HOLDİNG|10.40.24.98|||110000438407|30
31.10.2018 19:00:00||ÇALIK HOLDİNG|10.40.24.98|||110000438407|160
31.10.2018 19:00:00||ÇALIK HOLDİNG|10.40.24.98|||110000438407|180
31.10.2018 19:00:00||ÇALIK HOLDİNG|10.40.24.98|||110000438407|170
31.10.2018 19:00:00||ÇALIK HOLDİNG|10.40.24.98|||110000438407|170
31.10.2018 19:00:00||ÇALIK HOLDİNG|10.40.24.98|||110000438407|20
31.10.2018 19:00:00||ÇALIK HOLDİNG|10.40.24.98|||110000438407|276
31.10.2018 19:00:00||ÇALIK HOLDİNG|10.40.25.100|||110000438407|38
31.10.2018 19:00:00||ÇALIK HOLDİNG|10.40.25.100|||110000438407|40
31.10.2018 19:00:00||ÇALIK HOLDİNG|10.40.24.101|||110000438407|60
31.10.2018 19:00:00||ÇALIK HOLDİNG|10.40.24.101|||110000438407|110
31.10.2018 19:00:00||ÇALIK HOLDİNG|10.40.24.101|||110000438407|20
31.10.2018 19:00:00||ÇALIK HOLDİNG|10.40.24.101|||110000438407|20
31.10.2018 19:00:00||ÇALIK HOLDİNG|10.40.24.101|||110000438407|40
31.10.2018 19:00:00||ÇALIK HOLDİNG|10.40.24.101|||110000438407|90
31.10.2018 19:00:00||ÇALIK HOLDİNG|10.40.24.101|||110000438407|30
31.10.2018 19:00:00||ÇALIK HOLDİNG|10.40.24.101|||110000438407|10
31.10.2018 19:00:00||ÇALIK HOLDİNG|10.40.24.101|||110000438407|20
31.10.2018 19:00:00||ÇALIK HOLDİNG|10.40.24.101|||110000438407|50
31.10.2018 19:00:00||ÇALIK HOLDİNG|10.40.24.101|||110000438407|30
31.10.2018 19:00:00||ÇALIK HOLDİNG|10.40.24.101|||110000438407|80
31.10.2018 19:00:00||ÇALIK HOLDİNG|10.40.24.101|||110000438407|80
31.10.2018 19:00:00||ÇALIK HOLDİNG|10.40.24.101|||110000438407|92
31.10.2018 19:00:00||ÇALIK HOLDİNG|10.40.25.102|||110000438407|100
31.10.2018 19:00:00||ÇALIK HOLDİNG|10.40.25.102|||110000438407|90
31.10.2018 19:00:00||ÇALIK HOLDİNG|10.40.25.102|||110000438407|150
31.10.2018 19:00:00||ÇALIK HOLDİNG|10.40.24.102|||110000438407|100
31.10.2018 19:00:00||ÇALIK HOLDİNG|10.40.24.102|||110000438407|90
31.10.2018 19:00:00||ÇALIK HOLDİNG|10.40.24.102|||110000438407|140
31.10.2018 19:00:00||ÇALIK HOLDİNG|10.40.25.103|||110000438407|90
31.10.2018 19:00:00||ÇALIK HOLDİNG|10.40.25.103|||110000438407|80
31.10.2018 19:00:00||ÇALIK HOLDİNG|10.40.25.103|||110000438407|10
31.10.2018 19:00:00||ÇALIK HOLDİNG|10.40.25.115|||110000438407|82
31.10.2018 19:00:00||ÇALIK HOLDİNG|10.40.24.103|||110000438407|98
31.10.2018 19:00:00||ÇALIK HOLDİNG|10.40.24.103|||110000438407|80
31.10.2018 19:00:00||ÇALIK HOLDİNG|10.40.24.103|||110000438407|80
31.10.2018 19:00:00||ÇALIK HOLDİNG|10.40.24.103|||110000438407|20
31.10.2018 19:00:00||ÇALIK HOLDİNG|10.40.24.103|||110000438407|10
31.10.2018 19:00:00||ÇALIK HOLDİNG|10.40.25.113|||110000438407|236
31.10.2018 19:00:00||ÇALIK HOLDİNG|10.40.25.113|||110000438407|248
31.10.2018 19:00:00||ÇALIK HOLDİNG|10.40.25.113|||110000438407|184
31.10.2018 19:00:00||ÇALIK HOLDİNG|10.40.25.113|||110000438407|196
31.10.2018 19:00:00||ÇALIK HOLDİNG|10.40.24.113|||110000438407|240
31.10.2018 19:00:00||ÇALIK HOLDİNG|10.40.24.113|||110000438407|240
31.10.2018 19:00:00||ÇALIK HOLDİNG|10.40.24.113|||110000438407|188
31.10.2018 19:00:00||ÇALIK HOLDİNG|10.40.24.113|||110000438407|154
31.10.2018 19:00:00||ÇALIK HOLDİNG|10.40.25.114|||110000438407|176
31.10.2018 19:00:00||ÇALIK HOLDİNG|10.40.25.114|||110000438407|424
31.10.2018 19:00:00||ÇALIK HOLDİNG|10.40.25.114|||110000438407|40
31.10.2018 19:00:00||ÇALIK HOLDİNG|10.40.24.114|||110000438407|20
31.10.2018 19:00:00||ÇALIK HOLDİNG|10.40.24.114|||110000438407|40
31.10.2018 19:00:00||ÇALIK HOLDİNG|10.40.24.114|||110000438407|166
31.10.2018 19:00:00||ÇALIK HOLDİNG|10.40.24.114|||110000438407|388
31.10.2018 19:00:00||ÇALIK HOLDİNG|10.40.24.115|||110000438407|170
31.10.2018 19:00:00||ÇALIK HOLDİNG|10.40.24.115|||110000438407|80
31.10.2018 19:00:00||ÇALIK HOLDİNG|10.40.24.115|||110000438407|90
31.10.2018 19:00:00||ÇALIK HOLDİNG|10.40.24.115|||110000438407|80
31.10.2018 19:00:00||ÇALIK HOLDİNG|10.40.24.115|||110000438407|90
31.10.2018 19:00:00||ÇALIK HOLDİNG|10.40.24.115|||110000438407|70
31.10.2018 19:00:00||ÇALIK HOLDİNG|10.40.25.116|||110000438407|102
31.10.2018 19:00:00||ÇALIK HOLDİNG|10.40.25.116|||110000438407|100
31.10.2018 19:00:00||ÇALIK HOLDİNG|10.40.25.116|||110000438407|280
31.10.2018 19:00:00||ÇALIK HOLDİNG|10.40.24.116|||110000438407|280
31.10.2018 19:00:00||ÇALIK HOLDİNG|10.40.24.116|||110000438407|100
31.10.2018 19:00:00||ÇALIK HOLDİNG|10.40.24.116|||110000438407|100
31.10.2018 19:00:00||ÇALIK HOLDİNG|10.40.25.117|||110000438407|250
31.10.2018 19:00:00||ÇALIK HOLDİNG|10.40.25.117|||110000438407|30
31.10.2018 19:00:00||ÇALIK HOLDİNG|10.40.25.117|||110000438407|26
31.10.2018 19:00:00||ÇALIK HOLDİNG|10.40.25.119|||110000438407|30
31.10.2018 19:00:00||ÇALIK HOLDİNG|10.40.25.119|||110000438407|30
31.10.2018 19:00:00||ÇALIK HOLDİNG|10.40.24.119|||110000438407|150
31.10.2018 19:00:00||ÇALIK HOLDİNG|10.40.24.119|||110000438407|30
31.10.2018 19:00:00||ÇALIK HOLDİNG|10.40.24.119|||110000438407|50
31.10.2018 19:00:00||ÇALIK HOLDİNG|10.40.25.120|||110000438407|106
31.10.2018 19:00:00||ÇALIK HOLDİNG|10.40.25.120|||110000438407|50
31.10.2018 19:00:00||ÇALIK HOLDİNG|10.40.25.120|||110000438407|20
31.10.2018 19:00:00||ÇALIK HOLDİNG|10.40.25.120|||110000438407|20
31.10.2018 19:00:00||ÇALIK HOLDİNG|10.40.25.120|||110000438407|30
31.10.2018 19:00:00||ÇALIK HOLDİNG|10.40.25.120|||110000438407|90
31.10.2018 19:00:00||ÇALIK HOLDİNG|10.40.25.120|||110000438407|90
31.10.2018 19:00:00||ÇALIK HOLDİNG|10.40.24.120|||110000438407|20
31.10.2018 19:00:00||ÇALIK HOLDİNG|10.40.24.120|||110000438407|30
31.10.2018 19:00:00||ÇALIK HOLDİNG|10.40.24.120|||110000438407|110
31.10.2018 19:00:00||ÇALIK HOLDİNG|10.40.24.120|||110000438407|100
31.10.2018 19:00:00||ÇALIK HOLDİNG|10.40.24.120|||110000438407|40
31.10.2018 19:00:00||ÇALIK HOLDİNG|10.40.24.120|||110000438407|80
31.10.2018 19:00:00||ÇALIK HOLDİNG|10.40.24.120|||110000438407|80
31.10.2018 19:00:00||ÇALIK HOLDİNG|10.40.24.120|||110000438407|70
31.10.2018 19:00:00||ÇALIK HOLDİNG|10.40.25.121|||110000438407|90
31.10.2018 19:00:00||ÇALIK HOLDİNG|10.40.25.121|||110000438407|100
31.10.2018 19:00:00||ÇALIK HOLDİNG|10.40.25.121|||110000438407|150
31.10.2018 19:00:00||ÇALIK HOLDİNG|10.40.24.121|||110000438407|100
31.10.2018 19:00:00||ÇALIK HOLDİNG|10.40.24.121|||110000438407|100
31.10.2018 19:00:00||ÇALIK HOLDİNG|10.40.24.121|||110000438407|140
31.10.2018 19:00:00||ÇALIK HOLDİNG|10.40.25.122|||110000438407|90
31.10.2018 19:00:00||ÇALIK HOLDİNG|10.40.25.122|||110000438407|80
31.10.2018 19:00:00||ÇALIK HOLDİNG|10.40.25.122|||110000438407|80
31.10.2018 19:00:00||ÇALIK HOLDİNG|10.40.25.122|||110000438407|30
31.10.2018 19:00:00||ÇALIK HOLDİNG|10.40.25.122|||110000438407|10
31.10.2018 19:00:00||ÇALIK HOLDİNG|10.40.24.122|||110000438407|90
31.10.2018 19:00:00||ÇALIK HOLDİNG|10.40.24.122|||110000438407|80
31.10.2018 19:00:00||ÇALIK HOLDİNG|10.40.24.122|||110000438407|86
31.10.2018 19:00:00||ÇALIK HOLDİNG|10.40.24.117|||110000438407|200
31.10.2018 19:00:00||ÇALIK HOLDİNG|10.40.24.117|||110000438407|30
31.10.2018 19:00:00||ÇALIK HOLDİNG|10.40.24.117|||110000438407|30
31.10.2018 19:00:00||ÇALIK HOLDİNG|10.40.24.97|||110000438407|100
31.10.2018 19:00:00||ÇALIK HOLDİNG|10.40.24.97|||110000438407|90
31.10.2018 19:00:00||ÇALIK HOLDİNG|10.40.24.97|||110000438407|80
31.10.2018 19:00:00||ÇALIK HOLDİNG|10.40.24.97|||110000438407|90
31.10.2018 19:00:00||ÇALIK HOLDİNG|10.40.24.97|||110000438407|312
31.10.2018 19:00:00||ÇALIK HOLDİNG|10.40.24.100|||110000438407|30
31.10.2018 19:00:00||ÇALIK HOLDİNG|10.40.24.100|||110000438407|40
31.10.2018 19:00:00||FIBABANKA|10.40.27.54|||101571767266|308
31.10.2018 19:00:00||FIBABANKA|10.40.26.54|||101571767266|317
31.10.2018 19:00:00||FIBABANKA|10.40.27.55|||101571767266|103
31.10.2018 19:00:00||FIBABANKA|10.40.26.55|||101571767266|102
31.10.2018 19:00:00||FIBABANKA|10.40.24.55|||101571767266|111
31.10.2018 19:00:00||FIBABANKA|10.40.25.56|||101571767266|197
31.10.2018 19:00:00||FIBABANKA|10.40.25.54|||101571767266|330
31.10.2018 19:00:00||FIBABANKA|10.40.24.54|||101571767266|315
31.10.2018 19:00:00||FIBABANKA|10.40.25.55|||101571767266|111
31.10.2018 19:00:00||FIBABANKA|10.40.24.56|||101571767266|197
31.10.2018 19:00:00||FIBABANKA|10.40.26.53|||101571767266|42
31.10.2018 19:00:00||FIBABANKA|10.40.26.53|||101571767266|184
31.10.2018 19:00:00||FIBABANKA|10.40.25.57|||101571767266|90
31.10.2018 19:00:00||FIBABANKA|10.40.27.60|||101571767266|50
31.10.2018 19:00:00||FIBABANKA|10.40.25.76|||101571767266|10
31.10.2018 19:00:00||FIBABANKA|10.40.27.53|||101571767266|176
31.10.2018 19:00:00||FIBABANKA|10.40.27.53|||101571767266|178
31.10.2018 19:00:00||FIBABANKA|10.40.26.53|||101571767266|174
31.10.2018 19:00:00||FIBABANKA|10.40.27.57|||101571767266|88
31.10.2018 19:00:00||FIBABANKA|10.40.27.57|||101571767266|80
31.10.2018 19:00:00||FIBABANKA|10.40.27.57|||101571767266|80
31.10.2018 19:00:00||FIBABANKA|10.40.26.60|||101571767266|10
31.10.2018 19:00:00||FIBABANKA|10.40.25.57|||101571767266|90
31.10.2018 19:00:00||FIBABANKA|10.40.25.57|||101571767266|87
31.10.2018 19:00:00||FIBABANKA|10.40.25.57|||101571767266|90
31.10.2018 19:00:00||FIBABANKA|10.40.25.57|||101571767266|90
31.10.2018 19:00:00||FIBABANKA|10.40.25.57|||101571767266|58
31.10.2018 19:00:00||FIBABANKA|10.40.25.57|||101571767266|100
31.10.2018 19:00:00||FIBABANKA|10.40.25.57|||101571767266|80
31.10.2018 19:00:00||FIBABANKA|10.40.24.57|||101571767266|102
31.10.2018 19:00:00||FIBABANKA|10.40.24.57|||101571767266|70
31.10.2018 19:00:00||FIBABANKA|10.40.24.57|||101571767266|83
31.10.2018 19:00:00||FIBABANKA|10.40.26.51|||101571767266|20
31.10.2018 19:00:00||FIBABANKA|10.40.27.52|||101571767266|50
31.10.2018 19:00:00||FIBABANKA|10.40.27.52|||101571767266|60
31.10.2018 19:00:00||FIBABANKA|10.40.27.52|||101571767266|70
31.10.2018 19:00:00||FIBABANKA|10.40.27.73|||101571767266|10
31.10.2018 19:00:00||FIBABANKA|10.40.27.74|||101571767266|180
31.10.2018 19:00:00||FIBABANKA|10.40.27.60|||101571767266|106
31.10.2018 19:00:00||FIBABANKA|10.40.26.60|||101571767266|126
31.10.2018 19:00:00||FIBABANKA|10.40.26.60|||101571767266|158
31.10.2018 19:00:00||FIBABANKA|10.40.26.60|||101571767266|30
31.10.2018 19:00:00||FIBABANKA|10.40.25.53|||101571767266|34
31.10.2018 19:00:00||FIBABANKA|10.40.25.53|||101571767266|52
31.10.2018 19:00:00||FIBABANKA|10.40.27.60|||101571767266|50
31.10.2018 19:00:00||FIBABANKA|10.40.27.60|||101571767266|220
31.10.2018 19:00:00||FIBABANKA|10.40.27.60|||101571767266|248
31.10.2018 19:00:00||FIBABANKA|10.40.27.60|||101571767266|48
31.10.2018 19:00:00||FIBABANKA|10.40.27.60|||101571767266|160
31.10.2018 19:00:00||FIBABANKA|10.40.27.60|||101571767266|10
31.10.2018 19:00:00||FIBABANKA|10.40.27.53|||101571767266|60
31.10.2018 19:00:00||FIBABANKA|10.40.26.53|||101571767266|74
31.10.2018 19:00:00||FIBABANKA|10.40.26.53|||101571767266|62
31.10.2018 19:00:00||FIBABANKA|10.40.27.57|||101571767266|80
31.10.2018 19:00:00||FIBABANKA|10.40.25.51|||101571767266|20
31.10.2018 19:00:00||FIBABANKA|10.40.25.51|||101571767266|110
31.10.2018 19:00:00||FIBABANKA|10.40.24.51|||101571767266|20
31.10.2018 19:00:00||FIBABANKA|10.40.24.51|||101571767266|70
31.10.2018 19:00:00||FIBABANKA|10.40.24.51|||101571767266|100
31.10.2018 19:00:00||FIBABANKA|10.40.24.51|||101571767266|140
31.10.2018 19:00:00||FIBABANKA|10.40.24.51|||101571767266|30
31.10.2018 19:00:00||FIBABANKA|10.40.24.57|||101571767266|70
31.10.2018 19:00:00||FIBABANKA|10.40.24.57|||101571767266|90
31.10.2018 19:00:00||FIBABANKA|10.40.24.57|||101571767266|80
31.10.2018 19:00:00||FIBABANKA|10.40.24.57|||101571767266|80
31.10.2018 19:00:00||FIBABANKA|10.40.24.57|||101571767266|70
31.10.2018 19:00:00||FIBABANKA|10.40.24.52|||101571767266|34
31.10.2018 19:00:00||FIBABANKA|10.40.24.52|||101571767266|40
31.10.2018 19:00:00||FIBABANKA|10.40.24.52|||101571767266|10
31.10.2018 19:00:00||FIBABANKA|10.40.26.73|||101571767266|40
31.10.2018 19:00:00||FIBABANKA|10.40.27.53|||101571767266|70
31.10.2018 19:00:00||FIBABANKA|10.40.26.51|||101571767266|70
31.10.2018 19:00:00||FIBABANKA|10.40.27.60|||101571767266|100
31.10.2018 19:00:00||FIBABANKA|10.40.27.60|||101571767266|110
31.10.2018 19:00:00||FIBABANKA|10.40.26.52|||101571767266|30
31.10.2018 19:00:00||FIBABANKA|10.40.26.52|||101571767266|90
31.10.2018 19:00:00||FIBABANKA|10.40.26.52|||101571767266|30
31.10.2018 19:00:00||FIBABANKA|10.40.26.60|||101571767266|10
31.10.2018 19:00:00||FIBABANKA|10.40.26.60|||101571767266|110
31.10.2018 19:00:00||FIBABANKA|10.40.26.60|||101571767266|120
31.10.2018 19:00:00||FIBABANKA|10.40.26.60|||101571767266|230
31.10.2018 19:00:00||FIBABANKA|10.40.25.51|||101571767266|140
31.10.2018 19:00:00||FIBABANKA|10.40.25.51|||101571767266|40
31.10.2018 19:00:00||FIBABANKA|10.40.25.51|||101571767266|40
31.10.2018 19:00:00||FIBABANKA|10.40.25.51|||101571767266|70
31.10.2018 19:00:00||FIBABANKA|10.40.24.51|||101571767266|30
31.10.2018 19:00:00||FIBABANKA|10.40.25.59|||101571767266|70
31.10.2018 19:00:00||FIBABANKA|10.40.25.59|||101571767266|90
31.10.2018 19:00:00||FIBABANKA|10.40.25.59|||101571767266|90
31.10.2018 19:00:00||FIBABANKA|10.40.25.59|||101571767266|40
31.10.2018 19:00:00||FIBABANKA|10.40.25.59|||101571767266|120
31.10.2018 19:00:00||FIBABANKA|10.40.25.59|||101571767266|60
31.10.2018 19:00:00||FIBABANKA|10.40.25.59|||101571767266|50
31.10.2018 19:00:00||FIBABANKA|10.40.25.59|||101571767266|140
31.10.2018 19:00:00||FIBABANKA|10.40.25.59|||101571767266|50
31.10.2018 19:00:00||FIBABANKA|10.40.24.59|||101571767266|70
31.10.2018 19:00:00||FIBABANKA|10.40.24.59|||101571767266|152
31.10.2018 19:00:00||FIBABANKA|10.40.24.59|||101571767266|80
31.10.2018 19:00:00||FIBABANKA|10.40.24.59|||101571767266|53
31.10.2018 19:00:00||FIBABANKA|10.40.24.59|||101571767266|50
31.10.2018 19:00:00||FIBABANKA|10.40.24.59|||101571767266|130
31.10.2018 19:00:00||FIBABANKA|10.40.24.59|||101571767266|70
31.10.2018 19:00:00||FIBABANKA|10.40.24.59|||101571767266|60
31.10.2018 19:00:00||FIBABANKA|10.40.24.59|||101571767266|140
31.10.2018 19:00:00||FIBABANKA|10.40.24.59|||101571767266|60
31.10.2018 19:00:00||FIBABANKA|10.40.25.60|||101571767266|100
31.10.2018 19:00:00||FIBABANKA|10.40.25.60|||101571767266|32
31.10.2018 19:00:00||FIBABANKA|10.40.25.60|||101571767266|110
31.10.2018 19:00:00||FIBABANKA|10.40.25.60|||101571767266|40
31.10.2018 19:00:00||FIBABANKA|10.40.24.60|||101571767266|110
31.10.2018 19:00:00||FIBABANKA|10.40.24.60|||101571767266|52
31.10.2018 19:00:00||FIBABANKA|10.40.24.60|||101571767266|40
31.10.2018 19:00:00||FIBABANKA|10.40.24.60|||101571767266|100
31.10.2018 19:00:00||FIBABANKA|10.40.24.60|||101571767266|50
31.10.2018 19:00:00||FIBABANKA|10.40.25.72|||101571767266|70
31.10.2018 19:00:00||FIBABANKA|10.40.25.72|||101571767266|40
31.10.2018 19:00:00||FIBABANKA|10.40.25.72|||101571767266|30
31.10.2018 19:00:00||FIBABANKA|10.40.24.72|||101571767266|138
31.10.2018 19:00:00||FIBABANKA|10.40.24.72|||101571767266|78
31.10.2018 19:00:00||FIBABANKA|10.40.24.72|||101571767266|30
31.10.2018 19:00:00||FIBABANKA|10.40.24.72|||101571767266|40
31.10.2018 19:00:00||FIBABANKA|10.40.25.74|||101571767266|30
31.10.2018 19:00:00||FIBABANKA|10.40.25.75|||101571767266|37
31.10.2018 19:00:00||FIBABANKA|10.40.25.75|||101571767266|82
31.10.2018 19:00:00||FIBABANKA|10.40.25.75|||101571767266|145
31.10.2018 19:00:00||FIBABANKA|10.40.25.75|||101571767266|180
31.10.2018 19:00:00||FIBABANKA|10.40.25.75|||101571767266|185
31.10.2018 19:00:00||FIBABANKA|10.40.25.75|||101571767266|210
31.10.2018 19:00:00||FIBABANKA|10.40.24.75|||101571767266|50
31.10.2018 19:00:00||FIBABANKA|10.40.24.75|||101571767266|53
31.10.2018 19:00:00||FIBABANKA|10.40.24.75|||101571767266|105
31.10.2018 19:00:00||FIBABANKA|10.40.24.75|||101571767266|168
31.10.2018 19:00:00||FIBABANKA|10.40.24.75|||101571767266|157
31.10.2018 19:00:00||FIBABANKA|10.40.24.76|||101571767266|40
31.10.2018 19:00:00||FIBABANKA|10.40.24.76|||101571767266|70
31.10.2018 19:00:00||FIBABANKA|10.40.24.76|||101571767266|20
31.10.2018 19:00:00||FIBABANKA|10.40.24.76|||101571767266|40
31.10.2018 19:00:00||FIBABANKA|10.40.24.76|||101571767266|10
31.10.2018 19:00:00||FIBABANKA|10.40.25.77|||101571767266|65
31.10.2018 19:00:00||FIBABANKA|10.40.25.77|||101571767266|48
31.10.2018 19:00:00||FIBABANKA|10.40.24.77|||101571767266|48
31.10.2018 19:00:00||FIBABANKA|10.40.24.77|||101571767266|40
31.10.2018 19:00:00||FIBABANKA|10.40.24.53|||101571767266|30
31.10.2018 19:00:00||FIBABANKA|10.40.24.53|||101571767266|60
31.10.2018 19:00:00||FIBABANKA|10.40.26.57|||101571767266|92
31.10.2018 19:00:00||FIBABANKA|10.40.26.57|||101571767266|88
31.10.2018 19:00:00||FIBABANKA|10.40.26.57|||101571767266|80
31.10.2018 19:00:00||FIBABANKA|10.40.26.57|||101571767266|68
31.10.2018 19:00:00||FIBABANKA|10.40.26.57|||101571767266|70
31.10.2018 19:00:00||FIBABANKA|10.40.27.72|||101571767266|40
31.10.2018 19:00:00||FIBABANKA|10.40.27.72|||101571767266|50
31.10.2018 19:00:00||FIBABANKA|10.40.27.72|||101571767266|40
31.10.2018 19:00:00||FIBABANKA|10.40.27.72|||101571767266|140
31.10.2018 19:00:00||FIBABANKA|10.40.27.72|||101571767266|62
31.10.2018 19:00:00||FIBABANKA|10.40.26.72|||101571767266|30
31.10.2018 19:00:00||FIBABANKA|10.40.26.72|||101571767266|140
31.10.2018 19:00:00||FIBABANKA|10.40.26.72|||101571767266|70
31.10.2018 19:00:00||FIBABANKA|10.40.26.72|||101571767266|30
31.10.2018 19:00:00||FIBABANKA|10.40.27.73|||101571767266|30
31.10.2018 19:00:00||FIBABANKA|10.40.27.73|||101571767266|100
31.10.2018 19:00:00||FIBABANKA|10.40.27.73|||101571767266|40
31.10.2018 19:00:00||FIBABANKA|10.40.27.73|||101571767266|42
31.10.2018 19:00:00||FIBABANKA|10.40.27.73|||101571767266|354
31.10.2018 19:00:00||FIBABANKA|10.40.26.73|||101571767266|40
31.10.2018 19:00:00||FIBABANKA|10.40.26.73|||101571767266|70
31.10.2018 19:00:00||FIBABANKA|10.40.26.73|||101571767266|30
31.10.2018 19:00:00||FIBABANKA|10.40.26.73|||101571767266|10
31.10.2018 19:00:00||FIBABANKA|10.40.27.74|||101571767266|74
31.10.2018 19:00:00||FIBABANKA|10.40.27.74|||101571767266|162
31.10.2018 19:00:00||FIBABANKA|10.40.27.74|||101571767266|174
31.10.2018 19:00:00||FIBABANKA|10.40.26.74|||101571767266|72
31.10.2018 19:00:00||FIBABANKA|10.40.26.74|||101571767266|192
31.10.2018 19:00:00||FIBABANKA|10.40.26.74|||101571767266|188
31.10.2018 19:00:00||FIBABANKA|10.40.26.74|||101571767266|176
31.10.2018 19:00:00||FIBABANKA|10.40.27.75|||101571767266|10
31.10.2018 19:00:00||FIBABANKA|10.40.27.75|||101571767266|10
31.10.2018 19:00:00||FIBABANKA|10.40.27.75|||101571767266|60
31.10.2018 19:00:00||FIBABANKA|10.40.26.75|||101571767266|10
31.10.2018 19:00:00||FIBABANKA|10.40.27.76|||101571767266|92
31.10.2018 19:00:00||FIBABANKA|10.40.26.76|||101571767266|100
31.10.2018 19:00:00||FIBABANKA|10.40.26.79|||101571767266|10
31.10.2018 19:00:00||FIBABANKA|10.40.27.79|||101571767266|10
31.10.2018 19:00:00||FIBABANKA|10.40.27.79|||101571767266|10
31.10.2018 19:00:00||FIBABANKA|10.40.26.79|||101571767266|10
31.10.2018 19:00:00||FIBABANKA|10.40.27.77|||101571767266|50
31.10.2018 19:00:00||FIBABANKA|10.40.27.77|||101571767266|32
31.10.2018 19:00:00||FIBABANKA|10.40.27.77|||101571767266|156
31.10.2018 19:00:00||FIBABANKA|10.40.26.77|||101571767266|44
31.10.2018 19:00:00||FIBABANKA|10.40.26.77|||101571767266|50
31.10.2018 19:00:00||FIBABANKA|10.40.26.77|||101571767266|182
31.10.2018 19:00:00||FIBABANKA|10.40.26.77|||101571767266|210
31.10.2018 19:00:00||FIBABANKA|10.40.26.77|||101571767266|76
31.10.2018 19:00:00||FIBABANKA|10.40.26.77|||101571767266|98
31.10.2018 19:00:00||FIBABANKA|10.40.26.77|||101571767266|184
31.10.2018 19:00:00||FIBABANKA|10.40.26.77|||101571767266|180
31.10.2018 19:00:00||FIBABANKA|10.40.27.77|||101571767266|50
31.10.2018 19:00:00||FIBABANKA|10.40.27.77|||101571767266|32
31.10.2018 19:00:00||FIBABANKA|10.40.27.77|||101571767266|158
31.10.2018 19:00:00||FIBABANKA|10.40.27.57|||101571767266|78
31.10.2018 19:00:00||FIBABANKA|10.40.26.60|||101571767266|228
31.10.2018 19:00:00||FIBABANKA|10.40.25.74|||101571767266|230
31.10.2018 19:00:00||FIBABANKA|10.40.24.75|||101571767266|180
31.10.2018 19:00:00||FIBABANKA|10.40.24.75|||101571767266|140
31.10.2018 19:00:00||FIBABANKA|10.40.24.53|||101571767266|182
31.10.2018 19:00:00||FIBABANKA|10.40.24.53|||101571767266|185
31.10.2018 19:00:00||FIBABANKA|10.40.25.52|||101571767266|10
31.10.2018 19:00:00||FIBABANKA|10.40.25.52|||101571767266|50
31.10.2018 19:00:00||FIBABANKA|10.40.25.52|||101571767266|84
31.10.2018 19:00:00||FIBABANKA|10.40.25.53|||101571767266|168
31.10.2018 19:00:00||FIBABANKA|10.40.25.53|||101571767266|158
31.10.2018 19:00:00||FIBABANKA|10.40.27.51|||101571767266|30
31.10.2018 19:00:00||FIBABANKA|10.40.27.51|||101571767266|20
31.10.2018 19:00:00||FIBABANKA|10.40.27.51|||101571767266|100
31.10.2018 19:00:00||FIBABANKA|10.40.27.51|||101571767266|140
31.10.2018 19:00:00||FIBABANKA|10.40.27.51|||101571767266|70
31.10.2018 19:00:00||FIBABANKA|10.40.27.51|||101571767266|40
31.10.2018 19:00:00||FIBABANKA|10.40.27.51|||101571767266|40
31.10.2018 19:00:00||FIBABANKA|10.40.26.51|||101571767266|10
31.10.2018 19:00:00||FIBABANKA|10.40.26.51|||101571767266|110
31.10.2018 19:00:00||FIBABANKA|10.40.26.51|||101571767266|130
31.10.2018 19:00:00||FIBABANKA|10.40.26.51|||101571767266|30
31.10.2018 19:00:00||FIBABANKA|10.40.26.51|||101571767266|32
31.10.2018 19:00:00||FIBABANKA|10.40.24.74|||101571767266|33
31.10.2018 19:00:00||FIBABANKA|10.40.25.76|||101571767266|60
31.10.2018 19:00:00||FIBABANKA|10.40.25.76|||101571767266|40
31.10.2018 19:00:00||FIBABANKA|10.40.25.76|||101571767266|10
31.10.2018 19:00:00||FIBABANKA|10.40.25.52|||101571767266|40
31.10.2018 19:00:00||FIBABANKA|10.40.25.52|||101571767266|30
31.10.2018 19:00:00||HAVAŞ|10.40.24.46|||110000479675|10
31.10.2018 19:00:00||HAVAŞ|10.40.24.48|||110000479675|756
31.10.2018 19:00:00||HAVAŞ|10.40.24.48|||110000479675|740
31.10.2018 19:00:00||HAVAŞ|10.40.25.48|||110000479675|750
31.10.2018 19:00:00||HAVAŞ|10.40.24.45|||110000479675|70
31.10.2018 19:00:00||HAVAŞ|10.40.25.45|||110000479675|63
31.10.2018 19:00:00||HAVAŞ|10.40.25.47|||110000479675|70
31.10.2018 19:00:00||HAVAŞ|10.40.24.46|||110000479675|80
31.10.2018 19:00:00||HAVAŞ|10.40.24.47|||110000479675|30
31.10.2018 19:00:00||HAVAŞ|10.40.24.47|||110000479675|90
31.10.2018 19:00:00||HAVAŞ|10.40.24.47|||110000479675|90
31.10.2018 19:00:00||HAVAŞ|10.40.25.46|||110000479675|10
31.10.2018 19:00:00||HAVAŞ|10.40.25.46|||110000479675|60
31.10.2018 19:00:00||HAVAŞ|10.40.24.48|||110000479675|752
31.10.2018 19:00:00||HAVAŞ|10.40.24.46|||110000479675|60
31.10.2018 19:00:00||HAVAŞ|10.40.24.46|||110000479675|67
31.10.2018 19:00:00||HAVAŞ|10.40.24.47|||110000479675|10
31.10.2018 19:00:00||HAVAŞ|10.40.25.48|||110000479675|742
31.10.2018 19:00:00||HAVAŞ|10.40.25.48|||110000479675|764
31.10.2018 19:00:00||HAVAŞ|10.40.25.45|||110000479675|93
31.10.2018 19:00:00||HAVAŞ|10.40.24.45|||110000479675|50
31.10.2018 19:00:00||HAVAŞ|10.40.24.45|||110000479675|170
31.10.2018 19:00:00||HAVAŞ|10.40.24.45|||110000479675|100
31.10.2018 19:00:00||HAVAŞ|10.40.25.47|||110000479675|70
31.10.2018 19:00:00||HAVAŞ|10.40.25.47|||110000479675|225
31.10.2018 19:00:00||HAVAŞ|10.40.25.47|||110000479675|58
31.10.2018 19:00:00||HAVAŞ|10.40.25.47|||110000479675|87
31.10.2018 19:00:00||HAVAŞ|10.40.25.47|||110000479675|92
31.10.2018 19:00:00||HAVAŞ|10.40.25.47|||110000479675|90
31.10.2018 19:00:00||HAVAŞ|10.40.25.47|||110000479675|110
31.10.2018 19:00:00||HAVAŞ|10.40.25.47|||110000479675|180
31.10.2018 19:00:00||HAVAŞ|10.40.25.47|||110000479675|90
31.10.2018 19:00:00||HAVAŞ|10.40.25.47|||110000479675|90
31.10.2018 19:00:00||HAVAŞ|10.40.25.47|||110000479675|90
31.10.2018 19:00:00||HAVAŞ|10.40.25.45|||110000479675|98
31.10.2018 19:00:00||HAVAŞ|10.40.25.45|||110000479675|88
31.10.2018 19:00:00||HAVAŞ|10.40.25.46|||110000479675|10
31.10.2018 19:00:00||HAVAŞ|10.40.25.46|||110000479675|10
31.10.2018 19:00:00||HAVAŞ|10.40.25.46|||110000479675|20
31.10.2018 19:00:00||HAVAŞ|10.40.25.46|||110000479675|20
31.10.2018 19:00:00||HAVAŞ|10.40.25.46|||110000479675|50
31.10.2018 19:00:00||HAVAŞ|10.40.25.46|||110000479675|100
31.10.2018 19:00:00||HAVAŞ|10.40.25.46|||110000479675|65
31.10.2018 19:00:00||HAVAŞ|10.40.25.46|||110000479675|68
31.10.2018 19:00:00||HAVAŞ|10.40.25.46|||110000479675|70
31.10.2018 19:00:00||HAVAŞ|10.40.24.46|||110000479675|20
31.10.2018 19:00:00||HAVAŞ|10.40.24.46|||110000479675|20
31.10.2018 19:00:00||HAVAŞ|10.40.24.46|||110000479675|10
31.10.2018 19:00:00||HAVAŞ|10.40.24.46|||110000479675|10
31.10.2018 19:00:00||HAVAŞ|10.40.24.46|||110000479675|10
31.10.2018 19:00:00||HAVAŞ|10.40.24.46|||110000479675|60
31.10.2018 19:00:00||HAVAŞ|10.40.24.46|||110000479675|110
31.10.2018 19:00:00||HAVAŞ|10.40.24.47|||110000479675|30
31.10.2018 19:00:00||HAVAŞ|10.40.24.47|||110000479675|220
31.10.2018 19:00:00||HAVAŞ|10.40.24.47|||110000479675|60
31.10.2018 19:00:00||HAVAŞ|10.40.24.47|||110000479675|58
31.10.2018 19:00:00||HAVAŞ|10.40.24.47|||110000479675|157
31.10.2018 19:00:00||HAVAŞ|10.40.24.47|||110000479675|100
31.10.2018 19:00:00||HAVAŞ|10.40.24.47|||110000479675|100
31.10.2018 19:00:00||MARS CINEMA|10.40.24.203|||110000472614|100
31.10.2018 19:00:00||MARS CINEMA|10.40.24.204|||110000472614|40
31.10.2018 19:00:00||MARS CINEMA|10.40.24.203|||110000472614|80
31.10.2018 19:00:00||MARS CINEMA|10.40.24.203|||110000472614|164
31.10.2018 19:00:00||MARS CINEMA|10.40.24.203|||110000472614|84
31.10.2018 19:00:00||MARS CINEMA|10.40.24.204|||110000472614|62
31.10.2018 19:00:00||MARS CINEMA|10.40.24.203|||110000472614|108
31.10.2018 19:00:00||MARS CINEMA|10.40.24.204|||110000472614|20
31.10.2018 19:00:00||MARS CINEMA|10.40.24.204|||110000472614|94
31.10.2018 19:00:00||MARS CINEMA|10.40.25.203|||110000472614|164
31.10.2018 19:00:00||MARS CINEMA|10.40.25.203|||110000472614|76
31.10.2018 19:00:00||MARS CINEMA|10.40.25.203|||110000472614|182
31.10.2018 19:00:00||MARS CINEMA|10.40.25.203|||110000472614|102
31.10.2018 19:00:00||MARS CINEMA|10.40.25.203|||110000472614|90
31.10.2018 19:00:00||MARS CINEMA|10.40.25.203|||110000472614|110
31.10.2018 19:00:00||MARS CINEMA|10.40.25.203|||110000472614|82
31.10.2018 19:00:00||MARS CINEMA|10.40.25.203|||110000472614|154
31.10.2018 19:00:00||MARS CINEMA|10.40.25.203|||110000472614|90
31.10.2018 19:00:00||MARS CINEMA|10.40.25.203|||110000472614|114
31.10.2018 19:00:00||MARS CINEMA|10.40.25.203|||110000472614|92
31.10.2018 19:00:00||MARS CINEMA|10.40.25.203|||110000472614|64
31.10.2018 19:00:00||MARS CINEMA|10.40.25.203|||110000472614|190
31.10.2018 19:00:00||MARS CINEMA|10.40.25.204|||110000472614|110
31.10.2018 19:00:00||MARS CINEMA|10.40.25.204|||110000472614|70
31.10.2018 19:00:00||MARS CINEMA|10.40.25.204|||110000472614|80
31.10.2018 19:00:00||MARS CINEMA|10.40.25.204|||110000472614|100
31.10.2018 19:00:00||MARS CINEMA|10.40.25.204|||110000472614|20
31.10.2018 19:00:00||MARS CINEMA|10.40.25.204|||110000472614|20
31.10.2018 19:00:00||MARS CINEMA|10.40.25.204|||110000472614|30
31.10.2018 19:00:00||MARS CINEMA|10.40.25.204|||110000472614|40
31.10.2018 19:00:00||MARS CINEMA|10.40.25.204|||110000472614|90
31.10.2018 19:00:00||MARS CINEMA|10.40.25.204|||110000472614|120
31.10.2018 19:00:00||MARS CINEMA|10.40.25.204|||110000472614|80
31.10.2018 19:00:00||MARS CINEMA|10.40.25.204|||110000472614|80
31.10.2018 19:00:00||MARS CINEMA|10.40.25.204|||110000472614|110
31.10.2018 19:00:00||MARS CINEMA|10.40.25.204|||110000472614|100
31.10.2018 19:00:00||MARS CINEMA|10.40.24.203|||110000472614|84
31.10.2018 19:00:00||MARS CINEMA|10.40.24.203|||110000472614|102
31.10.2018 19:00:00||MARS CINEMA|10.40.24.203|||110000472614|144
31.10.2018 19:00:00||MARS CINEMA|10.40.24.203|||110000472614|70
31.10.2018 19:00:00||MARS CINEMA|10.40.24.203|||110000472614|142
31.10.2018 19:00:00||MARS CINEMA|10.40.24.203|||110000472614|162
31.10.2018 19:00:00||MARS CINEMA|10.40.24.203|||110000472614|100
31.10.2018 19:00:00||MARS CINEMA|10.40.24.203|||110000472614|186
31.10.2018 19:00:00||MARS CINEMA|10.40.24.204|||110000472614|110
31.10.2018 19:00:00||MARS CINEMA|10.40.24.204|||110000472614|94
31.10.2018 19:00:00||MARS CINEMA|10.40.24.204|||110000472614|94
31.10.2018 19:00:00||MARS CINEMA|10.40.24.204|||110000472614|20
31.10.2018 19:00:00||MARS CINEMA|10.40.24.204|||110000472614|10
31.10.2018 19:00:00||MARS CINEMA|10.40.24.204|||110000472614|92
31.10.2018 19:00:00||MARS CINEMA|10.40.24.204|||110000472614|120
31.10.2018 19:00:00||MARS CINEMA|10.40.24.204|||110000472614|94
31.10.2018 19:00:00||MARS CINEMA|10.40.24.204|||110000472614|110
31.10.2018 19:00:00||MARS CINEMA|10.40.24.204|||110000472614|80
31.10.2018 19:00:00||MARS CINEMA|10.40.25.206|||110000472614|122
31.10.2018 19:00:00||MARS CINEMA|10.40.25.206|||110000472614|40
31.10.2018 19:00:00||MARS CINEMA|10.40.25.206|||110000472614|40
31.10.2018 19:00:00||MARS CINEMA|10.40.25.206|||110000472614|40
31.10.2018 19:00:00||MARS CINEMA|10.40.25.206|||110000472614|20
31.10.2018 19:00:00||MARS CINEMA|10.40.25.206|||110000472614|20
31.10.2018 19:00:00||MARS CINEMA|10.40.25.206|||110000472614|30
31.10.2018 19:00:00||MARS CINEMA|10.40.25.206|||110000472614|64
31.10.2018 19:00:00||MARS CINEMA|10.40.25.206|||110000472614|40
31.10.2018 19:00:00||MARS CINEMA|10.40.25.206|||110000472614|90
31.10.2018 19:00:00||MARS CINEMA|10.40.25.206|||110000472614|90
31.10.2018 19:00:00||MARS CINEMA|10.40.24.206|||110000472614|154
31.10.2018 19:00:00||MARS CINEMA|10.40.24.206|||110000472614|40
31.10.2018 19:00:00||MARS CINEMA|10.40.24.206|||110000472614|40
31.10.2018 19:00:00||MARS CINEMA|10.40.24.206|||110000472614|46
31.10.2018 19:00:00||MARS CINEMA|10.40.24.206|||110000472614|30
31.10.2018 19:00:00||MARS CINEMA|10.40.24.206|||110000472614|30
31.10.2018 19:00:00||MARS CINEMA|10.40.24.206|||110000472614|202
31.10.2018 19:00:00||MARS CINEMA|10.40.24.206|||110000472614|160
31.10.2018 19:00:00||MARS CINEMA|10.40.24.206|||110000472614|20
31.10.2018 19:00:00||MARS CINEMA|10.40.24.206|||110000472614|80
31.10.2018 19:00:00||MARS CINEMA|10.40.24.206|||110000472614|76
31.10.2018 19:00:00||PEGASUS|10.40.27.84|||110000423831|216
31.10.2018 19:00:00||PEGASUS|10.40.26.85|||110000423831|121
31.10.2018 19:00:00||PEGASUS|10.40.27.66|||110000423831|113
31.10.2018 19:00:00||PEGASUS|10.40.26.66|||110000423831|93
31.10.2018 19:00:00||PEGASUS|10.40.26.84|||110000423831|219
31.10.2018 19:00:00||PEGASUS|10.40.27.85|||110000423831|116
31.10.2018 19:00:00||PEGASUS|10.40.27.67|||110000423831|340
31.10.2018 19:00:00||PEGASUS|10.40.27.67|||110000423831|40
31.10.2018 19:00:00||PEGASUS|10.40.26.62|||110000423831|10
31.10.2018 19:00:00||PEGASUS|10.40.26.62|||110000423831|190
31.10.2018 19:00:00||PEGASUS|10.40.26.63|||110000423831|70
31.10.2018 19:00:00||PEGASUS|10.40.26.63|||110000423831|30
31.10.2018 19:00:00||PEGASUS|10.40.26.63|||110000423831|60
31.10.2018 19:00:00||PEGASUS|10.40.26.63|||110000423831|30
31.10.2018 19:00:00||PEGASUS|10.40.26.63|||110000423831|230
31.10.2018 19:00:00||PEGASUS|10.40.26.63|||110000423831|140
31.10.2018 19:00:00||PEGASUS|10.40.26.63|||110000423831|110
31.10.2018 19:00:00||PEGASUS|10.40.26.63|||110000423831|60
31.10.2018 19:00:00||PEGASUS|10.40.26.67|||110000423831|170
31.10.2018 19:00:00||PEGASUS|10.40.27.68|||110000423831|90
31.10.2018 19:00:00||PEGASUS|10.40.27.68|||110000423831|84
31.10.2018 19:00:00||PEGASUS|10.40.27.68|||110000423831|90
31.10.2018 19:00:00||PEGASUS|10.40.27.68|||110000423831|50
31.10.2018 19:00:00||PEGASUS|10.40.26.68|||110000423831|90
31.10.2018 19:00:00||PEGASUS|10.40.26.68|||110000423831|90
31.10.2018 19:00:00||PEGASUS|10.40.26.68|||110000423831|50
31.10.2018 19:00:00||PEGASUS|10.40.27.63|||110000423831|40
31.10.2018 19:00:00||PEGASUS|10.40.27.86|||110000423831|340
31.10.2018 19:00:00||PEGASUS|10.40.27.63|||110000423831|50
31.10.2018 19:00:00||PEGASUS|10.40.27.63|||110000423831|60
31.10.2018 19:00:00||PEGASUS|10.40.27.64|||110000423831|80
31.10.2018 19:00:00||PEGASUS|10.40.27.64|||110000423831|70
31.10.2018 19:00:00||PEGASUS|10.40.27.63|||110000423831|60
31.10.2018 19:00:00||PEGASUS|10.40.27.63|||110000423831|72
31.10.2018 19:00:00||PEGASUS|10.40.27.63|||110000423831|90
31.10.2018 19:00:00||PEGASUS|10.40.26.63|||110000423831|110
31.10.2018 19:00:00||PEGASUS|10.40.27.67|||110000423831|360
31.10.2018 19:00:00||PEGASUS|10.40.27.64|||110000423831|276
31.10.2018 19:00:00||PEGASUS|10.40.27.64|||110000423831|260
31.10.2018 19:00:00||PEGASUS|10.40.27.63|||110000423831|74
31.10.2018 19:00:00||PEGASUS|10.40.27.63|||110000423831|62
31.10.2018 19:00:00||PEGASUS|10.40.27.63|||110000423831|80
31.10.2018 19:00:00||PEGASUS|10.40.26.63|||110000423831|110
31.10.2018 19:00:00||PEGASUS|10.40.26.63|||110000423831|110
31.10.2018 19:00:00||PEGASUS|10.40.27.81|||110000423831|460
31.10.2018 19:00:00||PEGASUS|10.40.27.81|||110000423831|430
31.10.2018 19:00:00||PEGASUS|10.40.26.63|||110000423831|90
31.10.2018 19:00:00||PEGASUS|10.40.26.63|||110000423831|60
31.10.2018 19:00:00||PEGASUS|10.40.26.67|||110000423831|30
31.10.2018 19:00:00||PEGASUS|10.40.26.67|||110000423831|340
31.10.2018 19:00:00||PEGASUS|10.40.26.67|||110000423831|60
31.10.2018 19:00:00||PEGASUS|10.40.26.67|||110000423831|40
31.10.2018 19:00:00||PEGASUS|10.40.26.67|||110000423831|70
31.10.2018 19:00:00||PEGASUS|10.40.26.68|||110000423831|98
31.10.2018 19:00:00||PEGASUS|10.40.27.64|||110000423831|300
31.10.2018 19:00:00||PEGASUS|10.40.27.64|||110000423831|266
31.10.2018 19:00:00||PEGASUS|10.40.27.64|||110000423831|298
31.10.2018 19:00:00||PEGASUS|10.40.27.64|||110000423831|278
31.10.2018 19:00:00||PEGASUS|10.40.27.64|||110000423831|274
31.10.2018 19:00:00||PEGASUS|10.40.27.86|||110000423831|340
31.10.2018 19:00:00||PEGASUS|10.40.27.63|||110000423831|90
31.10.2018 19:00:00||PEGASUS|10.40.26.63|||110000423831|130
31.10.2018 19:00:00||PEGASUS|10.40.26.63|||110000423831|60
31.10.2018 19:00:00||PEGASUS|10.40.26.63|||110000423831|80
31.10.2018 19:00:00||PEGASUS|10.40.26.67|||110000423831|340
31.10.2018 19:00:00||PEGASUS|10.40.27.63|||110000423831|50
31.10.2018 19:00:00||PEGASUS|10.40.27.63|||110000423831|60
31.10.2018 19:00:00||PEGASUS|10.40.27.81|||110000423831|450
31.10.2018 19:00:00||PEGASUS|10.40.26.62|||110000423831|90
31.10.2018 19:00:00||PEGASUS|10.40.26.63|||110000423831|50
31.10.2018 19:00:00||PEGASUS|10.40.26.63|||110000423831|100
31.10.2018 19:00:00||PEGASUS|10.40.26.63|||110000423831|40
31.10.2018 19:00:00||PEGASUS|10.40.26.63|||110000423831|70
31.10.2018 19:00:00||PEGASUS|10.40.26.67|||110000423831|340
31.10.2018 19:00:00||PEGASUS|10.40.27.64|||110000423831|278
31.10.2018 19:00:00||PEGASUS|10.40.27.64|||110000423831|274
31.10.2018 19:00:00||PEGASUS|10.40.27.64|||110000423831|262
31.10.2018 19:00:00||PEGASUS|10.40.27.64|||110000423831|340
31.10.2018 19:00:00||PEGASUS|10.40.27.64|||110000423831|328
31.10.2018 19:00:00||PEGASUS|10.40.27.86|||110000423831|40
31.10.2018 19:00:00||PEGASUS|10.40.27.63|||110000423831|78
31.10.2018 19:00:00||PEGASUS|10.40.27.63|||110000423831|80
31.10.2018 19:00:00||PEGASUS|10.40.27.63|||110000423831|74
31.10.2018 19:00:00||PEGASUS|10.40.27.63|||110000423831|90
31.10.2018 19:00:00||PEGASUS|10.40.27.63|||110000423831|202
31.10.2018 19:00:00||PEGASUS|10.40.27.63|||110000423831|220
31.10.2018 19:00:00||PEGASUS|10.40.27.63|||110000423831|54
31.10.2018 19:00:00||PEGASUS|10.40.26.64|||110000423831|80
31.10.2018 19:00:00||PEGASUS|10.40.26.64|||110000423831|80
31.10.2018 19:00:00||PEGASUS|10.40.26.82|||110000423831|210
31.10.2018 19:00:00||PEGASUS|10.40.26.82|||110000423831|110
31.10.2018 19:00:00||PEGASUS|10.40.26.82|||110000423831|120
31.10.2018 19:00:00||PEGASUS|10.40.26.82|||110000423831|158
31.10.2018 19:00:00||PEGASUS|10.40.26.82|||110000423831|142
31.10.2018 19:00:00||PEGASUS|10.40.26.82|||110000423831|142
31.10.2018 19:00:00||PEGASUS|10.40.26.82|||110000423831|186
31.10.2018 19:00:00||PEGASUS|10.40.26.82|||110000423831|38
31.10.2018 19:00:00||PEGASUS|10.40.26.82|||110000423831|50
31.10.2018 19:00:00||PEGASUS|10.40.26.82|||110000423831|20
31.10.2018 19:00:00||PEGASUS|10.40.26.82|||110000423831|62
31.10.2018 19:00:00||PEGASUS|10.40.26.82|||110000423831|50
31.10.2018 19:00:00||PEGASUS|10.40.26.82|||110000423831|38
31.10.2018 19:00:00||PEGASUS|10.40.27.83|||110000423831|578
31.10.2018 19:00:00||PEGASUS|10.40.27.83|||110000423831|70
31.10.2018 19:00:00||PEGASUS|10.40.27.83|||110000423831|570
31.10.2018 19:00:00||PEGASUS|10.40.27.83|||110000423831|566
31.10.2018 19:00:00||PEGASUS|10.40.27.83|||110000423831|74
31.10.2018 19:00:00||PEGASUS|10.40.26.83|||110000423831|508
31.10.2018 19:00:00||PEGASUS|10.40.26.83|||110000423831|50
31.10.2018 19:00:00||PEGASUS|10.40.26.83|||110000423831|400
31.10.2018 19:00:00||PEGASUS|10.40.26.83|||110000423831|508
31.10.2018 19:00:00||PEGASUS|10.40.26.83|||110000423831|512
31.10.2018 19:00:00||PEGASUS|10.40.26.86|||110000423831|360
31.10.2018 19:00:00||PEGASUS|10.40.26.86|||110000423831|136
31.10.2018 19:00:00||PEGASUS|10.40.26.86|||110000423831|350
31.10.2018 19:00:00||PEGASUS|10.40.26.86|||110000423831|50
31.10.2018 19:00:00||PEGASUS|10.40.26.86|||110000423831|30
31.10.2018 19:00:00||PEGASUS|10.40.26.86|||110000423831|350
31.10.2018 19:00:00||PEGASUS|10.40.26.86|||110000423831|40
31.10.2018 19:00:00||PEGASUS|10.40.27.87|||110000423831|90
31.10.2018 19:00:00||PEGASUS|10.40.27.87|||110000423831|90
31.10.2018 19:00:00||PEGASUS|10.40.27.87|||110000423831|90
31.10.2018 19:00:00||PEGASUS|10.40.27.87|||110000423831|20
31.10.2018 19:00:00||PEGASUS|10.40.26.87|||110000423831|90
31.10.2018 19:00:00||PEGASUS|10.40.26.87|||110000423831|90
31.10.2018 19:00:00||PEGASUS|10.40.26.87|||110000423831|90
31.10.2018 19:00:00||PEGASUS|10.40.26.87|||110000423831|60
31.10.2018 19:00:00||PEGASUS|10.40.26.87|||110000423831|20
31.10.2018 19:00:00||PEGASUS|10.40.26.81|||110000423831|400
31.10.2018 19:00:00||PEGASUS|10.40.26.81|||110000423831|420
31.10.2018 19:00:00||PEGASUS|10.40.26.81|||110000423831|410
31.10.2018 19:00:00||PEGASUS|10.40.27.82|||110000423831|220
31.10.2018 19:00:00||PEGASUS|10.40.27.82|||110000423831|30
31.10.2018 19:00:00||PEGASUS|10.40.27.82|||110000423831|110
31.10.2018 19:00:00||PEGASUS|10.40.27.82|||110000423831|80
31.10.2018 19:00:00||PEGASUS|10.40.27.82|||110000423831|152
31.10.2018 19:00:00||PEGASUS|10.40.27.82|||110000423831|124
31.10.2018 19:00:00||PEGASUS|10.40.27.82|||110000423831|170
31.10.2018 19:00:00||PEGASUS|10.40.27.82|||110000423831|126
31.10.2018 19:00:00||PEGASUS|10.40.27.82|||110000423831|60
31.10.2018 19:00:00||PEGASUS|10.40.27.82|||110000423831|82
31.10.2018 19:00:00||PEGASUS|10.40.27.82|||110000423831|50
31.10.2018 19:00:00||PEGASUS|10.40.27.82|||110000423831|40
31.10.2018 19:00:00||PEGASUS|10.40.27.82|||110000423831|40
31.10.2018 19:00:00||PEGASUS|10.40.27.67|||110000423831|50
31.10.2018 19:00:00||PEGASUS|10.40.27.67|||110000423831|70
31.10.2018 19:00:00||PEGASUS|10.40.27.67|||110000423831|132
31.10.2018 19:00:00||PEGASUS|10.40.27.67|||110000423831|10
31.10.2018 19:00:00||PEGASUS|10.40.27.67|||110000423831|340
31.10.2018 19:00:00||PEGASUS|10.40.27.82|||110000423831|60
31.10.2018 19:00:00||PEGASUS|10.40.27.86|||110000423831|170
31.10.2018 19:00:00||PEGASUS|10.40.27.86|||110000423831|70
31.10.2018 19:00:00||PEGASUS|10.40.27.86|||110000423831|20
31.10.2018 19:00:00||PEGASUS|10.40.27.86|||110000423831|350
31.10.2018 19:00:00||PETKIM|10.40.25.87|||110000437354|142
31.10.2018 19:00:00||PWC|10.40.24.66|||110000433262|90
31.10.2018 19:00:00||PWC|10.40.24.66|||110000433262|10
31.10.2018 19:00:00||PWC|10.40.24.66|||110000433262|30
31.10.2018 19:00:00||PWC|10.40.24.66|||110000433262|50
31.10.2018 19:00:00||PWC|10.40.24.66|||110000433262|440
31.10.2018 19:00:00||PWC|10.40.24.68|||110000433262|163
31.10.2018 19:00:00||PWC|10.40.24.66|||110000433262|50
31.10.2018 19:00:00||PWC|10.40.24.66|||110000433262|210
31.10.2018 19:00:00||PWC|10.40.24.66|||110000433262|210
31.10.2018 19:00:00||PWC|10.40.25.67|||110000433262|80
31.10.2018 19:00:00||PWC|10.40.25.67|||110000433262|90
31.10.2018 19:00:00||PWC|10.40.25.67|||110000433262|320
31.10.2018 19:00:00||PWC|10.40.25.67|||110000433262|250
31.10.2018 19:00:00||PWC|10.40.25.67|||110000433262|240
31.10.2018 19:00:00||PWC|10.40.25.67|||110000433262|250
31.10.2018 19:00:00||PWC|10.40.25.67|||110000433262|50
31.10.2018 19:00:00||PWC|10.40.25.67|||110000433262|30
31.10.2018 19:00:00||PWC|10.40.25.67|||110000433262|120
31.10.2018 19:00:00||PWC|10.40.24.67|||110000433262|10
31.10.2018 19:00:00||PWC|10.40.24.67|||110000433262|10
31.10.2018 19:00:00||PWC|10.40.24.67|||110000433262|370
31.10.2018 19:00:00||PWC|10.40.24.67|||110000433262|30
31.10.2018 19:00:00||PWC|10.40.24.67|||110000433262|70
31.10.2018 19:00:00||PWC|10.40.24.67|||110000433262|120
31.10.2018 19:00:00||PWC|10.40.25.68|||110000433262|130
31.10.2018 19:00:00||PWC|10.40.25.68|||110000433262|188
31.10.2018 19:00:00||PWC|10.40.25.68|||110000433262|72
31.10.2018 19:00:00||PWC|10.40.25.68|||110000433262|78
31.10.2018 19:00:00||PWC|10.40.25.68|||110000433262|153
31.10.2018 19:00:00||PWC|10.40.24.66|||110000433262|60
31.10.2018 19:00:00||PWC|10.40.24.66|||110000433262|30
31.10.2018 19:00:00||PWC|10.40.24.66|||110000433262|30
31.10.2018 19:00:00||PWC|10.40.24.68|||110000433262|105
31.10.2018 19:00:00||PWC|10.40.24.68|||110000433262|152
31.10.2018 19:00:00||PWC|10.40.24.68|||110000433262|408
31.10.2018 19:00:00||PWC|10.40.24.68|||110000433262|75
31.10.2018 19:00:00||PWC|10.40.24.68|||110000433262|70
31.10.2018 19:00:00||VSMART BİLGİ TEKNOLOJİLERİ|10.40.24.62|||110000474326|44
31.10.2018 19:00:00||VSMART BİLGİ TEKNOLOJİLERİ|10.40.24.62|||110000474326|70
31.10.2018 19:00:00||VSMART BİLGİ TEKNOLOJİLERİ|10.40.24.62|||110000474326|40
31.10.2018 19:00:00||VSMART BİLGİ TEKNOLOJİLERİ|10.40.25.62|||110000474326|70
31.10.2018 19:00:00||VSMART BİLGİ TEKNOLOJİLERİ|10.40.24.62|||110000474326|46
31.10.2018 19:00:00||VSMART BİLGİ TEKNOLOJİLERİ|10.40.24.62|||110000474326|30
31.10.2018 19:00:00||VSMART BİLGİ TEKNOLOJİLERİ|10.40.24.62|||110000474326|10
31.10.2018 19:00:00||VSMART BİLGİ TEKNOLOJİLERİ|10.40.25.62|||110000474326|40
31.10.2018 19:00:00||VSMART BİLGİ TEKNOLOJİLERİ|10.40.25.62|||110000474326|10
31.10.2018 19:00:00||VSMART BİLGİ TEKNOLOJİLERİ|10.40.25.62|||110000474326|10
31.10.2018 19:00:00||VSMART BİLGİ TEKNOLOJİLERİ|10.40.25.62|||110000474326|80
31.10.2018 19:00:00||VSMART BİLGİ TEKNOLOJİLERİ|10.40.25.62|||110000474326|90
31.10.2018 19:00:00||VSMART BİLGİ TEKNOLOJİLERİ|10.40.25.62|||110000474326|110
31.10.2018 19:00:00||VSMART BİLGİ TEKNOLOJİLERİ|10.40.24.62|||110000474326|10
