9/23/2018 10:00:00 AM||HAVAS|10.40.24.45|||110000479675|398
9/23/2018 10:00:00 AM||HAVAS|10.40.25.46|||110000479675|490
9/23/2018 10:00:00 AM||HAVAS|10.40.24.47|||110000479675|1043
9/23/2018 10:00:00 AM||PWC|10.40.24.67|||110000433262|568
9/23/2018 10:00:00 AM||PWC|10.40.25.68|||110000433262|937
9/23/2018 10:00:00 AM||PWC|10.40.24.68|||110000433262|493
9/23/2018 10:00:00 AM||PWC|10.40.25.69|||110000433262|276
9/23/2018 10:00:00 AM||PWC|10.40.24.69|||110000433262|279
9/23/2018 10:00:00 AM||CALIK HOLDING|10.40.25.94|||110000438408|644
9/23/2018 10:00:00 AM||CALIK HOLDING|10.40.24.94|||110000438408|682
9/23/2018 10:00:00 AM||CALIK HOLDING|10.40.25.97|||110000438408|607
9/23/2018 10:00:00 AM||CALIK HOLDING|10.40.25.100|||110000438408|74
9/23/2018 10:00:00 AM||CALIK HOLDING|10.40.24.100|||110000438408|72
9/23/2018 10:00:00 AM||CALIK HOLDING|10.40.25.101|||110000438408|587
9/23/2018 10:00:00 AM||CALIK HOLDING|10.40.25.102|||110000438408|320
9/23/2018 10:00:00 AM||CALIK HOLDING|10.40.24.102|||110000438408|303
9/23/2018 10:00:00 AM||CALIK HOLDING|10.40.25.103|||110000438408|257
9/23/2018 10:00:00 AM||CALIK HOLDING|10.40.24.103|||110000438408|302
9/23/2018 10:00:00 AM||CALIK HOLDING|10.40.25.104|||110000438408|1112
9/23/2018 10:00:00 AM||CALIK HOLDING|10.40.25.115|||110000438408|512
9/23/2018 10:00:00 AM||CALIK HOLDING|10.40.24.115|||110000438408|521
9/23/2018 10:00:00 AM||CALIK HOLDING|10.40.25.116|||110000438408|473
9/23/2018 10:00:00 AM||CALIK HOLDING|10.40.24.116|||110000438408|460
9/23/2018 10:00:00 AM||CALIK HOLDING|10.40.25.117|||110000438408|296
9/23/2018 10:00:00 AM||CALIK HOLDING|10.40.24.117|||110000438408|273
9/23/2018 10:00:00 AM||CALIK HOLDING|10.40.25.119|||110000438408|68
9/23/2018 10:00:00 AM||CALIK HOLDING|10.40.24.119|||110000438408|214
9/23/2018 10:00:00 AM||CALIK HOLDING|10.40.25.120|||110000438408|571
9/23/2018 10:00:00 AM||CALIK HOLDING|10.40.24.120|||110000438408|556
9/23/2018 10:00:00 AM||CALIK HOLDING|10.40.25.121|||110000438408|307
9/23/2018 10:00:00 AM||CALIK HOLDING|10.40.24.121|||110000438408|323
9/23/2018 10:00:00 AM||CALIK HOLDING|10.40.25.122|||110000438408|253
9/23/2018 10:00:00 AM||CALIK HOLDING|10.40.24.122|||110000438408|290
9/23/2018 10:00:00 AM||AKTIFBANK|10.40.25.128|||110000438458|276
9/23/2018 10:00:00 AM||AKTIFBANK|10.40.24.128|||110000438458|465
9/23/2018 10:00:00 AM||AKTIFBANK|10.40.25.130|||110000438458|719
9/23/2018 10:00:00 AM||AKTIFBANK|10.40.24.130|||110000438458|667
9/23/2018 10:00:00 AM||AKTIFBANK|10.40.25.131|||110000438458|602
9/23/2018 10:00:00 AM||AKTIFBANK|10.40.24.131|||110000438458|635
9/23/2018 10:00:00 AM||AKTIFBANK|10.40.25.132|||110000438458|416
9/23/2018 10:00:00 AM||AKTIFBANK|10.40.24.132|||110000438458|409
9/23/2018 10:00:00 AM||AKTIFBANK|10.40.25.133|||110000438458|376
9/23/2018 10:00:00 AM||AKTIFBANK|10.40.24.133|||110000438458|664
9/23/2018 10:00:00 AM||AKTIFBANK|10.40.25.138|||110000438458|247
9/23/2018 10:00:00 AM||AKTIFBANK|10.40.24.138|||110000438458|550
9/23/2018 10:00:00 AM||AKTIFBANK|10.40.25.139|||110000438458|152
9/23/2018 10:00:00 AM||AKTIFBANK|10.40.24.139|||110000438458|230
9/23/2018 10:00:00 AM||AKTIFBANK|10.40.25.140|||110000438458|255
9/23/2018 10:00:00 AM||AKTIFBANK|10.40.24.140|||110000438458|346
9/23/2018 10:00:00 AM||AKTIFBANK|10.40.25.141|||110000438458|474
9/23/2018 10:00:00 AM||AKTIFBANK|10.40.24.141|||110000438458|634
9/23/2018 10:00:00 AM||AKTIFBANK|10.40.25.142|||110000438458|37
9/23/2018 10:00:00 AM||AKTIFBANK|10.40.24.142|||110000438458|114
9/23/2018 10:00:00 AM||AKTIFBANK|10.40.24.143|||110000438458|803
9/23/2018 10:00:00 AM||AKTIFBANK|10.40.25.144|||110000438458|183
9/23/2018 10:00:00 AM||AKTIFBANK|10.40.24.144|||110000438458|271
9/23/2018 10:00:00 AM||AKTIFBANK|10.40.25.145|||110000438458|293
9/23/2018 10:00:00 AM||AKTIFBANK|10.40.24.145|||110000438458|392
9/23/2018 10:00:00 AM||AKTIFBANK|10.40.25.147|||110000438458|87
9/23/2018 10:00:00 AM||AKTIFBANK|10.40.24.147|||110000438458|89
9/23/2018 10:00:00 AM||AKTIFBANK|10.40.25.148|||110000438458|965
9/23/2018 10:00:00 AM||AKTIFBANK|10.40.25.152|||110000438458|719
9/23/2018 10:00:00 AM||AKTIFBANK|10.40.25.153|||110000438458|218
9/23/2018 10:00:00 AM||AKTIFBANK|10.40.24.153|||110000438458|239
9/23/2018 10:00:00 AM||AKTIFBANK|10.40.25.154|||110000438458|40
9/23/2018 10:00:00 AM||AKTIFBANK|10.40.24.154|||110000438458|131
9/23/2018 10:00:00 AM||AKTIFBANK|10.40.25.155|||110000438458|465
9/23/2018 10:00:00 AM||AKTIFBANK|10.40.24.155|||110000438458|517
9/23/2018 10:00:00 AM||AKTIFBANK|10.40.25.157|||110000438458|322
9/23/2018 10:00:00 AM||AKTIFBANK|10.40.24.157|||110000438458|353
9/23/2018 10:00:00 AM||AKTIFBANK|10.40.25.158|||110000438458|159
9/23/2018 10:00:00 AM||AKTIFBANK|10.40.24.158|||110000438458|635
9/23/2018 10:00:00 AM||AKTIFBANK|10.40.25.159|||110000438458|157
9/23/2018 10:00:00 AM||AKTIFBANK|10.40.24.159|||110000438458|356
9/23/2018 10:00:00 AM||AKTIFBANK|10.40.25.160|||110000438458|190
9/23/2018 10:00:00 AM||AKTIFBANK|10.40.24.160|||110000438458|242
9/23/2018 10:00:00 AM||AKTIFBANK|10.40.25.161|||110000438458|241
9/23/2018 10:00:00 AM||AKTIFBANK|10.40.24.161|||110000438458|398
9/23/2018 10:00:00 AM||AKTIFBANK|10.40.25.162|||110000438458|238
9/23/2018 10:00:00 AM||AKTIFBANK|10.40.24.162|||110000438458|489
9/23/2018 10:00:00 AM||AKTIFBANK|10.40.25.163|||110000438458|44
9/23/2018 10:00:00 AM||AKTIFBANK|10.40.24.163|||110000438458|248
9/23/2018 10:00:00 AM||AKTIFBANK|10.40.25.164|||110000438458|852
9/23/2018 10:00:00 AM||AKTIFBANK|10.40.24.164|||110000438458|836
9/23/2018 10:00:00 AM||AKTIFBANK|10.40.25.165|||110000438458|319
9/23/2018 10:00:00 AM||AKTIFBANK|10.40.24.165|||110000438458|348
9/23/2018 10:00:00 AM||AKTIFBANK|10.40.25.166|||110000438458|136
9/23/2018 10:00:00 AM||AKTIFBANK|10.40.24.166|||110000438458|215
9/23/2018 10:00:00 AM||AKTIFBANK|10.40.25.168|||110000438458|307
9/23/2018 10:00:00 AM||AKTIFBANK|10.40.24.168|||110000438458|380
9/23/2018 10:00:00 AM||AKTIFBANK|10.40.25.169|||110000438458|333
9/23/2018 10:00:00 AM||AKTIFBANK|10.40.24.169|||110000438458|310
9/23/2018 10:00:00 AM||AKTIFBANK|10.40.25.170|||110000438458|556
9/23/2018 10:00:00 AM||AKTIFBANK|10.40.24.170|||110000438458|857
9/23/2018 10:00:00 AM||AKTIFBANK|10.40.25.179|||110000438458|920
9/23/2018 10:00:00 AM||AKTIFBANK|10.40.24.179|||110000438458|1027
9/23/2018 10:00:00 AM||AKTIFBANK|10.40.25.186|||110000438458|180
9/23/2018 10:00:00 AM||AKTIFBANK|10.40.24.186|||110000438458|209
9/23/2018 10:00:00 AM||MARS CINEMA|10.40.25.203|||110000472614|1346
9/23/2018 10:00:00 AM||MARS CINEMA|10.40.24.203|||110000472614|1344
9/23/2018 10:00:00 AM||MARS CINEMA|10.40.25.206|||110000472614|445
9/23/2018 10:00:00 AM||PEGASUS|10.40.26.63|||110000423831|1673
9/23/2018 10:00:00 AM||PEGASUS|10.40.26.64|||110000423831|155
9/23/2018 10:00:00 AM||PEGASUS|10.40.27.67|||110000423831|1235
9/23/2018 10:00:00 AM||PEGASUS|10.40.27.68|||110000423831|319
9/23/2018 10:00:00 AM||PEGASUS|10.40.27.87|||110000423831|271
9/23/2018 10:00:00 AM||PEGASUS|10.40.26.87|||110000423831|293
9/23/2018 10:00:00 AM||BOYNER|10.40.27.95|||101367941673|446
9/23/2018 10:00:00 AM||BOYNER|10.40.26.95|||101367941673|413
9/23/2018 10:00:00 AM||BOYNER|10.40.27.96|||101367941673|834
9/23/2018 10:00:00 AM||BOYNER|10.40.26.96|||101367941673|911
9/23/2018 10:00:00 AM||BOYNER|10.40.27.99|||101367941673|268
9/23/2018 10:00:00 AM||BOYNER|10.40.26.99|||101367941673|305
