10.10.2018 13:00:00||AKTİFBANK|10.40.24.172|||110000438458|96
10.10.2018 13:00:00||AKTİFBANK|10.40.25.134|||110000438458|93
10.10.2018 13:00:00||AKTİFBANK|10.40.24.134|||110000438458|93
10.10.2018 13:00:00||AKTİFBANK|10.40.24.135|||110000438458|106
10.10.2018 13:00:00||AKTİFBANK|10.40.25.137|||110000438458|57
10.10.2018 13:00:00||AKTİFBANK|10.40.25.171|||110000438458|12
10.10.2018 13:00:00||AKTİFBANK|10.40.25.172|||110000438458|91
10.10.2018 13:00:00||AKTİFBANK|10.40.25.174|||110000438458|53
10.10.2018 13:00:00||AKTİFBANK|10.40.25.135|||110000438458|100
10.10.2018 13:00:00||AKTİFBANK|10.40.24.137|||110000438458|57
10.10.2018 13:00:00||AKTİFBANK|10.40.24.171|||110000438458|12
10.10.2018 13:00:00||AKTİFBANK|10.40.24.173|||110000438458|92
10.10.2018 13:00:00||AKTİFBANK|10.40.24.174|||110000438458|60
10.10.2018 13:00:00||AKTİFBANK|10.40.24.133|||110000438458|92
10.10.2018 13:00:00||AKTİFBANK|10.40.24.138|||110000438458|120
10.10.2018 13:00:00||AKTİFBANK|10.40.24.139|||110000438458|30
10.10.2018 13:00:00||AKTİFBANK|10.40.24.149|||110000438458|110
10.10.2018 13:00:00||AKTİFBANK|10.40.24.150|||110000438458|553
10.10.2018 13:00:00||AKTİFBANK|10.40.24.145|||110000438458|60
10.10.2018 13:00:00||AKTİFBANK|10.40.24.164|||110000438458|227
10.10.2018 13:00:00||AKTİFBANK|10.40.25.133|||110000438458|63
10.10.2018 13:00:00||AKTİFBANK|10.40.24.145|||110000438458|90
10.10.2018 13:00:00||AKTİFBANK|10.40.24.158|||110000438458|82
10.10.2018 13:00:00||AKTİFBANK|10.40.24.164|||110000438458|70
10.10.2018 13:00:00||AKTİFBANK|10.40.25.138|||110000438458|80
10.10.2018 13:00:00||AKTİFBANK|10.40.25.139|||110000438458|10
10.10.2018 13:00:00||AKTİFBANK|10.40.25.140|||110000438458|30
10.10.2018 13:00:00||AKTİFBANK|10.40.25.151|||110000438458|508
10.10.2018 13:00:00||AKTİFBANK|10.40.25.141|||110000438458|100
10.10.2018 13:00:00||AKTİFBANK|10.40.25.141|||110000438458|87
10.10.2018 13:00:00||AKTİFBANK|10.40.25.142|||110000438458|77
10.10.2018 13:00:00||AKTİFBANK|10.40.25.133|||110000438458|110
10.10.2018 13:00:00||AKTİFBANK|10.40.25.149|||110000438458|102
10.10.2018 13:00:00||AKTİFBANK|10.40.25.149|||110000438458|90
10.10.2018 13:00:00||AKTİFBANK|10.40.25.149|||110000438458|90
10.10.2018 13:00:00||AKTİFBANK|10.40.25.140|||110000438458|30
10.10.2018 13:00:00||AKTİFBANK|10.40.25.150|||110000438458|547
10.10.2018 13:00:00||AKTİFBANK|10.40.25.139|||110000438458|170
10.10.2018 13:00:00||AKTİFBANK|10.40.25.139|||110000438458|40
10.10.2018 13:00:00||AKTİFBANK|10.40.25.140|||110000438458|80
10.10.2018 13:00:00||AKTİFBANK|10.40.25.140|||110000438458|70
10.10.2018 13:00:00||AKTİFBANK|10.40.25.140|||110000438458|30
10.10.2018 13:00:00||AKTİFBANK|10.40.25.151|||110000438458|523
10.10.2018 13:00:00||AKTİFBANK|10.40.25.151|||110000438458|502
10.10.2018 13:00:00||AKTİFBANK|10.40.25.141|||110000438458|40
10.10.2018 13:00:00||AKTİFBANK|10.40.25.141|||110000438458|100
10.10.2018 13:00:00||AKTİFBANK|10.40.25.141|||110000438458|72
10.10.2018 13:00:00||AKTİFBANK|10.40.25.142|||110000438458|40
10.10.2018 13:00:00||AKTİFBANK|10.40.25.149|||110000438458|70
10.10.2018 13:00:00||AKTİFBANK|10.40.25.149|||110000438458|110
10.10.2018 13:00:00||AKTİFBANK|10.40.25.149|||110000438458|95
10.10.2018 13:00:00||AKTİFBANK|10.40.25.149|||110000438458|92
10.10.2018 13:00:00||AKTİFBANK|10.40.25.149|||110000438458|110
10.10.2018 13:00:00||AKTİFBANK|10.40.24.139|||110000438458|62
10.10.2018 13:00:00||AKTİFBANK|10.40.25.153|||110000438458|10
10.10.2018 13:00:00||AKTİFBANK|10.40.25.150|||110000438458|557
10.10.2018 13:00:00||AKTİFBANK|10.40.25.153|||110000438458|70
10.10.2018 13:00:00||AKTİFBANK|10.40.25.163|||110000438458|50
10.10.2018 13:00:00||AKTİFBANK|10.40.24.141|||110000438458|65
10.10.2018 13:00:00||AKTİFBANK|10.40.24.151|||110000438458|513
10.10.2018 13:00:00||AKTİFBANK|10.40.25.153|||110000438458|80
10.10.2018 13:00:00||AKTİFBANK|10.40.24.149|||110000438458|93
10.10.2018 13:00:00||AKTİFBANK|10.40.24.141|||110000438458|50
10.10.2018 13:00:00||AKTİFBANK|10.40.25.133|||110000438458|277
10.10.2018 13:00:00||AKTİFBANK|10.40.25.133|||110000438458|90
10.10.2018 13:00:00||AKTİFBANK|10.40.24.149|||110000438458|92
10.10.2018 13:00:00||AKTİFBANK|10.40.24.162|||110000438458|210
10.10.2018 13:00:00||AKTİFBANK|10.40.24.162|||110000438458|30
10.10.2018 13:00:00||AKTİFBANK|10.40.24.162|||110000438458|40
10.10.2018 13:00:00||AKTİFBANK|10.40.25.133|||110000438458|148
10.10.2018 13:00:00||AKTİFBANK|10.40.25.138|||110000438458|130
10.10.2018 13:00:00||AKTİFBANK|10.40.25.149|||110000438458|83
10.10.2018 13:00:00||AKTİFBANK|10.40.25.149|||110000438458|70
10.10.2018 13:00:00||AKTİFBANK|10.40.25.149|||110000438458|30
10.10.2018 13:00:00||AKTİFBANK|10.40.25.149|||110000438458|73
10.10.2018 13:00:00||AKTİFBANK|10.40.25.149|||110000438458|70
10.10.2018 13:00:00||AKTİFBANK|10.40.25.141|||110000438458|100
10.10.2018 13:00:00||AKTİFBANK|10.40.25.149|||110000438458|132
10.10.2018 13:00:00||AKTİFBANK|10.40.25.138|||110000438458|90
10.10.2018 13:00:00||AKTİFBANK|10.40.25.138|||110000438458|73
10.10.2018 13:00:00||AKTİFBANK|10.40.25.139|||110000438458|105
10.10.2018 13:00:00||AKTİFBANK|10.40.24.145|||110000438458|70
10.10.2018 13:00:00||AKTİFBANK|10.40.24.149|||110000438458|160
10.10.2018 13:00:00||AKTİFBANK|10.40.25.138|||110000438458|32
10.10.2018 13:00:00||AKTİFBANK|10.40.25.138|||110000438458|10
10.10.2018 13:00:00||AKTİFBANK|10.40.25.153|||110000438458|60
10.10.2018 13:00:00||AKTİFBANK|10.40.24.150|||110000438458|555
10.10.2018 13:00:00||AKTİFBANK|10.40.25.128|||110000438458|70
10.10.2018 13:00:00||AKTİFBANK|10.40.25.128|||110000438458|90
10.10.2018 13:00:00||AKTİFBANK|10.40.25.128|||110000438458|90
10.10.2018 13:00:00||AKTİFBANK|10.40.25.128|||110000438458|40
10.10.2018 13:00:00||AKTİFBANK|10.40.25.128|||110000438458|70
10.10.2018 13:00:00||AKTİFBANK|10.40.25.129|||110000438458|85
10.10.2018 13:00:00||AKTİFBANK|10.40.25.129|||110000438458|65
10.10.2018 13:00:00||AKTİFBANK|10.40.25.129|||110000438458|130
10.10.2018 13:00:00||AKTİFBANK|10.40.25.129|||110000438458|100
10.10.2018 13:00:00||AKTİFBANK|10.40.25.129|||110000438458|40
10.10.2018 13:00:00||AKTİFBANK|10.40.25.129|||110000438458|98
10.10.2018 13:00:00||AKTİFBANK|10.40.25.129|||110000438458|103
10.10.2018 13:00:00||AKTİFBANK|10.40.25.130|||110000438458|72
10.10.2018 13:00:00||AKTİFBANK|10.40.25.130|||110000438458|50
10.10.2018 13:00:00||AKTİFBANK|10.40.25.130|||110000438458|77
10.10.2018 13:00:00||AKTİFBANK|10.40.25.130|||110000438458|33
10.10.2018 13:00:00||AKTİFBANK|10.40.25.130|||110000438458|60
10.10.2018 13:00:00||AKTİFBANK|10.40.25.130|||110000438458|100
10.10.2018 13:00:00||AKTİFBANK|10.40.25.130|||110000438458|85
10.10.2018 13:00:00||AKTİFBANK|10.40.25.131|||110000438458|20
10.10.2018 13:00:00||AKTİFBANK|10.40.25.131|||110000438458|70
10.10.2018 13:00:00||AKTİFBANK|10.40.25.131|||110000438458|100
10.10.2018 13:00:00||AKTİFBANK|10.40.25.131|||110000438458|103
10.10.2018 13:00:00||AKTİFBANK|10.40.25.131|||110000438458|93
10.10.2018 13:00:00||AKTİFBANK|10.40.25.131|||110000438458|80
10.10.2018 13:00:00||AKTİFBANK|10.40.25.131|||110000438458|20
10.10.2018 13:00:00||AKTİFBANK|10.40.25.131|||110000438458|120
10.10.2018 13:00:00||AKTİFBANK|10.40.25.132|||110000438458|60
10.10.2018 13:00:00||AKTİFBANK|10.40.25.132|||110000438458|77
10.10.2018 13:00:00||AKTİFBANK|10.40.25.132|||110000438458|80
10.10.2018 13:00:00||AKTİFBANK|10.40.25.132|||110000438458|160
10.10.2018 13:00:00||AKTİFBANK|10.40.25.132|||110000438458|62
10.10.2018 13:00:00||AKTİFBANK|10.40.25.143|||110000438458|302
10.10.2018 13:00:00||AKTİFBANK|10.40.25.144|||110000438458|80
10.10.2018 13:00:00||AKTİFBANK|10.40.25.144|||110000438458|50
10.10.2018 13:00:00||AKTİFBANK|10.40.25.144|||110000438458|20
10.10.2018 13:00:00||AKTİFBANK|10.40.25.154|||110000438458|10
10.10.2018 13:00:00||AKTİFBANK|10.40.25.154|||110000438458|10
10.10.2018 13:00:00||AKTİFBANK|10.40.25.154|||110000438458|10
10.10.2018 13:00:00||AKTİFBANK|10.40.25.157|||110000438458|70
10.10.2018 13:00:00||AKTİFBANK|10.40.25.157|||110000438458|70
10.10.2018 13:00:00||AKTİFBANK|10.40.25.157|||110000438458|72
10.10.2018 13:00:00||AKTİFBANK|10.40.25.157|||110000438458|83
10.10.2018 13:00:00||AKTİFBANK|10.40.25.157|||110000438458|40
10.10.2018 13:00:00||AKTİFBANK|10.40.25.159|||110000438458|60
10.10.2018 13:00:00||AKTİFBANK|10.40.25.159|||110000438458|10
10.10.2018 13:00:00||AKTİFBANK|10.40.25.159|||110000438458|90
10.10.2018 13:00:00||AKTİFBANK|10.40.25.158|||110000438458|93
10.10.2018 13:00:00||AKTİFBANK|10.40.25.158|||110000438458|77
10.10.2018 13:00:00||AKTİFBANK|10.40.25.158|||110000438458|43
10.10.2018 13:00:00||AKTİFBANK|10.40.25.158|||110000438458|50
10.10.2018 13:00:00||AKTİFBANK|10.40.25.160|||110000438458|92
10.10.2018 13:00:00||AKTİFBANK|10.40.25.161|||110000438458|80
10.10.2018 13:00:00||AKTİFBANK|10.40.25.161|||110000438458|70
10.10.2018 13:00:00||AKTİFBANK|10.40.25.161|||110000438458|40
10.10.2018 13:00:00||AKTİFBANK|10.40.25.161|||110000438458|30
10.10.2018 13:00:00||AKTİFBANK|10.40.25.161|||110000438458|20
10.10.2018 13:00:00||AKTİFBANK|10.40.25.161|||110000438458|60
10.10.2018 13:00:00||AKTİFBANK|10.40.25.145|||110000438458|90
10.10.2018 13:00:00||AKTİFBANK|10.40.25.145|||110000438458|60
10.10.2018 13:00:00||AKTİFBANK|10.40.25.145|||110000438458|60
10.10.2018 13:00:00||AKTİFBANK|10.40.25.145|||110000438458|30
10.10.2018 13:00:00||AKTİFBANK|10.40.25.145|||110000438458|50
10.10.2018 13:00:00||AKTİFBANK|10.40.25.147|||110000438458|90
10.10.2018 13:00:00||AKTİFBANK|10.40.25.162|||110000438458|30
10.10.2018 13:00:00||AKTİFBANK|10.40.25.162|||110000438458|30
10.10.2018 13:00:00||AKTİFBANK|10.40.25.162|||110000438458|60
10.10.2018 13:00:00||AKTİFBANK|10.40.25.164|||110000438458|60
10.10.2018 13:00:00||AKTİFBANK|10.40.25.164|||110000438458|280
10.10.2018 13:00:00||AKTİFBANK|10.40.25.164|||110000438458|50
10.10.2018 13:00:00||AKTİFBANK|10.40.25.164|||110000438458|260
10.10.2018 13:00:00||AKTİFBANK|10.40.25.164|||110000438458|270
10.10.2018 13:00:00||AKTİFBANK|10.40.25.165|||110000438458|110
10.10.2018 13:00:00||AKTİFBANK|10.40.25.165|||110000438458|70
10.10.2018 13:00:00||AKTİFBANK|10.40.25.165|||110000438458|80
10.10.2018 13:00:00||AKTİFBANK|10.40.25.165|||110000438458|102
10.10.2018 13:00:00||AKTİFBANK|10.40.25.166|||110000438458|90
10.10.2018 13:00:00||AKTİFBANK|10.40.25.166|||110000438458|10
10.10.2018 13:00:00||AKTİFBANK|10.40.25.166|||110000438458|10
10.10.2018 13:00:00||AKTİFBANK|10.40.25.166|||110000438458|10
10.10.2018 13:00:00||AKTİFBANK|10.40.25.166|||110000438458|40
10.10.2018 13:00:00||AKTİFBANK|10.40.25.148|||110000438458|130
10.10.2018 13:00:00||AKTİFBANK|10.40.25.148|||110000438458|50
10.10.2018 13:00:00||AKTİFBANK|10.40.25.148|||110000438458|100
10.10.2018 13:00:00||AKTİFBANK|10.40.25.148|||110000438458|130
10.10.2018 13:00:00||AKTİFBANK|10.40.25.148|||110000438458|90
10.10.2018 13:00:00||AKTİFBANK|10.40.25.148|||110000438458|80
10.10.2018 13:00:00||AKTİFBANK|10.40.25.148|||110000438458|70
10.10.2018 13:00:00||AKTİFBANK|10.40.25.148|||110000438458|50
10.10.2018 13:00:00||AKTİFBANK|10.40.25.148|||110000438458|80
10.10.2018 13:00:00||AKTİFBANK|10.40.25.148|||110000438458|40
10.10.2018 13:00:00||AKTİFBANK|10.40.25.148|||110000438458|100
10.10.2018 13:00:00||AKTİFBANK|10.40.25.148|||110000438458|60
10.10.2018 13:00:00||AKTİFBANK|10.40.25.155|||110000438458|70
10.10.2018 13:00:00||AKTİFBANK|10.40.25.155|||110000438458|90
10.10.2018 13:00:00||AKTİFBANK|10.40.25.155|||110000438458|110
10.10.2018 13:00:00||AKTİFBANK|10.40.25.155|||110000438458|120
10.10.2018 13:00:00||AKTİFBANK|10.40.25.155|||110000438458|105
10.10.2018 13:00:00||AKTİFBANK|10.40.25.156|||110000438458|20
10.10.2018 13:00:00||AKTİFBANK|10.40.25.156|||110000438458|20
10.10.2018 13:00:00||AKTİFBANK|10.40.25.139|||110000438458|73
10.10.2018 13:00:00||AKTİFBANK|10.40.25.139|||110000438458|80
10.10.2018 13:00:00||AKTİFBANK|10.40.25.150|||110000438458|527
10.10.2018 13:00:00||AKTİFBANK|10.40.25.129|||110000438458|67
10.10.2018 13:00:00||AKTİFBANK|10.40.25.129|||110000438458|88
10.10.2018 13:00:00||AKTİFBANK|10.40.25.129|||110000438458|140
10.10.2018 13:00:00||AKTİFBANK|10.40.25.130|||110000438458|67
10.10.2018 13:00:00||AKTİFBANK|10.40.25.130|||110000438458|128
10.10.2018 13:00:00||AKTİFBANK|10.40.25.130|||110000438458|100
10.10.2018 13:00:00||AKTİFBANK|10.40.25.131|||110000438458|45
10.10.2018 13:00:00||AKTİFBANK|10.40.25.143|||110000438458|60
10.10.2018 13:00:00||AKTİFBANK|10.40.25.143|||110000438458|243
10.10.2018 13:00:00||AKTİFBANK|10.40.25.143|||110000438458|255
10.10.2018 13:00:00||AKTİFBANK|10.40.25.158|||110000438458|107
10.10.2018 13:00:00||AKTİFBANK|10.40.25.160|||110000438458|110
10.10.2018 13:00:00||AKTİFBANK|10.40.25.162|||110000438458|30
10.10.2018 13:00:00||AKTİFBANK|10.40.25.162|||110000438458|40
10.10.2018 13:00:00||AKTİFBANK|10.40.24.140|||110000438458|162
10.10.2018 13:00:00||AKTİFBANK|10.40.24.140|||110000438458|80
10.10.2018 13:00:00||AKTİFBANK|10.40.24.140|||110000438458|40
10.10.2018 13:00:00||AKTİFBANK|10.40.24.140|||110000438458|30
10.10.2018 13:00:00||AKTİFBANK|10.40.24.140|||110000438458|30
10.10.2018 13:00:00||AKTİFBANK|10.40.24.140|||110000438458|28
10.10.2018 13:00:00||AKTİFBANK|10.40.24.149|||110000438458|80
10.10.2018 13:00:00||AKTİFBANK|10.40.24.149|||110000438458|120
10.10.2018 13:00:00||AKTİFBANK|10.40.24.149|||110000438458|93
10.10.2018 13:00:00||AKTİFBANK|10.40.24.149|||110000438458|73
10.10.2018 13:00:00||AKTİFBANK|10.40.24.149|||110000438458|52
10.10.2018 13:00:00||AKTİFBANK|10.40.24.149|||110000438458|140
10.10.2018 13:00:00||AKTİFBANK|10.40.24.149|||110000438458|90
10.10.2018 13:00:00||AKTİFBANK|10.40.24.149|||110000438458|90
10.10.2018 13:00:00||AKTİFBANK|10.40.24.149|||110000438458|102
10.10.2018 13:00:00||AKTİFBANK|10.40.24.149|||110000438458|80
10.10.2018 13:00:00||AKTİFBANK|10.40.24.133|||110000438458|145
10.10.2018 13:00:00||AKTİFBANK|10.40.24.133|||110000438458|120
10.10.2018 13:00:00||AKTİFBANK|10.40.24.133|||110000438458|88
10.10.2018 13:00:00||AKTİFBANK|10.40.24.138|||110000438458|113
10.10.2018 13:00:00||AKTİFBANK|10.40.24.138|||110000438458|140
10.10.2018 13:00:00||AKTİFBANK|10.40.24.138|||110000438458|117
10.10.2018 13:00:00||AKTİFBANK|10.40.24.138|||110000438458|33
10.10.2018 13:00:00||AKTİFBANK|10.40.24.138|||110000438458|50
10.10.2018 13:00:00||AKTİFBANK|10.40.24.139|||110000438458|92
10.10.2018 13:00:00||AKTİFBANK|10.40.24.139|||110000438458|123
10.10.2018 13:00:00||AKTİFBANK|10.40.24.141|||110000438458|200
10.10.2018 13:00:00||AKTİFBANK|10.40.24.141|||110000438458|100
10.10.2018 13:00:00||AKTİFBANK|10.40.24.141|||110000438458|100
10.10.2018 13:00:00||AKTİFBANK|10.40.24.141|||110000438458|70
10.10.2018 13:00:00||AKTİFBANK|10.40.24.141|||110000438458|80
10.10.2018 13:00:00||AKTİFBANK|10.40.25.152|||110000438458|122
10.10.2018 13:00:00||AKTİFBANK|10.40.25.152|||110000438458|43
10.10.2018 13:00:00||AKTİFBANK|10.40.25.152|||110000438458|113
10.10.2018 13:00:00||AKTİFBANK|10.40.25.152|||110000438458|68
10.10.2018 13:00:00||AKTİFBANK|10.40.25.152|||110000438458|88
10.10.2018 13:00:00||AKTİFBANK|10.40.25.152|||110000438458|82
10.10.2018 13:00:00||AKTİFBANK|10.40.25.152|||110000438458|50
10.10.2018 13:00:00||AKTİFBANK|10.40.25.152|||110000438458|90
10.10.2018 13:00:00||AKTİFBANK|10.40.25.152|||110000438458|30
10.10.2018 13:00:00||AKTİFBANK|10.40.25.152|||110000438458|80
10.10.2018 13:00:00||AKTİFBANK|10.40.25.152|||110000438458|30
10.10.2018 13:00:00||AKTİFBANK|10.40.24.150|||110000438458|565
10.10.2018 13:00:00||AKTİFBANK|10.40.24.151|||110000438458|522
10.10.2018 13:00:00||AKTİFBANK|10.40.24.151|||110000438458|532
10.10.2018 13:00:00||AKTİFBANK|10.40.24.128|||110000438458|60
10.10.2018 13:00:00||AKTİFBANK|10.40.24.128|||110000438458|70
10.10.2018 13:00:00||AKTİFBANK|10.40.24.128|||110000438458|100
10.10.2018 13:00:00||AKTİFBANK|10.40.24.128|||110000438458|40
10.10.2018 13:00:00||AKTİFBANK|10.40.24.128|||110000438458|70
10.10.2018 13:00:00||AKTİFBANK|10.40.24.128|||110000438458|40
10.10.2018 13:00:00||AKTİFBANK|10.40.24.129|||110000438458|100
10.10.2018 13:00:00||AKTİFBANK|10.40.24.129|||110000438458|70
10.10.2018 13:00:00||AKTİFBANK|10.40.24.129|||110000438458|100
10.10.2018 13:00:00||AKTİFBANK|10.40.24.129|||110000438458|110
10.10.2018 13:00:00||AKTİFBANK|10.40.24.129|||110000438458|33
10.10.2018 13:00:00||AKTİFBANK|10.40.24.129|||110000438458|73
10.10.2018 13:00:00||AKTİFBANK|10.40.24.129|||110000438458|77
10.10.2018 13:00:00||AKTİFBANK|10.40.24.129|||110000438458|90
10.10.2018 13:00:00||AKTİFBANK|10.40.24.129|||110000438458|80
10.10.2018 13:00:00||AKTİFBANK|10.40.24.129|||110000438458|142
10.10.2018 13:00:00||AKTİFBANK|10.40.24.130|||110000438458|48
10.10.2018 13:00:00||AKTİFBANK|10.40.24.130|||110000438458|40
10.10.2018 13:00:00||AKTİFBANK|10.40.24.130|||110000438458|67
10.10.2018 13:00:00||AKTİFBANK|10.40.24.130|||110000438458|42
10.10.2018 13:00:00||AKTİFBANK|10.40.24.130|||110000438458|60
10.10.2018 13:00:00||AKTİFBANK|10.40.24.130|||110000438458|75
10.10.2018 13:00:00||AKTİFBANK|10.40.24.130|||110000438458|85
10.10.2018 13:00:00||AKTİFBANK|10.40.24.130|||110000438458|35
10.10.2018 13:00:00||AKTİFBANK|10.40.24.130|||110000438458|130
10.10.2018 13:00:00||AKTİFBANK|10.40.24.130|||110000438458|110
10.10.2018 13:00:00||AKTİFBANK|10.40.24.131|||110000438458|83
10.10.2018 13:00:00||AKTİFBANK|10.40.24.131|||110000438458|90
10.10.2018 13:00:00||AKTİFBANK|10.40.24.131|||110000438458|110
10.10.2018 13:00:00||AKTİFBANK|10.40.24.131|||110000438458|112
10.10.2018 13:00:00||AKTİFBANK|10.40.24.131|||110000438458|27
10.10.2018 13:00:00||AKTİFBANK|10.40.24.131|||110000438458|160
10.10.2018 13:00:00||AKTİFBANK|10.40.24.131|||110000438458|60
10.10.2018 13:00:00||AKTİFBANK|10.40.24.131|||110000438458|110
10.10.2018 13:00:00||AKTİFBANK|10.40.24.132|||110000438458|32
10.10.2018 13:00:00||AKTİFBANK|10.40.24.132|||110000438458|93
10.10.2018 13:00:00||AKTİFBANK|10.40.24.132|||110000438458|50
10.10.2018 13:00:00||AKTİFBANK|10.40.24.132|||110000438458|185
10.10.2018 13:00:00||AKTİFBANK|10.40.24.132|||110000438458|70
10.10.2018 13:00:00||AKTİFBANK|10.40.24.143|||110000438458|60
10.10.2018 13:00:00||AKTİFBANK|10.40.24.143|||110000438458|270
10.10.2018 13:00:00||AKTİFBANK|10.40.24.143|||110000438458|327
10.10.2018 13:00:00||AKTİFBANK|10.40.24.143|||110000438458|205
10.10.2018 13:00:00||AKTİFBANK|10.40.24.144|||110000438458|72
10.10.2018 13:00:00||AKTİFBANK|10.40.24.144|||110000438458|105
10.10.2018 13:00:00||AKTİFBANK|10.40.24.144|||110000438458|130
10.10.2018 13:00:00||AKTİFBANK|10.40.24.148|||110000438458|65
10.10.2018 13:00:00||AKTİFBANK|10.40.24.148|||110000438458|170
10.10.2018 13:00:00||AKTİFBANK|10.40.24.148|||110000438458|83
10.10.2018 13:00:00||AKTİFBANK|10.40.24.148|||110000438458|110
10.10.2018 13:00:00||AKTİFBANK|10.40.24.148|||110000438458|83
10.10.2018 13:00:00||AKTİFBANK|10.40.24.148|||110000438458|83
10.10.2018 13:00:00||AKTİFBANK|10.40.24.148|||110000438458|92
10.10.2018 13:00:00||AKTİFBANK|10.40.24.148|||110000438458|100
10.10.2018 13:00:00||AKTİFBANK|10.40.24.148|||110000438458|87
10.10.2018 13:00:00||AKTİFBANK|10.40.24.148|||110000438458|65
10.10.2018 13:00:00||AKTİFBANK|10.40.24.148|||110000438458|25
10.10.2018 13:00:00||AKTİFBANK|10.40.24.148|||110000438458|75
10.10.2018 13:00:00||AKTİFBANK|10.40.24.153|||110000438458|10
10.10.2018 13:00:00||AKTİFBANK|10.40.24.153|||110000438458|92
10.10.2018 13:00:00||AKTİFBANK|10.40.24.153|||110000438458|72
10.10.2018 13:00:00||AKTİFBANK|10.40.24.153|||110000438458|75
10.10.2018 13:00:00||AKTİFBANK|10.40.24.157|||110000438458|30
10.10.2018 13:00:00||AKTİFBANK|10.40.24.157|||110000438458|80
10.10.2018 13:00:00||AKTİFBANK|10.40.24.157|||110000438458|70
10.10.2018 13:00:00||AKTİFBANK|10.40.24.157|||110000438458|42
10.10.2018 13:00:00||AKTİFBANK|10.40.24.157|||110000438458|82
10.10.2018 13:00:00||AKTİFBANK|10.40.24.157|||110000438458|43
10.10.2018 13:00:00||AKTİFBANK|10.40.24.158|||110000438458|80
10.10.2018 13:00:00||AKTİFBANK|10.40.24.158|||110000438458|110
10.10.2018 13:00:00||AKTİFBANK|10.40.24.159|||110000438458|132
10.10.2018 13:00:00||AKTİFBANK|10.40.24.159|||110000438458|57
10.10.2018 13:00:00||AKTİFBANK|10.40.24.159|||110000438458|182
10.10.2018 13:00:00||AKTİFBANK|10.40.24.160|||110000438458|50
10.10.2018 13:00:00||AKTİFBANK|10.40.24.160|||110000438458|90
10.10.2018 13:00:00||AKTİFBANK|10.40.24.160|||110000438458|102
10.10.2018 13:00:00||AKTİFBANK|10.40.24.161|||110000438458|202
10.10.2018 13:00:00||AKTİFBANK|10.40.24.161|||110000438458|80
10.10.2018 13:00:00||AKTİFBANK|10.40.24.161|||110000438458|40
10.10.2018 13:00:00||AKTİFBANK|10.40.24.161|||110000438458|30
10.10.2018 13:00:00||AKTİFBANK|10.40.24.161|||110000438458|30
10.10.2018 13:00:00||AKTİFBANK|10.40.24.161|||110000438458|20
10.10.2018 13:00:00||AKTİFBANK|10.40.24.161|||110000438458|90
10.10.2018 13:00:00||AKTİFBANK|10.40.24.145|||110000438458|20
10.10.2018 13:00:00||AKTİFBANK|10.40.24.145|||110000438458|70
10.10.2018 13:00:00||AKTİFBANK|10.40.24.145|||110000438458|60
10.10.2018 13:00:00||AKTİFBANK|10.40.24.147|||110000438458|90
10.10.2018 13:00:00||AKTİFBANK|10.40.24.162|||110000438458|40
10.10.2018 13:00:00||AKTİFBANK|10.40.24.162|||110000438458|40
10.10.2018 13:00:00||AKTİFBANK|10.40.24.162|||110000438458|127
10.10.2018 13:00:00||AKTİFBANK|10.40.24.162|||110000438458|10
10.10.2018 13:00:00||AKTİFBANK|10.40.24.162|||110000438458|48
10.10.2018 13:00:00||AKTİFBANK|10.40.24.163|||110000438458|30
10.10.2018 13:00:00||AKTİFBANK|10.40.24.163|||110000438458|82
10.10.2018 13:00:00||AKTİFBANK|10.40.24.164|||110000438458|60
10.10.2018 13:00:00||AKTİFBANK|10.40.24.164|||110000438458|330
10.10.2018 13:00:00||AKTİFBANK|10.40.24.164|||110000438458|220
10.10.2018 13:00:00||AKTİFBANK|10.40.24.165|||110000438458|78
10.10.2018 13:00:00||AKTİFBANK|10.40.24.165|||110000438458|80
10.10.2018 13:00:00||AKTİFBANK|10.40.24.165|||110000438458|50
10.10.2018 13:00:00||AKTİFBANK|10.40.24.165|||110000438458|125
10.10.2018 13:00:00||AKTİFBANK|10.40.24.166|||110000438458|82
10.10.2018 13:00:00||AKTİFBANK|10.40.24.166|||110000438458|90
10.10.2018 13:00:00||AKTİFBANK|10.40.24.166|||110000438458|10
10.10.2018 13:00:00||AKTİFBANK|10.40.25.168|||110000438458|90
10.10.2018 13:00:00||AKTİFBANK|10.40.25.168|||110000438458|70
10.10.2018 13:00:00||AKTİFBANK|10.40.25.168|||110000438458|50
10.10.2018 13:00:00||AKTİFBANK|10.40.25.168|||110000438458|40
10.10.2018 13:00:00||AKTİFBANK|10.40.25.168|||110000438458|60
10.10.2018 13:00:00||AKTİFBANK|10.40.24.168|||110000438458|90
10.10.2018 13:00:00||AKTİFBANK|10.40.24.168|||110000438458|40
10.10.2018 13:00:00||AKTİFBANK|10.40.24.168|||110000438458|80
10.10.2018 13:00:00||AKTİFBANK|10.40.24.168|||110000438458|70
10.10.2018 13:00:00||AKTİFBANK|10.40.24.168|||110000438458|70
10.10.2018 13:00:00||AKTİFBANK|10.40.24.168|||110000438458|30
10.10.2018 13:00:00||AKTİFBANK|10.40.24.154|||110000438458|70
10.10.2018 13:00:00||AKTİFBANK|10.40.24.154|||110000438458|17
10.10.2018 13:00:00||AKTİFBANK|10.40.24.154|||110000438458|10
10.10.2018 13:00:00||AKTİFBANK|10.40.24.154|||110000438458|10
10.10.2018 13:00:00||AKTİFBANK|10.40.24.154|||110000438458|10
10.10.2018 13:00:00||AKTİFBANK|10.40.24.154|||110000438458|10
10.10.2018 13:00:00||AKTİFBANK|10.40.24.155|||110000438458|102
10.10.2018 13:00:00||AKTİFBANK|10.40.24.155|||110000438458|132
10.10.2018 13:00:00||AKTİFBANK|10.40.24.155|||110000438458|80
10.10.2018 13:00:00||AKTİFBANK|10.40.24.155|||110000438458|113
10.10.2018 13:00:00||AKTİFBANK|10.40.24.155|||110000438458|102
10.10.2018 13:00:00||AKTİFBANK|10.40.25.169|||110000438458|98
10.10.2018 13:00:00||AKTİFBANK|10.40.25.169|||110000438458|105
10.10.2018 13:00:00||AKTİFBANK|10.40.25.169|||110000438458|72
10.10.2018 13:00:00||AKTİFBANK|10.40.25.169|||110000438458|78
10.10.2018 13:00:00||AKTİFBANK|10.40.24.169|||110000438458|75
10.10.2018 13:00:00||AKTİFBANK|10.40.24.169|||110000438458|88
10.10.2018 13:00:00||AKTİFBANK|10.40.24.169|||110000438458|75
10.10.2018 13:00:00||AKTİFBANK|10.40.24.169|||110000438458|80
10.10.2018 13:00:00||AKTİFBANK|10.40.25.170|||110000438458|30
10.10.2018 13:00:00||AKTİFBANK|10.40.25.170|||110000438458|30
10.10.2018 13:00:00||AKTİFBANK|10.40.25.170|||110000438458|200
10.10.2018 13:00:00||AKTİFBANK|10.40.25.170|||110000438458|100
10.10.2018 13:00:00||AKTİFBANK|10.40.25.170|||110000438458|80
10.10.2018 13:00:00||AKTİFBANK|10.40.25.170|||110000438458|120
10.10.2018 13:00:00||AKTİFBANK|10.40.24.170|||110000438458|60
10.10.2018 13:00:00||AKTİFBANK|10.40.24.170|||110000438458|60
10.10.2018 13:00:00||AKTİFBANK|10.40.24.170|||110000438458|307
10.10.2018 13:00:00||AKTİFBANK|10.40.24.170|||110000438458|227
10.10.2018 13:00:00||AKTİFBANK|10.40.24.170|||110000438458|77
10.10.2018 13:00:00||AKTİFBANK|10.40.24.170|||110000438458|102
10.10.2018 13:00:00||AKTİFBANK|10.40.24.170|||110000438458|70
10.10.2018 13:00:00||AKTİFBANK|10.40.25.178|||110000438458|572
10.10.2018 13:00:00||AKTİFBANK|10.40.25.178|||110000438458|563
10.10.2018 13:00:00||AKTİFBANK|10.40.25.178|||110000438458|575
10.10.2018 13:00:00||AKTİFBANK|10.40.24.178|||110000438458|557
10.10.2018 13:00:00||AKTİFBANK|10.40.24.178|||110000438458|543
10.10.2018 13:00:00||AKTİFBANK|10.40.24.178|||110000438458|542
10.10.2018 13:00:00||AKTİFBANK|10.40.25.179|||110000438458|395
10.10.2018 13:00:00||AKTİFBANK|10.40.25.179|||110000438458|367
10.10.2018 13:00:00||AKTİFBANK|10.40.25.179|||110000438458|358
10.10.2018 13:00:00||AKTİFBANK|10.40.24.179|||110000438458|323
10.10.2018 13:00:00||AKTİFBANK|10.40.24.179|||110000438458|322
10.10.2018 13:00:00||AKTİFBANK|10.40.24.179|||110000438458|335
10.10.2018 13:00:00||AKTİFBANK|10.40.24.142|||110000438458|40
10.10.2018 13:00:00||AKTİFBANK|10.40.24.156|||110000438458|50
10.10.2018 13:00:00||AKTİFBANK|10.40.24.156|||110000438458|50
10.10.2018 13:00:00||AKTİFBANK|10.40.25.186|||110000438458|90
10.10.2018 13:00:00||AKTİFBANK|10.40.25.186|||110000438458|20
10.10.2018 13:00:00||AKTİFBANK|10.40.25.186|||110000438458|70
10.10.2018 13:00:00||AKTİFBANK|10.40.24.186|||110000438458|90
10.10.2018 13:00:00||AKTİFBANK|10.40.24.186|||110000438458|20
10.10.2018 13:00:00||AKTİFBANK|10.40.24.186|||110000438458|58
10.10.2018 13:00:00||AKTİFBANK|10.40.24.186|||110000438458|40
10.10.2018 13:00:00||AKTİFBANK|10.40.24.152|||110000438458|10
10.10.2018 13:00:00||AKTİFBANK|10.40.24.152|||110000438458|50
10.10.2018 13:00:00||AKTİFBANK|10.40.24.152|||110000438458|112
10.10.2018 13:00:00||AKTİFBANK|10.40.24.152|||110000438458|107
10.10.2018 13:00:00||AKTİFBANK|10.40.24.152|||110000438458|100
10.10.2018 13:00:00||AKTİFBANK|10.40.24.152|||110000438458|102
10.10.2018 13:00:00||AKTİFBANK|10.40.24.152|||110000438458|302
10.10.2018 13:00:00||AKTİFBANK|10.40.24.152|||110000438458|77
10.10.2018 13:00:00||AKTİFBANK|10.40.24.152|||110000438458|92
10.10.2018 13:00:00||AKTİFBANK|10.40.24.152|||110000438458|30
10.10.2018 13:00:00||AKTİFBANK|10.40.24.152|||110000438458|72
10.10.2018 13:00:00||AKTİFBANK|10.40.24.152|||110000438458|30
10.10.2018 13:00:00||BARİKAT İNTERNET GÜVENLİĞİ|10.40.25.201|||110000479736|122
10.10.2018 13:00:00||BARİKAT İNTERNET GÜVENLİĞİ|10.40.25.201|||110000479736|100
10.10.2018 13:00:00||BARİKAT İNTERNET GÜVENLİĞİ|10.40.24.201|||110000479736|130
10.10.2018 13:00:00||BARİKAT İNTERNET GÜVENLİĞİ|10.40.24.201|||110000479736|100
10.10.2018 13:00:00||BOYNER|10.40.26.100|||101367941673|55
10.10.2018 13:00:00||BOYNER|10.40.26.101|||101367941673|163
10.10.2018 13:00:00||BOYNER|10.40.27.100|||101367941673|52
10.10.2018 13:00:00||BOYNER|10.40.27.101|||101367941673|165
10.10.2018 13:00:00||BOYNER|10.40.27.94|||101367941673|210
10.10.2018 13:00:00||BOYNER|10.40.27.94|||101367941673|90
10.10.2018 13:00:00||BOYNER|10.40.27.94|||101367941673|90
10.10.2018 13:00:00||BOYNER|10.40.27.94|||101367941673|100
10.10.2018 13:00:00||BOYNER|10.40.26.94|||101367941673|90
10.10.2018 13:00:00||BOYNER|10.40.26.94|||101367941673|80
10.10.2018 13:00:00||BOYNER|10.40.26.94|||101367941673|80
10.10.2018 13:00:00||BOYNER|10.40.27.95|||101367941673|113
10.10.2018 13:00:00||BOYNER|10.40.27.95|||101367941673|128
10.10.2018 13:00:00||BOYNER|10.40.27.95|||101367941673|233
10.10.2018 13:00:00||BOYNER|10.40.26.95|||101367941673|90
10.10.2018 13:00:00||BOYNER|10.40.26.95|||101367941673|198
10.10.2018 13:00:00||BOYNER|10.40.26.95|||101367941673|140
10.10.2018 13:00:00||BOYNER|10.40.27.96|||101367941673|60
10.10.2018 13:00:00||BOYNER|10.40.27.96|||101367941673|50
10.10.2018 13:00:00||BOYNER|10.40.27.96|||101367941673|50
10.10.2018 13:00:00||BOYNER|10.40.27.96|||101367941673|40
10.10.2018 13:00:00||BOYNER|10.40.27.96|||101367941673|40
10.10.2018 13:00:00||BOYNER|10.40.27.96|||101367941673|143
10.10.2018 13:00:00||BOYNER|10.40.27.96|||101367941673|142
10.10.2018 13:00:00||BOYNER|10.40.27.96|||101367941673|173
10.10.2018 13:00:00||BOYNER|10.40.27.96|||101367941673|160
10.10.2018 13:00:00||BOYNER|10.40.26.96|||101367941673|30
10.10.2018 13:00:00||BOYNER|10.40.26.96|||101367941673|40
10.10.2018 13:00:00||BOYNER|10.40.26.96|||101367941673|30
10.10.2018 13:00:00||BOYNER|10.40.26.96|||101367941673|40
10.10.2018 13:00:00||BOYNER|10.40.26.96|||101367941673|40
10.10.2018 13:00:00||BOYNER|10.40.26.96|||101367941673|50
10.10.2018 13:00:00||BOYNER|10.40.26.96|||101367941673|182
10.10.2018 13:00:00||BOYNER|10.40.26.96|||101367941673|193
10.10.2018 13:00:00||BOYNER|10.40.26.96|||101367941673|153
10.10.2018 13:00:00||BOYNER|10.40.26.96|||101367941673|173
10.10.2018 13:00:00||BOYNER|10.40.27.97|||101367941673|60
10.10.2018 13:00:00||BOYNER|10.40.27.97|||101367941673|632
10.10.2018 13:00:00||BOYNER|10.40.27.97|||101367941673|642
10.10.2018 13:00:00||BOYNER|10.40.27.97|||101367941673|675
10.10.2018 13:00:00||BOYNER|10.40.27.97|||101367941673|50
10.10.2018 13:00:00||BOYNER|10.40.27.97|||101367941673|35
10.10.2018 13:00:00||BOYNER|10.40.27.97|||101367941673|52
10.10.2018 13:00:00||BOYNER|10.40.27.97|||101367941673|30
10.10.2018 13:00:00||BOYNER|10.40.27.97|||101367941673|170
10.10.2018 13:00:00||BOYNER|10.40.27.97|||101367941673|173
10.10.2018 13:00:00||BOYNER|10.40.27.97|||101367941673|190
10.10.2018 13:00:00||BOYNER|10.40.27.97|||101367941673|195
10.10.2018 13:00:00||BOYNER|10.40.26.97|||101367941673|30
10.10.2018 13:00:00||BOYNER|10.40.26.97|||101367941673|647
10.10.2018 13:00:00||BOYNER|10.40.26.97|||101367941673|642
10.10.2018 13:00:00||BOYNER|10.40.26.97|||101367941673|643
10.10.2018 13:00:00||BOYNER|10.40.26.97|||101367941673|30
10.10.2018 13:00:00||BOYNER|10.40.26.97|||101367941673|40
10.10.2018 13:00:00||BOYNER|10.40.26.97|||101367941673|52
10.10.2018 13:00:00||BOYNER|10.40.26.97|||101367941673|60
10.10.2018 13:00:00||BOYNER|10.40.26.97|||101367941673|32
10.10.2018 13:00:00||BOYNER|10.40.26.97|||101367941673|162
10.10.2018 13:00:00||BOYNER|10.40.26.97|||101367941673|172
10.10.2018 13:00:00||BOYNER|10.40.26.97|||101367941673|173
10.10.2018 13:00:00||BOYNER|10.40.26.97|||101367941673|157
10.10.2018 13:00:00||BOYNER|10.40.27.99|||101367941673|130
10.10.2018 13:00:00||BOYNER|10.40.27.99|||101367941673|107
10.10.2018 13:00:00||BOYNER|10.40.27.99|||101367941673|72
10.10.2018 13:00:00||BOYNER|10.40.26.99|||101367941673|10
10.10.2018 13:00:00||BOYNER|10.40.26.99|||101367941673|113
10.10.2018 13:00:00||BOYNER|10.40.26.99|||101367941673|117
10.10.2018 13:00:00||BOYNER|10.40.26.99|||101367941673|62
10.10.2018 13:00:00||ÇALIK HOLDİNG|10.40.24.118|||110000438407|43
10.10.2018 13:00:00||ÇALIK HOLDİNG|10.40.25.99|||110000438407|140
10.10.2018 13:00:00||ÇALIK HOLDİNG|10.40.25.118|||110000438407|159
10.10.2018 13:00:00||ÇALIK HOLDİNG|10.40.25.120|||110000438407|10
10.10.2018 13:00:00||ÇALIK HOLDİNG|10.40.25.120|||110000438407|90
10.10.2018 13:00:00||ÇALIK HOLDİNG|10.40.24.95|||110000438407|50
10.10.2018 13:00:00||ÇALIK HOLDİNG|10.40.25.97|||110000438407|80
10.10.2018 13:00:00||ÇALIK HOLDİNG|10.40.25.103|||110000438407|90
10.10.2018 13:00:00||ÇALIK HOLDİNG|10.40.25.120|||110000438407|40
10.10.2018 13:00:00||ÇALIK HOLDİNG|10.40.25.96|||110000438407|70
10.10.2018 13:00:00||ÇALIK HOLDİNG|10.40.25.96|||110000438407|90
10.10.2018 13:00:00||ÇALIK HOLDİNG|10.40.25.96|||110000438407|120
10.10.2018 13:00:00||ÇALIK HOLDİNG|10.40.25.96|||110000438407|90
10.10.2018 13:00:00||ÇALIK HOLDİNG|10.40.25.115|||110000438407|163
10.10.2018 13:00:00||ÇALIK HOLDİNG|10.40.25.115|||110000438407|70
10.10.2018 13:00:00||ÇALIK HOLDİNG|10.40.25.95|||110000438407|92
10.10.2018 13:00:00||ÇALIK HOLDİNG|10.40.25.96|||110000438407|90
10.10.2018 13:00:00||ÇALIK HOLDİNG|10.40.25.96|||110000438407|100
10.10.2018 13:00:00||ÇALIK HOLDİNG|10.40.25.120|||110000438407|20
10.10.2018 13:00:00||ÇALIK HOLDİNG|10.40.25.95|||110000438407|57
10.10.2018 13:00:00||ÇALIK HOLDİNG|10.40.24.94|||110000438407|200
10.10.2018 13:00:00||ÇALIK HOLDİNG|10.40.25.97|||110000438407|102
10.10.2018 13:00:00||ÇALIK HOLDİNG|10.40.25.120|||110000438407|60
10.10.2018 13:00:00||ÇALIK HOLDİNG|10.40.25.115|||110000438407|80
10.10.2018 13:00:00||ÇALIK HOLDİNG|10.40.25.115|||110000438407|68
10.10.2018 13:00:00||ÇALIK HOLDİNG|10.40.25.115|||110000438407|60
10.10.2018 13:00:00||ÇALIK HOLDİNG|10.40.25.101|||110000438407|50
10.10.2018 13:00:00||ÇALIK HOLDİNG|10.40.25.101|||110000438407|110
10.10.2018 13:00:00||ÇALIK HOLDİNG|10.40.25.101|||110000438407|30
10.10.2018 13:00:00||ÇALIK HOLDİNG|10.40.25.101|||110000438407|10
10.10.2018 13:00:00||ÇALIK HOLDİNG|10.40.25.101|||110000438407|90
10.10.2018 13:00:00||ÇALIK HOLDİNG|10.40.25.101|||110000438407|30
10.10.2018 13:00:00||ÇALIK HOLDİNG|10.40.25.101|||110000438407|40
10.10.2018 13:00:00||ÇALIK HOLDİNG|10.40.25.101|||110000438407|40
10.10.2018 13:00:00||ÇALIK HOLDİNG|10.40.25.101|||110000438407|90
10.10.2018 13:00:00||ÇALIK HOLDİNG|10.40.25.101|||110000438407|90
10.10.2018 13:00:00||ÇALIK HOLDİNG|10.40.25.101|||110000438407|90
10.10.2018 13:00:00||ÇALIK HOLDİNG|10.40.25.94|||110000438407|180
10.10.2018 13:00:00||ÇALIK HOLDİNG|10.40.25.94|||110000438407|180
10.10.2018 13:00:00||ÇALIK HOLDİNG|10.40.25.94|||110000438407|170
10.10.2018 13:00:00||ÇALIK HOLDİNG|10.40.25.94|||110000438407|180
10.10.2018 13:00:00||ÇALIK HOLDİNG|10.40.24.94|||110000438407|215
10.10.2018 13:00:00||ÇALIK HOLDİNG|10.40.24.94|||110000438407|192
10.10.2018 13:00:00||ÇALIK HOLDİNG|10.40.24.94|||110000438407|195
10.10.2018 13:00:00||ÇALIK HOLDİNG|10.40.25.95|||110000438407|20
10.10.2018 13:00:00||ÇALIK HOLDİNG|10.40.25.95|||110000438407|347
10.10.2018 13:00:00||ÇALIK HOLDİNG|10.40.25.95|||110000438407|363
10.10.2018 13:00:00||ÇALIK HOLDİNG|10.40.25.95|||110000438407|40
10.10.2018 13:00:00||ÇALIK HOLDİNG|10.40.24.95|||110000438407|102
10.10.2018 13:00:00||ÇALIK HOLDİNG|10.40.24.95|||110000438407|95
10.10.2018 13:00:00||ÇALIK HOLDİNG|10.40.24.95|||110000438407|390
10.10.2018 13:00:00||ÇALIK HOLDİNG|10.40.24.95|||110000438407|402
10.10.2018 13:00:00||ÇALIK HOLDİNG|10.40.25.96|||110000438407|90
10.10.2018 13:00:00||ÇALIK HOLDİNG|10.40.25.96|||110000438407|93
10.10.2018 13:00:00||ÇALIK HOLDİNG|10.40.25.96|||110000438407|100
10.10.2018 13:00:00||ÇALIK HOLDİNG|10.40.25.96|||110000438407|257
10.10.2018 13:00:00||ÇALIK HOLDİNG|10.40.25.96|||110000438407|262
10.10.2018 13:00:00||ÇALIK HOLDİNG|10.40.25.96|||110000438407|100
10.10.2018 13:00:00||ÇALIK HOLDİNG|10.40.25.96|||110000438407|90
10.10.2018 13:00:00||ÇALIK HOLDİNG|10.40.25.96|||110000438407|95
10.10.2018 13:00:00||ÇALIK HOLDİNG|10.40.25.97|||110000438407|90
10.10.2018 13:00:00||ÇALIK HOLDİNG|10.40.25.97|||110000438407|80
10.10.2018 13:00:00||ÇALIK HOLDİNG|10.40.25.97|||110000438407|300
10.10.2018 13:00:00||ÇALIK HOLDİNG|10.40.25.98|||110000438407|50
10.10.2018 13:00:00||ÇALIK HOLDİNG|10.40.25.98|||110000438407|162
10.10.2018 13:00:00||ÇALIK HOLDİNG|10.40.25.98|||110000438407|158
10.10.2018 13:00:00||ÇALIK HOLDİNG|10.40.25.98|||110000438407|165
10.10.2018 13:00:00||ÇALIK HOLDİNG|10.40.25.98|||110000438407|168
10.10.2018 13:00:00||ÇALIK HOLDİNG|10.40.25.98|||110000438407|60
10.10.2018 13:00:00||ÇALIK HOLDİNG|10.40.25.98|||110000438407|210
10.10.2018 13:00:00||ÇALIK HOLDİNG|10.40.25.98|||110000438407|178
10.10.2018 13:00:00||ÇALIK HOLDİNG|10.40.25.98|||110000438407|170
10.10.2018 13:00:00||ÇALIK HOLDİNG|10.40.25.98|||110000438407|213
10.10.2018 13:00:00||ÇALIK HOLDİNG|10.40.25.98|||110000438407|70
10.10.2018 13:00:00||ÇALIK HOLDİNG|10.40.25.98|||110000438407|300
10.10.2018 13:00:00||ÇALIK HOLDİNG|10.40.24.98|||110000438407|90
10.10.2018 13:00:00||ÇALIK HOLDİNG|10.40.24.98|||110000438407|155
10.10.2018 13:00:00||ÇALIK HOLDİNG|10.40.24.98|||110000438407|200
10.10.2018 13:00:00||ÇALIK HOLDİNG|10.40.24.98|||110000438407|200
10.10.2018 13:00:00||ÇALIK HOLDİNG|10.40.24.98|||110000438407|162
10.10.2018 13:00:00||ÇALIK HOLDİNG|10.40.24.98|||110000438407|30
10.10.2018 13:00:00||ÇALIK HOLDİNG|10.40.24.98|||110000438407|165
10.10.2018 13:00:00||ÇALIK HOLDİNG|10.40.24.98|||110000438407|180
10.10.2018 13:00:00||ÇALIK HOLDİNG|10.40.24.98|||110000438407|170
10.10.2018 13:00:00||ÇALIK HOLDİNG|10.40.24.98|||110000438407|172
10.10.2018 13:00:00||ÇALIK HOLDİNG|10.40.24.98|||110000438407|20
10.10.2018 13:00:00||ÇALIK HOLDİNG|10.40.24.98|||110000438407|278
10.10.2018 13:00:00||ÇALIK HOLDİNG|10.40.25.100|||110000438407|40
10.10.2018 13:00:00||ÇALIK HOLDİNG|10.40.25.100|||110000438407|40
10.10.2018 13:00:00||ÇALIK HOLDİNG|10.40.24.101|||110000438407|60
10.10.2018 13:00:00||ÇALIK HOLDİNG|10.40.24.101|||110000438407|110
10.10.2018 13:00:00||ÇALIK HOLDİNG|10.40.24.101|||110000438407|20
10.10.2018 13:00:00||ÇALIK HOLDİNG|10.40.24.101|||110000438407|20
10.10.2018 13:00:00||ÇALIK HOLDİNG|10.40.24.101|||110000438407|42
10.10.2018 13:00:00||ÇALIK HOLDİNG|10.40.24.101|||110000438407|85
10.10.2018 13:00:00||ÇALIK HOLDİNG|10.40.24.101|||110000438407|10
10.10.2018 13:00:00||ÇALIK HOLDİNG|10.40.24.101|||110000438407|20
10.10.2018 13:00:00||ÇALIK HOLDİNG|10.40.24.101|||110000438407|50
10.10.2018 13:00:00||ÇALIK HOLDİNG|10.40.24.101|||110000438407|30
10.10.2018 13:00:00||ÇALIK HOLDİNG|10.40.24.101|||110000438407|82
10.10.2018 13:00:00||ÇALIK HOLDİNG|10.40.24.101|||110000438407|80
10.10.2018 13:00:00||ÇALIK HOLDİNG|10.40.24.101|||110000438407|100
10.10.2018 13:00:00||ÇALIK HOLDİNG|10.40.25.102|||110000438407|100
10.10.2018 13:00:00||ÇALIK HOLDİNG|10.40.25.102|||110000438407|100
10.10.2018 13:00:00||ÇALIK HOLDİNG|10.40.25.102|||110000438407|150
10.10.2018 13:00:00||ÇALIK HOLDİNG|10.40.24.102|||110000438407|100
10.10.2018 13:00:00||ÇALIK HOLDİNG|10.40.24.102|||110000438407|100
10.10.2018 13:00:00||ÇALIK HOLDİNG|10.40.24.102|||110000438407|140
10.10.2018 13:00:00||ÇALIK HOLDİNG|10.40.25.103|||110000438407|90
10.10.2018 13:00:00||ÇALIK HOLDİNG|10.40.25.103|||110000438407|80
10.10.2018 13:00:00||ÇALIK HOLDİNG|10.40.25.103|||110000438407|20
10.10.2018 13:00:00||ÇALIK HOLDİNG|10.40.25.103|||110000438407|10
10.10.2018 13:00:00||ÇALIK HOLDİNG|10.40.25.115|||110000438407|83
10.10.2018 13:00:00||ÇALIK HOLDİNG|10.40.24.103|||110000438407|95
10.10.2018 13:00:00||ÇALIK HOLDİNG|10.40.24.103|||110000438407|82
10.10.2018 13:00:00||ÇALIK HOLDİNG|10.40.24.103|||110000438407|80
10.10.2018 13:00:00||ÇALIK HOLDİNG|10.40.24.103|||110000438407|10
10.10.2018 13:00:00||ÇALIK HOLDİNG|10.40.25.113|||110000438407|232
10.10.2018 13:00:00||ÇALIK HOLDİNG|10.40.25.113|||110000438407|245
10.10.2018 13:00:00||ÇALIK HOLDİNG|10.40.25.113|||110000438407|192
10.10.2018 13:00:00||ÇALIK HOLDİNG|10.40.25.113|||110000438407|202
10.10.2018 13:00:00||ÇALIK HOLDİNG|10.40.24.113|||110000438407|240
10.10.2018 13:00:00||ÇALIK HOLDİNG|10.40.24.113|||110000438407|237
10.10.2018 13:00:00||ÇALIK HOLDİNG|10.40.24.113|||110000438407|187
10.10.2018 13:00:00||ÇALIK HOLDİNG|10.40.24.113|||110000438407|150
10.10.2018 13:00:00||ÇALIK HOLDİNG|10.40.25.114|||110000438407|182
10.10.2018 13:00:00||ÇALIK HOLDİNG|10.40.25.114|||110000438407|413
10.10.2018 13:00:00||ÇALIK HOLDİNG|10.40.25.114|||110000438407|40
10.10.2018 13:00:00||ÇALIK HOLDİNG|10.40.24.114|||110000438407|20
10.10.2018 13:00:00||ÇALIK HOLDİNG|10.40.24.114|||110000438407|40
10.10.2018 13:00:00||ÇALIK HOLDİNG|10.40.24.114|||110000438407|162
10.10.2018 13:00:00||ÇALIK HOLDİNG|10.40.24.114|||110000438407|375
10.10.2018 13:00:00||ÇALIK HOLDİNG|10.40.24.115|||110000438407|155
10.10.2018 13:00:00||ÇALIK HOLDİNG|10.40.24.115|||110000438407|80
10.10.2018 13:00:00||ÇALIK HOLDİNG|10.40.24.115|||110000438407|88
10.10.2018 13:00:00||ÇALIK HOLDİNG|10.40.24.115|||110000438407|70
10.10.2018 13:00:00||ÇALIK HOLDİNG|10.40.24.115|||110000438407|82
10.10.2018 13:00:00||ÇALIK HOLDİNG|10.40.24.115|||110000438407|70
10.10.2018 13:00:00||ÇALIK HOLDİNG|10.40.25.116|||110000438407|98
10.10.2018 13:00:00||ÇALIK HOLDİNG|10.40.25.116|||110000438407|105
10.10.2018 13:00:00||ÇALIK HOLDİNG|10.40.25.116|||110000438407|300
10.10.2018 13:00:00||ÇALIK HOLDİNG|10.40.24.116|||110000438407|288
10.10.2018 13:00:00||ÇALIK HOLDİNG|10.40.24.116|||110000438407|102
10.10.2018 13:00:00||ÇALIK HOLDİNG|10.40.24.116|||110000438407|102
10.10.2018 13:00:00||ÇALIK HOLDİNG|10.40.25.117|||110000438407|243
10.10.2018 13:00:00||ÇALIK HOLDİNG|10.40.25.117|||110000438407|30
10.10.2018 13:00:00||ÇALIK HOLDİNG|10.40.25.117|||110000438407|23
10.10.2018 13:00:00||ÇALIK HOLDİNG|10.40.25.119|||110000438407|30
10.10.2018 13:00:00||ÇALIK HOLDİNG|10.40.25.119|||110000438407|30
10.10.2018 13:00:00||ÇALIK HOLDİNG|10.40.24.119|||110000438407|150
10.10.2018 13:00:00||ÇALIK HOLDİNG|10.40.24.119|||110000438407|30
10.10.2018 13:00:00||ÇALIK HOLDİNG|10.40.24.119|||110000438407|50
10.10.2018 13:00:00||ÇALIK HOLDİNG|10.40.25.120|||110000438407|105
10.10.2018 13:00:00||ÇALIK HOLDİNG|10.40.25.120|||110000438407|50
10.10.2018 13:00:00||ÇALIK HOLDİNG|10.40.25.120|||110000438407|20
10.10.2018 13:00:00||ÇALIK HOLDİNG|10.40.25.120|||110000438407|20
10.10.2018 13:00:00||ÇALIK HOLDİNG|10.40.25.120|||110000438407|30
10.10.2018 13:00:00||ÇALIK HOLDİNG|10.40.25.120|||110000438407|90
10.10.2018 13:00:00||ÇALIK HOLDİNG|10.40.25.120|||110000438407|90
10.10.2018 13:00:00||ÇALIK HOLDİNG|10.40.24.120|||110000438407|20
10.10.2018 13:00:00||ÇALIK HOLDİNG|10.40.24.120|||110000438407|30
10.10.2018 13:00:00||ÇALIK HOLDİNG|10.40.24.120|||110000438407|110
10.10.2018 13:00:00||ÇALIK HOLDİNG|10.40.24.120|||110000438407|100
10.10.2018 13:00:00||ÇALIK HOLDİNG|10.40.24.120|||110000438407|40
10.10.2018 13:00:00||ÇALIK HOLDİNG|10.40.24.120|||110000438407|80
10.10.2018 13:00:00||ÇALIK HOLDİNG|10.40.24.120|||110000438407|80
10.10.2018 13:00:00||ÇALIK HOLDİNG|10.40.24.120|||110000438407|70
10.10.2018 13:00:00||ÇALIK HOLDİNG|10.40.25.121|||110000438407|90
10.10.2018 13:00:00||ÇALIK HOLDİNG|10.40.25.121|||110000438407|100
10.10.2018 13:00:00||ÇALIK HOLDİNG|10.40.25.121|||110000438407|150
10.10.2018 13:00:00||ÇALIK HOLDİNG|10.40.24.121|||110000438407|100
10.10.2018 13:00:00||ÇALIK HOLDİNG|10.40.24.121|||110000438407|100
10.10.2018 13:00:00||ÇALIK HOLDİNG|10.40.24.121|||110000438407|140
10.10.2018 13:00:00||ÇALIK HOLDİNG|10.40.25.122|||110000438407|90
10.10.2018 13:00:00||ÇALIK HOLDİNG|10.40.25.122|||110000438407|82
10.10.2018 13:00:00||ÇALIK HOLDİNG|10.40.25.122|||110000438407|80
10.10.2018 13:00:00||ÇALIK HOLDİNG|10.40.25.122|||110000438407|30
10.10.2018 13:00:00||ÇALIK HOLDİNG|10.40.25.122|||110000438407|10
10.10.2018 13:00:00||ÇALIK HOLDİNG|10.40.24.122|||110000438407|90
10.10.2018 13:00:00||ÇALIK HOLDİNG|10.40.24.122|||110000438407|80
10.10.2018 13:00:00||ÇALIK HOLDİNG|10.40.24.122|||110000438407|90
10.10.2018 13:00:00||ÇALIK HOLDİNG|10.40.24.117|||110000438407|200
10.10.2018 13:00:00||ÇALIK HOLDİNG|10.40.24.117|||110000438407|30
10.10.2018 13:00:00||ÇALIK HOLDİNG|10.40.24.117|||110000438407|30
10.10.2018 13:00:00||ÇALIK HOLDİNG|10.40.24.97|||110000438407|100
10.10.2018 13:00:00||ÇALIK HOLDİNG|10.40.24.97|||110000438407|90
10.10.2018 13:00:00||ÇALIK HOLDİNG|10.40.24.97|||110000438407|80
10.10.2018 13:00:00||ÇALIK HOLDİNG|10.40.24.97|||110000438407|90
10.10.2018 13:00:00||ÇALIK HOLDİNG|10.40.24.97|||110000438407|318
10.10.2018 13:00:00||ÇALIK HOLDİNG|10.40.24.100|||110000438407|30
10.10.2018 13:00:00||ÇALIK HOLDİNG|10.40.24.100|||110000438407|40
10.10.2018 13:00:00||FIBABANKA|10.40.27.54|||101571767266|310
10.10.2018 13:00:00||FIBABANKA|10.40.26.54|||101571767266|317
10.10.2018 13:00:00||FIBABANKA|10.40.27.55|||101571767266|109
10.10.2018 13:00:00||FIBABANKA|10.40.26.55|||101571767266|110
10.10.2018 13:00:00||FIBABANKA|10.40.24.55|||101571767266|110
10.10.2018 13:00:00||FIBABANKA|10.40.25.56|||101571767266|196
10.10.2018 13:00:00||FIBABANKA|10.40.25.54|||101571767266|278
10.10.2018 13:00:00||FIBABANKA|10.40.24.54|||101571767266|353
10.10.2018 13:00:00||FIBABANKA|10.40.25.55|||101571767266|111
10.10.2018 13:00:00||FIBABANKA|10.40.24.56|||101571767266|194
10.10.2018 13:00:00||FIBABANKA|10.40.26.53|||101571767266|43
10.10.2018 13:00:00||FIBABANKA|10.40.26.53|||101571767266|152
10.10.2018 13:00:00||FIBABANKA|10.40.25.76|||101571767266|10
10.10.2018 13:00:00||FIBABANKA|10.40.27.53|||101571767266|150
10.10.2018 13:00:00||FIBABANKA|10.40.27.53|||101571767266|163
10.10.2018 13:00:00||FIBABANKA|10.40.26.53|||101571767266|150
10.10.2018 13:00:00||FIBABANKA|10.40.27.57|||101571767266|80
10.10.2018 13:00:00||FIBABANKA|10.40.27.57|||101571767266|80
10.10.2018 13:00:00||FIBABANKA|10.40.27.57|||101571767266|80
10.10.2018 13:00:00||FIBABANKA|10.40.25.57|||101571767266|90
10.10.2018 13:00:00||FIBABANKA|10.40.25.57|||101571767266|90
10.10.2018 13:00:00||FIBABANKA|10.40.25.57|||101571767266|90
10.10.2018 13:00:00||FIBABANKA|10.40.26.51|||101571767266|20
10.10.2018 13:00:00||FIBABANKA|10.40.27.52|||101571767266|50
10.10.2018 13:00:00||FIBABANKA|10.40.27.52|||101571767266|60
10.10.2018 13:00:00||FIBABANKA|10.40.27.52|||101571767266|70
10.10.2018 13:00:00||FIBABANKA|10.40.27.74|||101571767266|185
10.10.2018 13:00:00||FIBABANKA|10.40.25.53|||101571767266|30
10.10.2018 13:00:00||FIBABANKA|10.40.25.53|||101571767266|48
10.10.2018 13:00:00||FIBABANKA|10.40.27.53|||101571767266|62
10.10.2018 13:00:00||FIBABANKA|10.40.26.53|||101571767266|60
10.10.2018 13:00:00||FIBABANKA|10.40.25.51|||101571767266|20
10.10.2018 13:00:00||FIBABANKA|10.40.25.51|||101571767266|112
10.10.2018 13:00:00||FIBABANKA|10.40.24.51|||101571767266|20
10.10.2018 13:00:00||FIBABANKA|10.40.24.51|||101571767266|70
10.10.2018 13:00:00||FIBABANKA|10.40.24.51|||101571767266|100
10.10.2018 13:00:00||FIBABANKA|10.40.24.51|||101571767266|140
10.10.2018 13:00:00||FIBABANKA|10.40.24.51|||101571767266|30
10.10.2018 13:00:00||FIBABANKA|10.40.24.57|||101571767266|90
10.10.2018 13:00:00||FIBABANKA|10.40.24.57|||101571767266|80
10.10.2018 13:00:00||FIBABANKA|10.40.24.57|||101571767266|80
10.10.2018 13:00:00||FIBABANKA|10.40.24.52|||101571767266|10
10.10.2018 13:00:00||FIBABANKA|10.40.26.73|||101571767266|40
10.10.2018 13:00:00||FIBABANKA|10.40.27.53|||101571767266|68
10.10.2018 13:00:00||FIBABANKA|10.40.26.51|||101571767266|70
10.10.2018 13:00:00||FIBABANKA|10.40.26.52|||101571767266|30
10.10.2018 13:00:00||FIBABANKA|10.40.26.52|||101571767266|90
10.10.2018 13:00:00||FIBABANKA|10.40.26.52|||101571767266|30
10.10.2018 13:00:00||FIBABANKA|10.40.25.51|||101571767266|140
10.10.2018 13:00:00||FIBABANKA|10.40.25.51|||101571767266|40
10.10.2018 13:00:00||FIBABANKA|10.40.25.51|||101571767266|40
10.10.2018 13:00:00||FIBABANKA|10.40.25.51|||101571767266|70
10.10.2018 13:00:00||FIBABANKA|10.40.24.51|||101571767266|30
10.10.2018 13:00:00||FIBABANKA|10.40.25.59|||101571767266|70
10.10.2018 13:00:00||FIBABANKA|10.40.25.59|||101571767266|100
10.10.2018 13:00:00||FIBABANKA|10.40.25.59|||101571767266|88
10.10.2018 13:00:00||FIBABANKA|10.40.25.59|||101571767266|40
10.10.2018 13:00:00||FIBABANKA|10.40.25.59|||101571767266|120
10.10.2018 13:00:00||FIBABANKA|10.40.25.59|||101571767266|62
10.10.2018 13:00:00||FIBABANKA|10.40.25.59|||101571767266|50
10.10.2018 13:00:00||FIBABANKA|10.40.25.59|||101571767266|162
10.10.2018 13:00:00||FIBABANKA|10.40.25.59|||101571767266|60
10.10.2018 13:00:00||FIBABANKA|10.40.24.59|||101571767266|70
10.10.2018 13:00:00||FIBABANKA|10.40.24.59|||101571767266|127
10.10.2018 13:00:00||FIBABANKA|10.40.24.59|||101571767266|73
10.10.2018 13:00:00||FIBABANKA|10.40.24.59|||101571767266|50
10.10.2018 13:00:00||FIBABANKA|10.40.24.59|||101571767266|130
10.10.2018 13:00:00||FIBABANKA|10.40.24.59|||101571767266|70
10.10.2018 13:00:00||FIBABANKA|10.40.24.59|||101571767266|60
10.10.2018 13:00:00||FIBABANKA|10.40.24.59|||101571767266|152
10.10.2018 13:00:00||FIBABANKA|10.40.24.59|||101571767266|60
10.10.2018 13:00:00||FIBABANKA|10.40.25.60|||101571767266|112
10.10.2018 13:00:00||FIBABANKA|10.40.25.60|||101571767266|32
10.10.2018 13:00:00||FIBABANKA|10.40.25.60|||101571767266|108
10.10.2018 13:00:00||FIBABANKA|10.40.25.60|||101571767266|40
10.10.2018 13:00:00||FIBABANKA|10.40.24.60|||101571767266|120
10.10.2018 13:00:00||FIBABANKA|10.40.24.60|||101571767266|57
10.10.2018 13:00:00||FIBABANKA|10.40.24.60|||101571767266|40
10.10.2018 13:00:00||FIBABANKA|10.40.24.60|||101571767266|100
10.10.2018 13:00:00||FIBABANKA|10.40.24.60|||101571767266|60
10.10.2018 13:00:00||FIBABANKA|10.40.25.72|||101571767266|70
10.10.2018 13:00:00||FIBABANKA|10.40.25.72|||101571767266|40
10.10.2018 13:00:00||FIBABANKA|10.40.25.72|||101571767266|30
10.10.2018 13:00:00||FIBABANKA|10.40.24.72|||101571767266|140
10.10.2018 13:00:00||FIBABANKA|10.40.24.72|||101571767266|80
10.10.2018 13:00:00||FIBABANKA|10.40.24.72|||101571767266|30
10.10.2018 13:00:00||FIBABANKA|10.40.24.72|||101571767266|40
10.10.2018 13:00:00||FIBABANKA|10.40.25.74|||101571767266|32
10.10.2018 13:00:00||FIBABANKA|10.40.25.75|||101571767266|35
10.10.2018 13:00:00||FIBABANKA|10.40.25.75|||101571767266|87
10.10.2018 13:00:00||FIBABANKA|10.40.25.75|||101571767266|135
10.10.2018 13:00:00||FIBABANKA|10.40.25.75|||101571767266|172
10.10.2018 13:00:00||FIBABANKA|10.40.25.75|||101571767266|187
10.10.2018 13:00:00||FIBABANKA|10.40.25.75|||101571767266|215
10.10.2018 13:00:00||FIBABANKA|10.40.24.75|||101571767266|52
10.10.2018 13:00:00||FIBABANKA|10.40.24.75|||101571767266|52
10.10.2018 13:00:00||FIBABANKA|10.40.24.75|||101571767266|173
10.10.2018 13:00:00||FIBABANKA|10.40.24.75|||101571767266|158
10.10.2018 13:00:00||FIBABANKA|10.40.24.76|||101571767266|37
10.10.2018 13:00:00||FIBABANKA|10.40.24.76|||101571767266|70
10.10.2018 13:00:00||FIBABANKA|10.40.24.76|||101571767266|10
10.10.2018 13:00:00||FIBABANKA|10.40.24.53|||101571767266|30
10.10.2018 13:00:00||FIBABANKA|10.40.24.53|||101571767266|60
10.10.2018 13:00:00||FIBABANKA|10.40.26.57|||101571767266|90
10.10.2018 13:00:00||FIBABANKA|10.40.26.57|||101571767266|83
10.10.2018 13:00:00||FIBABANKA|10.40.26.57|||101571767266|80
10.10.2018 13:00:00||FIBABANKA|10.40.27.72|||101571767266|40
10.10.2018 13:00:00||FIBABANKA|10.40.27.72|||101571767266|50
10.10.2018 13:00:00||FIBABANKA|10.40.27.72|||101571767266|32
10.10.2018 13:00:00||FIBABANKA|10.40.27.72|||101571767266|140
10.10.2018 13:00:00||FIBABANKA|10.40.27.72|||101571767266|62
10.10.2018 13:00:00||FIBABANKA|10.40.26.72|||101571767266|30
10.10.2018 13:00:00||FIBABANKA|10.40.26.72|||101571767266|140
10.10.2018 13:00:00||FIBABANKA|10.40.26.72|||101571767266|70
10.10.2018 13:00:00||FIBABANKA|10.40.26.72|||101571767266|30
10.10.2018 13:00:00||FIBABANKA|10.40.27.73|||101571767266|30
10.10.2018 13:00:00||FIBABANKA|10.40.27.73|||101571767266|100
10.10.2018 13:00:00||FIBABANKA|10.40.27.73|||101571767266|40
10.10.2018 13:00:00||FIBABANKA|10.40.27.73|||101571767266|40
10.10.2018 13:00:00||FIBABANKA|10.40.27.73|||101571767266|200
10.10.2018 13:00:00||FIBABANKA|10.40.26.73|||101571767266|40
10.10.2018 13:00:00||FIBABANKA|10.40.26.73|||101571767266|70
10.10.2018 13:00:00||FIBABANKA|10.40.26.73|||101571767266|30
10.10.2018 13:00:00||FIBABANKA|10.40.27.74|||101571767266|82
10.10.2018 13:00:00||FIBABANKA|10.40.27.74|||101571767266|158
10.10.2018 13:00:00||FIBABANKA|10.40.27.74|||101571767266|178
10.10.2018 13:00:00||FIBABANKA|10.40.26.74|||101571767266|73
10.10.2018 13:00:00||FIBABANKA|10.40.26.74|||101571767266|183
10.10.2018 13:00:00||FIBABANKA|10.40.26.74|||101571767266|183
10.10.2018 13:00:00||FIBABANKA|10.40.26.74|||101571767266|192
10.10.2018 13:00:00||FIBABANKA|10.40.27.75|||101571767266|10
10.10.2018 13:00:00||FIBABANKA|10.40.27.75|||101571767266|10
10.10.2018 13:00:00||FIBABANKA|10.40.26.79|||101571767266|10
10.10.2018 13:00:00||FIBABANKA|10.40.27.79|||101571767266|10
10.10.2018 13:00:00||FIBABANKA|10.40.26.79|||101571767266|10
10.10.2018 13:00:00||FIBABANKA|10.40.27.77|||101571767266|160
10.10.2018 13:00:00||FIBABANKA|10.40.26.77|||101571767266|180
10.10.2018 13:00:00||FIBABANKA|10.40.27.77|||101571767266|155
10.10.2018 13:00:00||FIBABANKA|10.40.25.74|||101571767266|220
10.10.2018 13:00:00||FIBABANKA|10.40.24.75|||101571767266|190
10.10.2018 13:00:00||FIBABANKA|10.40.24.53|||101571767266|185
10.10.2018 13:00:00||FIBABANKA|10.40.24.53|||101571767266|163
10.10.2018 13:00:00||FIBABANKA|10.40.25.52|||101571767266|10
10.10.2018 13:00:00||FIBABANKA|10.40.25.52|||101571767266|60
10.10.2018 13:00:00||FIBABANKA|10.40.25.53|||101571767266|175
10.10.2018 13:00:00||FIBABANKA|10.40.25.53|||101571767266|137
10.10.2018 13:00:00||FIBABANKA|10.40.27.51|||101571767266|30
10.10.2018 13:00:00||FIBABANKA|10.40.27.51|||101571767266|20
10.10.2018 13:00:00||FIBABANKA|10.40.27.51|||101571767266|100
10.10.2018 13:00:00||FIBABANKA|10.40.27.51|||101571767266|130
10.10.2018 13:00:00||FIBABANKA|10.40.27.51|||101571767266|70
10.10.2018 13:00:00||FIBABANKA|10.40.27.51|||101571767266|40
10.10.2018 13:00:00||FIBABANKA|10.40.27.51|||101571767266|40
10.10.2018 13:00:00||FIBABANKA|10.40.26.51|||101571767266|10
10.10.2018 13:00:00||FIBABANKA|10.40.26.51|||101571767266|110
10.10.2018 13:00:00||FIBABANKA|10.40.26.51|||101571767266|133
10.10.2018 13:00:00||FIBABANKA|10.40.26.51|||101571767266|30
10.10.2018 13:00:00||FIBABANKA|10.40.26.51|||101571767266|30
10.10.2018 13:00:00||FIBABANKA|10.40.24.74|||101571767266|32
10.10.2018 13:00:00||FIBABANKA|10.40.25.76|||101571767266|60
10.10.2018 13:00:00||FIBABANKA|10.40.25.76|||101571767266|40
10.10.2018 13:00:00||FIBABANKA|10.40.25.76|||101571767266|10
10.10.2018 13:00:00||HAVAŞ|10.40.24.46|||110000479675|10
10.10.2018 13:00:00||HAVAŞ|10.40.24.48|||110000479675|757
10.10.2018 13:00:00||HAVAŞ|10.40.24.48|||110000479675|760
10.10.2018 13:00:00||HAVAŞ|10.40.25.48|||110000479675|752
10.10.2018 13:00:00||HAVAŞ|10.40.24.45|||110000479675|98
10.10.2018 13:00:00||HAVAŞ|10.40.25.45|||110000479675|68
10.10.2018 13:00:00||HAVAŞ|10.40.25.47|||110000479675|70
10.10.2018 13:00:00||HAVAŞ|10.40.24.46|||110000479675|80
10.10.2018 13:00:00||HAVAŞ|10.40.24.47|||110000479675|30
10.10.2018 13:00:00||HAVAŞ|10.40.24.47|||110000479675|97
10.10.2018 13:00:00||HAVAŞ|10.40.24.47|||110000479675|90
10.10.2018 13:00:00||HAVAŞ|10.40.25.46|||110000479675|10
10.10.2018 13:00:00||HAVAŞ|10.40.25.46|||110000479675|60
10.10.2018 13:00:00||HAVAŞ|10.40.24.48|||110000479675|763
10.10.2018 13:00:00||HAVAŞ|10.40.24.46|||110000479675|60
10.10.2018 13:00:00||HAVAŞ|10.40.24.46|||110000479675|70
10.10.2018 13:00:00||HAVAŞ|10.40.24.47|||110000479675|10
10.10.2018 13:00:00||HAVAŞ|10.40.25.48|||110000479675|753
10.10.2018 13:00:00||HAVAŞ|10.40.25.48|||110000479675|787
10.10.2018 13:00:00||HAVAŞ|10.40.25.45|||110000479675|100
10.10.2018 13:00:00||HAVAŞ|10.40.24.45|||110000479675|50
10.10.2018 13:00:00||HAVAŞ|10.40.24.45|||110000479675|177
10.10.2018 13:00:00||HAVAŞ|10.40.24.45|||110000479675|97
10.10.2018 13:00:00||HAVAŞ|10.40.25.47|||110000479675|70
10.10.2018 13:00:00||HAVAŞ|10.40.25.47|||110000479675|235
10.10.2018 13:00:00||HAVAŞ|10.40.25.47|||110000479675|62
10.10.2018 13:00:00||HAVAŞ|10.40.25.47|||110000479675|93
10.10.2018 13:00:00||HAVAŞ|10.40.25.47|||110000479675|92
10.10.2018 13:00:00||HAVAŞ|10.40.25.47|||110000479675|100
10.10.2018 13:00:00||HAVAŞ|10.40.25.47|||110000479675|120
10.10.2018 13:00:00||HAVAŞ|10.40.25.47|||110000479675|180
10.10.2018 13:00:00||HAVAŞ|10.40.25.47|||110000479675|90
10.10.2018 13:00:00||HAVAŞ|10.40.25.47|||110000479675|90
10.10.2018 13:00:00||HAVAŞ|10.40.25.47|||110000479675|92
10.10.2018 13:00:00||HAVAŞ|10.40.25.45|||110000479675|112
10.10.2018 13:00:00||HAVAŞ|10.40.25.45|||110000479675|88
10.10.2018 13:00:00||HAVAŞ|10.40.25.46|||110000479675|10
10.10.2018 13:00:00||HAVAŞ|10.40.25.46|||110000479675|10
10.10.2018 13:00:00||HAVAŞ|10.40.25.46|||110000479675|20
10.10.2018 13:00:00||HAVAŞ|10.40.25.46|||110000479675|20
10.10.2018 13:00:00||HAVAŞ|10.40.25.46|||110000479675|52
10.10.2018 13:00:00||HAVAŞ|10.40.25.46|||110000479675|100
10.10.2018 13:00:00||HAVAŞ|10.40.25.46|||110000479675|62
10.10.2018 13:00:00||HAVAŞ|10.40.25.46|||110000479675|80
10.10.2018 13:00:00||HAVAŞ|10.40.25.46|||110000479675|70
10.10.2018 13:00:00||HAVAŞ|10.40.24.46|||110000479675|20
10.10.2018 13:00:00||HAVAŞ|10.40.24.46|||110000479675|20
10.10.2018 13:00:00||HAVAŞ|10.40.24.46|||110000479675|10
10.10.2018 13:00:00||HAVAŞ|10.40.24.46|||110000479675|10
10.10.2018 13:00:00||HAVAŞ|10.40.24.46|||110000479675|10
10.10.2018 13:00:00||HAVAŞ|10.40.24.46|||110000479675|60
10.10.2018 13:00:00||HAVAŞ|10.40.24.46|||110000479675|110
10.10.2018 13:00:00||HAVAŞ|10.40.24.47|||110000479675|30
10.10.2018 13:00:00||HAVAŞ|10.40.24.47|||110000479675|225
10.10.2018 13:00:00||HAVAŞ|10.40.24.47|||110000479675|62
10.10.2018 13:00:00||HAVAŞ|10.40.24.47|||110000479675|60
10.10.2018 13:00:00||HAVAŞ|10.40.24.47|||110000479675|155
10.10.2018 13:00:00||HAVAŞ|10.40.24.47|||110000479675|100
10.10.2018 13:00:00||HAVAŞ|10.40.24.47|||110000479675|100
10.10.2018 13:00:00||MARS CINEMA|10.40.24.203|||110000472614|100
10.10.2018 13:00:00||MARS CINEMA|10.40.24.204|||110000472614|40
10.10.2018 13:00:00||MARS CINEMA|10.40.24.203|||110000472614|73
10.10.2018 13:00:00||MARS CINEMA|10.40.24.203|||110000472614|162
10.10.2018 13:00:00||MARS CINEMA|10.40.24.203|||110000472614|82
10.10.2018 13:00:00||MARS CINEMA|10.40.24.204|||110000472614|62
10.10.2018 13:00:00||MARS CINEMA|10.40.24.203|||110000472614|108
10.10.2018 13:00:00||MARS CINEMA|10.40.24.204|||110000472614|20
10.10.2018 13:00:00||MARS CINEMA|10.40.24.204|||110000472614|93
10.10.2018 13:00:00||MARS CINEMA|10.40.25.203|||110000472614|153
10.10.2018 13:00:00||MARS CINEMA|10.40.25.203|||110000472614|100
10.10.2018 13:00:00||MARS CINEMA|10.40.25.203|||110000472614|178
10.10.2018 13:00:00||MARS CINEMA|10.40.25.203|||110000472614|95
10.10.2018 13:00:00||MARS CINEMA|10.40.25.203|||110000472614|83
10.10.2018 13:00:00||MARS CINEMA|10.40.25.203|||110000472614|110
10.10.2018 13:00:00||MARS CINEMA|10.40.25.203|||110000472614|122
10.10.2018 13:00:00||MARS CINEMA|10.40.25.203|||110000472614|152
10.10.2018 13:00:00||MARS CINEMA|10.40.25.203|||110000472614|90
10.10.2018 13:00:00||MARS CINEMA|10.40.25.203|||110000472614|90
10.10.2018 13:00:00||MARS CINEMA|10.40.25.203|||110000472614|63
10.10.2018 13:00:00||MARS CINEMA|10.40.25.203|||110000472614|185
10.10.2018 13:00:00||MARS CINEMA|10.40.25.204|||110000472614|110
10.10.2018 13:00:00||MARS CINEMA|10.40.25.204|||110000472614|70
10.10.2018 13:00:00||MARS CINEMA|10.40.25.204|||110000472614|80
10.10.2018 13:00:00||MARS CINEMA|10.40.25.204|||110000472614|100
10.10.2018 13:00:00||MARS CINEMA|10.40.25.204|||110000472614|20
10.10.2018 13:00:00||MARS CINEMA|10.40.25.204|||110000472614|20
10.10.2018 13:00:00||MARS CINEMA|10.40.25.204|||110000472614|30
10.10.2018 13:00:00||MARS CINEMA|10.40.25.204|||110000472614|40
10.10.2018 13:00:00||MARS CINEMA|10.40.25.204|||110000472614|90
10.10.2018 13:00:00||MARS CINEMA|10.40.25.204|||110000472614|120
10.10.2018 13:00:00||MARS CINEMA|10.40.25.204|||110000472614|80
10.10.2018 13:00:00||MARS CINEMA|10.40.25.204|||110000472614|80
10.10.2018 13:00:00||MARS CINEMA|10.40.25.204|||110000472614|110
10.10.2018 13:00:00||MARS CINEMA|10.40.25.204|||110000472614|100
10.10.2018 13:00:00||MARS CINEMA|10.40.24.203|||110000472614|82
10.10.2018 13:00:00||MARS CINEMA|10.40.24.203|||110000472614|92
10.10.2018 13:00:00||MARS CINEMA|10.40.24.203|||110000472614|142
10.10.2018 13:00:00||MARS CINEMA|10.40.24.203|||110000472614|153
10.10.2018 13:00:00||MARS CINEMA|10.40.24.203|||110000472614|152
10.10.2018 13:00:00||MARS CINEMA|10.40.24.203|||110000472614|100
10.10.2018 13:00:00||MARS CINEMA|10.40.24.203|||110000472614|183
10.10.2018 13:00:00||MARS CINEMA|10.40.24.204|||110000472614|110
10.10.2018 13:00:00||MARS CINEMA|10.40.24.204|||110000472614|90
10.10.2018 13:00:00||MARS CINEMA|10.40.24.204|||110000472614|90
10.10.2018 13:00:00||MARS CINEMA|10.40.24.204|||110000472614|20
10.10.2018 13:00:00||MARS CINEMA|10.40.24.204|||110000472614|20
10.10.2018 13:00:00||MARS CINEMA|10.40.24.204|||110000472614|90
10.10.2018 13:00:00||MARS CINEMA|10.40.24.204|||110000472614|120
10.10.2018 13:00:00||MARS CINEMA|10.40.24.204|||110000472614|90
10.10.2018 13:00:00||MARS CINEMA|10.40.24.204|||110000472614|108
10.10.2018 13:00:00||MARS CINEMA|10.40.24.204|||110000472614|80
10.10.2018 13:00:00||MARS CINEMA|10.40.25.206|||110000472614|40
10.10.2018 13:00:00||MARS CINEMA|10.40.25.206|||110000472614|40
10.10.2018 13:00:00||MARS CINEMA|10.40.25.206|||110000472614|40
10.10.2018 13:00:00||MARS CINEMA|10.40.25.206|||110000472614|20
10.10.2018 13:00:00||MARS CINEMA|10.40.25.206|||110000472614|20
10.10.2018 13:00:00||MARS CINEMA|10.40.25.206|||110000472614|30
10.10.2018 13:00:00||MARS CINEMA|10.40.25.206|||110000472614|60
10.10.2018 13:00:00||MARS CINEMA|10.40.25.206|||110000472614|40
10.10.2018 13:00:00||MARS CINEMA|10.40.25.206|||110000472614|90
10.10.2018 13:00:00||MARS CINEMA|10.40.25.206|||110000472614|83
10.10.2018 13:00:00||MARS CINEMA|10.40.24.206|||110000472614|40
10.10.2018 13:00:00||MARS CINEMA|10.40.24.206|||110000472614|40
10.10.2018 13:00:00||MARS CINEMA|10.40.24.206|||110000472614|45
10.10.2018 13:00:00||MARS CINEMA|10.40.24.206|||110000472614|30
10.10.2018 13:00:00||MARS CINEMA|10.40.24.206|||110000472614|30
10.10.2018 13:00:00||MARS CINEMA|10.40.24.206|||110000472614|200
10.10.2018 13:00:00||MARS CINEMA|10.40.24.206|||110000472614|160
10.10.2018 13:00:00||MARS CINEMA|10.40.24.206|||110000472614|20
10.10.2018 13:00:00||MARS CINEMA|10.40.24.206|||110000472614|80
10.10.2018 13:00:00||MARS CINEMA|10.40.24.206|||110000472614|72
10.10.2018 13:00:00||PEGASUS|10.40.26.85|||110000423831|121
10.10.2018 13:00:00||PEGASUS|10.40.27.66|||110000423831|100
10.10.2018 13:00:00||PEGASUS|10.40.26.66|||110000423831|107
10.10.2018 13:00:00||PEGASUS|10.40.26.84|||110000423831|221
10.10.2018 13:00:00||PEGASUS|10.40.27.85|||110000423831|117
10.10.2018 13:00:00||PEGASUS|10.40.27.67|||110000423831|340
10.10.2018 13:00:00||PEGASUS|10.40.27.67|||110000423831|40
10.10.2018 13:00:00||PEGASUS|10.40.26.62|||110000423831|10
10.10.2018 13:00:00||PEGASUS|10.40.26.62|||110000423831|190
10.10.2018 13:00:00||PEGASUS|10.40.26.63|||110000423831|70
10.10.2018 13:00:00||PEGASUS|10.40.26.63|||110000423831|30
10.10.2018 13:00:00||PEGASUS|10.40.26.63|||110000423831|60
10.10.2018 13:00:00||PEGASUS|10.40.26.63|||110000423831|20
10.10.2018 13:00:00||PEGASUS|10.40.26.63|||110000423831|232
10.10.2018 13:00:00||PEGASUS|10.40.26.63|||110000423831|140
10.10.2018 13:00:00||PEGASUS|10.40.26.63|||110000423831|62
10.10.2018 13:00:00||PEGASUS|10.40.26.67|||110000423831|170
10.10.2018 13:00:00||PEGASUS|10.40.27.68|||110000423831|90
10.10.2018 13:00:00||PEGASUS|10.40.27.68|||110000423831|87
10.10.2018 13:00:00||PEGASUS|10.40.27.68|||110000423831|90
10.10.2018 13:00:00||PEGASUS|10.40.27.68|||110000423831|50
10.10.2018 13:00:00||PEGASUS|10.40.26.68|||110000423831|90
10.10.2018 13:00:00||PEGASUS|10.40.26.68|||110000423831|90
10.10.2018 13:00:00||PEGASUS|10.40.26.68|||110000423831|50
10.10.2018 13:00:00||PEGASUS|10.40.27.63|||110000423831|40
10.10.2018 13:00:00||PEGASUS|10.40.27.86|||110000423831|340
10.10.2018 13:00:00||PEGASUS|10.40.27.63|||110000423831|50
10.10.2018 13:00:00||PEGASUS|10.40.27.63|||110000423831|60
10.10.2018 13:00:00||PEGASUS|10.40.27.64|||110000423831|70
10.10.2018 13:00:00||PEGASUS|10.40.27.64|||110000423831|70
10.10.2018 13:00:00||PEGASUS|10.40.27.63|||110000423831|60
10.10.2018 13:00:00||PEGASUS|10.40.27.63|||110000423831|70
10.10.2018 13:00:00||PEGASUS|10.40.27.63|||110000423831|90
10.10.2018 13:00:00||PEGASUS|10.40.26.63|||110000423831|113
10.10.2018 13:00:00||PEGASUS|10.40.27.67|||110000423831|360
10.10.2018 13:00:00||PEGASUS|10.40.27.64|||110000423831|260
10.10.2018 13:00:00||PEGASUS|10.40.27.64|||110000423831|257
10.10.2018 13:00:00||PEGASUS|10.40.27.63|||110000423831|75
10.10.2018 13:00:00||PEGASUS|10.40.27.63|||110000423831|75
10.10.2018 13:00:00||PEGASUS|10.40.27.63|||110000423831|80
10.10.2018 13:00:00||PEGASUS|10.40.26.63|||110000423831|110
10.10.2018 13:00:00||PEGASUS|10.40.26.63|||110000423831|258
10.10.2018 13:00:00||PEGASUS|10.40.27.81|||110000423831|470
10.10.2018 13:00:00||PEGASUS|10.40.27.81|||110000423831|378
10.10.2018 13:00:00||PEGASUS|10.40.26.63|||110000423831|90
10.10.2018 13:00:00||PEGASUS|10.40.26.63|||110000423831|47
10.10.2018 13:00:00||PEGASUS|10.40.26.67|||110000423831|30
10.10.2018 13:00:00||PEGASUS|10.40.26.67|||110000423831|340
10.10.2018 13:00:00||PEGASUS|10.40.26.67|||110000423831|60
10.10.2018 13:00:00||PEGASUS|10.40.26.67|||110000423831|40
10.10.2018 13:00:00||PEGASUS|10.40.26.67|||110000423831|70
10.10.2018 13:00:00||PEGASUS|10.40.26.68|||110000423831|100
10.10.2018 13:00:00||PEGASUS|10.40.27.64|||110000423831|283
10.10.2018 13:00:00||PEGASUS|10.40.27.64|||110000423831|260
10.10.2018 13:00:00||PEGASUS|10.40.27.64|||110000423831|287
10.10.2018 13:00:00||PEGASUS|10.40.27.64|||110000423831|265
10.10.2018 13:00:00||PEGASUS|10.40.27.64|||110000423831|272
10.10.2018 13:00:00||PEGASUS|10.40.27.86|||110000423831|340
10.10.2018 13:00:00||PEGASUS|10.40.27.63|||110000423831|90
10.10.2018 13:00:00||PEGASUS|10.40.26.63|||110000423831|130
10.10.2018 13:00:00||PEGASUS|10.40.26.63|||110000423831|60
10.10.2018 13:00:00||PEGASUS|10.40.26.63|||110000423831|93
10.10.2018 13:00:00||PEGASUS|10.40.26.67|||110000423831|340
10.10.2018 13:00:00||PEGASUS|10.40.27.63|||110000423831|50
10.10.2018 13:00:00||PEGASUS|10.40.27.63|||110000423831|60
10.10.2018 13:00:00||PEGASUS|10.40.27.81|||110000423831|440
10.10.2018 13:00:00||PEGASUS|10.40.26.62|||110000423831|90
10.10.2018 13:00:00||PEGASUS|10.40.26.62|||110000423831|3
10.10.2018 13:00:00||PEGASUS|10.40.26.63|||110000423831|50
10.10.2018 13:00:00||PEGASUS|10.40.26.63|||110000423831|137
10.10.2018 13:00:00||PEGASUS|10.40.26.63|||110000423831|40
10.10.2018 13:00:00||PEGASUS|10.40.26.63|||110000423831|57
10.10.2018 13:00:00||PEGASUS|10.40.26.67|||110000423831|340
10.10.2018 13:00:00||PEGASUS|10.40.27.64|||110000423831|275
10.10.2018 13:00:00||PEGASUS|10.40.27.64|||110000423831|272
10.10.2018 13:00:00||PEGASUS|10.40.27.64|||110000423831|260
10.10.2018 13:00:00||PEGASUS|10.40.27.64|||110000423831|275
10.10.2018 13:00:00||PEGASUS|10.40.27.64|||110000423831|312
10.10.2018 13:00:00||PEGASUS|10.40.27.86|||110000423831|40
10.10.2018 13:00:00||PEGASUS|10.40.27.63|||110000423831|73
10.10.2018 13:00:00||PEGASUS|10.40.27.63|||110000423831|80
10.10.2018 13:00:00||PEGASUS|10.40.27.63|||110000423831|75
10.10.2018 13:00:00||PEGASUS|10.40.27.63|||110000423831|218
10.10.2018 13:00:00||PEGASUS|10.40.27.63|||110000423831|57
10.10.2018 13:00:00||PEGASUS|10.40.26.64|||110000423831|80
10.10.2018 13:00:00||PEGASUS|10.40.26.64|||110000423831|80
10.10.2018 13:00:00||PEGASUS|10.40.26.82|||110000423831|210
10.10.2018 13:00:00||PEGASUS|10.40.26.82|||110000423831|110
10.10.2018 13:00:00||PEGASUS|10.40.26.82|||110000423831|80
10.10.2018 13:00:00||PEGASUS|10.40.26.82|||110000423831|150
10.10.2018 13:00:00||PEGASUS|10.40.26.82|||110000423831|140
10.10.2018 13:00:00||PEGASUS|10.40.26.82|||110000423831|140
10.10.2018 13:00:00||PEGASUS|10.40.26.82|||110000423831|180
10.10.2018 13:00:00||PEGASUS|10.40.26.82|||110000423831|30
10.10.2018 13:00:00||PEGASUS|10.40.26.82|||110000423831|40
10.10.2018 13:00:00||PEGASUS|10.40.26.82|||110000423831|20
10.10.2018 13:00:00||PEGASUS|10.40.26.82|||110000423831|70
10.10.2018 13:00:00||PEGASUS|10.40.26.82|||110000423831|50
10.10.2018 13:00:00||PEGASUS|10.40.26.82|||110000423831|40
10.10.2018 13:00:00||PEGASUS|10.40.27.83|||110000423831|578
10.10.2018 13:00:00||PEGASUS|10.40.27.83|||110000423831|70
10.10.2018 13:00:00||PEGASUS|10.40.27.83|||110000423831|512
10.10.2018 13:00:00||PEGASUS|10.40.27.83|||110000423831|507
10.10.2018 13:00:00||PEGASUS|10.40.27.83|||110000423831|70
10.10.2018 13:00:00||PEGASUS|10.40.26.83|||110000423831|530
10.10.2018 13:00:00||PEGASUS|10.40.26.83|||110000423831|50
10.10.2018 13:00:00||PEGASUS|10.40.26.83|||110000423831|400
10.10.2018 13:00:00||PEGASUS|10.40.26.83|||110000423831|555
10.10.2018 13:00:00||PEGASUS|10.40.26.83|||110000423831|555
10.10.2018 13:00:00||PEGASUS|10.40.26.86|||110000423831|360
10.10.2018 13:00:00||PEGASUS|10.40.26.86|||110000423831|135
10.10.2018 13:00:00||PEGASUS|10.40.26.86|||110000423831|350
10.10.2018 13:00:00||PEGASUS|10.40.26.86|||110000423831|50
10.10.2018 13:00:00||PEGASUS|10.40.26.86|||110000423831|30
10.10.2018 13:00:00||PEGASUS|10.40.26.86|||110000423831|350
10.10.2018 13:00:00||PEGASUS|10.40.26.86|||110000423831|40
10.10.2018 13:00:00||PEGASUS|10.40.26.86|||110000423831|50
10.10.2018 13:00:00||PEGASUS|10.40.27.87|||110000423831|90
10.10.2018 13:00:00||PEGASUS|10.40.27.87|||110000423831|88
10.10.2018 13:00:00||PEGASUS|10.40.27.87|||110000423831|90
10.10.2018 13:00:00||PEGASUS|10.40.27.87|||110000423831|20
10.10.2018 13:00:00||PEGASUS|10.40.26.87|||110000423831|90
10.10.2018 13:00:00||PEGASUS|10.40.26.87|||110000423831|90
10.10.2018 13:00:00||PEGASUS|10.40.26.87|||110000423831|90
10.10.2018 13:00:00||PEGASUS|10.40.26.87|||110000423831|20
10.10.2018 13:00:00||PEGASUS|10.40.26.81|||110000423831|415
10.10.2018 13:00:00||PEGASUS|10.40.26.81|||110000423831|423
10.10.2018 13:00:00||PEGASUS|10.40.26.81|||110000423831|435
10.10.2018 13:00:00||PEGASUS|10.40.27.82|||110000423831|220
10.10.2018 13:00:00||PEGASUS|10.40.27.82|||110000423831|30
10.10.2018 13:00:00||PEGASUS|10.40.27.82|||110000423831|112
10.10.2018 13:00:00||PEGASUS|10.40.27.82|||110000423831|80
10.10.2018 13:00:00||PEGASUS|10.40.27.82|||110000423831|150
10.10.2018 13:00:00||PEGASUS|10.40.27.82|||110000423831|120
10.10.2018 13:00:00||PEGASUS|10.40.27.82|||110000423831|163
10.10.2018 13:00:00||PEGASUS|10.40.27.82|||110000423831|117
10.10.2018 13:00:00||PEGASUS|10.40.27.82|||110000423831|63
10.10.2018 13:00:00||PEGASUS|10.40.27.82|||110000423831|75
10.10.2018 13:00:00||PEGASUS|10.40.27.82|||110000423831|50
10.10.2018 13:00:00||PEGASUS|10.40.27.82|||110000423831|32
10.10.2018 13:00:00||PEGASUS|10.40.27.82|||110000423831|40
10.10.2018 13:00:00||PEGASUS|10.40.27.67|||110000423831|50
10.10.2018 13:00:00||PEGASUS|10.40.27.67|||110000423831|70
10.10.2018 13:00:00||PEGASUS|10.40.27.67|||110000423831|130
10.10.2018 13:00:00||PEGASUS|10.40.27.67|||110000423831|10
10.10.2018 13:00:00||PEGASUS|10.40.27.67|||110000423831|340
10.10.2018 13:00:00||PEGASUS|10.40.27.82|||110000423831|73
10.10.2018 13:00:00||PEGASUS|10.40.27.86|||110000423831|167
10.10.2018 13:00:00||PEGASUS|10.40.27.86|||110000423831|70
10.10.2018 13:00:00||PEGASUS|10.40.27.86|||110000423831|20
10.10.2018 13:00:00||PEGASUS|10.40.27.86|||110000423831|342
10.10.2018 13:00:00||PWC|10.40.24.66|||110000433262|92
10.10.2018 13:00:00||PWC|10.40.24.66|||110000433262|10
10.10.2018 13:00:00||PWC|10.40.24.66|||110000433262|30
10.10.2018 13:00:00||PWC|10.40.24.66|||110000433262|52
10.10.2018 13:00:00||PWC|10.40.24.66|||110000433262|452
10.10.2018 13:00:00||PWC|10.40.24.68|||110000433262|160
10.10.2018 13:00:00||PWC|10.40.24.66|||110000433262|50
10.10.2018 13:00:00||PWC|10.40.24.66|||110000433262|213
10.10.2018 13:00:00||PWC|10.40.24.66|||110000433262|210
10.10.2018 13:00:00||PWC|10.40.25.67|||110000433262|80
10.10.2018 13:00:00||PWC|10.40.25.67|||110000433262|90
10.10.2018 13:00:00||PWC|10.40.25.67|||110000433262|320
10.10.2018 13:00:00||PWC|10.40.25.67|||110000433262|250
10.10.2018 13:00:00||PWC|10.40.25.67|||110000433262|240
10.10.2018 13:00:00||PWC|10.40.25.67|||110000433262|250
10.10.2018 13:00:00||PWC|10.40.25.67|||110000433262|50
10.10.2018 13:00:00||PWC|10.40.25.67|||110000433262|30
10.10.2018 13:00:00||PWC|10.40.25.67|||110000433262|120
10.10.2018 13:00:00||PWC|10.40.24.67|||110000433262|18
10.10.2018 13:00:00||PWC|10.40.24.67|||110000433262|10
10.10.2018 13:00:00||PWC|10.40.24.67|||110000433262|385
10.10.2018 13:00:00||PWC|10.40.24.67|||110000433262|30
10.10.2018 13:00:00||PWC|10.40.24.67|||110000433262|52
10.10.2018 13:00:00||PWC|10.40.24.67|||110000433262|120
10.10.2018 13:00:00||PWC|10.40.25.68|||110000433262|107
10.10.2018 13:00:00||PWC|10.40.25.68|||110000433262|180
10.10.2018 13:00:00||PWC|10.40.25.68|||110000433262|72
10.10.2018 13:00:00||PWC|10.40.25.68|||110000433262|80
10.10.2018 13:00:00||PWC|10.40.25.68|||110000433262|152
10.10.2018 13:00:00||PWC|10.40.24.66|||110000433262|60
10.10.2018 13:00:00||PWC|10.40.24.66|||110000433262|30
10.10.2018 13:00:00||PWC|10.40.24.66|||110000433262|30
10.10.2018 13:00:00||PWC|10.40.24.68|||110000433262|88
10.10.2018 13:00:00||PWC|10.40.24.68|||110000433262|133
10.10.2018 13:00:00||PWC|10.40.24.68|||110000433262|400
10.10.2018 13:00:00||PWC|10.40.24.68|||110000433262|80
10.10.2018 13:00:00||PWC|10.40.24.68|||110000433262|68
10.10.2018 13:00:00||VSMART BİLGİ TEKNOLOJİLERİ|10.40.24.62|||110000474326|40
10.10.2018 13:00:00||VSMART BİLGİ TEKNOLOJİLERİ|10.40.24.62|||110000474326|70
10.10.2018 13:00:00||VSMART BİLGİ TEKNOLOJİLERİ|10.40.24.62|||110000474326|38
10.10.2018 13:00:00||VSMART BİLGİ TEKNOLOJİLERİ|10.40.25.62|||110000474326|60
10.10.2018 13:00:00||VSMART BİLGİ TEKNOLOJİLERİ|10.40.24.62|||110000474326|40
10.10.2018 13:00:00||VSMART BİLGİ TEKNOLOJİLERİ|10.40.24.62|||110000474326|30
10.10.2018 13:00:00||VSMART BİLGİ TEKNOLOJİLERİ|10.40.24.62|||110000474326|10
10.10.2018 13:00:00||VSMART BİLGİ TEKNOLOJİLERİ|10.40.25.62|||110000474326|40
10.10.2018 13:00:00||VSMART BİLGİ TEKNOLOJİLERİ|10.40.25.62|||110000474326|10
10.10.2018 13:00:00||VSMART BİLGİ TEKNOLOJİLERİ|10.40.25.62|||110000474326|10
10.10.2018 13:00:00||VSMART BİLGİ TEKNOLOJİLERİ|10.40.25.62|||110000474326|80
10.10.2018 13:00:00||VSMART BİLGİ TEKNOLOJİLERİ|10.40.25.62|||110000474326|87
10.10.2018 13:00:00||VSMART BİLGİ TEKNOLOJİLERİ|10.40.25.62|||110000474326|102
10.10.2018 13:00:00||VSMART BİLGİ TEKNOLOJİLERİ|10.40.24.62|||110000474326|10
