9/29/2018 4:00:00 PM||HAVAS|10.40.25.45|||110000479675|2065
9/29/2018 4:00:00 PM||HAVAS|10.40.24.45|||110000479675|3093
9/29/2018 4:00:00 PM||HAVAS|10.40.25.46|||110000479675|3548
9/29/2018 4:00:00 PM||HAVAS|10.40.24.46|||110000479675|2966
9/29/2018 4:00:00 PM||HAVAS|10.40.25.47|||110000479675|8623
9/29/2018 4:00:00 PM||HAVAS|10.40.24.47|||110000479675|6236
9/29/2018 4:00:00 PM||HAVAS|10.40.25.48|||110000479675|17540
9/29/2018 4:00:00 PM||HAVAS|10.40.24.48|||110000479675|17249
9/29/2018 4:00:00 PM||PWC|10.40.24.66|||110000433262|9619
9/29/2018 4:00:00 PM||PWC|10.40.25.67|||110000433262|10223
9/29/2018 4:00:00 PM||PWC|10.40.24.67|||110000433262|4369
9/29/2018 4:00:00 PM||PWC|10.40.25.68|||110000433262|7050
9/29/2018 4:00:00 PM||PWC|10.40.24.68|||110000433262|2977
9/29/2018 4:00:00 PM||PWC|10.40.25.69|||110000433262|2127
9/29/2018 4:00:00 PM||PWC|10.40.24.69|||110000433262|2139
9/29/2018 4:00:00 PM||CALIK HOLDING|10.40.25.94|||110000438408|5350
9/29/2018 4:00:00 PM||CALIK HOLDING|10.40.24.94|||110000438408|5681
9/29/2018 4:00:00 PM||CALIK HOLDING|10.40.25.95|||110000438408|7087
9/29/2018 4:00:00 PM||CALIK HOLDING|10.40.24.95|||110000438408|8258
9/29/2018 4:00:00 PM||CALIK HOLDING|10.40.25.96|||110000438408|12993
9/29/2018 4:00:00 PM||CALIK HOLDING|10.40.25.97|||110000438408|5023
9/29/2018 4:00:00 PM||CALIK HOLDING|10.40.24.97|||110000438408|3288
9/29/2018 4:00:00 PM||CALIK HOLDING|10.40.25.98|||110000438408|15061
9/29/2018 4:00:00 PM||CALIK HOLDING|10.40.24.98|||110000438408|14268
9/29/2018 4:00:00 PM||CALIK HOLDING|10.40.25.100|||110000438408|618
9/29/2018 4:00:00 PM||CALIK HOLDING|10.40.24.100|||110000438408|382
9/29/2018 4:00:00 PM||CALIK HOLDING|10.40.25.101|||110000438408|4975
9/29/2018 4:00:00 PM||CALIK HOLDING|10.40.24.101|||110000438408|6019
9/29/2018 4:00:00 PM||CALIK HOLDING|10.40.25.102|||110000438408|2683
9/29/2018 4:00:00 PM||CALIK HOLDING|10.40.24.102|||110000438408|2526
9/29/2018 4:00:00 PM||CALIK HOLDING|10.40.25.103|||110000438408|2136
9/29/2018 4:00:00 PM||CALIK HOLDING|10.40.24.103|||110000438408|2086
9/29/2018 4:00:00 PM||CALIK HOLDING|10.40.24.104|||110000438408|6681
9/29/2018 4:00:00 PM||CALIK HOLDING|10.40.25.113|||110000438408|2945
9/29/2018 4:00:00 PM||CALIK HOLDING|10.40.24.113|||110000438408|1750
9/29/2018 4:00:00 PM||CALIK HOLDING|10.40.25.114|||110000438408|4205
9/29/2018 4:00:00 PM||CALIK HOLDING|10.40.24.114|||110000438408|1522
9/29/2018 4:00:00 PM||CALIK HOLDING|10.40.25.115|||110000438408|4190
9/29/2018 4:00:00 PM||CALIK HOLDING|10.40.24.115|||110000438408|3006
9/29/2018 4:00:00 PM||CALIK HOLDING|10.40.25.116|||110000438408|2056
9/29/2018 4:00:00 PM||CALIK HOLDING|10.40.24.116|||110000438408|2595
9/29/2018 4:00:00 PM||CALIK HOLDING|10.40.25.117|||110000438408|1659
9/29/2018 4:00:00 PM||CALIK HOLDING|10.40.24.117|||110000438408|1436
9/29/2018 4:00:00 PM||CALIK HOLDING|10.40.25.119|||110000438408|394
9/29/2018 4:00:00 PM||CALIK HOLDING|10.40.24.119|||110000438408|1257
9/29/2018 4:00:00 PM||CALIK HOLDING|10.40.25.120|||110000438408|3206
9/29/2018 4:00:00 PM||CALIK HOLDING|10.40.24.120|||110000438408|3244
9/29/2018 4:00:00 PM||CALIK HOLDING|10.40.25.121|||110000438408|1782
9/29/2018 4:00:00 PM||CALIK HOLDING|10.40.24.121|||110000438408|782
9/29/2018 4:00:00 PM||CALIK HOLDING|10.40.25.122|||110000438408|1470
9/29/2018 4:00:00 PM||CALIK HOLDING|10.40.24.122|||110000438408|1680
9/29/2018 4:00:00 PM||CALIK HOLDING|10.40.25.123|||110000438408|6609
9/29/2018 4:00:00 PM||CALIK HOLDING|10.40.24.123|||110000438408|6113
9/29/2018 4:00:00 PM||AKTIFBANK|10.40.25.128|||110000438458|2034
9/29/2018 4:00:00 PM||AKTIFBANK|10.40.24.128|||110000438458|2636
9/29/2018 4:00:00 PM||AKTIFBANK|10.40.25.129|||110000438458|6451
9/29/2018 4:00:00 PM||AKTIFBANK|10.40.24.129|||110000438458|4782
9/29/2018 4:00:00 PM||AKTIFBANK|10.40.25.130|||110000438458|5422
9/29/2018 4:00:00 PM||AKTIFBANK|10.40.24.130|||110000438458|3817
9/29/2018 4:00:00 PM||AKTIFBANK|10.40.25.131|||110000438458|4514
9/29/2018 4:00:00 PM||AKTIFBANK|10.40.24.131|||110000438458|3686
9/29/2018 4:00:00 PM||AKTIFBANK|10.40.25.132|||110000438458|3232
9/29/2018 4:00:00 PM||AKTIFBANK|10.40.24.132|||110000438458|2446
9/29/2018 4:00:00 PM||AKTIFBANK|10.40.25.133|||110000438458|5354
9/29/2018 4:00:00 PM||AKTIFBANK|10.40.24.133|||110000438458|3523
9/29/2018 4:00:00 PM||AKTIFBANK|10.40.25.138|||110000438458|1558
9/29/2018 4:00:00 PM||AKTIFBANK|10.40.24.138|||110000438458|4586
9/29/2018 4:00:00 PM||AKTIFBANK|10.40.25.139|||110000438458|1268
9/29/2018 4:00:00 PM||AKTIFBANK|10.40.24.139|||110000438458|1918
9/29/2018 4:00:00 PM||AKTIFBANK|10.40.25.140|||110000438458|2133
9/29/2018 4:00:00 PM||AKTIFBANK|10.40.24.140|||110000438458|2886
9/29/2018 4:00:00 PM||AKTIFBANK|10.40.25.141|||110000438458|3953
9/29/2018 4:00:00 PM||AKTIFBANK|10.40.24.141|||110000438458|5270
9/29/2018 4:00:00 PM||AKTIFBANK|10.40.25.142|||110000438458|301
9/29/2018 4:00:00 PM||AKTIFBANK|10.40.24.142|||110000438458|600
9/29/2018 4:00:00 PM||AKTIFBANK|10.40.25.143|||110000438458|6112
9/29/2018 4:00:00 PM||AKTIFBANK|10.40.24.143|||110000438458|4385
9/29/2018 4:00:00 PM||AKTIFBANK|10.40.25.144|||110000438458|1334
9/29/2018 4:00:00 PM||AKTIFBANK|10.40.24.144|||110000438458|1517
9/29/2018 4:00:00 PM||AKTIFBANK|10.40.25.145|||110000438458|2101
9/29/2018 4:00:00 PM||AKTIFBANK|10.40.24.145|||110000438458|2206
9/29/2018 4:00:00 PM||AKTIFBANK|10.40.25.147|||110000438458|626
9/29/2018 4:00:00 PM||AKTIFBANK|10.40.24.147|||110000438458|383
9/29/2018 4:00:00 PM||AKTIFBANK|10.40.25.148|||110000438458|7367
9/29/2018 4:00:00 PM||AKTIFBANK|10.40.24.148|||110000438458|5151
9/29/2018 4:00:00 PM||AKTIFBANK|10.40.25.149|||110000438458|9759
9/29/2018 4:00:00 PM||AKTIFBANK|10.40.24.149|||110000438458|10740
9/29/2018 4:00:00 PM||AKTIFBANK|10.40.25.150|||110000438458|12337
9/29/2018 4:00:00 PM||AKTIFBANK|10.40.24.150|||110000438458|12578
9/29/2018 4:00:00 PM||AKTIFBANK|10.40.25.151|||110000438458|11644
9/29/2018 4:00:00 PM||AKTIFBANK|10.40.24.151|||110000438458|11884
9/29/2018 4:00:00 PM||AKTIFBANK|10.40.25.152|||110000438458|6094
9/29/2018 4:00:00 PM||AKTIFBANK|10.40.24.152|||110000438458|2435
9/29/2018 4:00:00 PM||AKTIFBANK|10.40.25.153|||110000438458|1790
9/29/2018 4:00:00 PM||AKTIFBANK|10.40.24.153|||110000438458|1343
9/29/2018 4:00:00 PM||AKTIFBANK|10.40.25.154|||110000438458|300
9/29/2018 4:00:00 PM||AKTIFBANK|10.40.24.154|||110000438458|734
9/29/2018 4:00:00 PM||AKTIFBANK|10.40.25.155|||110000438458|3460
9/29/2018 4:00:00 PM||AKTIFBANK|10.40.24.155|||110000438458|2152
9/29/2018 4:00:00 PM||AKTIFBANK|10.40.25.157|||110000438458|2391
9/29/2018 4:00:00 PM||AKTIFBANK|10.40.24.157|||110000438458|1922
9/29/2018 4:00:00 PM||AKTIFBANK|10.40.25.158|||110000438458|897
9/29/2018 4:00:00 PM||AKTIFBANK|10.40.24.158|||110000438458|2599
9/29/2018 4:00:00 PM||AKTIFBANK|10.40.25.159|||110000438458|1177
9/29/2018 4:00:00 PM||AKTIFBANK|10.40.24.159|||110000438458|1459
9/29/2018 4:00:00 PM||AKTIFBANK|10.40.25.160|||110000438458|1408
9/29/2018 4:00:00 PM||AKTIFBANK|10.40.24.160|||110000438458|981
9/29/2018 4:00:00 PM||AKTIFBANK|10.40.25.161|||110000438458|1692
9/29/2018 4:00:00 PM||AKTIFBANK|10.40.24.161|||110000438458|2699
9/29/2018 4:00:00 PM||AKTIFBANK|10.40.25.162|||110000438458|1788
9/29/2018 4:00:00 PM||AKTIFBANK|10.40.24.162|||110000438458|2737
9/29/2018 4:00:00 PM||AKTIFBANK|10.40.25.163|||110000438458|375
9/29/2018 4:00:00 PM||AKTIFBANK|10.40.24.163|||110000438458|1322
9/29/2018 4:00:00 PM||AKTIFBANK|10.40.24.164|||110000438458|4655
9/29/2018 4:00:00 PM||AKTIFBANK|10.40.25.165|||110000438458|2299
9/29/2018 4:00:00 PM||AKTIFBANK|10.40.24.165|||110000438458|1952
9/29/2018 4:00:00 PM||AKTIFBANK|10.40.25.166|||110000438458|971
9/29/2018 4:00:00 PM||AKTIFBANK|10.40.24.166|||110000438458|1122
9/29/2018 4:00:00 PM||AKTIFBANK|10.40.25.168|||110000438458|1709
9/29/2018 4:00:00 PM||AKTIFBANK|10.40.24.168|||110000438458|2115
9/29/2018 4:00:00 PM||AKTIFBANK|10.40.25.169|||110000438458|800
9/29/2018 4:00:00 PM||AKTIFBANK|10.40.24.169|||110000438458|1662
9/29/2018 4:00:00 PM||AKTIFBANK|10.40.25.170|||110000438458|2820
9/29/2018 4:00:00 PM||AKTIFBANK|10.40.24.170|||110000438458|4646
9/29/2018 4:00:00 PM||AKTIFBANK|10.40.25.178|||110000438458|10696
9/29/2018 4:00:00 PM||AKTIFBANK|10.40.24.178|||110000438458|8125
9/29/2018 4:00:00 PM||AKTIFBANK|10.40.25.179|||110000438458|5038
9/29/2018 4:00:00 PM||AKTIFBANK|10.40.24.179|||110000438458|4191
9/29/2018 4:00:00 PM||AKTIFBANK|10.40.25.186|||110000438458|957
9/29/2018 4:00:00 PM||AKTIFBANK|10.40.24.186|||110000438458|1380
9/29/2018 4:00:00 PM||MARS CINEMA|10.40.25.203|||110000472614|9692
9/29/2018 4:00:00 PM||MARS CINEMA|10.40.24.203|||110000472614|7466
9/29/2018 4:00:00 PM||MARS CINEMA|10.40.25.204|||110000472614|7530
9/29/2018 4:00:00 PM||MARS CINEMA|10.40.24.204|||110000472614|5499
9/29/2018 4:00:00 PM||MARS CINEMA|10.40.25.206|||110000472614|2442
9/29/2018 4:00:00 PM||MARS CINEMA|10.40.24.206|||110000472614|3839
9/29/2018 4:00:00 PM||PEGASUS|10.40.26.62|||110000423831|2451
9/29/2018 4:00:00 PM||PEGASUS|10.40.27.63|||110000423831|197587
9/29/2018 4:00:00 PM||PEGASUS|10.40.26.63|||110000423831|14294
9/29/2018 4:00:00 PM||PEGASUS|10.40.27.64|||110000423831|25687
9/29/2018 4:00:00 PM||PEGASUS|10.40.26.64|||110000423831|1127
9/29/2018 4:00:00 PM||PEGASUS|10.40.27.67|||110000423831|10101
9/29/2018 4:00:00 PM||PEGASUS|10.40.26.67|||110000423831|10497
9/29/2018 4:00:00 PM||PEGASUS|10.40.27.68|||110000423831|2512
9/29/2018 4:00:00 PM||PEGASUS|10.40.26.68|||110000423831|2564
9/29/2018 4:00:00 PM||PEGASUS|10.40.27.81|||110000423831|9472
9/29/2018 4:00:00 PM||PEGASUS|10.40.26.81|||110000423831|6812
9/29/2018 4:00:00 PM||PEGASUS|10.40.27.82|||110000423831|7353
9/29/2018 4:00:00 PM||PEGASUS|10.40.27.83|||110000423831|11163
9/29/2018 4:00:00 PM||PEGASUS|10.40.26.83|||110000423831|13162
9/29/2018 4:00:00 PM||PEGASUS|10.40.27.86|||110000423831|2949
9/29/2018 4:00:00 PM||PEGASUS|10.40.26.86|||110000423831|7681
9/29/2018 4:00:00 PM||PEGASUS|10.40.27.87|||110000423831|1959
9/29/2018 4:00:00 PM||PEGASUS|10.40.26.87|||110000423831|1781
9/29/2018 4:00:00 PM||BOYNER|10.40.27.95|||101367941673|2669
9/29/2018 4:00:00 PM||BOYNER|10.40.26.95|||101367941673|2472
9/29/2018 4:00:00 PM||BOYNER|10.40.27.96|||101367941673|5012
9/29/2018 4:00:00 PM||BOYNER|10.40.26.96|||101367941673|5464
9/29/2018 4:00:00 PM||BOYNER|10.40.27.97|||101367941673|14216
9/29/2018 4:00:00 PM||BOYNER|10.40.26.97|||101367941673|13721
9/29/2018 4:00:00 PM||BOYNER|10.40.27.99|||101367941673|1953
9/29/2018 4:00:00 PM||BOYNER|10.40.26.99|||101367941673|741
