04.10.2018 11:00:00||AKTİFBANK|10.40.24.128|||110000438458|144
04.10.2018 11:00:00||AKTİFBANK|10.40.24.128|||110000438458|68
04.10.2018 11:00:00||AKTİFBANK|10.40.24.128|||110000438458|96
04.10.2018 11:00:00||AKTİFBANK|10.40.24.128|||110000438458|39
04.10.2018 11:00:00||AKTİFBANK|10.40.24.128|||110000438458|68
04.10.2018 11:00:00||AKTİFBANK|10.40.24.128|||110000438458|39
04.10.2018 11:00:00||AKTİFBANK|10.40.24.129|||110000438458|96
04.10.2018 11:00:00||AKTİFBANK|10.40.24.129|||110000438458|68
04.10.2018 11:00:00||AKTİFBANK|10.40.24.129|||110000438458|96
04.10.2018 11:00:00||AKTİFBANK|10.40.24.129|||110000438458|106
04.10.2018 11:00:00||AKTİFBANK|10.40.24.129|||110000438458|48
04.10.2018 11:00:00||AKTİFBANK|10.40.24.129|||110000438458|68
04.10.2018 11:00:00||AKTİFBANK|10.40.24.129|||110000438458|68
04.10.2018 11:00:00||AKTİFBANK|10.40.24.129|||110000438458|87
04.10.2018 11:00:00||AKTİFBANK|10.40.24.129|||110000438458|77
04.10.2018 11:00:00||AKTİFBANK|10.40.24.129|||110000438458|135
04.10.2018 11:00:00||AKTİFBANK|10.40.24.130|||110000438458|48
04.10.2018 11:00:00||AKTİFBANK|10.40.24.130|||110000438458|39
04.10.2018 11:00:00||AKTİFBANK|10.40.24.130|||110000438458|77
04.10.2018 11:00:00||AKTİFBANK|10.40.24.130|||110000438458|39
04.10.2018 11:00:00||AKTİFBANK|10.40.24.130|||110000438458|58
04.10.2018 11:00:00||AKTİFBANK|10.40.24.130|||110000438458|77
04.10.2018 11:00:00||AKTİFBANK|10.40.24.130|||110000438458|87
04.10.2018 11:00:00||AKTİFBANK|10.40.24.130|||110000438458|39
04.10.2018 11:00:00||AKTİFBANK|10.40.24.130|||110000438458|125
04.10.2018 11:00:00||AKTİFBANK|10.40.24.130|||110000438458|106
04.10.2018 11:00:00||AKTİFBANK|10.40.24.131|||110000438458|10
04.10.2018 11:00:00||AKTİFBANK|10.40.24.131|||110000438458|96
04.10.2018 11:00:00||AKTİFBANK|10.40.24.131|||110000438458|86
04.10.2018 11:00:00||AKTİFBANK|10.40.24.131|||110000438458|105
04.10.2018 11:00:00||AKTİFBANK|10.40.24.131|||110000438458|114
04.10.2018 11:00:00||AKTİFBANK|10.40.24.131|||110000438458|30
04.10.2018 11:00:00||AKTİFBANK|10.40.24.131|||110000438458|152
04.10.2018 11:00:00||AKTİFBANK|10.40.24.131|||110000438458|58
04.10.2018 11:00:00||AKTİFBANK|10.40.24.131|||110000438458|105
04.10.2018 11:00:00||AKTİFBANK|10.40.24.132|||110000438458|39
04.10.2018 11:00:00||AKTİFBANK|10.40.24.132|||110000438458|76
04.10.2018 11:00:00||AKTİFBANK|10.40.24.132|||110000438458|48
04.10.2018 11:00:00||AKTİFBANK|10.40.24.132|||110000438458|171
04.10.2018 11:00:00||AKTİFBANK|10.40.24.132|||110000438458|67
04.10.2018 11:00:00||AKTİFBANK|10.40.24.133|||110000438458|133
04.10.2018 11:00:00||AKTİFBANK|10.40.24.133|||110000438458|86
04.10.2018 11:00:00||AKTİFBANK|10.40.24.133|||110000438458|114
04.10.2018 11:00:00||AKTİFBANK|10.40.24.133|||110000438458|86
04.10.2018 11:00:00||AKTİFBANK|10.40.24.134|||110000438458|60
04.10.2018 11:00:00||AKTİFBANK|10.40.24.134|||110000438458|31
04.10.2018 11:00:00||AKTİFBANK|10.40.24.135|||110000438458|64
04.10.2018 11:00:00||AKTİFBANK|10.40.24.135|||110000438458|31
04.10.2018 11:00:00||AKTİFBANK|10.40.24.137|||110000438458|3
04.10.2018 11:00:00||AKTİFBANK|10.40.24.137|||110000438458|52
04.10.2018 11:00:00||AKTİFBANK|10.40.24.138|||110000438458|105
04.10.2018 11:00:00||AKTİFBANK|10.40.24.138|||110000438458|114
04.10.2018 11:00:00||AKTİFBANK|10.40.24.138|||110000438458|133
04.10.2018 11:00:00||AKTİFBANK|10.40.24.138|||110000438458|105
04.10.2018 11:00:00||AKTİFBANK|10.40.24.138|||110000438458|30
04.10.2018 11:00:00||AKTİFBANK|10.40.24.138|||110000438458|48
04.10.2018 11:00:00||AKTİFBANK|10.40.24.139|||110000438458|39
04.10.2018 11:00:00||AKTİFBANK|10.40.24.139|||110000438458|30
04.10.2018 11:00:00||AKTİFBANK|10.40.24.139|||110000438458|48
04.10.2018 11:00:00||AKTİFBANK|10.40.24.139|||110000438458|86
04.10.2018 11:00:00||AKTİFBANK|10.40.24.139|||110000438458|58
04.10.2018 11:00:00||AKTİFBANK|10.40.24.139|||110000438458|114
04.10.2018 11:00:00||AKTİFBANK|10.40.24.140|||110000438458|20
04.10.2018 11:00:00||AKTİFBANK|10.40.24.140|||110000438458|76
04.10.2018 11:00:00||AKTİFBANK|10.40.24.140|||110000438458|39
04.10.2018 11:00:00||AKTİFBANK|10.40.24.140|||110000438458|30
04.10.2018 11:00:00||AKTİFBANK|10.40.24.140|||110000438458|30
04.10.2018 11:00:00||AKTİFBANK|10.40.24.140|||110000438458|48
04.10.2018 11:00:00||AKTİFBANK|10.40.24.140|||110000438458|39
04.10.2018 11:00:00||AKTİFBANK|10.40.24.140|||110000438458|20
04.10.2018 11:00:00||AKTİFBANK|10.40.24.140|||110000438458|30
04.10.2018 11:00:00||AKTİFBANK|10.40.24.141|||110000438458|190
04.10.2018 11:00:00||AKTİFBANK|10.40.24.141|||110000438458|48
04.10.2018 11:00:00||AKTİFBANK|10.40.24.141|||110000438458|95
04.10.2018 11:00:00||AKTİFBANK|10.40.24.141|||110000438458|95
04.10.2018 11:00:00||AKTİFBANK|10.40.24.141|||110000438458|67
04.10.2018 11:00:00||AKTİFBANK|10.40.24.141|||110000438458|76
04.10.2018 11:00:00||AKTİFBANK|10.40.24.141|||110000438458|67
04.10.2018 11:00:00||AKTİFBANK|10.40.24.142|||110000438458|67
04.10.2018 11:00:00||AKTİFBANK|10.40.24.142|||110000438458|39
04.10.2018 11:00:00||AKTİFBANK|10.40.24.143|||110000438458|67
04.10.2018 11:00:00||AKTİFBANK|10.40.24.143|||110000438458|256
04.10.2018 11:00:00||AKTİFBANK|10.40.24.143|||110000438458|303
04.10.2018 11:00:00||AKTİFBANK|10.40.24.143|||110000438458|190
04.10.2018 11:00:00||AKTİFBANK|10.40.24.144|||110000438458|76
04.10.2018 11:00:00||AKTİFBANK|10.40.24.144|||110000438458|95
04.10.2018 11:00:00||AKTİFBANK|10.40.24.144|||110000438458|86
04.10.2018 11:00:00||AKTİFBANK|10.40.24.145|||110000438458|86
04.10.2018 11:00:00||AKTİFBANK|10.40.24.145|||110000438458|20
04.10.2018 11:00:00||AKTİFBANK|10.40.24.145|||110000438458|67
04.10.2018 11:00:00||AKTİFBANK|10.40.24.145|||110000438458|86
04.10.2018 11:00:00||AKTİFBANK|10.40.24.145|||110000438458|58
04.10.2018 11:00:00||AKTİFBANK|10.40.24.145|||110000438458|67
04.10.2018 11:00:00||AKTİFBANK|10.40.24.147|||110000438458|86
04.10.2018 11:00:00||AKTİFBANK|10.40.24.148|||110000438458|67
04.10.2018 11:00:00||AKTİFBANK|10.40.24.148|||110000438458|162
04.10.2018 11:00:00||AKTİFBANK|10.40.24.148|||110000438458|76
04.10.2018 11:00:00||AKTİFBANK|10.40.24.148|||110000438458|105
04.10.2018 11:00:00||AKTİFBANK|10.40.24.148|||110000438458|95
04.10.2018 11:00:00||AKTİFBANK|10.40.24.148|||110000438458|86
04.10.2018 11:00:00||AKTİFBANK|10.40.24.148|||110000438458|95
04.10.2018 11:00:00||AKTİFBANK|10.40.24.148|||110000438458|95
04.10.2018 11:00:00||AKTİFBANK|10.40.24.148|||110000438458|67
04.10.2018 11:00:00||AKTİFBANK|10.40.24.148|||110000438458|67
04.10.2018 11:00:00||AKTİFBANK|10.40.24.148|||110000438458|20
04.10.2018 11:00:00||AKTİFBANK|10.40.24.148|||110000438458|76
04.10.2018 11:00:00||AKTİFBANK|10.40.24.149|||110000438458|76
04.10.2018 11:00:00||AKTİFBANK|10.40.24.149|||110000438458|114
04.10.2018 11:00:00||AKTİFBANK|10.40.24.149|||110000438458|95
04.10.2018 11:00:00||AKTİFBANK|10.40.24.149|||110000438458|58
04.10.2018 11:00:00||AKTİFBANK|10.40.24.149|||110000438458|48
04.10.2018 11:00:00||AKTİFBANK|10.40.24.149|||110000438458|86
04.10.2018 11:00:00||AKTİFBANK|10.40.24.149|||110000438458|143
04.10.2018 11:00:00||AKTİFBANK|10.40.24.149|||110000438458|86
04.10.2018 11:00:00||AKTİFBANK|10.40.24.149|||110000438458|152
04.10.2018 11:00:00||AKTİFBANK|10.40.24.149|||110000438458|105
04.10.2018 11:00:00||AKTİFBANK|10.40.24.149|||110000438458|86
04.10.2018 11:00:00||AKTİFBANK|10.40.24.149|||110000438458|86
04.10.2018 11:00:00||AKTİFBANK|10.40.24.149|||110000438458|76
04.10.2018 11:00:00||AKTİFBANK|10.40.24.149|||110000438458|76
04.10.2018 11:00:00||AKTİFBANK|10.40.24.150|||110000438458|521
04.10.2018 11:00:00||AKTİFBANK|10.40.24.150|||110000438458|511
04.10.2018 11:00:00||AKTİFBANK|10.40.24.150|||110000438458|530
04.10.2018 11:00:00||AKTİFBANK|10.40.24.151|||110000438458|530
04.10.2018 11:00:00||AKTİFBANK|10.40.24.151|||110000438458|521
04.10.2018 11:00:00||AKTİFBANK|10.40.24.151|||110000438458|482
04.10.2018 11:00:00||AKTİFBANK|10.40.24.152|||110000438458|20
04.10.2018 11:00:00||AKTİFBANK|10.40.24.152|||110000438458|48
04.10.2018 11:00:00||AKTİFBANK|10.40.24.152|||110000438458|105
04.10.2018 11:00:00||AKTİFBANK|10.40.24.152|||110000438458|58
04.10.2018 11:00:00||AKTİFBANK|10.40.24.152|||110000438458|105
04.10.2018 11:00:00||AKTİFBANK|10.40.24.152|||110000438458|95
04.10.2018 11:00:00||AKTİFBANK|10.40.24.152|||110000438458|284
04.10.2018 11:00:00||AKTİFBANK|10.40.24.152|||110000438458|67
04.10.2018 11:00:00||AKTİFBANK|10.40.24.152|||110000438458|95
04.10.2018 11:00:00||AKTİFBANK|10.40.24.152|||110000438458|30
04.10.2018 11:00:00||AKTİFBANK|10.40.24.152|||110000438458|67
04.10.2018 11:00:00||AKTİFBANK|10.40.24.152|||110000438458|30
04.10.2018 11:00:00||AKTİFBANK|10.40.24.153|||110000438458|10
04.10.2018 11:00:00||AKTİFBANK|10.40.24.153|||110000438458|86
04.10.2018 11:00:00||AKTİFBANK|10.40.24.153|||110000438458|67
04.10.2018 11:00:00||AKTİFBANK|10.40.24.153|||110000438458|67
04.10.2018 11:00:00||AKTİFBANK|10.40.24.154|||110000438458|67
04.10.2018 11:00:00||AKTİFBANK|10.40.24.154|||110000438458|20
04.10.2018 11:00:00||AKTİFBANK|10.40.24.154|||110000438458|10
04.10.2018 11:00:00||AKTİFBANK|10.40.24.154|||110000438458|10
04.10.2018 11:00:00||AKTİFBANK|10.40.24.154|||110000438458|10
04.10.2018 11:00:00||AKTİFBANK|10.40.24.154|||110000438458|10
04.10.2018 11:00:00||AKTİFBANK|10.40.24.155|||110000438458|105
04.10.2018 11:00:00||AKTİFBANK|10.40.24.155|||110000438458|123
04.10.2018 11:00:00||AKTİFBANK|10.40.24.155|||110000438458|76
04.10.2018 11:00:00||AKTİFBANK|10.40.24.155|||110000438458|105
04.10.2018 11:00:00||AKTİFBANK|10.40.24.155|||110000438458|95
04.10.2018 11:00:00||AKTİFBANK|10.40.24.157|||110000438458|30
04.10.2018 11:00:00||AKTİFBANK|10.40.24.157|||110000438458|76
04.10.2018 11:00:00||AKTİFBANK|10.40.24.157|||110000438458|67
04.10.2018 11:00:00||AKTİFBANK|10.40.24.157|||110000438458|39
04.10.2018 11:00:00||AKTİFBANK|10.40.24.157|||110000438458|76
04.10.2018 11:00:00||AKTİFBANK|10.40.24.157|||110000438458|58
04.10.2018 11:00:00||AKTİFBANK|10.40.24.158|||110000438458|105
04.10.2018 11:00:00||AKTİFBANK|10.40.24.158|||110000438458|105
04.10.2018 11:00:00||AKTİFBANK|10.40.24.158|||110000438458|123
04.10.2018 11:00:00||AKTİFBANK|10.40.24.158|||110000438458|76
04.10.2018 11:00:00||AKTİFBANK|10.40.24.158|||110000438458|76
04.10.2018 11:00:00||AKTİFBANK|10.40.24.158|||110000438458|105
04.10.2018 11:00:00||AKTİFBANK|10.40.24.159|||110000438458|123
04.10.2018 11:00:00||AKTİFBANK|10.40.24.159|||110000438458|59
04.10.2018 11:00:00||AKTİFBANK|10.40.24.159|||110000438458|175
04.10.2018 11:00:00||AKTİFBANK|10.40.24.160|||110000438458|10
04.10.2018 11:00:00||AKTİFBANK|10.40.24.160|||110000438458|10
04.10.2018 11:00:00||AKTİFBANK|10.40.24.160|||110000438458|88
04.10.2018 11:00:00||AKTİFBANK|10.40.24.160|||110000438458|98
04.10.2018 11:00:00||AKTİFBANK|10.40.24.161|||110000438458|175
04.10.2018 11:00:00||AKTİFBANK|10.40.24.161|||110000438458|78
04.10.2018 11:00:00||AKTİFBANK|10.40.24.161|||110000438458|40
04.10.2018 11:00:00||AKTİFBANK|10.40.24.161|||110000438458|30
04.10.2018 11:00:00||AKTİFBANK|10.40.24.161|||110000438458|30
04.10.2018 11:00:00||AKTİFBANK|10.40.24.161|||110000438458|20
04.10.2018 11:00:00||AKTİFBANK|10.40.24.161|||110000438458|88
04.10.2018 11:00:00||AKTİFBANK|10.40.24.162|||110000438458|59
04.10.2018 11:00:00||AKTİFBANK|10.40.24.162|||110000438458|10
04.10.2018 11:00:00||AKTİFBANK|10.40.24.162|||110000438458|78
04.10.2018 11:00:00||AKTİFBANK|10.40.24.162|||110000438458|49
04.10.2018 11:00:00||AKTİFBANK|10.40.24.162|||110000438458|40
04.10.2018 11:00:00||AKTİFBANK|10.40.24.162|||110000438458|40
04.10.2018 11:00:00||AKTİFBANK|10.40.24.162|||110000438458|69
04.10.2018 11:00:00||AKTİFBANK|10.40.24.162|||110000438458|30
04.10.2018 11:00:00||AKTİFBANK|10.40.24.162|||110000438458|10
04.10.2018 11:00:00||AKTİFBANK|10.40.24.162|||110000438458|49
04.10.2018 11:00:00||AKTİFBANK|10.40.24.162|||110000438458|40
04.10.2018 11:00:00||AKTİFBANK|10.40.24.163|||110000438458|30
04.10.2018 11:00:00||AKTİFBANK|10.40.24.163|||110000438458|69
04.10.2018 11:00:00||AKTİFBANK|10.40.24.164|||110000438458|59
04.10.2018 11:00:00||AKTİFBANK|10.40.24.164|||110000438458|321
04.10.2018 11:00:00||AKTİFBANK|10.40.24.164|||110000438458|69
04.10.2018 11:00:00||AKTİFBANK|10.40.24.164|||110000438458|215
04.10.2018 11:00:00||AKTİFBANK|10.40.24.164|||110000438458|205
04.10.2018 11:00:00||AKTİFBANK|10.40.24.165|||110000438458|78
04.10.2018 11:00:00||AKTİFBANK|10.40.24.165|||110000438458|78
04.10.2018 11:00:00||AKTİFBANK|10.40.24.165|||110000438458|117
04.10.2018 11:00:00||AKTİFBANK|10.40.24.166|||110000438458|78
04.10.2018 11:00:00||AKTİFBANK|10.40.24.166|||110000438458|88
04.10.2018 11:00:00||AKTİFBANK|10.40.24.166|||110000438458|10
04.10.2018 11:00:00||AKTİFBANK|10.40.24.166|||110000438458|10
04.10.2018 11:00:00||AKTİFBANK|10.40.24.166|||110000438458|10
04.10.2018 11:00:00||AKTİFBANK|10.40.24.168|||110000438458|88
04.10.2018 11:00:00||AKTİFBANK|10.40.24.168|||110000438458|40
04.10.2018 11:00:00||AKTİFBANK|10.40.24.168|||110000438458|78
04.10.2018 11:00:00||AKTİFBANK|10.40.24.168|||110000438458|69
04.10.2018 11:00:00||AKTİFBANK|10.40.24.168|||110000438458|69
04.10.2018 11:00:00||AKTİFBANK|10.40.24.168|||110000438458|30
04.10.2018 11:00:00||AKTİFBANK|10.40.24.169|||110000438458|59
04.10.2018 11:00:00||AKTİFBANK|10.40.24.169|||110000438458|88
04.10.2018 11:00:00||AKTİFBANK|10.40.24.169|||110000438458|69
04.10.2018 11:00:00||AKTİFBANK|10.40.24.169|||110000438458|78
04.10.2018 11:00:00||AKTİFBANK|10.40.24.170|||110000438458|59
04.10.2018 11:00:00||AKTİFBANK|10.40.24.170|||110000438458|59
04.10.2018 11:00:00||AKTİFBANK|10.40.24.170|||110000438458|321
04.10.2018 11:00:00||AKTİFBANK|10.40.24.170|||110000438458|78
04.10.2018 11:00:00||AKTİFBANK|10.40.24.170|||110000438458|98
04.10.2018 11:00:00||AKTİFBANK|10.40.24.170|||110000438458|59
04.10.2018 11:00:00||AKTİFBANK|10.40.24.171|||110000438458|2
04.10.2018 11:00:00||AKTİFBANK|10.40.24.171|||110000438458|11
04.10.2018 11:00:00||AKTİFBANK|10.40.24.172|||110000438458|59
04.10.2018 11:00:00||AKTİFBANK|10.40.24.172|||110000438458|35
04.10.2018 11:00:00||AKTİFBANK|10.40.24.173|||110000438458|47
04.10.2018 11:00:00||AKTİFBANK|10.40.24.173|||110000438458|47
04.10.2018 11:00:00||AKTİFBANK|10.40.24.174|||110000438458|56
04.10.2018 11:00:00||AKTİFBANK|10.40.24.174|||110000438458|2
04.10.2018 11:00:00||AKTİFBANK|10.40.24.178|||110000438458|535
04.10.2018 11:00:00||AKTİFBANK|10.40.24.178|||110000438458|515
04.10.2018 11:00:00||AKTİFBANK|10.40.24.178|||110000438458|506
04.10.2018 11:00:00||AKTİFBANK|10.40.24.179|||110000438458|350
04.10.2018 11:00:00||AKTİFBANK|10.40.24.179|||110000438458|360
04.10.2018 11:00:00||AKTİFBANK|10.40.24.179|||110000438458|350
04.10.2018 11:00:00||AKTİFBANK|10.40.24.186|||110000438458|88
04.10.2018 11:00:00||AKTİFBANK|10.40.24.186|||110000438458|20
04.10.2018 11:00:00||AKTİFBANK|10.40.24.186|||110000438458|59
04.10.2018 11:00:00||AKTİFBANK|10.40.24.186|||110000438458|40
04.10.2018 11:00:00||AKTİFBANK|10.40.25.128|||110000438458|70
04.10.2018 11:00:00||AKTİFBANK|10.40.25.128|||110000438458|90
04.10.2018 11:00:00||AKTİFBANK|10.40.25.128|||110000438458|40
04.10.2018 11:00:00||AKTİFBANK|10.40.25.128|||110000438458|70
04.10.2018 11:00:00||AKTİFBANK|10.40.25.129|||110000438458|80
04.10.2018 11:00:00||AKTİFBANK|10.40.25.129|||110000438458|80
04.10.2018 11:00:00||AKTİFBANK|10.40.25.129|||110000438458|129
04.10.2018 11:00:00||AKTİFBANK|10.40.25.129|||110000438458|100
04.10.2018 11:00:00||AKTİFBANK|10.40.25.129|||110000438458|40
04.10.2018 11:00:00||AKTİFBANK|10.40.25.129|||110000438458|90
04.10.2018 11:00:00||AKTİFBANK|10.40.25.129|||110000438458|70
04.10.2018 11:00:00||AKTİFBANK|10.40.25.129|||110000438458|80
04.10.2018 11:00:00||AKTİFBANK|10.40.25.129|||110000438458|145
04.10.2018 11:00:00||AKTİFBANK|10.40.25.129|||110000438458|104
04.10.2018 11:00:00||AKTİFBANK|10.40.25.130|||110000438458|72
04.10.2018 11:00:00||AKTİFBANK|10.40.25.130|||110000438458|52
04.10.2018 11:00:00||AKTİFBANK|10.40.25.130|||110000438458|72
04.10.2018 11:00:00||AKTİFBANK|10.40.25.130|||110000438458|30
04.10.2018 11:00:00||AKTİFBANK|10.40.25.130|||110000438458|62
04.10.2018 11:00:00||AKTİFBANK|10.40.25.130|||110000438458|104
04.10.2018 11:00:00||AKTİFBANK|10.40.25.130|||110000438458|83
04.10.2018 11:00:00||AKTİFBANK|10.40.25.130|||110000438458|62
04.10.2018 11:00:00||AKTİFBANK|10.40.25.130|||110000438458|125
04.10.2018 11:00:00||AKTİFBANK|10.40.25.130|||110000438458|104
04.10.2018 11:00:00||AKTİFBANK|10.40.25.131|||110000438458|93
04.10.2018 11:00:00||AKTİFBANK|10.40.25.131|||110000438458|104
04.10.2018 11:00:00||AKTİFBANK|10.40.25.131|||110000438458|114
04.10.2018 11:00:00||AKTİFBANK|10.40.25.131|||110000438458|83
04.10.2018 11:00:00||AKTİFBANK|10.40.25.131|||110000438458|83
04.10.2018 11:00:00||AKTİFBANK|10.40.25.131|||110000438458|20
04.10.2018 11:00:00||AKTİFBANK|10.40.25.131|||110000438458|125
04.10.2018 11:00:00||AKTİFBANK|10.40.25.131|||110000438458|52
04.10.2018 11:00:00||AKTİFBANK|10.40.25.132|||110000438458|62
04.10.2018 11:00:00||AKTİFBANK|10.40.25.132|||110000438458|72
04.10.2018 11:00:00||AKTİFBANK|10.40.25.132|||110000438458|83
04.10.2018 11:00:00||AKTİFBANK|10.40.25.132|||110000438458|177
04.10.2018 11:00:00||AKTİFBANK|10.40.25.132|||110000438458|62
04.10.2018 11:00:00||AKTİFBANK|10.40.25.133|||110000438458|156
04.10.2018 11:00:00||AKTİFBANK|10.40.25.133|||110000438458|292
04.10.2018 11:00:00||AKTİFBANK|10.40.25.133|||110000438458|114
04.10.2018 11:00:00||AKTİFBANK|10.40.25.133|||110000438458|62
04.10.2018 11:00:00||AKTİFBANK|10.40.25.133|||110000438458|93
04.10.2018 11:00:00||AKTİFBANK|10.40.25.134|||110000438458|65
04.10.2018 11:00:00||AKTİFBANK|10.40.25.134|||110000438458|31
04.10.2018 11:00:00||AKTİFBANK|10.40.25.135|||110000438458|30
04.10.2018 11:00:00||AKTİFBANK|10.40.25.135|||110000438458|65
04.10.2018 11:00:00||AKTİFBANK|10.40.25.137|||110000438458|60
04.10.2018 11:00:00||AKTİFBANK|10.40.25.138|||110000438458|93
04.10.2018 11:00:00||AKTİFBANK|10.40.25.138|||110000438458|72
04.10.2018 11:00:00||AKTİFBANK|10.40.25.138|||110000438458|83
04.10.2018 11:00:00||AKTİFBANK|10.40.25.138|||110000438458|135
04.10.2018 11:00:00||AKTİFBANK|10.40.25.138|||110000438458|41
04.10.2018 11:00:00||AKTİFBANK|10.40.25.138|||110000438458|10
04.10.2018 11:00:00||AKTİFBANK|10.40.25.139|||110000438458|41
04.10.2018 11:00:00||AKTİFBANK|10.40.25.139|||110000438458|10
04.10.2018 11:00:00||AKTİFBANK|10.40.25.139|||110000438458|10
04.10.2018 11:00:00||AKTİFBANK|10.40.25.139|||110000438458|20
04.10.2018 11:00:00||AKTİFBANK|10.40.25.139|||110000438458|72
04.10.2018 11:00:00||AKTİFBANK|10.40.25.139|||110000438458|83
04.10.2018 11:00:00||AKTİFBANK|10.40.25.139|||110000438458|104
04.10.2018 11:00:00||AKTİFBANK|10.40.25.140|||110000438458|83
04.10.2018 11:00:00||AKTİFBANK|10.40.25.140|||110000438458|72
04.10.2018 11:00:00||AKTİFBANK|10.40.25.140|||110000438458|30
04.10.2018 11:00:00||AKTİFBANK|10.40.25.140|||110000438458|30
04.10.2018 11:00:00||AKTİFBANK|10.40.25.140|||110000438458|30
04.10.2018 11:00:00||AKTİFBANK|10.40.25.141|||110000438458|41
04.10.2018 11:00:00||AKTİFBANK|10.40.25.141|||110000438458|104
04.10.2018 11:00:00||AKTİFBANK|10.40.25.141|||110000438458|104
04.10.2018 11:00:00||AKTİFBANK|10.40.25.141|||110000438458|104
04.10.2018 11:00:00||AKTİFBANK|10.40.25.141|||110000438458|93
04.10.2018 11:00:00||AKTİFBANK|10.40.25.141|||110000438458|72
04.10.2018 11:00:00||AKTİFBANK|10.40.25.142|||110000438458|30
04.10.2018 11:00:00||AKTİFBANK|10.40.25.143|||110000438458|62
04.10.2018 11:00:00||AKTİFBANK|10.40.25.143|||110000438458|251
04.10.2018 11:00:00||AKTİFBANK|10.40.25.143|||110000438458|271
04.10.2018 11:00:00||AKTİFBANK|10.40.25.143|||110000438458|324
04.10.2018 11:00:00||AKTİFBANK|10.40.25.144|||110000438458|72
04.10.2018 11:00:00||AKTİFBANK|10.40.25.144|||110000438458|52
04.10.2018 11:00:00||AKTİFBANK|10.40.25.144|||110000438458|62
04.10.2018 11:00:00||AKTİFBANK|10.40.25.145|||110000438458|93
04.10.2018 11:00:00||AKTİFBANK|10.40.25.145|||110000438458|62
04.10.2018 11:00:00||AKTİFBANK|10.40.25.145|||110000438458|62
04.10.2018 11:00:00||AKTİFBANK|10.40.25.145|||110000438458|30
04.10.2018 11:00:00||AKTİFBANK|10.40.25.145|||110000438458|52
04.10.2018 11:00:00||AKTİFBANK|10.40.25.147|||110000438458|93
04.10.2018 11:00:00||AKTİFBANK|10.40.25.148|||110000438458|135
04.10.2018 11:00:00||AKTİFBANK|10.40.25.148|||110000438458|52
04.10.2018 11:00:00||AKTİFBANK|10.40.25.148|||110000438458|104
04.10.2018 11:00:00||AKTİFBANK|10.40.25.148|||110000438458|135
04.10.2018 11:00:00||AKTİFBANK|10.40.25.148|||110000438458|93
04.10.2018 11:00:00||AKTİFBANK|10.40.25.148|||110000438458|83
04.10.2018 11:00:00||AKTİFBANK|10.40.25.148|||110000438458|72
04.10.2018 11:00:00||AKTİFBANK|10.40.25.148|||110000438458|52
04.10.2018 11:00:00||AKTİFBANK|10.40.25.148|||110000438458|83
04.10.2018 11:00:00||AKTİFBANK|10.40.25.148|||110000438458|40
04.10.2018 11:00:00||AKTİFBANK|10.40.25.148|||110000438458|101
04.10.2018 11:00:00||AKTİFBANK|10.40.25.148|||110000438458|60
04.10.2018 11:00:00||AKTİFBANK|10.40.25.149|||110000438458|60
04.10.2018 11:00:00||AKTİFBANK|10.40.25.149|||110000438458|111
04.10.2018 11:00:00||AKTİFBANK|10.40.25.149|||110000438458|90
04.10.2018 11:00:00||AKTİFBANK|10.40.25.149|||110000438458|70
04.10.2018 11:00:00||AKTİFBANK|10.40.25.149|||110000438458|90
04.10.2018 11:00:00||AKTİFBANK|10.40.25.149|||110000438458|40
04.10.2018 11:00:00||AKTİFBANK|10.40.25.149|||110000438458|80
04.10.2018 11:00:00||AKTİFBANK|10.40.25.149|||110000438458|70
04.10.2018 11:00:00||AKTİFBANK|10.40.25.149|||110000438458|131
04.10.2018 11:00:00||AKTİFBANK|10.40.25.149|||110000438458|111
04.10.2018 11:00:00||AKTİFBANK|10.40.25.149|||110000438458|90
04.10.2018 11:00:00||AKTİFBANK|10.40.25.149|||110000438458|90
04.10.2018 11:00:00||AKTİFBANK|10.40.25.149|||110000438458|101
04.10.2018 11:00:00||AKTİFBANK|10.40.25.149|||110000438458|70
04.10.2018 11:00:00||AKTİFBANK|10.40.25.150|||110000438458|586
04.10.2018 11:00:00||AKTİFBANK|10.40.25.150|||110000438458|535
04.10.2018 11:00:00||AKTİFBANK|10.40.25.150|||110000438458|576
04.10.2018 11:00:00||AKTİFBANK|10.40.25.151|||110000438458|555
04.10.2018 11:00:00||AKTİFBANK|10.40.25.151|||110000438458|515
04.10.2018 11:00:00||AKTİFBANK|10.40.25.151|||110000438458|535
04.10.2018 11:00:00||AKTİFBANK|10.40.25.152|||110000438458|121
04.10.2018 11:00:00||AKTİFBANK|10.40.25.152|||110000438458|40
04.10.2018 11:00:00||AKTİFBANK|10.40.25.152|||110000438458|141
04.10.2018 11:00:00||AKTİFBANK|10.40.25.152|||110000438458|70
04.10.2018 11:00:00||AKTİFBANK|10.40.25.152|||110000438458|90
04.10.2018 11:00:00||AKTİFBANK|10.40.25.152|||110000438458|50
04.10.2018 11:00:00||AKTİFBANK|10.40.25.152|||110000438458|90
04.10.2018 11:00:00||AKTİFBANK|10.40.25.152|||110000438458|30
04.10.2018 11:00:00||AKTİFBANK|10.40.25.152|||110000438458|80
04.10.2018 11:00:00||AKTİFBANK|10.40.25.152|||110000438458|30
04.10.2018 11:00:00||AKTİFBANK|10.40.25.153|||110000438458|10
04.10.2018 11:00:00||AKTİFBANK|10.40.25.153|||110000438458|80
04.10.2018 11:00:00||AKTİFBANK|10.40.25.153|||110000438458|60
04.10.2018 11:00:00||AKTİFBANK|10.40.25.153|||110000438458|70
04.10.2018 11:00:00||AKTİFBANK|10.40.25.154|||110000438458|10
04.10.2018 11:00:00||AKTİFBANK|10.40.25.154|||110000438458|10
04.10.2018 11:00:00||AKTİFBANK|10.40.25.154|||110000438458|10
04.10.2018 11:00:00||AKTİFBANK|10.40.25.155|||110000438458|70
04.10.2018 11:00:00||AKTİFBANK|10.40.25.155|||110000438458|90
04.10.2018 11:00:00||AKTİFBANK|10.40.25.155|||110000438458|111
04.10.2018 11:00:00||AKTİFBANK|10.40.25.155|||110000438458|121
04.10.2018 11:00:00||AKTİFBANK|10.40.25.155|||110000438458|111
04.10.2018 11:00:00||AKTİFBANK|10.40.25.157|||110000438458|70
04.10.2018 11:00:00||AKTİFBANK|10.40.25.157|||110000438458|70
04.10.2018 11:00:00||AKTİFBANK|10.40.25.157|||110000438458|70
04.10.2018 11:00:00||AKTİFBANK|10.40.25.157|||110000438458|80
04.10.2018 11:00:00||AKTİFBANK|10.40.25.157|||110000438458|40
04.10.2018 11:00:00||AKTİFBANK|10.40.25.158|||110000438458|121
04.10.2018 11:00:00||AKTİFBANK|10.40.25.158|||110000438458|50
04.10.2018 11:00:00||AKTİFBANK|10.40.25.159|||110000438458|60
04.10.2018 11:00:00||AKTİFBANK|10.40.25.159|||110000438458|10
04.10.2018 11:00:00||AKTİFBANK|10.40.25.159|||110000438458|90
04.10.2018 11:00:00||AKTİFBANK|10.40.25.160|||110000438458|90
04.10.2018 11:00:00||AKTİFBANK|10.40.25.160|||110000438458|111
04.10.2018 11:00:00||AKTİFBANK|10.40.25.161|||110000438458|80
04.10.2018 11:00:00||AKTİFBANK|10.40.25.161|||110000438458|70
04.10.2018 11:00:00||AKTİFBANK|10.40.25.161|||110000438458|40
04.10.2018 11:00:00||AKTİFBANK|10.40.25.161|||110000438458|30
04.10.2018 11:00:00||AKTİFBANK|10.40.25.161|||110000438458|20
04.10.2018 11:00:00||AKTİFBANK|10.40.25.161|||110000438458|50
04.10.2018 11:00:00||AKTİFBANK|10.40.25.162|||110000438458|30
04.10.2018 11:00:00||AKTİFBANK|10.40.25.162|||110000438458|30
04.10.2018 11:00:00||AKTİFBANK|10.40.25.162|||110000438458|60
04.10.2018 11:00:00||AKTİFBANK|10.40.25.162|||110000438458|50
04.10.2018 11:00:00||AKTİFBANK|10.40.25.162|||110000438458|30
04.10.2018 11:00:00||AKTİFBANK|10.40.25.162|||110000438458|40
04.10.2018 11:00:00||AKTİFBANK|10.40.25.163|||110000438458|40
04.10.2018 11:00:00||AKTİFBANK|10.40.25.164|||110000438458|60
04.10.2018 11:00:00||AKTİFBANK|10.40.25.164|||110000438458|282
04.10.2018 11:00:00||AKTİFBANK|10.40.25.164|||110000438458|50
04.10.2018 11:00:00||AKTİFBANK|10.40.25.164|||110000438458|262
04.10.2018 11:00:00||AKTİFBANK|10.40.25.164|||110000438458|272
04.10.2018 11:00:00||AKTİFBANK|10.40.25.165|||110000438458|141
04.10.2018 11:00:00||AKTİFBANK|10.40.25.165|||110000438458|70
04.10.2018 11:00:00||AKTİFBANK|10.40.25.165|||110000438458|70
04.10.2018 11:00:00||AKTİFBANK|10.40.25.165|||110000438458|101
04.10.2018 11:00:00||AKTİFBANK|10.40.25.166|||110000438458|40
04.10.2018 11:00:00||AKTİFBANK|10.40.25.166|||110000438458|90
04.10.2018 11:00:00||AKTİFBANK|10.40.25.168|||110000438458|90
04.10.2018 11:00:00||AKTİFBANK|10.40.25.168|||110000438458|70
04.10.2018 11:00:00||AKTİFBANK|10.40.25.168|||110000438458|50
04.10.2018 11:00:00||AKTİFBANK|10.40.25.168|||110000438458|40
04.10.2018 11:00:00||AKTİFBANK|10.40.25.168|||110000438458|60
04.10.2018 11:00:00||AKTİFBANK|10.40.25.169|||110000438458|90
04.10.2018 11:00:00||AKTİFBANK|10.40.25.169|||110000438458|90
04.10.2018 11:00:00||AKTİFBANK|10.40.25.169|||110000438458|70
04.10.2018 11:00:00||AKTİFBANK|10.40.25.169|||110000438458|101
04.10.2018 11:00:00||AKTİFBANK|10.40.25.170|||110000438458|30
04.10.2018 11:00:00||AKTİFBANK|10.40.25.170|||110000438458|30
04.10.2018 11:00:00||AKTİFBANK|10.40.25.170|||110000438458|232
04.10.2018 11:00:00||AKTİFBANK|10.40.25.170|||110000438458|101
04.10.2018 11:00:00||AKTİFBANK|10.40.25.170|||110000438458|80
04.10.2018 11:00:00||AKTİFBANK|10.40.25.170|||110000438458|111
04.10.2018 11:00:00||AKTİFBANK|10.40.25.171|||110000438458|1
04.10.2018 11:00:00||AKTİFBANK|10.40.25.171|||110000438458|11
04.10.2018 11:00:00||AKTİFBANK|10.40.25.172|||110000438458|27
04.10.2018 11:00:00||AKTİFBANK|10.40.25.172|||110000438458|62
04.10.2018 11:00:00||AKTİFBANK|10.40.25.173|||110000438458|33
04.10.2018 11:00:00||AKTİFBANK|10.40.25.173|||110000438458|62
04.10.2018 11:00:00||AKTİFBANK|10.40.25.174|||110000438458|53
04.10.2018 11:00:00||AKTİFBANK|10.40.25.178|||110000438458|565
04.10.2018 11:00:00||AKTİFBANK|10.40.25.178|||110000438458|565
04.10.2018 11:00:00||AKTİFBANK|10.40.25.178|||110000438458|555
04.10.2018 11:00:00||AKTİFBANK|10.40.25.179|||110000438458|394
04.10.2018 11:00:00||AKTİFBANK|10.40.25.179|||110000438458|333
04.10.2018 11:00:00||AKTİFBANK|10.40.25.179|||110000438458|313
04.10.2018 11:00:00||AKTİFBANK|10.40.25.186|||110000438458|91
04.10.2018 11:00:00||AKTİFBANK|10.40.25.186|||110000438458|20
04.10.2018 11:00:00||AKTİFBANK|10.40.25.186|||110000438458|71
04.10.2018 11:00:00||BOYNER|10.40.26.100|||101367941673|41
04.10.2018 11:00:00||BOYNER|10.40.26.100|||101367941673|17
04.10.2018 11:00:00||BOYNER|10.40.26.101|||101367941673|26
04.10.2018 11:00:00||BOYNER|10.40.26.101|||101367941673|134
04.10.2018 11:00:00||BOYNER|10.40.26.94|||101367941673|94
04.10.2018 11:00:00||BOYNER|10.40.26.94|||101367941673|84
04.10.2018 11:00:00||BOYNER|10.40.26.94|||101367941673|84
04.10.2018 11:00:00||BOYNER|10.40.26.95|||101367941673|94
04.10.2018 11:00:00||BOYNER|10.40.26.95|||101367941673|209
04.10.2018 11:00:00||BOYNER|10.40.26.95|||101367941673|146
04.10.2018 11:00:00||BOYNER|10.40.26.96|||101367941673|30
04.10.2018 11:00:00||BOYNER|10.40.26.96|||101367941673|41
04.10.2018 11:00:00||BOYNER|10.40.26.96|||101367941673|30
04.10.2018 11:00:00||BOYNER|10.40.26.96|||101367941673|41
04.10.2018 11:00:00||BOYNER|10.40.26.96|||101367941673|41
04.10.2018 11:00:00||BOYNER|10.40.26.96|||101367941673|52
04.10.2018 11:00:00||BOYNER|10.40.26.96|||101367941673|189
04.10.2018 11:00:00||BOYNER|10.40.26.96|||101367941673|220
04.10.2018 11:00:00||BOYNER|10.40.26.96|||101367941673|168
04.10.2018 11:00:00||BOYNER|10.40.26.96|||101367941673|189
04.10.2018 11:00:00||BOYNER|10.40.26.97|||101367941673|30
04.10.2018 11:00:00||BOYNER|10.40.26.97|||101367941673|693
04.10.2018 11:00:00||BOYNER|10.40.26.97|||101367941673|683
04.10.2018 11:00:00||BOYNER|10.40.26.97|||101367941673|693
04.10.2018 11:00:00||BOYNER|10.40.26.97|||101367941673|30
04.10.2018 11:00:00||BOYNER|10.40.26.97|||101367941673|41
04.10.2018 11:00:00||BOYNER|10.40.26.97|||101367941673|52
04.10.2018 11:00:00||BOYNER|10.40.26.97|||101367941673|62
04.10.2018 11:00:00||BOYNER|10.40.26.97|||101367941673|30
04.10.2018 11:00:00||BOYNER|10.40.26.97|||101367941673|157
04.10.2018 11:00:00||BOYNER|10.40.26.97|||101367941673|189
04.10.2018 11:00:00||BOYNER|10.40.26.97|||101367941673|178
04.10.2018 11:00:00||BOYNER|10.40.26.97|||101367941673|178
04.10.2018 11:00:00||BOYNER|10.40.26.99|||101367941673|20
04.10.2018 11:00:00||BOYNER|10.40.26.99|||101367941673|114
04.10.2018 11:00:00||BOYNER|10.40.26.99|||101367941673|114
04.10.2018 11:00:00||BOYNER|10.40.26.99|||101367941673|62
04.10.2018 11:00:00||BOYNER|10.40.27.100|||101367941673|16
04.10.2018 11:00:00||BOYNER|10.40.27.100|||101367941673|36
04.10.2018 11:00:00||BOYNER|10.40.27.101|||101367941673|137
04.10.2018 11:00:00||BOYNER|10.40.27.101|||101367941673|28
04.10.2018 11:00:00||BOYNER|10.40.27.94|||101367941673|213
04.10.2018 11:00:00||BOYNER|10.40.27.94|||101367941673|91
04.10.2018 11:00:00||BOYNER|10.40.27.94|||101367941673|91
04.10.2018 11:00:00||BOYNER|10.40.27.94|||101367941673|101
04.10.2018 11:00:00||BOYNER|10.40.27.95|||101367941673|132
04.10.2018 11:00:00||BOYNER|10.40.27.95|||101367941673|132
04.10.2018 11:00:00||BOYNER|10.40.27.95|||101367941673|243
04.10.2018 11:00:00||BOYNER|10.40.27.96|||101367941673|60
04.10.2018 11:00:00||BOYNER|10.40.27.96|||101367941673|50
04.10.2018 11:00:00||BOYNER|10.40.27.96|||101367941673|50
04.10.2018 11:00:00||BOYNER|10.40.27.96|||101367941673|40
04.10.2018 11:00:00||BOYNER|10.40.27.96|||101367941673|40
04.10.2018 11:00:00||BOYNER|10.40.27.96|||101367941673|142
04.10.2018 11:00:00||BOYNER|10.40.27.96|||101367941673|142
04.10.2018 11:00:00||BOYNER|10.40.27.96|||101367941673|172
04.10.2018 11:00:00||BOYNER|10.40.27.96|||101367941673|162
04.10.2018 11:00:00||BOYNER|10.40.27.97|||101367941673|60
04.10.2018 11:00:00||BOYNER|10.40.27.97|||101367941673|670
04.10.2018 11:00:00||BOYNER|10.40.27.97|||101367941673|680
04.10.2018 11:00:00||BOYNER|10.40.27.97|||101367941673|700
04.10.2018 11:00:00||BOYNER|10.40.27.97|||101367941673|50
04.10.2018 11:00:00||BOYNER|10.40.27.97|||101367941673|40
04.10.2018 11:00:00||BOYNER|10.40.27.97|||101367941673|50
04.10.2018 11:00:00||BOYNER|10.40.27.97|||101367941673|30
04.10.2018 11:00:00||BOYNER|10.40.27.97|||101367941673|172
04.10.2018 11:00:00||BOYNER|10.40.27.97|||101367941673|182
04.10.2018 11:00:00||BOYNER|10.40.27.97|||101367941673|203
04.10.2018 11:00:00||BOYNER|10.40.27.97|||101367941673|203
04.10.2018 11:00:00||BOYNER|10.40.27.99|||101367941673|121
04.10.2018 11:00:00||BOYNER|10.40.27.99|||101367941673|101
04.10.2018 11:00:00||BOYNER|10.40.27.99|||101367941673|71
04.10.2018 11:00:00||ÇALIK HOLDİNG|10.40.24.100|||110000438408|30
04.10.2018 11:00:00||ÇALIK HOLDİNG|10.40.24.100|||110000438408|39
04.10.2018 11:00:00||ÇALIK HOLDİNG|10.40.24.101|||110000438408|58
04.10.2018 11:00:00||ÇALIK HOLDİNG|10.40.24.101|||110000438408|106
04.10.2018 11:00:00||ÇALIK HOLDİNG|10.40.24.101|||110000438408|20
04.10.2018 11:00:00||ÇALIK HOLDİNG|10.40.24.101|||110000438408|20
04.10.2018 11:00:00||ÇALIK HOLDİNG|10.40.24.101|||110000438408|39
04.10.2018 11:00:00||ÇALIK HOLDİNG|10.40.24.101|||110000438408|87
04.10.2018 11:00:00||ÇALIK HOLDİNG|10.40.24.101|||110000438408|30
04.10.2018 11:00:00||ÇALIK HOLDİNG|10.40.24.101|||110000438408|10
04.10.2018 11:00:00||ÇALIK HOLDİNG|10.40.24.101|||110000438408|20
04.10.2018 11:00:00||ÇALIK HOLDİNG|10.40.24.101|||110000438408|48
04.10.2018 11:00:00||ÇALIK HOLDİNG|10.40.24.101|||110000438408|30
04.10.2018 11:00:00||ÇALIK HOLDİNG|10.40.24.101|||110000438408|77
04.10.2018 11:00:00||ÇALIK HOLDİNG|10.40.24.101|||110000438408|77
04.10.2018 11:00:00||ÇALIK HOLDİNG|10.40.24.101|||110000438408|96
04.10.2018 11:00:00||ÇALIK HOLDİNG|10.40.24.102|||110000438408|96
04.10.2018 11:00:00||ÇALIK HOLDİNG|10.40.24.102|||110000438408|96
04.10.2018 11:00:00||ÇALIK HOLDİNG|10.40.24.102|||110000438408|135
04.10.2018 11:00:00||ÇALIK HOLDİNG|10.40.24.103|||110000438408|96
04.10.2018 11:00:00||ÇALIK HOLDİNG|10.40.24.103|||110000438408|77
04.10.2018 11:00:00||ÇALIK HOLDİNG|10.40.24.103|||110000438408|77
04.10.2018 11:00:00||ÇALIK HOLDİNG|10.40.24.103|||110000438408|20
04.10.2018 11:00:00||ÇALIK HOLDİNG|10.40.24.103|||110000438408|20
04.10.2018 11:00:00||ÇALIK HOLDİNG|10.40.24.113|||110000438408|201
04.10.2018 11:00:00||ÇALIK HOLDİNG|10.40.24.113|||110000438408|220
04.10.2018 11:00:00||ÇALIK HOLDİNG|10.40.24.113|||110000438408|192
04.10.2018 11:00:00||ÇALIK HOLDİNG|10.40.24.113|||110000438408|144
04.10.2018 11:00:00||ÇALIK HOLDİNG|10.40.24.114|||110000438408|20
04.10.2018 11:00:00||ÇALIK HOLDİNG|10.40.24.114|||110000438408|39
04.10.2018 11:00:00||ÇALIK HOLDİNG|10.40.24.114|||110000438408|172
04.10.2018 11:00:00||ÇALIK HOLDİNG|10.40.24.114|||110000438408|353
04.10.2018 11:00:00||ÇALIK HOLDİNG|10.40.24.115|||110000438408|135
04.10.2018 11:00:00||ÇALIK HOLDİNG|10.40.24.115|||110000438408|77
04.10.2018 11:00:00||ÇALIK HOLDİNG|10.40.24.115|||110000438408|87
04.10.2018 11:00:00||ÇALIK HOLDİNG|10.40.24.115|||110000438408|68
04.10.2018 11:00:00||ÇALIK HOLDİNG|10.40.24.115|||110000438408|87
04.10.2018 11:00:00||ÇALIK HOLDİNG|10.40.24.115|||110000438408|68
04.10.2018 11:00:00||ÇALIK HOLDİNG|10.40.24.116|||110000438408|258
04.10.2018 11:00:00||ÇALIK HOLDİNG|10.40.24.116|||110000438408|106
04.10.2018 11:00:00||ÇALIK HOLDİNG|10.40.24.116|||110000438408|87
04.10.2018 11:00:00||ÇALIK HOLDİNG|10.40.24.117|||110000438408|192
04.10.2018 11:00:00||ÇALIK HOLDİNG|10.40.24.117|||110000438408|30
04.10.2018 11:00:00||ÇALIK HOLDİNG|10.40.24.117|||110000438408|30
04.10.2018 11:00:00||ÇALIK HOLDİNG|10.40.24.118|||110000438408|42
04.10.2018 11:00:00||ÇALIK HOLDİNG|10.40.24.119|||110000438408|144
04.10.2018 11:00:00||ÇALIK HOLDİNG|10.40.24.119|||110000438408|30
04.10.2018 11:00:00||ÇALIK HOLDİNG|10.40.24.119|||110000438408|48
04.10.2018 11:00:00||ÇALIK HOLDİNG|10.40.24.120|||110000438408|20
04.10.2018 11:00:00||ÇALIK HOLDİNG|10.40.24.120|||110000438408|30
04.10.2018 11:00:00||ÇALIK HOLDİNG|10.40.24.120|||110000438408|106
04.10.2018 11:00:00||ÇALIK HOLDİNG|10.40.24.120|||110000438408|10
04.10.2018 11:00:00||ÇALIK HOLDİNG|10.40.24.120|||110000438408|20
04.10.2018 11:00:00||ÇALIK HOLDİNG|10.40.24.120|||110000438408|96
04.10.2018 11:00:00||ÇALIK HOLDİNG|10.40.24.120|||110000438408|39
04.10.2018 11:00:00||ÇALIK HOLDİNG|10.40.24.120|||110000438408|77
04.10.2018 11:00:00||ÇALIK HOLDİNG|10.40.24.120|||110000438408|77
04.10.2018 11:00:00||ÇALIK HOLDİNG|10.40.24.120|||110000438408|68
04.10.2018 11:00:00||ÇALIK HOLDİNG|10.40.24.121|||110000438408|96
04.10.2018 11:00:00||ÇALIK HOLDİNG|10.40.24.121|||110000438408|96
04.10.2018 11:00:00||ÇALIK HOLDİNG|10.40.24.121|||110000438408|144
04.10.2018 11:00:00||ÇALIK HOLDİNG|10.40.24.122|||110000438408|87
04.10.2018 11:00:00||ÇALIK HOLDİNG|10.40.24.122|||110000438408|77
04.10.2018 11:00:00||ÇALIK HOLDİNG|10.40.24.122|||110000438408|87
04.10.2018 11:00:00||ÇALIK HOLDİNG|10.40.24.122|||110000438408|30
04.10.2018 11:00:00||ÇALIK HOLDİNG|10.40.24.122|||110000438408|10
04.10.2018 11:00:00||ÇALIK HOLDİNG|10.40.24.94|||110000438408|210
04.10.2018 11:00:00||ÇALIK HOLDİNG|10.40.24.94|||110000438408|180
04.10.2018 11:00:00||ÇALIK HOLDİNG|10.40.24.94|||110000438408|190
04.10.2018 11:00:00||ÇALIK HOLDİNG|10.40.24.94|||110000438408|200
04.10.2018 11:00:00||ÇALIK HOLDİNG|10.40.24.95|||110000438408|100
04.10.2018 11:00:00||ÇALIK HOLDİNG|10.40.24.95|||110000438408|50
04.10.2018 11:00:00||ÇALIK HOLDİNG|10.40.24.95|||110000438408|20
04.10.2018 11:00:00||ÇALIK HOLDİNG|10.40.24.95|||110000438408|90
04.10.2018 11:00:00||ÇALIK HOLDİNG|10.40.24.95|||110000438408|441
04.10.2018 11:00:00||ÇALIK HOLDİNG|10.40.24.95|||110000438408|401
04.10.2018 11:00:00||ÇALIK HOLDİNG|10.40.24.97|||110000438408|100
04.10.2018 11:00:00||ÇALIK HOLDİNG|10.40.24.97|||110000438408|90
04.10.2018 11:00:00||ÇALIK HOLDİNG|10.40.24.97|||110000438408|80
04.10.2018 11:00:00||ÇALIK HOLDİNG|10.40.24.97|||110000438408|90
04.10.2018 11:00:00||ÇALIK HOLDİNG|10.40.24.97|||110000438408|308
04.10.2018 11:00:00||ÇALIK HOLDİNG|10.40.24.98|||110000438408|90
04.10.2018 11:00:00||ÇALIK HOLDİNG|10.40.24.98|||110000438408|149
04.10.2018 11:00:00||ÇALIK HOLDİNG|10.40.24.98|||110000438408|199
04.10.2018 11:00:00||ÇALIK HOLDİNG|10.40.24.98|||110000438408|199
04.10.2018 11:00:00||ÇALIK HOLDİNG|10.40.24.98|||110000438408|159
04.10.2018 11:00:00||ÇALIK HOLDİNG|10.40.24.98|||110000438408|30
04.10.2018 11:00:00||ÇALIK HOLDİNG|10.40.24.98|||110000438408|159
04.10.2018 11:00:00||ÇALIK HOLDİNG|10.40.24.98|||110000438408|179
04.10.2018 11:00:00||ÇALIK HOLDİNG|10.40.24.98|||110000438408|169
04.10.2018 11:00:00||ÇALIK HOLDİNG|10.40.24.98|||110000438408|179
04.10.2018 11:00:00||ÇALIK HOLDİNG|10.40.24.98|||110000438408|20
04.10.2018 11:00:00||ÇALIK HOLDİNG|10.40.24.98|||110000438408|278
04.10.2018 11:00:00||ÇALIK HOLDİNG|10.40.25.100|||110000438408|40
04.10.2018 11:00:00||ÇALIK HOLDİNG|10.40.25.100|||110000438408|40
04.10.2018 11:00:00||ÇALIK HOLDİNG|10.40.25.101|||110000438408|50
04.10.2018 11:00:00||ÇALIK HOLDİNG|10.40.25.101|||110000438408|110
04.10.2018 11:00:00||ÇALIK HOLDİNG|10.40.25.101|||110000438408|30
04.10.2018 11:00:00||ÇALIK HOLDİNG|10.40.25.101|||110000438408|10
04.10.2018 11:00:00||ÇALIK HOLDİNG|10.40.25.101|||110000438408|80
04.10.2018 11:00:00||ÇALIK HOLDİNG|10.40.25.101|||110000438408|40
04.10.2018 11:00:00||ÇALIK HOLDİNG|10.40.25.101|||110000438408|40
04.10.2018 11:00:00||ÇALIK HOLDİNG|10.40.25.101|||110000438408|90
04.10.2018 11:00:00||ÇALIK HOLDİNG|10.40.25.101|||110000438408|90
04.10.2018 11:00:00||ÇALIK HOLDİNG|10.40.25.101|||110000438408|90
04.10.2018 11:00:00||ÇALIK HOLDİNG|10.40.25.102|||110000438408|100
04.10.2018 11:00:00||ÇALIK HOLDİNG|10.40.25.102|||110000438408|100
04.10.2018 11:00:00||ÇALIK HOLDİNG|10.40.25.102|||110000438408|149
04.10.2018 11:00:00||ÇALIK HOLDİNG|10.40.25.103|||110000438408|90
04.10.2018 11:00:00||ÇALIK HOLDİNG|10.40.25.103|||110000438408|90
04.10.2018 11:00:00||ÇALIK HOLDİNG|10.40.25.103|||110000438408|80
04.10.2018 11:00:00||ÇALIK HOLDİNG|10.40.25.113|||110000438408|218
04.10.2018 11:00:00||ÇALIK HOLDİNG|10.40.25.113|||110000438408|248
04.10.2018 11:00:00||ÇALIK HOLDİNG|10.40.25.113|||110000438408|179
04.10.2018 11:00:00||ÇALIK HOLDİNG|10.40.25.113|||110000438408|199
04.10.2018 11:00:00||ÇALIK HOLDİNG|10.40.25.114|||110000438408|179
04.10.2018 11:00:00||ÇALIK HOLDİNG|10.40.25.114|||110000438408|407
04.10.2018 11:00:00||ÇALIK HOLDİNG|10.40.25.114|||110000438408|40
04.10.2018 11:00:00||ÇALIK HOLDİNG|10.40.25.115|||110000438408|149
04.10.2018 11:00:00||ÇALIK HOLDİNG|10.40.25.115|||110000438408|70
04.10.2018 11:00:00||ÇALIK HOLDİNG|10.40.25.115|||110000438408|80
04.10.2018 11:00:00||ÇALIK HOLDİNG|10.40.25.115|||110000438408|80
04.10.2018 11:00:00||ÇALIK HOLDİNG|10.40.25.115|||110000438408|70
04.10.2018 11:00:00||ÇALIK HOLDİNG|10.40.25.115|||110000438408|70
04.10.2018 11:00:00||ÇALIK HOLDİNG|10.40.25.116|||110000438408|100
04.10.2018 11:00:00||ÇALIK HOLDİNG|10.40.25.116|||110000438408|100
04.10.2018 11:00:00||ÇALIK HOLDİNG|10.40.25.116|||110000438408|288
04.10.2018 11:00:00||ÇALIK HOLDİNG|10.40.25.117|||110000438408|238
04.10.2018 11:00:00||ÇALIK HOLDİNG|10.40.25.117|||110000438408|30
04.10.2018 11:00:00||ÇALIK HOLDİNG|10.40.25.117|||110000438408|30
04.10.2018 11:00:00||ÇALIK HOLDİNG|10.40.25.118|||110000438408|159
04.10.2018 11:00:00||ÇALIK HOLDİNG|10.40.25.119|||110000438408|30
04.10.2018 11:00:00||ÇALIK HOLDİNG|10.40.25.119|||110000438408|30
04.10.2018 11:00:00||ÇALIK HOLDİNG|10.40.25.120|||110000438408|110
04.10.2018 11:00:00||ÇALIK HOLDİNG|10.40.25.120|||110000438408|50
04.10.2018 11:00:00||ÇALIK HOLDİNG|10.40.25.120|||110000438408|60
04.10.2018 11:00:00||ÇALIK HOLDİNG|10.40.25.120|||110000438408|20
04.10.2018 11:00:00||ÇALIK HOLDİNG|10.40.25.120|||110000438408|30
04.10.2018 11:00:00||ÇALIK HOLDİNG|10.40.25.120|||110000438408|40
04.10.2018 11:00:00||ÇALIK HOLDİNG|10.40.25.120|||110000438408|90
04.10.2018 11:00:00||ÇALIK HOLDİNG|10.40.25.120|||110000438408|20
04.10.2018 11:00:00||ÇALIK HOLDİNG|10.40.25.120|||110000438408|90
04.10.2018 11:00:00||ÇALIK HOLDİNG|10.40.25.120|||110000438408|90
04.10.2018 11:00:00||ÇALIK HOLDİNG|10.40.25.121|||110000438408|90
04.10.2018 11:00:00||ÇALIK HOLDİNG|10.40.25.121|||110000438408|100
04.10.2018 11:00:00||ÇALIK HOLDİNG|10.40.25.121|||110000438408|139
04.10.2018 11:00:00||ÇALIK HOLDİNG|10.40.25.122|||110000438408|90
04.10.2018 11:00:00||ÇALIK HOLDİNG|10.40.25.122|||110000438408|80
04.10.2018 11:00:00||ÇALIK HOLDİNG|10.40.25.122|||110000438408|80
04.10.2018 11:00:00||ÇALIK HOLDİNG|10.40.25.94|||110000438408|183
04.10.2018 11:00:00||ÇALIK HOLDİNG|10.40.25.94|||110000438408|183
04.10.2018 11:00:00||ÇALIK HOLDİNG|10.40.25.94|||110000438408|172
04.10.2018 11:00:00||ÇALIK HOLDİNG|10.40.25.94|||110000438408|183
04.10.2018 11:00:00||ÇALIK HOLDİNG|10.40.25.95|||110000438408|101
04.10.2018 11:00:00||ÇALIK HOLDİNG|10.40.25.95|||110000438408|81
04.10.2018 11:00:00||ÇALIK HOLDİNG|10.40.25.95|||110000438408|387
04.10.2018 11:00:00||ÇALIK HOLDİNG|10.40.25.95|||110000438408|387
04.10.2018 11:00:00||ÇALIK HOLDİNG|10.40.25.95|||110000438408|40
04.10.2018 11:00:00||ÇALIK HOLDİNG|10.40.25.96|||110000438408|71
04.10.2018 11:00:00||ÇALIK HOLDİNG|10.40.25.96|||110000438408|91
04.10.2018 11:00:00||ÇALIK HOLDİNG|10.40.25.96|||110000438408|101
04.10.2018 11:00:00||ÇALIK HOLDİNG|10.40.25.96|||110000438408|91
04.10.2018 11:00:00||ÇALIK HOLDİNG|10.40.25.96|||110000438408|132
04.10.2018 11:00:00||ÇALIK HOLDİNG|10.40.25.96|||110000438408|101
04.10.2018 11:00:00||ÇALIK HOLDİNG|10.40.25.96|||110000438408|254
04.10.2018 11:00:00||ÇALIK HOLDİNG|10.40.25.96|||110000438408|264
04.10.2018 11:00:00||ÇALIK HOLDİNG|10.40.25.96|||110000438408|91
04.10.2018 11:00:00||ÇALIK HOLDİNG|10.40.25.96|||110000438408|91
04.10.2018 11:00:00||ÇALIK HOLDİNG|10.40.25.96|||110000438408|101
04.10.2018 11:00:00||ÇALIK HOLDİNG|10.40.25.96|||110000438408|91
04.10.2018 11:00:00||ÇALIK HOLDİNG|10.40.25.96|||110000438408|101
04.10.2018 11:00:00||ÇALIK HOLDİNG|10.40.25.96|||110000438408|91
04.10.2018 11:00:00||ÇALIK HOLDİNG|10.40.25.97|||110000438408|101
04.10.2018 11:00:00||ÇALIK HOLDİNG|10.40.25.97|||110000438408|81
04.10.2018 11:00:00||ÇALIK HOLDİNG|10.40.25.97|||110000438408|91
04.10.2018 11:00:00||ÇALIK HOLDİNG|10.40.25.97|||110000438408|81
04.10.2018 11:00:00||ÇALIK HOLDİNG|10.40.25.97|||110000438408|305
04.10.2018 11:00:00||ÇALIK HOLDİNG|10.40.25.98|||110000438408|50
04.10.2018 11:00:00||ÇALIK HOLDİNG|10.40.25.98|||110000438408|163
04.10.2018 11:00:00||ÇALIK HOLDİNG|10.40.25.98|||110000438408|163
04.10.2018 11:00:00||ÇALIK HOLDİNG|10.40.25.98|||110000438408|163
04.10.2018 11:00:00||ÇALIK HOLDİNG|10.40.25.98|||110000438408|163
04.10.2018 11:00:00||ÇALIK HOLDİNG|10.40.25.98|||110000438408|60
04.10.2018 11:00:00||ÇALIK HOLDİNG|10.40.25.98|||110000438408|213
04.10.2018 11:00:00||ÇALIK HOLDİNG|10.40.25.98|||110000438408|183
04.10.2018 11:00:00||ÇALIK HOLDİNG|10.40.25.98|||110000438408|173
04.10.2018 11:00:00||ÇALIK HOLDİNG|10.40.25.98|||110000438408|213
04.10.2018 11:00:00||ÇALIK HOLDİNG|10.40.25.98|||110000438408|71
04.10.2018 11:00:00||ÇALIK HOLDİNG|10.40.25.98|||110000438408|305
04.10.2018 11:00:00||ÇALIK HOLDİNG|10.40.25.99|||110000438408|72
04.10.2018 11:00:00||ÇALIK HOLDİNG|10.40.25.99|||110000438408|67
04.10.2018 11:00:00||FIBABANKA|10.40.24.51|||101571767266|20
04.10.2018 11:00:00||FIBABANKA|10.40.24.51|||101571767266|70
04.10.2018 11:00:00||FIBABANKA|10.40.24.51|||101571767266|100
04.10.2018 11:00:00||FIBABANKA|10.40.24.51|||101571767266|140
04.10.2018 11:00:00||FIBABANKA|10.40.24.51|||101571767266|30
04.10.2018 11:00:00||FIBABANKA|10.40.24.51|||101571767266|30
04.10.2018 11:00:00||FIBABANKA|10.40.24.52|||101571767266|10
04.10.2018 11:00:00||FIBABANKA|10.40.24.53|||101571767266|30
04.10.2018 11:00:00||FIBABANKA|10.40.24.53|||101571767266|60
04.10.2018 11:00:00||FIBABANKA|10.40.24.53|||101571767266|180
04.10.2018 11:00:00||FIBABANKA|10.40.24.53|||101571767266|210
04.10.2018 11:00:00||FIBABANKA|10.40.24.54|||101571767266|191
04.10.2018 11:00:00||FIBABANKA|10.40.24.54|||101571767266|193
04.10.2018 11:00:00||FIBABANKA|10.40.24.55|||101571767266|86
04.10.2018 11:00:00||FIBABANKA|10.40.24.55|||101571767266|23
04.10.2018 11:00:00||FIBABANKA|10.40.24.56|||101571767266|11
04.10.2018 11:00:00||FIBABANKA|10.40.24.56|||101571767266|184
04.10.2018 11:00:00||FIBABANKA|10.40.24.57|||101571767266|90
04.10.2018 11:00:00||FIBABANKA|10.40.24.57|||101571767266|80
04.10.2018 11:00:00||FIBABANKA|10.40.24.57|||101571767266|80
04.10.2018 11:00:00||FIBABANKA|10.40.24.59|||101571767266|70
04.10.2018 11:00:00||FIBABANKA|10.40.24.59|||101571767266|120
04.10.2018 11:00:00||FIBABANKA|10.40.24.59|||101571767266|70
04.10.2018 11:00:00||FIBABANKA|10.40.24.59|||101571767266|50
04.10.2018 11:00:00||FIBABANKA|10.40.24.59|||101571767266|130
04.10.2018 11:00:00||FIBABANKA|10.40.24.59|||101571767266|70
04.10.2018 11:00:00||FIBABANKA|10.40.24.59|||101571767266|60
04.10.2018 11:00:00||FIBABANKA|10.40.24.59|||101571767266|160
04.10.2018 11:00:00||FIBABANKA|10.40.24.59|||101571767266|60
04.10.2018 11:00:00||FIBABANKA|10.40.24.60|||101571767266|120
04.10.2018 11:00:00||FIBABANKA|10.40.24.60|||101571767266|50
04.10.2018 11:00:00||FIBABANKA|10.40.24.60|||101571767266|40
04.10.2018 11:00:00||FIBABANKA|10.40.24.60|||101571767266|100
04.10.2018 11:00:00||FIBABANKA|10.40.24.60|||101571767266|60
04.10.2018 11:00:00||FIBABANKA|10.40.24.72|||101571767266|140
04.10.2018 11:00:00||FIBABANKA|10.40.24.72|||101571767266|70
04.10.2018 11:00:00||FIBABANKA|10.40.24.72|||101571767266|30
04.10.2018 11:00:00||FIBABANKA|10.40.24.72|||101571767266|40
04.10.2018 11:00:00||FIBABANKA|10.40.24.74|||101571767266|30
04.10.2018 11:00:00||FIBABANKA|10.40.24.74|||101571767266|30
04.10.2018 11:00:00||FIBABANKA|10.40.24.75|||101571767266|190
04.10.2018 11:00:00||FIBABANKA|10.40.24.75|||101571767266|160
04.10.2018 11:00:00||FIBABANKA|10.40.24.75|||101571767266|160
04.10.2018 11:00:00||FIBABANKA|10.40.24.76|||101571767266|40
04.10.2018 11:00:00||FIBABANKA|10.40.24.76|||101571767266|70
04.10.2018 11:00:00||FIBABANKA|10.40.24.76|||101571767266|10
04.10.2018 11:00:00||FIBABANKA|10.40.25.51|||101571767266|20
04.10.2018 11:00:00||FIBABANKA|10.40.25.51|||101571767266|111
04.10.2018 11:00:00||FIBABANKA|10.40.25.51|||101571767266|132
04.10.2018 11:00:00||FIBABANKA|10.40.25.51|||101571767266|40
04.10.2018 11:00:00||FIBABANKA|10.40.25.51|||101571767266|40
04.10.2018 11:00:00||FIBABANKA|10.40.25.51|||101571767266|71
04.10.2018 11:00:00||FIBABANKA|10.40.25.52|||101571767266|10
04.10.2018 11:00:00||FIBABANKA|10.40.25.52|||101571767266|71
04.10.2018 11:00:00||FIBABANKA|10.40.25.53|||101571767266|40
04.10.2018 11:00:00||FIBABANKA|10.40.25.53|||101571767266|50
04.10.2018 11:00:00||FIBABANKA|10.40.25.53|||101571767266|162
04.10.2018 11:00:00||FIBABANKA|10.40.25.53|||101571767266|162
04.10.2018 11:00:00||FIBABANKA|10.40.25.54|||101571767266|94
04.10.2018 11:00:00||FIBABANKA|10.40.25.54|||101571767266|165
04.10.2018 11:00:00||FIBABANKA|10.40.25.55|||101571767266|90
04.10.2018 11:00:00||FIBABANKA|10.40.25.55|||101571767266|23
04.10.2018 11:00:00||FIBABANKA|10.40.25.56|||101571767266|11
04.10.2018 11:00:00||FIBABANKA|10.40.25.56|||101571767266|197
04.10.2018 11:00:00||FIBABANKA|10.40.25.57|||101571767266|91
04.10.2018 11:00:00||FIBABANKA|10.40.25.57|||101571767266|91
04.10.2018 11:00:00||FIBABANKA|10.40.25.57|||101571767266|91
04.10.2018 11:00:00||FIBABANKA|10.40.25.59|||101571767266|71
04.10.2018 11:00:00||FIBABANKA|10.40.25.59|||101571767266|91
04.10.2018 11:00:00||FIBABANKA|10.40.25.59|||101571767266|81
04.10.2018 11:00:00||FIBABANKA|10.40.25.59|||101571767266|40
04.10.2018 11:00:00||FIBABANKA|10.40.25.59|||101571767266|132
04.10.2018 11:00:00||FIBABANKA|10.40.25.59|||101571767266|71
04.10.2018 11:00:00||FIBABANKA|10.40.25.59|||101571767266|60
04.10.2018 11:00:00||FIBABANKA|10.40.25.59|||101571767266|162
04.10.2018 11:00:00||FIBABANKA|10.40.25.59|||101571767266|60
04.10.2018 11:00:00||FIBABANKA|10.40.25.60|||101571767266|111
04.10.2018 11:00:00||FIBABANKA|10.40.25.60|||101571767266|30
04.10.2018 11:00:00||FIBABANKA|10.40.25.60|||101571767266|111
04.10.2018 11:00:00||FIBABANKA|10.40.25.60|||101571767266|40
04.10.2018 11:00:00||FIBABANKA|10.40.25.72|||101571767266|71
04.10.2018 11:00:00||FIBABANKA|10.40.25.72|||101571767266|40
04.10.2018 11:00:00||FIBABANKA|10.40.25.72|||101571767266|30
04.10.2018 11:00:00||FIBABANKA|10.40.25.74|||101571767266|40
04.10.2018 11:00:00||FIBABANKA|10.40.25.74|||101571767266|30
04.10.2018 11:00:00||FIBABANKA|10.40.25.74|||101571767266|40
04.10.2018 11:00:00||FIBABANKA|10.40.25.74|||101571767266|40
04.10.2018 11:00:00||FIBABANKA|10.40.25.74|||101571767266|40
04.10.2018 11:00:00||FIBABANKA|10.40.25.75|||101571767266|10
04.10.2018 11:00:00||FIBABANKA|10.40.25.75|||101571767266|132
04.10.2018 11:00:00||FIBABANKA|10.40.25.75|||101571767266|162
04.10.2018 11:00:00||FIBABANKA|10.40.25.75|||101571767266|183
04.10.2018 11:00:00||FIBABANKA|10.40.25.75|||101571767266|193
04.10.2018 11:00:00||FIBABANKA|10.40.25.76|||101571767266|10
04.10.2018 11:00:00||FIBABANKA|10.40.25.76|||101571767266|60
04.10.2018 11:00:00||FIBABANKA|10.40.25.76|||101571767266|40
04.10.2018 11:00:00||FIBABANKA|10.40.25.76|||101571767266|10
04.10.2018 11:00:00||FIBABANKA|10.40.26.51|||101571767266|10
04.10.2018 11:00:00||FIBABANKA|10.40.26.51|||101571767266|20
04.10.2018 11:00:00||FIBABANKA|10.40.26.51|||101571767266|111
04.10.2018 11:00:00||FIBABANKA|10.40.26.51|||101571767266|142
04.10.2018 11:00:00||FIBABANKA|10.40.26.51|||101571767266|71
04.10.2018 11:00:00||FIBABANKA|10.40.26.51|||101571767266|30
04.10.2018 11:00:00||FIBABANKA|10.40.26.51|||101571767266|30
04.10.2018 11:00:00||FIBABANKA|10.40.26.52|||101571767266|30
04.10.2018 11:00:00||FIBABANKA|10.40.26.52|||101571767266|91
04.10.2018 11:00:00||FIBABANKA|10.40.26.52|||101571767266|30
04.10.2018 11:00:00||FIBABANKA|10.40.26.53|||101571767266|60
04.10.2018 11:00:00||FIBABANKA|10.40.26.53|||101571767266|50
04.10.2018 11:00:00||FIBABANKA|10.40.26.53|||101571767266|163
04.10.2018 11:00:00||FIBABANKA|10.40.26.53|||101571767266|183
04.10.2018 11:00:00||FIBABANKA|10.40.26.54|||101571767266|178
04.10.2018 11:00:00||FIBABANKA|10.40.26.54|||101571767266|142
04.10.2018 11:00:00||FIBABANKA|10.40.26.55|||101571767266|117
04.10.2018 11:00:00||FIBABANKA|10.40.26.57|||101571767266|91
04.10.2018 11:00:00||FIBABANKA|10.40.26.57|||101571767266|91
04.10.2018 11:00:00||FIBABANKA|10.40.26.57|||101571767266|81
04.10.2018 11:00:00||FIBABANKA|10.40.26.72|||101571767266|30
04.10.2018 11:00:00||FIBABANKA|10.40.26.72|||101571767266|157
04.10.2018 11:00:00||FIBABANKA|10.40.26.72|||101571767266|73
04.10.2018 11:00:00||FIBABANKA|10.40.26.72|||101571767266|30
04.10.2018 11:00:00||FIBABANKA|10.40.26.73|||101571767266|41
04.10.2018 11:00:00||FIBABANKA|10.40.26.73|||101571767266|73
04.10.2018 11:00:00||FIBABANKA|10.40.26.73|||101571767266|30
04.10.2018 11:00:00||FIBABANKA|10.40.26.73|||101571767266|41
04.10.2018 11:00:00||FIBABANKA|10.40.26.74|||101571767266|84
04.10.2018 11:00:00||FIBABANKA|10.40.26.74|||101571767266|189
04.10.2018 11:00:00||FIBABANKA|10.40.26.74|||101571767266|199
04.10.2018 11:00:00||FIBABANKA|10.40.26.74|||101571767266|189
04.10.2018 11:00:00||FIBABANKA|10.40.26.77|||101571767266|189
04.10.2018 11:00:00||FIBABANKA|10.40.26.79|||101571767266|10
04.10.2018 11:00:00||FIBABANKA|10.40.26.79|||101571767266|10
04.10.2018 11:00:00||FIBABANKA|10.40.27.51|||101571767266|30
04.10.2018 11:00:00||FIBABANKA|10.40.27.51|||101571767266|20
04.10.2018 11:00:00||FIBABANKA|10.40.27.51|||101571767266|100
04.10.2018 11:00:00||FIBABANKA|10.40.27.51|||101571767266|130
04.10.2018 11:00:00||FIBABANKA|10.40.27.51|||101571767266|70
04.10.2018 11:00:00||FIBABANKA|10.40.27.51|||101571767266|40
04.10.2018 11:00:00||FIBABANKA|10.40.27.51|||101571767266|40
04.10.2018 11:00:00||FIBABANKA|10.40.27.52|||101571767266|50
04.10.2018 11:00:00||FIBABANKA|10.40.27.52|||101571767266|60
04.10.2018 11:00:00||FIBABANKA|10.40.27.52|||101571767266|70
04.10.2018 11:00:00||FIBABANKA|10.40.27.53|||101571767266|70
04.10.2018 11:00:00||FIBABANKA|10.40.27.53|||101571767266|60
04.10.2018 11:00:00||FIBABANKA|10.40.27.53|||101571767266|170
04.10.2018 11:00:00||FIBABANKA|10.40.27.53|||101571767266|180
04.10.2018 11:00:00||FIBABANKA|10.40.27.54|||101571767266|178
04.10.2018 11:00:00||FIBABANKA|10.40.27.54|||101571767266|128
04.10.2018 11:00:00||FIBABANKA|10.40.27.55|||101571767266|113
04.10.2018 11:00:00||FIBABANKA|10.40.27.57|||101571767266|80
04.10.2018 11:00:00||FIBABANKA|10.40.27.57|||101571767266|80
04.10.2018 11:00:00||FIBABANKA|10.40.27.57|||101571767266|80
04.10.2018 11:00:00||FIBABANKA|10.40.27.72|||101571767266|50
04.10.2018 11:00:00||FIBABANKA|10.40.27.72|||101571767266|40
04.10.2018 11:00:00||FIBABANKA|10.40.27.72|||101571767266|140
04.10.2018 11:00:00||FIBABANKA|10.40.27.72|||101571767266|60
04.10.2018 11:00:00||FIBABANKA|10.40.27.72|||101571767266|30
04.10.2018 11:00:00||FIBABANKA|10.40.27.73|||101571767266|30
04.10.2018 11:00:00||FIBABANKA|10.40.27.73|||101571767266|100
04.10.2018 11:00:00||FIBABANKA|10.40.27.73|||101571767266|30
04.10.2018 11:00:00||FIBABANKA|10.40.27.73|||101571767266|20
04.10.2018 11:00:00||FIBABANKA|10.40.27.73|||101571767266|40
04.10.2018 11:00:00||FIBABANKA|10.40.27.73|||101571767266|40
04.10.2018 11:00:00||FIBABANKA|10.40.27.73|||101571767266|40
04.10.2018 11:00:00||FIBABANKA|10.40.27.73|||101571767266|40
04.10.2018 11:00:00||FIBABANKA|10.40.27.74|||101571767266|80
04.10.2018 11:00:00||FIBABANKA|10.40.27.74|||101571767266|150
04.10.2018 11:00:00||FIBABANKA|10.40.27.74|||101571767266|180
04.10.2018 11:00:00||FIBABANKA|10.40.27.74|||101571767266|180
04.10.2018 11:00:00||FIBABANKA|10.40.27.75|||101571767266|10
04.10.2018 11:00:00||FIBABANKA|10.40.27.75|||101571767266|10
04.10.2018 11:00:00||FIBABANKA|10.40.27.77|||101571767266|170
04.10.2018 11:00:00||FIBABANKA|10.40.27.77|||101571767266|160
04.10.2018 11:00:00||FIBABANKA|10.40.27.79|||101571767266|10
04.10.2018 11:00:00||HAVAŞ|10.40.24.45|||110000479675|69
04.10.2018 11:00:00||HAVAŞ|10.40.24.45|||110000479675|156
04.10.2018 11:00:00||HAVAŞ|10.40.24.45|||110000479675|127
04.10.2018 11:00:00||HAVAŞ|10.40.24.45|||110000479675|88
04.10.2018 11:00:00||HAVAŞ|10.40.24.46|||110000479675|20
04.10.2018 11:00:00||HAVAŞ|10.40.24.46|||110000479675|20
04.10.2018 11:00:00||HAVAŞ|10.40.24.46|||110000479675|10
04.10.2018 11:00:00||HAVAŞ|10.40.24.46|||110000479675|10
04.10.2018 11:00:00||HAVAŞ|10.40.24.46|||110000479675|10
04.10.2018 11:00:00||HAVAŞ|10.40.24.46|||110000479675|10
04.10.2018 11:00:00||HAVAŞ|10.40.24.46|||110000479675|10
04.10.2018 11:00:00||HAVAŞ|10.40.24.46|||110000479675|60
04.10.2018 11:00:00||HAVAŞ|10.40.24.46|||110000479675|60
04.10.2018 11:00:00||HAVAŞ|10.40.24.46|||110000479675|110
04.10.2018 11:00:00||HAVAŞ|10.40.24.46|||110000479675|70
04.10.2018 11:00:00||HAVAŞ|10.40.24.46|||110000479675|80
04.10.2018 11:00:00||HAVAŞ|10.40.24.47|||110000479675|30
04.10.2018 11:00:00||HAVAŞ|10.40.24.47|||110000479675|30
04.10.2018 11:00:00||HAVAŞ|10.40.24.47|||110000479675|210
04.10.2018 11:00:00||HAVAŞ|10.40.24.47|||110000479675|90
04.10.2018 11:00:00||HAVAŞ|10.40.24.47|||110000479675|50
04.10.2018 11:00:00||HAVAŞ|10.40.24.47|||110000479675|50
04.10.2018 11:00:00||HAVAŞ|10.40.24.47|||110000479675|110
04.10.2018 11:00:00||HAVAŞ|10.40.24.47|||110000479675|160
04.10.2018 11:00:00||HAVAŞ|10.40.24.47|||110000479675|100
04.10.2018 11:00:00||HAVAŞ|10.40.24.47|||110000479675|100
04.10.2018 11:00:00||HAVAŞ|10.40.24.47|||110000479675|90
04.10.2018 11:00:00||HAVAŞ|10.40.24.48|||110000479675|752
04.10.2018 11:00:00||HAVAŞ|10.40.24.48|||110000479675|722
04.10.2018 11:00:00||HAVAŞ|10.40.24.48|||110000479675|752
04.10.2018 11:00:00||HAVAŞ|10.40.25.45|||110000479675|50
04.10.2018 11:00:00||HAVAŞ|10.40.25.45|||110000479675|101
04.10.2018 11:00:00||HAVAŞ|10.40.25.45|||110000479675|132
04.10.2018 11:00:00||HAVAŞ|10.40.25.45|||110000479675|91
04.10.2018 11:00:00||HAVAŞ|10.40.25.46|||110000479675|10
04.10.2018 11:00:00||HAVAŞ|10.40.25.46|||110000479675|10
04.10.2018 11:00:00||HAVAŞ|10.40.25.46|||110000479675|20
04.10.2018 11:00:00||HAVAŞ|10.40.25.46|||110000479675|20
04.10.2018 11:00:00||HAVAŞ|10.40.25.46|||110000479675|10
04.10.2018 11:00:00||HAVAŞ|10.40.25.46|||110000479675|50
04.10.2018 11:00:00||HAVAŞ|10.40.25.46|||110000479675|60
04.10.2018 11:00:00||HAVAŞ|10.40.25.46|||110000479675|101
04.10.2018 11:00:00||HAVAŞ|10.40.25.46|||110000479675|71
04.10.2018 11:00:00||HAVAŞ|10.40.25.46|||110000479675|81
04.10.2018 11:00:00||HAVAŞ|10.40.25.46|||110000479675|71
04.10.2018 11:00:00||HAVAŞ|10.40.25.47|||110000479675|71
04.10.2018 11:00:00||HAVAŞ|10.40.25.47|||110000479675|71
04.10.2018 11:00:00||HAVAŞ|10.40.25.47|||110000479675|234
04.10.2018 11:00:00||HAVAŞ|10.40.25.47|||110000479675|60
04.10.2018 11:00:00||HAVAŞ|10.40.25.47|||110000479675|91
04.10.2018 11:00:00||HAVAŞ|10.40.25.47|||110000479675|91
04.10.2018 11:00:00||HAVAŞ|10.40.25.47|||110000479675|91
04.10.2018 11:00:00||HAVAŞ|10.40.25.47|||110000479675|10
04.10.2018 11:00:00||HAVAŞ|10.40.25.47|||110000479675|183
04.10.2018 11:00:00||HAVAŞ|10.40.25.47|||110000479675|91
04.10.2018 11:00:00||HAVAŞ|10.40.25.47|||110000479675|91
04.10.2018 11:00:00||HAVAŞ|10.40.25.47|||110000479675|91
04.10.2018 11:00:00||HAVAŞ|10.40.25.48|||110000479675|753
04.10.2018 11:00:00||HAVAŞ|10.40.25.48|||110000479675|763
04.10.2018 11:00:00||HAVAŞ|10.40.25.48|||110000479675|814
04.10.2018 11:00:00||MARS CINEMA|10.40.24.203|||110000472614|59
04.10.2018 11:00:00||MARS CINEMA|10.40.24.203|||110000472614|88
04.10.2018 11:00:00||MARS CINEMA|10.40.24.203|||110000472614|98
04.10.2018 11:00:00||MARS CINEMA|10.40.24.203|||110000472614|98
04.10.2018 11:00:00||MARS CINEMA|10.40.24.203|||110000472614|137
04.10.2018 11:00:00||MARS CINEMA|10.40.24.203|||110000472614|146
04.10.2018 11:00:00||MARS CINEMA|10.40.24.203|||110000472614|166
04.10.2018 11:00:00||MARS CINEMA|10.40.24.203|||110000472614|166
04.10.2018 11:00:00||MARS CINEMA|10.40.24.203|||110000472614|98
04.10.2018 11:00:00||MARS CINEMA|10.40.24.203|||110000472614|98
04.10.2018 11:00:00||MARS CINEMA|10.40.24.203|||110000472614|88
04.10.2018 11:00:00||MARS CINEMA|10.40.24.203|||110000472614|185
04.10.2018 11:00:00||MARS CINEMA|10.40.24.204|||110000472614|108
04.10.2018 11:00:00||MARS CINEMA|10.40.24.204|||110000472614|88
04.10.2018 11:00:00||MARS CINEMA|10.40.24.204|||110000472614|88
04.10.2018 11:00:00||MARS CINEMA|10.40.24.204|||110000472614|20
04.10.2018 11:00:00||MARS CINEMA|10.40.24.204|||110000472614|88
04.10.2018 11:00:00||MARS CINEMA|10.40.24.204|||110000472614|20
04.10.2018 11:00:00||MARS CINEMA|10.40.24.204|||110000472614|10
04.10.2018 11:00:00||MARS CINEMA|10.40.24.204|||110000472614|40
04.10.2018 11:00:00||MARS CINEMA|10.40.24.204|||110000472614|88
04.10.2018 11:00:00||MARS CINEMA|10.40.24.204|||110000472614|117
04.10.2018 11:00:00||MARS CINEMA|10.40.24.204|||110000472614|49
04.10.2018 11:00:00||MARS CINEMA|10.40.24.204|||110000472614|88
04.10.2018 11:00:00||MARS CINEMA|10.40.24.204|||110000472614|108
04.10.2018 11:00:00||MARS CINEMA|10.40.24.204|||110000472614|78
04.10.2018 11:00:00||MARS CINEMA|10.40.24.206|||110000472614|40
04.10.2018 11:00:00||MARS CINEMA|10.40.24.206|||110000472614|40
04.10.2018 11:00:00||MARS CINEMA|10.40.24.206|||110000472614|49
04.10.2018 11:00:00||MARS CINEMA|10.40.24.206|||110000472614|30
04.10.2018 11:00:00||MARS CINEMA|10.40.24.206|||110000472614|30
04.10.2018 11:00:00||MARS CINEMA|10.40.24.206|||110000472614|30
04.10.2018 11:00:00||MARS CINEMA|10.40.24.206|||110000472614|195
04.10.2018 11:00:00||MARS CINEMA|10.40.24.206|||110000472614|127
04.10.2018 11:00:00||MARS CINEMA|10.40.24.206|||110000472614|20
04.10.2018 11:00:00||MARS CINEMA|10.40.24.206|||110000472614|88
04.10.2018 11:00:00||MARS CINEMA|10.40.24.206|||110000472614|78
04.10.2018 11:00:00||MARS CINEMA|10.40.25.203|||110000472614|142
04.10.2018 11:00:00||MARS CINEMA|10.40.25.203|||110000472614|71
04.10.2018 11:00:00||MARS CINEMA|10.40.25.203|||110000472614|172
04.10.2018 11:00:00||MARS CINEMA|10.40.25.203|||110000472614|91
04.10.2018 11:00:00||MARS CINEMA|10.40.25.203|||110000472614|91
04.10.2018 11:00:00||MARS CINEMA|10.40.25.203|||110000472614|111
04.10.2018 11:00:00||MARS CINEMA|10.40.25.203|||110000472614|122
04.10.2018 11:00:00||MARS CINEMA|10.40.25.203|||110000472614|152
04.10.2018 11:00:00||MARS CINEMA|10.40.25.203|||110000472614|91
04.10.2018 11:00:00||MARS CINEMA|10.40.25.203|||110000472614|91
04.10.2018 11:00:00||MARS CINEMA|10.40.25.203|||110000472614|60
04.10.2018 11:00:00||MARS CINEMA|10.40.25.203|||110000472614|193
04.10.2018 11:00:00||MARS CINEMA|10.40.25.204|||110000472614|111
04.10.2018 11:00:00||MARS CINEMA|10.40.25.204|||110000472614|71
04.10.2018 11:00:00||MARS CINEMA|10.40.25.204|||110000472614|81
04.10.2018 11:00:00||MARS CINEMA|10.40.25.204|||110000472614|101
04.10.2018 11:00:00||MARS CINEMA|10.40.25.204|||110000472614|20
04.10.2018 11:00:00||MARS CINEMA|10.40.25.204|||110000472614|20
04.10.2018 11:00:00||MARS CINEMA|10.40.25.204|||110000472614|30
04.10.2018 11:00:00||MARS CINEMA|10.40.25.204|||110000472614|40
04.10.2018 11:00:00||MARS CINEMA|10.40.25.204|||110000472614|91
04.10.2018 11:00:00||MARS CINEMA|10.40.25.204|||110000472614|111
04.10.2018 11:00:00||MARS CINEMA|10.40.25.204|||110000472614|101
04.10.2018 11:00:00||MARS CINEMA|10.40.25.204|||110000472614|122
04.10.2018 11:00:00||MARS CINEMA|10.40.25.204|||110000472614|81
04.10.2018 11:00:00||MARS CINEMA|10.40.25.204|||110000472614|81
04.10.2018 11:00:00||MARS CINEMA|10.40.25.206|||110000472614|40
04.10.2018 11:00:00||MARS CINEMA|10.40.25.206|||110000472614|40
04.10.2018 11:00:00||MARS CINEMA|10.40.25.206|||110000472614|40
04.10.2018 11:00:00||MARS CINEMA|10.40.25.206|||110000472614|20
04.10.2018 11:00:00||MARS CINEMA|10.40.25.206|||110000472614|20
04.10.2018 11:00:00||MARS CINEMA|10.40.25.206|||110000472614|30
04.10.2018 11:00:00||MARS CINEMA|10.40.25.206|||110000472614|60
04.10.2018 11:00:00||MARS CINEMA|10.40.25.206|||110000472614|40
04.10.2018 11:00:00||MARS CINEMA|10.40.25.206|||110000472614|81
04.10.2018 11:00:00||MARS CINEMA|10.40.25.206|||110000472614|81
04.10.2018 11:00:00||PEGASUS|10.40.26.62|||110000423831|91
04.10.2018 11:00:00||PEGASUS|10.40.26.62|||110000423831|10
04.10.2018 11:00:00||PEGASUS|10.40.26.62|||110000423831|193
04.10.2018 11:00:00||PEGASUS|10.40.26.63|||110000423831|111
04.10.2018 11:00:00||PEGASUS|10.40.26.63|||110000423831|295
04.10.2018 11:00:00||PEGASUS|10.40.26.63|||110000423831|111
04.10.2018 11:00:00||PEGASUS|10.40.26.63|||110000423831|91
04.10.2018 11:00:00||PEGASUS|10.40.26.63|||110000423831|71
04.10.2018 11:00:00||PEGASUS|10.40.26.63|||110000423831|132
04.10.2018 11:00:00||PEGASUS|10.40.26.63|||110000423831|60
04.10.2018 11:00:00||PEGASUS|10.40.26.63|||110000423831|101
04.10.2018 11:00:00||PEGASUS|10.40.26.63|||110000423831|30
04.10.2018 11:00:00||PEGASUS|10.40.26.63|||110000423831|60
04.10.2018 11:00:00||PEGASUS|10.40.26.63|||110000423831|20
04.10.2018 11:00:00||PEGASUS|10.40.26.63|||110000423831|223
04.10.2018 11:00:00||PEGASUS|10.40.26.63|||110000423831|142
04.10.2018 11:00:00||PEGASUS|10.40.26.63|||110000423831|50
04.10.2018 11:00:00||PEGASUS|10.40.26.63|||110000423831|152
04.10.2018 11:00:00||PEGASUS|10.40.26.63|||110000423831|40
04.10.2018 11:00:00||PEGASUS|10.40.26.63|||110000423831|60
04.10.2018 11:00:00||PEGASUS|10.40.26.63|||110000423831|60
04.10.2018 11:00:00||PEGASUS|10.40.26.63|||110000423831|40
04.10.2018 11:00:00||PEGASUS|10.40.26.64|||110000423831|81
04.10.2018 11:00:00||PEGASUS|10.40.26.64|||110000423831|81
04.10.2018 11:00:00||PEGASUS|10.40.26.66|||110000423831|58
04.10.2018 11:00:00||PEGASUS|10.40.26.66|||110000423831|49
04.10.2018 11:00:00||PEGASUS|10.40.26.67|||110000423831|30
04.10.2018 11:00:00||PEGASUS|10.40.26.67|||110000423831|346
04.10.2018 11:00:00||PEGASUS|10.40.26.67|||110000423831|346
04.10.2018 11:00:00||PEGASUS|10.40.26.67|||110000423831|60
04.10.2018 11:00:00||PEGASUS|10.40.26.67|||110000423831|40
04.10.2018 11:00:00||PEGASUS|10.40.26.67|||110000423831|173
04.10.2018 11:00:00||PEGASUS|10.40.26.67|||110000423831|71
04.10.2018 11:00:00||PEGASUS|10.40.26.67|||110000423831|346
04.10.2018 11:00:00||PEGASUS|10.40.26.68|||110000423831|101
04.10.2018 11:00:00||PEGASUS|10.40.26.68|||110000423831|91
04.10.2018 11:00:00||PEGASUS|10.40.26.68|||110000423831|91
04.10.2018 11:00:00||PEGASUS|10.40.26.68|||110000423831|50
04.10.2018 11:00:00||PEGASUS|10.40.26.81|||110000423831|452
04.10.2018 11:00:00||PEGASUS|10.40.26.81|||110000423831|472
04.10.2018 11:00:00||PEGASUS|10.40.26.81|||110000423831|483
04.10.2018 11:00:00||PEGASUS|10.40.26.82|||110000423831|220
04.10.2018 11:00:00||PEGASUS|10.40.26.82|||110000423831|114
04.10.2018 11:00:00||PEGASUS|10.40.26.82|||110000423831|84
04.10.2018 11:00:00||PEGASUS|10.40.26.82|||110000423831|157
04.10.2018 11:00:00||PEGASUS|10.40.26.82|||110000423831|146
04.10.2018 11:00:00||PEGASUS|10.40.26.82|||110000423831|146
04.10.2018 11:00:00||PEGASUS|10.40.26.82|||110000423831|189
04.10.2018 11:00:00||PEGASUS|10.40.26.82|||110000423831|30
04.10.2018 11:00:00||PEGASUS|10.40.26.82|||110000423831|41
04.10.2018 11:00:00||PEGASUS|10.40.26.82|||110000423831|20
04.10.2018 11:00:00||PEGASUS|10.40.26.82|||110000423831|73
04.10.2018 11:00:00||PEGASUS|10.40.26.82|||110000423831|52
04.10.2018 11:00:00||PEGASUS|10.40.26.82|||110000423831|41
04.10.2018 11:00:00||PEGASUS|10.40.26.83|||110000423831|567
04.10.2018 11:00:00||PEGASUS|10.40.26.83|||110000423831|52
04.10.2018 11:00:00||PEGASUS|10.40.26.83|||110000423831|420
04.10.2018 11:00:00||PEGASUS|10.40.26.83|||110000423831|157
04.10.2018 11:00:00||PEGASUS|10.40.26.83|||110000423831|104
04.10.2018 11:00:00||PEGASUS|10.40.26.83|||110000423831|567
04.10.2018 11:00:00||PEGASUS|10.40.26.83|||110000423831|114
04.10.2018 11:00:00||PEGASUS|10.40.26.83|||110000423831|577
04.10.2018 11:00:00||PEGASUS|10.40.26.84|||110000423831|41
04.10.2018 11:00:00||PEGASUS|10.40.26.84|||110000423831|192
04.10.2018 11:00:00||PEGASUS|10.40.26.85|||110000423831|23
04.10.2018 11:00:00||PEGASUS|10.40.26.85|||110000423831|102
04.10.2018 11:00:00||PEGASUS|10.40.26.86|||110000423831|378
04.10.2018 11:00:00||PEGASUS|10.40.26.86|||110000423831|136
04.10.2018 11:00:00||PEGASUS|10.40.26.86|||110000423831|368
04.10.2018 11:00:00||PEGASUS|10.40.26.86|||110000423831|52
04.10.2018 11:00:00||PEGASUS|10.40.26.86|||110000423831|30
04.10.2018 11:00:00||PEGASUS|10.40.26.86|||110000423831|368
04.10.2018 11:00:00||PEGASUS|10.40.26.86|||110000423831|41
04.10.2018 11:00:00||PEGASUS|10.40.26.86|||110000423831|52
04.10.2018 11:00:00||PEGASUS|10.40.26.87|||110000423831|94
04.10.2018 11:00:00||PEGASUS|10.40.26.87|||110000423831|94
04.10.2018 11:00:00||PEGASUS|10.40.26.87|||110000423831|94
04.10.2018 11:00:00||PEGASUS|10.40.26.87|||110000423831|20
04.10.2018 11:00:00||PEGASUS|10.40.27.63|||110000423831|90
04.10.2018 11:00:00||PEGASUS|10.40.27.63|||110000423831|60
04.10.2018 11:00:00||PEGASUS|10.40.27.63|||110000423831|70
04.10.2018 11:00:00||PEGASUS|10.40.27.63|||110000423831|50
04.10.2018 11:00:00||PEGASUS|10.40.27.63|||110000423831|60
04.10.2018 11:00:00||PEGASUS|10.40.27.63|||110000423831|60
04.10.2018 11:00:00||PEGASUS|10.40.27.63|||110000423831|80
04.10.2018 11:00:00||PEGASUS|10.40.27.63|||110000423831|80
04.10.2018 11:00:00||PEGASUS|10.40.27.63|||110000423831|80
04.10.2018 11:00:00||PEGASUS|10.40.27.63|||110000423831|209
04.10.2018 11:00:00||PEGASUS|10.40.27.63|||110000423831|60
04.10.2018 11:00:00||PEGASUS|10.40.27.63|||110000423831|60
04.10.2018 11:00:00||PEGASUS|10.40.27.63|||110000423831|70
04.10.2018 11:00:00||PEGASUS|10.40.27.63|||110000423831|90
04.10.2018 11:00:00||PEGASUS|10.40.27.63|||110000423831|70
04.10.2018 11:00:00||PEGASUS|10.40.27.63|||110000423831|60
04.10.2018 11:00:00||PEGASUS|10.40.27.63|||110000423831|80
04.10.2018 11:00:00||PEGASUS|10.40.27.64|||110000423831|70
04.10.2018 11:00:00||PEGASUS|10.40.27.64|||110000423831|70
04.10.2018 11:00:00||PEGASUS|10.40.27.64|||110000423831|269
04.10.2018 11:00:00||PEGASUS|10.40.27.64|||110000423831|289
04.10.2018 11:00:00||PEGASUS|10.40.27.64|||110000423831|259
04.10.2018 11:00:00||PEGASUS|10.40.27.64|||110000423831|339
04.10.2018 11:00:00||PEGASUS|10.40.27.64|||110000423831|299
04.10.2018 11:00:00||PEGASUS|10.40.27.64|||110000423831|319
04.10.2018 11:00:00||PEGASUS|10.40.27.64|||110000423831|269
04.10.2018 11:00:00||PEGASUS|10.40.27.64|||110000423831|289
04.10.2018 11:00:00||PEGASUS|10.40.27.64|||110000423831|259
04.10.2018 11:00:00||PEGASUS|10.40.27.64|||110000423831|269
04.10.2018 11:00:00||PEGASUS|10.40.27.64|||110000423831|249
04.10.2018 11:00:00||PEGASUS|10.40.27.64|||110000423831|249
04.10.2018 11:00:00||PEGASUS|10.40.27.66|||110000423831|42
04.10.2018 11:00:00||PEGASUS|10.40.27.66|||110000423831|57
04.10.2018 11:00:00||PEGASUS|10.40.27.67|||110000423831|50
04.10.2018 11:00:00||PEGASUS|10.40.27.67|||110000423831|359
04.10.2018 11:00:00||PEGASUS|10.40.27.67|||110000423831|70
04.10.2018 11:00:00||PEGASUS|10.40.27.67|||110000423831|130
04.10.2018 11:00:00||PEGASUS|10.40.27.67|||110000423831|10
04.10.2018 11:00:00||PEGASUS|10.40.27.67|||110000423831|339
04.10.2018 11:00:00||PEGASUS|10.40.27.67|||110000423831|40
04.10.2018 11:00:00||PEGASUS|10.40.27.67|||110000423831|339
04.10.2018 11:00:00||PEGASUS|10.40.27.68|||110000423831|90
04.10.2018 11:00:00||PEGASUS|10.40.27.68|||110000423831|80
04.10.2018 11:00:00||PEGASUS|10.40.27.68|||110000423831|90
04.10.2018 11:00:00||PEGASUS|10.40.27.68|||110000423831|60
04.10.2018 11:00:00||PEGASUS|10.40.27.81|||110000423831|500
04.10.2018 11:00:00||PEGASUS|10.40.27.81|||110000423831|450
04.10.2018 11:00:00||PEGASUS|10.40.27.81|||110000423831|410
04.10.2018 11:00:00||PEGASUS|10.40.27.82|||110000423831|220
04.10.2018 11:00:00||PEGASUS|10.40.27.82|||110000423831|30
04.10.2018 11:00:00||PEGASUS|10.40.27.82|||110000423831|100
04.10.2018 11:00:00||PEGASUS|10.40.27.82|||110000423831|80
04.10.2018 11:00:00||PEGASUS|10.40.27.82|||110000423831|150
04.10.2018 11:00:00||PEGASUS|10.40.27.82|||110000423831|120
04.10.2018 11:00:00||PEGASUS|10.40.27.82|||110000423831|170
04.10.2018 11:00:00||PEGASUS|10.40.27.82|||110000423831|120
04.10.2018 11:00:00||PEGASUS|10.40.27.82|||110000423831|60
04.10.2018 11:00:00||PEGASUS|10.40.27.82|||110000423831|70
04.10.2018 11:00:00||PEGASUS|10.40.27.82|||110000423831|50
04.10.2018 11:00:00||PEGASUS|10.40.27.82|||110000423831|30
04.10.2018 11:00:00||PEGASUS|10.40.27.82|||110000423831|60
04.10.2018 11:00:00||PEGASUS|10.40.27.82|||110000423831|40
04.10.2018 11:00:00||PEGASUS|10.40.27.83|||110000423831|590
04.10.2018 11:00:00||PEGASUS|10.40.27.83|||110000423831|70
04.10.2018 11:00:00||PEGASUS|10.40.27.83|||110000423831|510
04.10.2018 11:00:00||PEGASUS|10.40.27.83|||110000423831|100
04.10.2018 11:00:00||PEGASUS|10.40.27.83|||110000423831|150
04.10.2018 11:00:00||PEGASUS|10.40.27.83|||110000423831|80
04.10.2018 11:00:00||PEGASUS|10.40.27.83|||110000423831|500
04.10.2018 11:00:00||PEGASUS|10.40.27.83|||110000423831|70
04.10.2018 11:00:00||PEGASUS|10.40.27.84|||110000423831|176
04.10.2018 11:00:00||PEGASUS|10.40.27.84|||110000423831|40
04.10.2018 11:00:00||PEGASUS|10.40.27.85|||110000423831|94
04.10.2018 11:00:00||PEGASUS|10.40.27.85|||110000423831|22
04.10.2018 11:00:00||PEGASUS|10.40.27.86|||110000423831|340
04.10.2018 11:00:00||PEGASUS|10.40.27.86|||110000423831|340
04.10.2018 11:00:00||PEGASUS|10.40.27.86|||110000423831|160
04.10.2018 11:00:00||PEGASUS|10.40.27.86|||110000423831|70
04.10.2018 11:00:00||PEGASUS|10.40.27.86|||110000423831|40
04.10.2018 11:00:00||PEGASUS|10.40.27.86|||110000423831|20
04.10.2018 11:00:00||PEGASUS|10.40.27.86|||110000423831|350
04.10.2018 11:00:00||PEGASUS|10.40.27.87|||110000423831|90
04.10.2018 11:00:00||PEGASUS|10.40.27.87|||110000423831|90
04.10.2018 11:00:00||PEGASUS|10.40.27.87|||110000423831|90
04.10.2018 11:00:00||PEGASUS|10.40.27.87|||110000423831|20
04.10.2018 11:00:00||PETKIM|10.40.25.87|||110000437354|93
04.10.2018 11:00:00||PETKIM|10.40.25.87|||110000437354|50
04.10.2018 11:00:00||PWC|10.40.24.66|||110000433262|90
04.10.2018 11:00:00||PWC|10.40.24.66|||110000433262|10
04.10.2018 11:00:00||PWC|10.40.24.66|||110000433262|210
04.10.2018 11:00:00||PWC|10.40.24.66|||110000433262|210
04.10.2018 11:00:00||PWC|10.40.24.66|||110000433262|30
04.10.2018 11:00:00||PWC|10.40.24.66|||110000433262|50
04.10.2018 11:00:00||PWC|10.40.24.66|||110000433262|50
04.10.2018 11:00:00||PWC|10.40.24.66|||110000433262|60
04.10.2018 11:00:00||PWC|10.40.24.66|||110000433262|30
04.10.2018 11:00:00||PWC|10.40.24.66|||110000433262|40
04.10.2018 11:00:00||PWC|10.40.24.66|||110000433262|451
04.10.2018 11:00:00||PWC|10.40.24.67|||110000433262|10
04.10.2018 11:00:00||PWC|10.40.24.67|||110000433262|10
04.10.2018 11:00:00||PWC|10.40.24.67|||110000433262|381
04.10.2018 11:00:00||PWC|10.40.24.67|||110000433262|30
04.10.2018 11:00:00||PWC|10.40.24.67|||110000433262|70
04.10.2018 11:00:00||PWC|10.40.24.67|||110000433262|120
04.10.2018 11:00:00||PWC|10.40.24.68|||110000433262|100
04.10.2018 11:00:00||PWC|10.40.24.68|||110000433262|140
04.10.2018 11:00:00||PWC|10.40.24.68|||110000433262|70
04.10.2018 11:00:00||PWC|10.40.24.68|||110000433262|70
04.10.2018 11:00:00||PWC|10.40.24.68|||110000433262|150
04.10.2018 11:00:00||PWC|10.40.25.67|||110000433262|81
04.10.2018 11:00:00||PWC|10.40.25.67|||110000433262|91
04.10.2018 11:00:00||PWC|10.40.25.67|||110000433262|325
04.10.2018 11:00:00||PWC|10.40.25.67|||110000433262|254
04.10.2018 11:00:00||PWC|10.40.25.67|||110000433262|244
04.10.2018 11:00:00||PWC|10.40.25.67|||110000433262|254
04.10.2018 11:00:00||PWC|10.40.25.67|||110000433262|50
04.10.2018 11:00:00||PWC|10.40.25.67|||110000433262|30
04.10.2018 11:00:00||PWC|10.40.25.67|||110000433262|122
04.10.2018 11:00:00||PWC|10.40.25.68|||110000433262|132
04.10.2018 11:00:00||PWC|10.40.25.68|||110000433262|193
04.10.2018 11:00:00||PWC|10.40.25.68|||110000433262|397
04.10.2018 11:00:00||PWC|10.40.25.68|||110000433262|71
04.10.2018 11:00:00||PWC|10.40.25.68|||110000433262|81
04.10.2018 11:00:00||PWC|10.40.25.68|||110000433262|152
