04.10.2018 09:00:00||AKTİFBANK|10.40.24.128|||110000438458|153
04.10.2018 09:00:00||AKTİFBANK|10.40.24.128|||110000438458|71
04.10.2018 09:00:00||AKTİFBANK|10.40.24.128|||110000438458|102
04.10.2018 09:00:00||AKTİFBANK|10.40.24.128|||110000438458|40
04.10.2018 09:00:00||AKTİFBANK|10.40.24.128|||110000438458|71
04.10.2018 09:00:00||AKTİFBANK|10.40.24.128|||110000438458|40
04.10.2018 09:00:00||AKTİFBANK|10.40.24.129|||110000438458|102
04.10.2018 09:00:00||AKTİFBANK|10.40.24.129|||110000438458|71
04.10.2018 09:00:00||AKTİFBANK|10.40.24.129|||110000438458|102
04.10.2018 09:00:00||AKTİFBANK|10.40.24.129|||110000438458|112
04.10.2018 09:00:00||AKTİFBANK|10.40.24.129|||110000438458|51
04.10.2018 09:00:00||AKTİFBANK|10.40.24.129|||110000438458|71
04.10.2018 09:00:00||AKTİFBANK|10.40.24.129|||110000438458|71
04.10.2018 09:00:00||AKTİFBANK|10.40.24.129|||110000438458|91
04.10.2018 09:00:00||AKTİFBANK|10.40.24.129|||110000438458|81
04.10.2018 09:00:00||AKTİFBANK|10.40.24.129|||110000438458|142
04.10.2018 09:00:00||AKTİFBANK|10.40.24.130|||110000438458|51
04.10.2018 09:00:00||AKTİFBANK|10.40.24.130|||110000438458|40
04.10.2018 09:00:00||AKTİFBANK|10.40.24.130|||110000438458|81
04.10.2018 09:00:00||AKTİFBANK|10.40.24.130|||110000438458|40
04.10.2018 09:00:00||AKTİFBANK|10.40.24.130|||110000438458|61
04.10.2018 09:00:00||AKTİFBANK|10.40.24.130|||110000438458|81
04.10.2018 09:00:00||AKTİFBANK|10.40.24.130|||110000438458|91
04.10.2018 09:00:00||AKTİFBANK|10.40.24.130|||110000438458|40
04.10.2018 09:00:00||AKTİFBANK|10.40.24.130|||110000438458|132
04.10.2018 09:00:00||AKTİFBANK|10.40.24.130|||110000438458|112
04.10.2018 09:00:00||AKTİFBANK|10.40.24.131|||110000438458|10
04.10.2018 09:00:00||AKTİFBANK|10.40.24.131|||110000438458|102
04.10.2018 09:00:00||AKTİFBANK|10.40.24.131|||110000438458|88
04.10.2018 09:00:00||AKTİFBANK|10.40.24.131|||110000438458|108
04.10.2018 09:00:00||AKTİFBANK|10.40.24.131|||110000438458|117
04.10.2018 09:00:00||AKTİFBANK|10.40.24.131|||110000438458|30
04.10.2018 09:00:00||AKTİFBANK|10.40.24.131|||110000438458|156
04.10.2018 09:00:00||AKTİFBANK|10.40.24.131|||110000438458|59
04.10.2018 09:00:00||AKTİFBANK|10.40.24.131|||110000438458|108
04.10.2018 09:00:00||AKTİFBANK|10.40.24.132|||110000438458|40
04.10.2018 09:00:00||AKTİFBANK|10.40.24.132|||110000438458|78
04.10.2018 09:00:00||AKTİFBANK|10.40.24.132|||110000438458|49
04.10.2018 09:00:00||AKTİFBANK|10.40.24.132|||110000438458|175
04.10.2018 09:00:00||AKTİFBANK|10.40.24.132|||110000438458|69
04.10.2018 09:00:00||AKTİFBANK|10.40.24.133|||110000438458|137
04.10.2018 09:00:00||AKTİFBANK|10.40.24.133|||110000438458|88
04.10.2018 09:00:00||AKTİFBANK|10.40.24.133|||110000438458|117
04.10.2018 09:00:00||AKTİFBANK|10.40.24.133|||110000438458|88
04.10.2018 09:00:00||AKTİFBANK|10.40.24.134|||110000438458|61
04.10.2018 09:00:00||AKTİFBANK|10.40.24.134|||110000438458|31
04.10.2018 09:00:00||AKTİFBANK|10.40.24.135|||110000438458|66
04.10.2018 09:00:00||AKTİFBANK|10.40.24.135|||110000438458|31
04.10.2018 09:00:00||AKTİFBANK|10.40.24.137|||110000438458|3
04.10.2018 09:00:00||AKTİFBANK|10.40.24.137|||110000438458|53
04.10.2018 09:00:00||AKTİFBANK|10.40.24.138|||110000438458|108
04.10.2018 09:00:00||AKTİFBANK|10.40.24.138|||110000438458|117
04.10.2018 09:00:00||AKTİFBANK|10.40.24.138|||110000438458|137
04.10.2018 09:00:00||AKTİFBANK|10.40.24.138|||110000438458|108
04.10.2018 09:00:00||AKTİFBANK|10.40.24.138|||110000438458|30
04.10.2018 09:00:00||AKTİFBANK|10.40.24.138|||110000438458|49
04.10.2018 09:00:00||AKTİFBANK|10.40.24.139|||110000438458|40
04.10.2018 09:00:00||AKTİFBANK|10.40.24.139|||110000438458|30
04.10.2018 09:00:00||AKTİFBANK|10.40.24.139|||110000438458|49
04.10.2018 09:00:00||AKTİFBANK|10.40.24.139|||110000438458|88
04.10.2018 09:00:00||AKTİFBANK|10.40.24.139|||110000438458|59
04.10.2018 09:00:00||AKTİFBANK|10.40.24.139|||110000438458|117
04.10.2018 09:00:00||AKTİFBANK|10.40.24.140|||110000438458|20
04.10.2018 09:00:00||AKTİFBANK|10.40.24.140|||110000438458|78
04.10.2018 09:00:00||AKTİFBANK|10.40.24.140|||110000438458|40
04.10.2018 09:00:00||AKTİFBANK|10.40.24.140|||110000438458|30
04.10.2018 09:00:00||AKTİFBANK|10.40.24.140|||110000438458|30
04.10.2018 09:00:00||AKTİFBANK|10.40.24.140|||110000438458|49
04.10.2018 09:00:00||AKTİFBANK|10.40.24.140|||110000438458|40
04.10.2018 09:00:00||AKTİFBANK|10.40.24.140|||110000438458|20
04.10.2018 09:00:00||AKTİFBANK|10.40.24.140|||110000438458|30
04.10.2018 09:00:00||AKTİFBANK|10.40.24.141|||110000438458|195
04.10.2018 09:00:00||AKTİFBANK|10.40.24.141|||110000438458|49
04.10.2018 09:00:00||AKTİFBANK|10.40.24.141|||110000438458|98
04.10.2018 09:00:00||AKTİFBANK|10.40.24.141|||110000438458|98
04.10.2018 09:00:00||AKTİFBANK|10.40.24.141|||110000438458|69
04.10.2018 09:00:00||AKTİFBANK|10.40.24.141|||110000438458|78
04.10.2018 09:00:00||AKTİFBANK|10.40.24.141|||110000438458|69
04.10.2018 09:00:00||AKTİFBANK|10.40.24.142|||110000438458|69
04.10.2018 09:00:00||AKTİFBANK|10.40.24.142|||110000438458|40
04.10.2018 09:00:00||AKTİFBANK|10.40.24.143|||110000438458|69
04.10.2018 09:00:00||AKTİFBANK|10.40.24.143|||110000438458|262
04.10.2018 09:00:00||AKTİFBANK|10.40.24.143|||110000438458|311
04.10.2018 09:00:00||AKTİFBANK|10.40.24.143|||110000438458|195
04.10.2018 09:00:00||AKTİFBANK|10.40.24.144|||110000438458|78
04.10.2018 09:00:00||AKTİFBANK|10.40.24.144|||110000438458|98
04.10.2018 09:00:00||AKTİFBANK|10.40.24.144|||110000438458|88
04.10.2018 09:00:00||AKTİFBANK|10.40.24.145|||110000438458|88
04.10.2018 09:00:00||AKTİFBANK|10.40.24.145|||110000438458|20
04.10.2018 09:00:00||AKTİFBANK|10.40.24.145|||110000438458|69
04.10.2018 09:00:00||AKTİFBANK|10.40.24.145|||110000438458|88
04.10.2018 09:00:00||AKTİFBANK|10.40.24.145|||110000438458|59
04.10.2018 09:00:00||AKTİFBANK|10.40.24.145|||110000438458|69
04.10.2018 09:00:00||AKTİFBANK|10.40.24.147|||110000438458|88
04.10.2018 09:00:00||AKTİFBANK|10.40.24.148|||110000438458|69
04.10.2018 09:00:00||AKTİFBANK|10.40.24.148|||110000438458|166
04.10.2018 09:00:00||AKTİFBANK|10.40.24.148|||110000438458|78
04.10.2018 09:00:00||AKTİFBANK|10.40.24.148|||110000438458|108
04.10.2018 09:00:00||AKTİFBANK|10.40.24.148|||110000438458|98
04.10.2018 09:00:00||AKTİFBANK|10.40.24.148|||110000438458|88
04.10.2018 09:00:00||AKTİFBANK|10.40.24.148|||110000438458|98
04.10.2018 09:00:00||AKTİFBANK|10.40.24.148|||110000438458|98
04.10.2018 09:00:00||AKTİFBANK|10.40.24.148|||110000438458|69
04.10.2018 09:00:00||AKTİFBANK|10.40.24.148|||110000438458|69
04.10.2018 09:00:00||AKTİFBANK|10.40.24.148|||110000438458|20
04.10.2018 09:00:00||AKTİFBANK|10.40.24.148|||110000438458|78
04.10.2018 09:00:00||AKTİFBANK|10.40.24.149|||110000438458|78
04.10.2018 09:00:00||AKTİFBANK|10.40.24.149|||110000438458|117
04.10.2018 09:00:00||AKTİFBANK|10.40.24.149|||110000438458|98
04.10.2018 09:00:00||AKTİFBANK|10.40.24.149|||110000438458|59
04.10.2018 09:00:00||AKTİFBANK|10.40.24.149|||110000438458|49
04.10.2018 09:00:00||AKTİFBANK|10.40.24.149|||110000438458|88
04.10.2018 09:00:00||AKTİFBANK|10.40.24.149|||110000438458|146
04.10.2018 09:00:00||AKTİFBANK|10.40.24.149|||110000438458|88
04.10.2018 09:00:00||AKTİFBANK|10.40.24.149|||110000438458|156
04.10.2018 09:00:00||AKTİFBANK|10.40.24.149|||110000438458|108
04.10.2018 09:00:00||AKTİFBANK|10.40.24.149|||110000438458|88
04.10.2018 09:00:00||AKTİFBANK|10.40.24.149|||110000438458|88
04.10.2018 09:00:00||AKTİFBANK|10.40.24.149|||110000438458|78
04.10.2018 09:00:00||AKTİFBANK|10.40.24.149|||110000438458|78
04.10.2018 09:00:00||AKTİFBANK|10.40.24.150|||110000438458|534
04.10.2018 09:00:00||AKTİFBANK|10.40.24.150|||110000438458|524
04.10.2018 09:00:00||AKTİFBANK|10.40.24.150|||110000438458|543
04.10.2018 09:00:00||AKTİFBANK|10.40.24.151|||110000438458|543
04.10.2018 09:00:00||AKTİFBANK|10.40.24.151|||110000438458|534
04.10.2018 09:00:00||AKTİFBANK|10.40.24.151|||110000438458|495
04.10.2018 09:00:00||AKTİFBANK|10.40.24.152|||110000438458|20
04.10.2018 09:00:00||AKTİFBANK|10.40.24.152|||110000438458|49
04.10.2018 09:00:00||AKTİFBANK|10.40.24.152|||110000438458|108
04.10.2018 09:00:00||AKTİFBANK|10.40.24.152|||110000438458|59
04.10.2018 09:00:00||AKTİFBANK|10.40.24.152|||110000438458|108
04.10.2018 09:00:00||AKTİFBANK|10.40.24.152|||110000438458|98
04.10.2018 09:00:00||AKTİFBANK|10.40.24.152|||110000438458|291
04.10.2018 09:00:00||AKTİFBANK|10.40.24.152|||110000438458|69
04.10.2018 09:00:00||AKTİFBANK|10.40.24.152|||110000438458|98
04.10.2018 09:00:00||AKTİFBANK|10.40.24.152|||110000438458|30
04.10.2018 09:00:00||AKTİFBANK|10.40.24.152|||110000438458|69
04.10.2018 09:00:00||AKTİFBANK|10.40.24.152|||110000438458|30
04.10.2018 09:00:00||AKTİFBANK|10.40.24.153|||110000438458|10
04.10.2018 09:00:00||AKTİFBANK|10.40.24.153|||110000438458|88
04.10.2018 09:00:00||AKTİFBANK|10.40.24.153|||110000438458|69
04.10.2018 09:00:00||AKTİFBANK|10.40.24.153|||110000438458|69
04.10.2018 09:00:00||AKTİFBANK|10.40.24.154|||110000438458|69
04.10.2018 09:00:00||AKTİFBANK|10.40.24.154|||110000438458|20
04.10.2018 09:00:00||AKTİFBANK|10.40.24.154|||110000438458|10
04.10.2018 09:00:00||AKTİFBANK|10.40.24.154|||110000438458|10
04.10.2018 09:00:00||AKTİFBANK|10.40.24.154|||110000438458|10
04.10.2018 09:00:00||AKTİFBANK|10.40.24.154|||110000438458|10
04.10.2018 09:00:00||AKTİFBANK|10.40.24.155|||110000438458|108
04.10.2018 09:00:00||AKTİFBANK|10.40.24.155|||110000438458|127
04.10.2018 09:00:00||AKTİFBANK|10.40.24.155|||110000438458|78
04.10.2018 09:00:00||AKTİFBANK|10.40.24.155|||110000438458|108
04.10.2018 09:00:00||AKTİFBANK|10.40.24.155|||110000438458|98
04.10.2018 09:00:00||AKTİFBANK|10.40.24.157|||110000438458|30
04.10.2018 09:00:00||AKTİFBANK|10.40.24.157|||110000438458|78
04.10.2018 09:00:00||AKTİFBANK|10.40.24.157|||110000438458|69
04.10.2018 09:00:00||AKTİFBANK|10.40.24.157|||110000438458|40
04.10.2018 09:00:00||AKTİFBANK|10.40.24.157|||110000438458|78
04.10.2018 09:00:00||AKTİFBANK|10.40.24.157|||110000438458|59
04.10.2018 09:00:00||AKTİFBANK|10.40.24.158|||110000438458|108
04.10.2018 09:00:00||AKTİFBANK|10.40.24.158|||110000438458|108
04.10.2018 09:00:00||AKTİFBANK|10.40.24.158|||110000438458|127
04.10.2018 09:00:00||AKTİFBANK|10.40.24.158|||110000438458|78
04.10.2018 09:00:00||AKTİFBANK|10.40.24.158|||110000438458|78
04.10.2018 09:00:00||AKTİFBANK|10.40.24.158|||110000438458|108
04.10.2018 09:00:00||AKTİFBANK|10.40.24.159|||110000438458|127
04.10.2018 09:00:00||AKTİFBANK|10.40.24.159|||110000438458|62
04.10.2018 09:00:00||AKTİFBANK|10.40.24.159|||110000438458|189
04.10.2018 09:00:00||AKTİFBANK|10.40.24.160|||110000438458|10
04.10.2018 09:00:00||AKTİFBANK|10.40.24.160|||110000438458|10
04.10.2018 09:00:00||AKTİFBANK|10.40.24.160|||110000438458|94
04.10.2018 09:00:00||AKTİFBANK|10.40.24.160|||110000438458|105
04.10.2018 09:00:00||AKTİFBANK|10.40.24.161|||110000438458|189
04.10.2018 09:00:00||AKTİFBANK|10.40.24.161|||110000438458|84
04.10.2018 09:00:00||AKTİFBANK|10.40.24.161|||110000438458|41
04.10.2018 09:00:00||AKTİFBANK|10.40.24.161|||110000438458|30
04.10.2018 09:00:00||AKTİFBANK|10.40.24.161|||110000438458|30
04.10.2018 09:00:00||AKTİFBANK|10.40.24.161|||110000438458|20
04.10.2018 09:00:00||AKTİFBANK|10.40.24.161|||110000438458|94
04.10.2018 09:00:00||AKTİFBANK|10.40.24.162|||110000438458|62
04.10.2018 09:00:00||AKTİFBANK|10.40.24.162|||110000438458|10
04.10.2018 09:00:00||AKTİFBANK|10.40.24.162|||110000438458|84
04.10.2018 09:00:00||AKTİFBANK|10.40.24.162|||110000438458|52
04.10.2018 09:00:00||AKTİFBANK|10.40.24.162|||110000438458|41
04.10.2018 09:00:00||AKTİFBANK|10.40.24.162|||110000438458|41
04.10.2018 09:00:00||AKTİFBANK|10.40.24.162|||110000438458|73
04.10.2018 09:00:00||AKTİFBANK|10.40.24.162|||110000438458|30
04.10.2018 09:00:00||AKTİFBANK|10.40.24.162|||110000438458|10
04.10.2018 09:00:00||AKTİFBANK|10.40.24.162|||110000438458|52
04.10.2018 09:00:00||AKTİFBANK|10.40.24.162|||110000438458|41
04.10.2018 09:00:00||AKTİFBANK|10.40.24.163|||110000438458|30
04.10.2018 09:00:00||AKTİFBANK|10.40.24.163|||110000438458|73
04.10.2018 09:00:00||AKTİFBANK|10.40.24.164|||110000438458|62
04.10.2018 09:00:00||AKTİFBANK|10.40.24.164|||110000438458|347
04.10.2018 09:00:00||AKTİFBANK|10.40.24.164|||110000438458|73
04.10.2018 09:00:00||AKTİFBANK|10.40.24.164|||110000438458|231
04.10.2018 09:00:00||AKTİFBANK|10.40.24.164|||110000438458|221
04.10.2018 09:00:00||AKTİFBANK|10.40.24.165|||110000438458|84
04.10.2018 09:00:00||AKTİFBANK|10.40.24.165|||110000438458|84
04.10.2018 09:00:00||AKTİFBANK|10.40.24.165|||110000438458|126
04.10.2018 09:00:00||AKTİFBANK|10.40.24.166|||110000438458|84
04.10.2018 09:00:00||AKTİFBANK|10.40.24.166|||110000438458|94
04.10.2018 09:00:00||AKTİFBANK|10.40.24.166|||110000438458|10
04.10.2018 09:00:00||AKTİFBANK|10.40.24.166|||110000438458|10
04.10.2018 09:00:00||AKTİFBANK|10.40.24.166|||110000438458|10
04.10.2018 09:00:00||AKTİFBANK|10.40.24.168|||110000438458|94
04.10.2018 09:00:00||AKTİFBANK|10.40.24.168|||110000438458|41
04.10.2018 09:00:00||AKTİFBANK|10.40.24.168|||110000438458|84
04.10.2018 09:00:00||AKTİFBANK|10.40.24.168|||110000438458|73
04.10.2018 09:00:00||AKTİFBANK|10.40.24.168|||110000438458|73
04.10.2018 09:00:00||AKTİFBANK|10.40.24.168|||110000438458|30
04.10.2018 09:00:00||AKTİFBANK|10.40.24.169|||110000438458|62
04.10.2018 09:00:00||AKTİFBANK|10.40.24.169|||110000438458|94
04.10.2018 09:00:00||AKTİFBANK|10.40.24.169|||110000438458|73
04.10.2018 09:00:00||AKTİFBANK|10.40.24.169|||110000438458|84
04.10.2018 09:00:00||AKTİFBANK|10.40.24.170|||110000438458|62
04.10.2018 09:00:00||AKTİFBANK|10.40.24.170|||110000438458|62
04.10.2018 09:00:00||AKTİFBANK|10.40.24.170|||110000438458|347
04.10.2018 09:00:00||AKTİFBANK|10.40.24.170|||110000438458|84
04.10.2018 09:00:00||AKTİFBANK|10.40.24.170|||110000438458|105
04.10.2018 09:00:00||AKTİFBANK|10.40.24.170|||110000438458|62
04.10.2018 09:00:00||AKTİFBANK|10.40.24.171|||110000438458|2
04.10.2018 09:00:00||AKTİFBANK|10.40.24.171|||110000438458|11
04.10.2018 09:00:00||AKTİFBANK|10.40.24.172|||110000438458|62
04.10.2018 09:00:00||AKTİFBANK|10.40.24.172|||110000438458|36
04.10.2018 09:00:00||AKTİFBANK|10.40.24.173|||110000438458|50
04.10.2018 09:00:00||AKTİFBANK|10.40.24.173|||110000438458|48
04.10.2018 09:00:00||AKTİFBANK|10.40.24.174|||110000438458|59
04.10.2018 09:00:00||AKTİFBANK|10.40.24.174|||110000438458|2
04.10.2018 09:00:00||AKTİFBANK|10.40.24.178|||110000438458|580
04.10.2018 09:00:00||AKTİFBANK|10.40.24.178|||110000438458|559
04.10.2018 09:00:00||AKTİFBANK|10.40.24.178|||110000438458|548
04.10.2018 09:00:00||AKTİFBANK|10.40.24.179|||110000438458|379
04.10.2018 09:00:00||AKTİFBANK|10.40.24.179|||110000438458|390
04.10.2018 09:00:00||AKTİFBANK|10.40.24.179|||110000438458|379
04.10.2018 09:00:00||AKTİFBANK|10.40.24.186|||110000438458|94
04.10.2018 09:00:00||AKTİFBANK|10.40.24.186|||110000438458|20
04.10.2018 09:00:00||AKTİFBANK|10.40.24.186|||110000438458|62
04.10.2018 09:00:00||AKTİFBANK|10.40.24.186|||110000438458|41
04.10.2018 09:00:00||AKTİFBANK|10.40.25.128|||110000438458|73
04.10.2018 09:00:00||AKTİFBANK|10.40.25.128|||110000438458|94
04.10.2018 09:00:00||AKTİFBANK|10.40.25.128|||110000438458|41
04.10.2018 09:00:00||AKTİFBANK|10.40.25.128|||110000438458|73
04.10.2018 09:00:00||AKTİFBANK|10.40.25.129|||110000438458|84
04.10.2018 09:00:00||AKTİFBANK|10.40.25.129|||110000438458|84
04.10.2018 09:00:00||AKTİFBANK|10.40.25.129|||110000438458|137
04.10.2018 09:00:00||AKTİFBANK|10.40.25.129|||110000438458|105
04.10.2018 09:00:00||AKTİFBANK|10.40.25.129|||110000438458|41
04.10.2018 09:00:00||AKTİFBANK|10.40.25.129|||110000438458|94
04.10.2018 09:00:00||AKTİFBANK|10.40.25.129|||110000438458|73
04.10.2018 09:00:00||AKTİFBANK|10.40.25.129|||110000438458|84
04.10.2018 09:00:00||AKTİFBANK|10.40.25.129|||110000438458|141
04.10.2018 09:00:00||AKTİFBANK|10.40.25.129|||110000438458|100
04.10.2018 09:00:00||AKTİFBANK|10.40.25.130|||110000438458|70
04.10.2018 09:00:00||AKTİFBANK|10.40.25.130|||110000438458|50
04.10.2018 09:00:00||AKTİFBANK|10.40.25.130|||110000438458|70
04.10.2018 09:00:00||AKTİFBANK|10.40.25.130|||110000438458|30
04.10.2018 09:00:00||AKTİFBANK|10.40.25.130|||110000438458|60
04.10.2018 09:00:00||AKTİFBANK|10.40.25.130|||110000438458|100
04.10.2018 09:00:00||AKTİFBANK|10.40.25.130|||110000438458|80
04.10.2018 09:00:00||AKTİFBANK|10.40.25.130|||110000438458|60
04.10.2018 09:00:00||AKTİFBANK|10.40.25.130|||110000438458|120
04.10.2018 09:00:00||AKTİFBANK|10.40.25.130|||110000438458|100
04.10.2018 09:00:00||AKTİFBANK|10.40.25.131|||110000438458|90
04.10.2018 09:00:00||AKTİFBANK|10.40.25.131|||110000438458|100
04.10.2018 09:00:00||AKTİFBANK|10.40.25.131|||110000438458|110
04.10.2018 09:00:00||AKTİFBANK|10.40.25.131|||110000438458|80
04.10.2018 09:00:00||AKTİFBANK|10.40.25.131|||110000438458|80
04.10.2018 09:00:00||AKTİFBANK|10.40.25.131|||110000438458|20
04.10.2018 09:00:00||AKTİFBANK|10.40.25.131|||110000438458|120
04.10.2018 09:00:00||AKTİFBANK|10.40.25.131|||110000438458|50
04.10.2018 09:00:00||AKTİFBANK|10.40.25.132|||110000438458|60
04.10.2018 09:00:00||AKTİFBANK|10.40.25.132|||110000438458|70
04.10.2018 09:00:00||AKTİFBANK|10.40.25.132|||110000438458|80
04.10.2018 09:00:00||AKTİFBANK|10.40.25.132|||110000438458|171
04.10.2018 09:00:00||AKTİFBANK|10.40.25.132|||110000438458|60
04.10.2018 09:00:00||AKTİFBANK|10.40.25.133|||110000438458|151
04.10.2018 09:00:00||AKTİFBANK|10.40.25.133|||110000438458|282
04.10.2018 09:00:00||AKTİFBANK|10.40.25.133|||110000438458|110
04.10.2018 09:00:00||AKTİFBANK|10.40.25.133|||110000438458|60
04.10.2018 09:00:00||AKTİFBANK|10.40.25.133|||110000438458|90
04.10.2018 09:00:00||AKTİFBANK|10.40.25.134|||110000438458|63
04.10.2018 09:00:00||AKTİFBANK|10.40.25.134|||110000438458|31
04.10.2018 09:00:00||AKTİFBANK|10.40.25.135|||110000438458|30
04.10.2018 09:00:00||AKTİFBANK|10.40.25.135|||110000438458|63
04.10.2018 09:00:00||AKTİFBANK|10.40.25.137|||110000438458|58
04.10.2018 09:00:00||AKTİFBANK|10.40.25.138|||110000438458|90
04.10.2018 09:00:00||AKTİFBANK|10.40.25.138|||110000438458|70
04.10.2018 09:00:00||AKTİFBANK|10.40.25.138|||110000438458|80
04.10.2018 09:00:00||AKTİFBANK|10.40.25.138|||110000438458|131
04.10.2018 09:00:00||AKTİFBANK|10.40.25.138|||110000438458|40
04.10.2018 09:00:00||AKTİFBANK|10.40.25.138|||110000438458|10
04.10.2018 09:00:00||AKTİFBANK|10.40.25.139|||110000438458|40
04.10.2018 09:00:00||AKTİFBANK|10.40.25.139|||110000438458|10
04.10.2018 09:00:00||AKTİFBANK|10.40.25.139|||110000438458|10
04.10.2018 09:00:00||AKTİFBANK|10.40.25.139|||110000438458|20
04.10.2018 09:00:00||AKTİFBANK|10.40.25.139|||110000438458|70
04.10.2018 09:00:00||AKTİFBANK|10.40.25.139|||110000438458|80
04.10.2018 09:00:00||AKTİFBANK|10.40.25.139|||110000438458|100
04.10.2018 09:00:00||AKTİFBANK|10.40.25.140|||110000438458|80
04.10.2018 09:00:00||AKTİFBANK|10.40.25.140|||110000438458|70
04.10.2018 09:00:00||AKTİFBANK|10.40.25.140|||110000438458|30
04.10.2018 09:00:00||AKTİFBANK|10.40.25.140|||110000438458|30
04.10.2018 09:00:00||AKTİFBANK|10.40.25.140|||110000438458|30
04.10.2018 09:00:00||AKTİFBANK|10.40.25.141|||110000438458|40
04.10.2018 09:00:00||AKTİFBANK|10.40.25.141|||110000438458|100
04.10.2018 09:00:00||AKTİFBANK|10.40.25.141|||110000438458|100
04.10.2018 09:00:00||AKTİFBANK|10.40.25.141|||110000438458|100
04.10.2018 09:00:00||AKTİFBANK|10.40.25.141|||110000438458|90
04.10.2018 09:00:00||AKTİFBANK|10.40.25.141|||110000438458|70
04.10.2018 09:00:00||AKTİFBANK|10.40.25.142|||110000438458|30
04.10.2018 09:00:00||AKTİFBANK|10.40.25.143|||110000438458|60
04.10.2018 09:00:00||AKTİFBANK|10.40.25.143|||110000438458|242
04.10.2018 09:00:00||AKTİFBANK|10.40.25.143|||110000438458|262
04.10.2018 09:00:00||AKTİFBANK|10.40.25.143|||110000438458|312
04.10.2018 09:00:00||AKTİFBANK|10.40.25.144|||110000438458|70
04.10.2018 09:00:00||AKTİFBANK|10.40.25.144|||110000438458|50
04.10.2018 09:00:00||AKTİFBANK|10.40.25.144|||110000438458|60
04.10.2018 09:00:00||AKTİFBANK|10.40.25.145|||110000438458|90
04.10.2018 09:00:00||AKTİFBANK|10.40.25.145|||110000438458|60
04.10.2018 09:00:00||AKTİFBANK|10.40.25.145|||110000438458|60
04.10.2018 09:00:00||AKTİFBANK|10.40.25.145|||110000438458|30
04.10.2018 09:00:00||AKTİFBANK|10.40.25.145|||110000438458|50
04.10.2018 09:00:00||AKTİFBANK|10.40.25.147|||110000438458|90
04.10.2018 09:00:00||AKTİFBANK|10.40.25.148|||110000438458|131
04.10.2018 09:00:00||AKTİFBANK|10.40.25.148|||110000438458|50
04.10.2018 09:00:00||AKTİFBANK|10.40.25.148|||110000438458|100
04.10.2018 09:00:00||AKTİFBANK|10.40.25.148|||110000438458|131
04.10.2018 09:00:00||AKTİFBANK|10.40.25.148|||110000438458|90
04.10.2018 09:00:00||AKTİFBANK|10.40.25.148|||110000438458|80
04.10.2018 09:00:00||AKTİFBANK|10.40.25.148|||110000438458|70
04.10.2018 09:00:00||AKTİFBANK|10.40.25.148|||110000438458|50
04.10.2018 09:00:00||AKTİFBANK|10.40.25.148|||110000438458|80
04.10.2018 09:00:00||AKTİFBANK|10.40.25.148|||110000438458|40
04.10.2018 09:00:00||AKTİFBANK|10.40.25.148|||110000438458|99
04.10.2018 09:00:00||AKTİFBANK|10.40.25.148|||110000438458|60
04.10.2018 09:00:00||AKTİFBANK|10.40.25.149|||110000438458|60
04.10.2018 09:00:00||AKTİFBANK|10.40.25.149|||110000438458|109
04.10.2018 09:00:00||AKTİFBANK|10.40.25.149|||110000438458|89
04.10.2018 09:00:00||AKTİFBANK|10.40.25.149|||110000438458|70
04.10.2018 09:00:00||AKTİFBANK|10.40.25.149|||110000438458|89
04.10.2018 09:00:00||AKTİFBANK|10.40.25.149|||110000438458|40
04.10.2018 09:00:00||AKTİFBANK|10.40.25.149|||110000438458|79
04.10.2018 09:00:00||AKTİFBANK|10.40.25.149|||110000438458|70
04.10.2018 09:00:00||AKTİFBANK|10.40.25.149|||110000438458|129
04.10.2018 09:00:00||AKTİFBANK|10.40.25.149|||110000438458|109
04.10.2018 09:00:00||AKTİFBANK|10.40.25.149|||110000438458|89
04.10.2018 09:00:00||AKTİFBANK|10.40.25.149|||110000438458|89
04.10.2018 09:00:00||AKTİFBANK|10.40.25.149|||110000438458|99
04.10.2018 09:00:00||AKTİFBANK|10.40.25.149|||110000438458|70
04.10.2018 09:00:00||AKTİFBANK|10.40.25.150|||110000438458|573
04.10.2018 09:00:00||AKTİFBANK|10.40.25.150|||110000438458|523
04.10.2018 09:00:00||AKTİFBANK|10.40.25.150|||110000438458|563
04.10.2018 09:00:00||AKTİFBANK|10.40.25.151|||110000438458|543
04.10.2018 09:00:00||AKTİFBANK|10.40.25.151|||110000438458|503
04.10.2018 09:00:00||AKTİFBANK|10.40.25.151|||110000438458|523
04.10.2018 09:00:00||AKTİFBANK|10.40.25.152|||110000438458|119
04.10.2018 09:00:00||AKTİFBANK|10.40.25.152|||110000438458|40
04.10.2018 09:00:00||AKTİFBANK|10.40.25.152|||110000438458|139
04.10.2018 09:00:00||AKTİFBANK|10.40.25.152|||110000438458|70
04.10.2018 09:00:00||AKTİFBANK|10.40.25.152|||110000438458|89
04.10.2018 09:00:00||AKTİFBANK|10.40.25.152|||110000438458|50
04.10.2018 09:00:00||AKTİFBANK|10.40.25.152|||110000438458|89
04.10.2018 09:00:00||AKTİFBANK|10.40.25.152|||110000438458|30
04.10.2018 09:00:00||AKTİFBANK|10.40.25.152|||110000438458|79
04.10.2018 09:00:00||AKTİFBANK|10.40.25.152|||110000438458|30
04.10.2018 09:00:00||AKTİFBANK|10.40.25.153|||110000438458|10
04.10.2018 09:00:00||AKTİFBANK|10.40.25.153|||110000438458|79
04.10.2018 09:00:00||AKTİFBANK|10.40.25.153|||110000438458|60
04.10.2018 09:00:00||AKTİFBANK|10.40.25.153|||110000438458|70
04.10.2018 09:00:00||AKTİFBANK|10.40.25.154|||110000438458|10
04.10.2018 09:00:00||AKTİFBANK|10.40.25.154|||110000438458|10
04.10.2018 09:00:00||AKTİFBANK|10.40.25.154|||110000438458|10
04.10.2018 09:00:00||AKTİFBANK|10.40.25.155|||110000438458|70
04.10.2018 09:00:00||AKTİFBANK|10.40.25.155|||110000438458|89
04.10.2018 09:00:00||AKTİFBANK|10.40.25.155|||110000438458|109
04.10.2018 09:00:00||AKTİFBANK|10.40.25.155|||110000438458|119
04.10.2018 09:00:00||AKTİFBANK|10.40.25.155|||110000438458|109
04.10.2018 09:00:00||AKTİFBANK|10.40.25.157|||110000438458|70
04.10.2018 09:00:00||AKTİFBANK|10.40.25.157|||110000438458|70
04.10.2018 09:00:00||AKTİFBANK|10.40.25.157|||110000438458|70
04.10.2018 09:00:00||AKTİFBANK|10.40.25.157|||110000438458|79
04.10.2018 09:00:00||AKTİFBANK|10.40.25.157|||110000438458|40
04.10.2018 09:00:00||AKTİFBANK|10.40.25.158|||110000438458|119
04.10.2018 09:00:00||AKTİFBANK|10.40.25.158|||110000438458|50
04.10.2018 09:00:00||AKTİFBANK|10.40.25.159|||110000438458|60
04.10.2018 09:00:00||AKTİFBANK|10.40.25.159|||110000438458|10
04.10.2018 09:00:00||AKTİFBANK|10.40.25.159|||110000438458|89
04.10.2018 09:00:00||AKTİFBANK|10.40.25.160|||110000438458|89
04.10.2018 09:00:00||AKTİFBANK|10.40.25.160|||110000438458|109
04.10.2018 09:00:00||AKTİFBANK|10.40.25.161|||110000438458|79
04.10.2018 09:00:00||AKTİFBANK|10.40.25.161|||110000438458|70
04.10.2018 09:00:00||AKTİFBANK|10.40.25.161|||110000438458|40
04.10.2018 09:00:00||AKTİFBANK|10.40.25.161|||110000438458|30
04.10.2018 09:00:00||AKTİFBANK|10.40.25.161|||110000438458|20
04.10.2018 09:00:00||AKTİFBANK|10.40.25.161|||110000438458|50
04.10.2018 09:00:00||AKTİFBANK|10.40.25.162|||110000438458|30
04.10.2018 09:00:00||AKTİFBANK|10.40.25.162|||110000438458|30
04.10.2018 09:00:00||AKTİFBANK|10.40.25.162|||110000438458|60
04.10.2018 09:00:00||AKTİFBANK|10.40.25.162|||110000438458|50
04.10.2018 09:00:00||AKTİFBANK|10.40.25.162|||110000438458|30
04.10.2018 09:00:00||AKTİFBANK|10.40.25.162|||110000438458|40
04.10.2018 09:00:00||AKTİFBANK|10.40.25.163|||110000438458|40
04.10.2018 09:00:00||AKTİFBANK|10.40.25.164|||110000438458|60
04.10.2018 09:00:00||AKTİFBANK|10.40.25.164|||110000438458|277
04.10.2018 09:00:00||AKTİFBANK|10.40.25.164|||110000438458|50
04.10.2018 09:00:00||AKTİFBANK|10.40.25.164|||110000438458|257
04.10.2018 09:00:00||AKTİFBANK|10.40.25.164|||110000438458|267
04.10.2018 09:00:00||AKTİFBANK|10.40.25.165|||110000438458|139
04.10.2018 09:00:00||AKTİFBANK|10.40.25.165|||110000438458|70
04.10.2018 09:00:00||AKTİFBANK|10.40.25.165|||110000438458|70
04.10.2018 09:00:00||AKTİFBANK|10.40.25.165|||110000438458|99
04.10.2018 09:00:00||AKTİFBANK|10.40.25.166|||110000438458|40
04.10.2018 09:00:00||AKTİFBANK|10.40.25.166|||110000438458|89
04.10.2018 09:00:00||AKTİFBANK|10.40.25.168|||110000438458|89
04.10.2018 09:00:00||AKTİFBANK|10.40.25.168|||110000438458|70
04.10.2018 09:00:00||AKTİFBANK|10.40.25.168|||110000438458|50
04.10.2018 09:00:00||AKTİFBANK|10.40.25.168|||110000438458|40
04.10.2018 09:00:00||AKTİFBANK|10.40.25.168|||110000438458|60
04.10.2018 09:00:00||AKTİFBANK|10.40.25.169|||110000438458|89
04.10.2018 09:00:00||AKTİFBANK|10.40.25.169|||110000438458|89
04.10.2018 09:00:00||AKTİFBANK|10.40.25.169|||110000438458|70
04.10.2018 09:00:00||AKTİFBANK|10.40.25.169|||110000438458|99
04.10.2018 09:00:00||AKTİFBANK|10.40.25.170|||110000438458|30
04.10.2018 09:00:00||AKTİFBANK|10.40.25.170|||110000438458|30
04.10.2018 09:00:00||AKTİFBANK|10.40.25.170|||110000438458|227
04.10.2018 09:00:00||AKTİFBANK|10.40.25.170|||110000438458|99
04.10.2018 09:00:00||AKTİFBANK|10.40.25.170|||110000438458|79
04.10.2018 09:00:00||AKTİFBANK|10.40.25.170|||110000438458|109
04.10.2018 09:00:00||AKTİFBANK|10.40.25.171|||110000438458|1
04.10.2018 09:00:00||AKTİFBANK|10.40.25.171|||110000438458|11
04.10.2018 09:00:00||AKTİFBANK|10.40.25.172|||110000438458|27
04.10.2018 09:00:00||AKTİFBANK|10.40.25.172|||110000438458|62
04.10.2018 09:00:00||AKTİFBANK|10.40.25.173|||110000438458|33
04.10.2018 09:00:00||AKTİFBANK|10.40.25.173|||110000438458|62
04.10.2018 09:00:00||AKTİFBANK|10.40.25.174|||110000438458|53
04.10.2018 09:00:00||AKTİFBANK|10.40.25.178|||110000438458|553
04.10.2018 09:00:00||AKTİFBANK|10.40.25.178|||110000438458|553
04.10.2018 09:00:00||AKTİFBANK|10.40.25.178|||110000438458|543
04.10.2018 09:00:00||AKTİFBANK|10.40.25.179|||110000438458|385
04.10.2018 09:00:00||AKTİFBANK|10.40.25.179|||110000438458|326
04.10.2018 09:00:00||AKTİFBANK|10.40.25.179|||110000438458|306
04.10.2018 09:00:00||AKTİFBANK|10.40.25.186|||110000438458|89
04.10.2018 09:00:00||AKTİFBANK|10.40.25.186|||110000438458|20
04.10.2018 09:00:00||AKTİFBANK|10.40.25.186|||110000438458|69
04.10.2018 09:00:00||BOYNER|10.40.26.100|||101367941673|42
04.10.2018 09:00:00||BOYNER|10.40.26.100|||101367941673|17
04.10.2018 09:00:00||BOYNER|10.40.26.101|||101367941673|26
04.10.2018 09:00:00||BOYNER|10.40.26.101|||101367941673|139
04.10.2018 09:00:00||BOYNER|10.40.26.94|||101367941673|89
04.10.2018 09:00:00||BOYNER|10.40.26.94|||101367941673|79
04.10.2018 09:00:00||BOYNER|10.40.26.94|||101367941673|79
04.10.2018 09:00:00||BOYNER|10.40.26.95|||101367941673|89
04.10.2018 09:00:00||BOYNER|10.40.26.95|||101367941673|197
04.10.2018 09:00:00||BOYNER|10.40.26.95|||101367941673|138
04.10.2018 09:00:00||BOYNER|10.40.26.96|||101367941673|30
04.10.2018 09:00:00||BOYNER|10.40.26.96|||101367941673|40
04.10.2018 09:00:00||BOYNER|10.40.26.96|||101367941673|30
04.10.2018 09:00:00||BOYNER|10.40.26.96|||101367941673|40
04.10.2018 09:00:00||BOYNER|10.40.26.96|||101367941673|40
04.10.2018 09:00:00||BOYNER|10.40.26.96|||101367941673|50
04.10.2018 09:00:00||BOYNER|10.40.26.96|||101367941673|177
04.10.2018 09:00:00||BOYNER|10.40.26.96|||101367941673|207
04.10.2018 09:00:00||BOYNER|10.40.26.96|||101367941673|158
04.10.2018 09:00:00||BOYNER|10.40.26.96|||101367941673|177
04.10.2018 09:00:00||BOYNER|10.40.26.97|||101367941673|30
04.10.2018 09:00:00||BOYNER|10.40.26.97|||101367941673|649
04.10.2018 09:00:00||BOYNER|10.40.26.97|||101367941673|639
04.10.2018 09:00:00||BOYNER|10.40.26.97|||101367941673|649
04.10.2018 09:00:00||BOYNER|10.40.26.97|||101367941673|30
04.10.2018 09:00:00||BOYNER|10.40.26.97|||101367941673|40
04.10.2018 09:00:00||BOYNER|10.40.26.97|||101367941673|50
04.10.2018 09:00:00||BOYNER|10.40.26.97|||101367941673|60
04.10.2018 09:00:00||BOYNER|10.40.26.97|||101367941673|30
04.10.2018 09:00:00||BOYNER|10.40.26.97|||101367941673|148
04.10.2018 09:00:00||BOYNER|10.40.26.97|||101367941673|177
04.10.2018 09:00:00||BOYNER|10.40.26.97|||101367941673|168
04.10.2018 09:00:00||BOYNER|10.40.26.97|||101367941673|168
04.10.2018 09:00:00||BOYNER|10.40.26.99|||101367941673|20
04.10.2018 09:00:00||BOYNER|10.40.26.99|||101367941673|109
04.10.2018 09:00:00||BOYNER|10.40.26.99|||101367941673|109
04.10.2018 09:00:00||BOYNER|10.40.26.99|||101367941673|60
04.10.2018 09:00:00||BOYNER|10.40.27.100|||101367941673|16
04.10.2018 09:00:00||BOYNER|10.40.27.100|||101367941673|36
04.10.2018 09:00:00||BOYNER|10.40.27.101|||101367941673|134
04.10.2018 09:00:00||BOYNER|10.40.27.101|||101367941673|28
04.10.2018 09:00:00||BOYNER|10.40.27.94|||101367941673|203
04.10.2018 09:00:00||BOYNER|10.40.27.94|||101367941673|88
04.10.2018 09:00:00||BOYNER|10.40.27.94|||101367941673|88
04.10.2018 09:00:00||BOYNER|10.40.27.94|||101367941673|97
04.10.2018 09:00:00||BOYNER|10.40.27.95|||101367941673|126
04.10.2018 09:00:00||BOYNER|10.40.27.95|||101367941673|126
04.10.2018 09:00:00||BOYNER|10.40.27.95|||101367941673|232
04.10.2018 09:00:00||BOYNER|10.40.27.96|||101367941673|59
04.10.2018 09:00:00||BOYNER|10.40.27.96|||101367941673|49
04.10.2018 09:00:00||BOYNER|10.40.27.96|||101367941673|49
04.10.2018 09:00:00||BOYNER|10.40.27.96|||101367941673|39
04.10.2018 09:00:00||BOYNER|10.40.27.96|||101367941673|39
04.10.2018 09:00:00||BOYNER|10.40.27.96|||101367941673|136
04.10.2018 09:00:00||BOYNER|10.40.27.96|||101367941673|136
04.10.2018 09:00:00||BOYNER|10.40.27.96|||101367941673|165
04.10.2018 09:00:00||BOYNER|10.40.27.96|||101367941673|155
04.10.2018 09:00:00||BOYNER|10.40.27.97|||101367941673|59
04.10.2018 09:00:00||BOYNER|10.40.27.97|||101367941673|638
04.10.2018 09:00:00||BOYNER|10.40.27.97|||101367941673|648
04.10.2018 09:00:00||BOYNER|10.40.27.97|||101367941673|667
04.10.2018 09:00:00||BOYNER|10.40.27.97|||101367941673|49
04.10.2018 09:00:00||BOYNER|10.40.27.97|||101367941673|39
04.10.2018 09:00:00||BOYNER|10.40.27.97|||101367941673|49
04.10.2018 09:00:00||BOYNER|10.40.27.97|||101367941673|30
04.10.2018 09:00:00||BOYNER|10.40.27.97|||101367941673|165
04.10.2018 09:00:00||BOYNER|10.40.27.97|||101367941673|175
04.10.2018 09:00:00||BOYNER|10.40.27.97|||101367941673|194
04.10.2018 09:00:00||BOYNER|10.40.27.97|||101367941673|194
04.10.2018 09:00:00||BOYNER|10.40.27.99|||101367941673|117
04.10.2018 09:00:00||BOYNER|10.40.27.99|||101367941673|97
04.10.2018 09:00:00||BOYNER|10.40.27.99|||101367941673|68
04.10.2018 09:00:00||ÇALIK HOLDİNG|10.40.24.100|||110000438408|30
04.10.2018 09:00:00||ÇALIK HOLDİNG|10.40.24.100|||110000438408|40
04.10.2018 09:00:00||ÇALIK HOLDİNG|10.40.24.101|||110000438408|61
04.10.2018 09:00:00||ÇALIK HOLDİNG|10.40.24.101|||110000438408|112
04.10.2018 09:00:00||ÇALIK HOLDİNG|10.40.24.101|||110000438408|20
04.10.2018 09:00:00||ÇALIK HOLDİNG|10.40.24.101|||110000438408|20
04.10.2018 09:00:00||ÇALIK HOLDİNG|10.40.24.101|||110000438408|40
04.10.2018 09:00:00||ÇALIK HOLDİNG|10.40.24.101|||110000438408|91
04.10.2018 09:00:00||ÇALIK HOLDİNG|10.40.24.101|||110000438408|30
04.10.2018 09:00:00||ÇALIK HOLDİNG|10.40.24.101|||110000438408|10
04.10.2018 09:00:00||ÇALIK HOLDİNG|10.40.24.101|||110000438408|20
04.10.2018 09:00:00||ÇALIK HOLDİNG|10.40.24.101|||110000438408|51
04.10.2018 09:00:00||ÇALIK HOLDİNG|10.40.24.101|||110000438408|30
04.10.2018 09:00:00||ÇALIK HOLDİNG|10.40.24.101|||110000438408|81
04.10.2018 09:00:00||ÇALIK HOLDİNG|10.40.24.101|||110000438408|81
04.10.2018 09:00:00||ÇALIK HOLDİNG|10.40.24.101|||110000438408|102
04.10.2018 09:00:00||ÇALIK HOLDİNG|10.40.24.102|||110000438408|102
04.10.2018 09:00:00||ÇALIK HOLDİNG|10.40.24.102|||110000438408|102
04.10.2018 09:00:00||ÇALIK HOLDİNG|10.40.24.102|||110000438408|142
04.10.2018 09:00:00||ÇALIK HOLDİNG|10.40.24.103|||110000438408|102
04.10.2018 09:00:00||ÇALIK HOLDİNG|10.40.24.103|||110000438408|81
04.10.2018 09:00:00||ÇALIK HOLDİNG|10.40.24.103|||110000438408|81
04.10.2018 09:00:00||ÇALIK HOLDİNG|10.40.24.103|||110000438408|20
04.10.2018 09:00:00||ÇALIK HOLDİNG|10.40.24.103|||110000438408|20
04.10.2018 09:00:00||ÇALIK HOLDİNG|10.40.24.113|||110000438408|214
04.10.2018 09:00:00||ÇALIK HOLDİNG|10.40.24.113|||110000438408|234
04.10.2018 09:00:00||ÇALIK HOLDİNG|10.40.24.113|||110000438408|204
04.10.2018 09:00:00||ÇALIK HOLDİNG|10.40.24.113|||110000438408|153
04.10.2018 09:00:00||ÇALIK HOLDİNG|10.40.24.114|||110000438408|20
04.10.2018 09:00:00||ÇALIK HOLDİNG|10.40.24.114|||110000438408|40
04.10.2018 09:00:00||ÇALIK HOLDİNG|10.40.24.114|||110000438408|183
04.10.2018 09:00:00||ÇALIK HOLDİNG|10.40.24.114|||110000438408|377
04.10.2018 09:00:00||ÇALIK HOLDİNG|10.40.24.115|||110000438408|142
04.10.2018 09:00:00||ÇALIK HOLDİNG|10.40.24.115|||110000438408|81
04.10.2018 09:00:00||ÇALIK HOLDİNG|10.40.24.115|||110000438408|91
04.10.2018 09:00:00||ÇALIK HOLDİNG|10.40.24.115|||110000438408|71
04.10.2018 09:00:00||ÇALIK HOLDİNG|10.40.24.115|||110000438408|91
04.10.2018 09:00:00||ÇALIK HOLDİNG|10.40.24.115|||110000438408|71
04.10.2018 09:00:00||ÇALIK HOLDİNG|10.40.24.116|||110000438408|275
04.10.2018 09:00:00||ÇALIK HOLDİNG|10.40.24.116|||110000438408|112
04.10.2018 09:00:00||ÇALIK HOLDİNG|10.40.24.116|||110000438408|91
04.10.2018 09:00:00||ÇALIK HOLDİNG|10.40.24.117|||110000438408|204
04.10.2018 09:00:00||ÇALIK HOLDİNG|10.40.24.117|||110000438408|30
04.10.2018 09:00:00||ÇALIK HOLDİNG|10.40.24.117|||110000438408|30
04.10.2018 09:00:00||ÇALIK HOLDİNG|10.40.24.118|||110000438408|43
04.10.2018 09:00:00||ÇALIK HOLDİNG|10.40.24.119|||110000438408|153
04.10.2018 09:00:00||ÇALIK HOLDİNG|10.40.24.119|||110000438408|30
04.10.2018 09:00:00||ÇALIK HOLDİNG|10.40.24.119|||110000438408|51
04.10.2018 09:00:00||ÇALIK HOLDİNG|10.40.24.120|||110000438408|20
04.10.2018 09:00:00||ÇALIK HOLDİNG|10.40.24.120|||110000438408|30
04.10.2018 09:00:00||ÇALIK HOLDİNG|10.40.24.120|||110000438408|112
04.10.2018 09:00:00||ÇALIK HOLDİNG|10.40.24.120|||110000438408|10
04.10.2018 09:00:00||ÇALIK HOLDİNG|10.40.24.120|||110000438408|20
04.10.2018 09:00:00||ÇALIK HOLDİNG|10.40.24.120|||110000438408|102
04.10.2018 09:00:00||ÇALIK HOLDİNG|10.40.24.120|||110000438408|40
04.10.2018 09:00:00||ÇALIK HOLDİNG|10.40.24.120|||110000438408|81
04.10.2018 09:00:00||ÇALIK HOLDİNG|10.40.24.120|||110000438408|81
04.10.2018 09:00:00||ÇALIK HOLDİNG|10.40.24.120|||110000438408|71
04.10.2018 09:00:00||ÇALIK HOLDİNG|10.40.24.121|||110000438408|102
04.10.2018 09:00:00||ÇALIK HOLDİNG|10.40.24.121|||110000438408|102
04.10.2018 09:00:00||ÇALIK HOLDİNG|10.40.24.121|||110000438408|153
04.10.2018 09:00:00||ÇALIK HOLDİNG|10.40.24.122|||110000438408|91
04.10.2018 09:00:00||ÇALIK HOLDİNG|10.40.24.122|||110000438408|81
04.10.2018 09:00:00||ÇALIK HOLDİNG|10.40.24.122|||110000438408|91
04.10.2018 09:00:00||ÇALIK HOLDİNG|10.40.24.122|||110000438408|30
04.10.2018 09:00:00||ÇALIK HOLDİNG|10.40.24.122|||110000438408|10
04.10.2018 09:00:00||ÇALIK HOLDİNG|10.40.24.94|||110000438408|198
04.10.2018 09:00:00||ÇALIK HOLDİNG|10.40.24.94|||110000438408|170
04.10.2018 09:00:00||ÇALIK HOLDİNG|10.40.24.94|||110000438408|179
04.10.2018 09:00:00||ÇALIK HOLDİNG|10.40.24.94|||110000438408|189
04.10.2018 09:00:00||ÇALIK HOLDİNG|10.40.24.95|||110000438408|95
04.10.2018 09:00:00||ÇALIK HOLDİNG|10.40.24.95|||110000438408|48
04.10.2018 09:00:00||ÇALIK HOLDİNG|10.40.24.95|||110000438408|20
04.10.2018 09:00:00||ÇALIK HOLDİNG|10.40.24.95|||110000438408|86
04.10.2018 09:00:00||ÇALIK HOLDİNG|10.40.24.95|||110000438408|414
04.10.2018 09:00:00||ÇALIK HOLDİNG|10.40.24.95|||110000438408|376
04.10.2018 09:00:00||ÇALIK HOLDİNG|10.40.24.97|||110000438408|105
04.10.2018 09:00:00||ÇALIK HOLDİNG|10.40.24.97|||110000438408|94
04.10.2018 09:00:00||ÇALIK HOLDİNG|10.40.24.97|||110000438408|84
04.10.2018 09:00:00||ÇALIK HOLDİNG|10.40.24.97|||110000438408|94
04.10.2018 09:00:00||ÇALIK HOLDİNG|10.40.24.97|||110000438408|328
04.10.2018 09:00:00||ÇALIK HOLDİNG|10.40.24.98|||110000438408|94
04.10.2018 09:00:00||ÇALIK HOLDİNG|10.40.24.98|||110000438408|158
04.10.2018 09:00:00||ÇALIK HOLDİNG|10.40.24.98|||110000438408|211
04.10.2018 09:00:00||ÇALIK HOLDİNG|10.40.24.98|||110000438408|211
04.10.2018 09:00:00||ÇALIK HOLDİNG|10.40.24.98|||110000438408|169
04.10.2018 09:00:00||ÇALIK HOLDİNG|10.40.24.98|||110000438408|30
04.10.2018 09:00:00||ÇALIK HOLDİNG|10.40.24.98|||110000438408|169
04.10.2018 09:00:00||ÇALIK HOLDİNG|10.40.24.98|||110000438408|190
04.10.2018 09:00:00||ÇALIK HOLDİNG|10.40.24.98|||110000438408|179
04.10.2018 09:00:00||ÇALIK HOLDİNG|10.40.24.98|||110000438408|190
04.10.2018 09:00:00||ÇALIK HOLDİNG|10.40.24.98|||110000438408|20
04.10.2018 09:00:00||ÇALIK HOLDİNG|10.40.24.98|||110000438408|296
04.10.2018 09:00:00||ÇALIK HOLDİNG|10.40.25.100|||110000438408|41
04.10.2018 09:00:00||ÇALIK HOLDİNG|10.40.25.100|||110000438408|41
04.10.2018 09:00:00||ÇALIK HOLDİNG|10.40.25.101|||110000438408|52
04.10.2018 09:00:00||ÇALIK HOLDİNG|10.40.25.101|||110000438408|115
04.10.2018 09:00:00||ÇALIK HOLDİNG|10.40.25.101|||110000438408|30
04.10.2018 09:00:00||ÇALIK HOLDİNG|10.40.25.101|||110000438408|10
04.10.2018 09:00:00||ÇALIK HOLDİNG|10.40.25.101|||110000438408|84
04.10.2018 09:00:00||ÇALIK HOLDİNG|10.40.25.101|||110000438408|41
04.10.2018 09:00:00||ÇALIK HOLDİNG|10.40.25.101|||110000438408|41
04.10.2018 09:00:00||ÇALIK HOLDİNG|10.40.25.101|||110000438408|94
04.10.2018 09:00:00||ÇALIK HOLDİNG|10.40.25.101|||110000438408|94
04.10.2018 09:00:00||ÇALIK HOLDİNG|10.40.25.101|||110000438408|94
04.10.2018 09:00:00||ÇALIK HOLDİNG|10.40.25.102|||110000438408|105
04.10.2018 09:00:00||ÇALIK HOLDİNG|10.40.25.102|||110000438408|105
04.10.2018 09:00:00||ÇALIK HOLDİNG|10.40.25.102|||110000438408|158
04.10.2018 09:00:00||ÇALIK HOLDİNG|10.40.25.103|||110000438408|94
04.10.2018 09:00:00||ÇALIK HOLDİNG|10.40.25.103|||110000438408|94
04.10.2018 09:00:00||ÇALIK HOLDİNG|10.40.25.103|||110000438408|84
04.10.2018 09:00:00||ÇALIK HOLDİNG|10.40.25.113|||110000438408|232
04.10.2018 09:00:00||ÇALIK HOLDİNG|10.40.25.113|||110000438408|264
04.10.2018 09:00:00||ÇALIK HOLDİNG|10.40.25.113|||110000438408|190
04.10.2018 09:00:00||ÇALIK HOLDİNG|10.40.25.113|||110000438408|211
04.10.2018 09:00:00||ÇALIK HOLDİNG|10.40.25.114|||110000438408|190
04.10.2018 09:00:00||ÇALIK HOLDİNG|10.40.25.114|||110000438408|434
04.10.2018 09:00:00||ÇALIK HOLDİNG|10.40.25.114|||110000438408|41
04.10.2018 09:00:00||ÇALIK HOLDİNG|10.40.25.115|||110000438408|158
04.10.2018 09:00:00||ÇALIK HOLDİNG|10.40.25.115|||110000438408|73
04.10.2018 09:00:00||ÇALIK HOLDİNG|10.40.25.115|||110000438408|84
04.10.2018 09:00:00||ÇALIK HOLDİNG|10.40.25.115|||110000438408|84
04.10.2018 09:00:00||ÇALIK HOLDİNG|10.40.25.115|||110000438408|73
04.10.2018 09:00:00||ÇALIK HOLDİNG|10.40.25.115|||110000438408|73
04.10.2018 09:00:00||ÇALIK HOLDİNG|10.40.25.116|||110000438408|105
04.10.2018 09:00:00||ÇALIK HOLDİNG|10.40.25.116|||110000438408|105
04.10.2018 09:00:00||ÇALIK HOLDİNG|10.40.25.116|||110000438408|307
04.10.2018 09:00:00||ÇALIK HOLDİNG|10.40.25.117|||110000438408|254
04.10.2018 09:00:00||ÇALIK HOLDİNG|10.40.25.117|||110000438408|30
04.10.2018 09:00:00||ÇALIK HOLDİNG|10.40.25.117|||110000438408|30
04.10.2018 09:00:00||ÇALIK HOLDİNG|10.40.25.118|||110000438408|169
04.10.2018 09:00:00||ÇALIK HOLDİNG|10.40.25.119|||110000438408|30
04.10.2018 09:00:00||ÇALIK HOLDİNG|10.40.25.119|||110000438408|30
04.10.2018 09:00:00||ÇALIK HOLDİNG|10.40.25.120|||110000438408|115
04.10.2018 09:00:00||ÇALIK HOLDİNG|10.40.25.120|||110000438408|52
04.10.2018 09:00:00||ÇALIK HOLDİNG|10.40.25.120|||110000438408|62
04.10.2018 09:00:00||ÇALIK HOLDİNG|10.40.25.120|||110000438408|20
04.10.2018 09:00:00||ÇALIK HOLDİNG|10.40.25.120|||110000438408|30
04.10.2018 09:00:00||ÇALIK HOLDİNG|10.40.25.120|||110000438408|41
04.10.2018 09:00:00||ÇALIK HOLDİNG|10.40.25.120|||110000438408|94
04.10.2018 09:00:00||ÇALIK HOLDİNG|10.40.25.120|||110000438408|20
04.10.2018 09:00:00||ÇALIK HOLDİNG|10.40.25.120|||110000438408|94
04.10.2018 09:00:00||ÇALIK HOLDİNG|10.40.25.120|||110000438408|94
04.10.2018 09:00:00||ÇALIK HOLDİNG|10.40.25.121|||110000438408|94
04.10.2018 09:00:00||ÇALIK HOLDİNG|10.40.25.121|||110000438408|105
04.10.2018 09:00:00||ÇALIK HOLDİNG|10.40.25.121|||110000438408|147
04.10.2018 09:00:00||ÇALIK HOLDİNG|10.40.25.122|||110000438408|94
04.10.2018 09:00:00||ÇALIK HOLDİNG|10.40.25.122|||110000438408|84
04.10.2018 09:00:00||ÇALIK HOLDİNG|10.40.25.122|||110000438408|84
04.10.2018 09:00:00||ÇALIK HOLDİNG|10.40.25.94|||110000438408|178
04.10.2018 09:00:00||ÇALIK HOLDİNG|10.40.25.94|||110000438408|178
04.10.2018 09:00:00||ÇALIK HOLDİNG|10.40.25.94|||110000438408|168
04.10.2018 09:00:00||ÇALIK HOLDİNG|10.40.25.94|||110000438408|178
04.10.2018 09:00:00||ÇALIK HOLDİNG|10.40.25.95|||110000438408|99
04.10.2018 09:00:00||ÇALIK HOLDİNG|10.40.25.95|||110000438408|79
04.10.2018 09:00:00||ÇALIK HOLDİNG|10.40.25.95|||110000438408|374
04.10.2018 09:00:00||ÇALIK HOLDİNG|10.40.25.95|||110000438408|374
04.10.2018 09:00:00||ÇALIK HOLDİNG|10.40.25.95|||110000438408|40
04.10.2018 09:00:00||ÇALIK HOLDİNG|10.40.25.96|||110000438408|69
04.10.2018 09:00:00||ÇALIK HOLDİNG|10.40.25.96|||110000438408|89
04.10.2018 09:00:00||ÇALIK HOLDİNG|10.40.25.96|||110000438408|99
04.10.2018 09:00:00||ÇALIK HOLDİNG|10.40.25.96|||110000438408|89
04.10.2018 09:00:00||ÇALIK HOLDİNG|10.40.25.96|||110000438408|128
04.10.2018 09:00:00||ÇALIK HOLDİNG|10.40.25.96|||110000438408|99
04.10.2018 09:00:00||ÇALIK HOLDİNG|10.40.25.96|||110000438408|246
04.10.2018 09:00:00||ÇALIK HOLDİNG|10.40.25.96|||110000438408|256
04.10.2018 09:00:00||ÇALIK HOLDİNG|10.40.25.96|||110000438408|94
04.10.2018 09:00:00||ÇALIK HOLDİNG|10.40.25.96|||110000438408|94
04.10.2018 09:00:00||ÇALIK HOLDİNG|10.40.25.96|||110000438408|105
04.10.2018 09:00:00||ÇALIK HOLDİNG|10.40.25.96|||110000438408|94
04.10.2018 09:00:00||ÇALIK HOLDİNG|10.40.25.96|||110000438408|105
04.10.2018 09:00:00||ÇALIK HOLDİNG|10.40.25.96|||110000438408|94
04.10.2018 09:00:00||ÇALIK HOLDİNG|10.40.25.97|||110000438408|105
04.10.2018 09:00:00||ÇALIK HOLDİNG|10.40.25.97|||110000438408|84
04.10.2018 09:00:00||ÇALIK HOLDİNG|10.40.25.97|||110000438408|94
04.10.2018 09:00:00||ÇALIK HOLDİNG|10.40.25.97|||110000438408|84
04.10.2018 09:00:00||ÇALIK HOLDİNG|10.40.25.97|||110000438408|317
04.10.2018 09:00:00||ÇALIK HOLDİNG|10.40.25.98|||110000438408|52
04.10.2018 09:00:00||ÇALIK HOLDİNG|10.40.25.98|||110000438408|169
04.10.2018 09:00:00||ÇALIK HOLDİNG|10.40.25.98|||110000438408|169
04.10.2018 09:00:00||ÇALIK HOLDİNG|10.40.25.98|||110000438408|169
04.10.2018 09:00:00||ÇALIK HOLDİNG|10.40.25.98|||110000438408|169
04.10.2018 09:00:00||ÇALIK HOLDİNG|10.40.25.98|||110000438408|62
04.10.2018 09:00:00||ÇALIK HOLDİNG|10.40.25.98|||110000438408|221
04.10.2018 09:00:00||ÇALIK HOLDİNG|10.40.25.98|||110000438408|190
04.10.2018 09:00:00||ÇALIK HOLDİNG|10.40.25.98|||110000438408|179
04.10.2018 09:00:00||ÇALIK HOLDİNG|10.40.25.98|||110000438408|221
04.10.2018 09:00:00||ÇALIK HOLDİNG|10.40.25.98|||110000438408|73
04.10.2018 09:00:00||ÇALIK HOLDİNG|10.40.25.98|||110000438408|317
04.10.2018 09:00:00||ÇALIK HOLDİNG|10.40.25.99|||110000438408|74
04.10.2018 09:00:00||ÇALIK HOLDİNG|10.40.25.99|||110000438408|69
04.10.2018 09:00:00||FIBABANKA|10.40.24.51|||101571767266|20
04.10.2018 09:00:00||FIBABANKA|10.40.24.51|||101571767266|67
04.10.2018 09:00:00||FIBABANKA|10.40.24.51|||101571767266|95
04.10.2018 09:00:00||FIBABANKA|10.40.24.51|||101571767266|133
04.10.2018 09:00:00||FIBABANKA|10.40.24.51|||101571767266|30
04.10.2018 09:00:00||FIBABANKA|10.40.24.51|||101571767266|30
04.10.2018 09:00:00||FIBABANKA|10.40.24.52|||101571767266|10
04.10.2018 09:00:00||FIBABANKA|10.40.24.53|||101571767266|30
04.10.2018 09:00:00||FIBABANKA|10.40.24.53|||101571767266|58
04.10.2018 09:00:00||FIBABANKA|10.40.24.53|||101571767266|170
04.10.2018 09:00:00||FIBABANKA|10.40.24.53|||101571767266|198
04.10.2018 09:00:00||FIBABANKA|10.40.24.54|||101571767266|180
04.10.2018 09:00:00||FIBABANKA|10.40.24.54|||101571767266|182
04.10.2018 09:00:00||FIBABANKA|10.40.24.55|||101571767266|82
04.10.2018 09:00:00||FIBABANKA|10.40.24.55|||101571767266|23
04.10.2018 09:00:00||FIBABANKA|10.40.24.56|||101571767266|11
04.10.2018 09:00:00||FIBABANKA|10.40.24.56|||101571767266|174
04.10.2018 09:00:00||FIBABANKA|10.40.24.57|||101571767266|86
04.10.2018 09:00:00||FIBABANKA|10.40.24.57|||101571767266|76
04.10.2018 09:00:00||FIBABANKA|10.40.24.57|||101571767266|76
04.10.2018 09:00:00||FIBABANKA|10.40.24.59|||101571767266|67
04.10.2018 09:00:00||FIBABANKA|10.40.24.59|||101571767266|114
04.10.2018 09:00:00||FIBABANKA|10.40.24.59|||101571767266|67
04.10.2018 09:00:00||FIBABANKA|10.40.24.59|||101571767266|48
04.10.2018 09:00:00||FIBABANKA|10.40.24.59|||101571767266|123
04.10.2018 09:00:00||FIBABANKA|10.40.24.59|||101571767266|67
04.10.2018 09:00:00||FIBABANKA|10.40.24.59|||101571767266|58
04.10.2018 09:00:00||FIBABANKA|10.40.24.59|||101571767266|151
04.10.2018 09:00:00||FIBABANKA|10.40.24.59|||101571767266|58
04.10.2018 09:00:00||FIBABANKA|10.40.24.60|||101571767266|114
04.10.2018 09:00:00||FIBABANKA|10.40.24.60|||101571767266|48
04.10.2018 09:00:00||FIBABANKA|10.40.24.60|||101571767266|39
04.10.2018 09:00:00||FIBABANKA|10.40.24.60|||101571767266|95
04.10.2018 09:00:00||FIBABANKA|10.40.24.60|||101571767266|58
04.10.2018 09:00:00||FIBABANKA|10.40.24.72|||101571767266|133
04.10.2018 09:00:00||FIBABANKA|10.40.24.72|||101571767266|67
04.10.2018 09:00:00||FIBABANKA|10.40.24.72|||101571767266|30
04.10.2018 09:00:00||FIBABANKA|10.40.24.72|||101571767266|39
04.10.2018 09:00:00||FIBABANKA|10.40.24.74|||101571767266|30
04.10.2018 09:00:00||FIBABANKA|10.40.24.74|||101571767266|30
04.10.2018 09:00:00||FIBABANKA|10.40.24.75|||101571767266|179
04.10.2018 09:00:00||FIBABANKA|10.40.24.75|||101571767266|151
04.10.2018 09:00:00||FIBABANKA|10.40.24.75|||101571767266|151
04.10.2018 09:00:00||FIBABANKA|10.40.24.76|||101571767266|39
04.10.2018 09:00:00||FIBABANKA|10.40.24.76|||101571767266|67
04.10.2018 09:00:00||FIBABANKA|10.40.24.76|||101571767266|10
04.10.2018 09:00:00||FIBABANKA|10.40.25.51|||101571767266|20
04.10.2018 09:00:00||FIBABANKA|10.40.25.51|||101571767266|109
04.10.2018 09:00:00||FIBABANKA|10.40.25.51|||101571767266|128
04.10.2018 09:00:00||FIBABANKA|10.40.25.51|||101571767266|40
04.10.2018 09:00:00||FIBABANKA|10.40.25.51|||101571767266|40
04.10.2018 09:00:00||FIBABANKA|10.40.25.51|||101571767266|69
04.10.2018 09:00:00||FIBABANKA|10.40.25.52|||101571767266|10
04.10.2018 09:00:00||FIBABANKA|10.40.25.52|||101571767266|69
04.10.2018 09:00:00||FIBABANKA|10.40.25.53|||101571767266|40
04.10.2018 09:00:00||FIBABANKA|10.40.25.53|||101571767266|50
04.10.2018 09:00:00||FIBABANKA|10.40.25.53|||101571767266|158
04.10.2018 09:00:00||FIBABANKA|10.40.25.53|||101571767266|158
04.10.2018 09:00:00||FIBABANKA|10.40.25.54|||101571767266|92
04.10.2018 09:00:00||FIBABANKA|10.40.25.54|||101571767266|161
04.10.2018 09:00:00||FIBABANKA|10.40.25.55|||101571767266|88
04.10.2018 09:00:00||FIBABANKA|10.40.25.55|||101571767266|23
04.10.2018 09:00:00||FIBABANKA|10.40.25.56|||101571767266|11
04.10.2018 09:00:00||FIBABANKA|10.40.25.56|||101571767266|191
04.10.2018 09:00:00||FIBABANKA|10.40.25.57|||101571767266|89
04.10.2018 09:00:00||FIBABANKA|10.40.25.57|||101571767266|89
04.10.2018 09:00:00||FIBABANKA|10.40.25.57|||101571767266|89
04.10.2018 09:00:00||FIBABANKA|10.40.25.59|||101571767266|69
04.10.2018 09:00:00||FIBABANKA|10.40.25.59|||101571767266|89
04.10.2018 09:00:00||FIBABANKA|10.40.25.59|||101571767266|79
04.10.2018 09:00:00||FIBABANKA|10.40.25.59|||101571767266|40
04.10.2018 09:00:00||FIBABANKA|10.40.25.59|||101571767266|128
04.10.2018 09:00:00||FIBABANKA|10.40.25.59|||101571767266|69
04.10.2018 09:00:00||FIBABANKA|10.40.25.59|||101571767266|60
04.10.2018 09:00:00||FIBABANKA|10.40.25.59|||101571767266|158
04.10.2018 09:00:00||FIBABANKA|10.40.25.59|||101571767266|60
04.10.2018 09:00:00||FIBABANKA|10.40.25.60|||101571767266|109
04.10.2018 09:00:00||FIBABANKA|10.40.25.60|||101571767266|30
04.10.2018 09:00:00||FIBABANKA|10.40.25.60|||101571767266|109
04.10.2018 09:00:00||FIBABANKA|10.40.25.60|||101571767266|40
04.10.2018 09:00:00||FIBABANKA|10.40.25.72|||101571767266|69
04.10.2018 09:00:00||FIBABANKA|10.40.25.72|||101571767266|40
04.10.2018 09:00:00||FIBABANKA|10.40.25.72|||101571767266|30
04.10.2018 09:00:00||FIBABANKA|10.40.25.74|||101571767266|40
04.10.2018 09:00:00||FIBABANKA|10.40.25.74|||101571767266|30
04.10.2018 09:00:00||FIBABANKA|10.40.25.74|||101571767266|40
04.10.2018 09:00:00||FIBABANKA|10.40.25.74|||101571767266|40
04.10.2018 09:00:00||FIBABANKA|10.40.25.74|||101571767266|40
04.10.2018 09:00:00||FIBABANKA|10.40.25.75|||101571767266|10
04.10.2018 09:00:00||FIBABANKA|10.40.25.75|||101571767266|128
04.10.2018 09:00:00||FIBABANKA|10.40.25.75|||101571767266|158
04.10.2018 09:00:00||FIBABANKA|10.40.25.75|||101571767266|178
04.10.2018 09:00:00||FIBABANKA|10.40.25.75|||101571767266|187
04.10.2018 09:00:00||FIBABANKA|10.40.25.76|||101571767266|10
04.10.2018 09:00:00||FIBABANKA|10.40.25.76|||101571767266|60
04.10.2018 09:00:00||FIBABANKA|10.40.25.76|||101571767266|40
04.10.2018 09:00:00||FIBABANKA|10.40.25.76|||101571767266|10
04.10.2018 09:00:00||FIBABANKA|10.40.26.51|||101571767266|10
04.10.2018 09:00:00||FIBABANKA|10.40.26.51|||101571767266|20
04.10.2018 09:00:00||FIBABANKA|10.40.26.51|||101571767266|115
04.10.2018 09:00:00||FIBABANKA|10.40.26.51|||101571767266|147
04.10.2018 09:00:00||FIBABANKA|10.40.26.51|||101571767266|73
04.10.2018 09:00:00||FIBABANKA|10.40.26.51|||101571767266|30
04.10.2018 09:00:00||FIBABANKA|10.40.26.51|||101571767266|30
04.10.2018 09:00:00||FIBABANKA|10.40.26.52|||101571767266|30
04.10.2018 09:00:00||FIBABANKA|10.40.26.52|||101571767266|94
04.10.2018 09:00:00||FIBABANKA|10.40.26.52|||101571767266|30
04.10.2018 09:00:00||FIBABANKA|10.40.26.53|||101571767266|62
04.10.2018 09:00:00||FIBABANKA|10.40.26.53|||101571767266|52
04.10.2018 09:00:00||FIBABANKA|10.40.26.53|||101571767266|169
04.10.2018 09:00:00||FIBABANKA|10.40.26.53|||101571767266|190
04.10.2018 09:00:00||FIBABANKA|10.40.26.54|||101571767266|185
04.10.2018 09:00:00||FIBABANKA|10.40.26.54|||101571767266|147
04.10.2018 09:00:00||FIBABANKA|10.40.26.55|||101571767266|121
04.10.2018 09:00:00||FIBABANKA|10.40.26.57|||101571767266|94
04.10.2018 09:00:00||FIBABANKA|10.40.26.57|||101571767266|94
04.10.2018 09:00:00||FIBABANKA|10.40.26.57|||101571767266|84
04.10.2018 09:00:00||FIBABANKA|10.40.26.72|||101571767266|30
04.10.2018 09:00:00||FIBABANKA|10.40.26.72|||101571767266|148
04.10.2018 09:00:00||FIBABANKA|10.40.26.72|||101571767266|69
04.10.2018 09:00:00||FIBABANKA|10.40.26.72|||101571767266|30
04.10.2018 09:00:00||FIBABANKA|10.40.26.73|||101571767266|40
04.10.2018 09:00:00||FIBABANKA|10.40.26.73|||101571767266|69
04.10.2018 09:00:00||FIBABANKA|10.40.26.73|||101571767266|30
04.10.2018 09:00:00||FIBABANKA|10.40.26.73|||101571767266|40
04.10.2018 09:00:00||FIBABANKA|10.40.26.74|||101571767266|79
04.10.2018 09:00:00||FIBABANKA|10.40.26.74|||101571767266|177
04.10.2018 09:00:00||FIBABANKA|10.40.26.74|||101571767266|187
04.10.2018 09:00:00||FIBABANKA|10.40.26.74|||101571767266|177
04.10.2018 09:00:00||FIBABANKA|10.40.26.77|||101571767266|177
04.10.2018 09:00:00||FIBABANKA|10.40.26.79|||101571767266|10
04.10.2018 09:00:00||FIBABANKA|10.40.26.79|||101571767266|10
04.10.2018 09:00:00||FIBABANKA|10.40.27.51|||101571767266|30
04.10.2018 09:00:00||FIBABANKA|10.40.27.51|||101571767266|20
04.10.2018 09:00:00||FIBABANKA|10.40.27.51|||101571767266|98
04.10.2018 09:00:00||FIBABANKA|10.40.27.51|||101571767266|127
04.10.2018 09:00:00||FIBABANKA|10.40.27.51|||101571767266|69
04.10.2018 09:00:00||FIBABANKA|10.40.27.51|||101571767266|40
04.10.2018 09:00:00||FIBABANKA|10.40.27.51|||101571767266|40
04.10.2018 09:00:00||FIBABANKA|10.40.27.52|||101571767266|49
04.10.2018 09:00:00||FIBABANKA|10.40.27.52|||101571767266|59
04.10.2018 09:00:00||FIBABANKA|10.40.27.52|||101571767266|69
04.10.2018 09:00:00||FIBABANKA|10.40.27.53|||101571767266|69
04.10.2018 09:00:00||FIBABANKA|10.40.27.53|||101571767266|59
04.10.2018 09:00:00||FIBABANKA|10.40.27.53|||101571767266|167
04.10.2018 09:00:00||FIBABANKA|10.40.27.53|||101571767266|176
04.10.2018 09:00:00||FIBABANKA|10.40.27.54|||101571767266|174
04.10.2018 09:00:00||FIBABANKA|10.40.27.54|||101571767266|125
04.10.2018 09:00:00||FIBABANKA|10.40.27.55|||101571767266|111
04.10.2018 09:00:00||FIBABANKA|10.40.27.57|||101571767266|79
04.10.2018 09:00:00||FIBABANKA|10.40.27.57|||101571767266|79
04.10.2018 09:00:00||FIBABANKA|10.40.27.57|||101571767266|79
04.10.2018 09:00:00||FIBABANKA|10.40.27.72|||101571767266|49
04.10.2018 09:00:00||FIBABANKA|10.40.27.72|||101571767266|40
04.10.2018 09:00:00||FIBABANKA|10.40.27.72|||101571767266|137
04.10.2018 09:00:00||FIBABANKA|10.40.27.72|||101571767266|59
04.10.2018 09:00:00||FIBABANKA|10.40.27.72|||101571767266|30
04.10.2018 09:00:00||FIBABANKA|10.40.27.73|||101571767266|30
04.10.2018 09:00:00||FIBABANKA|10.40.27.73|||101571767266|102
04.10.2018 09:00:00||FIBABANKA|10.40.27.73|||101571767266|30
04.10.2018 09:00:00||FIBABANKA|10.40.27.73|||101571767266|20
04.10.2018 09:00:00||FIBABANKA|10.40.27.73|||101571767266|40
04.10.2018 09:00:00||FIBABANKA|10.40.27.73|||101571767266|40
04.10.2018 09:00:00||FIBABANKA|10.40.27.73|||101571767266|40
04.10.2018 09:00:00||FIBABANKA|10.40.27.73|||101571767266|40
04.10.2018 09:00:00||FIBABANKA|10.40.27.74|||101571767266|82
04.10.2018 09:00:00||FIBABANKA|10.40.27.74|||101571767266|154
04.10.2018 09:00:00||FIBABANKA|10.40.27.74|||101571767266|185
04.10.2018 09:00:00||FIBABANKA|10.40.27.74|||101571767266|185
04.10.2018 09:00:00||FIBABANKA|10.40.27.75|||101571767266|10
04.10.2018 09:00:00||FIBABANKA|10.40.27.75|||101571767266|10
04.10.2018 09:00:00||FIBABANKA|10.40.27.77|||101571767266|174
04.10.2018 09:00:00||FIBABANKA|10.40.27.77|||101571767266|164
04.10.2018 09:00:00||FIBABANKA|10.40.27.79|||101571767266|10
04.10.2018 09:00:00||HAVAŞ|10.40.24.45|||110000479675|73
04.10.2018 09:00:00||HAVAŞ|10.40.24.45|||110000479675|168
04.10.2018 09:00:00||HAVAŞ|10.40.24.45|||110000479675|137
04.10.2018 09:00:00||HAVAŞ|10.40.24.45|||110000479675|94
04.10.2018 09:00:00||HAVAŞ|10.40.24.46|||110000479675|20
04.10.2018 09:00:00||HAVAŞ|10.40.24.46|||110000479675|20
04.10.2018 09:00:00||HAVAŞ|10.40.24.46|||110000479675|10
04.10.2018 09:00:00||HAVAŞ|10.40.24.46|||110000479675|10
04.10.2018 09:00:00||HAVAŞ|10.40.24.46|||110000479675|10
04.10.2018 09:00:00||HAVAŞ|10.40.24.46|||110000479675|10
04.10.2018 09:00:00||HAVAŞ|10.40.24.46|||110000479675|10
04.10.2018 09:00:00||HAVAŞ|10.40.24.46|||110000479675|58
04.10.2018 09:00:00||HAVAŞ|10.40.24.46|||110000479675|58
04.10.2018 09:00:00||HAVAŞ|10.40.24.46|||110000479675|105
04.10.2018 09:00:00||HAVAŞ|10.40.24.46|||110000479675|67
04.10.2018 09:00:00||HAVAŞ|10.40.24.46|||110000479675|76
04.10.2018 09:00:00||HAVAŞ|10.40.24.47|||110000479675|30
04.10.2018 09:00:00||HAVAŞ|10.40.24.47|||110000479675|30
04.10.2018 09:00:00||HAVAŞ|10.40.24.47|||110000479675|198
04.10.2018 09:00:00||HAVAŞ|10.40.24.47|||110000479675|86
04.10.2018 09:00:00||HAVAŞ|10.40.24.47|||110000479675|48
04.10.2018 09:00:00||HAVAŞ|10.40.24.47|||110000479675|48
04.10.2018 09:00:00||HAVAŞ|10.40.24.47|||110000479675|105
04.10.2018 09:00:00||HAVAŞ|10.40.24.47|||110000479675|151
04.10.2018 09:00:00||HAVAŞ|10.40.24.47|||110000479675|95
04.10.2018 09:00:00||HAVAŞ|10.40.24.47|||110000479675|95
04.10.2018 09:00:00||HAVAŞ|10.40.24.47|||110000479675|86
04.10.2018 09:00:00||HAVAŞ|10.40.24.48|||110000479675|704
04.10.2018 09:00:00||HAVAŞ|10.40.24.48|||110000479675|676
04.10.2018 09:00:00||HAVAŞ|10.40.24.48|||110000479675|704
04.10.2018 09:00:00||HAVAŞ|10.40.25.45|||110000479675|50
04.10.2018 09:00:00||HAVAŞ|10.40.25.45|||110000479675|99
04.10.2018 09:00:00||HAVAŞ|10.40.25.45|||110000479675|128
04.10.2018 09:00:00||HAVAŞ|10.40.25.45|||110000479675|89
04.10.2018 09:00:00||HAVAŞ|10.40.25.46|||110000479675|10
04.10.2018 09:00:00||HAVAŞ|10.40.25.46|||110000479675|10
04.10.2018 09:00:00||HAVAŞ|10.40.25.46|||110000479675|20
04.10.2018 09:00:00||HAVAŞ|10.40.25.46|||110000479675|20
04.10.2018 09:00:00||HAVAŞ|10.40.25.46|||110000479675|10
04.10.2018 09:00:00||HAVAŞ|10.40.25.46|||110000479675|50
04.10.2018 09:00:00||HAVAŞ|10.40.25.46|||110000479675|60
04.10.2018 09:00:00||HAVAŞ|10.40.25.46|||110000479675|99
04.10.2018 09:00:00||HAVAŞ|10.40.25.46|||110000479675|69
04.10.2018 09:00:00||HAVAŞ|10.40.25.46|||110000479675|79
04.10.2018 09:00:00||HAVAŞ|10.40.25.46|||110000479675|69
04.10.2018 09:00:00||HAVAŞ|10.40.25.47|||110000479675|69
04.10.2018 09:00:00||HAVAŞ|10.40.25.47|||110000479675|69
04.10.2018 09:00:00||HAVAŞ|10.40.25.47|||110000479675|227
04.10.2018 09:00:00||HAVAŞ|10.40.25.47|||110000479675|60
04.10.2018 09:00:00||HAVAŞ|10.40.25.47|||110000479675|89
04.10.2018 09:00:00||HAVAŞ|10.40.25.47|||110000479675|89
04.10.2018 09:00:00||HAVAŞ|10.40.25.47|||110000479675|89
04.10.2018 09:00:00||HAVAŞ|10.40.25.47|||110000479675|10
04.10.2018 09:00:00||HAVAŞ|10.40.25.47|||110000479675|178
04.10.2018 09:00:00||HAVAŞ|10.40.25.47|||110000479675|89
04.10.2018 09:00:00||HAVAŞ|10.40.25.47|||110000479675|89
04.10.2018 09:00:00||HAVAŞ|10.40.25.47|||110000479675|89
04.10.2018 09:00:00||HAVAŞ|10.40.25.48|||110000479675|728
04.10.2018 09:00:00||HAVAŞ|10.40.25.48|||110000479675|738
04.10.2018 09:00:00||HAVAŞ|10.40.25.48|||110000479675|787
04.10.2018 09:00:00||MARS CINEMA|10.40.24.203|||110000472614|62
04.10.2018 09:00:00||MARS CINEMA|10.40.24.203|||110000472614|94
04.10.2018 09:00:00||MARS CINEMA|10.40.24.203|||110000472614|105
04.10.2018 09:00:00||MARS CINEMA|10.40.24.203|||110000472614|105
04.10.2018 09:00:00||MARS CINEMA|10.40.24.203|||110000472614|147
04.10.2018 09:00:00||MARS CINEMA|10.40.24.203|||110000472614|158
04.10.2018 09:00:00||MARS CINEMA|10.40.24.203|||110000472614|178
04.10.2018 09:00:00||MARS CINEMA|10.40.24.203|||110000472614|178
04.10.2018 09:00:00||MARS CINEMA|10.40.24.203|||110000472614|105
04.10.2018 09:00:00||MARS CINEMA|10.40.24.203|||110000472614|105
04.10.2018 09:00:00||MARS CINEMA|10.40.24.203|||110000472614|94
04.10.2018 09:00:00||MARS CINEMA|10.40.24.203|||110000472614|200
04.10.2018 09:00:00||MARS CINEMA|10.40.24.204|||110000472614|115
04.10.2018 09:00:00||MARS CINEMA|10.40.24.204|||110000472614|94
04.10.2018 09:00:00||MARS CINEMA|10.40.24.204|||110000472614|94
04.10.2018 09:00:00||MARS CINEMA|10.40.24.204|||110000472614|20
04.10.2018 09:00:00||MARS CINEMA|10.40.24.204|||110000472614|94
04.10.2018 09:00:00||MARS CINEMA|10.40.24.204|||110000472614|20
04.10.2018 09:00:00||MARS CINEMA|10.40.24.204|||110000472614|10
04.10.2018 09:00:00||MARS CINEMA|10.40.24.204|||110000472614|41
04.10.2018 09:00:00||MARS CINEMA|10.40.24.204|||110000472614|94
04.10.2018 09:00:00||MARS CINEMA|10.40.24.204|||110000472614|126
04.10.2018 09:00:00||MARS CINEMA|10.40.24.204|||110000472614|52
04.10.2018 09:00:00||MARS CINEMA|10.40.24.204|||110000472614|94
04.10.2018 09:00:00||MARS CINEMA|10.40.24.204|||110000472614|115
04.10.2018 09:00:00||MARS CINEMA|10.40.24.204|||110000472614|84
04.10.2018 09:00:00||MARS CINEMA|10.40.24.206|||110000472614|41
04.10.2018 09:00:00||MARS CINEMA|10.40.24.206|||110000472614|41
04.10.2018 09:00:00||MARS CINEMA|10.40.24.206|||110000472614|52
04.10.2018 09:00:00||MARS CINEMA|10.40.24.206|||110000472614|30
04.10.2018 09:00:00||MARS CINEMA|10.40.24.206|||110000472614|30
04.10.2018 09:00:00||MARS CINEMA|10.40.24.206|||110000472614|30
04.10.2018 09:00:00||MARS CINEMA|10.40.24.206|||110000472614|210
04.10.2018 09:00:00||MARS CINEMA|10.40.24.206|||110000472614|137
04.10.2018 09:00:00||MARS CINEMA|10.40.24.206|||110000472614|20
04.10.2018 09:00:00||MARS CINEMA|10.40.24.206|||110000472614|94
04.10.2018 09:00:00||MARS CINEMA|10.40.24.206|||110000472614|84
04.10.2018 09:00:00||MARS CINEMA|10.40.25.203|||110000472614|138
04.10.2018 09:00:00||MARS CINEMA|10.40.25.203|||110000472614|69
04.10.2018 09:00:00||MARS CINEMA|10.40.25.203|||110000472614|168
04.10.2018 09:00:00||MARS CINEMA|10.40.25.203|||110000472614|89
04.10.2018 09:00:00||MARS CINEMA|10.40.25.203|||110000472614|89
04.10.2018 09:00:00||MARS CINEMA|10.40.25.203|||110000472614|109
04.10.2018 09:00:00||MARS CINEMA|10.40.25.203|||110000472614|119
04.10.2018 09:00:00||MARS CINEMA|10.40.25.203|||110000472614|148
04.10.2018 09:00:00||MARS CINEMA|10.40.25.203|||110000472614|89
04.10.2018 09:00:00||MARS CINEMA|10.40.25.203|||110000472614|89
04.10.2018 09:00:00||MARS CINEMA|10.40.25.203|||110000472614|60
04.10.2018 09:00:00||MARS CINEMA|10.40.25.203|||110000472614|187
04.10.2018 09:00:00||MARS CINEMA|10.40.25.204|||110000472614|109
04.10.2018 09:00:00||MARS CINEMA|10.40.25.204|||110000472614|69
04.10.2018 09:00:00||MARS CINEMA|10.40.25.204|||110000472614|79
04.10.2018 09:00:00||MARS CINEMA|10.40.25.204|||110000472614|99
04.10.2018 09:00:00||MARS CINEMA|10.40.25.204|||110000472614|20
04.10.2018 09:00:00||MARS CINEMA|10.40.25.204|||110000472614|20
04.10.2018 09:00:00||MARS CINEMA|10.40.25.204|||110000472614|30
04.10.2018 09:00:00||MARS CINEMA|10.40.25.204|||110000472614|40
04.10.2018 09:00:00||MARS CINEMA|10.40.25.204|||110000472614|89
04.10.2018 09:00:00||MARS CINEMA|10.40.25.204|||110000472614|109
04.10.2018 09:00:00||MARS CINEMA|10.40.25.204|||110000472614|99
04.10.2018 09:00:00||MARS CINEMA|10.40.25.204|||110000472614|119
04.10.2018 09:00:00||MARS CINEMA|10.40.25.204|||110000472614|79
04.10.2018 09:00:00||MARS CINEMA|10.40.25.204|||110000472614|79
04.10.2018 09:00:00||MARS CINEMA|10.40.25.206|||110000472614|40
04.10.2018 09:00:00||MARS CINEMA|10.40.25.206|||110000472614|40
04.10.2018 09:00:00||MARS CINEMA|10.40.25.206|||110000472614|40
04.10.2018 09:00:00||MARS CINEMA|10.40.25.206|||110000472614|20
04.10.2018 09:00:00||MARS CINEMA|10.40.25.206|||110000472614|20
04.10.2018 09:00:00||MARS CINEMA|10.40.25.206|||110000472614|30
04.10.2018 09:00:00||MARS CINEMA|10.40.25.206|||110000472614|60
04.10.2018 09:00:00||MARS CINEMA|10.40.25.206|||110000472614|40
04.10.2018 09:00:00||MARS CINEMA|10.40.25.206|||110000472614|79
04.10.2018 09:00:00||MARS CINEMA|10.40.25.206|||110000472614|79
04.10.2018 09:00:00||PEGASUS|10.40.26.62|||110000423831|94
04.10.2018 09:00:00||PEGASUS|10.40.26.62|||110000423831|10
04.10.2018 09:00:00||PEGASUS|10.40.26.62|||110000423831|200
04.10.2018 09:00:00||PEGASUS|10.40.26.63|||110000423831|115
04.10.2018 09:00:00||PEGASUS|10.40.26.63|||110000423831|306
04.10.2018 09:00:00||PEGASUS|10.40.26.63|||110000423831|115
04.10.2018 09:00:00||PEGASUS|10.40.26.63|||110000423831|94
04.10.2018 09:00:00||PEGASUS|10.40.26.63|||110000423831|73
04.10.2018 09:00:00||PEGASUS|10.40.26.63|||110000423831|137
04.10.2018 09:00:00||PEGASUS|10.40.26.63|||110000423831|62
04.10.2018 09:00:00||PEGASUS|10.40.26.63|||110000423831|105
04.10.2018 09:00:00||PEGASUS|10.40.26.63|||110000423831|30
04.10.2018 09:00:00||PEGASUS|10.40.26.63|||110000423831|62
04.10.2018 09:00:00||PEGASUS|10.40.26.63|||110000423831|20
04.10.2018 09:00:00||PEGASUS|10.40.26.63|||110000423831|231
04.10.2018 09:00:00||PEGASUS|10.40.26.63|||110000423831|147
04.10.2018 09:00:00||PEGASUS|10.40.26.63|||110000423831|52
04.10.2018 09:00:00||PEGASUS|10.40.26.63|||110000423831|158
04.10.2018 09:00:00||PEGASUS|10.40.26.63|||110000423831|41
04.10.2018 09:00:00||PEGASUS|10.40.26.63|||110000423831|62
04.10.2018 09:00:00||PEGASUS|10.40.26.63|||110000423831|62
04.10.2018 09:00:00||PEGASUS|10.40.26.63|||110000423831|41
04.10.2018 09:00:00||PEGASUS|10.40.26.64|||110000423831|84
04.10.2018 09:00:00||PEGASUS|10.40.26.64|||110000423831|84
04.10.2018 09:00:00||PEGASUS|10.40.26.66|||110000423831|60
04.10.2018 09:00:00||PEGASUS|10.40.26.66|||110000423831|51
04.10.2018 09:00:00||PEGASUS|10.40.26.67|||110000423831|30
04.10.2018 09:00:00||PEGASUS|10.40.26.67|||110000423831|359
04.10.2018 09:00:00||PEGASUS|10.40.26.67|||110000423831|359
04.10.2018 09:00:00||PEGASUS|10.40.26.67|||110000423831|62
04.10.2018 09:00:00||PEGASUS|10.40.26.67|||110000423831|41
04.10.2018 09:00:00||PEGASUS|10.40.26.67|||110000423831|179
04.10.2018 09:00:00||PEGASUS|10.40.26.67|||110000423831|73
04.10.2018 09:00:00||PEGASUS|10.40.26.67|||110000423831|359
04.10.2018 09:00:00||PEGASUS|10.40.26.68|||110000423831|105
04.10.2018 09:00:00||PEGASUS|10.40.26.68|||110000423831|94
04.10.2018 09:00:00||PEGASUS|10.40.26.68|||110000423831|94
04.10.2018 09:00:00||PEGASUS|10.40.26.68|||110000423831|52
04.10.2018 09:00:00||PEGASUS|10.40.26.81|||110000423831|423
04.10.2018 09:00:00||PEGASUS|10.40.26.81|||110000423831|442
04.10.2018 09:00:00||PEGASUS|10.40.26.81|||110000423831|452
04.10.2018 09:00:00||PEGASUS|10.40.26.82|||110000423831|207
04.10.2018 09:00:00||PEGASUS|10.40.26.82|||110000423831|109
04.10.2018 09:00:00||PEGASUS|10.40.26.82|||110000423831|79
04.10.2018 09:00:00||PEGASUS|10.40.26.82|||110000423831|148
04.10.2018 09:00:00||PEGASUS|10.40.26.82|||110000423831|138
04.10.2018 09:00:00||PEGASUS|10.40.26.82|||110000423831|138
04.10.2018 09:00:00||PEGASUS|10.40.26.82|||110000423831|177
04.10.2018 09:00:00||PEGASUS|10.40.26.82|||110000423831|30
04.10.2018 09:00:00||PEGASUS|10.40.26.82|||110000423831|40
04.10.2018 09:00:00||PEGASUS|10.40.26.82|||110000423831|20
04.10.2018 09:00:00||PEGASUS|10.40.26.82|||110000423831|69
04.10.2018 09:00:00||PEGASUS|10.40.26.82|||110000423831|50
04.10.2018 09:00:00||PEGASUS|10.40.26.82|||110000423831|40
04.10.2018 09:00:00||PEGASUS|10.40.26.83|||110000423831|531
04.10.2018 09:00:00||PEGASUS|10.40.26.83|||110000423831|50
04.10.2018 09:00:00||PEGASUS|10.40.26.83|||110000423831|393
04.10.2018 09:00:00||PEGASUS|10.40.26.83|||110000423831|148
04.10.2018 09:00:00||PEGASUS|10.40.26.83|||110000423831|99
04.10.2018 09:00:00||PEGASUS|10.40.26.83|||110000423831|531
04.10.2018 09:00:00||PEGASUS|10.40.26.83|||110000423831|109
04.10.2018 09:00:00||PEGASUS|10.40.26.83|||110000423831|541
04.10.2018 09:00:00||PEGASUS|10.40.26.84|||110000423831|40
04.10.2018 09:00:00||PEGASUS|10.40.26.84|||110000423831|180
04.10.2018 09:00:00||PEGASUS|10.40.26.85|||110000423831|23
04.10.2018 09:00:00||PEGASUS|10.40.26.85|||110000423831|97
04.10.2018 09:00:00||PEGASUS|10.40.26.86|||110000423831|354
04.10.2018 09:00:00||PEGASUS|10.40.26.86|||110000423831|128
04.10.2018 09:00:00||PEGASUS|10.40.26.86|||110000423831|344
04.10.2018 09:00:00||PEGASUS|10.40.26.86|||110000423831|50
04.10.2018 09:00:00||PEGASUS|10.40.26.86|||110000423831|30
04.10.2018 09:00:00||PEGASUS|10.40.26.86|||110000423831|344
04.10.2018 09:00:00||PEGASUS|10.40.26.86|||110000423831|40
04.10.2018 09:00:00||PEGASUS|10.40.26.86|||110000423831|50
04.10.2018 09:00:00||PEGASUS|10.40.26.87|||110000423831|89
04.10.2018 09:00:00||PEGASUS|10.40.26.87|||110000423831|89
04.10.2018 09:00:00||PEGASUS|10.40.26.87|||110000423831|89
04.10.2018 09:00:00||PEGASUS|10.40.26.87|||110000423831|20
04.10.2018 09:00:00||PEGASUS|10.40.27.63|||110000423831|89
04.10.2018 09:00:00||PEGASUS|10.40.27.63|||110000423831|59
04.10.2018 09:00:00||PEGASUS|10.40.27.63|||110000423831|69
04.10.2018 09:00:00||PEGASUS|10.40.27.63|||110000423831|49
04.10.2018 09:00:00||PEGASUS|10.40.27.63|||110000423831|59
04.10.2018 09:00:00||PEGASUS|10.40.27.63|||110000423831|59
04.10.2018 09:00:00||PEGASUS|10.40.27.63|||110000423831|79
04.10.2018 09:00:00||PEGASUS|10.40.27.63|||110000423831|79
04.10.2018 09:00:00||PEGASUS|10.40.27.63|||110000423831|79
04.10.2018 09:00:00||PEGASUS|10.40.27.63|||110000423831|205
04.10.2018 09:00:00||PEGASUS|10.40.27.63|||110000423831|59
04.10.2018 09:00:00||PEGASUS|10.40.27.63|||110000423831|59
04.10.2018 09:00:00||PEGASUS|10.40.27.63|||110000423831|69
04.10.2018 09:00:00||PEGASUS|10.40.27.63|||110000423831|89
04.10.2018 09:00:00||PEGASUS|10.40.27.63|||110000423831|69
04.10.2018 09:00:00||PEGASUS|10.40.27.63|||110000423831|59
04.10.2018 09:00:00||PEGASUS|10.40.27.63|||110000423831|79
04.10.2018 09:00:00||PEGASUS|10.40.27.64|||110000423831|69
04.10.2018 09:00:00||PEGASUS|10.40.27.64|||110000423831|69
04.10.2018 09:00:00||PEGASUS|10.40.27.64|||110000423831|264
04.10.2018 09:00:00||PEGASUS|10.40.27.64|||110000423831|283
04.10.2018 09:00:00||PEGASUS|10.40.27.64|||110000423831|254
04.10.2018 09:00:00||PEGASUS|10.40.27.64|||110000423831|332
04.10.2018 09:00:00||PEGASUS|10.40.27.64|||110000423831|293
04.10.2018 09:00:00||PEGASUS|10.40.27.64|||110000423831|313
04.10.2018 09:00:00||PEGASUS|10.40.27.64|||110000423831|264
04.10.2018 09:00:00||PEGASUS|10.40.27.64|||110000423831|283
04.10.2018 09:00:00||PEGASUS|10.40.27.64|||110000423831|254
04.10.2018 09:00:00||PEGASUS|10.40.27.64|||110000423831|264
04.10.2018 09:00:00||PEGASUS|10.40.27.64|||110000423831|245
04.10.2018 09:00:00||PEGASUS|10.40.27.64|||110000423831|245
04.10.2018 09:00:00||PEGASUS|10.40.27.66|||110000423831|42
04.10.2018 09:00:00||PEGASUS|10.40.27.66|||110000423831|56
04.10.2018 09:00:00||PEGASUS|10.40.27.67|||110000423831|49
04.10.2018 09:00:00||PEGASUS|10.40.27.67|||110000423831|352
04.10.2018 09:00:00||PEGASUS|10.40.27.67|||110000423831|69
04.10.2018 09:00:00||PEGASUS|10.40.27.67|||110000423831|127
04.10.2018 09:00:00||PEGASUS|10.40.27.67|||110000423831|10
04.10.2018 09:00:00||PEGASUS|10.40.27.67|||110000423831|332
04.10.2018 09:00:00||PEGASUS|10.40.27.67|||110000423831|40
04.10.2018 09:00:00||PEGASUS|10.40.27.67|||110000423831|332
04.10.2018 09:00:00||PEGASUS|10.40.27.68|||110000423831|89
04.10.2018 09:00:00||PEGASUS|10.40.27.68|||110000423831|79
04.10.2018 09:00:00||PEGASUS|10.40.27.68|||110000423831|89
04.10.2018 09:00:00||PEGASUS|10.40.27.68|||110000423831|59
04.10.2018 09:00:00||PEGASUS|10.40.27.81|||110000423831|515
04.10.2018 09:00:00||PEGASUS|10.40.27.81|||110000423831|463
04.10.2018 09:00:00||PEGASUS|10.40.27.81|||110000423831|422
04.10.2018 09:00:00||PEGASUS|10.40.27.82|||110000423831|226
04.10.2018 09:00:00||PEGASUS|10.40.27.82|||110000423831|30
04.10.2018 09:00:00||PEGASUS|10.40.27.82|||110000423831|102
04.10.2018 09:00:00||PEGASUS|10.40.27.82|||110000423831|82
04.10.2018 09:00:00||PEGASUS|10.40.27.82|||110000423831|154
04.10.2018 09:00:00||PEGASUS|10.40.27.82|||110000423831|123
04.10.2018 09:00:00||PEGASUS|10.40.27.82|||110000423831|174
04.10.2018 09:00:00||PEGASUS|10.40.27.82|||110000423831|123
04.10.2018 09:00:00||PEGASUS|10.40.27.82|||110000423831|61
04.10.2018 09:00:00||PEGASUS|10.40.27.82|||110000423831|71
04.10.2018 09:00:00||PEGASUS|10.40.27.82|||110000423831|51
04.10.2018 09:00:00||PEGASUS|10.40.27.82|||110000423831|30
04.10.2018 09:00:00||PEGASUS|10.40.27.82|||110000423831|61
04.10.2018 09:00:00||PEGASUS|10.40.27.82|||110000423831|40
04.10.2018 09:00:00||PEGASUS|10.40.27.83|||110000423831|608
04.10.2018 09:00:00||PEGASUS|10.40.27.83|||110000423831|71
04.10.2018 09:00:00||PEGASUS|10.40.27.83|||110000423831|525
04.10.2018 09:00:00||PEGASUS|10.40.27.83|||110000423831|102
04.10.2018 09:00:00||PEGASUS|10.40.27.83|||110000423831|154
04.10.2018 09:00:00||PEGASUS|10.40.27.83|||110000423831|82
04.10.2018 09:00:00||PEGASUS|10.40.27.83|||110000423831|515
04.10.2018 09:00:00||PEGASUS|10.40.27.83|||110000423831|71
04.10.2018 09:00:00||PEGASUS|10.40.27.84|||110000423831|181
04.10.2018 09:00:00||PEGASUS|10.40.27.84|||110000423831|40
04.10.2018 09:00:00||PEGASUS|10.40.27.85|||110000423831|96
04.10.2018 09:00:00||PEGASUS|10.40.27.85|||110000423831|22
04.10.2018 09:00:00||PEGASUS|10.40.27.86|||110000423831|350
04.10.2018 09:00:00||PEGASUS|10.40.27.86|||110000423831|350
04.10.2018 09:00:00||PEGASUS|10.40.27.86|||110000423831|164
04.10.2018 09:00:00||PEGASUS|10.40.27.86|||110000423831|71
04.10.2018 09:00:00||PEGASUS|10.40.27.86|||110000423831|40
04.10.2018 09:00:00||PEGASUS|10.40.27.86|||110000423831|20
04.10.2018 09:00:00||PEGASUS|10.40.27.86|||110000423831|360
04.10.2018 09:00:00||PEGASUS|10.40.27.87|||110000423831|92
04.10.2018 09:00:00||PEGASUS|10.40.27.87|||110000423831|92
04.10.2018 09:00:00||PEGASUS|10.40.27.87|||110000423831|92
04.10.2018 09:00:00||PEGASUS|10.40.27.87|||110000423831|20
04.10.2018 09:00:00||PETKIM|10.40.25.87|||110000437354|91
04.10.2018 09:00:00||PETKIM|10.40.25.87|||110000437354|50
04.10.2018 09:00:00||PWC|10.40.24.66|||110000433262|86
04.10.2018 09:00:00||PWC|10.40.24.66|||110000433262|10
04.10.2018 09:00:00||PWC|10.40.24.66|||110000433262|198
04.10.2018 09:00:00||PWC|10.40.24.66|||110000433262|198
04.10.2018 09:00:00||PWC|10.40.24.66|||110000433262|30
04.10.2018 09:00:00||PWC|10.40.24.66|||110000433262|48
04.10.2018 09:00:00||PWC|10.40.24.66|||110000433262|48
04.10.2018 09:00:00||PWC|10.40.24.66|||110000433262|58
04.10.2018 09:00:00||PWC|10.40.24.66|||110000433262|30
04.10.2018 09:00:00||PWC|10.40.24.66|||110000433262|39
04.10.2018 09:00:00||PWC|10.40.24.66|||110000433262|423
04.10.2018 09:00:00||PWC|10.40.24.67|||110000433262|10
04.10.2018 09:00:00||PWC|10.40.24.67|||110000433262|10
04.10.2018 09:00:00||PWC|10.40.24.67|||110000433262|357
04.10.2018 09:00:00||PWC|10.40.24.67|||110000433262|30
04.10.2018 09:00:00||PWC|10.40.24.67|||110000433262|67
04.10.2018 09:00:00||PWC|10.40.24.67|||110000433262|114
04.10.2018 09:00:00||PWC|10.40.24.68|||110000433262|95
04.10.2018 09:00:00||PWC|10.40.24.68|||110000433262|133
04.10.2018 09:00:00||PWC|10.40.24.68|||110000433262|67
04.10.2018 09:00:00||PWC|10.40.24.68|||110000433262|67
04.10.2018 09:00:00||PWC|10.40.24.68|||110000433262|142
04.10.2018 09:00:00||PWC|10.40.25.67|||110000433262|79
04.10.2018 09:00:00||PWC|10.40.25.67|||110000433262|89
04.10.2018 09:00:00||PWC|10.40.25.67|||110000433262|315
04.10.2018 09:00:00||PWC|10.40.25.67|||110000433262|246
04.10.2018 09:00:00||PWC|10.40.25.67|||110000433262|236
04.10.2018 09:00:00||PWC|10.40.25.67|||110000433262|246
04.10.2018 09:00:00||PWC|10.40.25.67|||110000433262|50
04.10.2018 09:00:00||PWC|10.40.25.67|||110000433262|30
04.10.2018 09:00:00||PWC|10.40.25.67|||110000433262|119
04.10.2018 09:00:00||PWC|10.40.25.68|||110000433262|128
04.10.2018 09:00:00||PWC|10.40.25.68|||110000433262|187
04.10.2018 09:00:00||PWC|10.40.25.68|||110000433262|384
04.10.2018 09:00:00||PWC|10.40.25.68|||110000433262|69
04.10.2018 09:00:00||PWC|10.40.25.68|||110000433262|79
04.10.2018 09:00:00||PWC|10.40.25.68|||110000433262|148
