01.11.2018 01:00:00||AKTİFBANK|10.40.24.172|||110000438458|950
01.11.2018 01:00:00||AKTİFBANK|10.40.25.134|||110000438458|930
01.11.2018 01:00:00||AKTİFBANK|10.40.24.134|||110000438458|930
01.11.2018 01:00:00||AKTİFBANK|10.40.24.135|||110000438458|980
01.11.2018 01:00:00||AKTİFBANK|10.40.25.137|||110000438458|580
01.11.2018 01:00:00||AKTİFBANK|10.40.25.171|||110000438458|120
01.11.2018 01:00:00||AKTİFBANK|10.40.25.172|||110000438458|880
01.11.2018 01:00:00||AKTİFBANK|10.40.25.174|||110000438458|530
01.11.2018 01:00:00||AKTİFBANK|10.40.25.135|||110000438458|950
01.11.2018 01:00:00||AKTİFBANK|10.40.24.137|||110000438458|580
01.11.2018 01:00:00||AKTİFBANK|10.40.24.171|||110000438458|110
01.11.2018 01:00:00||AKTİFBANK|10.40.25.173|||110000438458|950
01.11.2018 01:00:00||AKTİFBANK|10.40.24.173|||110000438458|930
01.11.2018 01:00:00||AKTİFBANK|10.40.24.174|||110000438458|600
01.11.2018 01:00:00||AKTİFBANK|10.40.24.133|||110000438458|75
01.11.2018 01:00:00||AKTİFBANK|10.40.24.138|||110000438458|105
01.11.2018 01:00:00||AKTİFBANK|10.40.24.139|||110000438458|30
01.11.2018 01:00:00||AKTİFBANK|10.40.24.149|||110000438458|110
01.11.2018 01:00:00||AKTİFBANK|10.40.24.150|||110000438458|545
01.11.2018 01:00:00||AKTİFBANK|10.40.24.145|||110000438458|60
01.11.2018 01:00:00||AKTİFBANK|10.40.24.164|||110000438458|227
01.11.2018 01:00:00||AKTİFBANK|10.40.25.133|||110000438458|70
01.11.2018 01:00:00||AKTİFBANK|10.40.24.145|||110000438458|90
01.11.2018 01:00:00||AKTİFBANK|10.40.24.158|||110000438458|82
01.11.2018 01:00:00||AKTİFBANK|10.40.24.164|||110000438458|70
01.11.2018 01:00:00||AKTİFBANK|10.40.25.138|||110000438458|80
01.11.2018 01:00:00||AKTİFBANK|10.40.25.139|||110000438458|10
01.11.2018 01:00:00||AKTİFBANK|10.40.25.140|||110000438458|32
01.11.2018 01:00:00||AKTİFBANK|10.40.25.151|||110000438458|518
01.11.2018 01:00:00||AKTİFBANK|10.40.25.141|||110000438458|100
01.11.2018 01:00:00||AKTİFBANK|10.40.25.141|||110000438458|100
01.11.2018 01:00:00||AKTİFBANK|10.40.25.142|||110000438458|73
01.11.2018 01:00:00||AKTİFBANK|10.40.25.133|||110000438458|110
01.11.2018 01:00:00||AKTİFBANK|10.40.25.149|||110000438458|103
01.11.2018 01:00:00||AKTİFBANK|10.40.25.149|||110000438458|90
01.11.2018 01:00:00||AKTİFBANK|10.40.25.149|||110000438458|90
01.11.2018 01:00:00||AKTİFBANK|10.40.25.140|||110000438458|30
01.11.2018 01:00:00||AKTİFBANK|10.40.25.150|||110000438458|545
01.11.2018 01:00:00||AKTİFBANK|10.40.25.139|||110000438458|170
01.11.2018 01:00:00||AKTİFBANK|10.40.25.139|||110000438458|40
01.11.2018 01:00:00||AKTİFBANK|10.40.25.140|||110000438458|80
01.11.2018 01:00:00||AKTİFBANK|10.40.25.140|||110000438458|70
01.11.2018 01:00:00||AKTİFBANK|10.40.25.140|||110000438458|30
01.11.2018 01:00:00||AKTİFBANK|10.40.25.151|||110000438458|527
01.11.2018 01:00:00||AKTİFBANK|10.40.25.151|||110000438458|505
01.11.2018 01:00:00||AKTİFBANK|10.40.25.141|||110000438458|40
01.11.2018 01:00:00||AKTİFBANK|10.40.25.141|||110000438458|100
01.11.2018 01:00:00||AKTİFBANK|10.40.25.141|||110000438458|80
01.11.2018 01:00:00||AKTİFBANK|10.40.25.142|||110000438458|40
01.11.2018 01:00:00||AKTİFBANK|10.40.25.149|||110000438458|70
01.11.2018 01:00:00||AKTİFBANK|10.40.25.149|||110000438458|110
01.11.2018 01:00:00||AKTİFBANK|10.40.25.149|||110000438458|90
01.11.2018 01:00:00||AKTİFBANK|10.40.25.149|||110000438458|93
01.11.2018 01:00:00||AKTİFBANK|10.40.25.149|||110000438458|113
01.11.2018 01:00:00||AKTİFBANK|10.40.24.139|||110000438458|63
01.11.2018 01:00:00||AKTİFBANK|10.40.25.153|||110000438458|10
01.11.2018 01:00:00||AKTİFBANK|10.40.25.150|||110000438458|550
01.11.2018 01:00:00||AKTİFBANK|10.40.25.153|||110000438458|70
01.11.2018 01:00:00||AKTİFBANK|10.40.25.163|||110000438458|50
01.11.2018 01:00:00||AKTİFBANK|10.40.24.141|||110000438458|68
01.11.2018 01:00:00||AKTİFBANK|10.40.24.151|||110000438458|500
01.11.2018 01:00:00||AKTİFBANK|10.40.25.153|||110000438458|80
01.11.2018 01:00:00||AKTİFBANK|10.40.24.149|||110000438458|90
01.11.2018 01:00:00||AKTİFBANK|10.40.24.141|||110000438458|50
01.11.2018 01:00:00||AKTİFBANK|10.40.25.133|||110000438458|280
01.11.2018 01:00:00||AKTİFBANK|10.40.25.133|||110000438458|90
01.11.2018 01:00:00||AKTİFBANK|10.40.24.149|||110000438458|90
01.11.2018 01:00:00||AKTİFBANK|10.40.24.162|||110000438458|210
01.11.2018 01:00:00||AKTİFBANK|10.40.24.162|||110000438458|30
01.11.2018 01:00:00||AKTİFBANK|10.40.24.162|||110000438458|40
01.11.2018 01:00:00||AKTİFBANK|10.40.25.133|||110000438458|150
01.11.2018 01:00:00||AKTİFBANK|10.40.25.138|||110000438458|130
01.11.2018 01:00:00||AKTİFBANK|10.40.25.149|||110000438458|58
01.11.2018 01:00:00||AKTİFBANK|10.40.25.149|||110000438458|70
01.11.2018 01:00:00||AKTİFBANK|10.40.25.149|||110000438458|28
01.11.2018 01:00:00||AKTİFBANK|10.40.25.149|||110000438458|70
01.11.2018 01:00:00||AKTİFBANK|10.40.25.149|||110000438458|70
01.11.2018 01:00:00||AKTİFBANK|10.40.25.141|||110000438458|100
01.11.2018 01:00:00||AKTİFBANK|10.40.25.149|||110000438458|130
01.11.2018 01:00:00||AKTİFBANK|10.40.25.138|||110000438458|83
01.11.2018 01:00:00||AKTİFBANK|10.40.25.138|||110000438458|73
01.11.2018 01:00:00||AKTİFBANK|10.40.25.139|||110000438458|100
01.11.2018 01:00:00||AKTİFBANK|10.40.24.145|||110000438458|70
01.11.2018 01:00:00||AKTİFBANK|10.40.24.149|||110000438458|160
01.11.2018 01:00:00||AKTİFBANK|10.40.25.138|||110000438458|30
01.11.2018 01:00:00||AKTİFBANK|10.40.25.138|||110000438458|10
01.11.2018 01:00:00||AKTİFBANK|10.40.25.153|||110000438458|60
01.11.2018 01:00:00||AKTİFBANK|10.40.24.150|||110000438458|547
01.11.2018 01:00:00||AKTİFBANK|10.40.25.128|||110000438458|70
01.11.2018 01:00:00||AKTİFBANK|10.40.25.128|||110000438458|90
01.11.2018 01:00:00||AKTİFBANK|10.40.25.128|||110000438458|90
01.11.2018 01:00:00||AKTİFBANK|10.40.25.128|||110000438458|40
01.11.2018 01:00:00||AKTİFBANK|10.40.25.128|||110000438458|52
01.11.2018 01:00:00||AKTİFBANK|10.40.25.129|||110000438458|82
01.11.2018 01:00:00||AKTİFBANK|10.40.25.129|||110000438458|75
01.11.2018 01:00:00||AKTİFBANK|10.40.25.129|||110000438458|140
01.11.2018 01:00:00||AKTİFBANK|10.40.25.129|||110000438458|103
01.11.2018 01:00:00||AKTİFBANK|10.40.25.129|||110000438458|92
01.11.2018 01:00:00||AKTİFBANK|10.40.25.130|||110000438458|70
01.11.2018 01:00:00||AKTİFBANK|10.40.25.130|||110000438458|50
01.11.2018 01:00:00||AKTİFBANK|10.40.25.130|||110000438458|80
01.11.2018 01:00:00||AKTİFBANK|10.40.25.130|||110000438458|40
01.11.2018 01:00:00||AKTİFBANK|10.40.25.130|||110000438458|60
01.11.2018 01:00:00||AKTİFBANK|10.40.25.130|||110000438458|100
01.11.2018 01:00:00||AKTİFBANK|10.40.25.130|||110000438458|90
01.11.2018 01:00:00||AKTİFBANK|10.40.25.131|||110000438458|20
01.11.2018 01:00:00||AKTİFBANK|10.40.25.131|||110000438458|77
01.11.2018 01:00:00||AKTİFBANK|10.40.25.131|||110000438458|100
01.11.2018 01:00:00||AKTİFBANK|10.40.25.131|||110000438458|105
01.11.2018 01:00:00||AKTİFBANK|10.40.25.131|||110000438458|82
01.11.2018 01:00:00||AKTİFBANK|10.40.25.131|||110000438458|80
01.11.2018 01:00:00||AKTİFBANK|10.40.25.131|||110000438458|22
01.11.2018 01:00:00||AKTİFBANK|10.40.25.131|||110000438458|120
01.11.2018 01:00:00||AKTİFBANK|10.40.25.132|||110000438458|67
01.11.2018 01:00:00||AKTİFBANK|10.40.25.132|||110000438458|63
01.11.2018 01:00:00||AKTİFBANK|10.40.25.132|||110000438458|28
01.11.2018 01:00:00||AKTİFBANK|10.40.25.132|||110000438458|53
01.11.2018 01:00:00||AKTİFBANK|10.40.25.132|||110000438458|50
01.11.2018 01:00:00||AKTİFBANK|10.40.25.143|||110000438458|312
01.11.2018 01:00:00||AKTİFBANK|10.40.25.144|||110000438458|80
01.11.2018 01:00:00||AKTİFBANK|10.40.25.144|||110000438458|50
01.11.2018 01:00:00||AKTİFBANK|10.40.25.144|||110000438458|20
01.11.2018 01:00:00||AKTİFBANK|10.40.25.154|||110000438458|10
01.11.2018 01:00:00||AKTİFBANK|10.40.25.154|||110000438458|10
01.11.2018 01:00:00||AKTİFBANK|10.40.25.154|||110000438458|10
01.11.2018 01:00:00||AKTİFBANK|10.40.25.157|||110000438458|70
01.11.2018 01:00:00||AKTİFBANK|10.40.25.157|||110000438458|70
01.11.2018 01:00:00||AKTİFBANK|10.40.25.157|||110000438458|72
01.11.2018 01:00:00||AKTİFBANK|10.40.25.157|||110000438458|82
01.11.2018 01:00:00||AKTİFBANK|10.40.25.157|||110000438458|40
01.11.2018 01:00:00||AKTİFBANK|10.40.25.159|||110000438458|60
01.11.2018 01:00:00||AKTİFBANK|10.40.25.159|||110000438458|10
01.11.2018 01:00:00||AKTİFBANK|10.40.25.159|||110000438458|90
01.11.2018 01:00:00||AKTİFBANK|10.40.25.158|||110000438458|37
01.11.2018 01:00:00||AKTİFBANK|10.40.25.158|||110000438458|73
01.11.2018 01:00:00||AKTİFBANK|10.40.25.158|||110000438458|43
01.11.2018 01:00:00||AKTİFBANK|10.40.25.158|||110000438458|50
01.11.2018 01:00:00||AKTİFBANK|10.40.25.160|||110000438458|90
01.11.2018 01:00:00||AKTİFBANK|10.40.25.161|||110000438458|80
01.11.2018 01:00:00||AKTİFBANK|10.40.25.161|||110000438458|70
01.11.2018 01:00:00||AKTİFBANK|10.40.25.161|||110000438458|57
01.11.2018 01:00:00||AKTİFBANK|10.40.25.145|||110000438458|90
01.11.2018 01:00:00||AKTİFBANK|10.40.25.145|||110000438458|60
01.11.2018 01:00:00||AKTİFBANK|10.40.25.145|||110000438458|60
01.11.2018 01:00:00||AKTİFBANK|10.40.25.145|||110000438458|30
01.11.2018 01:00:00||AKTİFBANK|10.40.25.145|||110000438458|50
01.11.2018 01:00:00||AKTİFBANK|10.40.25.147|||110000438458|90
01.11.2018 01:00:00||AKTİFBANK|10.40.25.162|||110000438458|30
01.11.2018 01:00:00||AKTİFBANK|10.40.25.162|||110000438458|30
01.11.2018 01:00:00||AKTİFBANK|10.40.25.162|||110000438458|60
01.11.2018 01:00:00||AKTİFBANK|10.40.25.164|||110000438458|60
01.11.2018 01:00:00||AKTİFBANK|10.40.25.164|||110000438458|280
01.11.2018 01:00:00||AKTİFBANK|10.40.25.164|||110000438458|50
01.11.2018 01:00:00||AKTİFBANK|10.40.25.164|||110000438458|260
01.11.2018 01:00:00||AKTİFBANK|10.40.25.164|||110000438458|270
01.11.2018 01:00:00||AKTİFBANK|10.40.25.165|||110000438458|110
01.11.2018 01:00:00||AKTİFBANK|10.40.25.165|||110000438458|73
01.11.2018 01:00:00||AKTİFBANK|10.40.25.165|||110000438458|80
01.11.2018 01:00:00||AKTİFBANK|10.40.25.165|||110000438458|100
01.11.2018 01:00:00||AKTİFBANK|10.40.25.166|||110000438458|90
01.11.2018 01:00:00||AKTİFBANK|10.40.25.166|||110000438458|10
01.11.2018 01:00:00||AKTİFBANK|10.40.25.166|||110000438458|10
01.11.2018 01:00:00||AKTİFBANK|10.40.25.166|||110000438458|40
01.11.2018 01:00:00||AKTİFBANK|10.40.25.148|||110000438458|130
01.11.2018 01:00:00||AKTİFBANK|10.40.25.148|||110000438458|50
01.11.2018 01:00:00||AKTİFBANK|10.40.25.148|||110000438458|100
01.11.2018 01:00:00||AKTİFBANK|10.40.25.148|||110000438458|130
01.11.2018 01:00:00||AKTİFBANK|10.40.25.148|||110000438458|90
01.11.2018 01:00:00||AKTİFBANK|10.40.25.148|||110000438458|80
01.11.2018 01:00:00||AKTİFBANK|10.40.25.148|||110000438458|70
01.11.2018 01:00:00||AKTİFBANK|10.40.25.148|||110000438458|50
01.11.2018 01:00:00||AKTİFBANK|10.40.25.148|||110000438458|80
01.11.2018 01:00:00||AKTİFBANK|10.40.25.148|||110000438458|40
01.11.2018 01:00:00||AKTİFBANK|10.40.25.148|||110000438458|100
01.11.2018 01:00:00||AKTİFBANK|10.40.25.148|||110000438458|60
01.11.2018 01:00:00||AKTİFBANK|10.40.25.155|||110000438458|70
01.11.2018 01:00:00||AKTİFBANK|10.40.25.155|||110000438458|90
01.11.2018 01:00:00||AKTİFBANK|10.40.25.155|||110000438458|110
01.11.2018 01:00:00||AKTİFBANK|10.40.25.155|||110000438458|120
01.11.2018 01:00:00||AKTİFBANK|10.40.25.155|||110000438458|110
01.11.2018 01:00:00||AKTİFBANK|10.40.25.156|||110000438458|20
01.11.2018 01:00:00||AKTİFBANK|10.40.25.156|||110000438458|27
01.11.2018 01:00:00||AKTİFBANK|10.40.25.139|||110000438458|70
01.11.2018 01:00:00||AKTİFBANK|10.40.25.139|||110000438458|80
01.11.2018 01:00:00||AKTİFBANK|10.40.25.150|||110000438458|522
01.11.2018 01:00:00||AKTİFBANK|10.40.25.129|||110000438458|87
01.11.2018 01:00:00||AKTİFBANK|10.40.25.129|||110000438458|140
01.11.2018 01:00:00||AKTİFBANK|10.40.25.130|||110000438458|70
01.11.2018 01:00:00||AKTİFBANK|10.40.25.130|||110000438458|130
01.11.2018 01:00:00||AKTİFBANK|10.40.25.130|||110000438458|100
01.11.2018 01:00:00||AKTİFBANK|10.40.25.131|||110000438458|47
01.11.2018 01:00:00||AKTİFBANK|10.40.25.143|||110000438458|60
01.11.2018 01:00:00||AKTİFBANK|10.40.25.143|||110000438458|242
01.11.2018 01:00:00||AKTİFBANK|10.40.25.143|||110000438458|260
01.11.2018 01:00:00||AKTİFBANK|10.40.25.158|||110000438458|102
01.11.2018 01:00:00||AKTİFBANK|10.40.25.160|||110000438458|110
01.11.2018 01:00:00||AKTİFBANK|10.40.25.162|||110000438458|30
01.11.2018 01:00:00||AKTİFBANK|10.40.25.162|||110000438458|40
01.11.2018 01:00:00||AKTİFBANK|10.40.24.140|||110000438458|160
01.11.2018 01:00:00||AKTİFBANK|10.40.24.140|||110000438458|80
01.11.2018 01:00:00||AKTİFBANK|10.40.24.140|||110000438458|40
01.11.2018 01:00:00||AKTİFBANK|10.40.24.140|||110000438458|30
01.11.2018 01:00:00||AKTİFBANK|10.40.24.140|||110000438458|30
01.11.2018 01:00:00||AKTİFBANK|10.40.24.140|||110000438458|30
01.11.2018 01:00:00||AKTİFBANK|10.40.24.149|||110000438458|80
01.11.2018 01:00:00||AKTİFBANK|10.40.24.149|||110000438458|120
01.11.2018 01:00:00||AKTİFBANK|10.40.24.149|||110000438458|90
01.11.2018 01:00:00||AKTİFBANK|10.40.24.149|||110000438458|50
01.11.2018 01:00:00||AKTİFBANK|10.40.24.149|||110000438458|50
01.11.2018 01:00:00||AKTİFBANK|10.40.24.149|||110000438458|142
01.11.2018 01:00:00||AKTİFBANK|10.40.24.149|||110000438458|90
01.11.2018 01:00:00||AKTİFBANK|10.40.24.149|||110000438458|90
01.11.2018 01:00:00||AKTİFBANK|10.40.24.149|||110000438458|97
01.11.2018 01:00:00||AKTİFBANK|10.40.24.149|||110000438458|80
01.11.2018 01:00:00||AKTİFBANK|10.40.24.133|||110000438458|143
01.11.2018 01:00:00||AKTİFBANK|10.40.24.133|||110000438458|120
01.11.2018 01:00:00||AKTİFBANK|10.40.24.133|||110000438458|85
01.11.2018 01:00:00||AKTİFBANK|10.40.24.138|||110000438458|115
01.11.2018 01:00:00||AKTİFBANK|10.40.24.138|||110000438458|140
01.11.2018 01:00:00||AKTİFBANK|10.40.24.138|||110000438458|112
01.11.2018 01:00:00||AKTİFBANK|10.40.24.138|||110000438458|30
01.11.2018 01:00:00||AKTİFBANK|10.40.24.138|||110000438458|50
01.11.2018 01:00:00||AKTİFBANK|10.40.24.139|||110000438458|160
01.11.2018 01:00:00||AKTİFBANK|10.40.24.139|||110000438458|95
01.11.2018 01:00:00||AKTİFBANK|10.40.24.139|||110000438458|120
01.11.2018 01:00:00||AKTİFBANK|10.40.24.141|||110000438458|202
01.11.2018 01:00:00||AKTİFBANK|10.40.24.141|||110000438458|102
01.11.2018 01:00:00||AKTİFBANK|10.40.24.141|||110000438458|100
01.11.2018 01:00:00||AKTİFBANK|10.40.24.141|||110000438458|63
01.11.2018 01:00:00||AKTİFBANK|10.40.24.141|||110000438458|80
01.11.2018 01:00:00||AKTİFBANK|10.40.25.152|||110000438458|110
01.11.2018 01:00:00||AKTİFBANK|10.40.25.152|||110000438458|50
01.11.2018 01:00:00||AKTİFBANK|10.40.25.152|||110000438458|140
01.11.2018 01:00:00||AKTİFBANK|10.40.25.152|||110000438458|70
01.11.2018 01:00:00||AKTİFBANK|10.40.25.152|||110000438458|90
01.11.2018 01:00:00||AKTİFBANK|10.40.25.152|||110000438458|160
01.11.2018 01:00:00||AKTİFBANK|10.40.25.152|||110000438458|50
01.11.2018 01:00:00||AKTİFBANK|10.40.25.152|||110000438458|90
01.11.2018 01:00:00||AKTİFBANK|10.40.25.152|||110000438458|30
01.11.2018 01:00:00||AKTİFBANK|10.40.25.152|||110000438458|80
01.11.2018 01:00:00||AKTİFBANK|10.40.25.152|||110000438458|30
01.11.2018 01:00:00||AKTİFBANK|10.40.24.150|||110000438458|558
01.11.2018 01:00:00||AKTİFBANK|10.40.24.151|||110000438458|530
01.11.2018 01:00:00||AKTİFBANK|10.40.24.151|||110000438458|530
01.11.2018 01:00:00||AKTİFBANK|10.40.24.128|||110000438458|60
01.11.2018 01:00:00||AKTİFBANK|10.40.24.128|||110000438458|70
01.11.2018 01:00:00||AKTİFBANK|10.40.24.128|||110000438458|100
01.11.2018 01:00:00||AKTİFBANK|10.40.24.128|||110000438458|40
01.11.2018 01:00:00||AKTİFBANK|10.40.24.128|||110000438458|70
01.11.2018 01:00:00||AKTİFBANK|10.40.24.128|||110000438458|63
01.11.2018 01:00:00||AKTİFBANK|10.40.24.129|||110000438458|100
01.11.2018 01:00:00||AKTİFBANK|10.40.24.129|||110000438458|70
01.11.2018 01:00:00||AKTİFBANK|10.40.24.129|||110000438458|110
01.11.2018 01:00:00||AKTİFBANK|10.40.24.129|||110000438458|120
01.11.2018 01:00:00||AKTİFBANK|10.40.24.129|||110000438458|40
01.11.2018 01:00:00||AKTİFBANK|10.40.24.129|||110000438458|70
01.11.2018 01:00:00||AKTİFBANK|10.40.24.129|||110000438458|70
01.11.2018 01:00:00||AKTİFBANK|10.40.24.129|||110000438458|90
01.11.2018 01:00:00||AKTİFBANK|10.40.24.129|||110000438458|80
01.11.2018 01:00:00||AKTİFBANK|10.40.24.129|||110000438458|140
01.11.2018 01:00:00||AKTİFBANK|10.40.24.130|||110000438458|40
01.11.2018 01:00:00||AKTİFBANK|10.40.24.130|||110000438458|40
01.11.2018 01:00:00||AKTİFBANK|10.40.24.130|||110000438458|68
01.11.2018 01:00:00||AKTİFBANK|10.40.24.130|||110000438458|40
01.11.2018 01:00:00||AKTİFBANK|10.40.24.130|||110000438458|60
01.11.2018 01:00:00||AKTİFBANK|10.40.24.130|||110000438458|75
01.11.2018 01:00:00||AKTİFBANK|10.40.24.130|||110000438458|87
01.11.2018 01:00:00||AKTİFBANK|10.40.24.130|||110000438458|38
01.11.2018 01:00:00||AKTİFBANK|10.40.24.130|||110000438458|130
01.11.2018 01:00:00||AKTİFBANK|10.40.24.130|||110000438458|110
01.11.2018 01:00:00||AKTİFBANK|10.40.24.131|||110000438458|93
01.11.2018 01:00:00||AKTİFBANK|10.40.24.131|||110000438458|90
01.11.2018 01:00:00||AKTİFBANK|10.40.24.131|||110000438458|112
01.11.2018 01:00:00||AKTİFBANK|10.40.24.131|||110000438458|115
01.11.2018 01:00:00||AKTİFBANK|10.40.24.131|||110000438458|20
01.11.2018 01:00:00||AKTİFBANK|10.40.24.131|||110000438458|160
01.11.2018 01:00:00||AKTİFBANK|10.40.24.131|||110000438458|60
01.11.2018 01:00:00||AKTİFBANK|10.40.24.131|||110000438458|110
01.11.2018 01:00:00||AKTİFBANK|10.40.24.132|||110000438458|32
01.11.2018 01:00:00||AKTİFBANK|10.40.24.132|||110000438458|83
01.11.2018 01:00:00||AKTİFBANK|10.40.24.132|||110000438458|52
01.11.2018 01:00:00||AKTİFBANK|10.40.24.132|||110000438458|192
01.11.2018 01:00:00||AKTİFBANK|10.40.24.132|||110000438458|62
01.11.2018 01:00:00||AKTİFBANK|10.40.24.143|||110000438458|70
01.11.2018 01:00:00||AKTİFBANK|10.40.24.143|||110000438458|270
01.11.2018 01:00:00||AKTİFBANK|10.40.24.143|||110000438458|300
01.11.2018 01:00:00||AKTİFBANK|10.40.24.143|||110000438458|210
01.11.2018 01:00:00||AKTİFBANK|10.40.24.144|||110000438458|70
01.11.2018 01:00:00||AKTİFBANK|10.40.24.144|||110000438458|105
01.11.2018 01:00:00||AKTİFBANK|10.40.24.144|||110000438458|130
01.11.2018 01:00:00||AKTİFBANK|10.40.24.148|||110000438458|70
01.11.2018 01:00:00||AKTİFBANK|10.40.24.148|||110000438458|170
01.11.2018 01:00:00||AKTİFBANK|10.40.24.148|||110000438458|90
01.11.2018 01:00:00||AKTİFBANK|10.40.24.148|||110000438458|110
01.11.2018 01:00:00||AKTİFBANK|10.40.24.148|||110000438458|80
01.11.2018 01:00:00||AKTİFBANK|10.40.24.148|||110000438458|90
01.11.2018 01:00:00||AKTİFBANK|10.40.24.148|||110000438458|90
01.11.2018 01:00:00||AKTİFBANK|10.40.24.148|||110000438458|100
01.11.2018 01:00:00||AKTİFBANK|10.40.24.148|||110000438458|90
01.11.2018 01:00:00||AKTİFBANK|10.40.24.148|||110000438458|60
01.11.2018 01:00:00||AKTİFBANK|10.40.24.148|||110000438458|30
01.11.2018 01:00:00||AKTİFBANK|10.40.24.148|||110000438458|80
01.11.2018 01:00:00||AKTİFBANK|10.40.24.153|||110000438458|10
01.11.2018 01:00:00||AKTİFBANK|10.40.24.153|||110000438458|90
01.11.2018 01:00:00||AKTİFBANK|10.40.24.153|||110000438458|70
01.11.2018 01:00:00||AKTİFBANK|10.40.24.153|||110000438458|80
01.11.2018 01:00:00||AKTİFBANK|10.40.24.157|||110000438458|30
01.11.2018 01:00:00||AKTİFBANK|10.40.24.157|||110000438458|70
01.11.2018 01:00:00||AKTİFBANK|10.40.24.157|||110000438458|70
01.11.2018 01:00:00||AKTİFBANK|10.40.24.157|||110000438458|40
01.11.2018 01:00:00||AKTİFBANK|10.40.24.157|||110000438458|80
01.11.2018 01:00:00||AKTİFBANK|10.40.24.157|||110000438458|40
01.11.2018 01:00:00||AKTİFBANK|10.40.24.158|||110000438458|80
01.11.2018 01:00:00||AKTİFBANK|10.40.24.158|||110000438458|110
01.11.2018 01:00:00||AKTİFBANK|10.40.24.159|||110000438458|130
01.11.2018 01:00:00||AKTİFBANK|10.40.24.159|||110000438458|55
01.11.2018 01:00:00||AKTİFBANK|10.40.24.159|||110000438458|180
01.11.2018 01:00:00||AKTİFBANK|10.40.24.160|||110000438458|50
01.11.2018 01:00:00||AKTİFBANK|10.40.24.160|||110000438458|92
01.11.2018 01:00:00||AKTİFBANK|10.40.24.160|||110000438458|100
01.11.2018 01:00:00||AKTİFBANK|10.40.24.161|||110000438458|200
01.11.2018 01:00:00||AKTİFBANK|10.40.24.161|||110000438458|80
01.11.2018 01:00:00||AKTİFBANK|10.40.24.161|||110000438458|40
01.11.2018 01:00:00||AKTİFBANK|10.40.24.161|||110000438458|30
01.11.2018 01:00:00||AKTİFBANK|10.40.24.161|||110000438458|30
01.11.2018 01:00:00||AKTİFBANK|10.40.24.161|||110000438458|20
01.11.2018 01:00:00||AKTİFBANK|10.40.24.161|||110000438458|90
01.11.2018 01:00:00||AKTİFBANK|10.40.24.145|||110000438458|30
01.11.2018 01:00:00||AKTİFBANK|10.40.24.145|||110000438458|70
01.11.2018 01:00:00||AKTİFBANK|10.40.24.145|||110000438458|50
01.11.2018 01:00:00||AKTİFBANK|10.40.24.147|||110000438458|90
01.11.2018 01:00:00||AKTİFBANK|10.40.24.162|||110000438458|40
01.11.2018 01:00:00||AKTİFBANK|10.40.24.162|||110000438458|40
01.11.2018 01:00:00||AKTİFBANK|10.40.24.162|||110000438458|112
01.11.2018 01:00:00||AKTİFBANK|10.40.24.162|||110000438458|10
01.11.2018 01:00:00||AKTİFBANK|10.40.24.162|||110000438458|50
01.11.2018 01:00:00||AKTİFBANK|10.40.24.163|||110000438458|30
01.11.2018 01:00:00||AKTİFBANK|10.40.24.163|||110000438458|70
01.11.2018 01:00:00||AKTİFBANK|10.40.24.164|||110000438458|55
01.11.2018 01:00:00||AKTİFBANK|10.40.24.164|||110000438458|332
01.11.2018 01:00:00||AKTİFBANK|10.40.24.164|||110000438458|212
01.11.2018 01:00:00||AKTİFBANK|10.40.24.165|||110000438458|75
01.11.2018 01:00:00||AKTİFBANK|10.40.24.165|||110000438458|80
01.11.2018 01:00:00||AKTİFBANK|10.40.24.165|||110000438458|50
01.11.2018 01:00:00||AKTİFBANK|10.40.24.165|||110000438458|120
01.11.2018 01:00:00||AKTİFBANK|10.40.24.166|||110000438458|80
01.11.2018 01:00:00||AKTİFBANK|10.40.24.166|||110000438458|90
01.11.2018 01:00:00||AKTİFBANK|10.40.24.166|||110000438458|10
01.11.2018 01:00:00||AKTİFBANK|10.40.25.168|||110000438458|90
01.11.2018 01:00:00||AKTİFBANK|10.40.25.168|||110000438458|70
01.11.2018 01:00:00||AKTİFBANK|10.40.25.168|||110000438458|50
01.11.2018 01:00:00||AKTİFBANK|10.40.25.168|||110000438458|40
01.11.2018 01:00:00||AKTİFBANK|10.40.25.168|||110000438458|60
01.11.2018 01:00:00||AKTİFBANK|10.40.24.168|||110000438458|90
01.11.2018 01:00:00||AKTİFBANK|10.40.24.168|||110000438458|80
01.11.2018 01:00:00||AKTİFBANK|10.40.24.168|||110000438458|70
01.11.2018 01:00:00||AKTİFBANK|10.40.24.168|||110000438458|70
01.11.2018 01:00:00||AKTİFBANK|10.40.24.168|||110000438458|30
01.11.2018 01:00:00||AKTİFBANK|10.40.24.154|||110000438458|70
01.11.2018 01:00:00||AKTİFBANK|10.40.24.154|||110000438458|20
01.11.2018 01:00:00||AKTİFBANK|10.40.24.154|||110000438458|10
01.11.2018 01:00:00||AKTİFBANK|10.40.24.154|||110000438458|10
01.11.2018 01:00:00||AKTİFBANK|10.40.24.154|||110000438458|10
01.11.2018 01:00:00||AKTİFBANK|10.40.24.154|||110000438458|10
01.11.2018 01:00:00||AKTİFBANK|10.40.24.155|||110000438458|58
01.11.2018 01:00:00||AKTİFBANK|10.40.24.155|||110000438458|102
01.11.2018 01:00:00||AKTİFBANK|10.40.24.155|||110000438458|130
01.11.2018 01:00:00||AKTİFBANK|10.40.24.155|||110000438458|80
01.11.2018 01:00:00||AKTİFBANK|10.40.24.155|||110000438458|115
01.11.2018 01:00:00||AKTİFBANK|10.40.24.155|||110000438458|102
01.11.2018 01:00:00||AKTİFBANK|10.40.25.169|||110000438458|90
01.11.2018 01:00:00||AKTİFBANK|10.40.25.169|||110000438458|90
01.11.2018 01:00:00||AKTİFBANK|10.40.25.169|||110000438458|70
01.11.2018 01:00:00||AKTİFBANK|10.40.25.169|||110000438458|80
01.11.2018 01:00:00||AKTİFBANK|10.40.24.169|||110000438458|72
01.11.2018 01:00:00||AKTİFBANK|10.40.24.169|||110000438458|88
01.11.2018 01:00:00||AKTİFBANK|10.40.24.169|||110000438458|70
01.11.2018 01:00:00||AKTİFBANK|10.40.24.169|||110000438458|80
01.11.2018 01:00:00||AKTİFBANK|10.40.25.170|||110000438458|30
01.11.2018 01:00:00||AKTİFBANK|10.40.25.170|||110000438458|30
01.11.2018 01:00:00||AKTİFBANK|10.40.25.170|||110000438458|200
01.11.2018 01:00:00||AKTİFBANK|10.40.25.170|||110000438458|100
01.11.2018 01:00:00||AKTİFBANK|10.40.25.170|||110000438458|80
01.11.2018 01:00:00||AKTİFBANK|10.40.25.170|||110000438458|120
01.11.2018 01:00:00||AKTİFBANK|10.40.24.170|||110000438458|60
01.11.2018 01:00:00||AKTİFBANK|10.40.24.170|||110000438458|60
01.11.2018 01:00:00||AKTİFBANK|10.40.24.170|||110000438458|312
01.11.2018 01:00:00||AKTİFBANK|10.40.24.170|||110000438458|80
01.11.2018 01:00:00||AKTİFBANK|10.40.24.170|||110000438458|100
01.11.2018 01:00:00||AKTİFBANK|10.40.24.170|||110000438458|72
01.11.2018 01:00:00||AKTİFBANK|10.40.25.178|||110000438458|590
01.11.2018 01:00:00||AKTİFBANK|10.40.25.178|||110000438458|560
01.11.2018 01:00:00||AKTİFBANK|10.40.25.178|||110000438458|550
01.11.2018 01:00:00||AKTİFBANK|10.40.24.178|||110000438458|565
01.11.2018 01:00:00||AKTİFBANK|10.40.24.178|||110000438458|550
01.11.2018 01:00:00||AKTİFBANK|10.40.24.178|||110000438458|543
01.11.2018 01:00:00||AKTİFBANK|10.40.25.179|||110000438458|400
01.11.2018 01:00:00||AKTİFBANK|10.40.25.179|||110000438458|368
01.11.2018 01:00:00||AKTİFBANK|10.40.25.179|||110000438458|367
01.11.2018 01:00:00||AKTİFBANK|10.40.24.179|||110000438458|320
01.11.2018 01:00:00||AKTİFBANK|10.40.24.179|||110000438458|330
01.11.2018 01:00:00||AKTİFBANK|10.40.24.179|||110000438458|320
01.11.2018 01:00:00||AKTİFBANK|10.40.24.142|||110000438458|40
01.11.2018 01:00:00||AKTİFBANK|10.40.24.156|||110000438458|50
01.11.2018 01:00:00||AKTİFBANK|10.40.24.156|||110000438458|50
01.11.2018 01:00:00||AKTİFBANK|10.40.25.186|||110000438458|90
01.11.2018 01:00:00||AKTİFBANK|10.40.25.186|||110000438458|20
01.11.2018 01:00:00||AKTİFBANK|10.40.25.186|||110000438458|70
01.11.2018 01:00:00||AKTİFBANK|10.40.24.186|||110000438458|90
01.11.2018 01:00:00||AKTİFBANK|10.40.24.186|||110000438458|30
01.11.2018 01:00:00||AKTİFBANK|10.40.24.186|||110000438458|58
01.11.2018 01:00:00||AKTİFBANK|10.40.24.186|||110000438458|40
01.11.2018 01:00:00||AKTİFBANK|10.40.24.152|||110000438458|10
01.11.2018 01:00:00||AKTİFBANK|10.40.24.152|||110000438458|50
01.11.2018 01:00:00||AKTİFBANK|10.40.24.152|||110000438458|87
01.11.2018 01:00:00||AKTİFBANK|10.40.24.152|||110000438458|103
01.11.2018 01:00:00||AKTİFBANK|10.40.24.152|||110000438458|100
01.11.2018 01:00:00||AKTİFBANK|10.40.24.152|||110000438458|103
01.11.2018 01:00:00||AKTİFBANK|10.40.24.152|||110000438458|362
01.11.2018 01:00:00||AKTİFBANK|10.40.24.152|||110000438458|77
01.11.2018 01:00:00||AKTİFBANK|10.40.24.152|||110000438458|90
01.11.2018 01:00:00||AKTİFBANK|10.40.24.152|||110000438458|30
01.11.2018 01:00:00||AKTİFBANK|10.40.24.152|||110000438458|72
01.11.2018 01:00:00||AKTİFBANK|10.40.24.152|||110000438458|30
01.11.2018 01:00:00||BARİKAT İNTERNET GÜVENLİĞİ|10.40.25.201|||110000479736|117
01.11.2018 01:00:00||BARİKAT İNTERNET GÜVENLİĞİ|10.40.25.201|||110000479736|100
01.11.2018 01:00:00||BARİKAT İNTERNET GÜVENLİĞİ|10.40.24.201|||110000479736|140
01.11.2018 01:00:00||BARİKAT İNTERNET GÜVENLİĞİ|10.40.24.201|||110000479736|100
01.11.2018 01:00:00||BOYNER|10.40.26.100|||101367941673|580
01.11.2018 01:00:00||BOYNER|10.40.26.101|||101367941673|1660
01.11.2018 01:00:00||BOYNER|10.40.27.100|||101367941673|520
01.11.2018 01:00:00||BOYNER|10.40.27.101|||101367941673|1650
01.11.2018 01:00:00||BOYNER|10.40.27.94|||101367941673|210
01.11.2018 01:00:00||BOYNER|10.40.27.94|||101367941673|90
01.11.2018 01:00:00||BOYNER|10.40.27.94|||101367941673|90
01.11.2018 01:00:00||BOYNER|10.40.27.94|||101367941673|100
01.11.2018 01:00:00||BOYNER|10.40.26.94|||101367941673|90
01.11.2018 01:00:00||BOYNER|10.40.26.94|||101367941673|80
01.11.2018 01:00:00||BOYNER|10.40.26.94|||101367941673|80
01.11.2018 01:00:00||BOYNER|10.40.27.95|||101367941673|140
01.11.2018 01:00:00||BOYNER|10.40.27.95|||101367941673|133
01.11.2018 01:00:00||BOYNER|10.40.27.95|||101367941673|247
01.11.2018 01:00:00||BOYNER|10.40.26.95|||101367941673|128
01.11.2018 01:00:00||BOYNER|10.40.26.95|||101367941673|202
01.11.2018 01:00:00||BOYNER|10.40.26.95|||101367941673|143
01.11.2018 01:00:00||BOYNER|10.40.27.96|||101367941673|60
01.11.2018 01:00:00||BOYNER|10.40.27.96|||101367941673|50
01.11.2018 01:00:00||BOYNER|10.40.27.96|||101367941673|50
01.11.2018 01:00:00||BOYNER|10.40.27.96|||101367941673|40
01.11.2018 01:00:00||BOYNER|10.40.27.96|||101367941673|40
01.11.2018 01:00:00||BOYNER|10.40.27.96|||101367941673|158
01.11.2018 01:00:00||BOYNER|10.40.27.96|||101367941673|155
01.11.2018 01:00:00||BOYNER|10.40.27.96|||101367941673|182
01.11.2018 01:00:00||BOYNER|10.40.27.96|||101367941673|165
01.11.2018 01:00:00||BOYNER|10.40.26.96|||101367941673|30
01.11.2018 01:00:00||BOYNER|10.40.26.96|||101367941673|40
01.11.2018 01:00:00||BOYNER|10.40.26.96|||101367941673|30
01.11.2018 01:00:00||BOYNER|10.40.26.96|||101367941673|40
01.11.2018 01:00:00||BOYNER|10.40.26.96|||101367941673|40
01.11.2018 01:00:00||BOYNER|10.40.26.96|||101367941673|50
01.11.2018 01:00:00||BOYNER|10.40.26.96|||101367941673|192
01.11.2018 01:00:00||BOYNER|10.40.26.96|||101367941673|200
01.11.2018 01:00:00||BOYNER|10.40.26.96|||101367941673|165
01.11.2018 01:00:00||BOYNER|10.40.26.96|||101367941673|182
01.11.2018 01:00:00||BOYNER|10.40.27.97|||101367941673|60
01.11.2018 01:00:00||BOYNER|10.40.27.97|||101367941673|680
01.11.2018 01:00:00||BOYNER|10.40.27.97|||101367941673|680
01.11.2018 01:00:00||BOYNER|10.40.27.97|||101367941673|710
01.11.2018 01:00:00||BOYNER|10.40.27.97|||101367941673|42
01.11.2018 01:00:00||BOYNER|10.40.27.97|||101367941673|32
01.11.2018 01:00:00||BOYNER|10.40.27.97|||101367941673|52
01.11.2018 01:00:00||BOYNER|10.40.27.97|||101367941673|30
01.11.2018 01:00:00||BOYNER|10.40.27.97|||101367941673|178
01.11.2018 01:00:00||BOYNER|10.40.27.97|||101367941673|180
01.11.2018 01:00:00||BOYNER|10.40.27.97|||101367941673|190
01.11.2018 01:00:00||BOYNER|10.40.27.97|||101367941673|197
01.11.2018 01:00:00||BOYNER|10.40.26.97|||101367941673|30
01.11.2018 01:00:00||BOYNER|10.40.26.97|||101367941673|682
01.11.2018 01:00:00||BOYNER|10.40.26.97|||101367941673|677
01.11.2018 01:00:00||BOYNER|10.40.26.97|||101367941673|678
01.11.2018 01:00:00||BOYNER|10.40.26.97|||101367941673|30
01.11.2018 01:00:00||BOYNER|10.40.26.97|||101367941673|40
01.11.2018 01:00:00||BOYNER|10.40.26.97|||101367941673|50
01.11.2018 01:00:00||BOYNER|10.40.26.97|||101367941673|60
01.11.2018 01:00:00||BOYNER|10.40.26.97|||101367941673|30
01.11.2018 01:00:00||BOYNER|10.40.26.97|||101367941673|165
01.11.2018 01:00:00||BOYNER|10.40.26.97|||101367941673|180
01.11.2018 01:00:00||BOYNER|10.40.26.97|||101367941673|178
01.11.2018 01:00:00||BOYNER|10.40.26.97|||101367941673|163
01.11.2018 01:00:00||BOYNER|10.40.27.99|||101367941673|130
01.11.2018 01:00:00||BOYNER|10.40.27.99|||101367941673|85
01.11.2018 01:00:00||BOYNER|10.40.27.99|||101367941673|82
01.11.2018 01:00:00||BOYNER|10.40.26.99|||101367941673|15
01.11.2018 01:00:00||BOYNER|10.40.26.99|||101367941673|113
01.11.2018 01:00:00||BOYNER|10.40.26.99|||101367941673|100
01.11.2018 01:00:00||BOYNER|10.40.26.99|||101367941673|77
01.11.2018 01:00:00||ÇALIK HOLDİNG|10.40.24.118|||110000438407|390
01.11.2018 01:00:00||ÇALIK HOLDİNG|10.40.25.99|||110000438407|1370
01.11.2018 01:00:00||ÇALIK HOLDİNG|10.40.25.118|||110000438407|2740
01.11.2018 01:00:00||ÇALIK HOLDİNG|10.40.25.120|||110000438407|90
01.11.2018 01:00:00||ÇALIK HOLDİNG|10.40.24.95|||110000438407|50
01.11.2018 01:00:00||ÇALIK HOLDİNG|10.40.25.97|||110000438407|80
01.11.2018 01:00:00||ÇALIK HOLDİNG|10.40.25.103|||110000438407|90
01.11.2018 01:00:00||ÇALIK HOLDİNG|10.40.25.120|||110000438407|40
01.11.2018 01:00:00||ÇALIK HOLDİNG|10.40.25.96|||110000438407|70
01.11.2018 01:00:00||ÇALIK HOLDİNG|10.40.25.96|||110000438407|90
01.11.2018 01:00:00||ÇALIK HOLDİNG|10.40.25.96|||110000438407|122
01.11.2018 01:00:00||ÇALIK HOLDİNG|10.40.25.96|||110000438407|90
01.11.2018 01:00:00||ÇALIK HOLDİNG|10.40.25.115|||110000438407|162
01.11.2018 01:00:00||ÇALIK HOLDİNG|10.40.25.115|||110000438407|72
01.11.2018 01:00:00||ÇALIK HOLDİNG|10.40.25.95|||110000438407|95
01.11.2018 01:00:00||ÇALIK HOLDİNG|10.40.25.96|||110000438407|90
01.11.2018 01:00:00||ÇALIK HOLDİNG|10.40.25.96|||110000438407|100
01.11.2018 01:00:00||ÇALIK HOLDİNG|10.40.25.120|||110000438407|20
01.11.2018 01:00:00||ÇALIK HOLDİNG|10.40.25.95|||110000438407|53
01.11.2018 01:00:00||ÇALIK HOLDİNG|10.40.24.94|||110000438407|187
01.11.2018 01:00:00||ÇALIK HOLDİNG|10.40.25.97|||110000438407|108
01.11.2018 01:00:00||ÇALIK HOLDİNG|10.40.25.120|||110000438407|60
01.11.2018 01:00:00||ÇALIK HOLDİNG|10.40.25.115|||110000438407|82
01.11.2018 01:00:00||ÇALIK HOLDİNG|10.40.25.115|||110000438407|70
01.11.2018 01:00:00||ÇALIK HOLDİNG|10.40.25.115|||110000438407|67
01.11.2018 01:00:00||ÇALIK HOLDİNG|10.40.25.101|||110000438407|50
01.11.2018 01:00:00||ÇALIK HOLDİNG|10.40.25.101|||110000438407|110
01.11.2018 01:00:00||ÇALIK HOLDİNG|10.40.25.101|||110000438407|30
01.11.2018 01:00:00||ÇALIK HOLDİNG|10.40.25.101|||110000438407|10
01.11.2018 01:00:00||ÇALIK HOLDİNG|10.40.25.101|||110000438407|90
01.11.2018 01:00:00||ÇALIK HOLDİNG|10.40.25.101|||110000438407|30
01.11.2018 01:00:00||ÇALIK HOLDİNG|10.40.25.101|||110000438407|40
01.11.2018 01:00:00||ÇALIK HOLDİNG|10.40.25.101|||110000438407|40
01.11.2018 01:00:00||ÇALIK HOLDİNG|10.40.25.101|||110000438407|90
01.11.2018 01:00:00||ÇALIK HOLDİNG|10.40.25.101|||110000438407|90
01.11.2018 01:00:00||ÇALIK HOLDİNG|10.40.25.101|||110000438407|90
01.11.2018 01:00:00||ÇALIK HOLDİNG|10.40.25.94|||110000438407|180
01.11.2018 01:00:00||ÇALIK HOLDİNG|10.40.25.94|||110000438407|180
01.11.2018 01:00:00||ÇALIK HOLDİNG|10.40.25.94|||110000438407|170
01.11.2018 01:00:00||ÇALIK HOLDİNG|10.40.25.94|||110000438407|180
01.11.2018 01:00:00||ÇALIK HOLDİNG|10.40.24.94|||110000438407|200
01.11.2018 01:00:00||ÇALIK HOLDİNG|10.40.24.94|||110000438407|200
01.11.2018 01:00:00||ÇALIK HOLDİNG|10.40.24.94|||110000438407|197
01.11.2018 01:00:00||ÇALIK HOLDİNG|10.40.25.95|||110000438407|20
01.11.2018 01:00:00||ÇALIK HOLDİNG|10.40.25.95|||110000438407|347
01.11.2018 01:00:00||ÇALIK HOLDİNG|10.40.25.95|||110000438407|352
01.11.2018 01:00:00||ÇALIK HOLDİNG|10.40.25.95|||110000438407|40
01.11.2018 01:00:00||ÇALIK HOLDİNG|10.40.24.95|||110000438407|102
01.11.2018 01:00:00||ÇALIK HOLDİNG|10.40.24.95|||110000438407|80
01.11.2018 01:00:00||ÇALIK HOLDİNG|10.40.24.95|||110000438407|390
01.11.2018 01:00:00||ÇALIK HOLDİNG|10.40.24.95|||110000438407|395
01.11.2018 01:00:00||ÇALIK HOLDİNG|10.40.25.96|||110000438407|90
01.11.2018 01:00:00||ÇALIK HOLDİNG|10.40.25.96|||110000438407|100
01.11.2018 01:00:00||ÇALIK HOLDİNG|10.40.25.96|||110000438407|102
01.11.2018 01:00:00||ÇALIK HOLDİNG|10.40.25.96|||110000438407|257
01.11.2018 01:00:00||ÇALIK HOLDİNG|10.40.25.96|||110000438407|263
01.11.2018 01:00:00||ÇALIK HOLDİNG|10.40.25.96|||110000438407|100
01.11.2018 01:00:00||ÇALIK HOLDİNG|10.40.25.96|||110000438407|90
01.11.2018 01:00:00||ÇALIK HOLDİNG|10.40.25.96|||110000438407|98
01.11.2018 01:00:00||ÇALIK HOLDİNG|10.40.25.97|||110000438407|90
01.11.2018 01:00:00||ÇALIK HOLDİNG|10.40.25.97|||110000438407|80
01.11.2018 01:00:00||ÇALIK HOLDİNG|10.40.25.97|||110000438407|300
01.11.2018 01:00:00||ÇALIK HOLDİNG|10.40.25.98|||110000438407|50
01.11.2018 01:00:00||ÇALIK HOLDİNG|10.40.25.98|||110000438407|162
01.11.2018 01:00:00||ÇALIK HOLDİNG|10.40.25.98|||110000438407|160
01.11.2018 01:00:00||ÇALIK HOLDİNG|10.40.25.98|||110000438407|165
01.11.2018 01:00:00||ÇALIK HOLDİNG|10.40.25.98|||110000438407|163
01.11.2018 01:00:00||ÇALIK HOLDİNG|10.40.25.98|||110000438407|62
01.11.2018 01:00:00||ÇALIK HOLDİNG|10.40.25.98|||110000438407|210
01.11.2018 01:00:00||ÇALIK HOLDİNG|10.40.25.98|||110000438407|180
01.11.2018 01:00:00||ÇALIK HOLDİNG|10.40.25.98|||110000438407|170
01.11.2018 01:00:00||ÇALIK HOLDİNG|10.40.25.98|||110000438407|210
01.11.2018 01:00:00||ÇALIK HOLDİNG|10.40.25.98|||110000438407|70
01.11.2018 01:00:00||ÇALIK HOLDİNG|10.40.25.98|||110000438407|308
01.11.2018 01:00:00||ÇALIK HOLDİNG|10.40.24.98|||110000438407|90
01.11.2018 01:00:00||ÇALIK HOLDİNG|10.40.24.98|||110000438407|155
01.11.2018 01:00:00||ÇALIK HOLDİNG|10.40.24.98|||110000438407|200
01.11.2018 01:00:00||ÇALIK HOLDİNG|10.40.24.98|||110000438407|200
01.11.2018 01:00:00||ÇALIK HOLDİNG|10.40.24.98|||110000438407|160
01.11.2018 01:00:00||ÇALIK HOLDİNG|10.40.24.98|||110000438407|30
01.11.2018 01:00:00||ÇALIK HOLDİNG|10.40.24.98|||110000438407|167
01.11.2018 01:00:00||ÇALIK HOLDİNG|10.40.24.98|||110000438407|180
01.11.2018 01:00:00||ÇALIK HOLDİNG|10.40.24.98|||110000438407|170
01.11.2018 01:00:00||ÇALIK HOLDİNG|10.40.24.98|||110000438407|172
01.11.2018 01:00:00||ÇALIK HOLDİNG|10.40.24.98|||110000438407|20
01.11.2018 01:00:00||ÇALIK HOLDİNG|10.40.24.98|||110000438407|282
01.11.2018 01:00:00||ÇALIK HOLDİNG|10.40.25.100|||110000438407|33
01.11.2018 01:00:00||ÇALIK HOLDİNG|10.40.25.100|||110000438407|40
01.11.2018 01:00:00||ÇALIK HOLDİNG|10.40.24.101|||110000438407|60
01.11.2018 01:00:00||ÇALIK HOLDİNG|10.40.24.101|||110000438407|110
01.11.2018 01:00:00||ÇALIK HOLDİNG|10.40.24.101|||110000438407|20
01.11.2018 01:00:00||ÇALIK HOLDİNG|10.40.24.101|||110000438407|20
01.11.2018 01:00:00||ÇALIK HOLDİNG|10.40.24.101|||110000438407|40
01.11.2018 01:00:00||ÇALIK HOLDİNG|10.40.24.101|||110000438407|87
01.11.2018 01:00:00||ÇALIK HOLDİNG|10.40.24.101|||110000438407|30
01.11.2018 01:00:00||ÇALIK HOLDİNG|10.40.24.101|||110000438407|10
01.11.2018 01:00:00||ÇALIK HOLDİNG|10.40.24.101|||110000438407|20
01.11.2018 01:00:00||ÇALIK HOLDİNG|10.40.24.101|||110000438407|50
01.11.2018 01:00:00||ÇALIK HOLDİNG|10.40.24.101|||110000438407|30
01.11.2018 01:00:00||ÇALIK HOLDİNG|10.40.24.101|||110000438407|80
01.11.2018 01:00:00||ÇALIK HOLDİNG|10.40.24.101|||110000438407|80
01.11.2018 01:00:00||ÇALIK HOLDİNG|10.40.24.101|||110000438407|90
01.11.2018 01:00:00||ÇALIK HOLDİNG|10.40.25.102|||110000438407|100
01.11.2018 01:00:00||ÇALIK HOLDİNG|10.40.25.102|||110000438407|90
01.11.2018 01:00:00||ÇALIK HOLDİNG|10.40.25.102|||110000438407|150
01.11.2018 01:00:00||ÇALIK HOLDİNG|10.40.24.102|||110000438407|100
01.11.2018 01:00:00||ÇALIK HOLDİNG|10.40.24.102|||110000438407|90
01.11.2018 01:00:00||ÇALIK HOLDİNG|10.40.24.102|||110000438407|140
01.11.2018 01:00:00||ÇALIK HOLDİNG|10.40.25.103|||110000438407|90
01.11.2018 01:00:00||ÇALIK HOLDİNG|10.40.25.103|||110000438407|80
01.11.2018 01:00:00||ÇALIK HOLDİNG|10.40.25.103|||110000438407|10
01.11.2018 01:00:00||ÇALIK HOLDİNG|10.40.25.115|||110000438407|83
01.11.2018 01:00:00||ÇALIK HOLDİNG|10.40.24.103|||110000438407|97
01.11.2018 01:00:00||ÇALIK HOLDİNG|10.40.24.103|||110000438407|80
01.11.2018 01:00:00||ÇALIK HOLDİNG|10.40.24.103|||110000438407|80
01.11.2018 01:00:00||ÇALIK HOLDİNG|10.40.24.103|||110000438407|20
01.11.2018 01:00:00||ÇALIK HOLDİNG|10.40.24.103|||110000438407|10
01.11.2018 01:00:00||ÇALIK HOLDİNG|10.40.25.113|||110000438407|225
01.11.2018 01:00:00||ÇALIK HOLDİNG|10.40.25.113|||110000438407|242
01.11.2018 01:00:00||ÇALIK HOLDİNG|10.40.25.113|||110000438407|193
01.11.2018 01:00:00||ÇALIK HOLDİNG|10.40.25.113|||110000438407|207
01.11.2018 01:00:00||ÇALIK HOLDİNG|10.40.24.113|||110000438407|237
01.11.2018 01:00:00||ÇALIK HOLDİNG|10.40.24.113|||110000438407|232
01.11.2018 01:00:00||ÇALIK HOLDİNG|10.40.24.113|||110000438407|193
01.11.2018 01:00:00||ÇALIK HOLDİNG|10.40.24.113|||110000438407|158
01.11.2018 01:00:00||ÇALIK HOLDİNG|10.40.25.114|||110000438407|145
01.11.2018 01:00:00||ÇALIK HOLDİNG|10.40.25.114|||110000438407|412
01.11.2018 01:00:00||ÇALIK HOLDİNG|10.40.25.114|||110000438407|40
01.11.2018 01:00:00||ÇALIK HOLDİNG|10.40.24.114|||110000438407|20
01.11.2018 01:00:00||ÇALIK HOLDİNG|10.40.24.114|||110000438407|40
01.11.2018 01:00:00||ÇALIK HOLDİNG|10.40.24.114|||110000438407|155
01.11.2018 01:00:00||ÇALIK HOLDİNG|10.40.24.114|||110000438407|377
01.11.2018 01:00:00||ÇALIK HOLDİNG|10.40.24.115|||110000438407|170
01.11.2018 01:00:00||ÇALIK HOLDİNG|10.40.24.115|||110000438407|80
01.11.2018 01:00:00||ÇALIK HOLDİNG|10.40.24.115|||110000438407|90
01.11.2018 01:00:00||ÇALIK HOLDİNG|10.40.24.115|||110000438407|80
01.11.2018 01:00:00||ÇALIK HOLDİNG|10.40.24.115|||110000438407|90
01.11.2018 01:00:00||ÇALIK HOLDİNG|10.40.24.115|||110000438407|70
01.11.2018 01:00:00||ÇALIK HOLDİNG|10.40.25.116|||110000438407|105
01.11.2018 01:00:00||ÇALIK HOLDİNG|10.40.25.116|||110000438407|103
01.11.2018 01:00:00||ÇALIK HOLDİNG|10.40.25.116|||110000438407|303
01.11.2018 01:00:00||ÇALIK HOLDİNG|10.40.24.116|||110000438407|280
01.11.2018 01:00:00||ÇALIK HOLDİNG|10.40.24.116|||110000438407|100
01.11.2018 01:00:00||ÇALIK HOLDİNG|10.40.24.116|||110000438407|100
01.11.2018 01:00:00||ÇALIK HOLDİNG|10.40.25.117|||110000438407|250
01.11.2018 01:00:00||ÇALIK HOLDİNG|10.40.25.117|||110000438407|30
01.11.2018 01:00:00||ÇALIK HOLDİNG|10.40.25.117|||110000438407|27
01.11.2018 01:00:00||ÇALIK HOLDİNG|10.40.25.119|||110000438407|30
01.11.2018 01:00:00||ÇALIK HOLDİNG|10.40.25.119|||110000438407|30
01.11.2018 01:00:00||ÇALIK HOLDİNG|10.40.24.119|||110000438407|150
01.11.2018 01:00:00||ÇALIK HOLDİNG|10.40.24.119|||110000438407|30
01.11.2018 01:00:00||ÇALIK HOLDİNG|10.40.24.119|||110000438407|50
01.11.2018 01:00:00||ÇALIK HOLDİNG|10.40.25.120|||110000438407|107
01.11.2018 01:00:00||ÇALIK HOLDİNG|10.40.25.120|||110000438407|50
01.11.2018 01:00:00||ÇALIK HOLDİNG|10.40.25.120|||110000438407|20
01.11.2018 01:00:00||ÇALIK HOLDİNG|10.40.25.120|||110000438407|20
01.11.2018 01:00:00||ÇALIK HOLDİNG|10.40.25.120|||110000438407|30
01.11.2018 01:00:00||ÇALIK HOLDİNG|10.40.25.120|||110000438407|90
01.11.2018 01:00:00||ÇALIK HOLDİNG|10.40.25.120|||110000438407|90
01.11.2018 01:00:00||ÇALIK HOLDİNG|10.40.24.120|||110000438407|20
01.11.2018 01:00:00||ÇALIK HOLDİNG|10.40.24.120|||110000438407|33
01.11.2018 01:00:00||ÇALIK HOLDİNG|10.40.24.120|||110000438407|110
01.11.2018 01:00:00||ÇALIK HOLDİNG|10.40.24.120|||110000438407|100
01.11.2018 01:00:00||ÇALIK HOLDİNG|10.40.24.120|||110000438407|40
01.11.2018 01:00:00||ÇALIK HOLDİNG|10.40.24.120|||110000438407|80
01.11.2018 01:00:00||ÇALIK HOLDİNG|10.40.24.120|||110000438407|80
01.11.2018 01:00:00||ÇALIK HOLDİNG|10.40.24.120|||110000438407|70
01.11.2018 01:00:00||ÇALIK HOLDİNG|10.40.25.121|||110000438407|92
01.11.2018 01:00:00||ÇALIK HOLDİNG|10.40.25.121|||110000438407|100
01.11.2018 01:00:00||ÇALIK HOLDİNG|10.40.25.121|||110000438407|150
01.11.2018 01:00:00||ÇALIK HOLDİNG|10.40.24.121|||110000438407|100
01.11.2018 01:00:00||ÇALIK HOLDİNG|10.40.24.121|||110000438407|100
01.11.2018 01:00:00||ÇALIK HOLDİNG|10.40.24.121|||110000438407|140
01.11.2018 01:00:00||ÇALIK HOLDİNG|10.40.25.122|||110000438407|90
01.11.2018 01:00:00||ÇALIK HOLDİNG|10.40.25.122|||110000438407|82
01.11.2018 01:00:00||ÇALIK HOLDİNG|10.40.25.122|||110000438407|80
01.11.2018 01:00:00||ÇALIK HOLDİNG|10.40.25.122|||110000438407|30
01.11.2018 01:00:00||ÇALIK HOLDİNG|10.40.25.122|||110000438407|10
01.11.2018 01:00:00||ÇALIK HOLDİNG|10.40.24.122|||110000438407|90
01.11.2018 01:00:00||ÇALIK HOLDİNG|10.40.24.122|||110000438407|80
01.11.2018 01:00:00||ÇALIK HOLDİNG|10.40.24.122|||110000438407|88
01.11.2018 01:00:00||ÇALIK HOLDİNG|10.40.24.117|||110000438407|200
01.11.2018 01:00:00||ÇALIK HOLDİNG|10.40.24.117|||110000438407|30
01.11.2018 01:00:00||ÇALIK HOLDİNG|10.40.24.117|||110000438407|30
01.11.2018 01:00:00||ÇALIK HOLDİNG|10.40.24.97|||110000438407|103
01.11.2018 01:00:00||ÇALIK HOLDİNG|10.40.24.97|||110000438407|90
01.11.2018 01:00:00||ÇALIK HOLDİNG|10.40.24.97|||110000438407|80
01.11.2018 01:00:00||ÇALIK HOLDİNG|10.40.24.97|||110000438407|90
01.11.2018 01:00:00||ÇALIK HOLDİNG|10.40.24.97|||110000438407|318
01.11.2018 01:00:00||ÇALIK HOLDİNG|10.40.24.100|||110000438407|30
01.11.2018 01:00:00||ÇALIK HOLDİNG|10.40.24.100|||110000438407|40
01.11.2018 01:00:00||FIBABANKA|10.40.27.54|||101571767266|3100
01.11.2018 01:00:00||FIBABANKA|10.40.26.54|||101571767266|3150
01.11.2018 01:00:00||FIBABANKA|10.40.27.55|||101571767266|1020
01.11.2018 01:00:00||FIBABANKA|10.40.26.55|||101571767266|1040
01.11.2018 01:00:00||FIBABANKA|10.40.24.55|||101571767266|1110
01.11.2018 01:00:00||FIBABANKA|10.40.25.56|||101571767266|1970
01.11.2018 01:00:00||FIBABANKA|10.40.25.54|||101571767266|3300
01.11.2018 01:00:00||FIBABANKA|10.40.24.54|||101571767266|3150
01.11.2018 01:00:00||FIBABANKA|10.40.25.55|||101571767266|1110
01.11.2018 01:00:00||FIBABANKA|10.40.24.56|||101571767266|1980
01.11.2018 01:00:00||FIBABANKA|10.40.26.53|||101571767266|45
01.11.2018 01:00:00||FIBABANKA|10.40.26.53|||101571767266|167
01.11.2018 01:00:00||FIBABANKA|10.40.25.57|||101571767266|90
01.11.2018 01:00:00||FIBABANKA|10.40.27.60|||101571767266|50
01.11.2018 01:00:00||FIBABANKA|10.40.25.76|||101571767266|10
01.11.2018 01:00:00||FIBABANKA|10.40.27.53|||101571767266|175
01.11.2018 01:00:00||FIBABANKA|10.40.27.53|||101571767266|175
01.11.2018 01:00:00||FIBABANKA|10.40.26.53|||101571767266|162
01.11.2018 01:00:00||FIBABANKA|10.40.27.57|||101571767266|83
01.11.2018 01:00:00||FIBABANKA|10.40.27.57|||101571767266|80
01.11.2018 01:00:00||FIBABANKA|10.40.27.57|||101571767266|80
01.11.2018 01:00:00||FIBABANKA|10.40.26.60|||101571767266|10
01.11.2018 01:00:00||FIBABANKA|10.40.25.57|||101571767266|90
01.11.2018 01:00:00||FIBABANKA|10.40.25.57|||101571767266|82
01.11.2018 01:00:00||FIBABANKA|10.40.25.57|||101571767266|90
01.11.2018 01:00:00||FIBABANKA|10.40.25.57|||101571767266|90
01.11.2018 01:00:00||FIBABANKA|10.40.25.57|||101571767266|60
01.11.2018 01:00:00||FIBABANKA|10.40.25.57|||101571767266|100
01.11.2018 01:00:00||FIBABANKA|10.40.25.57|||101571767266|80
01.11.2018 01:00:00||FIBABANKA|10.40.24.57|||101571767266|97
01.11.2018 01:00:00||FIBABANKA|10.40.24.57|||101571767266|70
01.11.2018 01:00:00||FIBABANKA|10.40.24.57|||101571767266|65
01.11.2018 01:00:00||FIBABANKA|10.40.26.51|||101571767266|20
01.11.2018 01:00:00||FIBABANKA|10.40.27.52|||101571767266|50
01.11.2018 01:00:00||FIBABANKA|10.40.27.52|||101571767266|60
01.11.2018 01:00:00||FIBABANKA|10.40.27.52|||101571767266|70
01.11.2018 01:00:00||FIBABANKA|10.40.27.73|||101571767266|10
01.11.2018 01:00:00||FIBABANKA|10.40.27.74|||101571767266|175
01.11.2018 01:00:00||FIBABANKA|10.40.27.60|||101571767266|100
01.11.2018 01:00:00||FIBABANKA|10.40.26.60|||101571767266|117
01.11.2018 01:00:00||FIBABANKA|10.40.26.60|||101571767266|150
01.11.2018 01:00:00||FIBABANKA|10.40.26.60|||101571767266|27
01.11.2018 01:00:00||FIBABANKA|10.40.25.53|||101571767266|30
01.11.2018 01:00:00||FIBABANKA|10.40.25.53|||101571767266|48
01.11.2018 01:00:00||FIBABANKA|10.40.27.60|||101571767266|50
01.11.2018 01:00:00||FIBABANKA|10.40.27.60|||101571767266|220
01.11.2018 01:00:00||FIBABANKA|10.40.27.60|||101571767266|242
01.11.2018 01:00:00||FIBABANKA|10.40.27.60|||101571767266|42
01.11.2018 01:00:00||FIBABANKA|10.40.27.60|||101571767266|160
01.11.2018 01:00:00||FIBABANKA|10.40.27.60|||101571767266|10
01.11.2018 01:00:00||FIBABANKA|10.40.27.53|||101571767266|60
01.11.2018 01:00:00||FIBABANKA|10.40.26.53|||101571767266|77
01.11.2018 01:00:00||FIBABANKA|10.40.26.53|||101571767266|60
01.11.2018 01:00:00||FIBABANKA|10.40.27.57|||101571767266|80
01.11.2018 01:00:00||FIBABANKA|10.40.25.51|||101571767266|20
01.11.2018 01:00:00||FIBABANKA|10.40.25.51|||101571767266|110
01.11.2018 01:00:00||FIBABANKA|10.40.24.51|||101571767266|20
01.11.2018 01:00:00||FIBABANKA|10.40.24.51|||101571767266|70
01.11.2018 01:00:00||FIBABANKA|10.40.24.51|||101571767266|100
01.11.2018 01:00:00||FIBABANKA|10.40.24.51|||101571767266|140
01.11.2018 01:00:00||FIBABANKA|10.40.24.51|||101571767266|30
01.11.2018 01:00:00||FIBABANKA|10.40.24.57|||101571767266|70
01.11.2018 01:00:00||FIBABANKA|10.40.24.57|||101571767266|90
01.11.2018 01:00:00||FIBABANKA|10.40.24.57|||101571767266|80
01.11.2018 01:00:00||FIBABANKA|10.40.24.57|||101571767266|80
01.11.2018 01:00:00||FIBABANKA|10.40.24.57|||101571767266|72
01.11.2018 01:00:00||FIBABANKA|10.40.24.52|||101571767266|30
01.11.2018 01:00:00||FIBABANKA|10.40.24.52|||101571767266|40
01.11.2018 01:00:00||FIBABANKA|10.40.24.52|||101571767266|10
01.11.2018 01:00:00||FIBABANKA|10.40.26.73|||101571767266|40
01.11.2018 01:00:00||FIBABANKA|10.40.27.53|||101571767266|70
01.11.2018 01:00:00||FIBABANKA|10.40.26.51|||101571767266|70
01.11.2018 01:00:00||FIBABANKA|10.40.27.60|||101571767266|100
01.11.2018 01:00:00||FIBABANKA|10.40.27.60|||101571767266|110
01.11.2018 01:00:00||FIBABANKA|10.40.26.52|||101571767266|30
01.11.2018 01:00:00||FIBABANKA|10.40.26.52|||101571767266|90
01.11.2018 01:00:00||FIBABANKA|10.40.26.52|||101571767266|30
01.11.2018 01:00:00||FIBABANKA|10.40.26.60|||101571767266|10
01.11.2018 01:00:00||FIBABANKA|10.40.26.60|||101571767266|112
01.11.2018 01:00:00||FIBABANKA|10.40.26.60|||101571767266|120
01.11.2018 01:00:00||FIBABANKA|10.40.26.60|||101571767266|238
01.11.2018 01:00:00||FIBABANKA|10.40.25.51|||101571767266|140
01.11.2018 01:00:00||FIBABANKA|10.40.25.51|||101571767266|40
01.11.2018 01:00:00||FIBABANKA|10.40.25.51|||101571767266|40
01.11.2018 01:00:00||FIBABANKA|10.40.25.51|||101571767266|72
01.11.2018 01:00:00||FIBABANKA|10.40.24.51|||101571767266|30
01.11.2018 01:00:00||FIBABANKA|10.40.25.59|||101571767266|70
01.11.2018 01:00:00||FIBABANKA|10.40.25.59|||101571767266|90
01.11.2018 01:00:00||FIBABANKA|10.40.25.59|||101571767266|90
01.11.2018 01:00:00||FIBABANKA|10.40.25.59|||101571767266|40
01.11.2018 01:00:00||FIBABANKA|10.40.25.59|||101571767266|120
01.11.2018 01:00:00||FIBABANKA|10.40.25.59|||101571767266|60
01.11.2018 01:00:00||FIBABANKA|10.40.25.59|||101571767266|50
01.11.2018 01:00:00||FIBABANKA|10.40.25.59|||101571767266|140
01.11.2018 01:00:00||FIBABANKA|10.40.25.59|||101571767266|50
01.11.2018 01:00:00||FIBABANKA|10.40.24.59|||101571767266|70
01.11.2018 01:00:00||FIBABANKA|10.40.24.59|||101571767266|120
01.11.2018 01:00:00||FIBABANKA|10.40.24.59|||101571767266|80
01.11.2018 01:00:00||FIBABANKA|10.40.24.59|||101571767266|65
01.11.2018 01:00:00||FIBABANKA|10.40.24.59|||101571767266|50
01.11.2018 01:00:00||FIBABANKA|10.40.24.59|||101571767266|130
01.11.2018 01:00:00||FIBABANKA|10.40.24.59|||101571767266|70
01.11.2018 01:00:00||FIBABANKA|10.40.24.59|||101571767266|60
01.11.2018 01:00:00||FIBABANKA|10.40.24.59|||101571767266|140
01.11.2018 01:00:00||FIBABANKA|10.40.24.59|||101571767266|60
01.11.2018 01:00:00||FIBABANKA|10.40.25.60|||101571767266|102
01.11.2018 01:00:00||FIBABANKA|10.40.25.60|||101571767266|38
01.11.2018 01:00:00||FIBABANKA|10.40.25.60|||101571767266|110
01.11.2018 01:00:00||FIBABANKA|10.40.25.60|||101571767266|40
01.11.2018 01:00:00||FIBABANKA|10.40.24.60|||101571767266|110
01.11.2018 01:00:00||FIBABANKA|10.40.24.60|||101571767266|57
01.11.2018 01:00:00||FIBABANKA|10.40.24.60|||101571767266|40
01.11.2018 01:00:00||FIBABANKA|10.40.24.60|||101571767266|100
01.11.2018 01:00:00||FIBABANKA|10.40.24.60|||101571767266|50
01.11.2018 01:00:00||FIBABANKA|10.40.25.72|||101571767266|70
01.11.2018 01:00:00||FIBABANKA|10.40.25.72|||101571767266|40
01.11.2018 01:00:00||FIBABANKA|10.40.25.72|||101571767266|30
01.11.2018 01:00:00||FIBABANKA|10.40.24.72|||101571767266|140
01.11.2018 01:00:00||FIBABANKA|10.40.24.72|||101571767266|75
01.11.2018 01:00:00||FIBABANKA|10.40.24.72|||101571767266|30
01.11.2018 01:00:00||FIBABANKA|10.40.24.72|||101571767266|40
01.11.2018 01:00:00||FIBABANKA|10.40.25.74|||101571767266|30
01.11.2018 01:00:00||FIBABANKA|10.40.25.75|||101571767266|43
01.11.2018 01:00:00||FIBABANKA|10.40.25.75|||101571767266|83
01.11.2018 01:00:00||FIBABANKA|10.40.25.75|||101571767266|135
01.11.2018 01:00:00||FIBABANKA|10.40.25.75|||101571767266|173
01.11.2018 01:00:00||FIBABANKA|10.40.25.75|||101571767266|182
01.11.2018 01:00:00||FIBABANKA|10.40.25.75|||101571767266|205
01.11.2018 01:00:00||FIBABANKA|10.40.24.75|||101571767266|50
01.11.2018 01:00:00||FIBABANKA|10.40.24.75|||101571767266|48
01.11.2018 01:00:00||FIBABANKA|10.40.24.75|||101571767266|108
01.11.2018 01:00:00||FIBABANKA|10.40.24.75|||101571767266|167
01.11.2018 01:00:00||FIBABANKA|10.40.24.75|||101571767266|152
01.11.2018 01:00:00||FIBABANKA|10.40.24.76|||101571767266|37
01.11.2018 01:00:00||FIBABANKA|10.40.24.76|||101571767266|70
01.11.2018 01:00:00||FIBABANKA|10.40.24.76|||101571767266|20
01.11.2018 01:00:00||FIBABANKA|10.40.24.76|||101571767266|40
01.11.2018 01:00:00||FIBABANKA|10.40.24.76|||101571767266|10
01.11.2018 01:00:00||FIBABANKA|10.40.25.77|||101571767266|63
01.11.2018 01:00:00||FIBABANKA|10.40.25.77|||101571767266|42
01.11.2018 01:00:00||FIBABANKA|10.40.24.77|||101571767266|45
01.11.2018 01:00:00||FIBABANKA|10.40.24.77|||101571767266|32
01.11.2018 01:00:00||FIBABANKA|10.40.24.53|||101571767266|30
01.11.2018 01:00:00||FIBABANKA|10.40.24.53|||101571767266|60
01.11.2018 01:00:00||FIBABANKA|10.40.26.57|||101571767266|90
01.11.2018 01:00:00||FIBABANKA|10.40.26.57|||101571767266|82
01.11.2018 01:00:00||FIBABANKA|10.40.26.57|||101571767266|80
01.11.2018 01:00:00||FIBABANKA|10.40.26.57|||101571767266|70
01.11.2018 01:00:00||FIBABANKA|10.40.26.57|||101571767266|70
01.11.2018 01:00:00||FIBABANKA|10.40.27.72|||101571767266|40
01.11.2018 01:00:00||FIBABANKA|10.40.27.72|||101571767266|50
01.11.2018 01:00:00||FIBABANKA|10.40.27.72|||101571767266|40
01.11.2018 01:00:00||FIBABANKA|10.40.27.72|||101571767266|140
01.11.2018 01:00:00||FIBABANKA|10.40.27.72|||101571767266|62
01.11.2018 01:00:00||FIBABANKA|10.40.26.72|||101571767266|30
01.11.2018 01:00:00||FIBABANKA|10.40.26.72|||101571767266|140
01.11.2018 01:00:00||FIBABANKA|10.40.26.72|||101571767266|70
01.11.2018 01:00:00||FIBABANKA|10.40.26.72|||101571767266|30
01.11.2018 01:00:00||FIBABANKA|10.40.27.73|||101571767266|30
01.11.2018 01:00:00||FIBABANKA|10.40.27.73|||101571767266|100
01.11.2018 01:00:00||FIBABANKA|10.40.27.73|||101571767266|40
01.11.2018 01:00:00||FIBABANKA|10.40.27.73|||101571767266|42
01.11.2018 01:00:00||FIBABANKA|10.40.27.73|||101571767266|355
01.11.2018 01:00:00||FIBABANKA|10.40.26.73|||101571767266|40
01.11.2018 01:00:00||FIBABANKA|10.40.26.73|||101571767266|70
01.11.2018 01:00:00||FIBABANKA|10.40.26.73|||101571767266|32
01.11.2018 01:00:00||FIBABANKA|10.40.26.73|||101571767266|8
01.11.2018 01:00:00||FIBABANKA|10.40.27.74|||101571767266|70
01.11.2018 01:00:00||FIBABANKA|10.40.27.74|||101571767266|170
01.11.2018 01:00:00||FIBABANKA|10.40.27.74|||101571767266|177
01.11.2018 01:00:00||FIBABANKA|10.40.26.74|||101571767266|70
01.11.2018 01:00:00||FIBABANKA|10.40.26.74|||101571767266|195
01.11.2018 01:00:00||FIBABANKA|10.40.26.74|||101571767266|183
01.11.2018 01:00:00||FIBABANKA|10.40.26.74|||101571767266|183
01.11.2018 01:00:00||FIBABANKA|10.40.27.75|||101571767266|10
01.11.2018 01:00:00||FIBABANKA|10.40.27.75|||101571767266|10
01.11.2018 01:00:00||FIBABANKA|10.40.27.75|||101571767266|60
01.11.2018 01:00:00||FIBABANKA|10.40.26.75|||101571767266|10
01.11.2018 01:00:00||FIBABANKA|10.40.27.76|||101571767266|93
01.11.2018 01:00:00||FIBABANKA|10.40.26.76|||101571767266|102
01.11.2018 01:00:00||FIBABANKA|10.40.26.79|||101571767266|10
01.11.2018 01:00:00||FIBABANKA|10.40.27.79|||101571767266|10
01.11.2018 01:00:00||FIBABANKA|10.40.27.79|||101571767266|10
01.11.2018 01:00:00||FIBABANKA|10.40.26.79|||101571767266|10
01.11.2018 01:00:00||FIBABANKA|10.40.27.77|||101571767266|53
01.11.2018 01:00:00||FIBABANKA|10.40.27.77|||101571767266|33
01.11.2018 01:00:00||FIBABANKA|10.40.27.77|||101571767266|157
01.11.2018 01:00:00||FIBABANKA|10.40.26.77|||101571767266|43
01.11.2018 01:00:00||FIBABANKA|10.40.26.77|||101571767266|50
01.11.2018 01:00:00||FIBABANKA|10.40.26.77|||101571767266|170
01.11.2018 01:00:00||FIBABANKA|10.40.26.77|||101571767266|198
01.11.2018 01:00:00||FIBABANKA|10.40.26.77|||101571767266|70
01.11.2018 01:00:00||FIBABANKA|10.40.26.77|||101571767266|87
01.11.2018 01:00:00||FIBABANKA|10.40.26.77|||101571767266|182
01.11.2018 01:00:00||FIBABANKA|10.40.26.77|||101571767266|178
01.11.2018 01:00:00||FIBABANKA|10.40.27.77|||101571767266|55
01.11.2018 01:00:00||FIBABANKA|10.40.27.77|||101571767266|30
01.11.2018 01:00:00||FIBABANKA|10.40.27.77|||101571767266|158
01.11.2018 01:00:00||FIBABANKA|10.40.27.57|||101571767266|78
01.11.2018 01:00:00||FIBABANKA|10.40.26.60|||101571767266|227
01.11.2018 01:00:00||FIBABANKA|10.40.25.74|||101571767266|230
01.11.2018 01:00:00||FIBABANKA|10.40.24.75|||101571767266|182
01.11.2018 01:00:00||FIBABANKA|10.40.24.75|||101571767266|142
01.11.2018 01:00:00||FIBABANKA|10.40.24.53|||101571767266|180
01.11.2018 01:00:00||FIBABANKA|10.40.24.53|||101571767266|190
01.11.2018 01:00:00||FIBABANKA|10.40.25.52|||101571767266|10
01.11.2018 01:00:00||FIBABANKA|10.40.25.52|||101571767266|50
01.11.2018 01:00:00||FIBABANKA|10.40.25.52|||101571767266|73
01.11.2018 01:00:00||FIBABANKA|10.40.25.53|||101571767266|170
01.11.2018 01:00:00||FIBABANKA|10.40.25.53|||101571767266|157
01.11.2018 01:00:00||FIBABANKA|10.40.27.51|||101571767266|30
01.11.2018 01:00:00||FIBABANKA|10.40.27.51|||101571767266|20
01.11.2018 01:00:00||FIBABANKA|10.40.27.51|||101571767266|102
01.11.2018 01:00:00||FIBABANKA|10.40.27.51|||101571767266|140
01.11.2018 01:00:00||FIBABANKA|10.40.27.51|||101571767266|70
01.11.2018 01:00:00||FIBABANKA|10.40.27.51|||101571767266|40
01.11.2018 01:00:00||FIBABANKA|10.40.27.51|||101571767266|40
01.11.2018 01:00:00||FIBABANKA|10.40.26.51|||101571767266|10
01.11.2018 01:00:00||FIBABANKA|10.40.26.51|||101571767266|110
01.11.2018 01:00:00||FIBABANKA|10.40.26.51|||101571767266|130
01.11.2018 01:00:00||FIBABANKA|10.40.26.51|||101571767266|30
01.11.2018 01:00:00||FIBABANKA|10.40.26.51|||101571767266|30
01.11.2018 01:00:00||FIBABANKA|10.40.24.74|||101571767266|32
01.11.2018 01:00:00||FIBABANKA|10.40.25.76|||101571767266|60
01.11.2018 01:00:00||FIBABANKA|10.40.25.76|||101571767266|40
01.11.2018 01:00:00||FIBABANKA|10.40.25.76|||101571767266|10
01.11.2018 01:00:00||FIBABANKA|10.40.25.52|||101571767266|40
01.11.2018 01:00:00||FIBABANKA|10.40.25.52|||101571767266|30
01.11.2018 01:00:00||HAVAŞ|10.40.24.46|||110000479675|10
01.11.2018 01:00:00||HAVAŞ|10.40.24.48|||110000479675|768
01.11.2018 01:00:00||HAVAŞ|10.40.24.48|||110000479675|748
01.11.2018 01:00:00||HAVAŞ|10.40.25.48|||110000479675|753
01.11.2018 01:00:00||HAVAŞ|10.40.24.45|||110000479675|70
01.11.2018 01:00:00||HAVAŞ|10.40.25.45|||110000479675|67
01.11.2018 01:00:00||HAVAŞ|10.40.25.47|||110000479675|70
01.11.2018 01:00:00||HAVAŞ|10.40.24.46|||110000479675|80
01.11.2018 01:00:00||HAVAŞ|10.40.24.47|||110000479675|30
01.11.2018 01:00:00||HAVAŞ|10.40.24.47|||110000479675|98
01.11.2018 01:00:00||HAVAŞ|10.40.24.47|||110000479675|90
01.11.2018 01:00:00||HAVAŞ|10.40.25.46|||110000479675|10
01.11.2018 01:00:00||HAVAŞ|10.40.25.46|||110000479675|60
01.11.2018 01:00:00||HAVAŞ|10.40.24.48|||110000479675|750
01.11.2018 01:00:00||HAVAŞ|10.40.24.46|||110000479675|60
01.11.2018 01:00:00||HAVAŞ|10.40.24.46|||110000479675|70
01.11.2018 01:00:00||HAVAŞ|10.40.24.47|||110000479675|10
01.11.2018 01:00:00||HAVAŞ|10.40.25.48|||110000479675|738
01.11.2018 01:00:00||HAVAŞ|10.40.25.48|||110000479675|775
01.11.2018 01:00:00||HAVAŞ|10.40.25.45|||110000479675|95
01.11.2018 01:00:00||HAVAŞ|10.40.24.45|||110000479675|50
01.11.2018 01:00:00||HAVAŞ|10.40.24.45|||110000479675|170
01.11.2018 01:00:00||HAVAŞ|10.40.24.45|||110000479675|100
01.11.2018 01:00:00||HAVAŞ|10.40.25.47|||110000479675|70
01.11.2018 01:00:00||HAVAŞ|10.40.25.47|||110000479675|227
01.11.2018 01:00:00||HAVAŞ|10.40.25.47|||110000479675|60
01.11.2018 01:00:00||HAVAŞ|10.40.25.47|||110000479675|90
01.11.2018 01:00:00||HAVAŞ|10.40.25.47|||110000479675|90
01.11.2018 01:00:00||HAVAŞ|10.40.25.47|||110000479675|97
01.11.2018 01:00:00||HAVAŞ|10.40.25.47|||110000479675|125
01.11.2018 01:00:00||HAVAŞ|10.40.25.47|||110000479675|180
01.11.2018 01:00:00||HAVAŞ|10.40.25.47|||110000479675|90
01.11.2018 01:00:00||HAVAŞ|10.40.25.47|||110000479675|92
01.11.2018 01:00:00||HAVAŞ|10.40.25.47|||110000479675|93
01.11.2018 01:00:00||HAVAŞ|10.40.25.45|||110000479675|98
01.11.2018 01:00:00||HAVAŞ|10.40.25.45|||110000479675|90
01.11.2018 01:00:00||HAVAŞ|10.40.25.46|||110000479675|10
01.11.2018 01:00:00||HAVAŞ|10.40.25.46|||110000479675|10
01.11.2018 01:00:00||HAVAŞ|10.40.25.46|||110000479675|20
01.11.2018 01:00:00||HAVAŞ|10.40.25.46|||110000479675|20
01.11.2018 01:00:00||HAVAŞ|10.40.25.46|||110000479675|50
01.11.2018 01:00:00||HAVAŞ|10.40.25.46|||110000479675|100
01.11.2018 01:00:00||HAVAŞ|10.40.25.46|||110000479675|62
01.11.2018 01:00:00||HAVAŞ|10.40.25.46|||110000479675|80
01.11.2018 01:00:00||HAVAŞ|10.40.25.46|||110000479675|70
01.11.2018 01:00:00||HAVAŞ|10.40.24.46|||110000479675|20
01.11.2018 01:00:00||HAVAŞ|10.40.24.46|||110000479675|20
01.11.2018 01:00:00||HAVAŞ|10.40.24.46|||110000479675|2
01.11.2018 01:00:00||HAVAŞ|10.40.24.46|||110000479675|10
01.11.2018 01:00:00||HAVAŞ|10.40.24.46|||110000479675|10
01.11.2018 01:00:00||HAVAŞ|10.40.24.46|||110000479675|10
01.11.2018 01:00:00||HAVAŞ|10.40.24.46|||110000479675|60
01.11.2018 01:00:00||HAVAŞ|10.40.24.46|||110000479675|110
01.11.2018 01:00:00||HAVAŞ|10.40.24.47|||110000479675|30
01.11.2018 01:00:00||HAVAŞ|10.40.24.47|||110000479675|225
01.11.2018 01:00:00||HAVAŞ|10.40.24.47|||110000479675|60
01.11.2018 01:00:00||HAVAŞ|10.40.24.47|||110000479675|60
01.11.2018 01:00:00||HAVAŞ|10.40.24.47|||110000479675|152
01.11.2018 01:00:00||HAVAŞ|10.40.24.47|||110000479675|100
01.11.2018 01:00:00||HAVAŞ|10.40.24.47|||110000479675|100
01.11.2018 01:00:00||MARS CINEMA|10.40.24.203|||110000472614|103
01.11.2018 01:00:00||MARS CINEMA|10.40.24.204|||110000472614|40
01.11.2018 01:00:00||MARS CINEMA|10.40.24.203|||110000472614|78
01.11.2018 01:00:00||MARS CINEMA|10.40.24.203|||110000472614|163
01.11.2018 01:00:00||MARS CINEMA|10.40.24.203|||110000472614|83
01.11.2018 01:00:00||MARS CINEMA|10.40.24.204|||110000472614|63
01.11.2018 01:00:00||MARS CINEMA|10.40.24.203|||110000472614|107
01.11.2018 01:00:00||MARS CINEMA|10.40.24.204|||110000472614|20
01.11.2018 01:00:00||MARS CINEMA|10.40.24.204|||110000472614|93
01.11.2018 01:00:00||MARS CINEMA|10.40.25.203|||110000472614|162
01.11.2018 01:00:00||MARS CINEMA|10.40.25.203|||110000472614|90
01.11.2018 01:00:00||MARS CINEMA|10.40.25.203|||110000472614|192
01.11.2018 01:00:00||MARS CINEMA|10.40.25.203|||110000472614|93
01.11.2018 01:00:00||MARS CINEMA|10.40.25.203|||110000472614|83
01.11.2018 01:00:00||MARS CINEMA|10.40.25.203|||110000472614|110
01.11.2018 01:00:00||MARS CINEMA|10.40.25.203|||110000472614|82
01.11.2018 01:00:00||MARS CINEMA|10.40.25.203|||110000472614|155
01.11.2018 01:00:00||MARS CINEMA|10.40.25.203|||110000472614|90
01.11.2018 01:00:00||MARS CINEMA|10.40.25.203|||110000472614|112
01.11.2018 01:00:00||MARS CINEMA|10.40.25.203|||110000472614|93
01.11.2018 01:00:00||MARS CINEMA|10.40.25.203|||110000472614|62
01.11.2018 01:00:00||MARS CINEMA|10.40.25.203|||110000472614|190
01.11.2018 01:00:00||MARS CINEMA|10.40.25.204|||110000472614|110
01.11.2018 01:00:00||MARS CINEMA|10.40.25.204|||110000472614|70
01.11.2018 01:00:00||MARS CINEMA|10.40.25.204|||110000472614|80
01.11.2018 01:00:00||MARS CINEMA|10.40.25.204|||110000472614|100
01.11.2018 01:00:00||MARS CINEMA|10.40.25.204|||110000472614|20
01.11.2018 01:00:00||MARS CINEMA|10.40.25.204|||110000472614|20
01.11.2018 01:00:00||MARS CINEMA|10.40.25.204|||110000472614|30
01.11.2018 01:00:00||MARS CINEMA|10.40.25.204|||110000472614|40
01.11.2018 01:00:00||MARS CINEMA|10.40.25.204|||110000472614|90
01.11.2018 01:00:00||MARS CINEMA|10.40.25.204|||110000472614|120
01.11.2018 01:00:00||MARS CINEMA|10.40.25.204|||110000472614|80
01.11.2018 01:00:00||MARS CINEMA|10.40.25.204|||110000472614|80
01.11.2018 01:00:00||MARS CINEMA|10.40.25.204|||110000472614|110
01.11.2018 01:00:00||MARS CINEMA|10.40.25.204|||110000472614|100
01.11.2018 01:00:00||MARS CINEMA|10.40.24.203|||110000472614|80
01.11.2018 01:00:00||MARS CINEMA|10.40.24.203|||110000472614|92
01.11.2018 01:00:00||MARS CINEMA|10.40.24.203|||110000472614|142
01.11.2018 01:00:00||MARS CINEMA|10.40.24.203|||110000472614|53
01.11.2018 01:00:00||MARS CINEMA|10.40.24.203|||110000472614|148
01.11.2018 01:00:00||MARS CINEMA|10.40.24.203|||110000472614|157
01.11.2018 01:00:00||MARS CINEMA|10.40.24.203|||110000472614|100
01.11.2018 01:00:00||MARS CINEMA|10.40.24.203|||110000472614|183
01.11.2018 01:00:00||MARS CINEMA|10.40.24.204|||110000472614|110
01.11.2018 01:00:00||MARS CINEMA|10.40.24.204|||110000472614|90
01.11.2018 01:00:00||MARS CINEMA|10.40.24.204|||110000472614|90
01.11.2018 01:00:00||MARS CINEMA|10.40.24.204|||110000472614|20
01.11.2018 01:00:00||MARS CINEMA|10.40.24.204|||110000472614|10
01.11.2018 01:00:00||MARS CINEMA|10.40.24.204|||110000472614|90
01.11.2018 01:00:00||MARS CINEMA|10.40.24.204|||110000472614|123
01.11.2018 01:00:00||MARS CINEMA|10.40.24.204|||110000472614|90
01.11.2018 01:00:00||MARS CINEMA|10.40.24.204|||110000472614|110
01.11.2018 01:00:00||MARS CINEMA|10.40.24.204|||110000472614|78
01.11.2018 01:00:00||MARS CINEMA|10.40.25.206|||110000472614|122
01.11.2018 01:00:00||MARS CINEMA|10.40.25.206|||110000472614|40
01.11.2018 01:00:00||MARS CINEMA|10.40.25.206|||110000472614|40
01.11.2018 01:00:00||MARS CINEMA|10.40.25.206|||110000472614|40
01.11.2018 01:00:00||MARS CINEMA|10.40.25.206|||110000472614|20
01.11.2018 01:00:00||MARS CINEMA|10.40.25.206|||110000472614|20
01.11.2018 01:00:00||MARS CINEMA|10.40.25.206|||110000472614|30
01.11.2018 01:00:00||MARS CINEMA|10.40.25.206|||110000472614|60
01.11.2018 01:00:00||MARS CINEMA|10.40.25.206|||110000472614|40
01.11.2018 01:00:00||MARS CINEMA|10.40.25.206|||110000472614|88
01.11.2018 01:00:00||MARS CINEMA|10.40.25.206|||110000472614|90
01.11.2018 01:00:00||MARS CINEMA|10.40.24.206|||110000472614|152
01.11.2018 01:00:00||MARS CINEMA|10.40.24.206|||110000472614|40
01.11.2018 01:00:00||MARS CINEMA|10.40.24.206|||110000472614|40
01.11.2018 01:00:00||MARS CINEMA|10.40.24.206|||110000472614|42
01.11.2018 01:00:00||MARS CINEMA|10.40.24.206|||110000472614|30
01.11.2018 01:00:00||MARS CINEMA|10.40.24.206|||110000472614|30
01.11.2018 01:00:00||MARS CINEMA|10.40.24.206|||110000472614|192
01.11.2018 01:00:00||MARS CINEMA|10.40.24.206|||110000472614|160
01.11.2018 01:00:00||MARS CINEMA|10.40.24.206|||110000472614|20
01.11.2018 01:00:00||MARS CINEMA|10.40.24.206|||110000472614|80
01.11.2018 01:00:00||MARS CINEMA|10.40.24.206|||110000472614|80
01.11.2018 01:00:00||PEGASUS|10.40.27.84|||110000423831|2160
01.11.2018 01:00:00||PEGASUS|10.40.26.85|||110000423831|1230
01.11.2018 01:00:00||PEGASUS|10.40.27.66|||110000423831|1130
01.11.2018 01:00:00||PEGASUS|10.40.26.66|||110000423831|930
01.11.2018 01:00:00||PEGASUS|10.40.26.84|||110000423831|2210
01.11.2018 01:00:00||PEGASUS|10.40.27.85|||110000423831|1190
01.11.2018 01:00:00||PEGASUS|10.40.27.67|||110000423831|340
01.11.2018 01:00:00||PEGASUS|10.40.27.67|||110000423831|40
01.11.2018 01:00:00||PEGASUS|10.40.26.62|||110000423831|10
01.11.2018 01:00:00||PEGASUS|10.40.26.62|||110000423831|190
01.11.2018 01:00:00||PEGASUS|10.40.26.63|||110000423831|70
01.11.2018 01:00:00||PEGASUS|10.40.26.63|||110000423831|30
01.11.2018 01:00:00||PEGASUS|10.40.26.63|||110000423831|60
01.11.2018 01:00:00||PEGASUS|10.40.26.63|||110000423831|30
01.11.2018 01:00:00||PEGASUS|10.40.26.63|||110000423831|230
01.11.2018 01:00:00||PEGASUS|10.40.26.63|||110000423831|140
01.11.2018 01:00:00||PEGASUS|10.40.26.63|||110000423831|110
01.11.2018 01:00:00||PEGASUS|10.40.26.63|||110000423831|60
01.11.2018 01:00:00||PEGASUS|10.40.26.67|||110000423831|170
01.11.2018 01:00:00||PEGASUS|10.40.27.68|||110000423831|90
01.11.2018 01:00:00||PEGASUS|10.40.27.68|||110000423831|87
01.11.2018 01:00:00||PEGASUS|10.40.27.68|||110000423831|90
01.11.2018 01:00:00||PEGASUS|10.40.27.68|||110000423831|50
01.11.2018 01:00:00||PEGASUS|10.40.26.68|||110000423831|90
01.11.2018 01:00:00||PEGASUS|10.40.26.68|||110000423831|90
01.11.2018 01:00:00||PEGASUS|10.40.26.68|||110000423831|50
01.11.2018 01:00:00||PEGASUS|10.40.27.63|||110000423831|42
01.11.2018 01:00:00||PEGASUS|10.40.27.86|||110000423831|340
01.11.2018 01:00:00||PEGASUS|10.40.27.63|||110000423831|50
01.11.2018 01:00:00||PEGASUS|10.40.27.63|||110000423831|60
01.11.2018 01:00:00||PEGASUS|10.40.27.64|||110000423831|80
01.11.2018 01:00:00||PEGASUS|10.40.27.64|||110000423831|70
01.11.2018 01:00:00||PEGASUS|10.40.27.63|||110000423831|60
01.11.2018 01:00:00||PEGASUS|10.40.27.63|||110000423831|70
01.11.2018 01:00:00||PEGASUS|10.40.27.63|||110000423831|90
01.11.2018 01:00:00||PEGASUS|10.40.26.63|||110000423831|110
01.11.2018 01:00:00||PEGASUS|10.40.27.67|||110000423831|360
01.11.2018 01:00:00||PEGASUS|10.40.27.64|||110000423831|273
01.11.2018 01:00:00||PEGASUS|10.40.27.64|||110000423831|265
01.11.2018 01:00:00||PEGASUS|10.40.27.63|||110000423831|72
01.11.2018 01:00:00||PEGASUS|10.40.27.63|||110000423831|67
01.11.2018 01:00:00||PEGASUS|10.40.27.63|||110000423831|80
01.11.2018 01:00:00||PEGASUS|10.40.26.63|||110000423831|110
01.11.2018 01:00:00||PEGASUS|10.40.26.63|||110000423831|110
01.11.2018 01:00:00||PEGASUS|10.40.27.81|||110000423831|460
01.11.2018 01:00:00||PEGASUS|10.40.27.81|||110000423831|430
01.11.2018 01:00:00||PEGASUS|10.40.26.63|||110000423831|90
01.11.2018 01:00:00||PEGASUS|10.40.26.63|||110000423831|60
01.11.2018 01:00:00||PEGASUS|10.40.26.67|||110000423831|30
01.11.2018 01:00:00||PEGASUS|10.40.26.67|||110000423831|340
01.11.2018 01:00:00||PEGASUS|10.40.26.67|||110000423831|60
01.11.2018 01:00:00||PEGASUS|10.40.26.67|||110000423831|40
01.11.2018 01:00:00||PEGASUS|10.40.26.67|||110000423831|70
01.11.2018 01:00:00||PEGASUS|10.40.26.68|||110000423831|100
01.11.2018 01:00:00||PEGASUS|10.40.27.64|||110000423831|298
01.11.2018 01:00:00||PEGASUS|10.40.27.64|||110000423831|268
01.11.2018 01:00:00||PEGASUS|10.40.27.64|||110000423831|308
01.11.2018 01:00:00||PEGASUS|10.40.27.64|||110000423831|270
01.11.2018 01:00:00||PEGASUS|10.40.27.64|||110000423831|273
01.11.2018 01:00:00||PEGASUS|10.40.27.86|||110000423831|340
01.11.2018 01:00:00||PEGASUS|10.40.27.63|||110000423831|90
01.11.2018 01:00:00||PEGASUS|10.40.26.63|||110000423831|130
01.11.2018 01:00:00||PEGASUS|10.40.26.63|||110000423831|60
01.11.2018 01:00:00||PEGASUS|10.40.26.63|||110000423831|80
01.11.2018 01:00:00||PEGASUS|10.40.26.67|||110000423831|340
01.11.2018 01:00:00||PEGASUS|10.40.27.63|||110000423831|50
01.11.2018 01:00:00||PEGASUS|10.40.27.63|||110000423831|60
01.11.2018 01:00:00||PEGASUS|10.40.27.81|||110000423831|450
01.11.2018 01:00:00||PEGASUS|10.40.26.62|||110000423831|90
01.11.2018 01:00:00||PEGASUS|10.40.26.63|||110000423831|50
01.11.2018 01:00:00||PEGASUS|10.40.26.63|||110000423831|100
01.11.2018 01:00:00||PEGASUS|10.40.26.63|||110000423831|40
01.11.2018 01:00:00||PEGASUS|10.40.26.63|||110000423831|70
01.11.2018 01:00:00||PEGASUS|10.40.26.67|||110000423831|340
01.11.2018 01:00:00||PEGASUS|10.40.27.64|||110000423831|282
01.11.2018 01:00:00||PEGASUS|10.40.27.64|||110000423831|275
01.11.2018 01:00:00||PEGASUS|10.40.27.64|||110000423831|262
01.11.2018 01:00:00||PEGASUS|10.40.27.64|||110000423831|288
01.11.2018 01:00:00||PEGASUS|10.40.27.64|||110000423831|345
01.11.2018 01:00:00||PEGASUS|10.40.27.86|||110000423831|40
01.11.2018 01:00:00||PEGASUS|10.40.27.63|||110000423831|73
01.11.2018 01:00:00||PEGASUS|10.40.27.63|||110000423831|80
01.11.2018 01:00:00||PEGASUS|10.40.27.63|||110000423831|70
01.11.2018 01:00:00||PEGASUS|10.40.27.63|||110000423831|90
01.11.2018 01:00:00||PEGASUS|10.40.27.63|||110000423831|158
01.11.2018 01:00:00||PEGASUS|10.40.27.63|||110000423831|227
01.11.2018 01:00:00||PEGASUS|10.40.27.63|||110000423831|55
01.11.2018 01:00:00||PEGASUS|10.40.26.64|||110000423831|80
01.11.2018 01:00:00||PEGASUS|10.40.26.64|||110000423831|80
01.11.2018 01:00:00||PEGASUS|10.40.26.82|||110000423831|210
01.11.2018 01:00:00||PEGASUS|10.40.26.82|||110000423831|108
01.11.2018 01:00:00||PEGASUS|10.40.26.82|||110000423831|117
01.11.2018 01:00:00||PEGASUS|10.40.26.82|||110000423831|158
01.11.2018 01:00:00||PEGASUS|10.40.26.82|||110000423831|147
01.11.2018 01:00:00||PEGASUS|10.40.26.82|||110000423831|150
01.11.2018 01:00:00||PEGASUS|10.40.26.82|||110000423831|190
01.11.2018 01:00:00||PEGASUS|10.40.26.82|||110000423831|37
01.11.2018 01:00:00||PEGASUS|10.40.26.82|||110000423831|53
01.11.2018 01:00:00||PEGASUS|10.40.26.82|||110000423831|20
01.11.2018 01:00:00||PEGASUS|10.40.26.82|||110000423831|63
01.11.2018 01:00:00||PEGASUS|10.40.26.82|||110000423831|50
01.11.2018 01:00:00||PEGASUS|10.40.26.82|||110000423831|40
01.11.2018 01:00:00||PEGASUS|10.40.27.83|||110000423831|582
01.11.2018 01:00:00||PEGASUS|10.40.27.83|||110000423831|70
01.11.2018 01:00:00||PEGASUS|10.40.27.83|||110000423831|567
01.11.2018 01:00:00||PEGASUS|10.40.27.83|||110000423831|562
01.11.2018 01:00:00||PEGASUS|10.40.27.83|||110000423831|80
01.11.2018 01:00:00||PEGASUS|10.40.26.83|||110000423831|515
01.11.2018 01:00:00||PEGASUS|10.40.26.83|||110000423831|50
01.11.2018 01:00:00||PEGASUS|10.40.26.83|||110000423831|400
01.11.2018 01:00:00||PEGASUS|10.40.26.83|||110000423831|507
01.11.2018 01:00:00||PEGASUS|10.40.26.83|||110000423831|510
01.11.2018 01:00:00||PEGASUS|10.40.26.86|||110000423831|360
01.11.2018 01:00:00||PEGASUS|10.40.26.86|||110000423831|138
01.11.2018 01:00:00||PEGASUS|10.40.26.86|||110000423831|350
01.11.2018 01:00:00||PEGASUS|10.40.26.86|||110000423831|50
01.11.2018 01:00:00||PEGASUS|10.40.26.86|||110000423831|30
01.11.2018 01:00:00||PEGASUS|10.40.26.86|||110000423831|350
01.11.2018 01:00:00||PEGASUS|10.40.26.86|||110000423831|40
01.11.2018 01:00:00||PEGASUS|10.40.27.87|||110000423831|90
01.11.2018 01:00:00||PEGASUS|10.40.27.87|||110000423831|88
01.11.2018 01:00:00||PEGASUS|10.40.27.87|||110000423831|90
01.11.2018 01:00:00||PEGASUS|10.40.27.87|||110000423831|20
01.11.2018 01:00:00||PEGASUS|10.40.26.87|||110000423831|90
01.11.2018 01:00:00||PEGASUS|10.40.26.87|||110000423831|90
01.11.2018 01:00:00||PEGASUS|10.40.26.87|||110000423831|90
01.11.2018 01:00:00||PEGASUS|10.40.26.87|||110000423831|60
01.11.2018 01:00:00||PEGASUS|10.40.26.87|||110000423831|20
01.11.2018 01:00:00||PEGASUS|10.40.26.81|||110000423831|400
01.11.2018 01:00:00||PEGASUS|10.40.26.81|||110000423831|420
01.11.2018 01:00:00||PEGASUS|10.40.26.81|||110000423831|410
01.11.2018 01:00:00||PEGASUS|10.40.27.82|||110000423831|220
01.11.2018 01:00:00||PEGASUS|10.40.27.82|||110000423831|30
01.11.2018 01:00:00||PEGASUS|10.40.27.82|||110000423831|110
01.11.2018 01:00:00||PEGASUS|10.40.27.82|||110000423831|83
01.11.2018 01:00:00||PEGASUS|10.40.27.82|||110000423831|162
01.11.2018 01:00:00||PEGASUS|10.40.27.82|||110000423831|125
01.11.2018 01:00:00||PEGASUS|10.40.27.82|||110000423831|170
01.11.2018 01:00:00||PEGASUS|10.40.27.82|||110000423831|125
01.11.2018 01:00:00||PEGASUS|10.40.27.82|||110000423831|62
01.11.2018 01:00:00||PEGASUS|10.40.27.82|||110000423831|83
01.11.2018 01:00:00||PEGASUS|10.40.27.82|||110000423831|50
01.11.2018 01:00:00||PEGASUS|10.40.27.82|||110000423831|33
01.11.2018 01:00:00||PEGASUS|10.40.27.82|||110000423831|40
01.11.2018 01:00:00||PEGASUS|10.40.27.67|||110000423831|50
01.11.2018 01:00:00||PEGASUS|10.40.27.67|||110000423831|70
01.11.2018 01:00:00||PEGASUS|10.40.27.67|||110000423831|130
01.11.2018 01:00:00||PEGASUS|10.40.27.67|||110000423831|10
01.11.2018 01:00:00||PEGASUS|10.40.27.67|||110000423831|340
01.11.2018 01:00:00||PEGASUS|10.40.27.82|||110000423831|67
01.11.2018 01:00:00||PEGASUS|10.40.27.86|||110000423831|170
01.11.2018 01:00:00||PEGASUS|10.40.27.86|||110000423831|70
01.11.2018 01:00:00||PEGASUS|10.40.27.86|||110000423831|20
01.11.2018 01:00:00||PEGASUS|10.40.27.86|||110000423831|350
01.11.2018 01:00:00||PETKIM|10.40.25.87|||110000437354|1420
01.11.2018 01:00:00||PWC|10.40.24.66|||110000433262|90
01.11.2018 01:00:00||PWC|10.40.24.66|||110000433262|10
01.11.2018 01:00:00||PWC|10.40.24.66|||110000433262|30
01.11.2018 01:00:00||PWC|10.40.24.66|||110000433262|50
01.11.2018 01:00:00||PWC|10.40.24.66|||110000433262|440
01.11.2018 01:00:00||PWC|10.40.24.68|||110000433262|173
01.11.2018 01:00:00||PWC|10.40.24.66|||110000433262|50
01.11.2018 01:00:00||PWC|10.40.24.66|||110000433262|210
01.11.2018 01:00:00||PWC|10.40.24.66|||110000433262|210
01.11.2018 01:00:00||PWC|10.40.25.67|||110000433262|80
01.11.2018 01:00:00||PWC|10.40.25.67|||110000433262|90
01.11.2018 01:00:00||PWC|10.40.25.67|||110000433262|320
01.11.2018 01:00:00||PWC|10.40.25.67|||110000433262|250
01.11.2018 01:00:00||PWC|10.40.25.67|||110000433262|240
01.11.2018 01:00:00||PWC|10.40.25.67|||110000433262|250
01.11.2018 01:00:00||PWC|10.40.25.67|||110000433262|50
01.11.2018 01:00:00||PWC|10.40.25.67|||110000433262|30
01.11.2018 01:00:00||PWC|10.40.25.67|||110000433262|120
01.11.2018 01:00:00||PWC|10.40.24.67|||110000433262|10
01.11.2018 01:00:00||PWC|10.40.24.67|||110000433262|10
01.11.2018 01:00:00||PWC|10.40.24.67|||110000433262|370
01.11.2018 01:00:00||PWC|10.40.24.67|||110000433262|30
01.11.2018 01:00:00||PWC|10.40.24.67|||110000433262|70
01.11.2018 01:00:00||PWC|10.40.24.67|||110000433262|120
01.11.2018 01:00:00||PWC|10.40.25.68|||110000433262|137
01.11.2018 01:00:00||PWC|10.40.25.68|||110000433262|218
01.11.2018 01:00:00||PWC|10.40.25.68|||110000433262|73
01.11.2018 01:00:00||PWC|10.40.25.68|||110000433262|78
01.11.2018 01:00:00||PWC|10.40.25.68|||110000433262|163
01.11.2018 01:00:00||PWC|10.40.24.66|||110000433262|60
01.11.2018 01:00:00||PWC|10.40.24.66|||110000433262|30
01.11.2018 01:00:00||PWC|10.40.24.66|||110000433262|30
01.11.2018 01:00:00||PWC|10.40.24.68|||110000433262|102
01.11.2018 01:00:00||PWC|10.40.24.68|||110000433262|165
01.11.2018 01:00:00||PWC|10.40.24.68|||110000433262|415
01.11.2018 01:00:00||PWC|10.40.24.68|||110000433262|77
01.11.2018 01:00:00||PWC|10.40.24.68|||110000433262|70
01.11.2018 01:00:00||VSMART BİLGİ TEKNOLOJİLERİ|10.40.24.62|||110000474326|45
01.11.2018 01:00:00||VSMART BİLGİ TEKNOLOJİLERİ|10.40.24.62|||110000474326|70
01.11.2018 01:00:00||VSMART BİLGİ TEKNOLOJİLERİ|10.40.24.62|||110000474326|43
01.11.2018 01:00:00||VSMART BİLGİ TEKNOLOJİLERİ|10.40.25.62|||110000474326|70
01.11.2018 01:00:00||VSMART BİLGİ TEKNOLOJİLERİ|10.40.24.62|||110000474326|43
01.11.2018 01:00:00||VSMART BİLGİ TEKNOLOJİLERİ|10.40.24.62|||110000474326|30
01.11.2018 01:00:00||VSMART BİLGİ TEKNOLOJİLERİ|10.40.24.62|||110000474326|10
01.11.2018 01:00:00||VSMART BİLGİ TEKNOLOJİLERİ|10.40.25.62|||110000474326|42
01.11.2018 01:00:00||VSMART BİLGİ TEKNOLOJİLERİ|10.40.25.62|||110000474326|10
01.11.2018 01:00:00||VSMART BİLGİ TEKNOLOJİLERİ|10.40.25.62|||110000474326|10
01.11.2018 01:00:00||VSMART BİLGİ TEKNOLOJİLERİ|10.40.25.62|||110000474326|80
01.11.2018 01:00:00||VSMART BİLGİ TEKNOLOJİLERİ|10.40.25.62|||110000474326|92
01.11.2018 01:00:00||VSMART BİLGİ TEKNOLOJİLERİ|10.40.25.62|||110000474326|110
01.11.2018 01:00:00||VSMART BİLGİ TEKNOLOJİLERİ|10.40.24.62|||110000474326|10
