02.11.2018 01:00:00||AKTİFBANK|10.40.25.134|||110000438458|930
02.11.2018 01:00:00||AKTİFBANK|10.40.24.134|||110000438458|930
02.11.2018 01:00:00||AKTİFBANK|10.40.24.135|||110000438458|1010
02.11.2018 01:00:00||AKTİFBANK|10.40.25.137|||110000438458|570
02.11.2018 01:00:00||AKTİFBANK|10.40.25.172|||110000438458|880
02.11.2018 01:00:00||AKTİFBANK|10.40.24.172|||110000438458|960
02.11.2018 01:00:00||AKTİFBANK|10.40.25.173|||110000438458|950
02.11.2018 01:00:00||AKTİFBANK|10.40.25.171|||110000438458|120
02.11.2018 01:00:00||AKTİFBANK|10.40.25.174|||110000438458|530
02.11.2018 01:00:00||AKTİFBANK|10.40.24.173|||110000438458|930
02.11.2018 01:00:00||AKTİFBANK|10.40.25.135|||110000438458|970
02.11.2018 01:00:00||AKTİFBANK|10.40.24.137|||110000438458|570
02.11.2018 01:00:00||AKTİFBANK|10.40.24.171|||110000438458|110
02.11.2018 01:00:00||AKTİFBANK|10.40.24.174|||110000438458|600
02.11.2018 01:00:00||AKTİFBANK|10.40.25.139|||110000438458|70
02.11.2018 01:00:00||AKTİFBANK|10.40.25.139|||110000438458|80
02.11.2018 01:00:00||AKTİFBANK|10.40.25.150|||110000438458|515
02.11.2018 01:00:00||AKTİFBANK|10.40.25.129|||110000438458|87
02.11.2018 01:00:00||AKTİFBANK|10.40.25.129|||110000438458|140
02.11.2018 01:00:00||AKTİFBANK|10.40.25.130|||110000438458|70
02.11.2018 01:00:00||AKTİFBANK|10.40.25.130|||110000438458|130
02.11.2018 01:00:00||AKTİFBANK|10.40.25.130|||110000438458|100
02.11.2018 01:00:00||AKTİFBANK|10.40.25.131|||110000438458|48
02.11.2018 01:00:00||AKTİFBANK|10.40.25.143|||110000438458|60
02.11.2018 01:00:00||AKTİFBANK|10.40.25.143|||110000438458|245
02.11.2018 01:00:00||AKTİFBANK|10.40.25.143|||110000438458|267
02.11.2018 01:00:00||AKTİFBANK|10.40.25.158|||110000438458|103
02.11.2018 01:00:00||AKTİFBANK|10.40.25.160|||110000438458|110
02.11.2018 01:00:00||AKTİFBANK|10.40.25.162|||110000438458|30
02.11.2018 01:00:00||AKTİFBANK|10.40.25.162|||110000438458|40
02.11.2018 01:00:00||AKTİFBANK|10.40.24.140|||110000438458|163
02.11.2018 01:00:00||AKTİFBANK|10.40.24.140|||110000438458|80
02.11.2018 01:00:00||AKTİFBANK|10.40.24.140|||110000438458|40
02.11.2018 01:00:00||AKTİFBANK|10.40.24.140|||110000438458|30
02.11.2018 01:00:00||AKTİFBANK|10.40.24.140|||110000438458|30
02.11.2018 01:00:00||AKTİFBANK|10.40.24.140|||110000438458|30
02.11.2018 01:00:00||AKTİFBANK|10.40.24.149|||110000438458|82
02.11.2018 01:00:00||AKTİFBANK|10.40.24.149|||110000438458|120
02.11.2018 01:00:00||AKTİFBANK|10.40.24.149|||110000438458|92
02.11.2018 01:00:00||AKTİFBANK|10.40.24.149|||110000438458|65
02.11.2018 01:00:00||AKTİFBANK|10.40.24.149|||110000438458|52
02.11.2018 01:00:00||AKTİFBANK|10.40.24.149|||110000438458|140
02.11.2018 01:00:00||AKTİFBANK|10.40.24.149|||110000438458|90
02.11.2018 01:00:00||AKTİFBANK|10.40.24.149|||110000438458|90
02.11.2018 01:00:00||AKTİFBANK|10.40.24.149|||110000438458|98
02.11.2018 01:00:00||AKTİFBANK|10.40.24.149|||110000438458|80
02.11.2018 01:00:00||AKTİFBANK|10.40.24.133|||110000438458|145
02.11.2018 01:00:00||AKTİFBANK|10.40.24.133|||110000438458|120
02.11.2018 01:00:00||AKTİFBANK|10.40.24.133|||110000438458|85
02.11.2018 01:00:00||AKTİFBANK|10.40.24.138|||110000438458|115
02.11.2018 01:00:00||AKTİFBANK|10.40.24.138|||110000438458|140
02.11.2018 01:00:00||AKTİFBANK|10.40.24.138|||110000438458|117
02.11.2018 01:00:00||AKTİFBANK|10.40.24.138|||110000438458|30
02.11.2018 01:00:00||AKTİFBANK|10.40.24.138|||110000438458|50
02.11.2018 01:00:00||AKTİFBANK|10.40.24.139|||110000438458|160
02.11.2018 01:00:00||AKTİFBANK|10.40.24.139|||110000438458|93
02.11.2018 01:00:00||AKTİFBANK|10.40.24.139|||110000438458|120
02.11.2018 01:00:00||AKTİFBANK|10.40.24.141|||110000438458|200
02.11.2018 01:00:00||AKTİFBANK|10.40.24.141|||110000438458|103
02.11.2018 01:00:00||AKTİFBANK|10.40.24.141|||110000438458|100
02.11.2018 01:00:00||AKTİFBANK|10.40.24.141|||110000438458|58
02.11.2018 01:00:00||AKTİFBANK|10.40.24.141|||110000438458|80
02.11.2018 01:00:00||AKTİFBANK|10.40.25.152|||110000438458|110
02.11.2018 01:00:00||AKTİFBANK|10.40.25.152|||110000438458|50
02.11.2018 01:00:00||AKTİFBANK|10.40.25.152|||110000438458|140
02.11.2018 01:00:00||AKTİFBANK|10.40.25.152|||110000438458|70
02.11.2018 01:00:00||AKTİFBANK|10.40.25.152|||110000438458|90
02.11.2018 01:00:00||AKTİFBANK|10.40.25.152|||110000438458|160
02.11.2018 01:00:00||AKTİFBANK|10.40.25.152|||110000438458|50
02.11.2018 01:00:00||AKTİFBANK|10.40.25.152|||110000438458|90
02.11.2018 01:00:00||AKTİFBANK|10.40.25.152|||110000438458|30
02.11.2018 01:00:00||AKTİFBANK|10.40.25.152|||110000438458|80
02.11.2018 01:00:00||AKTİFBANK|10.40.25.152|||110000438458|30
02.11.2018 01:00:00||AKTİFBANK|10.40.24.150|||110000438458|557
02.11.2018 01:00:00||AKTİFBANK|10.40.24.151|||110000438458|530
02.11.2018 01:00:00||AKTİFBANK|10.40.24.151|||110000438458|530
02.11.2018 01:00:00||AKTİFBANK|10.40.24.128|||110000438458|60
02.11.2018 01:00:00||AKTİFBANK|10.40.24.128|||110000438458|70
02.11.2018 01:00:00||AKTİFBANK|10.40.24.128|||110000438458|100
02.11.2018 01:00:00||AKTİFBANK|10.40.24.128|||110000438458|40
02.11.2018 01:00:00||AKTİFBANK|10.40.24.128|||110000438458|70
02.11.2018 01:00:00||AKTİFBANK|10.40.24.128|||110000438458|50
02.11.2018 01:00:00||AKTİFBANK|10.40.24.129|||110000438458|100
02.11.2018 01:00:00||AKTİFBANK|10.40.24.129|||110000438458|70
02.11.2018 01:00:00||AKTİFBANK|10.40.24.129|||110000438458|110
02.11.2018 01:00:00||AKTİFBANK|10.40.24.129|||110000438458|120
02.11.2018 01:00:00||AKTİFBANK|10.40.24.129|||110000438458|40
02.11.2018 01:00:00||AKTİFBANK|10.40.24.129|||110000438458|70
02.11.2018 01:00:00||AKTİFBANK|10.40.24.129|||110000438458|70
02.11.2018 01:00:00||AKTİFBANK|10.40.24.129|||110000438458|90
02.11.2018 01:00:00||AKTİFBANK|10.40.24.129|||110000438458|80
02.11.2018 01:00:00||AKTİFBANK|10.40.24.129|||110000438458|140
02.11.2018 01:00:00||AKTİFBANK|10.40.24.130|||110000438458|40
02.11.2018 01:00:00||AKTİFBANK|10.40.24.130|||110000438458|40
02.11.2018 01:00:00||AKTİFBANK|10.40.24.130|||110000438458|67
02.11.2018 01:00:00||AKTİFBANK|10.40.24.130|||110000438458|42
02.11.2018 01:00:00||AKTİFBANK|10.40.24.130|||110000438458|60
02.11.2018 01:00:00||AKTİFBANK|10.40.24.130|||110000438458|78
02.11.2018 01:00:00||AKTİFBANK|10.40.24.130|||110000438458|87
02.11.2018 01:00:00||AKTİFBANK|10.40.24.130|||110000438458|37
02.11.2018 01:00:00||AKTİFBANK|10.40.24.130|||110000438458|130
02.11.2018 01:00:00||AKTİFBANK|10.40.24.130|||110000438458|110
02.11.2018 01:00:00||AKTİFBANK|10.40.24.131|||110000438458|90
02.11.2018 01:00:00||AKTİFBANK|10.40.24.131|||110000438458|90
02.11.2018 01:00:00||AKTİFBANK|10.40.24.131|||110000438458|112
02.11.2018 01:00:00||AKTİFBANK|10.40.24.131|||110000438458|118
02.11.2018 01:00:00||AKTİFBANK|10.40.24.131|||110000438458|20
02.11.2018 01:00:00||AKTİFBANK|10.40.24.131|||110000438458|160
02.11.2018 01:00:00||AKTİFBANK|10.40.24.131|||110000438458|60
02.11.2018 01:00:00||AKTİFBANK|10.40.24.131|||110000438458|110
02.11.2018 01:00:00||AKTİFBANK|10.40.24.132|||110000438458|38
02.11.2018 01:00:00||AKTİFBANK|10.40.24.132|||110000438458|78
02.11.2018 01:00:00||AKTİFBANK|10.40.24.132|||110000438458|52
02.11.2018 01:00:00||AKTİFBANK|10.40.24.132|||110000438458|178
02.11.2018 01:00:00||AKTİFBANK|10.40.24.132|||110000438458|67
02.11.2018 01:00:00||AKTİFBANK|10.40.24.143|||110000438458|68
02.11.2018 01:00:00||AKTİFBANK|10.40.24.143|||110000438458|267
02.11.2018 01:00:00||AKTİFBANK|10.40.24.143|||110000438458|280
02.11.2018 01:00:00||AKTİFBANK|10.40.24.143|||110000438458|220
02.11.2018 01:00:00||AKTİFBANK|10.40.24.144|||110000438458|70
02.11.2018 01:00:00||AKTİFBANK|10.40.24.144|||110000438458|108
02.11.2018 01:00:00||AKTİFBANK|10.40.24.144|||110000438458|130
02.11.2018 01:00:00||AKTİFBANK|10.40.24.148|||110000438458|70
02.11.2018 01:00:00||AKTİFBANK|10.40.24.148|||110000438458|170
02.11.2018 01:00:00||AKTİFBANK|10.40.24.148|||110000438458|90
02.11.2018 01:00:00||AKTİFBANK|10.40.24.148|||110000438458|110
02.11.2018 01:00:00||AKTİFBANK|10.40.24.148|||110000438458|80
02.11.2018 01:00:00||AKTİFBANK|10.40.24.148|||110000438458|90
02.11.2018 01:00:00||AKTİFBANK|10.40.24.148|||110000438458|90
02.11.2018 01:00:00||AKTİFBANK|10.40.24.148|||110000438458|100
02.11.2018 01:00:00||AKTİFBANK|10.40.24.148|||110000438458|90
02.11.2018 01:00:00||AKTİFBANK|10.40.24.148|||110000438458|60
02.11.2018 01:00:00||AKTİFBANK|10.40.24.148|||110000438458|30
02.11.2018 01:00:00||AKTİFBANK|10.40.24.148|||110000438458|80
02.11.2018 01:00:00||AKTİFBANK|10.40.24.153|||110000438458|10
02.11.2018 01:00:00||AKTİFBANK|10.40.24.153|||110000438458|90
02.11.2018 01:00:00||AKTİFBANK|10.40.24.153|||110000438458|70
02.11.2018 01:00:00||AKTİFBANK|10.40.24.153|||110000438458|80
02.11.2018 01:00:00||AKTİFBANK|10.40.24.157|||110000438458|30
02.11.2018 01:00:00||AKTİFBANK|10.40.24.157|||110000438458|70
02.11.2018 01:00:00||AKTİFBANK|10.40.24.157|||110000438458|70
02.11.2018 01:00:00||AKTİFBANK|10.40.24.157|||110000438458|40
02.11.2018 01:00:00||AKTİFBANK|10.40.24.157|||110000438458|80
02.11.2018 01:00:00||AKTİFBANK|10.40.24.157|||110000438458|40
02.11.2018 01:00:00||AKTİFBANK|10.40.24.158|||110000438458|80
02.11.2018 01:00:00||AKTİFBANK|10.40.24.158|||110000438458|112
02.11.2018 01:00:00||AKTİFBANK|10.40.24.159|||110000438458|132
02.11.2018 01:00:00||AKTİFBANK|10.40.24.159|||110000438458|50
02.11.2018 01:00:00||AKTİFBANK|10.40.24.159|||110000438458|182
02.11.2018 01:00:00||AKTİFBANK|10.40.24.160|||110000438458|50
02.11.2018 01:00:00||AKTİFBANK|10.40.24.160|||110000438458|90
02.11.2018 01:00:00||AKTİFBANK|10.40.24.160|||110000438458|102
02.11.2018 01:00:00||AKTİFBANK|10.40.24.161|||110000438458|200
02.11.2018 01:00:00||AKTİFBANK|10.40.24.161|||110000438458|80
02.11.2018 01:00:00||AKTİFBANK|10.40.24.161|||110000438458|40
02.11.2018 01:00:00||AKTİFBANK|10.40.24.161|||110000438458|30
02.11.2018 01:00:00||AKTİFBANK|10.40.24.161|||110000438458|30
02.11.2018 01:00:00||AKTİFBANK|10.40.24.161|||110000438458|20
02.11.2018 01:00:00||AKTİFBANK|10.40.24.161|||110000438458|90
02.11.2018 01:00:00||AKTİFBANK|10.40.24.145|||110000438458|30
02.11.2018 01:00:00||AKTİFBANK|10.40.24.145|||110000438458|70
02.11.2018 01:00:00||AKTİFBANK|10.40.24.145|||110000438458|50
02.11.2018 01:00:00||AKTİFBANK|10.40.24.147|||110000438458|90
02.11.2018 01:00:00||AKTİFBANK|10.40.24.162|||110000438458|40
02.11.2018 01:00:00||AKTİFBANK|10.40.24.162|||110000438458|40
02.11.2018 01:00:00||AKTİFBANK|10.40.24.162|||110000438458|107
02.11.2018 01:00:00||AKTİFBANK|10.40.24.162|||110000438458|10
02.11.2018 01:00:00||AKTİFBANK|10.40.24.162|||110000438458|48
02.11.2018 01:00:00||AKTİFBANK|10.40.24.163|||110000438458|30
02.11.2018 01:00:00||AKTİFBANK|10.40.24.163|||110000438458|70
02.11.2018 01:00:00||AKTİFBANK|10.40.24.164|||110000438458|58
02.11.2018 01:00:00||AKTİFBANK|10.40.24.164|||110000438458|332
02.11.2018 01:00:00||AKTİFBANK|10.40.24.164|||110000438458|215
02.11.2018 01:00:00||AKTİFBANK|10.40.24.165|||110000438458|75
02.11.2018 01:00:00||AKTİFBANK|10.40.24.165|||110000438458|80
02.11.2018 01:00:00||AKTİFBANK|10.40.24.165|||110000438458|52
02.11.2018 01:00:00||AKTİFBANK|10.40.24.165|||110000438458|123
02.11.2018 01:00:00||AKTİFBANK|10.40.24.166|||110000438458|80
02.11.2018 01:00:00||AKTİFBANK|10.40.24.166|||110000438458|90
02.11.2018 01:00:00||AKTİFBANK|10.40.24.166|||110000438458|10
02.11.2018 01:00:00||AKTİFBANK|10.40.25.168|||110000438458|90
02.11.2018 01:00:00||AKTİFBANK|10.40.25.168|||110000438458|70
02.11.2018 01:00:00||AKTİFBANK|10.40.25.168|||110000438458|50
02.11.2018 01:00:00||AKTİFBANK|10.40.25.168|||110000438458|40
02.11.2018 01:00:00||AKTİFBANK|10.40.25.168|||110000438458|60
02.11.2018 01:00:00||AKTİFBANK|10.40.24.168|||110000438458|90
02.11.2018 01:00:00||AKTİFBANK|10.40.24.168|||110000438458|80
02.11.2018 01:00:00||AKTİFBANK|10.40.24.168|||110000438458|70
02.11.2018 01:00:00||AKTİFBANK|10.40.24.168|||110000438458|70
02.11.2018 01:00:00||AKTİFBANK|10.40.24.168|||110000438458|30
02.11.2018 01:00:00||AKTİFBANK|10.40.24.154|||110000438458|70
02.11.2018 01:00:00||AKTİFBANK|10.40.24.154|||110000438458|20
02.11.2018 01:00:00||AKTİFBANK|10.40.24.154|||110000438458|10
02.11.2018 01:00:00||AKTİFBANK|10.40.24.154|||110000438458|10
02.11.2018 01:00:00||AKTİFBANK|10.40.24.154|||110000438458|10
02.11.2018 01:00:00||AKTİFBANK|10.40.24.154|||110000438458|10
02.11.2018 01:00:00||AKTİFBANK|10.40.24.155|||110000438458|58
02.11.2018 01:00:00||AKTİFBANK|10.40.24.155|||110000438458|102
02.11.2018 01:00:00||AKTİFBANK|10.40.24.155|||110000438458|130
02.11.2018 01:00:00||AKTİFBANK|10.40.24.155|||110000438458|80
02.11.2018 01:00:00||AKTİFBANK|10.40.24.155|||110000438458|115
02.11.2018 01:00:00||AKTİFBANK|10.40.24.155|||110000438458|100
02.11.2018 01:00:00||AKTİFBANK|10.40.25.169|||110000438458|98
02.11.2018 01:00:00||AKTİFBANK|10.40.25.169|||110000438458|105
02.11.2018 01:00:00||AKTİFBANK|10.40.25.169|||110000438458|72
02.11.2018 01:00:00||AKTİFBANK|10.40.25.169|||110000438458|78
02.11.2018 01:00:00||AKTİFBANK|10.40.24.169|||110000438458|70
02.11.2018 01:00:00||AKTİFBANK|10.40.24.169|||110000438458|93
02.11.2018 01:00:00||AKTİFBANK|10.40.24.169|||110000438458|82
02.11.2018 01:00:00||AKTİFBANK|10.40.24.169|||110000438458|80
02.11.2018 01:00:00||AKTİFBANK|10.40.25.170|||110000438458|30
02.11.2018 01:00:00||AKTİFBANK|10.40.25.170|||110000438458|30
02.11.2018 01:00:00||AKTİFBANK|10.40.25.170|||110000438458|200
02.11.2018 01:00:00||AKTİFBANK|10.40.25.170|||110000438458|100
02.11.2018 01:00:00||AKTİFBANK|10.40.25.170|||110000438458|80
02.11.2018 01:00:00||AKTİFBANK|10.40.25.170|||110000438458|120
02.11.2018 01:00:00||AKTİFBANK|10.40.24.170|||110000438458|60
02.11.2018 01:00:00||AKTİFBANK|10.40.24.170|||110000438458|60
02.11.2018 01:00:00||AKTİFBANK|10.40.24.170|||110000438458|377
02.11.2018 01:00:00||AKTİFBANK|10.40.24.170|||110000438458|73
02.11.2018 01:00:00||AKTİFBANK|10.40.24.170|||110000438458|102
02.11.2018 01:00:00||AKTİFBANK|10.40.24.170|||110000438458|73
02.11.2018 01:00:00||AKTİFBANK|10.40.25.178|||110000438458|590
02.11.2018 01:00:00||AKTİFBANK|10.40.25.178|||110000438458|560
02.11.2018 01:00:00||AKTİFBANK|10.40.25.178|||110000438458|550
02.11.2018 01:00:00||AKTİFBANK|10.40.24.178|||110000438458|573
02.11.2018 01:00:00||AKTİFBANK|10.40.24.178|||110000438458|552
02.11.2018 01:00:00||AKTİFBANK|10.40.24.178|||110000438458|540
02.11.2018 01:00:00||AKTİFBANK|10.40.25.179|||110000438458|402
02.11.2018 01:00:00||AKTİFBANK|10.40.25.179|||110000438458|370
02.11.2018 01:00:00||AKTİFBANK|10.40.25.179|||110000438458|358
02.11.2018 01:00:00||AKTİFBANK|10.40.24.179|||110000438458|320
02.11.2018 01:00:00||AKTİFBANK|10.40.24.179|||110000438458|330
02.11.2018 01:00:00||AKTİFBANK|10.40.24.179|||110000438458|320
02.11.2018 01:00:00||AKTİFBANK|10.40.24.142|||110000438458|40
02.11.2018 01:00:00||AKTİFBANK|10.40.24.156|||110000438458|50
02.11.2018 01:00:00||AKTİFBANK|10.40.24.156|||110000438458|50
02.11.2018 01:00:00||AKTİFBANK|10.40.25.186|||110000438458|90
02.11.2018 01:00:00||AKTİFBANK|10.40.25.186|||110000438458|20
02.11.2018 01:00:00||AKTİFBANK|10.40.25.186|||110000438458|70
02.11.2018 01:00:00||AKTİFBANK|10.40.24.186|||110000438458|90
02.11.2018 01:00:00||AKTİFBANK|10.40.24.186|||110000438458|30
02.11.2018 01:00:00||AKTİFBANK|10.40.24.186|||110000438458|60
02.11.2018 01:00:00||AKTİFBANK|10.40.24.186|||110000438458|40
02.11.2018 01:00:00||AKTİFBANK|10.40.24.152|||110000438458|10
02.11.2018 01:00:00||AKTİFBANK|10.40.24.152|||110000438458|50
02.11.2018 01:00:00||AKTİFBANK|10.40.24.152|||110000438458|88
02.11.2018 01:00:00||AKTİFBANK|10.40.24.152|||110000438458|107
02.11.2018 01:00:00||AKTİFBANK|10.40.24.152|||110000438458|100
02.11.2018 01:00:00||AKTİFBANK|10.40.24.152|||110000438458|103
02.11.2018 01:00:00||AKTİFBANK|10.40.24.152|||110000438458|357
02.11.2018 01:00:00||AKTİFBANK|10.40.24.152|||110000438458|75
02.11.2018 01:00:00||AKTİFBANK|10.40.24.152|||110000438458|92
02.11.2018 01:00:00||AKTİFBANK|10.40.24.152|||110000438458|30
02.11.2018 01:00:00||AKTİFBANK|10.40.24.152|||110000438458|72
02.11.2018 01:00:00||AKTİFBANK|10.40.24.152|||110000438458|30
02.11.2018 01:00:00||AKTİFBANK|10.40.25.140|||110000438458|30
02.11.2018 01:00:00||AKTİFBANK|10.40.24.141|||110000438458|50
02.11.2018 01:00:00||AKTİFBANK|10.40.25.133|||110000438458|90
02.11.2018 01:00:00||AKTİFBANK|10.40.25.133|||110000438458|150
02.11.2018 01:00:00||AKTİFBANK|10.40.25.138|||110000438458|130
02.11.2018 01:00:00||AKTİFBANK|10.40.25.138|||110000438458|75
02.11.2018 01:00:00||AKTİFBANK|10.40.25.139|||110000438458|100
02.11.2018 01:00:00||AKTİFBANK|10.40.25.138|||110000438458|10
02.11.2018 01:00:00||AKTİFBANK|10.40.24.149|||110000438458|110
02.11.2018 01:00:00||AKTİFBANK|10.40.24.150|||110000438458|560
02.11.2018 01:00:00||AKTİFBANK|10.40.25.149|||110000438458|103
02.11.2018 01:00:00||AKTİFBANK|10.40.25.149|||110000438458|90
02.11.2018 01:00:00||AKTİFBANK|10.40.25.149|||110000438458|90
02.11.2018 01:00:00||AKTİFBANK|10.40.24.151|||110000438458|500
02.11.2018 01:00:00||AKTİFBANK|10.40.25.153|||110000438458|80
02.11.2018 01:00:00||AKTİFBANK|10.40.24.149|||110000438458|82
02.11.2018 01:00:00||AKTİFBANK|10.40.24.149|||110000438458|88
02.11.2018 01:00:00||AKTİFBANK|10.40.25.149|||110000438458|70
02.11.2018 01:00:00||AKTİFBANK|10.40.25.149|||110000438458|70
02.11.2018 01:00:00||AKTİFBANK|10.40.25.149|||110000438458|130
02.11.2018 01:00:00||AKTİFBANK|10.40.24.145|||110000438458|70
02.11.2018 01:00:00||AKTİFBANK|10.40.24.149|||110000438458|160
02.11.2018 01:00:00||AKTİFBANK|10.40.25.153|||110000438458|60
02.11.2018 01:00:00||AKTİFBANK|10.40.24.150|||110000438458|542
02.11.2018 01:00:00||AKTİFBANK|10.40.24.162|||110000438458|210
02.11.2018 01:00:00||AKTİFBANK|10.40.24.162|||110000438458|30
02.11.2018 01:00:00||AKTİFBANK|10.40.24.162|||110000438458|40
02.11.2018 01:00:00||AKTİFBANK|10.40.24.133|||110000438458|75
02.11.2018 01:00:00||AKTİFBANK|10.40.24.138|||110000438458|110
02.11.2018 01:00:00||AKTİFBANK|10.40.24.139|||110000438458|30
02.11.2018 01:00:00||AKTİFBANK|10.40.24.164|||110000438458|70
02.11.2018 01:00:00||AKTİFBANK|10.40.24.145|||110000438458|60
02.11.2018 01:00:00||AKTİFBANK|10.40.24.164|||110000438458|228
02.11.2018 01:00:00||AKTİFBANK|10.40.25.133|||110000438458|70
02.11.2018 01:00:00||AKTİFBANK|10.40.24.145|||110000438458|90
02.11.2018 01:00:00||AKTİFBANK|10.40.25.151|||110000438458|527
02.11.2018 01:00:00||AKTİFBANK|10.40.24.158|||110000438458|82
02.11.2018 01:00:00||AKTİFBANK|10.40.25.138|||110000438458|80
02.11.2018 01:00:00||AKTİFBANK|10.40.25.139|||110000438458|10
02.11.2018 01:00:00||AKTİFBANK|10.40.25.140|||110000438458|32
02.11.2018 01:00:00||AKTİFBANK|10.40.25.151|||110000438458|523
02.11.2018 01:00:00||AKTİFBANK|10.40.25.141|||110000438458|100
02.11.2018 01:00:00||AKTİFBANK|10.40.25.141|||110000438458|100
02.11.2018 01:00:00||AKTİFBANK|10.40.25.142|||110000438458|73
02.11.2018 01:00:00||AKTİFBANK|10.40.25.140|||110000438458|80
02.11.2018 01:00:00||AKTİFBANK|10.40.25.140|||110000438458|70
02.11.2018 01:00:00||AKTİFBANK|10.40.25.151|||110000438458|508
02.11.2018 01:00:00||AKTİFBANK|10.40.25.141|||110000438458|100
02.11.2018 01:00:00||AKTİFBANK|10.40.25.141|||110000438458|80
02.11.2018 01:00:00||AKTİFBANK|10.40.25.149|||110000438458|70
02.11.2018 01:00:00||AKTİFBANK|10.40.25.149|||110000438458|90
02.11.2018 01:00:00||AKTİFBANK|10.40.25.149|||110000438458|103
02.11.2018 01:00:00||AKTİFBANK|10.40.25.149|||110000438458|107
02.11.2018 01:00:00||AKTİFBANK|10.40.25.141|||110000438458|100
02.11.2018 01:00:00||AKTİFBANK|10.40.25.138|||110000438458|88
02.11.2018 01:00:00||AKTİFBANK|10.40.25.138|||110000438458|30
02.11.2018 01:00:00||AKTİFBANK|10.40.25.149|||110000438458|73
02.11.2018 01:00:00||AKTİFBANK|10.40.25.149|||110000438458|70
02.11.2018 01:00:00||AKTİFBANK|10.40.25.149|||110000438458|28
02.11.2018 01:00:00||AKTİFBANK|10.40.25.133|||110000438458|110
02.11.2018 01:00:00||AKTİFBANK|10.40.25.150|||110000438458|538
02.11.2018 01:00:00||AKTİFBANK|10.40.25.139|||110000438458|170
02.11.2018 01:00:00||AKTİFBANK|10.40.25.139|||110000438458|40
02.11.2018 01:00:00||AKTİFBANK|10.40.25.140|||110000438458|30
02.11.2018 01:00:00||AKTİFBANK|10.40.25.141|||110000438458|40
02.11.2018 01:00:00||AKTİFBANK|10.40.25.142|||110000438458|40
02.11.2018 01:00:00||AKTİFBANK|10.40.25.149|||110000438458|110
02.11.2018 01:00:00||AKTİFBANK|10.40.24.139|||110000438458|63
02.11.2018 01:00:00||AKTİFBANK|10.40.25.153|||110000438458|10
02.11.2018 01:00:00||AKTİFBANK|10.40.25.150|||110000438458|552
02.11.2018 01:00:00||AKTİFBANK|10.40.25.153|||110000438458|70
02.11.2018 01:00:00||AKTİFBANK|10.40.25.163|||110000438458|50
02.11.2018 01:00:00||AKTİFBANK|10.40.24.141|||110000438458|62
02.11.2018 01:00:00||AKTİFBANK|10.40.25.133|||110000438458|280
02.11.2018 01:00:00||AKTİFBANK|10.40.25.128|||110000438458|70
02.11.2018 01:00:00||AKTİFBANK|10.40.25.128|||110000438458|90
02.11.2018 01:00:00||AKTİFBANK|10.40.25.128|||110000438458|90
02.11.2018 01:00:00||AKTİFBANK|10.40.25.128|||110000438458|40
02.11.2018 01:00:00||AKTİFBANK|10.40.25.128|||110000438458|70
02.11.2018 01:00:00||AKTİFBANK|10.40.25.129|||110000438458|82
02.11.2018 01:00:00||AKTİFBANK|10.40.25.129|||110000438458|73
02.11.2018 01:00:00||AKTİFBANK|10.40.25.129|||110000438458|140
02.11.2018 01:00:00||AKTİFBANK|10.40.25.129|||110000438458|105
02.11.2018 01:00:00||AKTİFBANK|10.40.25.129|||110000438458|95
02.11.2018 01:00:00||AKTİFBANK|10.40.25.130|||110000438458|70
02.11.2018 01:00:00||AKTİFBANK|10.40.25.130|||110000438458|50
02.11.2018 01:00:00||AKTİFBANK|10.40.25.130|||110000438458|80
02.11.2018 01:00:00||AKTİFBANK|10.40.25.130|||110000438458|40
02.11.2018 01:00:00||AKTİFBANK|10.40.25.130|||110000438458|60
02.11.2018 01:00:00||AKTİFBANK|10.40.25.130|||110000438458|100
02.11.2018 01:00:00||AKTİFBANK|10.40.25.130|||110000438458|90
02.11.2018 01:00:00||AKTİFBANK|10.40.25.131|||110000438458|20
02.11.2018 01:00:00||AKTİFBANK|10.40.25.131|||110000438458|82
02.11.2018 01:00:00||AKTİFBANK|10.40.25.131|||110000438458|100
02.11.2018 01:00:00||AKTİFBANK|10.40.25.131|||110000438458|102
02.11.2018 01:00:00||AKTİFBANK|10.40.25.131|||110000438458|82
02.11.2018 01:00:00||AKTİFBANK|10.40.25.131|||110000438458|82
02.11.2018 01:00:00||AKTİFBANK|10.40.25.131|||110000438458|22
02.11.2018 01:00:00||AKTİFBANK|10.40.25.131|||110000438458|120
02.11.2018 01:00:00||AKTİFBANK|10.40.25.132|||110000438458|62
02.11.2018 01:00:00||AKTİFBANK|10.40.25.132|||110000438458|62
02.11.2018 01:00:00||AKTİFBANK|10.40.25.132|||110000438458|28
02.11.2018 01:00:00||AKTİFBANK|10.40.25.132|||110000438458|103
02.11.2018 01:00:00||AKTİFBANK|10.40.25.132|||110000438458|40
02.11.2018 01:00:00||AKTİFBANK|10.40.25.143|||110000438458|320
02.11.2018 01:00:00||AKTİFBANK|10.40.25.144|||110000438458|80
02.11.2018 01:00:00||AKTİFBANK|10.40.25.144|||110000438458|50
02.11.2018 01:00:00||AKTİFBANK|10.40.25.144|||110000438458|20
02.11.2018 01:00:00||AKTİFBANK|10.40.25.154|||110000438458|10
02.11.2018 01:00:00||AKTİFBANK|10.40.25.154|||110000438458|10
02.11.2018 01:00:00||AKTİFBANK|10.40.25.154|||110000438458|10
02.11.2018 01:00:00||AKTİFBANK|10.40.25.157|||110000438458|70
02.11.2018 01:00:00||AKTİFBANK|10.40.25.157|||110000438458|70
02.11.2018 01:00:00||AKTİFBANK|10.40.25.157|||110000438458|72
02.11.2018 01:00:00||AKTİFBANK|10.40.25.157|||110000438458|82
02.11.2018 01:00:00||AKTİFBANK|10.40.25.157|||110000438458|50
02.11.2018 01:00:00||AKTİFBANK|10.40.25.159|||110000438458|60
02.11.2018 01:00:00||AKTİFBANK|10.40.25.159|||110000438458|10
02.11.2018 01:00:00||AKTİFBANK|10.40.25.159|||110000438458|90
02.11.2018 01:00:00||AKTİFBANK|10.40.25.158|||110000438458|55
02.11.2018 01:00:00||AKTİFBANK|10.40.25.158|||110000438458|37
02.11.2018 01:00:00||AKTİFBANK|10.40.25.158|||110000438458|65
02.11.2018 01:00:00||AKTİFBANK|10.40.25.158|||110000438458|50
02.11.2018 01:00:00||AKTİFBANK|10.40.25.160|||110000438458|90
02.11.2018 01:00:00||AKTİFBANK|10.40.25.161|||110000438458|80
02.11.2018 01:00:00||AKTİFBANK|10.40.25.161|||110000438458|70
02.11.2018 01:00:00||AKTİFBANK|10.40.25.161|||110000438458|52
02.11.2018 01:00:00||AKTİFBANK|10.40.25.145|||110000438458|90
02.11.2018 01:00:00||AKTİFBANK|10.40.25.145|||110000438458|60
02.11.2018 01:00:00||AKTİFBANK|10.40.25.145|||110000438458|60
02.11.2018 01:00:00||AKTİFBANK|10.40.25.145|||110000438458|30
02.11.2018 01:00:00||AKTİFBANK|10.40.25.145|||110000438458|50
02.11.2018 01:00:00||AKTİFBANK|10.40.25.147|||110000438458|90
02.11.2018 01:00:00||AKTİFBANK|10.40.25.162|||110000438458|30
02.11.2018 01:00:00||AKTİFBANK|10.40.25.162|||110000438458|30
02.11.2018 01:00:00||AKTİFBANK|10.40.25.162|||110000438458|60
02.11.2018 01:00:00||AKTİFBANK|10.40.25.164|||110000438458|60
02.11.2018 01:00:00||AKTİFBANK|10.40.25.164|||110000438458|280
02.11.2018 01:00:00||AKTİFBANK|10.40.25.164|||110000438458|50
02.11.2018 01:00:00||AKTİFBANK|10.40.25.164|||110000438458|260
02.11.2018 01:00:00||AKTİFBANK|10.40.25.164|||110000438458|270
02.11.2018 01:00:00||AKTİFBANK|10.40.25.165|||110000438458|110
02.11.2018 01:00:00||AKTİFBANK|10.40.25.165|||110000438458|70
02.11.2018 01:00:00||AKTİFBANK|10.40.25.165|||110000438458|80
02.11.2018 01:00:00||AKTİFBANK|10.40.25.165|||110000438458|100
02.11.2018 01:00:00||AKTİFBANK|10.40.25.166|||110000438458|90
02.11.2018 01:00:00||AKTİFBANK|10.40.25.166|||110000438458|10
02.11.2018 01:00:00||AKTİFBANK|10.40.25.166|||110000438458|10
02.11.2018 01:00:00||AKTİFBANK|10.40.25.166|||110000438458|40
02.11.2018 01:00:00||AKTİFBANK|10.40.25.148|||110000438458|130
02.11.2018 01:00:00||AKTİFBANK|10.40.25.148|||110000438458|50
02.11.2018 01:00:00||AKTİFBANK|10.40.25.148|||110000438458|100
02.11.2018 01:00:00||AKTİFBANK|10.40.25.148|||110000438458|130
02.11.2018 01:00:00||AKTİFBANK|10.40.25.148|||110000438458|90
02.11.2018 01:00:00||AKTİFBANK|10.40.25.148|||110000438458|80
02.11.2018 01:00:00||AKTİFBANK|10.40.25.148|||110000438458|70
02.11.2018 01:00:00||AKTİFBANK|10.40.25.148|||110000438458|50
02.11.2018 01:00:00||AKTİFBANK|10.40.25.148|||110000438458|80
02.11.2018 01:00:00||AKTİFBANK|10.40.25.148|||110000438458|40
02.11.2018 01:00:00||AKTİFBANK|10.40.25.148|||110000438458|100
02.11.2018 01:00:00||AKTİFBANK|10.40.25.148|||110000438458|60
02.11.2018 01:00:00||AKTİFBANK|10.40.25.155|||110000438458|70
02.11.2018 01:00:00||AKTİFBANK|10.40.25.155|||110000438458|90
02.11.2018 01:00:00||AKTİFBANK|10.40.25.155|||110000438458|110
02.11.2018 01:00:00||AKTİFBANK|10.40.25.155|||110000438458|120
02.11.2018 01:00:00||AKTİFBANK|10.40.25.155|||110000438458|110
02.11.2018 01:00:00||AKTİFBANK|10.40.25.156|||110000438458|20
02.11.2018 01:00:00||AKTİFBANK|10.40.25.156|||110000438458|27
02.11.2018 01:00:00||BARİKAT İNTERNET GÜVENLİĞİ|10.40.24.201|||110000479736|140
02.11.2018 01:00:00||BARİKAT İNTERNET GÜVENLİĞİ|10.40.24.201|||110000479736|100
02.11.2018 01:00:00||BARİKAT İNTERNET GÜVENLİĞİ|10.40.25.201|||110000479736|117
02.11.2018 01:00:00||BARİKAT İNTERNET GÜVENLİĞİ|10.40.25.201|||110000479736|103
02.11.2018 01:00:00||BOYNER|10.40.26.100|||101367941673|590
02.11.2018 01:00:00||BOYNER|10.40.26.101|||101367941673|1660
02.11.2018 01:00:00||BOYNER|10.40.27.100|||101367941673|530
02.11.2018 01:00:00||BOYNER|10.40.27.101|||101367941673|1650
02.11.2018 01:00:00||BOYNER|10.40.27.94|||101367941673|210
02.11.2018 01:00:00||BOYNER|10.40.27.94|||101367941673|90
02.11.2018 01:00:00||BOYNER|10.40.27.94|||101367941673|90
02.11.2018 01:00:00||BOYNER|10.40.27.94|||101367941673|100
02.11.2018 01:00:00||BOYNER|10.40.26.94|||101367941673|90
02.11.2018 01:00:00||BOYNER|10.40.26.94|||101367941673|80
02.11.2018 01:00:00||BOYNER|10.40.26.94|||101367941673|80
02.11.2018 01:00:00||BOYNER|10.40.27.95|||101367941673|135
02.11.2018 01:00:00||BOYNER|10.40.27.95|||101367941673|132
02.11.2018 01:00:00||BOYNER|10.40.27.95|||101367941673|233
02.11.2018 01:00:00||BOYNER|10.40.26.95|||101367941673|130
02.11.2018 01:00:00||BOYNER|10.40.26.95|||101367941673|197
02.11.2018 01:00:00||BOYNER|10.40.26.95|||101367941673|140
02.11.2018 01:00:00||BOYNER|10.40.27.96|||101367941673|60
02.11.2018 01:00:00||BOYNER|10.40.27.96|||101367941673|52
02.11.2018 01:00:00||BOYNER|10.40.27.96|||101367941673|50
02.11.2018 01:00:00||BOYNER|10.40.27.96|||101367941673|40
02.11.2018 01:00:00||BOYNER|10.40.27.96|||101367941673|40
02.11.2018 01:00:00||BOYNER|10.40.27.96|||101367941673|155
02.11.2018 01:00:00||BOYNER|10.40.27.96|||101367941673|157
02.11.2018 01:00:00||BOYNER|10.40.27.96|||101367941673|185
02.11.2018 01:00:00||BOYNER|10.40.27.96|||101367941673|177
02.11.2018 01:00:00||BOYNER|10.40.26.96|||101367941673|30
02.11.2018 01:00:00||BOYNER|10.40.26.96|||101367941673|40
02.11.2018 01:00:00||BOYNER|10.40.26.96|||101367941673|30
02.11.2018 01:00:00||BOYNER|10.40.26.96|||101367941673|40
02.11.2018 01:00:00||BOYNER|10.40.26.96|||101367941673|40
02.11.2018 01:00:00||BOYNER|10.40.26.96|||101367941673|50
02.11.2018 01:00:00||BOYNER|10.40.26.96|||101367941673|192
02.11.2018 01:00:00||BOYNER|10.40.26.96|||101367941673|208
02.11.2018 01:00:00||BOYNER|10.40.26.96|||101367941673|170
02.11.2018 01:00:00||BOYNER|10.40.26.96|||101367941673|187
02.11.2018 01:00:00||BOYNER|10.40.27.97|||101367941673|60
02.11.2018 01:00:00||BOYNER|10.40.27.97|||101367941673|667
02.11.2018 01:00:00||BOYNER|10.40.27.97|||101367941673|667
02.11.2018 01:00:00||BOYNER|10.40.27.97|||101367941673|707
02.11.2018 01:00:00||BOYNER|10.40.27.97|||101367941673|40
02.11.2018 01:00:00||BOYNER|10.40.27.97|||101367941673|30
02.11.2018 01:00:00||BOYNER|10.40.27.97|||101367941673|50
02.11.2018 01:00:00||BOYNER|10.40.27.97|||101367941673|30
02.11.2018 01:00:00||BOYNER|10.40.27.97|||101367941673|173
02.11.2018 01:00:00||BOYNER|10.40.27.97|||101367941673|187
02.11.2018 01:00:00||BOYNER|10.40.27.97|||101367941673|197
02.11.2018 01:00:00||BOYNER|10.40.27.97|||101367941673|198
02.11.2018 01:00:00||BOYNER|10.40.26.97|||101367941673|30
02.11.2018 01:00:00||BOYNER|10.40.26.97|||101367941673|667
02.11.2018 01:00:00||BOYNER|10.40.26.97|||101367941673|663
02.11.2018 01:00:00||BOYNER|10.40.26.97|||101367941673|667
02.11.2018 01:00:00||BOYNER|10.40.26.97|||101367941673|33
02.11.2018 01:00:00||BOYNER|10.40.26.97|||101367941673|40
02.11.2018 01:00:00||BOYNER|10.40.26.97|||101367941673|50
02.11.2018 01:00:00||BOYNER|10.40.26.97|||101367941673|60
02.11.2018 01:00:00||BOYNER|10.40.26.97|||101367941673|30
02.11.2018 01:00:00||BOYNER|10.40.26.97|||101367941673|167
02.11.2018 01:00:00||BOYNER|10.40.26.97|||101367941673|177
02.11.2018 01:00:00||BOYNER|10.40.26.97|||101367941673|177
02.11.2018 01:00:00||BOYNER|10.40.26.97|||101367941673|162
02.11.2018 01:00:00||BOYNER|10.40.27.99|||101367941673|128
02.11.2018 01:00:00||BOYNER|10.40.27.99|||101367941673|85
02.11.2018 01:00:00||BOYNER|10.40.27.99|||101367941673|82
02.11.2018 01:00:00||BOYNER|10.40.26.99|||101367941673|12
02.11.2018 01:00:00||BOYNER|10.40.26.99|||101367941673|110
02.11.2018 01:00:00||BOYNER|10.40.26.99|||101367941673|100
02.11.2018 01:00:00||BOYNER|10.40.26.99|||101367941673|78
02.11.2018 01:00:00||ÇALIK HOLDİNG|10.40.24.118|||110000438407|380
02.11.2018 01:00:00||ÇALIK HOLDİNG|10.40.25.118|||110000438407|2700
02.11.2018 01:00:00||ÇALIK HOLDİNG|10.40.25.99|||110000438407|1370
02.11.2018 01:00:00||ÇALIK HOLDİNG|10.40.25.101|||110000438407|50
02.11.2018 01:00:00||ÇALIK HOLDİNG|10.40.25.101|||110000438407|110
02.11.2018 01:00:00||ÇALIK HOLDİNG|10.40.25.101|||110000438407|30
02.11.2018 01:00:00||ÇALIK HOLDİNG|10.40.25.101|||110000438407|10
02.11.2018 01:00:00||ÇALIK HOLDİNG|10.40.25.101|||110000438407|90
02.11.2018 01:00:00||ÇALIK HOLDİNG|10.40.25.101|||110000438407|30
02.11.2018 01:00:00||ÇALIK HOLDİNG|10.40.25.101|||110000438407|40
02.11.2018 01:00:00||ÇALIK HOLDİNG|10.40.25.101|||110000438407|40
02.11.2018 01:00:00||ÇALIK HOLDİNG|10.40.25.101|||110000438407|90
02.11.2018 01:00:00||ÇALIK HOLDİNG|10.40.25.101|||110000438407|90
02.11.2018 01:00:00||ÇALIK HOLDİNG|10.40.25.101|||110000438407|90
02.11.2018 01:00:00||ÇALIK HOLDİNG|10.40.25.94|||110000438407|180
02.11.2018 01:00:00||ÇALIK HOLDİNG|10.40.25.94|||110000438407|180
02.11.2018 01:00:00||ÇALIK HOLDİNG|10.40.25.94|||110000438407|170
02.11.2018 01:00:00||ÇALIK HOLDİNG|10.40.25.94|||110000438407|180
02.11.2018 01:00:00||ÇALIK HOLDİNG|10.40.24.94|||110000438407|197
02.11.2018 01:00:00||ÇALIK HOLDİNG|10.40.24.94|||110000438407|187
02.11.2018 01:00:00||ÇALIK HOLDİNG|10.40.24.94|||110000438407|192
02.11.2018 01:00:00||ÇALIK HOLDİNG|10.40.25.95|||110000438407|20
02.11.2018 01:00:00||ÇALIK HOLDİNG|10.40.25.95|||110000438407|352
02.11.2018 01:00:00||ÇALIK HOLDİNG|10.40.25.95|||110000438407|357
02.11.2018 01:00:00||ÇALIK HOLDİNG|10.40.25.95|||110000438407|40
02.11.2018 01:00:00||ÇALIK HOLDİNG|10.40.24.95|||110000438407|102
02.11.2018 01:00:00||ÇALIK HOLDİNG|10.40.24.95|||110000438407|90
02.11.2018 01:00:00||ÇALIK HOLDİNG|10.40.24.95|||110000438407|393
02.11.2018 01:00:00||ÇALIK HOLDİNG|10.40.24.95|||110000438407|398
02.11.2018 01:00:00||ÇALIK HOLDİNG|10.40.25.96|||110000438407|90
02.11.2018 01:00:00||ÇALIK HOLDİNG|10.40.25.96|||110000438407|97
02.11.2018 01:00:00||ÇALIK HOLDİNG|10.40.25.96|||110000438407|100
02.11.2018 01:00:00||ÇALIK HOLDİNG|10.40.25.96|||110000438407|258
02.11.2018 01:00:00||ÇALIK HOLDİNG|10.40.25.96|||110000438407|262
02.11.2018 01:00:00||ÇALIK HOLDİNG|10.40.25.96|||110000438407|100
02.11.2018 01:00:00||ÇALIK HOLDİNG|10.40.25.96|||110000438407|90
02.11.2018 01:00:00||ÇALIK HOLDİNG|10.40.25.96|||110000438407|95
02.11.2018 01:00:00||ÇALIK HOLDİNG|10.40.25.97|||110000438407|90
02.11.2018 01:00:00||ÇALIK HOLDİNG|10.40.25.97|||110000438407|80
02.11.2018 01:00:00||ÇALIK HOLDİNG|10.40.25.97|||110000438407|310
02.11.2018 01:00:00||ÇALIK HOLDİNG|10.40.25.98|||110000438407|50
02.11.2018 01:00:00||ÇALIK HOLDİNG|10.40.25.98|||110000438407|162
02.11.2018 01:00:00||ÇALIK HOLDİNG|10.40.25.98|||110000438407|160
02.11.2018 01:00:00||ÇALIK HOLDİNG|10.40.25.98|||110000438407|168
02.11.2018 01:00:00||ÇALIK HOLDİNG|10.40.25.98|||110000438407|168
02.11.2018 01:00:00||ÇALIK HOLDİNG|10.40.25.98|||110000438407|63
02.11.2018 01:00:00||ÇALIK HOLDİNG|10.40.25.98|||110000438407|210
02.11.2018 01:00:00||ÇALIK HOLDİNG|10.40.25.98|||110000438407|180
02.11.2018 01:00:00||ÇALIK HOLDİNG|10.40.25.98|||110000438407|170
02.11.2018 01:00:00||ÇALIK HOLDİNG|10.40.25.98|||110000438407|213
02.11.2018 01:00:00||ÇALIK HOLDİNG|10.40.25.98|||110000438407|70
02.11.2018 01:00:00||ÇALIK HOLDİNG|10.40.25.98|||110000438407|308
02.11.2018 01:00:00||ÇALIK HOLDİNG|10.40.24.98|||110000438407|90
02.11.2018 01:00:00||ÇALIK HOLDİNG|10.40.24.98|||110000438407|155
02.11.2018 01:00:00||ÇALIK HOLDİNG|10.40.24.98|||110000438407|202
02.11.2018 01:00:00||ÇALIK HOLDİNG|10.40.24.98|||110000438407|200
02.11.2018 01:00:00||ÇALIK HOLDİNG|10.40.24.98|||110000438407|160
02.11.2018 01:00:00||ÇALIK HOLDİNG|10.40.24.98|||110000438407|30
02.11.2018 01:00:00||ÇALIK HOLDİNG|10.40.24.98|||110000438407|165
02.11.2018 01:00:00||ÇALIK HOLDİNG|10.40.24.98|||110000438407|180
02.11.2018 01:00:00||ÇALIK HOLDİNG|10.40.24.98|||110000438407|168
02.11.2018 01:00:00||ÇALIK HOLDİNG|10.40.24.98|||110000438407|172
02.11.2018 01:00:00||ÇALIK HOLDİNG|10.40.24.98|||110000438407|20
02.11.2018 01:00:00||ÇALIK HOLDİNG|10.40.24.98|||110000438407|287
02.11.2018 01:00:00||ÇALIK HOLDİNG|10.40.25.100|||110000438407|33
02.11.2018 01:00:00||ÇALIK HOLDİNG|10.40.25.100|||110000438407|40
02.11.2018 01:00:00||ÇALIK HOLDİNG|10.40.24.101|||110000438407|60
02.11.2018 01:00:00||ÇALIK HOLDİNG|10.40.24.101|||110000438407|110
02.11.2018 01:00:00||ÇALIK HOLDİNG|10.40.24.101|||110000438407|20
02.11.2018 01:00:00||ÇALIK HOLDİNG|10.40.24.101|||110000438407|20
02.11.2018 01:00:00||ÇALIK HOLDİNG|10.40.24.101|||110000438407|40
02.11.2018 01:00:00||ÇALIK HOLDİNG|10.40.24.101|||110000438407|90
02.11.2018 01:00:00||ÇALIK HOLDİNG|10.40.24.101|||110000438407|30
02.11.2018 01:00:00||ÇALIK HOLDİNG|10.40.24.101|||110000438407|10
02.11.2018 01:00:00||ÇALIK HOLDİNG|10.40.24.101|||110000438407|20
02.11.2018 01:00:00||ÇALIK HOLDİNG|10.40.24.101|||110000438407|50
02.11.2018 01:00:00||ÇALIK HOLDİNG|10.40.24.101|||110000438407|30
02.11.2018 01:00:00||ÇALIK HOLDİNG|10.40.24.101|||110000438407|80
02.11.2018 01:00:00||ÇALIK HOLDİNG|10.40.24.101|||110000438407|80
02.11.2018 01:00:00||ÇALIK HOLDİNG|10.40.24.101|||110000438407|92
02.11.2018 01:00:00||ÇALIK HOLDİNG|10.40.25.102|||110000438407|100
02.11.2018 01:00:00||ÇALIK HOLDİNG|10.40.25.102|||110000438407|90
02.11.2018 01:00:00||ÇALIK HOLDİNG|10.40.25.102|||110000438407|150
02.11.2018 01:00:00||ÇALIK HOLDİNG|10.40.24.102|||110000438407|100
02.11.2018 01:00:00||ÇALIK HOLDİNG|10.40.24.102|||110000438407|90
02.11.2018 01:00:00||ÇALIK HOLDİNG|10.40.24.102|||110000438407|140
02.11.2018 01:00:00||ÇALIK HOLDİNG|10.40.25.103|||110000438407|90
02.11.2018 01:00:00||ÇALIK HOLDİNG|10.40.25.103|||110000438407|80
02.11.2018 01:00:00||ÇALIK HOLDİNG|10.40.25.103|||110000438407|10
02.11.2018 01:00:00||ÇALIK HOLDİNG|10.40.25.115|||110000438407|80
02.11.2018 01:00:00||ÇALIK HOLDİNG|10.40.24.103|||110000438407|100
02.11.2018 01:00:00||ÇALIK HOLDİNG|10.40.24.103|||110000438407|80
02.11.2018 01:00:00||ÇALIK HOLDİNG|10.40.24.103|||110000438407|80
02.11.2018 01:00:00||ÇALIK HOLDİNG|10.40.24.103|||110000438407|20
02.11.2018 01:00:00||ÇALIK HOLDİNG|10.40.24.103|||110000438407|10
02.11.2018 01:00:00||ÇALIK HOLDİNG|10.40.25.113|||110000438407|222
02.11.2018 01:00:00||ÇALIK HOLDİNG|10.40.25.113|||110000438407|237
02.11.2018 01:00:00||ÇALIK HOLDİNG|10.40.25.113|||110000438407|185
02.11.2018 01:00:00||ÇALIK HOLDİNG|10.40.25.113|||110000438407|202
02.11.2018 01:00:00||ÇALIK HOLDİNG|10.40.24.113|||110000438407|227
02.11.2018 01:00:00||ÇALIK HOLDİNG|10.40.24.113|||110000438407|222
02.11.2018 01:00:00||ÇALIK HOLDİNG|10.40.24.113|||110000438407|183
02.11.2018 01:00:00||ÇALIK HOLDİNG|10.40.24.113|||110000438407|152
02.11.2018 01:00:00||ÇALIK HOLDİNG|10.40.25.114|||110000438407|168
02.11.2018 01:00:00||ÇALIK HOLDİNG|10.40.25.114|||110000438407|415
02.11.2018 01:00:00||ÇALIK HOLDİNG|10.40.25.114|||110000438407|40
02.11.2018 01:00:00||ÇALIK HOLDİNG|10.40.24.114|||110000438407|20
02.11.2018 01:00:00||ÇALIK HOLDİNG|10.40.24.114|||110000438407|40
02.11.2018 01:00:00||ÇALIK HOLDİNG|10.40.24.114|||110000438407|148
02.11.2018 01:00:00||ÇALIK HOLDİNG|10.40.24.114|||110000438407|377
02.11.2018 01:00:00||ÇALIK HOLDİNG|10.40.24.115|||110000438407|170
02.11.2018 01:00:00||ÇALIK HOLDİNG|10.40.24.115|||110000438407|80
02.11.2018 01:00:00||ÇALIK HOLDİNG|10.40.24.115|||110000438407|90
02.11.2018 01:00:00||ÇALIK HOLDİNG|10.40.24.115|||110000438407|80
02.11.2018 01:00:00||ÇALIK HOLDİNG|10.40.24.115|||110000438407|90
02.11.2018 01:00:00||ÇALIK HOLDİNG|10.40.24.115|||110000438407|70
02.11.2018 01:00:00||ÇALIK HOLDİNG|10.40.25.116|||110000438407|100
02.11.2018 01:00:00||ÇALIK HOLDİNG|10.40.25.116|||110000438407|100
02.11.2018 01:00:00||ÇALIK HOLDİNG|10.40.25.116|||110000438407|298
02.11.2018 01:00:00||ÇALIK HOLDİNG|10.40.24.116|||110000438407|280
02.11.2018 01:00:00||ÇALIK HOLDİNG|10.40.24.116|||110000438407|100
02.11.2018 01:00:00||ÇALIK HOLDİNG|10.40.24.116|||110000438407|100
02.11.2018 01:00:00||ÇALIK HOLDİNG|10.40.25.117|||110000438407|250
02.11.2018 01:00:00||ÇALIK HOLDİNG|10.40.25.117|||110000438407|30
02.11.2018 01:00:00||ÇALIK HOLDİNG|10.40.25.117|||110000438407|25
02.11.2018 01:00:00||ÇALIK HOLDİNG|10.40.25.119|||110000438407|30
02.11.2018 01:00:00||ÇALIK HOLDİNG|10.40.25.119|||110000438407|30
02.11.2018 01:00:00||ÇALIK HOLDİNG|10.40.24.119|||110000438407|150
02.11.2018 01:00:00||ÇALIK HOLDİNG|10.40.24.119|||110000438407|30
02.11.2018 01:00:00||ÇALIK HOLDİNG|10.40.24.119|||110000438407|50
02.11.2018 01:00:00||ÇALIK HOLDİNG|10.40.25.120|||110000438407|105
02.11.2018 01:00:00||ÇALIK HOLDİNG|10.40.25.120|||110000438407|50
02.11.2018 01:00:00||ÇALIK HOLDİNG|10.40.25.120|||110000438407|20
02.11.2018 01:00:00||ÇALIK HOLDİNG|10.40.25.120|||110000438407|20
02.11.2018 01:00:00||ÇALIK HOLDİNG|10.40.25.120|||110000438407|30
02.11.2018 01:00:00||ÇALIK HOLDİNG|10.40.25.120|||110000438407|90
02.11.2018 01:00:00||ÇALIK HOLDİNG|10.40.25.120|||110000438407|90
02.11.2018 01:00:00||ÇALIK HOLDİNG|10.40.24.120|||110000438407|20
02.11.2018 01:00:00||ÇALIK HOLDİNG|10.40.24.120|||110000438407|32
02.11.2018 01:00:00||ÇALIK HOLDİNG|10.40.24.120|||110000438407|110
02.11.2018 01:00:00||ÇALIK HOLDİNG|10.40.24.120|||110000438407|100
02.11.2018 01:00:00||ÇALIK HOLDİNG|10.40.24.120|||110000438407|40
02.11.2018 01:00:00||ÇALIK HOLDİNG|10.40.24.120|||110000438407|80
02.11.2018 01:00:00||ÇALIK HOLDİNG|10.40.24.120|||110000438407|80
02.11.2018 01:00:00||ÇALIK HOLDİNG|10.40.24.120|||110000438407|70
02.11.2018 01:00:00||ÇALIK HOLDİNG|10.40.25.121|||110000438407|90
02.11.2018 01:00:00||ÇALIK HOLDİNG|10.40.25.121|||110000438407|100
02.11.2018 01:00:00||ÇALIK HOLDİNG|10.40.25.121|||110000438407|150
02.11.2018 01:00:00||ÇALIK HOLDİNG|10.40.24.121|||110000438407|100
02.11.2018 01:00:00||ÇALIK HOLDİNG|10.40.24.121|||110000438407|100
02.11.2018 01:00:00||ÇALIK HOLDİNG|10.40.24.121|||110000438407|140
02.11.2018 01:00:00||ÇALIK HOLDİNG|10.40.25.122|||110000438407|90
02.11.2018 01:00:00||ÇALIK HOLDİNG|10.40.25.122|||110000438407|82
02.11.2018 01:00:00||ÇALIK HOLDİNG|10.40.25.122|||110000438407|80
02.11.2018 01:00:00||ÇALIK HOLDİNG|10.40.25.122|||110000438407|30
02.11.2018 01:00:00||ÇALIK HOLDİNG|10.40.25.122|||110000438407|10
02.11.2018 01:00:00||ÇALIK HOLDİNG|10.40.24.122|||110000438407|90
02.11.2018 01:00:00||ÇALIK HOLDİNG|10.40.24.122|||110000438407|80
02.11.2018 01:00:00||ÇALIK HOLDİNG|10.40.24.122|||110000438407|90
02.11.2018 01:00:00||ÇALIK HOLDİNG|10.40.24.117|||110000438407|200
02.11.2018 01:00:00||ÇALIK HOLDİNG|10.40.24.117|||110000438407|30
02.11.2018 01:00:00||ÇALIK HOLDİNG|10.40.24.117|||110000438407|30
02.11.2018 01:00:00||ÇALIK HOLDİNG|10.40.24.97|||110000438407|102
02.11.2018 01:00:00||ÇALIK HOLDİNG|10.40.24.97|||110000438407|90
02.11.2018 01:00:00||ÇALIK HOLDİNG|10.40.24.97|||110000438407|80
02.11.2018 01:00:00||ÇALIK HOLDİNG|10.40.24.97|||110000438407|90
02.11.2018 01:00:00||ÇALIK HOLDİNG|10.40.24.97|||110000438407|313
02.11.2018 01:00:00||ÇALIK HOLDİNG|10.40.24.100|||110000438407|30
02.11.2018 01:00:00||ÇALIK HOLDİNG|10.40.24.100|||110000438407|40
02.11.2018 01:00:00||ÇALIK HOLDİNG|10.40.25.103|||110000438407|90
02.11.2018 01:00:00||ÇALIK HOLDİNG|10.40.25.115|||110000438407|162
02.11.2018 01:00:00||ÇALIK HOLDİNG|10.40.25.115|||110000438407|70
02.11.2018 01:00:00||ÇALIK HOLDİNG|10.40.25.120|||110000438407|22
02.11.2018 01:00:00||ÇALIK HOLDİNG|10.40.25.120|||110000438407|60
02.11.2018 01:00:00||ÇALIK HOLDİNG|10.40.25.120|||110000438407|90
02.11.2018 01:00:00||ÇALIK HOLDİNG|10.40.25.97|||110000438407|80
02.11.2018 01:00:00||ÇALIK HOLDİNG|10.40.25.96|||110000438407|70
02.11.2018 01:00:00||ÇALIK HOLDİNG|10.40.25.96|||110000438407|90
02.11.2018 01:00:00||ÇALIK HOLDİNG|10.40.25.96|||110000438407|120
02.11.2018 01:00:00||ÇALIK HOLDİNG|10.40.25.96|||110000438407|90
02.11.2018 01:00:00||ÇALIK HOLDİNG|10.40.25.95|||110000438407|98
02.11.2018 01:00:00||ÇALIK HOLDİNG|10.40.25.95|||110000438407|50
02.11.2018 01:00:00||ÇALIK HOLDİNG|10.40.24.94|||110000438407|188
02.11.2018 01:00:00||ÇALIK HOLDİNG|10.40.25.97|||110000438407|110
02.11.2018 01:00:00||ÇALIK HOLDİNG|10.40.25.115|||110000438407|80
02.11.2018 01:00:00||ÇALIK HOLDİNG|10.40.25.115|||110000438407|68
02.11.2018 01:00:00||ÇALIK HOLDİNG|10.40.25.115|||110000438407|62
02.11.2018 01:00:00||ÇALIK HOLDİNG|10.40.24.95|||110000438407|50
02.11.2018 01:00:00||ÇALIK HOLDİNG|10.40.25.120|||110000438407|62
02.11.2018 01:00:00||ÇALIK HOLDİNG|10.40.25.96|||110000438407|90
02.11.2018 01:00:00||ÇALIK HOLDİNG|10.40.25.96|||110000438407|100
02.11.2018 01:00:00||FIBABANKA|10.40.26.54|||101571767266|3150
02.11.2018 01:00:00||FIBABANKA|10.40.26.55|||101571767266|1080
02.11.2018 01:00:00||FIBABANKA|10.40.25.56|||101571767266|1970
02.11.2018 01:00:00||FIBABANKA|10.40.27.54|||101571767266|3100
02.11.2018 01:00:00||FIBABANKA|10.40.27.55|||101571767266|1020
02.11.2018 01:00:00||FIBABANKA|10.40.24.55|||101571767266|1110
02.11.2018 01:00:00||FIBABANKA|10.40.25.54|||101571767266|3300
02.11.2018 01:00:00||FIBABANKA|10.40.24.54|||101571767266|3140
02.11.2018 01:00:00||FIBABANKA|10.40.25.55|||101571767266|1130
02.11.2018 01:00:00||FIBABANKA|10.40.24.56|||101571767266|1990
02.11.2018 01:00:00||FIBABANKA|10.40.26.57|||101571767266|90
02.11.2018 01:00:00||FIBABANKA|10.40.26.57|||101571767266|82
02.11.2018 01:00:00||FIBABANKA|10.40.26.57|||101571767266|80
02.11.2018 01:00:00||FIBABANKA|10.40.26.57|||101571767266|70
02.11.2018 01:00:00||FIBABANKA|10.40.26.57|||101571767266|67
02.11.2018 01:00:00||FIBABANKA|10.40.27.72|||101571767266|40
02.11.2018 01:00:00||FIBABANKA|10.40.27.72|||101571767266|50
02.11.2018 01:00:00||FIBABANKA|10.40.27.72|||101571767266|40
02.11.2018 01:00:00||FIBABANKA|10.40.27.72|||101571767266|140
02.11.2018 01:00:00||FIBABANKA|10.40.27.72|||101571767266|60
02.11.2018 01:00:00||FIBABANKA|10.40.26.72|||101571767266|30
02.11.2018 01:00:00||FIBABANKA|10.40.26.72|||101571767266|140
02.11.2018 01:00:00||FIBABANKA|10.40.26.72|||101571767266|70
02.11.2018 01:00:00||FIBABANKA|10.40.26.72|||101571767266|30
02.11.2018 01:00:00||FIBABANKA|10.40.27.73|||101571767266|30
02.11.2018 01:00:00||FIBABANKA|10.40.27.73|||101571767266|100
02.11.2018 01:00:00||FIBABANKA|10.40.27.73|||101571767266|40
02.11.2018 01:00:00||FIBABANKA|10.40.27.73|||101571767266|40
02.11.2018 01:00:00||FIBABANKA|10.40.27.73|||101571767266|355
02.11.2018 01:00:00||FIBABANKA|10.40.26.73|||101571767266|40
02.11.2018 01:00:00||FIBABANKA|10.40.26.73|||101571767266|70
02.11.2018 01:00:00||FIBABANKA|10.40.26.73|||101571767266|30
02.11.2018 01:00:00||FIBABANKA|10.40.26.73|||101571767266|8
02.11.2018 01:00:00||FIBABANKA|10.40.27.74|||101571767266|73
02.11.2018 01:00:00||FIBABANKA|10.40.27.74|||101571767266|185
02.11.2018 01:00:00||FIBABANKA|10.40.27.74|||101571767266|180
02.11.2018 01:00:00||FIBABANKA|10.40.26.74|||101571767266|70
02.11.2018 01:00:00||FIBABANKA|10.40.26.74|||101571767266|210
02.11.2018 01:00:00||FIBABANKA|10.40.26.74|||101571767266|180
02.11.2018 01:00:00||FIBABANKA|10.40.26.74|||101571767266|188
02.11.2018 01:00:00||FIBABANKA|10.40.27.75|||101571767266|10
02.11.2018 01:00:00||FIBABANKA|10.40.27.75|||101571767266|10
02.11.2018 01:00:00||FIBABANKA|10.40.27.75|||101571767266|60
02.11.2018 01:00:00||FIBABANKA|10.40.26.75|||101571767266|10
02.11.2018 01:00:00||FIBABANKA|10.40.27.76|||101571767266|90
02.11.2018 01:00:00||FIBABANKA|10.40.26.76|||101571767266|100
02.11.2018 01:00:00||FIBABANKA|10.40.26.79|||101571767266|10
02.11.2018 01:00:00||FIBABANKA|10.40.27.79|||101571767266|10
02.11.2018 01:00:00||FIBABANKA|10.40.27.79|||101571767266|10
02.11.2018 01:00:00||FIBABANKA|10.40.26.79|||101571767266|10
02.11.2018 01:00:00||FIBABANKA|10.40.27.77|||101571767266|52
02.11.2018 01:00:00||FIBABANKA|10.40.27.77|||101571767266|30
02.11.2018 01:00:00||FIBABANKA|10.40.27.77|||101571767266|153
02.11.2018 01:00:00||FIBABANKA|10.40.26.77|||101571767266|43
02.11.2018 01:00:00||FIBABANKA|10.40.26.77|||101571767266|50
02.11.2018 01:00:00||FIBABANKA|10.40.26.77|||101571767266|200
02.11.2018 01:00:00||FIBABANKA|10.40.26.77|||101571767266|208
02.11.2018 01:00:00||FIBABANKA|10.40.26.77|||101571767266|85
02.11.2018 01:00:00||FIBABANKA|10.40.26.77|||101571767266|83
02.11.2018 01:00:00||FIBABANKA|10.40.26.77|||101571767266|188
02.11.2018 01:00:00||FIBABANKA|10.40.26.77|||101571767266|185
02.11.2018 01:00:00||FIBABANKA|10.40.27.77|||101571767266|52
02.11.2018 01:00:00||FIBABANKA|10.40.27.77|||101571767266|33
02.11.2018 01:00:00||FIBABANKA|10.40.27.77|||101571767266|152
02.11.2018 01:00:00||FIBABANKA|10.40.27.57|||101571767266|80
02.11.2018 01:00:00||FIBABANKA|10.40.26.60|||101571767266|220
02.11.2018 01:00:00||FIBABANKA|10.40.25.74|||101571767266|230
02.11.2018 01:00:00||FIBABANKA|10.40.24.75|||101571767266|178
02.11.2018 01:00:00||FIBABANKA|10.40.24.75|||101571767266|143
02.11.2018 01:00:00||FIBABANKA|10.40.24.53|||101571767266|190
02.11.2018 01:00:00||FIBABANKA|10.40.24.53|||101571767266|177
02.11.2018 01:00:00||FIBABANKA|10.40.25.52|||101571767266|10
02.11.2018 01:00:00||FIBABANKA|10.40.25.52|||101571767266|50
02.11.2018 01:00:00||FIBABANKA|10.40.25.52|||101571767266|75
02.11.2018 01:00:00||FIBABANKA|10.40.25.53|||101571767266|180
02.11.2018 01:00:00||FIBABANKA|10.40.25.53|||101571767266|162
02.11.2018 01:00:00||FIBABANKA|10.40.27.51|||101571767266|30
02.11.2018 01:00:00||FIBABANKA|10.40.27.51|||101571767266|20
02.11.2018 01:00:00||FIBABANKA|10.40.27.51|||101571767266|100
02.11.2018 01:00:00||FIBABANKA|10.40.27.51|||101571767266|140
02.11.2018 01:00:00||FIBABANKA|10.40.27.51|||101571767266|70
02.11.2018 01:00:00||FIBABANKA|10.40.27.51|||101571767266|40
02.11.2018 01:00:00||FIBABANKA|10.40.27.51|||101571767266|40
02.11.2018 01:00:00||FIBABANKA|10.40.26.51|||101571767266|10
02.11.2018 01:00:00||FIBABANKA|10.40.26.51|||101571767266|110
02.11.2018 01:00:00||FIBABANKA|10.40.26.51|||101571767266|130
02.11.2018 01:00:00||FIBABANKA|10.40.26.51|||101571767266|30
02.11.2018 01:00:00||FIBABANKA|10.40.26.51|||101571767266|30
02.11.2018 01:00:00||FIBABANKA|10.40.24.74|||101571767266|35
02.11.2018 01:00:00||FIBABANKA|10.40.25.76|||101571767266|60
02.11.2018 01:00:00||FIBABANKA|10.40.25.76|||101571767266|40
02.11.2018 01:00:00||FIBABANKA|10.40.25.76|||101571767266|10
02.11.2018 01:00:00||FIBABANKA|10.40.25.52|||101571767266|40
02.11.2018 01:00:00||FIBABANKA|10.40.25.52|||101571767266|30
02.11.2018 01:00:00||FIBABANKA|10.40.25.51|||101571767266|20
02.11.2018 01:00:00||FIBABANKA|10.40.24.52|||101571767266|32
02.11.2018 01:00:00||FIBABANKA|10.40.25.51|||101571767266|140
02.11.2018 01:00:00||FIBABANKA|10.40.24.51|||101571767266|30
02.11.2018 01:00:00||FIBABANKA|10.40.25.57|||101571767266|90
02.11.2018 01:00:00||FIBABANKA|10.40.25.57|||101571767266|90
02.11.2018 01:00:00||FIBABANKA|10.40.25.57|||101571767266|90
02.11.2018 01:00:00||FIBABANKA|10.40.25.57|||101571767266|95
02.11.2018 01:00:00||FIBABANKA|10.40.25.57|||101571767266|100
02.11.2018 01:00:00||FIBABANKA|10.40.25.57|||101571767266|80
02.11.2018 01:00:00||FIBABANKA|10.40.24.57|||101571767266|90
02.11.2018 01:00:00||FIBABANKA|10.40.24.57|||101571767266|80
02.11.2018 01:00:00||FIBABANKA|10.40.24.57|||101571767266|80
02.11.2018 01:00:00||FIBABANKA|10.40.24.57|||101571767266|70
02.11.2018 01:00:00||FIBABANKA|10.40.26.51|||101571767266|20
02.11.2018 01:00:00||FIBABANKA|10.40.27.52|||101571767266|50
02.11.2018 01:00:00||FIBABANKA|10.40.27.52|||101571767266|60
02.11.2018 01:00:00||FIBABANKA|10.40.27.52|||101571767266|70
02.11.2018 01:00:00||FIBABANKA|10.40.27.53|||101571767266|60
02.11.2018 01:00:00||FIBABANKA|10.40.26.53|||101571767266|72
02.11.2018 01:00:00||FIBABANKA|10.40.26.53|||101571767266|62
02.11.2018 01:00:00||FIBABANKA|10.40.27.57|||101571767266|80
02.11.2018 01:00:00||FIBABANKA|10.40.27.53|||101571767266|70
02.11.2018 01:00:00||FIBABANKA|10.40.27.53|||101571767266|167
02.11.2018 01:00:00||FIBABANKA|10.40.27.53|||101571767266|178
02.11.2018 01:00:00||FIBABANKA|10.40.27.57|||101571767266|80
02.11.2018 01:00:00||FIBABANKA|10.40.27.57|||101571767266|80
02.11.2018 01:00:00||FIBABANKA|10.40.26.60|||101571767266|110
02.11.2018 01:00:00||FIBABANKA|10.40.26.60|||101571767266|150
02.11.2018 01:00:00||FIBABANKA|10.40.26.60|||101571767266|28
02.11.2018 01:00:00||FIBABANKA|10.40.27.60|||101571767266|50
02.11.2018 01:00:00||FIBABANKA|10.40.27.60|||101571767266|220
02.11.2018 01:00:00||FIBABANKA|10.40.27.60|||101571767266|233
02.11.2018 01:00:00||FIBABANKA|10.40.27.60|||101571767266|47
02.11.2018 01:00:00||FIBABANKA|10.40.27.60|||101571767266|160
02.11.2018 01:00:00||FIBABANKA|10.40.27.60|||101571767266|10
02.11.2018 01:00:00||FIBABANKA|10.40.27.60|||101571767266|100
02.11.2018 01:00:00||FIBABANKA|10.40.27.60|||101571767266|112
02.11.2018 01:00:00||FIBABANKA|10.40.26.60|||101571767266|10
02.11.2018 01:00:00||FIBABANKA|10.40.26.60|||101571767266|112
02.11.2018 01:00:00||FIBABANKA|10.40.26.60|||101571767266|120
02.11.2018 01:00:00||FIBABANKA|10.40.26.60|||101571767266|235
02.11.2018 01:00:00||FIBABANKA|10.40.27.73|||101571767266|10
02.11.2018 01:00:00||FIBABANKA|10.40.27.74|||101571767266|175
02.11.2018 01:00:00||FIBABANKA|10.40.25.57|||101571767266|90
02.11.2018 01:00:00||FIBABANKA|10.40.27.60|||101571767266|50
02.11.2018 01:00:00||FIBABANKA|10.40.25.53|||101571767266|50
02.11.2018 01:00:00||FIBABANKA|10.40.25.51|||101571767266|110
02.11.2018 01:00:00||FIBABANKA|10.40.24.51|||101571767266|20
02.11.2018 01:00:00||FIBABANKA|10.40.24.51|||101571767266|70
02.11.2018 01:00:00||FIBABANKA|10.40.24.51|||101571767266|100
02.11.2018 01:00:00||FIBABANKA|10.40.24.52|||101571767266|40
02.11.2018 01:00:00||FIBABANKA|10.40.24.52|||101571767266|10
02.11.2018 01:00:00||FIBABANKA|10.40.25.51|||101571767266|40
02.11.2018 01:00:00||FIBABANKA|10.40.25.51|||101571767266|40
02.11.2018 01:00:00||FIBABANKA|10.40.25.51|||101571767266|70
02.11.2018 01:00:00||FIBABANKA|10.40.26.51|||101571767266|70
02.11.2018 01:00:00||FIBABANKA|10.40.26.52|||101571767266|30
02.11.2018 01:00:00||FIBABANKA|10.40.26.52|||101571767266|90
02.11.2018 01:00:00||FIBABANKA|10.40.26.52|||101571767266|30
02.11.2018 01:00:00||FIBABANKA|10.40.27.60|||101571767266|90
02.11.2018 01:00:00||FIBABANKA|10.40.26.73|||101571767266|40
02.11.2018 01:00:00||FIBABANKA|10.40.26.53|||101571767266|40
02.11.2018 01:00:00||FIBABANKA|10.40.26.53|||101571767266|163
02.11.2018 01:00:00||FIBABANKA|10.40.25.57|||101571767266|82
02.11.2018 01:00:00||FIBABANKA|10.40.25.76|||101571767266|10
02.11.2018 01:00:00||FIBABANKA|10.40.26.53|||101571767266|167
02.11.2018 01:00:00||FIBABANKA|10.40.27.57|||101571767266|80
02.11.2018 01:00:00||FIBABANKA|10.40.26.60|||101571767266|10
02.11.2018 01:00:00||FIBABANKA|10.40.24.57|||101571767266|100
02.11.2018 01:00:00||FIBABANKA|10.40.24.57|||101571767266|70
02.11.2018 01:00:00||FIBABANKA|10.40.24.57|||101571767266|85
02.11.2018 01:00:00||FIBABANKA|10.40.25.53|||101571767266|30
02.11.2018 01:00:00||FIBABANKA|10.40.24.51|||101571767266|140
02.11.2018 01:00:00||FIBABANKA|10.40.24.51|||101571767266|32
02.11.2018 01:00:00||FIBABANKA|10.40.24.57|||101571767266|70
02.11.2018 01:00:00||FIBABANKA|10.40.25.59|||101571767266|70
02.11.2018 01:00:00||FIBABANKA|10.40.25.59|||101571767266|90
02.11.2018 01:00:00||FIBABANKA|10.40.25.59|||101571767266|90
02.11.2018 01:00:00||FIBABANKA|10.40.25.59|||101571767266|40
02.11.2018 01:00:00||FIBABANKA|10.40.25.59|||101571767266|120
02.11.2018 01:00:00||FIBABANKA|10.40.25.59|||101571767266|60
02.11.2018 01:00:00||FIBABANKA|10.40.25.59|||101571767266|50
02.11.2018 01:00:00||FIBABANKA|10.40.25.59|||101571767266|140
02.11.2018 01:00:00||FIBABANKA|10.40.25.59|||101571767266|50
02.11.2018 01:00:00||FIBABANKA|10.40.24.59|||101571767266|70
02.11.2018 01:00:00||FIBABANKA|10.40.24.59|||101571767266|122
02.11.2018 01:00:00||FIBABANKA|10.40.24.59|||101571767266|80
02.11.2018 01:00:00||FIBABANKA|10.40.24.59|||101571767266|65
02.11.2018 01:00:00||FIBABANKA|10.40.24.59|||101571767266|63
02.11.2018 01:00:00||FIBABANKA|10.40.24.59|||101571767266|130
02.11.2018 01:00:00||FIBABANKA|10.40.24.59|||101571767266|70
02.11.2018 01:00:00||FIBABANKA|10.40.24.59|||101571767266|60
02.11.2018 01:00:00||FIBABANKA|10.40.24.59|||101571767266|140
02.11.2018 01:00:00||FIBABANKA|10.40.24.59|||101571767266|60
02.11.2018 01:00:00||FIBABANKA|10.40.25.60|||101571767266|100
02.11.2018 01:00:00||FIBABANKA|10.40.25.60|||101571767266|35
02.11.2018 01:00:00||FIBABANKA|10.40.25.60|||101571767266|110
02.11.2018 01:00:00||FIBABANKA|10.40.25.60|||101571767266|42
02.11.2018 01:00:00||FIBABANKA|10.40.24.60|||101571767266|110
02.11.2018 01:00:00||FIBABANKA|10.40.24.60|||101571767266|53
02.11.2018 01:00:00||FIBABANKA|10.40.24.60|||101571767266|40
02.11.2018 01:00:00||FIBABANKA|10.40.24.60|||101571767266|100
02.11.2018 01:00:00||FIBABANKA|10.40.24.60|||101571767266|50
02.11.2018 01:00:00||FIBABANKA|10.40.25.72|||101571767266|70
02.11.2018 01:00:00||FIBABANKA|10.40.25.72|||101571767266|40
02.11.2018 01:00:00||FIBABANKA|10.40.25.72|||101571767266|30
02.11.2018 01:00:00||FIBABANKA|10.40.24.72|||101571767266|140
02.11.2018 01:00:00||FIBABANKA|10.40.24.72|||101571767266|77
02.11.2018 01:00:00||FIBABANKA|10.40.24.72|||101571767266|30
02.11.2018 01:00:00||FIBABANKA|10.40.24.72|||101571767266|40
02.11.2018 01:00:00||FIBABANKA|10.40.25.74|||101571767266|30
02.11.2018 01:00:00||FIBABANKA|10.40.25.75|||101571767266|42
02.11.2018 01:00:00||FIBABANKA|10.40.25.75|||101571767266|83
02.11.2018 01:00:00||FIBABANKA|10.40.25.75|||101571767266|140
02.11.2018 01:00:00||FIBABANKA|10.40.25.75|||101571767266|172
02.11.2018 01:00:00||FIBABANKA|10.40.25.75|||101571767266|183
02.11.2018 01:00:00||FIBABANKA|10.40.25.75|||101571767266|212
02.11.2018 01:00:00||FIBABANKA|10.40.24.75|||101571767266|48
02.11.2018 01:00:00||FIBABANKA|10.40.24.75|||101571767266|45
02.11.2018 01:00:00||FIBABANKA|10.40.24.75|||101571767266|110
02.11.2018 01:00:00||FIBABANKA|10.40.24.75|||101571767266|167
02.11.2018 01:00:00||FIBABANKA|10.40.24.75|||101571767266|153
02.11.2018 01:00:00||FIBABANKA|10.40.24.76|||101571767266|48
02.11.2018 01:00:00||FIBABANKA|10.40.24.76|||101571767266|70
02.11.2018 01:00:00||FIBABANKA|10.40.24.76|||101571767266|20
02.11.2018 01:00:00||FIBABANKA|10.40.24.76|||101571767266|40
02.11.2018 01:00:00||FIBABANKA|10.40.24.76|||101571767266|10
02.11.2018 01:00:00||FIBABANKA|10.40.25.77|||101571767266|67
02.11.2018 01:00:00||FIBABANKA|10.40.25.77|||101571767266|38
02.11.2018 01:00:00||FIBABANKA|10.40.24.77|||101571767266|45
02.11.2018 01:00:00||FIBABANKA|10.40.24.77|||101571767266|30
02.11.2018 01:00:00||FIBABANKA|10.40.24.53|||101571767266|32
02.11.2018 01:00:00||FIBABANKA|10.40.24.53|||101571767266|60
02.11.2018 01:00:00||HAVAŞ|10.40.25.45|||110000479675|90
02.11.2018 01:00:00||HAVAŞ|10.40.25.45|||110000479675|90
02.11.2018 01:00:00||HAVAŞ|10.40.25.46|||110000479675|10
02.11.2018 01:00:00||HAVAŞ|10.40.25.46|||110000479675|10
02.11.2018 01:00:00||HAVAŞ|10.40.25.46|||110000479675|20
02.11.2018 01:00:00||HAVAŞ|10.40.25.46|||110000479675|20
02.11.2018 01:00:00||HAVAŞ|10.40.25.46|||110000479675|50
02.11.2018 01:00:00||HAVAŞ|10.40.25.46|||110000479675|100
02.11.2018 01:00:00||HAVAŞ|10.40.25.46|||110000479675|55
02.11.2018 01:00:00||HAVAŞ|10.40.25.46|||110000479675|80
02.11.2018 01:00:00||HAVAŞ|10.40.25.46|||110000479675|70
02.11.2018 01:00:00||HAVAŞ|10.40.24.46|||110000479675|20
02.11.2018 01:00:00||HAVAŞ|10.40.24.46|||110000479675|20
02.11.2018 01:00:00||HAVAŞ|10.40.24.46|||110000479675|3
02.11.2018 01:00:00||HAVAŞ|10.40.24.46|||110000479675|10
02.11.2018 01:00:00||HAVAŞ|10.40.24.46|||110000479675|10
02.11.2018 01:00:00||HAVAŞ|10.40.24.46|||110000479675|10
02.11.2018 01:00:00||HAVAŞ|10.40.24.46|||110000479675|60
02.11.2018 01:00:00||HAVAŞ|10.40.24.46|||110000479675|110
02.11.2018 01:00:00||HAVAŞ|10.40.24.47|||110000479675|30
02.11.2018 01:00:00||HAVAŞ|10.40.24.47|||110000479675|220
02.11.2018 01:00:00||HAVAŞ|10.40.24.47|||110000479675|62
02.11.2018 01:00:00||HAVAŞ|10.40.24.47|||110000479675|57
02.11.2018 01:00:00||HAVAŞ|10.40.24.47|||110000479675|160
02.11.2018 01:00:00||HAVAŞ|10.40.24.47|||110000479675|100
02.11.2018 01:00:00||HAVAŞ|10.40.24.47|||110000479675|100
02.11.2018 01:00:00||HAVAŞ|10.40.25.45|||110000479675|63
02.11.2018 01:00:00||HAVAŞ|10.40.25.47|||110000479675|228
02.11.2018 01:00:00||HAVAŞ|10.40.25.47|||110000479675|58
02.11.2018 01:00:00||HAVAŞ|10.40.25.47|||110000479675|88
02.11.2018 01:00:00||HAVAŞ|10.40.25.47|||110000479675|90
02.11.2018 01:00:00||HAVAŞ|10.40.25.47|||110000479675|90
02.11.2018 01:00:00||HAVAŞ|10.40.25.47|||110000479675|175
02.11.2018 01:00:00||HAVAŞ|10.40.25.47|||110000479675|180
02.11.2018 01:00:00||HAVAŞ|10.40.24.48|||110000479675|738
02.11.2018 01:00:00||HAVAŞ|10.40.25.48|||110000479675|720
02.11.2018 01:00:00||HAVAŞ|10.40.24.46|||110000479675|80
02.11.2018 01:00:00||HAVAŞ|10.40.24.47|||110000479675|30
02.11.2018 01:00:00||HAVAŞ|10.40.24.47|||110000479675|90
02.11.2018 01:00:00||HAVAŞ|10.40.24.47|||110000479675|90
02.11.2018 01:00:00||HAVAŞ|10.40.25.46|||110000479675|10
02.11.2018 01:00:00||HAVAŞ|10.40.25.46|||110000479675|60
02.11.2018 01:00:00||HAVAŞ|10.40.24.48|||110000479675|748
02.11.2018 01:00:00||HAVAŞ|10.40.24.46|||110000479675|60
02.11.2018 01:00:00||HAVAŞ|10.40.24.46|||110000479675|70
02.11.2018 01:00:00||HAVAŞ|10.40.24.47|||110000479675|13
02.11.2018 01:00:00||HAVAŞ|10.40.25.45|||110000479675|95
02.11.2018 01:00:00||HAVAŞ|10.40.24.45|||110000479675|50
02.11.2018 01:00:00||HAVAŞ|10.40.24.45|||110000479675|170
02.11.2018 01:00:00||HAVAŞ|10.40.24.45|||110000479675|100
02.11.2018 01:00:00||HAVAŞ|10.40.25.47|||110000479675|70
02.11.2018 01:00:00||HAVAŞ|10.40.25.47|||110000479675|90
02.11.2018 01:00:00||HAVAŞ|10.40.25.47|||110000479675|90
02.11.2018 01:00:00||HAVAŞ|10.40.25.47|||110000479675|90
02.11.2018 01:00:00||HAVAŞ|10.40.24.46|||110000479675|10
02.11.2018 01:00:00||HAVAŞ|10.40.24.48|||110000479675|737
02.11.2018 01:00:00||HAVAŞ|10.40.24.45|||110000479675|70
02.11.2018 01:00:00||HAVAŞ|10.40.25.47|||110000479675|70
02.11.2018 01:00:00||HAVAŞ|10.40.25.48|||110000479675|742
02.11.2018 01:00:00||HAVAŞ|10.40.25.48|||110000479675|750
02.11.2018 01:00:00||MARS CINEMA|10.40.25.204|||110000472614|110
02.11.2018 01:00:00||MARS CINEMA|10.40.25.204|||110000472614|100
02.11.2018 01:00:00||MARS CINEMA|10.40.24.203|||110000472614|80
02.11.2018 01:00:00||MARS CINEMA|10.40.24.203|||110000472614|90
02.11.2018 01:00:00||MARS CINEMA|10.40.24.203|||110000472614|147
02.11.2018 01:00:00||MARS CINEMA|10.40.24.203|||110000472614|53
02.11.2018 01:00:00||MARS CINEMA|10.40.24.203|||110000472614|142
02.11.2018 01:00:00||MARS CINEMA|10.40.24.203|||110000472614|152
02.11.2018 01:00:00||MARS CINEMA|10.40.24.203|||110000472614|100
02.11.2018 01:00:00||MARS CINEMA|10.40.24.203|||110000472614|183
02.11.2018 01:00:00||MARS CINEMA|10.40.24.204|||110000472614|112
02.11.2018 01:00:00||MARS CINEMA|10.40.24.204|||110000472614|92
02.11.2018 01:00:00||MARS CINEMA|10.40.24.204|||110000472614|90
02.11.2018 01:00:00||MARS CINEMA|10.40.24.204|||110000472614|20
02.11.2018 01:00:00||MARS CINEMA|10.40.24.204|||110000472614|10
02.11.2018 01:00:00||MARS CINEMA|10.40.24.204|||110000472614|90
02.11.2018 01:00:00||MARS CINEMA|10.40.24.204|||110000472614|118
02.11.2018 01:00:00||MARS CINEMA|10.40.24.204|||110000472614|92
02.11.2018 01:00:00||MARS CINEMA|10.40.24.204|||110000472614|110
02.11.2018 01:00:00||MARS CINEMA|10.40.24.204|||110000472614|80
02.11.2018 01:00:00||MARS CINEMA|10.40.25.206|||110000472614|122
02.11.2018 01:00:00||MARS CINEMA|10.40.25.206|||110000472614|40
02.11.2018 01:00:00||MARS CINEMA|10.40.25.206|||110000472614|40
02.11.2018 01:00:00||MARS CINEMA|10.40.25.206|||110000472614|40
02.11.2018 01:00:00||MARS CINEMA|10.40.25.206|||110000472614|20
02.11.2018 01:00:00||MARS CINEMA|10.40.25.206|||110000472614|20
02.11.2018 01:00:00||MARS CINEMA|10.40.25.206|||110000472614|30
02.11.2018 01:00:00||MARS CINEMA|10.40.25.206|||110000472614|60
02.11.2018 01:00:00||MARS CINEMA|10.40.25.206|||110000472614|40
02.11.2018 01:00:00||MARS CINEMA|10.40.25.206|||110000472614|85
02.11.2018 01:00:00||MARS CINEMA|10.40.25.206|||110000472614|90
02.11.2018 01:00:00||MARS CINEMA|10.40.24.206|||110000472614|155
02.11.2018 01:00:00||MARS CINEMA|10.40.24.206|||110000472614|40
02.11.2018 01:00:00||MARS CINEMA|10.40.24.206|||110000472614|40
02.11.2018 01:00:00||MARS CINEMA|10.40.24.206|||110000472614|43
02.11.2018 01:00:00||MARS CINEMA|10.40.24.206|||110000472614|30
02.11.2018 01:00:00||MARS CINEMA|10.40.24.206|||110000472614|30
02.11.2018 01:00:00||MARS CINEMA|10.40.24.206|||110000472614|192
02.11.2018 01:00:00||MARS CINEMA|10.40.24.206|||110000472614|160
02.11.2018 01:00:00||MARS CINEMA|10.40.24.206|||110000472614|20
02.11.2018 01:00:00||MARS CINEMA|10.40.24.206|||110000472614|80
02.11.2018 01:00:00||MARS CINEMA|10.40.24.206|||110000472614|78
02.11.2018 01:00:00||MARS CINEMA|10.40.24.204|||110000472614|65
02.11.2018 01:00:00||MARS CINEMA|10.40.24.203|||110000472614|108
02.11.2018 01:00:00||MARS CINEMA|10.40.24.204|||110000472614|20
02.11.2018 01:00:00||MARS CINEMA|10.40.24.204|||110000472614|93
02.11.2018 01:00:00||MARS CINEMA|10.40.24.203|||110000472614|78
02.11.2018 01:00:00||MARS CINEMA|10.40.24.203|||110000472614|160
02.11.2018 01:00:00||MARS CINEMA|10.40.24.203|||110000472614|103
02.11.2018 01:00:00||MARS CINEMA|10.40.24.204|||110000472614|40
02.11.2018 01:00:00||MARS CINEMA|10.40.24.203|||110000472614|82
02.11.2018 01:00:00||MARS CINEMA|10.40.25.203|||110000472614|160
02.11.2018 01:00:00||MARS CINEMA|10.40.25.203|||110000472614|90
02.11.2018 01:00:00||MARS CINEMA|10.40.25.203|||110000472614|187
02.11.2018 01:00:00||MARS CINEMA|10.40.25.203|||110000472614|95
02.11.2018 01:00:00||MARS CINEMA|10.40.25.203|||110000472614|83
02.11.2018 01:00:00||MARS CINEMA|10.40.25.203|||110000472614|113
02.11.2018 01:00:00||MARS CINEMA|10.40.25.203|||110000472614|80
02.11.2018 01:00:00||MARS CINEMA|10.40.25.203|||110000472614|148
02.11.2018 01:00:00||MARS CINEMA|10.40.25.203|||110000472614|92
02.11.2018 01:00:00||MARS CINEMA|10.40.25.203|||110000472614|110
02.11.2018 01:00:00||MARS CINEMA|10.40.25.203|||110000472614|95
02.11.2018 01:00:00||MARS CINEMA|10.40.25.203|||110000472614|63
02.11.2018 01:00:00||MARS CINEMA|10.40.25.203|||110000472614|188
02.11.2018 01:00:00||MARS CINEMA|10.40.25.204|||110000472614|110
02.11.2018 01:00:00||MARS CINEMA|10.40.25.204|||110000472614|70
02.11.2018 01:00:00||MARS CINEMA|10.40.25.204|||110000472614|80
02.11.2018 01:00:00||MARS CINEMA|10.40.25.204|||110000472614|100
02.11.2018 01:00:00||MARS CINEMA|10.40.25.204|||110000472614|20
02.11.2018 01:00:00||MARS CINEMA|10.40.25.204|||110000472614|20
02.11.2018 01:00:00||MARS CINEMA|10.40.25.204|||110000472614|30
02.11.2018 01:00:00||MARS CINEMA|10.40.25.204|||110000472614|40
02.11.2018 01:00:00||MARS CINEMA|10.40.25.204|||110000472614|90
02.11.2018 01:00:00||MARS CINEMA|10.40.25.204|||110000472614|120
02.11.2018 01:00:00||MARS CINEMA|10.40.25.204|||110000472614|80
02.11.2018 01:00:00||MARS CINEMA|10.40.25.204|||110000472614|80
02.11.2018 01:00:00||PEGASUS|10.40.27.84|||110000423831|2160
02.11.2018 01:00:00||PEGASUS|10.40.26.84|||110000423831|2250
02.11.2018 01:00:00||PEGASUS|10.40.26.66|||110000423831|930
02.11.2018 01:00:00||PEGASUS|10.40.27.66|||110000423831|1130
02.11.2018 01:00:00||PEGASUS|10.40.27.85|||110000423831|1170
02.11.2018 01:00:00||PEGASUS|10.40.26.85|||110000423831|1220
02.11.2018 01:00:00||PEGASUS|10.40.26.64|||110000423831|80
02.11.2018 01:00:00||PEGASUS|10.40.26.64|||110000423831|80
02.11.2018 01:00:00||PEGASUS|10.40.26.82|||110000423831|210
02.11.2018 01:00:00||PEGASUS|10.40.26.82|||110000423831|108
02.11.2018 01:00:00||PEGASUS|10.40.26.82|||110000423831|117
02.11.2018 01:00:00||PEGASUS|10.40.26.82|||110000423831|153
02.11.2018 01:00:00||PEGASUS|10.40.26.82|||110000423831|145
02.11.2018 01:00:00||PEGASUS|10.40.26.82|||110000423831|150
02.11.2018 01:00:00||PEGASUS|10.40.26.82|||110000423831|188
02.11.2018 01:00:00||PEGASUS|10.40.26.82|||110000423831|33
02.11.2018 01:00:00||PEGASUS|10.40.26.82|||110000423831|50
02.11.2018 01:00:00||PEGASUS|10.40.26.82|||110000423831|20
02.11.2018 01:00:00||PEGASUS|10.40.26.82|||110000423831|67
02.11.2018 01:00:00||PEGASUS|10.40.26.82|||110000423831|50
02.11.2018 01:00:00||PEGASUS|10.40.26.82|||110000423831|35
02.11.2018 01:00:00||PEGASUS|10.40.27.83|||110000423831|582
02.11.2018 01:00:00||PEGASUS|10.40.27.83|||110000423831|70
02.11.2018 01:00:00||PEGASUS|10.40.27.83|||110000423831|578
02.11.2018 01:00:00||PEGASUS|10.40.27.83|||110000423831|565
02.11.2018 01:00:00||PEGASUS|10.40.27.83|||110000423831|83
02.11.2018 01:00:00||PEGASUS|10.40.26.83|||110000423831|515
02.11.2018 01:00:00||PEGASUS|10.40.26.83|||110000423831|50
02.11.2018 01:00:00||PEGASUS|10.40.26.83|||110000423831|402
02.11.2018 01:00:00||PEGASUS|10.40.26.83|||110000423831|515
02.11.2018 01:00:00||PEGASUS|10.40.26.83|||110000423831|513
02.11.2018 01:00:00||PEGASUS|10.40.26.86|||110000423831|360
02.11.2018 01:00:00||PEGASUS|10.40.26.86|||110000423831|137
02.11.2018 01:00:00||PEGASUS|10.40.26.86|||110000423831|350
02.11.2018 01:00:00||PEGASUS|10.40.26.86|||110000423831|50
02.11.2018 01:00:00||PEGASUS|10.40.26.86|||110000423831|30
02.11.2018 01:00:00||PEGASUS|10.40.26.86|||110000423831|350
02.11.2018 01:00:00||PEGASUS|10.40.26.86|||110000423831|40
02.11.2018 01:00:00||PEGASUS|10.40.27.87|||110000423831|90
02.11.2018 01:00:00||PEGASUS|10.40.27.87|||110000423831|88
02.11.2018 01:00:00||PEGASUS|10.40.27.87|||110000423831|90
02.11.2018 01:00:00||PEGASUS|10.40.27.87|||110000423831|20
02.11.2018 01:00:00||PEGASUS|10.40.26.87|||110000423831|90
02.11.2018 01:00:00||PEGASUS|10.40.26.87|||110000423831|90
02.11.2018 01:00:00||PEGASUS|10.40.26.87|||110000423831|90
02.11.2018 01:00:00||PEGASUS|10.40.26.87|||110000423831|60
02.11.2018 01:00:00||PEGASUS|10.40.26.87|||110000423831|20
02.11.2018 01:00:00||PEGASUS|10.40.26.81|||110000423831|400
02.11.2018 01:00:00||PEGASUS|10.40.26.81|||110000423831|420
02.11.2018 01:00:00||PEGASUS|10.40.26.81|||110000423831|410
02.11.2018 01:00:00||PEGASUS|10.40.27.82|||110000423831|220
02.11.2018 01:00:00||PEGASUS|10.40.27.82|||110000423831|30
02.11.2018 01:00:00||PEGASUS|10.40.27.82|||110000423831|110
02.11.2018 01:00:00||PEGASUS|10.40.27.82|||110000423831|82
02.11.2018 01:00:00||PEGASUS|10.40.27.82|||110000423831|155
02.11.2018 01:00:00||PEGASUS|10.40.27.82|||110000423831|128
02.11.2018 01:00:00||PEGASUS|10.40.27.82|||110000423831|172
02.11.2018 01:00:00||PEGASUS|10.40.27.82|||110000423831|123
02.11.2018 01:00:00||PEGASUS|10.40.27.82|||110000423831|60
02.11.2018 01:00:00||PEGASUS|10.40.27.82|||110000423831|83
02.11.2018 01:00:00||PEGASUS|10.40.27.82|||110000423831|50
02.11.2018 01:00:00||PEGASUS|10.40.27.82|||110000423831|35
02.11.2018 01:00:00||PEGASUS|10.40.27.82|||110000423831|40
02.11.2018 01:00:00||PEGASUS|10.40.27.67|||110000423831|50
02.11.2018 01:00:00||PEGASUS|10.40.27.67|||110000423831|70
02.11.2018 01:00:00||PEGASUS|10.40.27.67|||110000423831|130
02.11.2018 01:00:00||PEGASUS|10.40.27.67|||110000423831|10
02.11.2018 01:00:00||PEGASUS|10.40.27.67|||110000423831|340
02.11.2018 01:00:00||PEGASUS|10.40.27.82|||110000423831|67
02.11.2018 01:00:00||PEGASUS|10.40.27.86|||110000423831|170
02.11.2018 01:00:00||PEGASUS|10.40.27.86|||110000423831|70
02.11.2018 01:00:00||PEGASUS|10.40.27.86|||110000423831|20
02.11.2018 01:00:00||PEGASUS|10.40.27.86|||110000423831|350
02.11.2018 01:00:00||PEGASUS|10.40.27.67|||110000423831|340
02.11.2018 01:00:00||PEGASUS|10.40.27.67|||110000423831|40
02.11.2018 01:00:00||PEGASUS|10.40.26.62|||110000423831|10
02.11.2018 01:00:00||PEGASUS|10.40.26.62|||110000423831|190
02.11.2018 01:00:00||PEGASUS|10.40.26.63|||110000423831|70
02.11.2018 01:00:00||PEGASUS|10.40.26.63|||110000423831|30
02.11.2018 01:00:00||PEGASUS|10.40.26.63|||110000423831|60
02.11.2018 01:00:00||PEGASUS|10.40.26.63|||110000423831|30
02.11.2018 01:00:00||PEGASUS|10.40.26.63|||110000423831|230
02.11.2018 01:00:00||PEGASUS|10.40.26.63|||110000423831|140
02.11.2018 01:00:00||PEGASUS|10.40.26.63|||110000423831|110
02.11.2018 01:00:00||PEGASUS|10.40.26.63|||110000423831|60
02.11.2018 01:00:00||PEGASUS|10.40.26.67|||110000423831|170
02.11.2018 01:00:00||PEGASUS|10.40.27.68|||110000423831|90
02.11.2018 01:00:00||PEGASUS|10.40.27.68|||110000423831|85
02.11.2018 01:00:00||PEGASUS|10.40.27.68|||110000423831|90
02.11.2018 01:00:00||PEGASUS|10.40.27.68|||110000423831|50
02.11.2018 01:00:00||PEGASUS|10.40.26.68|||110000423831|90
02.11.2018 01:00:00||PEGASUS|10.40.26.68|||110000423831|90
02.11.2018 01:00:00||PEGASUS|10.40.26.68|||110000423831|50
02.11.2018 01:00:00||PEGASUS|10.40.27.67|||110000423831|360
02.11.2018 01:00:00||PEGASUS|10.40.27.63|||110000423831|80
02.11.2018 01:00:00||PEGASUS|10.40.26.63|||110000423831|110
02.11.2018 01:00:00||PEGASUS|10.40.26.63|||110000423831|110
02.11.2018 01:00:00||PEGASUS|10.40.26.63|||110000423831|90
02.11.2018 01:00:00||PEGASUS|10.40.26.63|||110000423831|60
02.11.2018 01:00:00||PEGASUS|10.40.26.67|||110000423831|30
02.11.2018 01:00:00||PEGASUS|10.40.26.67|||110000423831|340
02.11.2018 01:00:00||PEGASUS|10.40.26.67|||110000423831|62
02.11.2018 01:00:00||PEGASUS|10.40.26.67|||110000423831|40
02.11.2018 01:00:00||PEGASUS|10.40.26.67|||110000423831|70
02.11.2018 01:00:00||PEGASUS|10.40.26.68|||110000423831|100
02.11.2018 01:00:00||PEGASUS|10.40.27.64|||110000423831|310
02.11.2018 01:00:00||PEGASUS|10.40.27.64|||110000423831|270
02.11.2018 01:00:00||PEGASUS|10.40.27.64|||110000423831|310
02.11.2018 01:00:00||PEGASUS|10.40.27.64|||110000423831|273
02.11.2018 01:00:00||PEGASUS|10.40.27.64|||110000423831|278
02.11.2018 01:00:00||PEGASUS|10.40.27.63|||110000423831|90
02.11.2018 01:00:00||PEGASUS|10.40.26.63|||110000423831|130
02.11.2018 01:00:00||PEGASUS|10.40.26.63|||110000423831|60
02.11.2018 01:00:00||PEGASUS|10.40.26.63|||110000423831|80
02.11.2018 01:00:00||PEGASUS|10.40.26.67|||110000423831|340
02.11.2018 01:00:00||PEGASUS|10.40.27.63|||110000423831|50
02.11.2018 01:00:00||PEGASUS|10.40.27.63|||110000423831|60
02.11.2018 01:00:00||PEGASUS|10.40.26.62|||110000423831|90
02.11.2018 01:00:00||PEGASUS|10.40.26.63|||110000423831|50
02.11.2018 01:00:00||PEGASUS|10.40.26.63|||110000423831|100
02.11.2018 01:00:00||PEGASUS|10.40.26.63|||110000423831|40
02.11.2018 01:00:00||PEGASUS|10.40.26.63|||110000423831|70
02.11.2018 01:00:00||PEGASUS|10.40.26.67|||110000423831|340
02.11.2018 01:00:00||PEGASUS|10.40.27.64|||110000423831|277
02.11.2018 01:00:00||PEGASUS|10.40.27.64|||110000423831|273
02.11.2018 01:00:00||PEGASUS|10.40.27.64|||110000423831|260
02.11.2018 01:00:00||PEGASUS|10.40.27.64|||110000423831|290
02.11.2018 01:00:00||PEGASUS|10.40.27.64|||110000423831|340
02.11.2018 01:00:00||PEGASUS|10.40.27.63|||110000423831|72
02.11.2018 01:00:00||PEGASUS|10.40.27.63|||110000423831|80
02.11.2018 01:00:00||PEGASUS|10.40.27.63|||110000423831|72
02.11.2018 01:00:00||PEGASUS|10.40.27.63|||110000423831|90
02.11.2018 01:00:00||PEGASUS|10.40.27.63|||110000423831|160
02.11.2018 01:00:00||PEGASUS|10.40.27.63|||110000423831|223
02.11.2018 01:00:00||PEGASUS|10.40.27.63|||110000423831|60
02.11.2018 01:00:00||PEGASUS|10.40.27.81|||110000423831|460
02.11.2018 01:00:00||PEGASUS|10.40.27.81|||110000423831|430
02.11.2018 01:00:00||PEGASUS|10.40.27.81|||110000423831|450
02.11.2018 01:00:00||PEGASUS|10.40.27.86|||110000423831|340
02.11.2018 01:00:00||PEGASUS|10.40.27.86|||110000423831|40
02.11.2018 01:00:00||PEGASUS|10.40.27.63|||110000423831|40
02.11.2018 01:00:00||PEGASUS|10.40.27.86|||110000423831|340
02.11.2018 01:00:00||PEGASUS|10.40.27.63|||110000423831|50
02.11.2018 01:00:00||PEGASUS|10.40.27.63|||110000423831|60
02.11.2018 01:00:00||PEGASUS|10.40.27.64|||110000423831|80
02.11.2018 01:00:00||PEGASUS|10.40.27.64|||110000423831|70
02.11.2018 01:00:00||PEGASUS|10.40.27.63|||110000423831|60
02.11.2018 01:00:00||PEGASUS|10.40.27.63|||110000423831|70
02.11.2018 01:00:00||PEGASUS|10.40.27.63|||110000423831|92
02.11.2018 01:00:00||PEGASUS|10.40.26.63|||110000423831|110
02.11.2018 01:00:00||PEGASUS|10.40.27.64|||110000423831|282
02.11.2018 01:00:00||PEGASUS|10.40.27.64|||110000423831|267
02.11.2018 01:00:00||PEGASUS|10.40.27.63|||110000423831|88
02.11.2018 01:00:00||PEGASUS|10.40.27.63|||110000423831|68
02.11.2018 01:00:00||PETKIM|10.40.25.87|||110000437354|1420
02.11.2018 01:00:00||PWC|10.40.24.66|||110000433262|60
02.11.2018 01:00:00||PWC|10.40.24.66|||110000433262|30
02.11.2018 01:00:00||PWC|10.40.24.66|||110000433262|30
02.11.2018 01:00:00||PWC|10.40.24.68|||110000433262|98
02.11.2018 01:00:00||PWC|10.40.24.68|||110000433262|155
02.11.2018 01:00:00||PWC|10.40.24.68|||110000433262|402
02.11.2018 01:00:00||PWC|10.40.24.68|||110000433262|80
02.11.2018 01:00:00||PWC|10.40.24.68|||110000433262|75
02.11.2018 01:00:00||PWC|10.40.24.66|||110000433262|90
02.11.2018 01:00:00||PWC|10.40.24.66|||110000433262|10
02.11.2018 01:00:00||PWC|10.40.24.66|||110000433262|30
02.11.2018 01:00:00||PWC|10.40.24.66|||110000433262|210
02.11.2018 01:00:00||PWC|10.40.24.66|||110000433262|210
02.11.2018 01:00:00||PWC|10.40.24.68|||110000433262|167
02.11.2018 01:00:00||PWC|10.40.24.66|||110000433262|50
02.11.2018 01:00:00||PWC|10.40.24.66|||110000433262|440
02.11.2018 01:00:00||PWC|10.40.24.66|||110000433262|50
02.11.2018 01:00:00||PWC|10.40.25.67|||110000433262|80
02.11.2018 01:00:00||PWC|10.40.25.67|||110000433262|90
02.11.2018 01:00:00||PWC|10.40.25.67|||110000433262|320
02.11.2018 01:00:00||PWC|10.40.25.67|||110000433262|250
02.11.2018 01:00:00||PWC|10.40.25.67|||110000433262|240
02.11.2018 01:00:00||PWC|10.40.25.67|||110000433262|250
02.11.2018 01:00:00||PWC|10.40.25.67|||110000433262|50
02.11.2018 01:00:00||PWC|10.40.25.67|||110000433262|30
02.11.2018 01:00:00||PWC|10.40.25.67|||110000433262|120
02.11.2018 01:00:00||PWC|10.40.24.67|||110000433262|10
02.11.2018 01:00:00||PWC|10.40.24.67|||110000433262|10
02.11.2018 01:00:00||PWC|10.40.24.67|||110000433262|370
02.11.2018 01:00:00||PWC|10.40.24.67|||110000433262|30
02.11.2018 01:00:00||PWC|10.40.24.67|||110000433262|70
02.11.2018 01:00:00||PWC|10.40.24.67|||110000433262|120
02.11.2018 01:00:00||PWC|10.40.25.68|||110000433262|132
02.11.2018 01:00:00||PWC|10.40.25.68|||110000433262|208
02.11.2018 01:00:00||PWC|10.40.25.68|||110000433262|75
02.11.2018 01:00:00||PWC|10.40.25.68|||110000433262|80
02.11.2018 01:00:00||PWC|10.40.25.68|||110000433262|163
02.11.2018 01:00:00||VSMART BİLGİ TEKNOLOJİLERİ|10.40.25.62|||110000474326|40
02.11.2018 01:00:00||VSMART BİLGİ TEKNOLOJİLERİ|10.40.25.62|||110000474326|10
02.11.2018 01:00:00||VSMART BİLGİ TEKNOLOJİLERİ|10.40.25.62|||110000474326|10
02.11.2018 01:00:00||VSMART BİLGİ TEKNOLOJİLERİ|10.40.25.62|||110000474326|82
02.11.2018 01:00:00||VSMART BİLGİ TEKNOLOJİLERİ|10.40.25.62|||110000474326|97
02.11.2018 01:00:00||VSMART BİLGİ TEKNOLOJİLERİ|10.40.25.62|||110000474326|108
02.11.2018 01:00:00||VSMART BİLGİ TEKNOLOJİLERİ|10.40.24.62|||110000474326|45
02.11.2018 01:00:00||VSMART BİLGİ TEKNOLOJİLERİ|10.40.24.62|||110000474326|70
02.11.2018 01:00:00||VSMART BİLGİ TEKNOLOJİLERİ|10.40.24.62|||110000474326|40
02.11.2018 01:00:00||VSMART BİLGİ TEKNOLOJİLERİ|10.40.24.62|||110000474326|10
02.11.2018 01:00:00||VSMART BİLGİ TEKNOLOJİLERİ|10.40.25.62|||110000474326|70
02.11.2018 01:00:00||VSMART BİLGİ TEKNOLOJİLERİ|10.40.24.62|||110000474326|48
02.11.2018 01:00:00||VSMART BİLGİ TEKNOLOJİLERİ|10.40.24.62|||110000474326|32
02.11.2018 01:00:00||VSMART BİLGİ TEKNOLOJİLERİ|10.40.24.62|||110000474326|10
