9/18/2018 4:00:00 AM||HAVAS|10.40.25.45|||110000479675|293
9/18/2018 4:00:00 AM||HAVAS|10.40.24.45|||110000479675|388
9/18/2018 4:00:00 AM||HAVAS|10.40.25.46|||110000479675|492
9/18/2018 4:00:00 AM||PWC|10.40.25.68|||110000433262|894
9/18/2018 4:00:00 AM||PWC|10.40.24.68|||110000433262|517
9/18/2018 4:00:00 AM||PWC|10.40.25.69|||110000433262|287
9/18/2018 4:00:00 AM||PWC|10.40.24.69|||110000433262|290
9/18/2018 4:00:00 AM||CALIK HOLDING|10.40.25.94|||110000438408|670
9/18/2018 4:00:00 AM||CALIK HOLDING|10.40.24.94|||110000438408|709
9/18/2018 4:00:00 AM||CALIK HOLDING|10.40.25.97|||110000438408|601
9/18/2018 4:00:00 AM||CALIK HOLDING|10.40.25.100|||110000438408|77
9/18/2018 4:00:00 AM||CALIK HOLDING|10.40.24.100|||110000438408|74
9/18/2018 4:00:00 AM||CALIK HOLDING|10.40.25.101|||110000438408|588
9/18/2018 4:00:00 AM||CALIK HOLDING|10.40.25.102|||110000438408|333
9/18/2018 4:00:00 AM||CALIK HOLDING|10.40.24.102|||110000438408|314
9/18/2018 4:00:00 AM||CALIK HOLDING|10.40.25.103|||110000438408|266
9/18/2018 4:00:00 AM||CALIK HOLDING|10.40.24.103|||110000438408|291
9/18/2018 4:00:00 AM||CALIK HOLDING|10.40.25.104|||110000438408|1151
9/18/2018 4:00:00 AM||CALIK HOLDING|10.40.24.104|||110000438408|1162
9/18/2018 4:00:00 AM||CALIK HOLDING|10.40.24.113|||110000438408|699
9/18/2018 4:00:00 AM||CALIK HOLDING|10.40.25.115|||110000438408|559
9/18/2018 4:00:00 AM||CALIK HOLDING|10.40.24.115|||110000438408|567
9/18/2018 4:00:00 AM||CALIK HOLDING|10.40.25.116|||110000438408|462
9/18/2018 4:00:00 AM||CALIK HOLDING|10.40.24.116|||110000438408|434
9/18/2018 4:00:00 AM||CALIK HOLDING|10.40.25.117|||110000438408|352
9/18/2018 4:00:00 AM||CALIK HOLDING|10.40.24.117|||110000438408|312
9/18/2018 4:00:00 AM||CALIK HOLDING|10.40.25.119|||110000438408|71
9/18/2018 4:00:00 AM||CALIK HOLDING|10.40.24.119|||110000438408|222
9/18/2018 4:00:00 AM||CALIK HOLDING|10.40.25.120|||110000438408|571
9/18/2018 4:00:00 AM||CALIK HOLDING|10.40.24.120|||110000438408|578
9/18/2018 4:00:00 AM||CALIK HOLDING|10.40.25.121|||110000438408|319
9/18/2018 4:00:00 AM||CALIK HOLDING|10.40.24.121|||110000438408|313
9/18/2018 4:00:00 AM||CALIK HOLDING|10.40.25.122|||110000438408|246
9/18/2018 4:00:00 AM||CALIK HOLDING|10.40.24.122|||110000438408|302
9/18/2018 4:00:00 AM||AKTIFBANK|10.40.25.128|||110000438458|282
9/18/2018 4:00:00 AM||AKTIFBANK|10.40.24.128|||110000438458|445
9/18/2018 4:00:00 AM||AKTIFBANK|10.40.25.129|||110000438458|908
9/18/2018 4:00:00 AM||AKTIFBANK|10.40.25.130|||110000438458|746
9/18/2018 4:00:00 AM||AKTIFBANK|10.40.24.130|||110000438458|663
9/18/2018 4:00:00 AM||AKTIFBANK|10.40.25.131|||110000438458|625
9/18/2018 4:00:00 AM||AKTIFBANK|10.40.24.131|||110000438458|614
9/18/2018 4:00:00 AM||AKTIFBANK|10.40.25.132|||110000438458|420
9/18/2018 4:00:00 AM||AKTIFBANK|10.40.24.132|||110000438458|413
9/18/2018 4:00:00 AM||AKTIFBANK|10.40.25.133|||110000438458|374
9/18/2018 4:00:00 AM||AKTIFBANK|10.40.24.133|||110000438458|667
9/18/2018 4:00:00 AM||AKTIFBANK|10.40.25.138|||110000438458|248
9/18/2018 4:00:00 AM||AKTIFBANK|10.40.24.138|||110000438458|571
9/18/2018 4:00:00 AM||AKTIFBANK|10.40.25.139|||110000438458|158
9/18/2018 4:00:00 AM||AKTIFBANK|10.40.24.139|||110000438458|240
9/18/2018 4:00:00 AM||AKTIFBANK|10.40.25.140|||110000438458|264
9/18/2018 4:00:00 AM||AKTIFBANK|10.40.24.140|||110000438458|360
9/18/2018 4:00:00 AM||AKTIFBANK|10.40.25.141|||110000438458|473
9/18/2018 4:00:00 AM||AKTIFBANK|10.40.24.141|||110000438458|638
9/18/2018 4:00:00 AM||AKTIFBANK|10.40.25.142|||110000438458|38
9/18/2018 4:00:00 AM||AKTIFBANK|10.40.24.142|||110000438458|110
9/18/2018 4:00:00 AM||AKTIFBANK|10.40.24.143|||110000438458|772
9/18/2018 4:00:00 AM||AKTIFBANK|10.40.25.144|||110000438458|183
9/18/2018 4:00:00 AM||AKTIFBANK|10.40.24.144|||110000438458|261
9/18/2018 4:00:00 AM||AKTIFBANK|10.40.25.145|||110000438458|293
9/18/2018 4:00:00 AM||AKTIFBANK|10.40.24.145|||110000438458|408
9/18/2018 4:00:00 AM||AKTIFBANK|10.40.25.147|||110000438458|88
9/18/2018 4:00:00 AM||AKTIFBANK|10.40.25.148|||110000438458|983
9/18/2018 4:00:00 AM||AKTIFBANK|10.40.25.152|||110000438458|733
9/18/2018 4:00:00 AM||AKTIFBANK|10.40.25.153|||110000438458|216
9/18/2018 4:00:00 AM||AKTIFBANK|10.40.24.153|||110000438458|260
9/18/2018 4:00:00 AM||AKTIFBANK|10.40.25.154|||110000438458|42
9/18/2018 4:00:00 AM||AKTIFBANK|10.40.24.154|||110000438458|137
9/18/2018 4:00:00 AM||AKTIFBANK|10.40.25.155|||110000438458|479
9/18/2018 4:00:00 AM||AKTIFBANK|10.40.24.155|||110000438458|498
9/18/2018 4:00:00 AM||AKTIFBANK|10.40.25.157|||110000438458|340
9/18/2018 4:00:00 AM||AKTIFBANK|10.40.24.157|||110000438458|338
9/18/2018 4:00:00 AM||AKTIFBANK|10.40.25.158|||110000438458|158
9/18/2018 4:00:00 AM||AKTIFBANK|10.40.24.158|||110000438458|613
9/18/2018 4:00:00 AM||AKTIFBANK|10.40.25.159|||110000438458|163
9/18/2018 4:00:00 AM||AKTIFBANK|10.40.24.159|||110000438458|346
9/18/2018 4:00:00 AM||AKTIFBANK|10.40.25.160|||110000438458|196
9/18/2018 4:00:00 AM||AKTIFBANK|10.40.24.160|||110000438458|233
9/18/2018 4:00:00 AM||AKTIFBANK|10.40.25.161|||110000438458|250
9/18/2018 4:00:00 AM||AKTIFBANK|10.40.24.161|||110000438458|414
9/18/2018 4:00:00 AM||AKTIFBANK|10.40.25.162|||110000438458|207
9/18/2018 4:00:00 AM||AKTIFBANK|10.40.24.162|||110000438458|504
9/18/2018 4:00:00 AM||AKTIFBANK|10.40.25.163|||110000438458|47
9/18/2018 4:00:00 AM||AKTIFBANK|10.40.24.163|||110000438458|241
9/18/2018 4:00:00 AM||AKTIFBANK|10.40.25.164|||110000438458|886
9/18/2018 4:00:00 AM||AKTIFBANK|10.40.24.164|||110000438458|841
9/18/2018 4:00:00 AM||AKTIFBANK|10.40.25.165|||110000438458|324
9/18/2018 4:00:00 AM||AKTIFBANK|10.40.24.165|||110000438458|354
9/18/2018 4:00:00 AM||AKTIFBANK|10.40.25.166|||110000438458|129
9/18/2018 4:00:00 AM||AKTIFBANK|10.40.24.166|||110000438458|229
9/18/2018 4:00:00 AM||AKTIFBANK|10.40.25.168|||110000438458|320
9/18/2018 4:00:00 AM||AKTIFBANK|10.40.24.168|||110000438458|368
9/18/2018 4:00:00 AM||AKTIFBANK|10.40.24.169|||110000438458|297
9/18/2018 4:00:00 AM||AKTIFBANK|10.40.25.170|||110000438458|609
9/18/2018 4:00:00 AM||AKTIFBANK|10.40.24.170|||110000438458|710
9/18/2018 4:00:00 AM||AKTIFBANK|10.40.25.179|||110000438458|918
9/18/2018 4:00:00 AM||AKTIFBANK|10.40.24.179|||110000438458|989
9/18/2018 4:00:00 AM||AKTIFBANK|10.40.25.186|||110000438458|188
9/18/2018 4:00:00 AM||AKTIFBANK|10.40.24.186|||110000438458|210
9/18/2018 4:00:00 AM||MARS CINEMA|10.40.25.203|||110000472614|282
9/18/2018 4:00:00 AM||MARS CINEMA|10.40.24.203|||110000472614|259
9/18/2018 4:00:00 AM||MARS CINEMA|10.40.25.206|||110000472614|291
9/18/2018 4:00:00 AM||PEGASUS|10.40.26.62|||110000423831|311
9/18/2018 4:00:00 AM||PEGASUS|10.40.26.64|||110000423831|156
9/18/2018 4:00:00 AM||PEGASUS|10.40.27.67|||110000423831|1279
9/18/2018 4:00:00 AM||PEGASUS|10.40.27.68|||110000423831|318
9/18/2018 4:00:00 AM||PEGASUS|10.40.27.87|||110000423831|270
9/18/2018 4:00:00 AM||PEGASUS|10.40.26.87|||110000423831|303
9/18/2018 4:00:00 AM||BOYNER|10.40.26.95|||101367941673|451
