9/22/2018 5:00:00 AM||HAVAS|10.40.24.45|||110000479675|387
9/22/2018 5:00:00 AM||HAVAS|10.40.25.46|||110000479675|494
9/22/2018 5:00:00 AM||HAVAS|10.40.24.47|||110000479675|1045
9/22/2018 5:00:00 AM||PWC|10.40.24.67|||110000433262|589
9/22/2018 5:00:00 AM||PWC|10.40.25.68|||110000433262|909
9/22/2018 5:00:00 AM||PWC|10.40.24.68|||110000433262|511
9/22/2018 5:00:00 AM||PWC|10.40.25.69|||110000433262|287
9/22/2018 5:00:00 AM||PWC|10.40.24.69|||110000433262|290
9/22/2018 5:00:00 AM||CALIK HOLDING|10.40.25.94|||110000438408|644
9/22/2018 5:00:00 AM||CALIK HOLDING|10.40.24.94|||110000438408|682
9/22/2018 5:00:00 AM||CALIK HOLDING|10.40.25.97|||110000438408|606
9/22/2018 5:00:00 AM||CALIK HOLDING|10.40.25.100|||110000438408|76
9/22/2018 5:00:00 AM||CALIK HOLDING|10.40.24.100|||110000438408|74
9/22/2018 5:00:00 AM||CALIK HOLDING|10.40.25.101|||110000438408|588
9/22/2018 5:00:00 AM||CALIK HOLDING|10.40.25.102|||110000438408|333
9/22/2018 5:00:00 AM||CALIK HOLDING|10.40.24.102|||110000438408|312
9/22/2018 5:00:00 AM||CALIK HOLDING|10.40.25.103|||110000438408|265
9/22/2018 5:00:00 AM||CALIK HOLDING|10.40.24.103|||110000438408|292
9/22/2018 5:00:00 AM||CALIK HOLDING|10.40.25.104|||110000438408|1146
9/22/2018 5:00:00 AM||CALIK HOLDING|10.40.25.115|||110000438408|547
9/22/2018 5:00:00 AM||CALIK HOLDING|10.40.24.115|||110000438408|554
9/22/2018 5:00:00 AM||CALIK HOLDING|10.40.25.116|||110000438408|460
9/22/2018 5:00:00 AM||CALIK HOLDING|10.40.24.116|||110000438408|463
9/22/2018 5:00:00 AM||CALIK HOLDING|10.40.25.117|||110000438408|318
9/22/2018 5:00:00 AM||CALIK HOLDING|10.40.24.117|||110000438408|286
9/22/2018 5:00:00 AM||CALIK HOLDING|10.40.25.119|||110000438408|70
9/22/2018 5:00:00 AM||CALIK HOLDING|10.40.24.119|||110000438408|222
9/22/2018 5:00:00 AM||CALIK HOLDING|10.40.25.120|||110000438408|570
9/22/2018 5:00:00 AM||CALIK HOLDING|10.40.24.120|||110000438408|576
9/22/2018 5:00:00 AM||CALIK HOLDING|10.40.25.121|||110000438408|319
9/22/2018 5:00:00 AM||CALIK HOLDING|10.40.24.121|||110000438408|312
9/22/2018 5:00:00 AM||CALIK HOLDING|10.40.25.122|||110000438408|245
9/22/2018 5:00:00 AM||CALIK HOLDING|10.40.24.122|||110000438408|301
9/22/2018 5:00:00 AM||AKTIFBANK|10.40.25.128|||110000438458|264
9/22/2018 5:00:00 AM||AKTIFBANK|10.40.24.128|||110000438458|459
9/22/2018 5:00:00 AM||AKTIFBANK|10.40.25.130|||110000438458|744
9/22/2018 5:00:00 AM||AKTIFBANK|10.40.24.130|||110000438458|661
9/22/2018 5:00:00 AM||AKTIFBANK|10.40.25.131|||110000438458|619
9/22/2018 5:00:00 AM||AKTIFBANK|10.40.24.131|||110000438458|612
9/22/2018 5:00:00 AM||AKTIFBANK|10.40.25.132|||110000438458|429
9/22/2018 5:00:00 AM||AKTIFBANK|10.40.24.132|||110000438458|420
9/22/2018 5:00:00 AM||AKTIFBANK|10.40.25.133|||110000438458|372
9/22/2018 5:00:00 AM||AKTIFBANK|10.40.24.133|||110000438458|660
9/22/2018 5:00:00 AM||AKTIFBANK|10.40.25.138|||110000438458|251
9/22/2018 5:00:00 AM||AKTIFBANK|10.40.24.138|||110000438458|567
9/22/2018 5:00:00 AM||AKTIFBANK|10.40.25.139|||110000438458|157
9/22/2018 5:00:00 AM||AKTIFBANK|10.40.24.139|||110000438458|238
9/22/2018 5:00:00 AM||AKTIFBANK|10.40.25.140|||110000438458|264
9/22/2018 5:00:00 AM||AKTIFBANK|10.40.24.140|||110000438458|358
9/22/2018 5:00:00 AM||AKTIFBANK|10.40.25.141|||110000438458|474
9/22/2018 5:00:00 AM||AKTIFBANK|10.40.24.141|||110000438458|634
9/22/2018 5:00:00 AM||AKTIFBANK|10.40.25.142|||110000438458|38
9/22/2018 5:00:00 AM||AKTIFBANK|10.40.24.142|||110000438458|110
9/22/2018 5:00:00 AM||AKTIFBANK|10.40.24.143|||110000438458|771
9/22/2018 5:00:00 AM||AKTIFBANK|10.40.25.144|||110000438458|182
9/22/2018 5:00:00 AM||AKTIFBANK|10.40.24.144|||110000438458|261
9/22/2018 5:00:00 AM||AKTIFBANK|10.40.25.145|||110000438458|293
9/22/2018 5:00:00 AM||AKTIFBANK|10.40.24.145|||110000438458|407
9/22/2018 5:00:00 AM||AKTIFBANK|10.40.25.147|||110000438458|87
9/22/2018 5:00:00 AM||AKTIFBANK|10.40.24.147|||110000438458|87
9/22/2018 5:00:00 AM||AKTIFBANK|10.40.25.148|||110000438458|984
9/22/2018 5:00:00 AM||AKTIFBANK|10.40.25.152|||110000438458|707
9/22/2018 5:00:00 AM||AKTIFBANK|10.40.25.153|||110000438458|225
9/22/2018 5:00:00 AM||AKTIFBANK|10.40.24.153|||110000438458|248
9/22/2018 5:00:00 AM||AKTIFBANK|10.40.25.154|||110000438458|42
9/22/2018 5:00:00 AM||AKTIFBANK|10.40.24.154|||110000438458|136
9/22/2018 5:00:00 AM||AKTIFBANK|10.40.25.155|||110000438458|478
9/22/2018 5:00:00 AM||AKTIFBANK|10.40.24.155|||110000438458|494
9/22/2018 5:00:00 AM||AKTIFBANK|10.40.25.157|||110000438458|335
9/22/2018 5:00:00 AM||AKTIFBANK|10.40.24.157|||110000438458|338
9/22/2018 5:00:00 AM||AKTIFBANK|10.40.25.158|||110000438458|159
9/22/2018 5:00:00 AM||AKTIFBANK|10.40.24.158|||110000438458|630
9/22/2018 5:00:00 AM||AKTIFBANK|10.40.25.159|||110000438458|164
9/22/2018 5:00:00 AM||AKTIFBANK|10.40.24.159|||110000438458|343
9/22/2018 5:00:00 AM||AKTIFBANK|10.40.25.160|||110000438458|195
9/22/2018 5:00:00 AM||AKTIFBANK|10.40.24.160|||110000438458|232
9/22/2018 5:00:00 AM||AKTIFBANK|10.40.25.161|||110000438458|250
9/22/2018 5:00:00 AM||AKTIFBANK|10.40.24.161|||110000438458|413
9/22/2018 5:00:00 AM||AKTIFBANK|10.40.25.162|||110000438458|249
9/22/2018 5:00:00 AM||AKTIFBANK|10.40.24.162|||110000438458|473
9/22/2018 5:00:00 AM||AKTIFBANK|10.40.25.163|||110000438458|46
9/22/2018 5:00:00 AM||AKTIFBANK|10.40.24.163|||110000438458|238
9/22/2018 5:00:00 AM||AKTIFBANK|10.40.25.164|||110000438458|884
9/22/2018 5:00:00 AM||AKTIFBANK|10.40.24.164|||110000438458|868
9/22/2018 5:00:00 AM||AKTIFBANK|10.40.25.165|||110000438458|322
9/22/2018 5:00:00 AM||AKTIFBANK|10.40.24.165|||110000438458|363
9/22/2018 5:00:00 AM||AKTIFBANK|10.40.25.166|||110000438458|136
9/22/2018 5:00:00 AM||AKTIFBANK|10.40.24.166|||110000438458|222
9/22/2018 5:00:00 AM||AKTIFBANK|10.40.25.168|||110000438458|319
9/22/2018 5:00:00 AM||AKTIFBANK|10.40.24.168|||110000438458|367
9/22/2018 5:00:00 AM||AKTIFBANK|10.40.25.169|||110000438458|326
9/22/2018 5:00:00 AM||AKTIFBANK|10.40.24.169|||110000438458|303
9/22/2018 5:00:00 AM||AKTIFBANK|10.40.25.170|||110000438458|642
9/22/2018 5:00:00 AM||AKTIFBANK|10.40.24.170|||110000438458|656
9/22/2018 5:00:00 AM||AKTIFBANK|10.40.25.179|||110000438458|951
9/22/2018 5:00:00 AM||AKTIFBANK|10.40.24.179|||110000438458|989
9/22/2018 5:00:00 AM||AKTIFBANK|10.40.25.186|||110000438458|187
9/22/2018 5:00:00 AM||AKTIFBANK|10.40.24.186|||110000438458|209
9/22/2018 5:00:00 AM||MARS CINEMA|10.40.25.203|||110000472614|279
9/22/2018 5:00:00 AM||MARS CINEMA|10.40.24.203|||110000472614|269
9/22/2018 5:00:00 AM||MARS CINEMA|10.40.25.206|||110000472614|283
9/22/2018 5:00:00 AM||PEGASUS|10.40.26.62|||110000423831|303
9/22/2018 5:00:00 AM||PEGASUS|10.40.26.64|||110000423831|156
9/22/2018 5:00:00 AM||PEGASUS|10.40.27.67|||110000423831|1282
9/22/2018 5:00:00 AM||PEGASUS|10.40.27.68|||110000423831|307
9/22/2018 5:00:00 AM||PEGASUS|10.40.27.87|||110000423831|280
9/22/2018 5:00:00 AM||PEGASUS|10.40.26.87|||110000423831|303
9/22/2018 5:00:00 AM||BOYNER|10.40.27.95|||101367941673|453
9/22/2018 5:00:00 AM||BOYNER|10.40.26.95|||101367941673|416
9/22/2018 5:00:00 AM||BOYNER|10.40.27.96|||101367941673|870
9/22/2018 5:00:00 AM||BOYNER|10.40.26.96|||101367941673|947
9/22/2018 5:00:00 AM||BOYNER|10.40.27.99|||101367941673|276
9/22/2018 5:00:00 AM||BOYNER|10.40.26.99|||101367941673|292
