9/17/2018 3:00:00 PM||HAVAS|10.40.25.45|||110000479675|328
9/17/2018 3:00:00 PM||HAVAS|10.40.24.45|||110000479675|383
9/17/2018 3:00:00 PM||HAVAS|10.40.25.46|||110000479675|494
9/17/2018 3:00:00 PM||PWC|10.40.24.67|||110000433262|576
9/17/2018 3:00:00 PM||PWC|10.40.25.68|||110000433262|893
9/17/2018 3:00:00 PM||PWC|10.40.25.69|||110000433262|277
9/17/2018 3:00:00 PM||PWC|10.40.24.69|||110000433262|280
9/17/2018 3:00:00 PM||CALIK HOLDING|10.40.25.94|||110000438408|653
9/17/2018 3:00:00 PM||CALIK HOLDING|10.40.24.94|||110000438408|693
9/17/2018 3:00:00 PM||CALIK HOLDING|10.40.25.97|||110000438408|616
9/17/2018 3:00:00 PM||CALIK HOLDING|10.40.25.100|||110000438408|74
9/17/2018 3:00:00 PM||CALIK HOLDING|10.40.24.100|||110000438408|72
9/17/2018 3:00:00 PM||CALIK HOLDING|10.40.25.101|||110000438408|599
9/17/2018 3:00:00 PM||CALIK HOLDING|10.40.24.101|||110000438408|729
9/17/2018 3:00:00 PM||CALIK HOLDING|10.40.25.102|||110000438408|321
9/17/2018 3:00:00 PM||CALIK HOLDING|10.40.24.102|||110000438408|303
9/17/2018 3:00:00 PM||CALIK HOLDING|10.40.25.103|||110000438408|257
9/17/2018 3:00:00 PM||CALIK HOLDING|10.40.24.103|||110000438408|302
9/17/2018 3:00:00 PM||CALIK HOLDING|10.40.25.104|||110000438408|1114
9/17/2018 3:00:00 PM||CALIK HOLDING|10.40.24.113|||110000438408|750
9/17/2018 3:00:00 PM||CALIK HOLDING|10.40.25.115|||110000438408|555
9/17/2018 3:00:00 PM||CALIK HOLDING|10.40.24.115|||110000438408|561
9/17/2018 3:00:00 PM||CALIK HOLDING|10.40.25.116|||110000438408|477
9/17/2018 3:00:00 PM||CALIK HOLDING|10.40.24.116|||110000438408|463
9/17/2018 3:00:00 PM||CALIK HOLDING|10.40.25.117|||110000438408|345
9/17/2018 3:00:00 PM||CALIK HOLDING|10.40.24.117|||110000438408|316
9/17/2018 3:00:00 PM||CALIK HOLDING|10.40.25.119|||110000438408|69
9/17/2018 3:00:00 PM||CALIK HOLDING|10.40.24.119|||110000438408|215
9/17/2018 3:00:00 PM||CALIK HOLDING|10.40.25.120|||110000438408|573
9/17/2018 3:00:00 PM||CALIK HOLDING|10.40.24.120|||110000438408|559
9/17/2018 3:00:00 PM||CALIK HOLDING|10.40.25.121|||110000438408|308
9/17/2018 3:00:00 PM||CALIK HOLDING|10.40.24.121|||110000438408|324
9/17/2018 3:00:00 PM||CALIK HOLDING|10.40.25.122|||110000438408|246
9/17/2018 3:00:00 PM||CALIK HOLDING|10.40.24.122|||110000438408|291
9/17/2018 3:00:00 PM||AKTIFBANK|10.40.25.128|||110000438458|272
9/17/2018 3:00:00 PM||AKTIFBANK|10.40.24.128|||110000438458|445
9/17/2018 3:00:00 PM||AKTIFBANK|10.40.25.129|||110000438458|883
9/17/2018 3:00:00 PM||AKTIFBANK|10.40.25.130|||110000438458|747
9/17/2018 3:00:00 PM||AKTIFBANK|10.40.24.130|||110000438458|688
9/17/2018 3:00:00 PM||AKTIFBANK|10.40.25.131|||110000438458|625
9/17/2018 3:00:00 PM||AKTIFBANK|10.40.24.131|||110000438458|653
9/17/2018 3:00:00 PM||AKTIFBANK|10.40.25.132|||110000438458|432
9/17/2018 3:00:00 PM||AKTIFBANK|10.40.24.132|||110000438458|427
9/17/2018 3:00:00 PM||AKTIFBANK|10.40.25.133|||110000438458|394
9/17/2018 3:00:00 PM||AKTIFBANK|10.40.24.133|||110000438458|685
9/17/2018 3:00:00 PM||AKTIFBANK|10.40.25.138|||110000438458|246
9/17/2018 3:00:00 PM||AKTIFBANK|10.40.24.138|||110000438458|555
9/17/2018 3:00:00 PM||AKTIFBANK|10.40.25.139|||110000438458|152
9/17/2018 3:00:00 PM||AKTIFBANK|10.40.24.139|||110000438458|231
9/17/2018 3:00:00 PM||AKTIFBANK|10.40.25.140|||110000438458|255
9/17/2018 3:00:00 PM||AKTIFBANK|10.40.24.140|||110000438458|348
9/17/2018 3:00:00 PM||AKTIFBANK|10.40.25.141|||110000438458|486
9/17/2018 3:00:00 PM||AKTIFBANK|10.40.24.141|||110000438458|640
9/17/2018 3:00:00 PM||AKTIFBANK|10.40.25.142|||110000438458|37
9/17/2018 3:00:00 PM||AKTIFBANK|10.40.25.144|||110000438458|174
9/17/2018 3:00:00 PM||AKTIFBANK|10.40.24.144|||110000438458|259
9/17/2018 3:00:00 PM||AKTIFBANK|10.40.25.145|||110000438458|283
9/17/2018 3:00:00 PM||AKTIFBANK|10.40.24.145|||110000438458|393
9/17/2018 3:00:00 PM||AKTIFBANK|10.40.25.147|||110000438458|85
9/17/2018 3:00:00 PM||AKTIFBANK|10.40.25.148|||110000438458|1011
9/17/2018 3:00:00 PM||AKTIFBANK|10.40.25.152|||110000438458|761
9/17/2018 3:00:00 PM||AKTIFBANK|10.40.25.153|||110000438458|207
9/17/2018 3:00:00 PM||AKTIFBANK|10.40.24.153|||110000438458|248
9/17/2018 3:00:00 PM||AKTIFBANK|10.40.25.154|||110000438458|41
9/17/2018 3:00:00 PM||AKTIFBANK|10.40.24.154|||110000438458|132
9/17/2018 3:00:00 PM||AKTIFBANK|10.40.25.155|||110000438458|468
9/17/2018 3:00:00 PM||AKTIFBANK|10.40.24.155|||110000438458|522
9/17/2018 3:00:00 PM||AKTIFBANK|10.40.25.157|||110000438458|331
9/17/2018 3:00:00 PM||AKTIFBANK|10.40.24.157|||110000438458|342
9/17/2018 3:00:00 PM||AKTIFBANK|10.40.25.158|||110000438458|153
9/17/2018 3:00:00 PM||AKTIFBANK|10.40.24.158|||110000438458|643
9/17/2018 3:00:00 PM||AKTIFBANK|10.40.25.159|||110000438458|157
9/17/2018 3:00:00 PM||AKTIFBANK|10.40.24.159|||110000438458|359
9/17/2018 3:00:00 PM||AKTIFBANK|10.40.25.160|||110000438458|189
9/17/2018 3:00:00 PM||AKTIFBANK|10.40.24.160|||110000438458|242
9/17/2018 3:00:00 PM||AKTIFBANK|10.40.25.161|||110000438458|242
9/17/2018 3:00:00 PM||AKTIFBANK|10.40.24.161|||110000438458|392
9/17/2018 3:00:00 PM||AKTIFBANK|10.40.25.162|||110000438458|198
9/17/2018 3:00:00 PM||AKTIFBANK|10.40.24.162|||110000438458|525
9/17/2018 3:00:00 PM||AKTIFBANK|10.40.25.163|||110000438458|45
9/17/2018 3:00:00 PM||AKTIFBANK|10.40.25.164|||110000438458|854
9/17/2018 3:00:00 PM||AKTIFBANK|10.40.24.164|||110000438458|841
9/17/2018 3:00:00 PM||AKTIFBANK|10.40.25.165|||110000438458|319
9/17/2018 3:00:00 PM||AKTIFBANK|10.40.24.165|||110000438458|360
9/17/2018 3:00:00 PM||AKTIFBANK|10.40.25.166|||110000438458|125
9/17/2018 3:00:00 PM||AKTIFBANK|10.40.24.166|||110000438458|223
9/17/2018 3:00:00 PM||AKTIFBANK|10.40.25.168|||110000438458|308
9/17/2018 3:00:00 PM||AKTIFBANK|10.40.24.168|||110000438458|368
9/17/2018 3:00:00 PM||AKTIFBANK|10.40.24.169|||110000438458|306
9/17/2018 3:00:00 PM||AKTIFBANK|10.40.25.170|||110000438458|622
9/17/2018 3:00:00 PM||AKTIFBANK|10.40.24.170|||110000438458|705
9/17/2018 3:00:00 PM||AKTIFBANK|10.40.25.179|||110000438458|927
9/17/2018 3:00:00 PM||AKTIFBANK|10.40.24.179|||110000438458|1034
9/17/2018 3:00:00 PM||AKTIFBANK|10.40.25.186|||110000438458|181
9/17/2018 3:00:00 PM||AKTIFBANK|10.40.24.186|||110000438458|210
9/17/2018 3:00:00 PM||MARS CINEMA|10.40.25.206|||110000472614|296
9/17/2018 3:00:00 PM||PEGASUS|10.40.26.64|||110000423831|152
9/17/2018 3:00:00 PM||PEGASUS|10.40.27.67|||110000423831|1237
9/17/2018 3:00:00 PM||PEGASUS|10.40.27.68|||110000423831|319
9/17/2018 3:00:00 PM||PEGASUS|10.40.27.87|||110000423831|271
9/17/2018 3:00:00 PM||PEGASUS|10.40.26.87|||110000423831|293
9/17/2018 3:00:00 PM||BOYNER|10.40.26.95|||101367941673|406
