09.10.2018 15:00:00||AKTİFBANK|10.40.24.172|||110000438458|95
09.10.2018 15:00:00||AKTİFBANK|10.40.25.134|||110000438458|93
09.10.2018 15:00:00||AKTİFBANK|10.40.24.134|||110000438458|92
09.10.2018 15:00:00||AKTİFBANK|10.40.24.135|||110000438458|99
09.10.2018 15:00:00||AKTİFBANK|10.40.25.137|||110000438458|58
09.10.2018 15:00:00||AKTİFBANK|10.40.25.171|||110000438458|12
09.10.2018 15:00:00||AKTİFBANK|10.40.25.172|||110000438458|90
09.10.2018 15:00:00||AKTİFBANK|10.40.25.174|||110000438458|53
09.10.2018 15:00:00||AKTİFBANK|10.40.25.135|||110000438458|97
09.10.2018 15:00:00||AKTİFBANK|10.40.24.137|||110000438458|57
09.10.2018 15:00:00||AKTİFBANK|10.40.24.171|||110000438458|16
09.10.2018 15:00:00||AKTİFBANK|10.40.24.173|||110000438458|97
09.10.2018 15:00:00||AKTİFBANK|10.40.24.174|||110000438458|60
09.10.2018 15:00:00||AKTİFBANK|10.40.24.133|||110000438458|90
09.10.2018 15:00:00||AKTİFBANK|10.40.24.138|||110000438458|120
09.10.2018 15:00:00||AKTİFBANK|10.40.24.139|||110000438458|30
09.10.2018 15:00:00||AKTİFBANK|10.40.24.149|||110000438458|110
09.10.2018 15:00:00||AKTİFBANK|10.40.24.150|||110000438458|555
09.10.2018 15:00:00||AKTİFBANK|10.40.24.145|||110000438458|70
09.10.2018 15:00:00||AKTİFBANK|10.40.24.164|||110000438458|228
09.10.2018 15:00:00||AKTİFBANK|10.40.25.133|||110000438458|73
09.10.2018 15:00:00||AKTİFBANK|10.40.24.145|||110000438458|90
09.10.2018 15:00:00||AKTİFBANK|10.40.24.158|||110000438458|80
09.10.2018 15:00:00||AKTİFBANK|10.40.24.160|||110000438458|10
09.10.2018 15:00:00||AKTİFBANK|10.40.24.164|||110000438458|70
09.10.2018 15:00:00||AKTİFBANK|10.40.25.138|||110000438458|80
09.10.2018 15:00:00||AKTİFBANK|10.40.25.139|||110000438458|10
09.10.2018 15:00:00||AKTİFBANK|10.40.25.139|||110000438458|10
09.10.2018 15:00:00||AKTİFBANK|10.40.25.140|||110000438458|30
09.10.2018 15:00:00||AKTİFBANK|10.40.25.151|||110000438458|513
09.10.2018 15:00:00||AKTİFBANK|10.40.25.141|||110000438458|100
09.10.2018 15:00:00||AKTİFBANK|10.40.25.141|||110000438458|87
09.10.2018 15:00:00||AKTİFBANK|10.40.25.133|||110000438458|105
09.10.2018 15:00:00||AKTİFBANK|10.40.25.149|||110000438458|102
09.10.2018 15:00:00||AKTİFBANK|10.40.25.149|||110000438458|92
09.10.2018 15:00:00||AKTİFBANK|10.40.25.149|||110000438458|90
09.10.2018 15:00:00||AKTİFBANK|10.40.25.140|||110000438458|30
09.10.2018 15:00:00||AKTİFBANK|10.40.25.150|||110000438458|553
09.10.2018 15:00:00||AKTİFBANK|10.40.25.139|||110000438458|32
09.10.2018 15:00:00||AKTİFBANK|10.40.25.139|||110000438458|40
09.10.2018 15:00:00||AKTİFBANK|10.40.25.140|||110000438458|80
09.10.2018 15:00:00||AKTİFBANK|10.40.25.140|||110000438458|70
09.10.2018 15:00:00||AKTİFBANK|10.40.25.140|||110000438458|30
09.10.2018 15:00:00||AKTİFBANK|10.40.25.151|||110000438458|530
09.10.2018 15:00:00||AKTİFBANK|10.40.25.151|||110000438458|503
09.10.2018 15:00:00||AKTİFBANK|10.40.25.141|||110000438458|40
09.10.2018 15:00:00||AKTİFBANK|10.40.25.141|||110000438458|100
09.10.2018 15:00:00||AKTİFBANK|10.40.25.141|||110000438458|73
09.10.2018 15:00:00||AKTİFBANK|10.40.25.142|||110000438458|40
09.10.2018 15:00:00||AKTİFBANK|10.40.25.149|||110000438458|70
09.10.2018 15:00:00||AKTİFBANK|10.40.25.149|||110000438458|110
09.10.2018 15:00:00||AKTİFBANK|10.40.25.149|||110000438458|90
09.10.2018 15:00:00||AKTİFBANK|10.40.25.149|||110000438458|98
09.10.2018 15:00:00||AKTİFBANK|10.40.25.149|||110000438458|108
09.10.2018 15:00:00||AKTİFBANK|10.40.24.139|||110000438458|62
09.10.2018 15:00:00||AKTİFBANK|10.40.25.153|||110000438458|10
09.10.2018 15:00:00||AKTİFBANK|10.40.25.150|||110000438458|563
09.10.2018 15:00:00||AKTİFBANK|10.40.25.153|||110000438458|70
09.10.2018 15:00:00||AKTİFBANK|10.40.25.163|||110000438458|50
09.10.2018 15:00:00||AKTİFBANK|10.40.24.141|||110000438458|73
09.10.2018 15:00:00||AKTİFBANK|10.40.24.151|||110000438458|513
09.10.2018 15:00:00||AKTİFBANK|10.40.24.162|||110000438458|10
09.10.2018 15:00:00||AKTİFBANK|10.40.25.153|||110000438458|80
09.10.2018 15:00:00||AKTİFBANK|10.40.24.149|||110000438458|93
09.10.2018 15:00:00||AKTİFBANK|10.40.24.141|||110000438458|50
09.10.2018 15:00:00||AKTİFBANK|10.40.25.133|||110000438458|277
09.10.2018 15:00:00||AKTİFBANK|10.40.25.133|||110000438458|93
09.10.2018 15:00:00||AKTİFBANK|10.40.24.149|||110000438458|90
09.10.2018 15:00:00||AKTİFBANK|10.40.24.162|||110000438458|60
09.10.2018 15:00:00||AKTİFBANK|10.40.24.162|||110000438458|30
09.10.2018 15:00:00||AKTİFBANK|10.40.24.162|||110000438458|40
09.10.2018 15:00:00||AKTİFBANK|10.40.25.133|||110000438458|147
09.10.2018 15:00:00||AKTİFBANK|10.40.25.138|||110000438458|130
09.10.2018 15:00:00||AKTİFBANK|10.40.25.149|||110000438458|82
09.10.2018 15:00:00||AKTİFBANK|10.40.25.149|||110000438458|70
09.10.2018 15:00:00||AKTİFBANK|10.40.25.149|||110000438458|32
09.10.2018 15:00:00||AKTİFBANK|10.40.25.149|||110000438458|78
09.10.2018 15:00:00||AKTİFBANK|10.40.25.149|||110000438458|70
09.10.2018 15:00:00||AKTİFBANK|10.40.25.141|||110000438458|100
09.10.2018 15:00:00||AKTİFBANK|10.40.25.149|||110000438458|132
09.10.2018 15:00:00||AKTİFBANK|10.40.25.138|||110000438458|93
09.10.2018 15:00:00||AKTİFBANK|10.40.25.138|||110000438458|72
09.10.2018 15:00:00||AKTİFBANK|10.40.25.139|||110000438458|110
09.10.2018 15:00:00||AKTİFBANK|10.40.24.145|||110000438458|70
09.10.2018 15:00:00||AKTİFBANK|10.40.24.149|||110000438458|160
09.10.2018 15:00:00||AKTİFBANK|10.40.25.138|||110000438458|30
09.10.2018 15:00:00||AKTİFBANK|10.40.25.138|||110000438458|10
09.10.2018 15:00:00||AKTİFBANK|10.40.25.153|||110000438458|60
09.10.2018 15:00:00||AKTİFBANK|10.40.24.150|||110000438458|553
09.10.2018 15:00:00||AKTİFBANK|10.40.25.128|||110000438458|70
09.10.2018 15:00:00||AKTİFBANK|10.40.25.128|||110000438458|92
09.10.2018 15:00:00||AKTİFBANK|10.40.25.128|||110000438458|40
09.10.2018 15:00:00||AKTİFBANK|10.40.25.128|||110000438458|70
09.10.2018 15:00:00||AKTİFBANK|10.40.25.129|||110000438458|83
09.10.2018 15:00:00||AKTİFBANK|10.40.25.129|||110000438458|82
09.10.2018 15:00:00||AKTİFBANK|10.40.25.129|||110000438458|130
09.10.2018 15:00:00||AKTİFBANK|10.40.25.129|||110000438458|100
09.10.2018 15:00:00||AKTİFBANK|10.40.25.129|||110000438458|47
09.10.2018 15:00:00||AKTİFBANK|10.40.25.129|||110000438458|92
09.10.2018 15:00:00||AKTİFBANK|10.40.25.129|||110000438458|97
09.10.2018 15:00:00||AKTİFBANK|10.40.25.130|||110000438458|70
09.10.2018 15:00:00||AKTİFBANK|10.40.25.130|||110000438458|50
09.10.2018 15:00:00||AKTİFBANK|10.40.25.130|||110000438458|77
09.10.2018 15:00:00||AKTİFBANK|10.40.25.130|||110000438458|32
09.10.2018 15:00:00||AKTİFBANK|10.40.25.130|||110000438458|60
09.10.2018 15:00:00||AKTİFBANK|10.40.25.130|||110000438458|100
09.10.2018 15:00:00||AKTİFBANK|10.40.25.130|||110000438458|82
09.10.2018 15:00:00||AKTİFBANK|10.40.25.131|||110000438458|85
09.10.2018 15:00:00||AKTİFBANK|10.40.25.131|||110000438458|100
09.10.2018 15:00:00||AKTİFBANK|10.40.25.131|||110000438458|103
09.10.2018 15:00:00||AKTİFBANK|10.40.25.131|||110000438458|90
09.10.2018 15:00:00||AKTİFBANK|10.40.25.131|||110000438458|80
09.10.2018 15:00:00||AKTİFBANK|10.40.25.131|||110000438458|20
09.10.2018 15:00:00||AKTİFBANK|10.40.25.131|||110000438458|120
09.10.2018 15:00:00||AKTİFBANK|10.40.25.132|||110000438458|60
09.10.2018 15:00:00||AKTİFBANK|10.40.25.132|||110000438458|75
09.10.2018 15:00:00||AKTİFBANK|10.40.25.132|||110000438458|83
09.10.2018 15:00:00||AKTİFBANK|10.40.25.132|||110000438458|163
09.10.2018 15:00:00||AKTİFBANK|10.40.25.132|||110000438458|63
09.10.2018 15:00:00||AKTİFBANK|10.40.25.143|||110000438458|322
09.10.2018 15:00:00||AKTİFBANK|10.40.25.144|||110000438458|70
09.10.2018 15:00:00||AKTİFBANK|10.40.25.144|||110000438458|50
09.10.2018 15:00:00||AKTİFBANK|10.40.25.144|||110000438458|60
09.10.2018 15:00:00||AKTİFBANK|10.40.25.154|||110000438458|10
09.10.2018 15:00:00||AKTİFBANK|10.40.25.154|||110000438458|10
09.10.2018 15:00:00||AKTİFBANK|10.40.25.154|||110000438458|10
09.10.2018 15:00:00||AKTİFBANK|10.40.25.157|||110000438458|72
09.10.2018 15:00:00||AKTİFBANK|10.40.25.157|||110000438458|72
09.10.2018 15:00:00||AKTİFBANK|10.40.25.157|||110000438458|70
09.10.2018 15:00:00||AKTİFBANK|10.40.25.157|||110000438458|82
09.10.2018 15:00:00||AKTİFBANK|10.40.25.157|||110000438458|40
09.10.2018 15:00:00||AKTİFBANK|10.40.25.159|||110000438458|60
09.10.2018 15:00:00||AKTİFBANK|10.40.25.159|||110000438458|10
09.10.2018 15:00:00||AKTİFBANK|10.40.25.159|||110000438458|90
09.10.2018 15:00:00||AKTİFBANK|10.40.25.158|||110000438458|50
09.10.2018 15:00:00||AKTİFBANK|10.40.25.160|||110000438458|90
09.10.2018 15:00:00||AKTİFBANK|10.40.25.161|||110000438458|80
09.10.2018 15:00:00||AKTİFBANK|10.40.25.161|||110000438458|70
09.10.2018 15:00:00||AKTİFBANK|10.40.25.161|||110000438458|40
09.10.2018 15:00:00||AKTİFBANK|10.40.25.161|||110000438458|30
09.10.2018 15:00:00||AKTİFBANK|10.40.25.161|||110000438458|20
09.10.2018 15:00:00||AKTİFBANK|10.40.25.161|||110000438458|60
09.10.2018 15:00:00||AKTİFBANK|10.40.25.145|||110000438458|90
09.10.2018 15:00:00||AKTİFBANK|10.40.25.145|||110000438458|60
09.10.2018 15:00:00||AKTİFBANK|10.40.25.145|||110000438458|60
09.10.2018 15:00:00||AKTİFBANK|10.40.25.145|||110000438458|30
09.10.2018 15:00:00||AKTİFBANK|10.40.25.145|||110000438458|50
09.10.2018 15:00:00||AKTİFBANK|10.40.25.147|||110000438458|90
09.10.2018 15:00:00||AKTİFBANK|10.40.25.162|||110000438458|30
09.10.2018 15:00:00||AKTİFBANK|10.40.25.162|||110000438458|30
09.10.2018 15:00:00||AKTİFBANK|10.40.25.162|||110000438458|60
09.10.2018 15:00:00||AKTİFBANK|10.40.25.164|||110000438458|60
09.10.2018 15:00:00||AKTİFBANK|10.40.25.164|||110000438458|280
09.10.2018 15:00:00||AKTİFBANK|10.40.25.164|||110000438458|50
09.10.2018 15:00:00||AKTİFBANK|10.40.25.164|||110000438458|260
09.10.2018 15:00:00||AKTİFBANK|10.40.25.164|||110000438458|270
09.10.2018 15:00:00||AKTİFBANK|10.40.25.165|||110000438458|142
09.10.2018 15:00:00||AKTİFBANK|10.40.25.165|||110000438458|70
09.10.2018 15:00:00||AKTİFBANK|10.40.25.165|||110000438458|70
09.10.2018 15:00:00||AKTİFBANK|10.40.25.165|||110000438458|103
09.10.2018 15:00:00||AKTİFBANK|10.40.25.166|||110000438458|40
09.10.2018 15:00:00||AKTİFBANK|10.40.25.166|||110000438458|90
09.10.2018 15:00:00||AKTİFBANK|10.40.25.148|||110000438458|130
09.10.2018 15:00:00||AKTİFBANK|10.40.25.148|||110000438458|50
09.10.2018 15:00:00||AKTİFBANK|10.40.25.148|||110000438458|100
09.10.2018 15:00:00||AKTİFBANK|10.40.25.148|||110000438458|130
09.10.2018 15:00:00||AKTİFBANK|10.40.25.148|||110000438458|90
09.10.2018 15:00:00||AKTİFBANK|10.40.25.148|||110000438458|80
09.10.2018 15:00:00||AKTİFBANK|10.40.25.148|||110000438458|70
09.10.2018 15:00:00||AKTİFBANK|10.40.25.148|||110000438458|50
09.10.2018 15:00:00||AKTİFBANK|10.40.25.148|||110000438458|80
09.10.2018 15:00:00||AKTİFBANK|10.40.25.148|||110000438458|40
09.10.2018 15:00:00||AKTİFBANK|10.40.25.148|||110000438458|100
09.10.2018 15:00:00||AKTİFBANK|10.40.25.148|||110000438458|60
09.10.2018 15:00:00||AKTİFBANK|10.40.25.155|||110000438458|70
09.10.2018 15:00:00||AKTİFBANK|10.40.25.155|||110000438458|90
09.10.2018 15:00:00||AKTİFBANK|10.40.25.155|||110000438458|108
09.10.2018 15:00:00||AKTİFBANK|10.40.25.155|||110000438458|120
09.10.2018 15:00:00||AKTİFBANK|10.40.25.155|||110000438458|110
09.10.2018 15:00:00||AKTİFBANK|10.40.25.156|||110000438458|20
09.10.2018 15:00:00||AKTİFBANK|10.40.25.156|||110000438458|22
09.10.2018 15:00:00||AKTİFBANK|10.40.25.139|||110000438458|78
09.10.2018 15:00:00||AKTİFBANK|10.40.25.139|||110000438458|82
09.10.2018 15:00:00||AKTİFBANK|10.40.25.150|||110000438458|540
09.10.2018 15:00:00||AKTİFBANK|10.40.25.129|||110000438458|60
09.10.2018 15:00:00||AKTİFBANK|10.40.25.129|||110000438458|88
09.10.2018 15:00:00||AKTİFBANK|10.40.25.129|||110000438458|140
09.10.2018 15:00:00||AKTİFBANK|10.40.25.130|||110000438458|63
09.10.2018 15:00:00||AKTİFBANK|10.40.25.130|||110000438458|125
09.10.2018 15:00:00||AKTİFBANK|10.40.25.130|||110000438458|100
09.10.2018 15:00:00||AKTİFBANK|10.40.25.131|||110000438458|42
09.10.2018 15:00:00||AKTİFBANK|10.40.25.143|||110000438458|60
09.10.2018 15:00:00||AKTİFBANK|10.40.25.143|||110000438458|245
09.10.2018 15:00:00||AKTİFBANK|10.40.25.143|||110000438458|270
09.10.2018 15:00:00||AKTİFBANK|10.40.25.158|||110000438458|105
09.10.2018 15:00:00||AKTİFBANK|10.40.25.160|||110000438458|110
09.10.2018 15:00:00||AKTİFBANK|10.40.25.162|||110000438458|43
09.10.2018 15:00:00||AKTİFBANK|10.40.25.162|||110000438458|30
09.10.2018 15:00:00||AKTİFBANK|10.40.25.162|||110000438458|40
09.10.2018 15:00:00||AKTİFBANK|10.40.24.140|||110000438458|20
09.10.2018 15:00:00||AKTİFBANK|10.40.24.140|||110000438458|80
09.10.2018 15:00:00||AKTİFBANK|10.40.24.140|||110000438458|40
09.10.2018 15:00:00||AKTİFBANK|10.40.24.140|||110000438458|30
09.10.2018 15:00:00||AKTİFBANK|10.40.24.140|||110000438458|30
09.10.2018 15:00:00||AKTİFBANK|10.40.24.140|||110000438458|50
09.10.2018 15:00:00||AKTİFBANK|10.40.24.140|||110000438458|40
09.10.2018 15:00:00||AKTİFBANK|10.40.24.140|||110000438458|20
09.10.2018 15:00:00||AKTİFBANK|10.40.24.140|||110000438458|28
09.10.2018 15:00:00||AKTİFBANK|10.40.24.149|||110000438458|80
09.10.2018 15:00:00||AKTİFBANK|10.40.24.149|||110000438458|120
09.10.2018 15:00:00||AKTİFBANK|10.40.24.149|||110000438458|92
09.10.2018 15:00:00||AKTİFBANK|10.40.24.149|||110000438458|88
09.10.2018 15:00:00||AKTİFBANK|10.40.24.149|||110000438458|53
09.10.2018 15:00:00||AKTİFBANK|10.40.24.149|||110000438458|140
09.10.2018 15:00:00||AKTİFBANK|10.40.24.149|||110000438458|92
09.10.2018 15:00:00||AKTİFBANK|10.40.24.149|||110000438458|90
09.10.2018 15:00:00||AKTİFBANK|10.40.24.149|||110000438458|95
09.10.2018 15:00:00||AKTİFBANK|10.40.24.149|||110000438458|80
09.10.2018 15:00:00||AKTİFBANK|10.40.24.133|||110000438458|148
09.10.2018 15:00:00||AKTİFBANK|10.40.24.133|||110000438458|127
09.10.2018 15:00:00||AKTİFBANK|10.40.24.133|||110000438458|87
09.10.2018 15:00:00||AKTİFBANK|10.40.24.138|||110000438458|112
09.10.2018 15:00:00||AKTİFBANK|10.40.24.138|||110000438458|140
09.10.2018 15:00:00||AKTİFBANK|10.40.24.138|||110000438458|120
09.10.2018 15:00:00||AKTİFBANK|10.40.24.138|||110000438458|32
09.10.2018 15:00:00||AKTİFBANK|10.40.24.138|||110000438458|50
09.10.2018 15:00:00||AKTİFBANK|10.40.24.139|||110000438458|40
09.10.2018 15:00:00||AKTİFBANK|10.40.24.139|||110000438458|50
09.10.2018 15:00:00||AKTİFBANK|10.40.24.139|||110000438458|90
09.10.2018 15:00:00||AKTİFBANK|10.40.24.139|||110000438458|120
09.10.2018 15:00:00||AKTİFBANK|10.40.24.141|||110000438458|200
09.10.2018 15:00:00||AKTİFBANK|10.40.24.141|||110000438458|102
09.10.2018 15:00:00||AKTİFBANK|10.40.24.141|||110000438458|100
09.10.2018 15:00:00||AKTİFBANK|10.40.24.141|||110000438458|77
09.10.2018 15:00:00||AKTİFBANK|10.40.24.141|||110000438458|80
09.10.2018 15:00:00||AKTİFBANK|10.40.25.152|||110000438458|127
09.10.2018 15:00:00||AKTİFBANK|10.40.25.152|||110000438458|42
09.10.2018 15:00:00||AKTİFBANK|10.40.25.152|||110000438458|110
09.10.2018 15:00:00||AKTİFBANK|10.40.25.152|||110000438458|70
09.10.2018 15:00:00||AKTİFBANK|10.40.25.152|||110000438458|90
09.10.2018 15:00:00||AKTİFBANK|10.40.25.152|||110000438458|22
09.10.2018 15:00:00||AKTİFBANK|10.40.25.152|||110000438458|53
09.10.2018 15:00:00||AKTİFBANK|10.40.25.152|||110000438458|92
09.10.2018 15:00:00||AKTİFBANK|10.40.25.152|||110000438458|30
09.10.2018 15:00:00||AKTİFBANK|10.40.25.152|||110000438458|80
09.10.2018 15:00:00||AKTİFBANK|10.40.25.152|||110000438458|30
09.10.2018 15:00:00||AKTİFBANK|10.40.24.150|||110000438458|567
09.10.2018 15:00:00||AKTİFBANK|10.40.24.151|||110000438458|515
09.10.2018 15:00:00||AKTİFBANK|10.40.24.151|||110000438458|528
09.10.2018 15:00:00||AKTİFBANK|10.40.24.128|||110000438458|150
09.10.2018 15:00:00||AKTİFBANK|10.40.24.128|||110000438458|70
09.10.2018 15:00:00||AKTİFBANK|10.40.24.128|||110000438458|100
09.10.2018 15:00:00||AKTİFBANK|10.40.24.128|||110000438458|40
09.10.2018 15:00:00||AKTİFBANK|10.40.24.128|||110000438458|70
09.10.2018 15:00:00||AKTİFBANK|10.40.24.128|||110000438458|48
09.10.2018 15:00:00||AKTİFBANK|10.40.24.129|||110000438458|100
09.10.2018 15:00:00||AKTİFBANK|10.40.24.129|||110000438458|68
09.10.2018 15:00:00||AKTİFBANK|10.40.24.129|||110000438458|100
09.10.2018 15:00:00||AKTİFBANK|10.40.24.129|||110000438458|110
09.10.2018 15:00:00||AKTİFBANK|10.40.24.129|||110000438458|52
09.10.2018 15:00:00||AKTİFBANK|10.40.24.129|||110000438458|75
09.10.2018 15:00:00||AKTİFBANK|10.40.24.129|||110000438458|70
09.10.2018 15:00:00||AKTİFBANK|10.40.24.129|||110000438458|92
09.10.2018 15:00:00||AKTİFBANK|10.40.24.129|||110000438458|80
09.10.2018 15:00:00||AKTİFBANK|10.40.24.129|||110000438458|142
09.10.2018 15:00:00||AKTİFBANK|10.40.24.130|||110000438458|53
09.10.2018 15:00:00||AKTİFBANK|10.40.24.130|||110000438458|40
09.10.2018 15:00:00||AKTİFBANK|10.40.24.130|||110000438458|70
09.10.2018 15:00:00||AKTİFBANK|10.40.24.130|||110000438458|40
09.10.2018 15:00:00||AKTİFBANK|10.40.24.130|||110000438458|60
09.10.2018 15:00:00||AKTİFBANK|10.40.24.130|||110000438458|75
09.10.2018 15:00:00||AKTİFBANK|10.40.24.130|||110000438458|87
09.10.2018 15:00:00||AKTİFBANK|10.40.24.130|||110000438458|40
09.10.2018 15:00:00||AKTİFBANK|10.40.24.130|||110000438458|130
09.10.2018 15:00:00||AKTİFBANK|10.40.24.130|||110000438458|110
09.10.2018 15:00:00||AKTİFBANK|10.40.24.131|||110000438458|12
09.10.2018 15:00:00||AKTİFBANK|10.40.24.131|||110000438458|92
09.10.2018 15:00:00||AKTİFBANK|10.40.24.131|||110000438458|90
09.10.2018 15:00:00||AKTİFBANK|10.40.24.131|||110000438458|112
09.10.2018 15:00:00||AKTİFBANK|10.40.24.131|||110000438458|112
09.10.2018 15:00:00||AKTİFBANK|10.40.24.131|||110000438458|37
09.10.2018 15:00:00||AKTİFBANK|10.40.24.131|||110000438458|160
09.10.2018 15:00:00||AKTİFBANK|10.40.24.131|||110000438458|60
09.10.2018 15:00:00||AKTİFBANK|10.40.24.131|||110000438458|110
09.10.2018 15:00:00||AKTİFBANK|10.40.24.132|||110000438458|40
09.10.2018 15:00:00||AKTİFBANK|10.40.24.132|||110000438458|80
09.10.2018 15:00:00||AKTİFBANK|10.40.24.132|||110000438458|50
09.10.2018 15:00:00||AKTİFBANK|10.40.24.132|||110000438458|180
09.10.2018 15:00:00||AKTİFBANK|10.40.24.132|||110000438458|70
09.10.2018 15:00:00||AKTİFBANK|10.40.24.143|||110000438458|65
09.10.2018 15:00:00||AKTİFBANK|10.40.24.143|||110000438458|267
09.10.2018 15:00:00||AKTİFBANK|10.40.24.143|||110000438458|273
09.10.2018 15:00:00||AKTİFBANK|10.40.24.143|||110000438458|223
09.10.2018 15:00:00||AKTİFBANK|10.40.24.144|||110000438458|80
09.10.2018 15:00:00||AKTİFBANK|10.40.24.144|||110000438458|102
09.10.2018 15:00:00||AKTİFBANK|10.40.24.144|||110000438458|88
09.10.2018 15:00:00||AKTİFBANK|10.40.24.148|||110000438458|63
09.10.2018 15:00:00||AKTİFBANK|10.40.24.148|||110000438458|173
09.10.2018 15:00:00||AKTİFBANK|10.40.24.148|||110000438458|80
09.10.2018 15:00:00||AKTİFBANK|10.40.24.148|||110000438458|110
09.10.2018 15:00:00||AKTİFBANK|10.40.24.148|||110000438458|80
09.10.2018 15:00:00||AKTİFBANK|10.40.24.148|||110000438458|80
09.10.2018 15:00:00||AKTİFBANK|10.40.24.148|||110000438458|93
09.10.2018 15:00:00||AKTİFBANK|10.40.24.148|||110000438458|103
09.10.2018 15:00:00||AKTİFBANK|10.40.24.148|||110000438458|83
09.10.2018 15:00:00||AKTİFBANK|10.40.24.148|||110000438458|73
09.10.2018 15:00:00||AKTİFBANK|10.40.24.148|||110000438458|30
09.10.2018 15:00:00||AKTİFBANK|10.40.24.148|||110000438458|72
09.10.2018 15:00:00||AKTİFBANK|10.40.24.153|||110000438458|10
09.10.2018 15:00:00||AKTİFBANK|10.40.24.153|||110000438458|90
09.10.2018 15:00:00||AKTİFBANK|10.40.24.153|||110000438458|70
09.10.2018 15:00:00||AKTİFBANK|10.40.24.153|||110000438458|70
09.10.2018 15:00:00||AKTİFBANK|10.40.24.157|||110000438458|30
09.10.2018 15:00:00||AKTİFBANK|10.40.24.157|||110000438458|80
09.10.2018 15:00:00||AKTİFBANK|10.40.24.157|||110000438458|70
09.10.2018 15:00:00||AKTİFBANK|10.40.24.157|||110000438458|40
09.10.2018 15:00:00||AKTİFBANK|10.40.24.157|||110000438458|82
09.10.2018 15:00:00||AKTİFBANK|10.40.24.157|||110000438458|45
09.10.2018 15:00:00||AKTİFBANK|10.40.24.158|||110000438458|110
09.10.2018 15:00:00||AKTİFBANK|10.40.24.158|||110000438458|112
09.10.2018 15:00:00||AKTİFBANK|10.40.24.158|||110000438458|130
09.10.2018 15:00:00||AKTİFBANK|10.40.24.158|||110000438458|80
09.10.2018 15:00:00||AKTİFBANK|10.40.24.158|||110000438458|110
09.10.2018 15:00:00||AKTİFBANK|10.40.24.159|||110000438458|130
09.10.2018 15:00:00||AKTİFBANK|10.40.24.159|||110000438458|52
09.10.2018 15:00:00||AKTİFBANK|10.40.24.159|||110000438458|182
09.10.2018 15:00:00||AKTİFBANK|10.40.24.160|||110000438458|10
09.10.2018 15:00:00||AKTİFBANK|10.40.24.160|||110000438458|90
09.10.2018 15:00:00||AKTİFBANK|10.40.24.160|||110000438458|103
09.10.2018 15:00:00||AKTİFBANK|10.40.24.161|||110000438458|183
09.10.2018 15:00:00||AKTİFBANK|10.40.24.161|||110000438458|80
09.10.2018 15:00:00||AKTİFBANK|10.40.24.161|||110000438458|40
09.10.2018 15:00:00||AKTİFBANK|10.40.24.161|||110000438458|30
09.10.2018 15:00:00||AKTİFBANK|10.40.24.161|||110000438458|30
09.10.2018 15:00:00||AKTİFBANK|10.40.24.161|||110000438458|20
09.10.2018 15:00:00||AKTİFBANK|10.40.24.161|||110000438458|90
09.10.2018 15:00:00||AKTİFBANK|10.40.24.145|||110000438458|20
09.10.2018 15:00:00||AKTİFBANK|10.40.24.145|||110000438458|90
09.10.2018 15:00:00||AKTİFBANK|10.40.24.145|||110000438458|60
09.10.2018 15:00:00||AKTİFBANK|10.40.24.147|||110000438458|90
09.10.2018 15:00:00||AKTİFBANK|10.40.24.162|||110000438458|80
09.10.2018 15:00:00||AKTİFBANK|10.40.24.162|||110000438458|52
09.10.2018 15:00:00||AKTİFBANK|10.40.24.162|||110000438458|40
09.10.2018 15:00:00||AKTİFBANK|10.40.24.162|||110000438458|40
09.10.2018 15:00:00||AKTİFBANK|10.40.24.162|||110000438458|73
09.10.2018 15:00:00||AKTİFBANK|10.40.24.162|||110000438458|10
09.10.2018 15:00:00||AKTİFBANK|10.40.24.162|||110000438458|53
09.10.2018 15:00:00||AKTİFBANK|10.40.24.163|||110000438458|30
09.10.2018 15:00:00||AKTİFBANK|10.40.24.163|||110000438458|75
09.10.2018 15:00:00||AKTİFBANK|10.40.24.164|||110000438458|58
09.10.2018 15:00:00||AKTİFBANK|10.40.24.164|||110000438458|330
09.10.2018 15:00:00||AKTİFBANK|10.40.24.164|||110000438458|218
09.10.2018 15:00:00||AKTİFBANK|10.40.24.165|||110000438458|80
09.10.2018 15:00:00||AKTİFBANK|10.40.24.165|||110000438458|80
09.10.2018 15:00:00||AKTİFBANK|10.40.24.165|||110000438458|125
09.10.2018 15:00:00||AKTİFBANK|10.40.24.166|||110000438458|80
09.10.2018 15:00:00||AKTİFBANK|10.40.24.166|||110000438458|90
09.10.2018 15:00:00||AKTİFBANK|10.40.24.166|||110000438458|10
09.10.2018 15:00:00||AKTİFBANK|10.40.24.166|||110000438458|10
09.10.2018 15:00:00||AKTİFBANK|10.40.24.166|||110000438458|10
09.10.2018 15:00:00||AKTİFBANK|10.40.25.168|||110000438458|90
09.10.2018 15:00:00||AKTİFBANK|10.40.25.168|||110000438458|70
09.10.2018 15:00:00||AKTİFBANK|10.40.25.168|||110000438458|50
09.10.2018 15:00:00||AKTİFBANK|10.40.25.168|||110000438458|40
09.10.2018 15:00:00||AKTİFBANK|10.40.25.168|||110000438458|60
09.10.2018 15:00:00||AKTİFBANK|10.40.24.168|||110000438458|90
09.10.2018 15:00:00||AKTİFBANK|10.40.24.168|||110000438458|38
09.10.2018 15:00:00||AKTİFBANK|10.40.24.168|||110000438458|80
09.10.2018 15:00:00||AKTİFBANK|10.40.24.168|||110000438458|70
09.10.2018 15:00:00||AKTİFBANK|10.40.24.168|||110000438458|70
09.10.2018 15:00:00||AKTİFBANK|10.40.24.168|||110000438458|30
09.10.2018 15:00:00||AKTİFBANK|10.40.24.154|||110000438458|70
09.10.2018 15:00:00||AKTİFBANK|10.40.24.154|||110000438458|18
09.10.2018 15:00:00||AKTİFBANK|10.40.24.154|||110000438458|10
09.10.2018 15:00:00||AKTİFBANK|10.40.24.154|||110000438458|10
09.10.2018 15:00:00||AKTİFBANK|10.40.24.154|||110000438458|10
09.10.2018 15:00:00||AKTİFBANK|10.40.24.154|||110000438458|10
09.10.2018 15:00:00||AKTİFBANK|10.40.24.155|||110000438458|102
09.10.2018 15:00:00||AKTİFBANK|10.40.24.155|||110000438458|130
09.10.2018 15:00:00||AKTİFBANK|10.40.24.155|||110000438458|80
09.10.2018 15:00:00||AKTİFBANK|10.40.24.155|||110000438458|113
09.10.2018 15:00:00||AKTİFBANK|10.40.24.155|||110000438458|100
09.10.2018 15:00:00||AKTİFBANK|10.40.25.169|||110000438458|92
09.10.2018 15:00:00||AKTİFBANK|10.40.25.169|||110000438458|95
09.10.2018 15:00:00||AKTİFBANK|10.40.25.169|||110000438458|73
09.10.2018 15:00:00||AKTİFBANK|10.40.25.169|||110000438458|78
09.10.2018 15:00:00||AKTİFBANK|10.40.24.169|||110000438458|70
09.10.2018 15:00:00||AKTİFBANK|10.40.24.169|||110000438458|80
09.10.2018 15:00:00||AKTİFBANK|10.40.24.169|||110000438458|70
09.10.2018 15:00:00||AKTİFBANK|10.40.24.169|||110000438458|80
09.10.2018 15:00:00||AKTİFBANK|10.40.25.170|||110000438458|30
09.10.2018 15:00:00||AKTİFBANK|10.40.25.170|||110000438458|30
09.10.2018 15:00:00||AKTİFBANK|10.40.25.170|||110000438458|32
09.10.2018 15:00:00||AKTİFBANK|10.40.25.170|||110000438458|83
09.10.2018 15:00:00||AKTİFBANK|10.40.25.170|||110000438458|103
09.10.2018 15:00:00||AKTİFBANK|10.40.25.170|||110000438458|92
09.10.2018 15:00:00||AKTİFBANK|10.40.25.170|||110000438458|128
09.10.2018 15:00:00||AKTİFBANK|10.40.24.170|||110000438458|60
09.10.2018 15:00:00||AKTİFBANK|10.40.24.170|||110000438458|60
09.10.2018 15:00:00||AKTİFBANK|10.40.24.170|||110000438458|288
09.10.2018 15:00:00||AKTİFBANK|10.40.24.170|||110000438458|198
09.10.2018 15:00:00||AKTİFBANK|10.40.24.170|||110000438458|82
09.10.2018 15:00:00||AKTİFBANK|10.40.24.170|||110000438458|112
09.10.2018 15:00:00||AKTİFBANK|10.40.24.170|||110000438458|85
09.10.2018 15:00:00||AKTİFBANK|10.40.25.178|||110000438458|553
09.10.2018 15:00:00||AKTİFBANK|10.40.25.178|||110000438458|578
09.10.2018 15:00:00||AKTİFBANK|10.40.25.178|||110000438458|558
09.10.2018 15:00:00||AKTİFBANK|10.40.24.178|||110000438458|557
09.10.2018 15:00:00||AKTİFBANK|10.40.24.178|||110000438458|543
09.10.2018 15:00:00||AKTİFBANK|10.40.24.178|||110000438458|540
09.10.2018 15:00:00||AKTİFBANK|10.40.25.179|||110000438458|387
09.10.2018 15:00:00||AKTİFBANK|10.40.25.179|||110000438458|325
09.10.2018 15:00:00||AKTİFBANK|10.40.25.179|||110000438458|312
09.10.2018 15:00:00||AKTİFBANK|10.40.24.179|||110000438458|368
09.10.2018 15:00:00||AKTİFBANK|10.40.24.179|||110000438458|363
09.10.2018 15:00:00||AKTİFBANK|10.40.24.179|||110000438458|368
09.10.2018 15:00:00||AKTİFBANK|10.40.24.142|||110000438458|75
09.10.2018 15:00:00||AKTİFBANK|10.40.24.142|||110000438458|40
09.10.2018 15:00:00||AKTİFBANK|10.40.24.156|||110000438458|50
09.10.2018 15:00:00||AKTİFBANK|10.40.24.156|||110000438458|50
09.10.2018 15:00:00||AKTİFBANK|10.40.24.156|||110000438458|10
09.10.2018 15:00:00||AKTİFBANK|10.40.25.186|||110000438458|90
09.10.2018 15:00:00||AKTİFBANK|10.40.25.186|||110000438458|20
09.10.2018 15:00:00||AKTİFBANK|10.40.25.186|||110000438458|70
09.10.2018 15:00:00||AKTİFBANK|10.40.24.186|||110000438458|92
09.10.2018 15:00:00||AKTİFBANK|10.40.24.186|||110000438458|20
09.10.2018 15:00:00||AKTİFBANK|10.40.24.186|||110000438458|60
09.10.2018 15:00:00||AKTİFBANK|10.40.24.186|||110000438458|40
09.10.2018 15:00:00||AKTİFBANK|10.40.24.152|||110000438458|20
09.10.2018 15:00:00||AKTİFBANK|10.40.24.152|||110000438458|50
09.10.2018 15:00:00||AKTİFBANK|10.40.24.152|||110000438458|112
09.10.2018 15:00:00||AKTİFBANK|10.40.24.152|||110000438458|117
09.10.2018 15:00:00||AKTİFBANK|10.40.24.152|||110000438458|103
09.10.2018 15:00:00||AKTİFBANK|10.40.24.152|||110000438458|100
09.10.2018 15:00:00||AKTİFBANK|10.40.24.152|||110000438458|282
09.10.2018 15:00:00||AKTİFBANK|10.40.24.152|||110000438458|75
09.10.2018 15:00:00||AKTİFBANK|10.40.24.152|||110000438458|92
09.10.2018 15:00:00||AKTİFBANK|10.40.24.152|||110000438458|30
09.10.2018 15:00:00||AKTİFBANK|10.40.24.152|||110000438458|72
09.10.2018 15:00:00||AKTİFBANK|10.40.24.152|||110000438458|30
09.10.2018 15:00:00||BARİKAT İNTERNET GÜVENLİĞİ|10.40.25.201|||110000479736|117
09.10.2018 15:00:00||BARİKAT İNTERNET GÜVENLİĞİ|10.40.25.201|||110000479736|100
09.10.2018 15:00:00||BARİKAT İNTERNET GÜVENLİĞİ|10.40.24.201|||110000479736|130
09.10.2018 15:00:00||BARİKAT İNTERNET GÜVENLİĞİ|10.40.24.201|||110000479736|100
09.10.2018 15:00:00||BOYNER|10.40.26.100|||101367941673|55
09.10.2018 15:00:00||BOYNER|10.40.26.101|||101367941673|166
09.10.2018 15:00:00||BOYNER|10.40.27.100|||101367941673|52
09.10.2018 15:00:00||BOYNER|10.40.27.101|||101367941673|165
09.10.2018 15:00:00||BOYNER|10.40.27.94|||101367941673|210
09.10.2018 15:00:00||BOYNER|10.40.27.94|||101367941673|90
09.10.2018 15:00:00||BOYNER|10.40.27.94|||101367941673|90
09.10.2018 15:00:00||BOYNER|10.40.27.94|||101367941673|100
09.10.2018 15:00:00||BOYNER|10.40.26.94|||101367941673|90
09.10.2018 15:00:00||BOYNER|10.40.26.94|||101367941673|80
09.10.2018 15:00:00||BOYNER|10.40.26.94|||101367941673|80
09.10.2018 15:00:00||BOYNER|10.40.27.95|||101367941673|107
09.10.2018 15:00:00||BOYNER|10.40.27.95|||101367941673|118
09.10.2018 15:00:00||BOYNER|10.40.27.95|||101367941673|222
09.10.2018 15:00:00||BOYNER|10.40.26.95|||101367941673|88
09.10.2018 15:00:00||BOYNER|10.40.26.95|||101367941673|187
09.10.2018 15:00:00||BOYNER|10.40.26.95|||101367941673|132
09.10.2018 15:00:00||BOYNER|10.40.27.96|||101367941673|60
09.10.2018 15:00:00||BOYNER|10.40.27.96|||101367941673|50
09.10.2018 15:00:00||BOYNER|10.40.27.96|||101367941673|50
09.10.2018 15:00:00||BOYNER|10.40.27.96|||101367941673|40
09.10.2018 15:00:00||BOYNER|10.40.27.96|||101367941673|40
09.10.2018 15:00:00||BOYNER|10.40.27.96|||101367941673|143
09.10.2018 15:00:00||BOYNER|10.40.27.96|||101367941673|150
09.10.2018 15:00:00||BOYNER|10.40.27.96|||101367941673|177
09.10.2018 15:00:00||BOYNER|10.40.27.96|||101367941673|163
09.10.2018 15:00:00||BOYNER|10.40.26.96|||101367941673|30
09.10.2018 15:00:00||BOYNER|10.40.26.96|||101367941673|42
09.10.2018 15:00:00||BOYNER|10.40.26.96|||101367941673|30
09.10.2018 15:00:00||BOYNER|10.40.26.96|||101367941673|40
09.10.2018 15:00:00||BOYNER|10.40.26.96|||101367941673|40
09.10.2018 15:00:00||BOYNER|10.40.26.96|||101367941673|50
09.10.2018 15:00:00||BOYNER|10.40.26.96|||101367941673|182
09.10.2018 15:00:00||BOYNER|10.40.26.96|||101367941673|197
09.10.2018 15:00:00||BOYNER|10.40.26.96|||101367941673|158
09.10.2018 15:00:00||BOYNER|10.40.26.96|||101367941673|175
09.10.2018 15:00:00||BOYNER|10.40.27.97|||101367941673|60
09.10.2018 15:00:00||BOYNER|10.40.27.97|||101367941673|647
09.10.2018 15:00:00||BOYNER|10.40.27.97|||101367941673|650
09.10.2018 15:00:00||BOYNER|10.40.27.97|||101367941673|688
09.10.2018 15:00:00||BOYNER|10.40.27.97|||101367941673|50
09.10.2018 15:00:00||BOYNER|10.40.27.97|||101367941673|40
09.10.2018 15:00:00||BOYNER|10.40.27.97|||101367941673|50
09.10.2018 15:00:00||BOYNER|10.40.27.97|||101367941673|30
09.10.2018 15:00:00||BOYNER|10.40.27.97|||101367941673|180
09.10.2018 15:00:00||BOYNER|10.40.27.97|||101367941673|172
09.10.2018 15:00:00||BOYNER|10.40.27.97|||101367941673|185
09.10.2018 15:00:00||BOYNER|10.40.27.97|||101367941673|195
09.10.2018 15:00:00||BOYNER|10.40.26.97|||101367941673|30
09.10.2018 15:00:00||BOYNER|10.40.26.97|||101367941673|640
09.10.2018 15:00:00||BOYNER|10.40.26.97|||101367941673|647
09.10.2018 15:00:00||BOYNER|10.40.26.97|||101367941673|652
09.10.2018 15:00:00||BOYNER|10.40.26.97|||101367941673|32
09.10.2018 15:00:00||BOYNER|10.40.26.97|||101367941673|40
09.10.2018 15:00:00||BOYNER|10.40.26.97|||101367941673|50
09.10.2018 15:00:00||BOYNER|10.40.26.97|||101367941673|60
09.10.2018 15:00:00||BOYNER|10.40.26.97|||101367941673|30
09.10.2018 15:00:00||BOYNER|10.40.26.97|||101367941673|160
09.10.2018 15:00:00||BOYNER|10.40.26.97|||101367941673|172
09.10.2018 15:00:00||BOYNER|10.40.26.97|||101367941673|170
09.10.2018 15:00:00||BOYNER|10.40.26.97|||101367941673|157
09.10.2018 15:00:00||BOYNER|10.40.27.99|||101367941673|120
09.10.2018 15:00:00||BOYNER|10.40.27.99|||101367941673|97
09.10.2018 15:00:00||BOYNER|10.40.27.99|||101367941673|73
09.10.2018 15:00:00||BOYNER|10.40.26.99|||101367941673|13
09.10.2018 15:00:00||BOYNER|10.40.26.99|||101367941673|113
09.10.2018 15:00:00||BOYNER|10.40.26.99|||101367941673|113
09.10.2018 15:00:00||BOYNER|10.40.26.99|||101367941673|62
09.10.2018 15:00:00||ÇALIK HOLDİNG|10.40.24.118|||110000438407|42
09.10.2018 15:00:00||ÇALIK HOLDİNG|10.40.25.99|||110000438407|140
09.10.2018 15:00:00||ÇALIK HOLDİNG|10.40.25.118|||110000438407|159
09.10.2018 15:00:00||ÇALIK HOLDİNG|10.40.25.120|||110000438407|90
09.10.2018 15:00:00||ÇALIK HOLDİNG|10.40.24.95|||110000438407|50
09.10.2018 15:00:00||ÇALIK HOLDİNG|10.40.25.97|||110000438407|80
09.10.2018 15:00:00||ÇALIK HOLDİNG|10.40.25.103|||110000438407|90
09.10.2018 15:00:00||ÇALIK HOLDİNG|10.40.25.120|||110000438407|40
09.10.2018 15:00:00||ÇALIK HOLDİNG|10.40.25.96|||110000438407|70
09.10.2018 15:00:00||ÇALIK HOLDİNG|10.40.25.96|||110000438407|90
09.10.2018 15:00:00||ÇALIK HOLDİNG|10.40.25.96|||110000438407|120
09.10.2018 15:00:00||ÇALIK HOLDİNG|10.40.25.96|||110000438407|90
09.10.2018 15:00:00||ÇALIK HOLDİNG|10.40.25.115|||110000438407|177
09.10.2018 15:00:00||ÇALIK HOLDİNG|10.40.25.115|||110000438407|73
09.10.2018 15:00:00||ÇALIK HOLDİNG|10.40.25.95|||110000438407|92
09.10.2018 15:00:00||ÇALIK HOLDİNG|10.40.25.96|||110000438407|90
09.10.2018 15:00:00||ÇALIK HOLDİNG|10.40.25.96|||110000438407|100
09.10.2018 15:00:00||ÇALIK HOLDİNG|10.40.25.120|||110000438407|20
09.10.2018 15:00:00||ÇALIK HOLDİNG|10.40.25.95|||110000438407|60
09.10.2018 15:00:00||ÇALIK HOLDİNG|10.40.24.94|||110000438407|200
09.10.2018 15:00:00||ÇALIK HOLDİNG|10.40.25.97|||110000438407|102
09.10.2018 15:00:00||ÇALIK HOLDİNG|10.40.25.120|||110000438407|60
09.10.2018 15:00:00||ÇALIK HOLDİNG|10.40.25.115|||110000438407|87
09.10.2018 15:00:00||ÇALIK HOLDİNG|10.40.25.115|||110000438407|73
09.10.2018 15:00:00||ÇALIK HOLDİNG|10.40.25.115|||110000438407|70
09.10.2018 15:00:00||ÇALIK HOLDİNG|10.40.25.101|||110000438407|50
09.10.2018 15:00:00||ÇALIK HOLDİNG|10.40.25.101|||110000438407|110
09.10.2018 15:00:00||ÇALIK HOLDİNG|10.40.25.101|||110000438407|30
09.10.2018 15:00:00||ÇALIK HOLDİNG|10.40.25.101|||110000438407|10
09.10.2018 15:00:00||ÇALIK HOLDİNG|10.40.25.101|||110000438407|87
09.10.2018 15:00:00||ÇALIK HOLDİNG|10.40.25.101|||110000438407|40
09.10.2018 15:00:00||ÇALIK HOLDİNG|10.40.25.101|||110000438407|40
09.10.2018 15:00:00||ÇALIK HOLDİNG|10.40.25.101|||110000438407|90
09.10.2018 15:00:00||ÇALIK HOLDİNG|10.40.25.101|||110000438407|90
09.10.2018 15:00:00||ÇALIK HOLDİNG|10.40.25.101|||110000438407|90
09.10.2018 15:00:00||ÇALIK HOLDİNG|10.40.25.94|||110000438407|180
09.10.2018 15:00:00||ÇALIK HOLDİNG|10.40.25.94|||110000438407|180
09.10.2018 15:00:00||ÇALIK HOLDİNG|10.40.25.94|||110000438407|170
09.10.2018 15:00:00||ÇALIK HOLDİNG|10.40.25.94|||110000438407|180
09.10.2018 15:00:00||ÇALIK HOLDİNG|10.40.24.94|||110000438407|212
09.10.2018 15:00:00||ÇALIK HOLDİNG|10.40.24.94|||110000438407|197
09.10.2018 15:00:00||ÇALIK HOLDİNG|10.40.24.94|||110000438407|200
09.10.2018 15:00:00||ÇALIK HOLDİNG|10.40.25.95|||110000438407|20
09.10.2018 15:00:00||ÇALIK HOLDİNG|10.40.25.95|||110000438407|367
09.10.2018 15:00:00||ÇALIK HOLDİNG|10.40.25.95|||110000438407|353
09.10.2018 15:00:00||ÇALIK HOLDİNG|10.40.25.95|||110000438407|40
09.10.2018 15:00:00||ÇALIK HOLDİNG|10.40.24.95|||110000438407|102
09.10.2018 15:00:00||ÇALIK HOLDİNG|10.40.24.95|||110000438407|97
09.10.2018 15:00:00||ÇALIK HOLDİNG|10.40.24.95|||110000438407|408
09.10.2018 15:00:00||ÇALIK HOLDİNG|10.40.24.95|||110000438407|403
09.10.2018 15:00:00||ÇALIK HOLDİNG|10.40.25.96|||110000438407|90
09.10.2018 15:00:00||ÇALIK HOLDİNG|10.40.25.96|||110000438407|97
09.10.2018 15:00:00||ÇALIK HOLDİNG|10.40.25.96|||110000438407|100
09.10.2018 15:00:00||ÇALIK HOLDİNG|10.40.25.96|||110000438407|257
09.10.2018 15:00:00||ÇALIK HOLDİNG|10.40.25.96|||110000438407|262
09.10.2018 15:00:00||ÇALIK HOLDİNG|10.40.25.96|||110000438407|100
09.10.2018 15:00:00||ÇALIK HOLDİNG|10.40.25.96|||110000438407|90
09.10.2018 15:00:00||ÇALIK HOLDİNG|10.40.25.96|||110000438407|92
09.10.2018 15:00:00||ÇALIK HOLDİNG|10.40.25.97|||110000438407|90
09.10.2018 15:00:00||ÇALIK HOLDİNG|10.40.25.97|||110000438407|80
09.10.2018 15:00:00||ÇALIK HOLDİNG|10.40.25.97|||110000438407|297
09.10.2018 15:00:00||ÇALIK HOLDİNG|10.40.25.98|||110000438407|50
09.10.2018 15:00:00||ÇALIK HOLDİNG|10.40.25.98|||110000438407|163
09.10.2018 15:00:00||ÇALIK HOLDİNG|10.40.25.98|||110000438407|160
09.10.2018 15:00:00||ÇALIK HOLDİNG|10.40.25.98|||110000438407|165
09.10.2018 15:00:00||ÇALIK HOLDİNG|10.40.25.98|||110000438407|167
09.10.2018 15:00:00||ÇALIK HOLDİNG|10.40.25.98|||110000438407|60
09.10.2018 15:00:00||ÇALIK HOLDİNG|10.40.25.98|||110000438407|210
09.10.2018 15:00:00||ÇALIK HOLDİNG|10.40.25.98|||110000438407|180
09.10.2018 15:00:00||ÇALIK HOLDİNG|10.40.25.98|||110000438407|177
09.10.2018 15:00:00||ÇALIK HOLDİNG|10.40.25.98|||110000438407|213
09.10.2018 15:00:00||ÇALIK HOLDİNG|10.40.25.98|||110000438407|70
09.10.2018 15:00:00||ÇALIK HOLDİNG|10.40.25.98|||110000438407|300
09.10.2018 15:00:00||ÇALIK HOLDİNG|10.40.24.98|||110000438407|90
09.10.2018 15:00:00||ÇALIK HOLDİNG|10.40.24.98|||110000438407|160
09.10.2018 15:00:00||ÇALIK HOLDİNG|10.40.24.98|||110000438407|202
09.10.2018 15:00:00||ÇALIK HOLDİNG|10.40.24.98|||110000438407|202
09.10.2018 15:00:00||ÇALIK HOLDİNG|10.40.24.98|||110000438407|160
09.10.2018 15:00:00||ÇALIK HOLDİNG|10.40.24.98|||110000438407|30
09.10.2018 15:00:00||ÇALIK HOLDİNG|10.40.24.98|||110000438407|163
09.10.2018 15:00:00||ÇALIK HOLDİNG|10.40.24.98|||110000438407|180
09.10.2018 15:00:00||ÇALIK HOLDİNG|10.40.24.98|||110000438407|170
09.10.2018 15:00:00||ÇALIK HOLDİNG|10.40.24.98|||110000438407|173
09.10.2018 15:00:00||ÇALIK HOLDİNG|10.40.24.98|||110000438407|20
09.10.2018 15:00:00||ÇALIK HOLDİNG|10.40.24.98|||110000438407|270
09.10.2018 15:00:00||ÇALIK HOLDİNG|10.40.25.100|||110000438407|38
09.10.2018 15:00:00||ÇALIK HOLDİNG|10.40.25.100|||110000438407|40
09.10.2018 15:00:00||ÇALIK HOLDİNG|10.40.24.101|||110000438407|58
09.10.2018 15:00:00||ÇALIK HOLDİNG|10.40.24.101|||110000438407|110
09.10.2018 15:00:00||ÇALIK HOLDİNG|10.40.24.101|||110000438407|20
09.10.2018 15:00:00||ÇALIK HOLDİNG|10.40.24.101|||110000438407|20
09.10.2018 15:00:00||ÇALIK HOLDİNG|10.40.24.101|||110000438407|45
09.10.2018 15:00:00||ÇALIK HOLDİNG|10.40.24.101|||110000438407|92
09.10.2018 15:00:00||ÇALIK HOLDİNG|10.40.24.101|||110000438407|30
09.10.2018 15:00:00||ÇALIK HOLDİNG|10.40.24.101|||110000438407|10
09.10.2018 15:00:00||ÇALIK HOLDİNG|10.40.24.101|||110000438407|20
09.10.2018 15:00:00||ÇALIK HOLDİNG|10.40.24.101|||110000438407|50
09.10.2018 15:00:00||ÇALIK HOLDİNG|10.40.24.101|||110000438407|30
09.10.2018 15:00:00||ÇALIK HOLDİNG|10.40.24.101|||110000438407|80
09.10.2018 15:00:00||ÇALIK HOLDİNG|10.40.24.101|||110000438407|80
09.10.2018 15:00:00||ÇALIK HOLDİNG|10.40.24.101|||110000438407|100
09.10.2018 15:00:00||ÇALIK HOLDİNG|10.40.25.102|||110000438407|100
09.10.2018 15:00:00||ÇALIK HOLDİNG|10.40.25.102|||110000438407|100
09.10.2018 15:00:00||ÇALIK HOLDİNG|10.40.25.102|||110000438407|150
09.10.2018 15:00:00||ÇALIK HOLDİNG|10.40.24.102|||110000438407|100
09.10.2018 15:00:00||ÇALIK HOLDİNG|10.40.24.102|||110000438407|100
09.10.2018 15:00:00||ÇALIK HOLDİNG|10.40.24.102|||110000438407|140
09.10.2018 15:00:00||ÇALIK HOLDİNG|10.40.25.103|||110000438407|90
09.10.2018 15:00:00||ÇALIK HOLDİNG|10.40.25.103|||110000438407|80
09.10.2018 15:00:00||ÇALIK HOLDİNG|10.40.25.115|||110000438407|87
09.10.2018 15:00:00||ÇALIK HOLDİNG|10.40.24.103|||110000438407|100
09.10.2018 15:00:00||ÇALIK HOLDİNG|10.40.24.103|||110000438407|80
09.10.2018 15:00:00||ÇALIK HOLDİNG|10.40.24.103|||110000438407|80
09.10.2018 15:00:00||ÇALIK HOLDİNG|10.40.24.103|||110000438407|20
09.10.2018 15:00:00||ÇALIK HOLDİNG|10.40.24.103|||110000438407|20
09.10.2018 15:00:00||ÇALIK HOLDİNG|10.40.25.113|||110000438407|228
09.10.2018 15:00:00||ÇALIK HOLDİNG|10.40.25.113|||110000438407|240
09.10.2018 15:00:00||ÇALIK HOLDİNG|10.40.25.113|||110000438407|187
09.10.2018 15:00:00||ÇALIK HOLDİNG|10.40.25.113|||110000438407|193
09.10.2018 15:00:00||ÇALIK HOLDİNG|10.40.24.113|||110000438407|233
09.10.2018 15:00:00||ÇALIK HOLDİNG|10.40.24.113|||110000438407|225
09.10.2018 15:00:00||ÇALIK HOLDİNG|10.40.24.113|||110000438407|188
09.10.2018 15:00:00||ÇALIK HOLDİNG|10.40.24.113|||110000438407|150
09.10.2018 15:00:00||ÇALIK HOLDİNG|10.40.25.114|||110000438407|198
09.10.2018 15:00:00||ÇALIK HOLDİNG|10.40.25.114|||110000438407|418
09.10.2018 15:00:00||ÇALIK HOLDİNG|10.40.25.114|||110000438407|40
09.10.2018 15:00:00||ÇALIK HOLDİNG|10.40.24.114|||110000438407|20
09.10.2018 15:00:00||ÇALIK HOLDİNG|10.40.24.114|||110000438407|40
09.10.2018 15:00:00||ÇALIK HOLDİNG|10.40.24.114|||110000438407|167
09.10.2018 15:00:00||ÇALIK HOLDİNG|10.40.24.114|||110000438407|375
09.10.2018 15:00:00||ÇALIK HOLDİNG|10.40.24.115|||110000438407|178
09.10.2018 15:00:00||ÇALIK HOLDİNG|10.40.24.115|||110000438407|85
09.10.2018 15:00:00||ÇALIK HOLDİNG|10.40.24.115|||110000438407|92
09.10.2018 15:00:00||ÇALIK HOLDİNG|10.40.24.115|||110000438407|73
09.10.2018 15:00:00||ÇALIK HOLDİNG|10.40.24.115|||110000438407|85
09.10.2018 15:00:00||ÇALIK HOLDİNG|10.40.24.115|||110000438407|75
09.10.2018 15:00:00||ÇALIK HOLDİNG|10.40.25.116|||110000438407|97
09.10.2018 15:00:00||ÇALIK HOLDİNG|10.40.25.116|||110000438407|103
09.10.2018 15:00:00||ÇALIK HOLDİNG|10.40.25.116|||110000438407|288
09.10.2018 15:00:00||ÇALIK HOLDİNG|10.40.24.116|||110000438407|283
09.10.2018 15:00:00||ÇALIK HOLDİNG|10.40.24.116|||110000438407|102
09.10.2018 15:00:00||ÇALIK HOLDİNG|10.40.24.116|||110000438407|98
09.10.2018 15:00:00||ÇALIK HOLDİNG|10.40.25.117|||110000438407|255
09.10.2018 15:00:00||ÇALIK HOLDİNG|10.40.25.117|||110000438407|30
09.10.2018 15:00:00||ÇALIK HOLDİNG|10.40.25.117|||110000438407|27
09.10.2018 15:00:00||ÇALIK HOLDİNG|10.40.25.119|||110000438407|30
09.10.2018 15:00:00||ÇALIK HOLDİNG|10.40.25.119|||110000438407|30
09.10.2018 15:00:00||ÇALIK HOLDİNG|10.40.24.119|||110000438407|150
09.10.2018 15:00:00||ÇALIK HOLDİNG|10.40.24.119|||110000438407|30
09.10.2018 15:00:00||ÇALIK HOLDİNG|10.40.24.119|||110000438407|50
09.10.2018 15:00:00||ÇALIK HOLDİNG|10.40.25.120|||110000438407|107
09.10.2018 15:00:00||ÇALIK HOLDİNG|10.40.25.120|||110000438407|50
09.10.2018 15:00:00||ÇALIK HOLDİNG|10.40.25.120|||110000438407|20
09.10.2018 15:00:00||ÇALIK HOLDİNG|10.40.25.120|||110000438407|30
09.10.2018 15:00:00||ÇALIK HOLDİNG|10.40.25.120|||110000438407|88
09.10.2018 15:00:00||ÇALIK HOLDİNG|10.40.25.120|||110000438407|90
09.10.2018 15:00:00||ÇALIK HOLDİNG|10.40.24.120|||110000438407|20
09.10.2018 15:00:00||ÇALIK HOLDİNG|10.40.24.120|||110000438407|30
09.10.2018 15:00:00||ÇALIK HOLDİNG|10.40.24.120|||110000438407|110
09.10.2018 15:00:00||ÇALIK HOLDİNG|10.40.24.120|||110000438407|10
09.10.2018 15:00:00||ÇALIK HOLDİNG|10.40.24.120|||110000438407|20
09.10.2018 15:00:00||ÇALIK HOLDİNG|10.40.24.120|||110000438407|100
09.10.2018 15:00:00||ÇALIK HOLDİNG|10.40.24.120|||110000438407|40
09.10.2018 15:00:00||ÇALIK HOLDİNG|10.40.24.120|||110000438407|80
09.10.2018 15:00:00||ÇALIK HOLDİNG|10.40.24.120|||110000438407|80
09.10.2018 15:00:00||ÇALIK HOLDİNG|10.40.24.120|||110000438407|70
09.10.2018 15:00:00||ÇALIK HOLDİNG|10.40.25.121|||110000438407|90
09.10.2018 15:00:00||ÇALIK HOLDİNG|10.40.25.121|||110000438407|100
09.10.2018 15:00:00||ÇALIK HOLDİNG|10.40.25.121|||110000438407|140
09.10.2018 15:00:00||ÇALIK HOLDİNG|10.40.24.121|||110000438407|100
09.10.2018 15:00:00||ÇALIK HOLDİNG|10.40.24.121|||110000438407|100
09.10.2018 15:00:00||ÇALIK HOLDİNG|10.40.24.121|||110000438407|150
09.10.2018 15:00:00||ÇALIK HOLDİNG|10.40.25.122|||110000438407|90
09.10.2018 15:00:00||ÇALIK HOLDİNG|10.40.25.122|||110000438407|80
09.10.2018 15:00:00||ÇALIK HOLDİNG|10.40.25.122|||110000438407|80
09.10.2018 15:00:00||ÇALIK HOLDİNG|10.40.24.122|||110000438407|90
09.10.2018 15:00:00||ÇALIK HOLDİNG|10.40.24.122|||110000438407|80
09.10.2018 15:00:00||ÇALIK HOLDİNG|10.40.24.122|||110000438407|90
09.10.2018 15:00:00||ÇALIK HOLDİNG|10.40.24.122|||110000438407|30
09.10.2018 15:00:00||ÇALIK HOLDİNG|10.40.24.122|||110000438407|10
09.10.2018 15:00:00||ÇALIK HOLDİNG|10.40.24.117|||110000438407|212
09.10.2018 15:00:00||ÇALIK HOLDİNG|10.40.24.117|||110000438407|30
09.10.2018 15:00:00||ÇALIK HOLDİNG|10.40.24.117|||110000438407|30
09.10.2018 15:00:00||ÇALIK HOLDİNG|10.40.24.97|||110000438407|97
09.10.2018 15:00:00||ÇALIK HOLDİNG|10.40.24.97|||110000438407|90
09.10.2018 15:00:00||ÇALIK HOLDİNG|10.40.24.97|||110000438407|80
09.10.2018 15:00:00||ÇALIK HOLDİNG|10.40.24.97|||110000438407|90
09.10.2018 15:00:00||ÇALIK HOLDİNG|10.40.24.97|||110000438407|310
09.10.2018 15:00:00||ÇALIK HOLDİNG|10.40.24.100|||110000438407|30
09.10.2018 15:00:00||ÇALIK HOLDİNG|10.40.24.100|||110000438407|40
09.10.2018 15:00:00||FIBABANKA|10.40.27.54|||101571767266|309
09.10.2018 15:00:00||FIBABANKA|10.40.26.54|||101571767266|317
09.10.2018 15:00:00||FIBABANKA|10.40.27.55|||101571767266|106
09.10.2018 15:00:00||FIBABANKA|10.40.26.55|||101571767266|105
09.10.2018 15:00:00||FIBABANKA|10.40.24.55|||101571767266|110
09.10.2018 15:00:00||FIBABANKA|10.40.25.56|||101571767266|198
09.10.2018 15:00:00||FIBABANKA|10.40.25.54|||101571767266|261
09.10.2018 15:00:00||FIBABANKA|10.40.24.54|||101571767266|398
09.10.2018 15:00:00||FIBABANKA|10.40.25.55|||101571767266|111
09.10.2018 15:00:00||FIBABANKA|10.40.24.56|||101571767266|194
09.10.2018 15:00:00||FIBABANKA|10.40.26.53|||101571767266|47
09.10.2018 15:00:00||FIBABANKA|10.40.26.53|||101571767266|170
09.10.2018 15:00:00||FIBABANKA|10.40.25.76|||101571767266|10
09.10.2018 15:00:00||FIBABANKA|10.40.27.53|||101571767266|167
09.10.2018 15:00:00||FIBABANKA|10.40.27.53|||101571767266|173
09.10.2018 15:00:00||FIBABANKA|10.40.26.53|||101571767266|162
09.10.2018 15:00:00||FIBABANKA|10.40.27.57|||101571767266|83
09.10.2018 15:00:00||FIBABANKA|10.40.27.57|||101571767266|80
09.10.2018 15:00:00||FIBABANKA|10.40.27.57|||101571767266|80
09.10.2018 15:00:00||FIBABANKA|10.40.25.57|||101571767266|90
09.10.2018 15:00:00||FIBABANKA|10.40.25.57|||101571767266|90
09.10.2018 15:00:00||FIBABANKA|10.40.25.57|||101571767266|90
09.10.2018 15:00:00||FIBABANKA|10.40.26.51|||101571767266|20
09.10.2018 15:00:00||FIBABANKA|10.40.27.52|||101571767266|50
09.10.2018 15:00:00||FIBABANKA|10.40.27.52|||101571767266|60
09.10.2018 15:00:00||FIBABANKA|10.40.27.52|||101571767266|70
09.10.2018 15:00:00||FIBABANKA|10.40.27.74|||101571767266|180
09.10.2018 15:00:00||FIBABANKA|10.40.25.53|||101571767266|35
09.10.2018 15:00:00||FIBABANKA|10.40.25.53|||101571767266|52
09.10.2018 15:00:00||FIBABANKA|10.40.27.53|||101571767266|58
09.10.2018 15:00:00||FIBABANKA|10.40.26.53|||101571767266|62
09.10.2018 15:00:00||FIBABANKA|10.40.25.51|||101571767266|20
09.10.2018 15:00:00||FIBABANKA|10.40.25.51|||101571767266|110
09.10.2018 15:00:00||FIBABANKA|10.40.24.51|||101571767266|20
09.10.2018 15:00:00||FIBABANKA|10.40.24.51|||101571767266|70
09.10.2018 15:00:00||FIBABANKA|10.40.24.51|||101571767266|110
09.10.2018 15:00:00||FIBABANKA|10.40.24.51|||101571767266|148
09.10.2018 15:00:00||FIBABANKA|10.40.24.51|||101571767266|30
09.10.2018 15:00:00||FIBABANKA|10.40.24.57|||101571767266|90
09.10.2018 15:00:00||FIBABANKA|10.40.24.57|||101571767266|80
09.10.2018 15:00:00||FIBABANKA|10.40.24.57|||101571767266|80
09.10.2018 15:00:00||FIBABANKA|10.40.24.52|||101571767266|10
09.10.2018 15:00:00||FIBABANKA|10.40.26.73|||101571767266|40
09.10.2018 15:00:00||FIBABANKA|10.40.27.53|||101571767266|68
09.10.2018 15:00:00||FIBABANKA|10.40.26.51|||101571767266|70
09.10.2018 15:00:00||FIBABANKA|10.40.26.52|||101571767266|30
09.10.2018 15:00:00||FIBABANKA|10.40.26.52|||101571767266|90
09.10.2018 15:00:00||FIBABANKA|10.40.26.52|||101571767266|30
09.10.2018 15:00:00||FIBABANKA|10.40.25.51|||101571767266|130
09.10.2018 15:00:00||FIBABANKA|10.40.25.51|||101571767266|40
09.10.2018 15:00:00||FIBABANKA|10.40.25.51|||101571767266|40
09.10.2018 15:00:00||FIBABANKA|10.40.25.51|||101571767266|70
09.10.2018 15:00:00||FIBABANKA|10.40.24.51|||101571767266|30
09.10.2018 15:00:00||FIBABANKA|10.40.25.59|||101571767266|70
09.10.2018 15:00:00||FIBABANKA|10.40.25.59|||101571767266|92
09.10.2018 15:00:00||FIBABANKA|10.40.25.59|||101571767266|92
09.10.2018 15:00:00||FIBABANKA|10.40.25.59|||101571767266|40
09.10.2018 15:00:00||FIBABANKA|10.40.25.59|||101571767266|120
09.10.2018 15:00:00||FIBABANKA|10.40.25.59|||101571767266|62
09.10.2018 15:00:00||FIBABANKA|10.40.25.59|||101571767266|52
09.10.2018 15:00:00||FIBABANKA|10.40.25.59|||101571767266|163
09.10.2018 15:00:00||FIBABANKA|10.40.25.59|||101571767266|62
09.10.2018 15:00:00||FIBABANKA|10.40.24.59|||101571767266|70
09.10.2018 15:00:00||FIBABANKA|10.40.24.59|||101571767266|122
09.10.2018 15:00:00||FIBABANKA|10.40.24.59|||101571767266|73
09.10.2018 15:00:00||FIBABANKA|10.40.24.59|||101571767266|50
09.10.2018 15:00:00||FIBABANKA|10.40.24.59|||101571767266|130
09.10.2018 15:00:00||FIBABANKA|10.40.24.59|||101571767266|70
09.10.2018 15:00:00||FIBABANKA|10.40.24.59|||101571767266|60
09.10.2018 15:00:00||FIBABANKA|10.40.24.59|||101571767266|157
09.10.2018 15:00:00||FIBABANKA|10.40.24.59|||101571767266|67
09.10.2018 15:00:00||FIBABANKA|10.40.25.60|||101571767266|110
09.10.2018 15:00:00||FIBABANKA|10.40.25.60|||101571767266|35
09.10.2018 15:00:00||FIBABANKA|10.40.25.60|||101571767266|108
09.10.2018 15:00:00||FIBABANKA|10.40.25.60|||101571767266|40
09.10.2018 15:00:00||FIBABANKA|10.40.24.60|||101571767266|117
09.10.2018 15:00:00||FIBABANKA|10.40.24.60|||101571767266|58
09.10.2018 15:00:00||FIBABANKA|10.40.24.60|||101571767266|37
09.10.2018 15:00:00||FIBABANKA|10.40.24.60|||101571767266|100
09.10.2018 15:00:00||FIBABANKA|10.40.24.60|||101571767266|58
09.10.2018 15:00:00||FIBABANKA|10.40.25.72|||101571767266|70
09.10.2018 15:00:00||FIBABANKA|10.40.25.72|||101571767266|40
09.10.2018 15:00:00||FIBABANKA|10.40.25.72|||101571767266|30
09.10.2018 15:00:00||FIBABANKA|10.40.24.72|||101571767266|140
09.10.2018 15:00:00||FIBABANKA|10.40.24.72|||101571767266|78
09.10.2018 15:00:00||FIBABANKA|10.40.24.72|||101571767266|30
09.10.2018 15:00:00||FIBABANKA|10.40.24.72|||101571767266|40
09.10.2018 15:00:00||FIBABANKA|10.40.25.74|||101571767266|32
09.10.2018 15:00:00||FIBABANKA|10.40.25.75|||101571767266|2
09.10.2018 15:00:00||FIBABANKA|10.40.25.75|||101571767266|135
09.10.2018 15:00:00||FIBABANKA|10.40.25.75|||101571767266|180
09.10.2018 15:00:00||FIBABANKA|10.40.25.75|||101571767266|182
09.10.2018 15:00:00||FIBABANKA|10.40.25.75|||101571767266|210
09.10.2018 15:00:00||FIBABANKA|10.40.24.75|||101571767266|10
09.10.2018 15:00:00||FIBABANKA|10.40.24.75|||101571767266|162
09.10.2018 15:00:00||FIBABANKA|10.40.24.75|||101571767266|160
09.10.2018 15:00:00||FIBABANKA|10.40.24.76|||101571767266|35
09.10.2018 15:00:00||FIBABANKA|10.40.24.76|||101571767266|70
09.10.2018 15:00:00||FIBABANKA|10.40.24.76|||101571767266|10
09.10.2018 15:00:00||FIBABANKA|10.40.24.53|||101571767266|30
09.10.2018 15:00:00||FIBABANKA|10.40.24.53|||101571767266|60
09.10.2018 15:00:00||FIBABANKA|10.40.26.57|||101571767266|90
09.10.2018 15:00:00||FIBABANKA|10.40.26.57|||101571767266|85
09.10.2018 15:00:00||FIBABANKA|10.40.26.57|||101571767266|80
09.10.2018 15:00:00||FIBABANKA|10.40.27.72|||101571767266|40
09.10.2018 15:00:00||FIBABANKA|10.40.27.72|||101571767266|50
09.10.2018 15:00:00||FIBABANKA|10.40.27.72|||101571767266|32
09.10.2018 15:00:00||FIBABANKA|10.40.27.72|||101571767266|140
09.10.2018 15:00:00||FIBABANKA|10.40.27.72|||101571767266|60
09.10.2018 15:00:00||FIBABANKA|10.40.26.72|||101571767266|30
09.10.2018 15:00:00||FIBABANKA|10.40.26.72|||101571767266|140
09.10.2018 15:00:00||FIBABANKA|10.40.26.72|||101571767266|70
09.10.2018 15:00:00||FIBABANKA|10.40.26.72|||101571767266|30
09.10.2018 15:00:00||FIBABANKA|10.40.27.73|||101571767266|30
09.10.2018 15:00:00||FIBABANKA|10.40.27.73|||101571767266|100
09.10.2018 15:00:00||FIBABANKA|10.40.27.73|||101571767266|40
09.10.2018 15:00:00||FIBABANKA|10.40.27.73|||101571767266|40
09.10.2018 15:00:00||FIBABANKA|10.40.27.73|||101571767266|200
09.10.2018 15:00:00||FIBABANKA|10.40.26.73|||101571767266|40
09.10.2018 15:00:00||FIBABANKA|10.40.26.73|||101571767266|70
09.10.2018 15:00:00||FIBABANKA|10.40.26.73|||101571767266|30
09.10.2018 15:00:00||FIBABANKA|10.40.27.74|||101571767266|82
09.10.2018 15:00:00||FIBABANKA|10.40.27.74|||101571767266|162
09.10.2018 15:00:00||FIBABANKA|10.40.27.74|||101571767266|177
09.10.2018 15:00:00||FIBABANKA|10.40.26.74|||101571767266|83
09.10.2018 15:00:00||FIBABANKA|10.40.26.74|||101571767266|188
09.10.2018 15:00:00||FIBABANKA|10.40.26.74|||101571767266|192
09.10.2018 15:00:00||FIBABANKA|10.40.26.74|||101571767266|183
09.10.2018 15:00:00||FIBABANKA|10.40.27.75|||101571767266|10
09.10.2018 15:00:00||FIBABANKA|10.40.27.75|||101571767266|10
09.10.2018 15:00:00||FIBABANKA|10.40.26.79|||101571767266|10
09.10.2018 15:00:00||FIBABANKA|10.40.27.79|||101571767266|10
09.10.2018 15:00:00||FIBABANKA|10.40.26.79|||101571767266|10
09.10.2018 15:00:00||FIBABANKA|10.40.27.77|||101571767266|170
09.10.2018 15:00:00||FIBABANKA|10.40.26.77|||101571767266|190
09.10.2018 15:00:00||FIBABANKA|10.40.27.77|||101571767266|172
09.10.2018 15:00:00||FIBABANKA|10.40.25.74|||101571767266|220
09.10.2018 15:00:00||FIBABANKA|10.40.24.75|||101571767266|185
09.10.2018 15:00:00||FIBABANKA|10.40.24.53|||101571767266|207
09.10.2018 15:00:00||FIBABANKA|10.40.24.53|||101571767266|180
09.10.2018 15:00:00||FIBABANKA|10.40.25.52|||101571767266|10
09.10.2018 15:00:00||FIBABANKA|10.40.25.52|||101571767266|63
09.10.2018 15:00:00||FIBABANKA|10.40.25.53|||101571767266|193
09.10.2018 15:00:00||FIBABANKA|10.40.25.53|||101571767266|153
09.10.2018 15:00:00||FIBABANKA|10.40.27.51|||101571767266|30
09.10.2018 15:00:00||FIBABANKA|10.40.27.51|||101571767266|20
09.10.2018 15:00:00||FIBABANKA|10.40.27.51|||101571767266|100
09.10.2018 15:00:00||FIBABANKA|10.40.27.51|||101571767266|130
09.10.2018 15:00:00||FIBABANKA|10.40.27.51|||101571767266|70
09.10.2018 15:00:00||FIBABANKA|10.40.27.51|||101571767266|40
09.10.2018 15:00:00||FIBABANKA|10.40.27.51|||101571767266|40
09.10.2018 15:00:00||FIBABANKA|10.40.26.51|||101571767266|10
09.10.2018 15:00:00||FIBABANKA|10.40.26.51|||101571767266|110
09.10.2018 15:00:00||FIBABANKA|10.40.26.51|||101571767266|137
09.10.2018 15:00:00||FIBABANKA|10.40.26.51|||101571767266|30
09.10.2018 15:00:00||FIBABANKA|10.40.26.51|||101571767266|30
09.10.2018 15:00:00||FIBABANKA|10.40.24.74|||101571767266|30
09.10.2018 15:00:00||FIBABANKA|10.40.25.76|||101571767266|60
09.10.2018 15:00:00||FIBABANKA|10.40.25.76|||101571767266|40
09.10.2018 15:00:00||FIBABANKA|10.40.25.76|||101571767266|10
09.10.2018 15:00:00||HAVAŞ|10.40.24.46|||110000479675|10
09.10.2018 15:00:00||HAVAŞ|10.40.24.48|||110000479675|745
09.10.2018 15:00:00||HAVAŞ|10.40.24.48|||110000479675|757
09.10.2018 15:00:00||HAVAŞ|10.40.25.48|||110000479675|747
09.10.2018 15:00:00||HAVAŞ|10.40.24.45|||110000479675|98
09.10.2018 15:00:00||HAVAŞ|10.40.25.45|||110000479675|65
09.10.2018 15:00:00||HAVAŞ|10.40.25.47|||110000479675|70
09.10.2018 15:00:00||HAVAŞ|10.40.24.46|||110000479675|80
09.10.2018 15:00:00||HAVAŞ|10.40.24.47|||110000479675|30
09.10.2018 15:00:00||HAVAŞ|10.40.24.47|||110000479675|90
09.10.2018 15:00:00||HAVAŞ|10.40.24.47|||110000479675|90
09.10.2018 15:00:00||HAVAŞ|10.40.25.46|||110000479675|10
09.10.2018 15:00:00||HAVAŞ|10.40.25.46|||110000479675|60
09.10.2018 15:00:00||HAVAŞ|10.40.24.48|||110000479675|758
09.10.2018 15:00:00||HAVAŞ|10.40.24.46|||110000479675|60
09.10.2018 15:00:00||HAVAŞ|10.40.24.46|||110000479675|70
09.10.2018 15:00:00||HAVAŞ|10.40.24.47|||110000479675|110
09.10.2018 15:00:00||HAVAŞ|10.40.25.48|||110000479675|752
09.10.2018 15:00:00||HAVAŞ|10.40.25.48|||110000479675|782
09.10.2018 15:00:00||HAVAŞ|10.40.25.45|||110000479675|97
09.10.2018 15:00:00||HAVAŞ|10.40.24.45|||110000479675|50
09.10.2018 15:00:00||HAVAŞ|10.40.24.45|||110000479675|168
09.10.2018 15:00:00||HAVAŞ|10.40.24.45|||110000479675|90
09.10.2018 15:00:00||HAVAŞ|10.40.25.47|||110000479675|70
09.10.2018 15:00:00||HAVAŞ|10.40.25.47|||110000479675|222
09.10.2018 15:00:00||HAVAŞ|10.40.25.47|||110000479675|57
09.10.2018 15:00:00||HAVAŞ|10.40.25.47|||110000479675|87
09.10.2018 15:00:00||HAVAŞ|10.40.25.47|||110000479675|90
09.10.2018 15:00:00||HAVAŞ|10.40.25.47|||110000479675|90
09.10.2018 15:00:00||HAVAŞ|10.40.25.47|||110000479675|10
09.10.2018 15:00:00||HAVAŞ|10.40.25.47|||110000479675|180
09.10.2018 15:00:00||HAVAŞ|10.40.25.47|||110000479675|90
09.10.2018 15:00:00||HAVAŞ|10.40.25.47|||110000479675|90
09.10.2018 15:00:00||HAVAŞ|10.40.25.47|||110000479675|92
09.10.2018 15:00:00||HAVAŞ|10.40.25.45|||110000479675|103
09.10.2018 15:00:00||HAVAŞ|10.40.25.45|||110000479675|82
09.10.2018 15:00:00||HAVAŞ|10.40.25.46|||110000479675|10
09.10.2018 15:00:00||HAVAŞ|10.40.25.46|||110000479675|10
09.10.2018 15:00:00||HAVAŞ|10.40.25.46|||110000479675|20
09.10.2018 15:00:00||HAVAŞ|10.40.25.46|||110000479675|20
09.10.2018 15:00:00||HAVAŞ|10.40.25.46|||110000479675|50
09.10.2018 15:00:00||HAVAŞ|10.40.25.46|||110000479675|100
09.10.2018 15:00:00||HAVAŞ|10.40.25.46|||110000479675|65
09.10.2018 15:00:00||HAVAŞ|10.40.25.46|||110000479675|78
09.10.2018 15:00:00||HAVAŞ|10.40.25.46|||110000479675|70
09.10.2018 15:00:00||HAVAŞ|10.40.24.46|||110000479675|20
09.10.2018 15:00:00||HAVAŞ|10.40.24.46|||110000479675|20
09.10.2018 15:00:00||HAVAŞ|10.40.24.46|||110000479675|10
09.10.2018 15:00:00||HAVAŞ|10.40.24.46|||110000479675|10
09.10.2018 15:00:00||HAVAŞ|10.40.24.46|||110000479675|10
09.10.2018 15:00:00||HAVAŞ|10.40.24.46|||110000479675|10
09.10.2018 15:00:00||HAVAŞ|10.40.24.46|||110000479675|60
09.10.2018 15:00:00||HAVAŞ|10.40.24.46|||110000479675|110
09.10.2018 15:00:00||HAVAŞ|10.40.24.47|||110000479675|30
09.10.2018 15:00:00||HAVAŞ|10.40.24.47|||110000479675|213
09.10.2018 15:00:00||HAVAŞ|10.40.24.47|||110000479675|60
09.10.2018 15:00:00||HAVAŞ|10.40.24.47|||110000479675|58
09.10.2018 15:00:00||HAVAŞ|10.40.24.47|||110000479675|157
09.10.2018 15:00:00||HAVAŞ|10.40.24.47|||110000479675|100
09.10.2018 15:00:00||HAVAŞ|10.40.24.47|||110000479675|100
09.10.2018 15:00:00||MARS CINEMA|10.40.24.203|||110000472614|100
09.10.2018 15:00:00||MARS CINEMA|10.40.24.204|||110000472614|40
09.10.2018 15:00:00||MARS CINEMA|10.40.24.203|||110000472614|82
09.10.2018 15:00:00||MARS CINEMA|10.40.24.203|||110000472614|162
09.10.2018 15:00:00||MARS CINEMA|10.40.24.203|||110000472614|80
09.10.2018 15:00:00||MARS CINEMA|10.40.24.204|||110000472614|68
09.10.2018 15:00:00||MARS CINEMA|10.40.24.203|||110000472614|100
09.10.2018 15:00:00||MARS CINEMA|10.40.24.204|||110000472614|20
09.10.2018 15:00:00||MARS CINEMA|10.40.24.204|||110000472614|93
09.10.2018 15:00:00||MARS CINEMA|10.40.25.203|||110000472614|155
09.10.2018 15:00:00||MARS CINEMA|10.40.25.203|||110000472614|82
09.10.2018 15:00:00||MARS CINEMA|10.40.25.203|||110000472614|173
09.10.2018 15:00:00||MARS CINEMA|10.40.25.203|||110000472614|93
09.10.2018 15:00:00||MARS CINEMA|10.40.25.203|||110000472614|87
09.10.2018 15:00:00||MARS CINEMA|10.40.25.203|||110000472614|112
09.10.2018 15:00:00||MARS CINEMA|10.40.25.203|||110000472614|120
09.10.2018 15:00:00||MARS CINEMA|10.40.25.203|||110000472614|147
09.10.2018 15:00:00||MARS CINEMA|10.40.25.203|||110000472614|90
09.10.2018 15:00:00||MARS CINEMA|10.40.25.203|||110000472614|92
09.10.2018 15:00:00||MARS CINEMA|10.40.25.203|||110000472614|62
09.10.2018 15:00:00||MARS CINEMA|10.40.25.203|||110000472614|185
09.10.2018 15:00:00||MARS CINEMA|10.40.25.204|||110000472614|110
09.10.2018 15:00:00||MARS CINEMA|10.40.25.204|||110000472614|70
09.10.2018 15:00:00||MARS CINEMA|10.40.25.204|||110000472614|80
09.10.2018 15:00:00||MARS CINEMA|10.40.25.204|||110000472614|100
09.10.2018 15:00:00||MARS CINEMA|10.40.25.204|||110000472614|20
09.10.2018 15:00:00||MARS CINEMA|10.40.25.204|||110000472614|20
09.10.2018 15:00:00||MARS CINEMA|10.40.25.204|||110000472614|30
09.10.2018 15:00:00||MARS CINEMA|10.40.25.204|||110000472614|40
09.10.2018 15:00:00||MARS CINEMA|10.40.25.204|||110000472614|90
09.10.2018 15:00:00||MARS CINEMA|10.40.25.204|||110000472614|120
09.10.2018 15:00:00||MARS CINEMA|10.40.25.204|||110000472614|80
09.10.2018 15:00:00||MARS CINEMA|10.40.25.204|||110000472614|80
09.10.2018 15:00:00||MARS CINEMA|10.40.25.204|||110000472614|110
09.10.2018 15:00:00||MARS CINEMA|10.40.25.204|||110000472614|100
09.10.2018 15:00:00||MARS CINEMA|10.40.24.203|||110000472614|80
09.10.2018 15:00:00||MARS CINEMA|10.40.24.203|||110000472614|93
09.10.2018 15:00:00||MARS CINEMA|10.40.24.203|||110000472614|142
09.10.2018 15:00:00||MARS CINEMA|10.40.24.203|||110000472614|153
09.10.2018 15:00:00||MARS CINEMA|10.40.24.203|||110000472614|150
09.10.2018 15:00:00||MARS CINEMA|10.40.24.203|||110000472614|100
09.10.2018 15:00:00||MARS CINEMA|10.40.24.203|||110000472614|180
09.10.2018 15:00:00||MARS CINEMA|10.40.24.204|||110000472614|110
09.10.2018 15:00:00||MARS CINEMA|10.40.24.204|||110000472614|92
09.10.2018 15:00:00||MARS CINEMA|10.40.24.204|||110000472614|93
09.10.2018 15:00:00||MARS CINEMA|10.40.24.204|||110000472614|20
09.10.2018 15:00:00||MARS CINEMA|10.40.24.204|||110000472614|13
09.10.2018 15:00:00||MARS CINEMA|10.40.24.204|||110000472614|90
09.10.2018 15:00:00||MARS CINEMA|10.40.24.204|||110000472614|122
09.10.2018 15:00:00||MARS CINEMA|10.40.24.204|||110000472614|90
09.10.2018 15:00:00||MARS CINEMA|10.40.24.204|||110000472614|110
09.10.2018 15:00:00||MARS CINEMA|10.40.24.204|||110000472614|83
09.10.2018 15:00:00||MARS CINEMA|10.40.25.206|||110000472614|40
09.10.2018 15:00:00||MARS CINEMA|10.40.25.206|||110000472614|40
09.10.2018 15:00:00||MARS CINEMA|10.40.25.206|||110000472614|40
09.10.2018 15:00:00||MARS CINEMA|10.40.25.206|||110000472614|20
09.10.2018 15:00:00||MARS CINEMA|10.40.25.206|||110000472614|20
09.10.2018 15:00:00||MARS CINEMA|10.40.25.206|||110000472614|30
09.10.2018 15:00:00||MARS CINEMA|10.40.25.206|||110000472614|62
09.10.2018 15:00:00||MARS CINEMA|10.40.25.206|||110000472614|40
09.10.2018 15:00:00||MARS CINEMA|10.40.25.206|||110000472614|80
09.10.2018 15:00:00||MARS CINEMA|10.40.25.206|||110000472614|78
09.10.2018 15:00:00||MARS CINEMA|10.40.24.206|||110000472614|40
09.10.2018 15:00:00||MARS CINEMA|10.40.24.206|||110000472614|40
09.10.2018 15:00:00||MARS CINEMA|10.40.24.206|||110000472614|43
09.10.2018 15:00:00||MARS CINEMA|10.40.24.206|||110000472614|30
09.10.2018 15:00:00||MARS CINEMA|10.40.24.206|||110000472614|30
09.10.2018 15:00:00||MARS CINEMA|10.40.24.206|||110000472614|30
09.10.2018 15:00:00||MARS CINEMA|10.40.24.206|||110000472614|202
09.10.2018 15:00:00||MARS CINEMA|10.40.24.206|||110000472614|127
09.10.2018 15:00:00||MARS CINEMA|10.40.24.206|||110000472614|20
09.10.2018 15:00:00||MARS CINEMA|10.40.24.206|||110000472614|90
09.10.2018 15:00:00||MARS CINEMA|10.40.24.206|||110000472614|82
09.10.2018 15:00:00||PEGASUS|10.40.26.85|||110000423831|121
09.10.2018 15:00:00||PEGASUS|10.40.27.66|||110000423831|99
09.10.2018 15:00:00||PEGASUS|10.40.26.66|||110000423831|107
09.10.2018 15:00:00||PEGASUS|10.40.26.84|||110000423831|219
09.10.2018 15:00:00||PEGASUS|10.40.27.85|||110000423831|117
09.10.2018 15:00:00||PEGASUS|10.40.27.67|||110000423831|338
09.10.2018 15:00:00||PEGASUS|10.40.27.67|||110000423831|40
09.10.2018 15:00:00||PEGASUS|10.40.26.62|||110000423831|10
09.10.2018 15:00:00||PEGASUS|10.40.26.62|||110000423831|190
09.10.2018 15:00:00||PEGASUS|10.40.26.63|||110000423831|70
09.10.2018 15:00:00||PEGASUS|10.40.26.63|||110000423831|28
09.10.2018 15:00:00||PEGASUS|10.40.26.63|||110000423831|60
09.10.2018 15:00:00||PEGASUS|10.40.26.63|||110000423831|23
09.10.2018 15:00:00||PEGASUS|10.40.26.63|||110000423831|230
09.10.2018 15:00:00||PEGASUS|10.40.26.63|||110000423831|140
09.10.2018 15:00:00||PEGASUS|10.40.26.63|||110000423831|62
09.10.2018 15:00:00||PEGASUS|10.40.26.67|||110000423831|168
09.10.2018 15:00:00||PEGASUS|10.40.27.68|||110000423831|90
09.10.2018 15:00:00||PEGASUS|10.40.27.68|||110000423831|85
09.10.2018 15:00:00||PEGASUS|10.40.27.68|||110000423831|90
09.10.2018 15:00:00||PEGASUS|10.40.27.68|||110000423831|50
09.10.2018 15:00:00||PEGASUS|10.40.26.68|||110000423831|90
09.10.2018 15:00:00||PEGASUS|10.40.26.68|||110000423831|90
09.10.2018 15:00:00||PEGASUS|10.40.26.68|||110000423831|50
09.10.2018 15:00:00||PEGASUS|10.40.27.63|||110000423831|40
09.10.2018 15:00:00||PEGASUS|10.40.27.86|||110000423831|340
09.10.2018 15:00:00||PEGASUS|10.40.27.63|||110000423831|50
09.10.2018 15:00:00||PEGASUS|10.40.27.63|||110000423831|60
09.10.2018 15:00:00||PEGASUS|10.40.27.64|||110000423831|72
09.10.2018 15:00:00||PEGASUS|10.40.27.64|||110000423831|70
09.10.2018 15:00:00||PEGASUS|10.40.27.63|||110000423831|58
09.10.2018 15:00:00||PEGASUS|10.40.27.63|||110000423831|70
09.10.2018 15:00:00||PEGASUS|10.40.27.63|||110000423831|90
09.10.2018 15:00:00||PEGASUS|10.40.26.63|||110000423831|115
09.10.2018 15:00:00||PEGASUS|10.40.27.67|||110000423831|360
09.10.2018 15:00:00||PEGASUS|10.40.27.64|||110000423831|265
09.10.2018 15:00:00||PEGASUS|10.40.27.64|||110000423831|267
09.10.2018 15:00:00||PEGASUS|10.40.27.63|||110000423831|80
09.10.2018 15:00:00||PEGASUS|10.40.27.63|||110000423831|67
09.10.2018 15:00:00||PEGASUS|10.40.27.63|||110000423831|80
09.10.2018 15:00:00||PEGASUS|10.40.26.63|||110000423831|110
09.10.2018 15:00:00||PEGASUS|10.40.26.63|||110000423831|283
09.10.2018 15:00:00||PEGASUS|10.40.27.81|||110000423831|463
09.10.2018 15:00:00||PEGASUS|10.40.27.81|||110000423831|372
09.10.2018 15:00:00||PEGASUS|10.40.26.63|||110000423831|90
09.10.2018 15:00:00||PEGASUS|10.40.26.63|||110000423831|50
09.10.2018 15:00:00||PEGASUS|10.40.26.67|||110000423831|30
09.10.2018 15:00:00||PEGASUS|10.40.26.67|||110000423831|340
09.10.2018 15:00:00||PEGASUS|10.40.26.67|||110000423831|60
09.10.2018 15:00:00||PEGASUS|10.40.26.67|||110000423831|40
09.10.2018 15:00:00||PEGASUS|10.40.26.67|||110000423831|70
09.10.2018 15:00:00||PEGASUS|10.40.26.68|||110000423831|100
09.10.2018 15:00:00||PEGASUS|10.40.27.64|||110000423831|285
09.10.2018 15:00:00||PEGASUS|10.40.27.64|||110000423831|263
09.10.2018 15:00:00||PEGASUS|10.40.27.64|||110000423831|295
09.10.2018 15:00:00||PEGASUS|10.40.27.64|||110000423831|260
09.10.2018 15:00:00||PEGASUS|10.40.27.64|||110000423831|265
09.10.2018 15:00:00||PEGASUS|10.40.27.86|||110000423831|340
09.10.2018 15:00:00||PEGASUS|10.40.27.63|||110000423831|90
09.10.2018 15:00:00||PEGASUS|10.40.26.63|||110000423831|130
09.10.2018 15:00:00||PEGASUS|10.40.26.63|||110000423831|60
09.10.2018 15:00:00||PEGASUS|10.40.26.63|||110000423831|88
09.10.2018 15:00:00||PEGASUS|10.40.26.67|||110000423831|340
09.10.2018 15:00:00||PEGASUS|10.40.27.63|||110000423831|53
09.10.2018 15:00:00||PEGASUS|10.40.27.63|||110000423831|60
09.10.2018 15:00:00||PEGASUS|10.40.27.81|||110000423831|435
09.10.2018 15:00:00||PEGASUS|10.40.26.62|||110000423831|90
09.10.2018 15:00:00||PEGASUS|10.40.26.62|||110000423831|2
09.10.2018 15:00:00||PEGASUS|10.40.26.63|||110000423831|50
09.10.2018 15:00:00||PEGASUS|10.40.26.63|||110000423831|95
09.10.2018 15:00:00||PEGASUS|10.40.26.63|||110000423831|40
09.10.2018 15:00:00||PEGASUS|10.40.26.63|||110000423831|55
09.10.2018 15:00:00||PEGASUS|10.40.26.67|||110000423831|340
09.10.2018 15:00:00||PEGASUS|10.40.27.64|||110000423831|277
09.10.2018 15:00:00||PEGASUS|10.40.27.64|||110000423831|272
09.10.2018 15:00:00||PEGASUS|10.40.27.64|||110000423831|262
09.10.2018 15:00:00||PEGASUS|10.40.27.64|||110000423831|347
09.10.2018 15:00:00||PEGASUS|10.40.27.64|||110000423831|323
09.10.2018 15:00:00||PEGASUS|10.40.27.86|||110000423831|40
09.10.2018 15:00:00||PEGASUS|10.40.27.63|||110000423831|72
09.10.2018 15:00:00||PEGASUS|10.40.27.63|||110000423831|80
09.10.2018 15:00:00||PEGASUS|10.40.27.63|||110000423831|77
09.10.2018 15:00:00||PEGASUS|10.40.27.63|||110000423831|222
09.10.2018 15:00:00||PEGASUS|10.40.27.63|||110000423831|57
09.10.2018 15:00:00||PEGASUS|10.40.26.64|||110000423831|80
09.10.2018 15:00:00||PEGASUS|10.40.26.64|||110000423831|80
09.10.2018 15:00:00||PEGASUS|10.40.26.82|||110000423831|210
09.10.2018 15:00:00||PEGASUS|10.40.26.82|||110000423831|110
09.10.2018 15:00:00||PEGASUS|10.40.26.82|||110000423831|80
09.10.2018 15:00:00||PEGASUS|10.40.26.82|||110000423831|150
09.10.2018 15:00:00||PEGASUS|10.40.26.82|||110000423831|140
09.10.2018 15:00:00||PEGASUS|10.40.26.82|||110000423831|140
09.10.2018 15:00:00||PEGASUS|10.40.26.82|||110000423831|180
09.10.2018 15:00:00||PEGASUS|10.40.26.82|||110000423831|30
09.10.2018 15:00:00||PEGASUS|10.40.26.82|||110000423831|40
09.10.2018 15:00:00||PEGASUS|10.40.26.82|||110000423831|20
09.10.2018 15:00:00||PEGASUS|10.40.26.82|||110000423831|70
09.10.2018 15:00:00||PEGASUS|10.40.26.82|||110000423831|50
09.10.2018 15:00:00||PEGASUS|10.40.26.82|||110000423831|40
09.10.2018 15:00:00||PEGASUS|10.40.27.83|||110000423831|578
09.10.2018 15:00:00||PEGASUS|10.40.27.83|||110000423831|70
09.10.2018 15:00:00||PEGASUS|10.40.27.83|||110000423831|513
09.10.2018 15:00:00||PEGASUS|10.40.27.83|||110000423831|60
09.10.2018 15:00:00||PEGASUS|10.40.27.83|||110000423831|100
09.10.2018 15:00:00||PEGASUS|10.40.27.83|||110000423831|53
09.10.2018 15:00:00||PEGASUS|10.40.27.83|||110000423831|507
09.10.2018 15:00:00||PEGASUS|10.40.27.83|||110000423831|70
09.10.2018 15:00:00||PEGASUS|10.40.26.83|||110000423831|530
09.10.2018 15:00:00||PEGASUS|10.40.26.83|||110000423831|50
09.10.2018 15:00:00||PEGASUS|10.40.26.83|||110000423831|402
09.10.2018 15:00:00||PEGASUS|10.40.26.83|||110000423831|102
09.10.2018 15:00:00||PEGASUS|10.40.26.83|||110000423831|67
09.10.2018 15:00:00||PEGASUS|10.40.26.83|||110000423831|563
09.10.2018 15:00:00||PEGASUS|10.40.26.83|||110000423831|73
09.10.2018 15:00:00||PEGASUS|10.40.26.83|||110000423831|548
09.10.2018 15:00:00||PEGASUS|10.40.26.86|||110000423831|15
09.10.2018 15:00:00||PEGASUS|10.40.26.86|||110000423831|360
09.10.2018 15:00:00||PEGASUS|10.40.26.86|||110000423831|138
09.10.2018 15:00:00||PEGASUS|10.40.26.86|||110000423831|350
09.10.2018 15:00:00||PEGASUS|10.40.26.86|||110000423831|50
09.10.2018 15:00:00||PEGASUS|10.40.26.86|||110000423831|30
09.10.2018 15:00:00||PEGASUS|10.40.26.86|||110000423831|350
09.10.2018 15:00:00||PEGASUS|10.40.26.86|||110000423831|40
09.10.2018 15:00:00||PEGASUS|10.40.26.86|||110000423831|50
09.10.2018 15:00:00||PEGASUS|10.40.27.87|||110000423831|90
09.10.2018 15:00:00||PEGASUS|10.40.27.87|||110000423831|90
09.10.2018 15:00:00||PEGASUS|10.40.27.87|||110000423831|90
09.10.2018 15:00:00||PEGASUS|10.40.27.87|||110000423831|20
09.10.2018 15:00:00||PEGASUS|10.40.26.87|||110000423831|90
09.10.2018 15:00:00||PEGASUS|10.40.26.87|||110000423831|90
09.10.2018 15:00:00||PEGASUS|10.40.26.87|||110000423831|90
09.10.2018 15:00:00||PEGASUS|10.40.26.87|||110000423831|20
09.10.2018 15:00:00||PEGASUS|10.40.26.81|||110000423831|407
09.10.2018 15:00:00||PEGASUS|10.40.26.81|||110000423831|417
09.10.2018 15:00:00||PEGASUS|10.40.26.81|||110000423831|432
09.10.2018 15:00:00||PEGASUS|10.40.27.82|||110000423831|220
09.10.2018 15:00:00||PEGASUS|10.40.27.82|||110000423831|30
09.10.2018 15:00:00||PEGASUS|10.40.27.82|||110000423831|108
09.10.2018 15:00:00||PEGASUS|10.40.27.82|||110000423831|80
09.10.2018 15:00:00||PEGASUS|10.40.27.82|||110000423831|158
09.10.2018 15:00:00||PEGASUS|10.40.27.82|||110000423831|120
09.10.2018 15:00:00||PEGASUS|10.40.27.82|||110000423831|170
09.10.2018 15:00:00||PEGASUS|10.40.27.82|||110000423831|117
09.10.2018 15:00:00||PEGASUS|10.40.27.82|||110000423831|60
09.10.2018 15:00:00||PEGASUS|10.40.27.82|||110000423831|57
09.10.2018 15:00:00||PEGASUS|10.40.27.82|||110000423831|50
09.10.2018 15:00:00||PEGASUS|10.40.27.82|||110000423831|37
09.10.2018 15:00:00||PEGASUS|10.40.27.82|||110000423831|40
09.10.2018 15:00:00||PEGASUS|10.40.27.67|||110000423831|50
09.10.2018 15:00:00||PEGASUS|10.40.27.67|||110000423831|70
09.10.2018 15:00:00||PEGASUS|10.40.27.67|||110000423831|130
09.10.2018 15:00:00||PEGASUS|10.40.27.67|||110000423831|10
09.10.2018 15:00:00||PEGASUS|10.40.27.67|||110000423831|340
09.10.2018 15:00:00||PEGASUS|10.40.27.82|||110000423831|73
09.10.2018 15:00:00||PEGASUS|10.40.27.86|||110000423831|165
09.10.2018 15:00:00||PEGASUS|10.40.27.86|||110000423831|70
09.10.2018 15:00:00||PEGASUS|10.40.27.86|||110000423831|20
09.10.2018 15:00:00||PEGASUS|10.40.27.86|||110000423831|340
09.10.2018 15:00:00||PWC|10.40.24.66|||110000433262|87
09.10.2018 15:00:00||PWC|10.40.24.66|||110000433262|10
09.10.2018 15:00:00||PWC|10.40.24.66|||110000433262|30
09.10.2018 15:00:00||PWC|10.40.24.66|||110000433262|62
09.10.2018 15:00:00||PWC|10.40.24.66|||110000433262|450
09.10.2018 15:00:00||PWC|10.40.24.68|||110000433262|165
09.10.2018 15:00:00||PWC|10.40.24.66|||110000433262|48
09.10.2018 15:00:00||PWC|10.40.24.66|||110000433262|210
09.10.2018 15:00:00||PWC|10.40.24.66|||110000433262|210
09.10.2018 15:00:00||PWC|10.40.25.67|||110000433262|80
09.10.2018 15:00:00||PWC|10.40.25.67|||110000433262|90
09.10.2018 15:00:00||PWC|10.40.25.67|||110000433262|320
09.10.2018 15:00:00||PWC|10.40.25.67|||110000433262|250
09.10.2018 15:00:00||PWC|10.40.25.67|||110000433262|240
09.10.2018 15:00:00||PWC|10.40.25.67|||110000433262|250
09.10.2018 15:00:00||PWC|10.40.25.67|||110000433262|50
09.10.2018 15:00:00||PWC|10.40.25.67|||110000433262|30
09.10.2018 15:00:00||PWC|10.40.25.67|||110000433262|120
09.10.2018 15:00:00||PWC|10.40.24.67|||110000433262|18
09.10.2018 15:00:00||PWC|10.40.24.67|||110000433262|10
09.10.2018 15:00:00||PWC|10.40.24.67|||110000433262|387
09.10.2018 15:00:00||PWC|10.40.24.67|||110000433262|30
09.10.2018 15:00:00||PWC|10.40.24.67|||110000433262|50
09.10.2018 15:00:00||PWC|10.40.24.67|||110000433262|120
09.10.2018 15:00:00||PWC|10.40.25.68|||110000433262|130
09.10.2018 15:00:00||PWC|10.40.25.68|||110000433262|195
09.10.2018 15:00:00||PWC|10.40.25.68|||110000433262|407
09.10.2018 15:00:00||PWC|10.40.25.68|||110000433262|68
09.10.2018 15:00:00||PWC|10.40.25.68|||110000433262|80
09.10.2018 15:00:00||PWC|10.40.25.68|||110000433262|162
09.10.2018 15:00:00||PWC|10.40.24.66|||110000433262|60
09.10.2018 15:00:00||PWC|10.40.24.66|||110000433262|30
09.10.2018 15:00:00||PWC|10.40.24.66|||110000433262|40
09.10.2018 15:00:00||PWC|10.40.24.68|||110000433262|105
09.10.2018 15:00:00||PWC|10.40.24.68|||110000433262|150
09.10.2018 15:00:00||PWC|10.40.24.68|||110000433262|78
09.10.2018 15:00:00||PWC|10.40.24.68|||110000433262|65
09.10.2018 15:00:00||VSMART BİLGİ TEKNOLOJİLERİ|10.40.24.62|||110000474326|42
09.10.2018 15:00:00||VSMART BİLGİ TEKNOLOJİLERİ|10.40.24.62|||110000474326|70
09.10.2018 15:00:00||VSMART BİLGİ TEKNOLOJİLERİ|10.40.24.62|||110000474326|38
09.10.2018 15:00:00||VSMART BİLGİ TEKNOLOJİLERİ|10.40.25.62|||110000474326|67
09.10.2018 15:00:00||VSMART BİLGİ TEKNOLOJİLERİ|10.40.24.62|||110000474326|43
09.10.2018 15:00:00||VSMART BİLGİ TEKNOLOJİLERİ|10.40.24.62|||110000474326|30
09.10.2018 15:00:00||VSMART BİLGİ TEKNOLOJİLERİ|10.40.24.62|||110000474326|10
09.10.2018 15:00:00||VSMART BİLGİ TEKNOLOJİLERİ|10.40.25.62|||110000474326|38
09.10.2018 15:00:00||VSMART BİLGİ TEKNOLOJİLERİ|10.40.25.62|||110000474326|10
09.10.2018 15:00:00||VSMART BİLGİ TEKNOLOJİLERİ|10.40.25.62|||110000474326|10
09.10.2018 15:00:00||VSMART BİLGİ TEKNOLOJİLERİ|10.40.25.62|||110000474326|80
09.10.2018 15:00:00||VSMART BİLGİ TEKNOLOJİLERİ|10.40.25.62|||110000474326|85
09.10.2018 15:00:00||VSMART BİLGİ TEKNOLOJİLERİ|10.40.25.62|||110000474326|100
09.10.2018 15:00:00||VSMART BİLGİ TEKNOLOJİLERİ|10.40.24.62|||110000474326|10
