9/23/2018 2:00:00 AM||HAVAS|10.40.24.45|||110000479675|391
9/23/2018 2:00:00 AM||HAVAS|10.40.25.46|||110000479675|513
9/23/2018 2:00:00 AM||HAVAS|10.40.24.47|||110000479675|1011
9/23/2018 2:00:00 AM||PWC|10.40.24.67|||110000433262|571
9/23/2018 2:00:00 AM||PWC|10.40.25.68|||110000433262|930
9/23/2018 2:00:00 AM||PWC|10.40.24.68|||110000433262|467
9/23/2018 2:00:00 AM||PWC|10.40.25.69|||110000433262|276
9/23/2018 2:00:00 AM||PWC|10.40.24.69|||110000433262|278
9/23/2018 2:00:00 AM||CALIK HOLDING|10.40.25.94|||110000438408|696
9/23/2018 2:00:00 AM||CALIK HOLDING|10.40.24.94|||110000438408|735
9/23/2018 2:00:00 AM||CALIK HOLDING|10.40.25.97|||110000438408|627
9/23/2018 2:00:00 AM||CALIK HOLDING|10.40.25.100|||110000438408|74
9/23/2018 2:00:00 AM||CALIK HOLDING|10.40.24.100|||110000438408|71
9/23/2018 2:00:00 AM||CALIK HOLDING|10.40.25.101|||110000438408|612
9/23/2018 2:00:00 AM||CALIK HOLDING|10.40.25.102|||110000438408|322
9/23/2018 2:00:00 AM||CALIK HOLDING|10.40.24.102|||110000438408|302
9/23/2018 2:00:00 AM||CALIK HOLDING|10.40.25.103|||110000438408|256
9/23/2018 2:00:00 AM||CALIK HOLDING|10.40.24.103|||110000438408|302
9/23/2018 2:00:00 AM||CALIK HOLDING|10.40.25.104|||110000438408|1106
9/23/2018 2:00:00 AM||CALIK HOLDING|10.40.25.115|||110000438408|529
9/23/2018 2:00:00 AM||CALIK HOLDING|10.40.24.115|||110000438408|537
9/23/2018 2:00:00 AM||CALIK HOLDING|10.40.25.116|||110000438408|484
9/23/2018 2:00:00 AM||CALIK HOLDING|10.40.24.116|||110000438408|470
9/23/2018 2:00:00 AM||CALIK HOLDING|10.40.25.117|||110000438408|303
9/23/2018 2:00:00 AM||CALIK HOLDING|10.40.24.117|||110000438408|282
9/23/2018 2:00:00 AM||CALIK HOLDING|10.40.25.119|||110000438408|68
9/23/2018 2:00:00 AM||CALIK HOLDING|10.40.24.119|||110000438408|214
9/23/2018 2:00:00 AM||CALIK HOLDING|10.40.25.120|||110000438408|550
9/23/2018 2:00:00 AM||CALIK HOLDING|10.40.24.120|||110000438408|556
9/23/2018 2:00:00 AM||CALIK HOLDING|10.40.25.121|||110000438408|308
9/23/2018 2:00:00 AM||CALIK HOLDING|10.40.24.121|||110000438408|325
9/23/2018 2:00:00 AM||CALIK HOLDING|10.40.25.122|||110000438408|255
9/23/2018 2:00:00 AM||CALIK HOLDING|10.40.24.122|||110000438408|291
9/23/2018 2:00:00 AM||AKTIFBANK|10.40.25.128|||110000438458|256
9/23/2018 2:00:00 AM||AKTIFBANK|10.40.24.128|||110000438458|475
9/23/2018 2:00:00 AM||AKTIFBANK|10.40.25.130|||110000438458|720
9/23/2018 2:00:00 AM||AKTIFBANK|10.40.24.130|||110000438458|685
9/23/2018 2:00:00 AM||AKTIFBANK|10.40.25.131|||110000438458|599
9/23/2018 2:00:00 AM||AKTIFBANK|10.40.24.131|||110000438458|635
9/23/2018 2:00:00 AM||AKTIFBANK|10.40.25.132|||110000438458|412
9/23/2018 2:00:00 AM||AKTIFBANK|10.40.24.132|||110000438458|403
9/23/2018 2:00:00 AM||AKTIFBANK|10.40.25.133|||110000438458|386
9/23/2018 2:00:00 AM||AKTIFBANK|10.40.24.133|||110000438458|682
9/23/2018 2:00:00 AM||AKTIFBANK|10.40.25.138|||110000438458|243
9/23/2018 2:00:00 AM||AKTIFBANK|10.40.24.138|||110000438458|548
9/23/2018 2:00:00 AM||AKTIFBANK|10.40.25.139|||110000438458|152
9/23/2018 2:00:00 AM||AKTIFBANK|10.40.24.139|||110000438458|230
9/23/2018 2:00:00 AM||AKTIFBANK|10.40.25.140|||110000438458|255
9/23/2018 2:00:00 AM||AKTIFBANK|10.40.24.140|||110000438458|346
9/23/2018 2:00:00 AM||AKTIFBANK|10.40.25.141|||110000438458|492
9/23/2018 2:00:00 AM||AKTIFBANK|10.40.24.141|||110000438458|658
9/23/2018 2:00:00 AM||AKTIFBANK|10.40.25.142|||110000438458|37
9/23/2018 2:00:00 AM||AKTIFBANK|10.40.24.142|||110000438458|114
9/23/2018 2:00:00 AM||AKTIFBANK|10.40.24.143|||110000438458|804
9/23/2018 2:00:00 AM||AKTIFBANK|10.40.25.144|||110000438458|177
9/23/2018 2:00:00 AM||AKTIFBANK|10.40.24.144|||110000438458|271
9/23/2018 2:00:00 AM||AKTIFBANK|10.40.25.145|||110000438458|282
9/23/2018 2:00:00 AM||AKTIFBANK|10.40.24.145|||110000438458|392
9/23/2018 2:00:00 AM||AKTIFBANK|10.40.25.147|||110000438458|84
9/23/2018 2:00:00 AM||AKTIFBANK|10.40.24.147|||110000438458|89
9/23/2018 2:00:00 AM||AKTIFBANK|10.40.25.148|||110000438458|953
9/23/2018 2:00:00 AM||AKTIFBANK|10.40.25.152|||110000438458|727
9/23/2018 2:00:00 AM||AKTIFBANK|10.40.25.153|||110000438458|214
9/23/2018 2:00:00 AM||AKTIFBANK|10.40.24.153|||110000438458|238
9/23/2018 2:00:00 AM||AKTIFBANK|10.40.25.154|||110000438458|40
9/23/2018 2:00:00 AM||AKTIFBANK|10.40.24.154|||110000438458|132
9/23/2018 2:00:00 AM||AKTIFBANK|10.40.25.155|||110000438458|465
9/23/2018 2:00:00 AM||AKTIFBANK|10.40.24.155|||110000438458|498
9/23/2018 2:00:00 AM||AKTIFBANK|10.40.25.157|||110000438458|322
9/23/2018 2:00:00 AM||AKTIFBANK|10.40.24.157|||110000438458|352
9/23/2018 2:00:00 AM||AKTIFBANK|10.40.25.158|||110000438458|153
9/23/2018 2:00:00 AM||AKTIFBANK|10.40.24.158|||110000438458|609
9/23/2018 2:00:00 AM||AKTIFBANK|10.40.25.159|||110000438458|158
9/23/2018 2:00:00 AM||AKTIFBANK|10.40.24.159|||110000438458|357
9/23/2018 2:00:00 AM||AKTIFBANK|10.40.25.160|||110000438458|191
9/23/2018 2:00:00 AM||AKTIFBANK|10.40.24.160|||110000438458|234
9/23/2018 2:00:00 AM||AKTIFBANK|10.40.25.161|||110000438458|241
9/23/2018 2:00:00 AM||AKTIFBANK|10.40.24.161|||110000438458|398
9/23/2018 2:00:00 AM||AKTIFBANK|10.40.25.162|||110000438458|239
9/23/2018 2:00:00 AM||AKTIFBANK|10.40.24.162|||110000438458|488
9/23/2018 2:00:00 AM||AKTIFBANK|10.40.25.163|||110000438458|44
9/23/2018 2:00:00 AM||AKTIFBANK|10.40.24.163|||110000438458|247
9/23/2018 2:00:00 AM||AKTIFBANK|10.40.25.164|||110000438458|852
9/23/2018 2:00:00 AM||AKTIFBANK|10.40.24.164|||110000438458|838
9/23/2018 2:00:00 AM||AKTIFBANK|10.40.25.165|||110000438458|309
9/23/2018 2:00:00 AM||AKTIFBANK|10.40.24.165|||110000438458|363
9/23/2018 2:00:00 AM||AKTIFBANK|10.40.25.166|||110000438458|131
9/23/2018 2:00:00 AM||AKTIFBANK|10.40.24.166|||110000438458|215
9/23/2018 2:00:00 AM||AKTIFBANK|10.40.25.168|||110000438458|307
9/23/2018 2:00:00 AM||AKTIFBANK|10.40.24.168|||110000438458|381
9/23/2018 2:00:00 AM||AKTIFBANK|10.40.25.169|||110000438458|339
9/23/2018 2:00:00 AM||AKTIFBANK|10.40.24.169|||110000438458|325
9/23/2018 2:00:00 AM||AKTIFBANK|10.40.25.170|||110000438458|514
9/23/2018 2:00:00 AM||AKTIFBANK|10.40.24.170|||110000438458|801
9/23/2018 2:00:00 AM||AKTIFBANK|10.40.25.179|||110000438458|953
9/23/2018 2:00:00 AM||AKTIFBANK|10.40.24.179|||110000438458|991
9/23/2018 2:00:00 AM||AKTIFBANK|10.40.25.186|||110000438458|180
9/23/2018 2:00:00 AM||AKTIFBANK|10.40.24.186|||110000438458|217
9/23/2018 2:00:00 AM||MARS CINEMA|10.40.25.203|||110000472614|1296
9/23/2018 2:00:00 AM||MARS CINEMA|10.40.24.203|||110000472614|1340
9/23/2018 2:00:00 AM||MARS CINEMA|10.40.25.206|||110000472614|457
9/23/2018 2:00:00 AM||PEGASUS|10.40.26.64|||110000423831|150
9/23/2018 2:00:00 AM||PEGASUS|10.40.27.67|||110000423831|1233
9/23/2018 2:00:00 AM||PEGASUS|10.40.27.68|||110000423831|306
9/23/2018 2:00:00 AM||PEGASUS|10.40.27.87|||110000423831|270
9/23/2018 2:00:00 AM||PEGASUS|10.40.26.87|||110000423831|293
9/23/2018 2:00:00 AM||BOYNER|10.40.27.95|||101367941673|468
9/23/2018 2:00:00 AM||BOYNER|10.40.26.95|||101367941673|434
9/23/2018 2:00:00 AM||BOYNER|10.40.27.96|||101367941673|822
9/23/2018 2:00:00 AM||BOYNER|10.40.26.96|||101367941673|900
9/23/2018 2:00:00 AM||BOYNER|10.40.27.99|||101367941673|272
9/23/2018 2:00:00 AM||BOYNER|10.40.26.99|||101367941673|309
