06.10.2018 09:00:00||AKTİFBANK|10.40.24.172|||110000438458|95
06.10.2018 09:00:00||AKTİFBANK|10.40.25.134|||110000438458|94
06.10.2018 09:00:00||AKTİFBANK|10.40.24.134|||110000438458|92
06.10.2018 09:00:00||AKTİFBANK|10.40.24.135|||110000438458|103
06.10.2018 09:00:00||AKTİFBANK|10.40.25.137|||110000438458|57
06.10.2018 09:00:00||AKTİFBANK|10.40.25.171|||110000438458|12
06.10.2018 09:00:00||AKTİFBANK|10.40.25.172|||110000438458|90
06.10.2018 09:00:00||AKTİFBANK|10.40.25.174|||110000438458|53
06.10.2018 09:00:00||AKTİFBANK|10.40.25.135|||110000438458|101
06.10.2018 09:00:00||AKTİFBANK|10.40.24.137|||110000438458|57
06.10.2018 09:00:00||AKTİFBANK|10.40.24.171|||110000438458|14
06.10.2018 09:00:00||AKTİFBANK|10.40.24.173|||110000438458|92
06.10.2018 09:00:00||AKTİFBANK|10.40.24.174|||110000438458|59
06.10.2018 09:00:00||AKTİFBANK|10.40.24.133|||110000438458|88
06.10.2018 09:00:00||AKTİFBANK|10.40.24.138|||110000438458|120
06.10.2018 09:00:00||AKTİFBANK|10.40.24.139|||110000438458|30
06.10.2018 09:00:00||AKTİFBANK|10.40.24.149|||110000438458|110
06.10.2018 09:00:00||AKTİFBANK|10.40.24.150|||110000438458|540
06.10.2018 09:00:00||AKTİFBANK|10.40.24.145|||110000438458|70
06.10.2018 09:00:00||AKTİFBANK|10.40.24.164|||110000438458|222
06.10.2018 09:00:00||AKTİFBANK|10.40.25.133|||110000438458|60
06.10.2018 09:00:00||AKTİFBANK|10.40.24.145|||110000438458|90
06.10.2018 09:00:00||AKTİFBANK|10.40.24.158|||110000438458|80
06.10.2018 09:00:00||AKTİFBANK|10.40.24.160|||110000438458|10
06.10.2018 09:00:00||AKTİFBANK|10.40.24.164|||110000438458|70
06.10.2018 09:00:00||AKTİFBANK|10.40.25.138|||110000438458|80
06.10.2018 09:00:00||AKTİFBANK|10.40.25.139|||110000438458|10
06.10.2018 09:00:00||AKTİFBANK|10.40.25.139|||110000438458|10
06.10.2018 09:00:00||AKTİFBANK|10.40.25.139|||110000438458|20
06.10.2018 09:00:00||AKTİFBANK|10.40.25.140|||110000438458|32
06.10.2018 09:00:00||AKTİFBANK|10.40.25.151|||110000438458|502
06.10.2018 09:00:00||AKTİFBANK|10.40.25.141|||110000438458|100
06.10.2018 09:00:00||AKTİFBANK|10.40.25.141|||110000438458|87
06.10.2018 09:00:00||AKTİFBANK|10.40.25.133|||110000438458|105
06.10.2018 09:00:00||AKTİFBANK|10.40.25.149|||110000438458|100
06.10.2018 09:00:00||AKTİFBANK|10.40.25.149|||110000438458|90
06.10.2018 09:00:00||AKTİFBANK|10.40.25.149|||110000438458|90
06.10.2018 09:00:00||AKTİFBANK|10.40.25.140|||110000438458|30
06.10.2018 09:00:00||AKTİFBANK|10.40.25.150|||110000438458|532
06.10.2018 09:00:00||AKTİFBANK|10.40.25.139|||110000438458|40
06.10.2018 09:00:00||AKTİFBANK|10.40.25.140|||110000438458|80
06.10.2018 09:00:00||AKTİFBANK|10.40.25.140|||110000438458|70
06.10.2018 09:00:00||AKTİFBANK|10.40.25.140|||110000438458|30
06.10.2018 09:00:00||AKTİFBANK|10.40.25.151|||110000438458|520
06.10.2018 09:00:00||AKTİFBANK|10.40.25.151|||110000438458|498
06.10.2018 09:00:00||AKTİFBANK|10.40.25.141|||110000438458|40
06.10.2018 09:00:00||AKTİFBANK|10.40.25.141|||110000438458|100
06.10.2018 09:00:00||AKTİFBANK|10.40.25.141|||110000438458|62
06.10.2018 09:00:00||AKTİFBANK|10.40.25.142|||110000438458|30
06.10.2018 09:00:00||AKTİFBANK|10.40.25.149|||110000438458|70
06.10.2018 09:00:00||AKTİFBANK|10.40.25.149|||110000438458|110
06.10.2018 09:00:00||AKTİFBANK|10.40.25.149|||110000438458|92
06.10.2018 09:00:00||AKTİFBANK|10.40.25.149|||110000438458|92
06.10.2018 09:00:00||AKTİFBANK|10.40.25.149|||110000438458|100
06.10.2018 09:00:00||AKTİFBANK|10.40.24.139|||110000438458|60
06.10.2018 09:00:00||AKTİFBANK|10.40.25.153|||110000438458|10
06.10.2018 09:00:00||AKTİFBANK|10.40.25.150|||110000438458|557
06.10.2018 09:00:00||AKTİFBANK|10.40.25.153|||110000438458|70
06.10.2018 09:00:00||AKTİFBANK|10.40.25.163|||110000438458|40
06.10.2018 09:00:00||AKTİFBANK|10.40.24.141|||110000438458|68
06.10.2018 09:00:00||AKTİFBANK|10.40.24.151|||110000438458|505
06.10.2018 09:00:00||AKTİFBANK|10.40.24.162|||110000438458|7
06.10.2018 09:00:00||AKTİFBANK|10.40.25.153|||110000438458|80
06.10.2018 09:00:00||AKTİFBANK|10.40.24.149|||110000438458|82
06.10.2018 09:00:00||AKTİFBANK|10.40.24.141|||110000438458|50
06.10.2018 09:00:00||AKTİFBANK|10.40.25.133|||110000438458|290
06.10.2018 09:00:00||AKTİFBANK|10.40.25.133|||110000438458|92
06.10.2018 09:00:00||AKTİFBANK|10.40.24.149|||110000438458|90
06.10.2018 09:00:00||AKTİFBANK|10.40.24.162|||110000438458|53
06.10.2018 09:00:00||AKTİFBANK|10.40.24.162|||110000438458|30
06.10.2018 09:00:00||AKTİFBANK|10.40.24.162|||110000438458|42
06.10.2018 09:00:00||AKTİFBANK|10.40.25.133|||110000438458|143
06.10.2018 09:00:00||AKTİFBANK|10.40.25.138|||110000438458|130
06.10.2018 09:00:00||AKTİFBANK|10.40.25.149|||110000438458|75
06.10.2018 09:00:00||AKTİFBANK|10.40.25.149|||110000438458|70
06.10.2018 09:00:00||AKTİFBANK|10.40.25.149|||110000438458|30
06.10.2018 09:00:00||AKTİFBANK|10.40.25.149|||110000438458|67
06.10.2018 09:00:00||AKTİFBANK|10.40.25.149|||110000438458|70
06.10.2018 09:00:00||AKTİFBANK|10.40.25.141|||110000438458|100
06.10.2018 09:00:00||AKTİFBANK|10.40.25.149|||110000438458|130
06.10.2018 09:00:00||AKTİFBANK|10.40.25.138|||110000438458|92
06.10.2018 09:00:00||AKTİFBANK|10.40.25.138|||110000438458|73
06.10.2018 09:00:00||AKTİFBANK|10.40.25.139|||110000438458|100
06.10.2018 09:00:00||AKTİFBANK|10.40.24.145|||110000438458|70
06.10.2018 09:00:00||AKTİFBANK|10.40.24.149|||110000438458|160
06.10.2018 09:00:00||AKTİFBANK|10.40.25.138|||110000438458|30
06.10.2018 09:00:00||AKTİFBANK|10.40.25.138|||110000438458|10
06.10.2018 09:00:00||AKTİFBANK|10.40.25.153|||110000438458|60
06.10.2018 09:00:00||AKTİFBANK|10.40.24.150|||110000438458|560
06.10.2018 09:00:00||AKTİFBANK|10.40.25.128|||110000438458|70
06.10.2018 09:00:00||AKTİFBANK|10.40.25.128|||110000438458|90
06.10.2018 09:00:00||AKTİFBANK|10.40.25.128|||110000438458|40
06.10.2018 09:00:00||AKTİFBANK|10.40.25.128|||110000438458|68
06.10.2018 09:00:00||AKTİFBANK|10.40.25.129|||110000438458|83
06.10.2018 09:00:00||AKTİFBANK|10.40.25.129|||110000438458|70
06.10.2018 09:00:00||AKTİFBANK|10.40.25.129|||110000438458|132
06.10.2018 09:00:00||AKTİFBANK|10.40.25.129|||110000438458|100
06.10.2018 09:00:00||AKTİFBANK|10.40.25.129|||110000438458|42
06.10.2018 09:00:00||AKTİFBANK|10.40.25.129|||110000438458|93
06.10.2018 09:00:00||AKTİFBANK|10.40.25.129|||110000438458|97
06.10.2018 09:00:00||AKTİFBANK|10.40.25.130|||110000438458|63
06.10.2018 09:00:00||AKTİFBANK|10.40.25.130|||110000438458|50
06.10.2018 09:00:00||AKTİFBANK|10.40.25.130|||110000438458|72
06.10.2018 09:00:00||AKTİFBANK|10.40.25.130|||110000438458|32
06.10.2018 09:00:00||AKTİFBANK|10.40.25.130|||110000438458|60
06.10.2018 09:00:00||AKTİFBANK|10.40.25.130|||110000438458|102
06.10.2018 09:00:00||AKTİFBANK|10.40.25.130|||110000438458|80
06.10.2018 09:00:00||AKTİFBANK|10.40.25.131|||110000438458|77
06.10.2018 09:00:00||AKTİFBANK|10.40.25.131|||110000438458|100
06.10.2018 09:00:00||AKTİFBANK|10.40.25.131|||110000438458|105
06.10.2018 09:00:00||AKTİFBANK|10.40.25.131|||110000438458|82
06.10.2018 09:00:00||AKTİFBANK|10.40.25.131|||110000438458|80
06.10.2018 09:00:00||AKTİFBANK|10.40.25.131|||110000438458|20
06.10.2018 09:00:00||AKTİFBANK|10.40.25.131|||110000438458|120
06.10.2018 09:00:00||AKTİFBANK|10.40.25.132|||110000438458|65
06.10.2018 09:00:00||AKTİFBANK|10.40.25.132|||110000438458|65
06.10.2018 09:00:00||AKTİFBANK|10.40.25.132|||110000438458|83
06.10.2018 09:00:00||AKTİFBANK|10.40.25.132|||110000438458|178
06.10.2018 09:00:00||AKTİFBANK|10.40.25.132|||110000438458|67
06.10.2018 09:00:00||AKTİFBANK|10.40.25.143|||110000438458|305
06.10.2018 09:00:00||AKTİFBANK|10.40.25.144|||110000438458|70
06.10.2018 09:00:00||AKTİFBANK|10.40.25.144|||110000438458|50
06.10.2018 09:00:00||AKTİFBANK|10.40.25.144|||110000438458|65
06.10.2018 09:00:00||AKTİFBANK|10.40.25.154|||110000438458|10
06.10.2018 09:00:00||AKTİFBANK|10.40.25.154|||110000438458|10
06.10.2018 09:00:00||AKTİFBANK|10.40.25.154|||110000438458|10
06.10.2018 09:00:00||AKTİFBANK|10.40.25.157|||110000438458|70
06.10.2018 09:00:00||AKTİFBANK|10.40.25.157|||110000438458|70
06.10.2018 09:00:00||AKTİFBANK|10.40.25.157|||110000438458|70
06.10.2018 09:00:00||AKTİFBANK|10.40.25.157|||110000438458|82
06.10.2018 09:00:00||AKTİFBANK|10.40.25.157|||110000438458|33
06.10.2018 09:00:00||AKTİFBANK|10.40.25.159|||110000438458|60
06.10.2018 09:00:00||AKTİFBANK|10.40.25.159|||110000438458|10
06.10.2018 09:00:00||AKTİFBANK|10.40.25.159|||110000438458|90
06.10.2018 09:00:00||AKTİFBANK|10.40.25.158|||110000438458|50
06.10.2018 09:00:00||AKTİFBANK|10.40.25.160|||110000438458|90
06.10.2018 09:00:00||AKTİFBANK|10.40.25.161|||110000438458|80
06.10.2018 09:00:00||AKTİFBANK|10.40.25.161|||110000438458|70
06.10.2018 09:00:00||AKTİFBANK|10.40.25.161|||110000438458|40
06.10.2018 09:00:00||AKTİFBANK|10.40.25.161|||110000438458|30
06.10.2018 09:00:00||AKTİFBANK|10.40.25.161|||110000438458|20
06.10.2018 09:00:00||AKTİFBANK|10.40.25.161|||110000438458|50
06.10.2018 09:00:00||AKTİFBANK|10.40.25.145|||110000438458|90
06.10.2018 09:00:00||AKTİFBANK|10.40.25.145|||110000438458|60
06.10.2018 09:00:00||AKTİFBANK|10.40.25.145|||110000438458|60
06.10.2018 09:00:00||AKTİFBANK|10.40.25.145|||110000438458|30
06.10.2018 09:00:00||AKTİFBANK|10.40.25.145|||110000438458|50
06.10.2018 09:00:00||AKTİFBANK|10.40.25.147|||110000438458|90
06.10.2018 09:00:00||AKTİFBANK|10.40.25.162|||110000438458|30
06.10.2018 09:00:00||AKTİFBANK|10.40.25.162|||110000438458|30
06.10.2018 09:00:00||AKTİFBANK|10.40.25.162|||110000438458|60
06.10.2018 09:00:00||AKTİFBANK|10.40.25.164|||110000438458|60
06.10.2018 09:00:00||AKTİFBANK|10.40.25.164|||110000438458|280
06.10.2018 09:00:00||AKTİFBANK|10.40.25.164|||110000438458|50
06.10.2018 09:00:00||AKTİFBANK|10.40.25.164|||110000438458|260
06.10.2018 09:00:00||AKTİFBANK|10.40.25.164|||110000438458|270
06.10.2018 09:00:00||AKTİFBANK|10.40.25.165|||110000438458|142
06.10.2018 09:00:00||AKTİFBANK|10.40.25.165|||110000438458|70
06.10.2018 09:00:00||AKTİFBANK|10.40.25.165|||110000438458|70
06.10.2018 09:00:00||AKTİFBANK|10.40.25.165|||110000438458|102
06.10.2018 09:00:00||AKTİFBANK|10.40.25.166|||110000438458|40
06.10.2018 09:00:00||AKTİFBANK|10.40.25.166|||110000438458|90
06.10.2018 09:00:00||AKTİFBANK|10.40.25.148|||110000438458|130
06.10.2018 09:00:00||AKTİFBANK|10.40.25.148|||110000438458|50
06.10.2018 09:00:00||AKTİFBANK|10.40.25.148|||110000438458|100
06.10.2018 09:00:00||AKTİFBANK|10.40.25.148|||110000438458|130
06.10.2018 09:00:00||AKTİFBANK|10.40.25.148|||110000438458|90
06.10.2018 09:00:00||AKTİFBANK|10.40.25.148|||110000438458|80
06.10.2018 09:00:00||AKTİFBANK|10.40.25.148|||110000438458|70
06.10.2018 09:00:00||AKTİFBANK|10.40.25.148|||110000438458|50
06.10.2018 09:00:00||AKTİFBANK|10.40.25.148|||110000438458|80
06.10.2018 09:00:00||AKTİFBANK|10.40.25.148|||110000438458|40
06.10.2018 09:00:00||AKTİFBANK|10.40.25.148|||110000438458|100
06.10.2018 09:00:00||AKTİFBANK|10.40.25.148|||110000438458|60
06.10.2018 09:00:00||AKTİFBANK|10.40.25.155|||110000438458|70
06.10.2018 09:00:00||AKTİFBANK|10.40.25.155|||110000438458|93
06.10.2018 09:00:00||AKTİFBANK|10.40.25.155|||110000438458|107
06.10.2018 09:00:00||AKTİFBANK|10.40.25.155|||110000438458|120
06.10.2018 09:00:00||AKTİFBANK|10.40.25.155|||110000438458|108
06.10.2018 09:00:00||AKTİFBANK|10.40.25.139|||110000438458|75
06.10.2018 09:00:00||AKTİFBANK|10.40.25.139|||110000438458|80
06.10.2018 09:00:00||AKTİFBANK|10.40.25.150|||110000438458|520
06.10.2018 09:00:00||AKTİFBANK|10.40.25.129|||110000438458|60
06.10.2018 09:00:00||AKTİFBANK|10.40.25.129|||110000438458|82
06.10.2018 09:00:00||AKTİFBANK|10.40.25.129|||110000438458|140
06.10.2018 09:00:00||AKTİFBANK|10.40.25.130|||110000438458|65
06.10.2018 09:00:00||AKTİFBANK|10.40.25.130|||110000438458|128
06.10.2018 09:00:00||AKTİFBANK|10.40.25.130|||110000438458|100
06.10.2018 09:00:00||AKTİFBANK|10.40.25.131|||110000438458|50
06.10.2018 09:00:00||AKTİFBANK|10.40.25.143|||110000438458|60
06.10.2018 09:00:00||AKTİFBANK|10.40.25.143|||110000438458|240
06.10.2018 09:00:00||AKTİFBANK|10.40.25.143|||110000438458|253
06.10.2018 09:00:00||AKTİFBANK|10.40.25.158|||110000438458|102
06.10.2018 09:00:00||AKTİFBANK|10.40.25.160|||110000438458|110
06.10.2018 09:00:00||AKTİFBANK|10.40.25.162|||110000438458|42
06.10.2018 09:00:00||AKTİFBANK|10.40.25.162|||110000438458|33
06.10.2018 09:00:00||AKTİFBANK|10.40.25.162|||110000438458|40
06.10.2018 09:00:00||AKTİFBANK|10.40.24.140|||110000438458|20
06.10.2018 09:00:00||AKTİFBANK|10.40.24.140|||110000438458|80
06.10.2018 09:00:00||AKTİFBANK|10.40.24.140|||110000438458|40
06.10.2018 09:00:00||AKTİFBANK|10.40.24.140|||110000438458|30
06.10.2018 09:00:00||AKTİFBANK|10.40.24.140|||110000438458|30
06.10.2018 09:00:00||AKTİFBANK|10.40.24.140|||110000438458|50
06.10.2018 09:00:00||AKTİFBANK|10.40.24.140|||110000438458|40
06.10.2018 09:00:00||AKTİFBANK|10.40.24.140|||110000438458|20
06.10.2018 09:00:00||AKTİFBANK|10.40.24.140|||110000438458|28
06.10.2018 09:00:00||AKTİFBANK|10.40.24.149|||110000438458|82
06.10.2018 09:00:00||AKTİFBANK|10.40.24.149|||110000438458|118
06.10.2018 09:00:00||AKTİFBANK|10.40.24.149|||110000438458|95
06.10.2018 09:00:00||AKTİFBANK|10.40.24.149|||110000438458|55
06.10.2018 09:00:00||AKTİFBANK|10.40.24.149|||110000438458|52
06.10.2018 09:00:00||AKTİFBANK|10.40.24.149|||110000438458|140
06.10.2018 09:00:00||AKTİFBANK|10.40.24.149|||110000438458|90
06.10.2018 09:00:00||AKTİFBANK|10.40.24.149|||110000438458|87
06.10.2018 09:00:00||AKTİFBANK|10.40.24.149|||110000438458|90
06.10.2018 09:00:00||AKTİFBANK|10.40.24.149|||110000438458|80
06.10.2018 09:00:00||AKTİFBANK|10.40.24.133|||110000438458|143
06.10.2018 09:00:00||AKTİFBANK|10.40.24.133|||110000438458|120
06.10.2018 09:00:00||AKTİFBANK|10.40.24.133|||110000438458|83
06.10.2018 09:00:00||AKTİFBANK|10.40.24.138|||110000438458|113
06.10.2018 09:00:00||AKTİFBANK|10.40.24.138|||110000438458|140
06.10.2018 09:00:00||AKTİFBANK|10.40.24.138|||110000438458|110
06.10.2018 09:00:00||AKTİFBANK|10.40.24.138|||110000438458|32
06.10.2018 09:00:00||AKTİFBANK|10.40.24.138|||110000438458|50
06.10.2018 09:00:00||AKTİFBANK|10.40.24.139|||110000438458|40
06.10.2018 09:00:00||AKTİFBANK|10.40.24.139|||110000438458|50
06.10.2018 09:00:00||AKTİFBANK|10.40.24.139|||110000438458|90
06.10.2018 09:00:00||AKTİFBANK|10.40.24.139|||110000438458|120
06.10.2018 09:00:00||AKTİFBANK|10.40.24.141|||110000438458|200
06.10.2018 09:00:00||AKTİFBANK|10.40.24.141|||110000438458|100
06.10.2018 09:00:00||AKTİFBANK|10.40.24.141|||110000438458|100
06.10.2018 09:00:00||AKTİFBANK|10.40.24.141|||110000438458|57
06.10.2018 09:00:00||AKTİFBANK|10.40.24.141|||110000438458|80
06.10.2018 09:00:00||AKTİFBANK|10.40.25.152|||110000438458|118
06.10.2018 09:00:00||AKTİFBANK|10.40.25.152|||110000438458|42
06.10.2018 09:00:00||AKTİFBANK|10.40.25.152|||110000438458|100
06.10.2018 09:00:00||AKTİFBANK|10.40.25.152|||110000438458|70
06.10.2018 09:00:00||AKTİFBANK|10.40.25.152|||110000438458|88
06.10.2018 09:00:00||AKTİFBANK|10.40.25.152|||110000438458|78
06.10.2018 09:00:00||AKTİFBANK|10.40.25.152|||110000438458|58
06.10.2018 09:00:00||AKTİFBANK|10.40.25.152|||110000438458|92
06.10.2018 09:00:00||AKTİFBANK|10.40.25.152|||110000438458|30
06.10.2018 09:00:00||AKTİFBANK|10.40.25.152|||110000438458|80
06.10.2018 09:00:00||AKTİFBANK|10.40.25.152|||110000438458|30
06.10.2018 09:00:00||AKTİFBANK|10.40.24.150|||110000438458|568
06.10.2018 09:00:00||AKTİFBANK|10.40.24.151|||110000438458|505
06.10.2018 09:00:00||AKTİFBANK|10.40.24.151|||110000438458|537
06.10.2018 09:00:00||AKTİFBANK|10.40.24.128|||110000438458|150
06.10.2018 09:00:00||AKTİFBANK|10.40.24.128|||110000438458|70
06.10.2018 09:00:00||AKTİFBANK|10.40.24.128|||110000438458|97
06.10.2018 09:00:00||AKTİFBANK|10.40.24.128|||110000438458|40
06.10.2018 09:00:00||AKTİFBANK|10.40.24.128|||110000438458|70
06.10.2018 09:00:00||AKTİFBANK|10.40.24.128|||110000438458|45
06.10.2018 09:00:00||AKTİFBANK|10.40.24.129|||110000438458|97
06.10.2018 09:00:00||AKTİFBANK|10.40.24.129|||110000438458|68
06.10.2018 09:00:00||AKTİFBANK|10.40.24.129|||110000438458|102
06.10.2018 09:00:00||AKTİFBANK|10.40.24.129|||110000438458|112
06.10.2018 09:00:00||AKTİFBANK|10.40.24.129|||110000438458|27
06.10.2018 09:00:00||AKTİFBANK|10.40.24.129|||110000438458|75
06.10.2018 09:00:00||AKTİFBANK|10.40.24.129|||110000438458|68
06.10.2018 09:00:00||AKTİFBANK|10.40.24.129|||110000438458|92
06.10.2018 09:00:00||AKTİFBANK|10.40.24.129|||110000438458|80
06.10.2018 09:00:00||AKTİFBANK|10.40.24.129|||110000438458|142
06.10.2018 09:00:00||AKTİFBANK|10.40.24.130|||110000438458|42
06.10.2018 09:00:00||AKTİFBANK|10.40.24.130|||110000438458|40
06.10.2018 09:00:00||AKTİFBANK|10.40.24.130|||110000438458|68
06.10.2018 09:00:00||AKTİFBANK|10.40.24.130|||110000438458|42
06.10.2018 09:00:00||AKTİFBANK|10.40.24.130|||110000438458|60
06.10.2018 09:00:00||AKTİFBANK|10.40.24.130|||110000438458|73
06.10.2018 09:00:00||AKTİFBANK|10.40.24.130|||110000438458|87
06.10.2018 09:00:00||AKTİFBANK|10.40.24.130|||110000438458|37
06.10.2018 09:00:00||AKTİFBANK|10.40.24.130|||110000438458|130
06.10.2018 09:00:00||AKTİFBANK|10.40.24.130|||110000438458|110
06.10.2018 09:00:00||AKTİFBANK|10.40.24.131|||110000438458|10
06.10.2018 09:00:00||AKTİFBANK|10.40.24.131|||110000438458|85
06.10.2018 09:00:00||AKTİFBANK|10.40.24.131|||110000438458|90
06.10.2018 09:00:00||AKTİFBANK|10.40.24.131|||110000438458|110
06.10.2018 09:00:00||AKTİFBANK|10.40.24.131|||110000438458|113
06.10.2018 09:00:00||AKTİFBANK|10.40.24.131|||110000438458|23
06.10.2018 09:00:00||AKTİFBANK|10.40.24.131|||110000438458|160
06.10.2018 09:00:00||AKTİFBANK|10.40.24.131|||110000438458|60
06.10.2018 09:00:00||AKTİFBANK|10.40.24.131|||110000438458|110
06.10.2018 09:00:00||AKTİFBANK|10.40.24.132|||110000438458|40
06.10.2018 09:00:00||AKTİFBANK|10.40.24.132|||110000438458|80
06.10.2018 09:00:00||AKTİFBANK|10.40.24.132|||110000438458|50
06.10.2018 09:00:00||AKTİFBANK|10.40.24.132|||110000438458|180
06.10.2018 09:00:00||AKTİFBANK|10.40.24.132|||110000438458|70
06.10.2018 09:00:00||AKTİFBANK|10.40.24.143|||110000438458|63
06.10.2018 09:00:00||AKTİFBANK|10.40.24.143|||110000438458|270
06.10.2018 09:00:00||AKTİFBANK|10.40.24.143|||110000438458|325
06.10.2018 09:00:00||AKTİFBANK|10.40.24.143|||110000438458|203
06.10.2018 09:00:00||AKTİFBANK|10.40.24.144|||110000438458|80
06.10.2018 09:00:00||AKTİFBANK|10.40.24.144|||110000438458|107
06.10.2018 09:00:00||AKTİFBANK|10.40.24.144|||110000438458|88
06.10.2018 09:00:00||AKTİFBANK|10.40.24.148|||110000438458|60
06.10.2018 09:00:00||AKTİFBANK|10.40.24.148|||110000438458|168
06.10.2018 09:00:00||AKTİFBANK|10.40.24.148|||110000438458|82
06.10.2018 09:00:00||AKTİFBANK|10.40.24.148|||110000438458|110
06.10.2018 09:00:00||AKTİFBANK|10.40.24.148|||110000438458|80
06.10.2018 09:00:00||AKTİFBANK|10.40.24.148|||110000438458|80
06.10.2018 09:00:00||AKTİFBANK|10.40.24.148|||110000438458|90
06.10.2018 09:00:00||AKTİFBANK|10.40.24.148|||110000438458|102
06.10.2018 09:00:00||AKTİFBANK|10.40.24.148|||110000438458|77
06.10.2018 09:00:00||AKTİFBANK|10.40.24.148|||110000438458|62
06.10.2018 09:00:00||AKTİFBANK|10.40.24.148|||110000438458|30
06.10.2018 09:00:00||AKTİFBANK|10.40.24.148|||110000438458|75
06.10.2018 09:00:00||AKTİFBANK|10.40.24.153|||110000438458|10
06.10.2018 09:00:00||AKTİFBANK|10.40.24.153|||110000438458|92
06.10.2018 09:00:00||AKTİFBANK|10.40.24.153|||110000438458|70
06.10.2018 09:00:00||AKTİFBANK|10.40.24.153|||110000438458|80
06.10.2018 09:00:00||AKTİFBANK|10.40.24.157|||110000438458|30
06.10.2018 09:00:00||AKTİFBANK|10.40.24.157|||110000438458|77
06.10.2018 09:00:00||AKTİFBANK|10.40.24.157|||110000438458|70
06.10.2018 09:00:00||AKTİFBANK|10.40.24.157|||110000438458|43
06.10.2018 09:00:00||AKTİFBANK|10.40.24.157|||110000438458|80
06.10.2018 09:00:00||AKTİFBANK|10.40.24.157|||110000438458|40
06.10.2018 09:00:00||AKTİFBANK|10.40.24.158|||110000438458|110
06.10.2018 09:00:00||AKTİFBANK|10.40.24.158|||110000438458|110
06.10.2018 09:00:00||AKTİFBANK|10.40.24.158|||110000438458|130
06.10.2018 09:00:00||AKTİFBANK|10.40.24.158|||110000438458|80
06.10.2018 09:00:00||AKTİFBANK|10.40.24.158|||110000438458|112
06.10.2018 09:00:00||AKTİFBANK|10.40.24.159|||110000438458|132
06.10.2018 09:00:00||AKTİFBANK|10.40.24.159|||110000438458|55
06.10.2018 09:00:00||AKTİFBANK|10.40.24.159|||110000438458|180
06.10.2018 09:00:00||AKTİFBANK|10.40.24.160|||110000438458|10
06.10.2018 09:00:00||AKTİFBANK|10.40.24.160|||110000438458|90
06.10.2018 09:00:00||AKTİFBANK|10.40.24.160|||110000438458|100
06.10.2018 09:00:00||AKTİFBANK|10.40.24.161|||110000438458|182
06.10.2018 09:00:00||AKTİFBANK|10.40.24.161|||110000438458|80
06.10.2018 09:00:00||AKTİFBANK|10.40.24.161|||110000438458|40
06.10.2018 09:00:00||AKTİFBANK|10.40.24.161|||110000438458|30
06.10.2018 09:00:00||AKTİFBANK|10.40.24.161|||110000438458|30
06.10.2018 09:00:00||AKTİFBANK|10.40.24.161|||110000438458|20
06.10.2018 09:00:00||AKTİFBANK|10.40.24.161|||110000438458|90
06.10.2018 09:00:00||AKTİFBANK|10.40.24.145|||110000438458|20
06.10.2018 09:00:00||AKTİFBANK|10.40.24.145|||110000438458|90
06.10.2018 09:00:00||AKTİFBANK|10.40.24.145|||110000438458|60
06.10.2018 09:00:00||AKTİFBANK|10.40.24.147|||110000438458|90
06.10.2018 09:00:00||AKTİFBANK|10.40.24.162|||110000438458|80
06.10.2018 09:00:00||AKTİFBANK|10.40.24.162|||110000438458|52
06.10.2018 09:00:00||AKTİFBANK|10.40.24.162|||110000438458|40
06.10.2018 09:00:00||AKTİFBANK|10.40.24.162|||110000438458|40
06.10.2018 09:00:00||AKTİFBANK|10.40.24.162|||110000438458|70
06.10.2018 09:00:00||AKTİFBANK|10.40.24.162|||110000438458|10
06.10.2018 09:00:00||AKTİFBANK|10.40.24.162|||110000438458|50
06.10.2018 09:00:00||AKTİFBANK|10.40.24.163|||110000438458|30
06.10.2018 09:00:00||AKTİFBANK|10.40.24.163|||110000438458|73
06.10.2018 09:00:00||AKTİFBANK|10.40.24.164|||110000438458|58
06.10.2018 09:00:00||AKTİFBANK|10.40.24.164|||110000438458|330
06.10.2018 09:00:00||AKTİFBANK|10.40.24.164|||110000438458|210
06.10.2018 09:00:00||AKTİFBANK|10.40.24.165|||110000438458|80
06.10.2018 09:00:00||AKTİFBANK|10.40.24.165|||110000438458|80
06.10.2018 09:00:00||AKTİFBANK|10.40.24.165|||110000438458|122
06.10.2018 09:00:00||AKTİFBANK|10.40.24.166|||110000438458|80
06.10.2018 09:00:00||AKTİFBANK|10.40.24.166|||110000438458|90
06.10.2018 09:00:00||AKTİFBANK|10.40.24.166|||110000438458|10
06.10.2018 09:00:00||AKTİFBANK|10.40.24.166|||110000438458|10
06.10.2018 09:00:00||AKTİFBANK|10.40.24.166|||110000438458|10
06.10.2018 09:00:00||AKTİFBANK|10.40.25.168|||110000438458|90
06.10.2018 09:00:00||AKTİFBANK|10.40.25.168|||110000438458|70
06.10.2018 09:00:00||AKTİFBANK|10.40.25.168|||110000438458|50
06.10.2018 09:00:00||AKTİFBANK|10.40.25.168|||110000438458|40
06.10.2018 09:00:00||AKTİFBANK|10.40.25.168|||110000438458|60
06.10.2018 09:00:00||AKTİFBANK|10.40.24.168|||110000438458|90
06.10.2018 09:00:00||AKTİFBANK|10.40.24.168|||110000438458|40
06.10.2018 09:00:00||AKTİFBANK|10.40.24.168|||110000438458|80
06.10.2018 09:00:00||AKTİFBANK|10.40.24.168|||110000438458|70
06.10.2018 09:00:00||AKTİFBANK|10.40.24.168|||110000438458|70
06.10.2018 09:00:00||AKTİFBANK|10.40.24.168|||110000438458|30
06.10.2018 09:00:00||AKTİFBANK|10.40.24.154|||110000438458|70
06.10.2018 09:00:00||AKTİFBANK|10.40.24.154|||110000438458|20
06.10.2018 09:00:00||AKTİFBANK|10.40.24.154|||110000438458|10
06.10.2018 09:00:00||AKTİFBANK|10.40.24.154|||110000438458|10
06.10.2018 09:00:00||AKTİFBANK|10.40.24.154|||110000438458|10
06.10.2018 09:00:00||AKTİFBANK|10.40.24.154|||110000438458|10
06.10.2018 09:00:00||AKTİFBANK|10.40.24.155|||110000438458|102
06.10.2018 09:00:00||AKTİFBANK|10.40.24.155|||110000438458|130
06.10.2018 09:00:00||AKTİFBANK|10.40.24.155|||110000438458|80
06.10.2018 09:00:00||AKTİFBANK|10.40.24.155|||110000438458|112
06.10.2018 09:00:00||AKTİFBANK|10.40.24.155|||110000438458|100
06.10.2018 09:00:00||AKTİFBANK|10.40.25.169|||110000438458|90
06.10.2018 09:00:00||AKTİFBANK|10.40.25.169|||110000438458|100
06.10.2018 09:00:00||AKTİFBANK|10.40.25.169|||110000438458|70
06.10.2018 09:00:00||AKTİFBANK|10.40.25.169|||110000438458|78
06.10.2018 09:00:00||AKTİFBANK|10.40.24.169|||110000438458|80
06.10.2018 09:00:00||AKTİFBANK|10.40.24.169|||110000438458|87
06.10.2018 09:00:00||AKTİFBANK|10.40.24.169|||110000438458|78
06.10.2018 09:00:00||AKTİFBANK|10.40.24.169|||110000438458|80
06.10.2018 09:00:00||AKTİFBANK|10.40.25.170|||110000438458|30
06.10.2018 09:00:00||AKTİFBANK|10.40.25.170|||110000438458|30
06.10.2018 09:00:00||AKTİFBANK|10.40.25.170|||110000438458|142
06.10.2018 09:00:00||AKTİFBANK|10.40.25.170|||110000438458|117
06.10.2018 09:00:00||AKTİFBANK|10.40.25.170|||110000438458|95
06.10.2018 09:00:00||AKTİFBANK|10.40.25.170|||110000438458|127
06.10.2018 09:00:00||AKTİFBANK|10.40.24.170|||110000438458|60
06.10.2018 09:00:00||AKTİFBANK|10.40.24.170|||110000438458|60
06.10.2018 09:00:00||AKTİFBANK|10.40.24.170|||110000438458|323
06.10.2018 09:00:00||AKTİFBANK|10.40.24.170|||110000438458|130
06.10.2018 09:00:00||AKTİFBANK|10.40.24.170|||110000438458|85
06.10.2018 09:00:00||AKTİFBANK|10.40.24.170|||110000438458|105
06.10.2018 09:00:00||AKTİFBANK|10.40.24.170|||110000438458|78
06.10.2018 09:00:00||AKTİFBANK|10.40.25.178|||110000438458|540
06.10.2018 09:00:00||AKTİFBANK|10.40.25.178|||110000438458|538
06.10.2018 09:00:00||AKTİFBANK|10.40.25.178|||110000438458|548
06.10.2018 09:00:00||AKTİFBANK|10.40.24.178|||110000438458|545
06.10.2018 09:00:00||AKTİFBANK|10.40.24.178|||110000438458|530
06.10.2018 09:00:00||AKTİFBANK|10.40.24.178|||110000438458|520
06.10.2018 09:00:00||AKTİFBANK|10.40.25.179|||110000438458|398
06.10.2018 09:00:00||AKTİFBANK|10.40.25.179|||110000438458|315
06.10.2018 09:00:00||AKTİFBANK|10.40.25.179|||110000438458|310
06.10.2018 09:00:00||AKTİFBANK|10.40.24.179|||110000438458|373
06.10.2018 09:00:00||AKTİFBANK|10.40.24.179|||110000438458|365
06.10.2018 09:00:00||AKTİFBANK|10.40.24.179|||110000438458|360
06.10.2018 09:00:00||AKTİFBANK|10.40.24.142|||110000438458|73
06.10.2018 09:00:00||AKTİFBANK|10.40.24.142|||110000438458|40
06.10.2018 09:00:00||AKTİFBANK|10.40.25.186|||110000438458|90
06.10.2018 09:00:00||AKTİFBANK|10.40.25.186|||110000438458|20
06.10.2018 09:00:00||AKTİFBANK|10.40.25.186|||110000438458|70
06.10.2018 09:00:00||AKTİFBANK|10.40.24.186|||110000438458|90
06.10.2018 09:00:00||AKTİFBANK|10.40.24.186|||110000438458|22
06.10.2018 09:00:00||AKTİFBANK|10.40.24.186|||110000438458|60
06.10.2018 09:00:00||AKTİFBANK|10.40.24.186|||110000438458|40
06.10.2018 09:00:00||AKTİFBANK|10.40.24.152|||110000438458|20
06.10.2018 09:00:00||AKTİFBANK|10.40.24.152|||110000438458|50
06.10.2018 09:00:00||AKTİFBANK|10.40.24.152|||110000438458|93
06.10.2018 09:00:00||AKTİFBANK|10.40.24.152|||110000438458|105
06.10.2018 09:00:00||AKTİFBANK|10.40.24.152|||110000438458|100
06.10.2018 09:00:00||AKTİFBANK|10.40.24.152|||110000438458|102
06.10.2018 09:00:00||AKTİFBANK|10.40.24.152|||110000438458|293
06.10.2018 09:00:00||AKTİFBANK|10.40.24.152|||110000438458|78
06.10.2018 09:00:00||AKTİFBANK|10.40.24.152|||110000438458|90
06.10.2018 09:00:00||AKTİFBANK|10.40.24.152|||110000438458|30
06.10.2018 09:00:00||AKTİFBANK|10.40.24.152|||110000438458|75
06.10.2018 09:00:00||AKTİFBANK|10.40.24.152|||110000438458|30
06.10.2018 09:00:00||BARİKAT İNTERNET GÜVENLİĞİ|10.40.25.201|||110000479736|120
06.10.2018 09:00:00||BARİKAT İNTERNET GÜVENLİĞİ|10.40.25.201|||110000479736|100
06.10.2018 09:00:00||BARİKAT İNTERNET GÜVENLİĞİ|10.40.24.201|||110000479736|130
06.10.2018 09:00:00||BARİKAT İNTERNET GÜVENLİĞİ|10.40.24.201|||110000479736|95
06.10.2018 09:00:00||BOYNER|10.40.26.100|||101367941673|55
06.10.2018 09:00:00||BOYNER|10.40.26.101|||101367941673|163
06.10.2018 09:00:00||BOYNER|10.40.27.100|||101367941673|51
06.10.2018 09:00:00||BOYNER|10.40.27.101|||101367941673|165
06.10.2018 09:00:00||BOYNER|10.40.27.94|||101367941673|210
06.10.2018 09:00:00||BOYNER|10.40.27.94|||101367941673|90
06.10.2018 09:00:00||BOYNER|10.40.27.94|||101367941673|90
06.10.2018 09:00:00||BOYNER|10.40.27.94|||101367941673|100
06.10.2018 09:00:00||BOYNER|10.40.26.94|||101367941673|90
06.10.2018 09:00:00||BOYNER|10.40.26.94|||101367941673|80
06.10.2018 09:00:00||BOYNER|10.40.26.94|||101367941673|80
06.10.2018 09:00:00||BOYNER|10.40.27.95|||101367941673|125
06.10.2018 09:00:00||BOYNER|10.40.27.95|||101367941673|125
06.10.2018 09:00:00||BOYNER|10.40.27.95|||101367941673|233
06.10.2018 09:00:00||BOYNER|10.40.26.95|||101367941673|112
06.10.2018 09:00:00||BOYNER|10.40.26.95|||101367941673|198
06.10.2018 09:00:00||BOYNER|10.40.26.95|||101367941673|138
06.10.2018 09:00:00||BOYNER|10.40.27.96|||101367941673|60
06.10.2018 09:00:00||BOYNER|10.40.27.96|||101367941673|50
06.10.2018 09:00:00||BOYNER|10.40.27.96|||101367941673|50
06.10.2018 09:00:00||BOYNER|10.40.27.96|||101367941673|40
06.10.2018 09:00:00||BOYNER|10.40.27.96|||101367941673|40
06.10.2018 09:00:00||BOYNER|10.40.27.96|||101367941673|150
06.10.2018 09:00:00||BOYNER|10.40.27.96|||101367941673|152
06.10.2018 09:00:00||BOYNER|10.40.27.96|||101367941673|175
06.10.2018 09:00:00||BOYNER|10.40.27.96|||101367941673|165
06.10.2018 09:00:00||BOYNER|10.40.26.96|||101367941673|30
06.10.2018 09:00:00||BOYNER|10.40.26.96|||101367941673|38
06.10.2018 09:00:00||BOYNER|10.40.26.96|||101367941673|30
06.10.2018 09:00:00||BOYNER|10.40.26.96|||101367941673|40
06.10.2018 09:00:00||BOYNER|10.40.26.96|||101367941673|40
06.10.2018 09:00:00||BOYNER|10.40.26.96|||101367941673|50
06.10.2018 09:00:00||BOYNER|10.40.26.96|||101367941673|190
06.10.2018 09:00:00||BOYNER|10.40.26.96|||101367941673|197
06.10.2018 09:00:00||BOYNER|10.40.26.96|||101367941673|165
06.10.2018 09:00:00||BOYNER|10.40.26.96|||101367941673|177
06.10.2018 09:00:00||BOYNER|10.40.27.97|||101367941673|60
06.10.2018 09:00:00||BOYNER|10.40.27.97|||101367941673|633
06.10.2018 09:00:00||BOYNER|10.40.27.97|||101367941673|633
06.10.2018 09:00:00||BOYNER|10.40.27.97|||101367941673|673
06.10.2018 09:00:00||BOYNER|10.40.27.97|||101367941673|50
06.10.2018 09:00:00||BOYNER|10.40.27.97|||101367941673|32
06.10.2018 09:00:00||BOYNER|10.40.27.97|||101367941673|52
06.10.2018 09:00:00||BOYNER|10.40.27.97|||101367941673|30
06.10.2018 09:00:00||BOYNER|10.40.27.97|||101367941673|172
06.10.2018 09:00:00||BOYNER|10.40.27.97|||101367941673|172
06.10.2018 09:00:00||BOYNER|10.40.27.97|||101367941673|183
06.10.2018 09:00:00||BOYNER|10.40.27.97|||101367941673|195
06.10.2018 09:00:00||BOYNER|10.40.26.97|||101367941673|30
06.10.2018 09:00:00||BOYNER|10.40.26.97|||101367941673|635
06.10.2018 09:00:00||BOYNER|10.40.26.97|||101367941673|632
06.10.2018 09:00:00||BOYNER|10.40.26.97|||101367941673|642
06.10.2018 09:00:00||BOYNER|10.40.26.97|||101367941673|30
06.10.2018 09:00:00||BOYNER|10.40.26.97|||101367941673|40
06.10.2018 09:00:00||BOYNER|10.40.26.97|||101367941673|50
06.10.2018 09:00:00||BOYNER|10.40.26.97|||101367941673|60
06.10.2018 09:00:00||BOYNER|10.40.26.97|||101367941673|30
06.10.2018 09:00:00||BOYNER|10.40.26.97|||101367941673|160
06.10.2018 09:00:00||BOYNER|10.40.26.97|||101367941673|173
06.10.2018 09:00:00||BOYNER|10.40.26.97|||101367941673|172
06.10.2018 09:00:00||BOYNER|10.40.26.97|||101367941673|152
06.10.2018 09:00:00||BOYNER|10.40.27.99|||101367941673|120
06.10.2018 09:00:00||BOYNER|10.40.27.99|||101367941673|90
06.10.2018 09:00:00||BOYNER|10.40.27.99|||101367941673|73
06.10.2018 09:00:00||BOYNER|10.40.26.99|||101367941673|10
06.10.2018 09:00:00||BOYNER|10.40.26.99|||101367941673|117
06.10.2018 09:00:00||BOYNER|10.40.26.99|||101367941673|97
06.10.2018 09:00:00||BOYNER|10.40.26.99|||101367941673|65
06.10.2018 09:00:00||ÇALIK HOLDİNG|10.40.24.118|||110000438407|43
06.10.2018 09:00:00||ÇALIK HOLDİNG|10.40.25.99|||110000438407|139
06.10.2018 09:00:00||ÇALIK HOLDİNG|10.40.25.118|||110000438407|160
06.10.2018 09:00:00||ÇALIK HOLDİNG|10.40.25.120|||110000438407|90
06.10.2018 09:00:00||ÇALIK HOLDİNG|10.40.24.95|||110000438407|50
06.10.2018 09:00:00||ÇALIK HOLDİNG|10.40.25.97|||110000438407|80
06.10.2018 09:00:00||ÇALIK HOLDİNG|10.40.25.103|||110000438407|90
06.10.2018 09:00:00||ÇALIK HOLDİNG|10.40.25.120|||110000438407|40
06.10.2018 09:00:00||ÇALIK HOLDİNG|10.40.25.96|||110000438407|70
06.10.2018 09:00:00||ÇALIK HOLDİNG|10.40.25.96|||110000438407|90
06.10.2018 09:00:00||ÇALIK HOLDİNG|10.40.25.96|||110000438407|122
06.10.2018 09:00:00||ÇALIK HOLDİNG|10.40.25.96|||110000438407|90
06.10.2018 09:00:00||ÇALIK HOLDİNG|10.40.25.115|||110000438407|155
06.10.2018 09:00:00||ÇALIK HOLDİNG|10.40.25.115|||110000438407|70
06.10.2018 09:00:00||ÇALIK HOLDİNG|10.40.25.95|||110000438407|92
06.10.2018 09:00:00||ÇALIK HOLDİNG|10.40.25.96|||110000438407|90
06.10.2018 09:00:00||ÇALIK HOLDİNG|10.40.25.96|||110000438407|100
06.10.2018 09:00:00||ÇALIK HOLDİNG|10.40.25.120|||110000438407|20
06.10.2018 09:00:00||ÇALIK HOLDİNG|10.40.25.95|||110000438407|57
06.10.2018 09:00:00||ÇALIK HOLDİNG|10.40.24.94|||110000438407|190
06.10.2018 09:00:00||ÇALIK HOLDİNG|10.40.25.97|||110000438407|105
06.10.2018 09:00:00||ÇALIK HOLDİNG|10.40.25.120|||110000438407|60
06.10.2018 09:00:00||ÇALIK HOLDİNG|10.40.25.115|||110000438407|82
06.10.2018 09:00:00||ÇALIK HOLDİNG|10.40.25.115|||110000438407|70
06.10.2018 09:00:00||ÇALIK HOLDİNG|10.40.25.115|||110000438407|68
06.10.2018 09:00:00||ÇALIK HOLDİNG|10.40.25.101|||110000438407|50
06.10.2018 09:00:00||ÇALIK HOLDİNG|10.40.25.101|||110000438407|110
06.10.2018 09:00:00||ÇALIK HOLDİNG|10.40.25.101|||110000438407|30
06.10.2018 09:00:00||ÇALIK HOLDİNG|10.40.25.101|||110000438407|10
06.10.2018 09:00:00||ÇALIK HOLDİNG|10.40.25.101|||110000438407|73
06.10.2018 09:00:00||ÇALIK HOLDİNG|10.40.25.101|||110000438407|40
06.10.2018 09:00:00||ÇALIK HOLDİNG|10.40.25.101|||110000438407|40
06.10.2018 09:00:00||ÇALIK HOLDİNG|10.40.25.101|||110000438407|90
06.10.2018 09:00:00||ÇALIK HOLDİNG|10.40.25.101|||110000438407|90
06.10.2018 09:00:00||ÇALIK HOLDİNG|10.40.25.101|||110000438407|90
06.10.2018 09:00:00||ÇALIK HOLDİNG|10.40.25.94|||110000438407|180
06.10.2018 09:00:00||ÇALIK HOLDİNG|10.40.25.94|||110000438407|180
06.10.2018 09:00:00||ÇALIK HOLDİNG|10.40.25.94|||110000438407|170
06.10.2018 09:00:00||ÇALIK HOLDİNG|10.40.25.94|||110000438407|180
06.10.2018 09:00:00||ÇALIK HOLDİNG|10.40.24.94|||110000438407|197
06.10.2018 09:00:00||ÇALIK HOLDİNG|10.40.24.94|||110000438407|180
06.10.2018 09:00:00||ÇALIK HOLDİNG|10.40.24.94|||110000438407|185
06.10.2018 09:00:00||ÇALIK HOLDİNG|10.40.25.95|||110000438407|20
06.10.2018 09:00:00||ÇALIK HOLDİNG|10.40.25.95|||110000438407|365
06.10.2018 09:00:00||ÇALIK HOLDİNG|10.40.25.95|||110000438407|358
06.10.2018 09:00:00||ÇALIK HOLDİNG|10.40.25.95|||110000438407|40
06.10.2018 09:00:00||ÇALIK HOLDİNG|10.40.24.95|||110000438407|100
06.10.2018 09:00:00||ÇALIK HOLDİNG|10.40.24.95|||110000438407|88
06.10.2018 09:00:00||ÇALIK HOLDİNG|10.40.24.95|||110000438407|413
06.10.2018 09:00:00||ÇALIK HOLDİNG|10.40.24.95|||110000438407|397
06.10.2018 09:00:00||ÇALIK HOLDİNG|10.40.25.96|||110000438407|90
06.10.2018 09:00:00||ÇALIK HOLDİNG|10.40.25.96|||110000438407|92
06.10.2018 09:00:00||ÇALIK HOLDİNG|10.40.25.96|||110000438407|100
06.10.2018 09:00:00||ÇALIK HOLDİNG|10.40.25.96|||110000438407|257
06.10.2018 09:00:00||ÇALIK HOLDİNG|10.40.25.96|||110000438407|260
06.10.2018 09:00:00||ÇALIK HOLDİNG|10.40.25.96|||110000438407|100
06.10.2018 09:00:00||ÇALIK HOLDİNG|10.40.25.96|||110000438407|90
06.10.2018 09:00:00||ÇALIK HOLDİNG|10.40.25.96|||110000438407|92
06.10.2018 09:00:00||ÇALIK HOLDİNG|10.40.25.97|||110000438407|90
06.10.2018 09:00:00||ÇALIK HOLDİNG|10.40.25.97|||110000438407|80
06.10.2018 09:00:00||ÇALIK HOLDİNG|10.40.25.97|||110000438407|292
06.10.2018 09:00:00||ÇALIK HOLDİNG|10.40.25.98|||110000438407|68
06.10.2018 09:00:00||ÇALIK HOLDİNG|10.40.25.98|||110000438407|170
06.10.2018 09:00:00||ÇALIK HOLDİNG|10.40.25.98|||110000438407|160
06.10.2018 09:00:00||ÇALIK HOLDİNG|10.40.25.98|||110000438407|170
06.10.2018 09:00:00||ÇALIK HOLDİNG|10.40.25.98|||110000438407|172
06.10.2018 09:00:00||ÇALIK HOLDİNG|10.40.25.98|||110000438407|70
06.10.2018 09:00:00||ÇALIK HOLDİNG|10.40.25.98|||110000438407|210
06.10.2018 09:00:00||ÇALIK HOLDİNG|10.40.25.98|||110000438407|180
06.10.2018 09:00:00||ÇALIK HOLDİNG|10.40.25.98|||110000438407|170
06.10.2018 09:00:00||ÇALIK HOLDİNG|10.40.25.98|||110000438407|215
06.10.2018 09:00:00||ÇALIK HOLDİNG|10.40.25.98|||110000438407|80
06.10.2018 09:00:00||ÇALIK HOLDİNG|10.40.25.98|||110000438407|307
06.10.2018 09:00:00||ÇALIK HOLDİNG|10.40.24.98|||110000438407|98
06.10.2018 09:00:00||ÇALIK HOLDİNG|10.40.24.98|||110000438407|158
06.10.2018 09:00:00||ÇALIK HOLDİNG|10.40.24.98|||110000438407|200
06.10.2018 09:00:00||ÇALIK HOLDİNG|10.40.24.98|||110000438407|200
06.10.2018 09:00:00||ÇALIK HOLDİNG|10.40.24.98|||110000438407|160
06.10.2018 09:00:00||ÇALIK HOLDİNG|10.40.24.98|||110000438407|32
06.10.2018 09:00:00||ÇALIK HOLDİNG|10.40.24.98|||110000438407|167
06.10.2018 09:00:00||ÇALIK HOLDİNG|10.40.24.98|||110000438407|180
06.10.2018 09:00:00||ÇALIK HOLDİNG|10.40.24.98|||110000438407|173
06.10.2018 09:00:00||ÇALIK HOLDİNG|10.40.24.98|||110000438407|173
06.10.2018 09:00:00||ÇALIK HOLDİNG|10.40.24.98|||110000438407|20
06.10.2018 09:00:00||ÇALIK HOLDİNG|10.40.24.98|||110000438407|270
06.10.2018 09:00:00||ÇALIK HOLDİNG|10.40.25.100|||110000438407|37
06.10.2018 09:00:00||ÇALIK HOLDİNG|10.40.25.100|||110000438407|40
06.10.2018 09:00:00||ÇALIK HOLDİNG|10.40.24.101|||110000438407|60
06.10.2018 09:00:00||ÇALIK HOLDİNG|10.40.24.101|||110000438407|110
06.10.2018 09:00:00||ÇALIK HOLDİNG|10.40.24.101|||110000438407|20
06.10.2018 09:00:00||ÇALIK HOLDİNG|10.40.24.101|||110000438407|20
06.10.2018 09:00:00||ÇALIK HOLDİNG|10.40.24.101|||110000438407|40
06.10.2018 09:00:00||ÇALIK HOLDİNG|10.40.24.101|||110000438407|75
06.10.2018 09:00:00||ÇALIK HOLDİNG|10.40.24.101|||110000438407|30
06.10.2018 09:00:00||ÇALIK HOLDİNG|10.40.24.101|||110000438407|10
06.10.2018 09:00:00||ÇALIK HOLDİNG|10.40.24.101|||110000438407|20
06.10.2018 09:00:00||ÇALIK HOLDİNG|10.40.24.101|||110000438407|50
06.10.2018 09:00:00||ÇALIK HOLDİNG|10.40.24.101|||110000438407|30
06.10.2018 09:00:00||ÇALIK HOLDİNG|10.40.24.101|||110000438407|80
06.10.2018 09:00:00||ÇALIK HOLDİNG|10.40.24.101|||110000438407|80
06.10.2018 09:00:00||ÇALIK HOLDİNG|10.40.24.101|||110000438407|100
06.10.2018 09:00:00||ÇALIK HOLDİNG|10.40.25.102|||110000438407|100
06.10.2018 09:00:00||ÇALIK HOLDİNG|10.40.25.102|||110000438407|100
06.10.2018 09:00:00||ÇALIK HOLDİNG|10.40.25.102|||110000438407|150
06.10.2018 09:00:00||ÇALIK HOLDİNG|10.40.24.102|||110000438407|100
06.10.2018 09:00:00||ÇALIK HOLDİNG|10.40.24.102|||110000438407|100
06.10.2018 09:00:00||ÇALIK HOLDİNG|10.40.24.102|||110000438407|140
06.10.2018 09:00:00||ÇALIK HOLDİNG|10.40.25.103|||110000438407|90
06.10.2018 09:00:00||ÇALIK HOLDİNG|10.40.25.103|||110000438407|80
06.10.2018 09:00:00||ÇALIK HOLDİNG|10.40.25.115|||110000438407|82
06.10.2018 09:00:00||ÇALIK HOLDİNG|10.40.24.103|||110000438407|93
06.10.2018 09:00:00||ÇALIK HOLDİNG|10.40.24.103|||110000438407|80
06.10.2018 09:00:00||ÇALIK HOLDİNG|10.40.24.103|||110000438407|80
06.10.2018 09:00:00||ÇALIK HOLDİNG|10.40.24.103|||110000438407|20
06.10.2018 09:00:00||ÇALIK HOLDİNG|10.40.24.103|||110000438407|20
06.10.2018 09:00:00||ÇALIK HOLDİNG|10.40.25.113|||110000438407|112
06.10.2018 09:00:00||ÇALIK HOLDİNG|10.40.25.113|||110000438407|233
06.10.2018 09:00:00||ÇALIK HOLDİNG|10.40.25.113|||110000438407|182
06.10.2018 09:00:00||ÇALIK HOLDİNG|10.40.25.113|||110000438407|190
06.10.2018 09:00:00||ÇALIK HOLDİNG|10.40.24.113|||110000438407|223
06.10.2018 09:00:00||ÇALIK HOLDİNG|10.40.24.113|||110000438407|220
06.10.2018 09:00:00||ÇALIK HOLDİNG|10.40.24.113|||110000438407|183
06.10.2018 09:00:00||ÇALIK HOLDİNG|10.40.24.113|||110000438407|145
06.10.2018 09:00:00||ÇALIK HOLDİNG|10.40.25.114|||110000438407|180
06.10.2018 09:00:00||ÇALIK HOLDİNG|10.40.25.114|||110000438407|435
06.10.2018 09:00:00||ÇALIK HOLDİNG|10.40.25.114|||110000438407|40
06.10.2018 09:00:00||ÇALIK HOLDİNG|10.40.24.114|||110000438407|20
06.10.2018 09:00:00||ÇALIK HOLDİNG|10.40.24.114|||110000438407|40
06.10.2018 09:00:00||ÇALIK HOLDİNG|10.40.24.114|||110000438407|163
06.10.2018 09:00:00||ÇALIK HOLDİNG|10.40.24.114|||110000438407|383
06.10.2018 09:00:00||ÇALIK HOLDİNG|10.40.24.115|||110000438407|142
06.10.2018 09:00:00||ÇALIK HOLDİNG|10.40.24.115|||110000438407|80
06.10.2018 09:00:00||ÇALIK HOLDİNG|10.40.24.115|||110000438407|90
06.10.2018 09:00:00||ÇALIK HOLDİNG|10.40.24.115|||110000438407|70
06.10.2018 09:00:00||ÇALIK HOLDİNG|10.40.24.115|||110000438407|85
06.10.2018 09:00:00||ÇALIK HOLDİNG|10.40.24.115|||110000438407|70
06.10.2018 09:00:00||ÇALIK HOLDİNG|10.40.25.116|||110000438407|100
06.10.2018 09:00:00||ÇALIK HOLDİNG|10.40.25.116|||110000438407|103
06.10.2018 09:00:00||ÇALIK HOLDİNG|10.40.25.116|||110000438407|292
06.10.2018 09:00:00||ÇALIK HOLDİNG|10.40.24.116|||110000438407|285
06.10.2018 09:00:00||ÇALIK HOLDİNG|10.40.24.116|||110000438407|100
06.10.2018 09:00:00||ÇALIK HOLDİNG|10.40.24.116|||110000438407|100
06.10.2018 09:00:00||ÇALIK HOLDİNG|10.40.25.117|||110000438407|247
06.10.2018 09:00:00||ÇALIK HOLDİNG|10.40.25.117|||110000438407|30
06.10.2018 09:00:00||ÇALIK HOLDİNG|10.40.25.117|||110000438407|27
06.10.2018 09:00:00||ÇALIK HOLDİNG|10.40.25.119|||110000438407|30
06.10.2018 09:00:00||ÇALIK HOLDİNG|10.40.25.119|||110000438407|30
06.10.2018 09:00:00||ÇALIK HOLDİNG|10.40.24.119|||110000438407|150
06.10.2018 09:00:00||ÇALIK HOLDİNG|10.40.24.119|||110000438407|30
06.10.2018 09:00:00||ÇALIK HOLDİNG|10.40.24.119|||110000438407|50
06.10.2018 09:00:00||ÇALIK HOLDİNG|10.40.25.120|||110000438407|107
06.10.2018 09:00:00||ÇALIK HOLDİNG|10.40.25.120|||110000438407|50
06.10.2018 09:00:00||ÇALIK HOLDİNG|10.40.25.120|||110000438407|20
06.10.2018 09:00:00||ÇALIK HOLDİNG|10.40.25.120|||110000438407|30
06.10.2018 09:00:00||ÇALIK HOLDİNG|10.40.25.120|||110000438407|90
06.10.2018 09:00:00||ÇALIK HOLDİNG|10.40.25.120|||110000438407|90
06.10.2018 09:00:00||ÇALIK HOLDİNG|10.40.24.120|||110000438407|20
06.10.2018 09:00:00||ÇALIK HOLDİNG|10.40.24.120|||110000438407|30
06.10.2018 09:00:00||ÇALIK HOLDİNG|10.40.24.120|||110000438407|110
06.10.2018 09:00:00||ÇALIK HOLDİNG|10.40.24.120|||110000438407|10
06.10.2018 09:00:00||ÇALIK HOLDİNG|10.40.24.120|||110000438407|20
06.10.2018 09:00:00||ÇALIK HOLDİNG|10.40.24.120|||110000438407|100
06.10.2018 09:00:00||ÇALIK HOLDİNG|10.40.24.120|||110000438407|40
06.10.2018 09:00:00||ÇALIK HOLDİNG|10.40.24.120|||110000438407|80
06.10.2018 09:00:00||ÇALIK HOLDİNG|10.40.24.120|||110000438407|80
06.10.2018 09:00:00||ÇALIK HOLDİNG|10.40.24.120|||110000438407|70
06.10.2018 09:00:00||ÇALIK HOLDİNG|10.40.25.121|||110000438407|90
06.10.2018 09:00:00||ÇALIK HOLDİNG|10.40.25.121|||110000438407|100
06.10.2018 09:00:00||ÇALIK HOLDİNG|10.40.25.121|||110000438407|140
06.10.2018 09:00:00||ÇALIK HOLDİNG|10.40.24.121|||110000438407|100
06.10.2018 09:00:00||ÇALIK HOLDİNG|10.40.24.121|||110000438407|100
06.10.2018 09:00:00||ÇALIK HOLDİNG|10.40.24.121|||110000438407|150
06.10.2018 09:00:00||ÇALIK HOLDİNG|10.40.25.122|||110000438407|90
06.10.2018 09:00:00||ÇALIK HOLDİNG|10.40.25.122|||110000438407|82
06.10.2018 09:00:00||ÇALIK HOLDİNG|10.40.25.122|||110000438407|80
06.10.2018 09:00:00||ÇALIK HOLDİNG|10.40.24.122|||110000438407|90
06.10.2018 09:00:00||ÇALIK HOLDİNG|10.40.24.122|||110000438407|80
06.10.2018 09:00:00||ÇALIK HOLDİNG|10.40.24.122|||110000438407|88
06.10.2018 09:00:00||ÇALIK HOLDİNG|10.40.24.122|||110000438407|30
06.10.2018 09:00:00||ÇALIK HOLDİNG|10.40.24.122|||110000438407|10
06.10.2018 09:00:00||ÇALIK HOLDİNG|10.40.24.117|||110000438407|200
06.10.2018 09:00:00||ÇALIK HOLDİNG|10.40.24.117|||110000438407|30
06.10.2018 09:00:00||ÇALIK HOLDİNG|10.40.24.117|||110000438407|30
06.10.2018 09:00:00||ÇALIK HOLDİNG|10.40.24.97|||110000438407|98
06.10.2018 09:00:00||ÇALIK HOLDİNG|10.40.24.97|||110000438407|90
06.10.2018 09:00:00||ÇALIK HOLDİNG|10.40.24.97|||110000438407|80
06.10.2018 09:00:00||ÇALIK HOLDİNG|10.40.24.97|||110000438407|90
06.10.2018 09:00:00||ÇALIK HOLDİNG|10.40.24.97|||110000438407|318
06.10.2018 09:00:00||ÇALIK HOLDİNG|10.40.24.100|||110000438407|30
06.10.2018 09:00:00||ÇALIK HOLDİNG|10.40.24.100|||110000438407|40
06.10.2018 09:00:00||FIBABANKA|10.40.27.54|||101571767266|312
06.10.2018 09:00:00||FIBABANKA|10.40.26.54|||101571767266|317
06.10.2018 09:00:00||FIBABANKA|10.40.27.55|||101571767266|111
06.10.2018 09:00:00||FIBABANKA|10.40.26.55|||101571767266|108
06.10.2018 09:00:00||FIBABANKA|10.40.24.55|||101571767266|110
06.10.2018 09:00:00||FIBABANKA|10.40.25.56|||101571767266|197
06.10.2018 09:00:00||FIBABANKA|10.40.25.54|||101571767266|259
06.10.2018 09:00:00||FIBABANKA|10.40.24.54|||101571767266|387
06.10.2018 09:00:00||FIBABANKA|10.40.25.55|||101571767266|112
06.10.2018 09:00:00||FIBABANKA|10.40.24.56|||101571767266|195
06.10.2018 09:00:00||FIBABANKA|10.40.26.53|||101571767266|45
06.10.2018 09:00:00||FIBABANKA|10.40.26.53|||101571767266|147
06.10.2018 09:00:00||FIBABANKA|10.40.25.76|||101571767266|10
06.10.2018 09:00:00||FIBABANKA|10.40.27.53|||101571767266|153
06.10.2018 09:00:00||FIBABANKA|10.40.27.53|||101571767266|168
06.10.2018 09:00:00||FIBABANKA|10.40.26.53|||101571767266|152
06.10.2018 09:00:00||FIBABANKA|10.40.27.57|||101571767266|85
06.10.2018 09:00:00||FIBABANKA|10.40.27.57|||101571767266|80
06.10.2018 09:00:00||FIBABANKA|10.40.27.57|||101571767266|80
06.10.2018 09:00:00||FIBABANKA|10.40.25.57|||101571767266|90
06.10.2018 09:00:00||FIBABANKA|10.40.25.57|||101571767266|90
06.10.2018 09:00:00||FIBABANKA|10.40.25.57|||101571767266|90
06.10.2018 09:00:00||FIBABANKA|10.40.26.51|||101571767266|20
06.10.2018 09:00:00||FIBABANKA|10.40.27.52|||101571767266|50
06.10.2018 09:00:00||FIBABANKA|10.40.27.52|||101571767266|60
06.10.2018 09:00:00||FIBABANKA|10.40.27.52|||101571767266|70
06.10.2018 09:00:00||FIBABANKA|10.40.27.74|||101571767266|163
06.10.2018 09:00:00||FIBABANKA|10.40.25.53|||101571767266|33
06.10.2018 09:00:00||FIBABANKA|10.40.25.53|||101571767266|48
06.10.2018 09:00:00||FIBABANKA|10.40.27.53|||101571767266|60
06.10.2018 09:00:00||FIBABANKA|10.40.26.53|||101571767266|60
06.10.2018 09:00:00||FIBABANKA|10.40.25.51|||101571767266|20
06.10.2018 09:00:00||FIBABANKA|10.40.25.51|||101571767266|110
06.10.2018 09:00:00||FIBABANKA|10.40.24.51|||101571767266|20
06.10.2018 09:00:00||FIBABANKA|10.40.24.51|||101571767266|70
06.10.2018 09:00:00||FIBABANKA|10.40.24.51|||101571767266|110
06.10.2018 09:00:00||FIBABANKA|10.40.24.51|||101571767266|145
06.10.2018 09:00:00||FIBABANKA|10.40.24.51|||101571767266|30
06.10.2018 09:00:00||FIBABANKA|10.40.24.57|||101571767266|90
06.10.2018 09:00:00||FIBABANKA|10.40.24.57|||101571767266|80
06.10.2018 09:00:00||FIBABANKA|10.40.24.57|||101571767266|80
06.10.2018 09:00:00||FIBABANKA|10.40.24.52|||101571767266|10
06.10.2018 09:00:00||FIBABANKA|10.40.26.73|||101571767266|40
06.10.2018 09:00:00||FIBABANKA|10.40.27.53|||101571767266|63
06.10.2018 09:00:00||FIBABANKA|10.40.26.51|||101571767266|70
06.10.2018 09:00:00||FIBABANKA|10.40.26.52|||101571767266|30
06.10.2018 09:00:00||FIBABANKA|10.40.26.52|||101571767266|90
06.10.2018 09:00:00||FIBABANKA|10.40.26.52|||101571767266|30
06.10.2018 09:00:00||FIBABANKA|10.40.25.51|||101571767266|130
06.10.2018 09:00:00||FIBABANKA|10.40.25.51|||101571767266|40
06.10.2018 09:00:00||FIBABANKA|10.40.25.51|||101571767266|40
06.10.2018 09:00:00||FIBABANKA|10.40.25.51|||101571767266|72
06.10.2018 09:00:00||FIBABANKA|10.40.24.51|||101571767266|30
06.10.2018 09:00:00||FIBABANKA|10.40.25.59|||101571767266|70
06.10.2018 09:00:00||FIBABANKA|10.40.25.59|||101571767266|90
06.10.2018 09:00:00||FIBABANKA|10.40.25.59|||101571767266|100
06.10.2018 09:00:00||FIBABANKA|10.40.25.59|||101571767266|40
06.10.2018 09:00:00||FIBABANKA|10.40.25.59|||101571767266|127
06.10.2018 09:00:00||FIBABANKA|10.40.25.59|||101571767266|60
06.10.2018 09:00:00||FIBABANKA|10.40.25.59|||101571767266|50
06.10.2018 09:00:00||FIBABANKA|10.40.25.59|||101571767266|173
06.10.2018 09:00:00||FIBABANKA|10.40.25.59|||101571767266|62
06.10.2018 09:00:00||FIBABANKA|10.40.24.59|||101571767266|70
06.10.2018 09:00:00||FIBABANKA|10.40.24.59|||101571767266|120
06.10.2018 09:00:00||FIBABANKA|10.40.24.59|||101571767266|80
06.10.2018 09:00:00||FIBABANKA|10.40.24.59|||101571767266|50
06.10.2018 09:00:00||FIBABANKA|10.40.24.59|||101571767266|130
06.10.2018 09:00:00||FIBABANKA|10.40.24.59|||101571767266|70
06.10.2018 09:00:00||FIBABANKA|10.40.24.59|||101571767266|60
06.10.2018 09:00:00||FIBABANKA|10.40.24.59|||101571767266|163
06.10.2018 09:00:00||FIBABANKA|10.40.24.59|||101571767266|70
06.10.2018 09:00:00||FIBABANKA|10.40.25.60|||101571767266|120
06.10.2018 09:00:00||FIBABANKA|10.40.25.60|||101571767266|30
06.10.2018 09:00:00||FIBABANKA|10.40.25.60|||101571767266|110
06.10.2018 09:00:00||FIBABANKA|10.40.25.60|||101571767266|40
06.10.2018 09:00:00||FIBABANKA|10.40.24.60|||101571767266|127
06.10.2018 09:00:00||FIBABANKA|10.40.24.60|||101571767266|52
06.10.2018 09:00:00||FIBABANKA|10.40.24.60|||101571767266|40
06.10.2018 09:00:00||FIBABANKA|10.40.24.60|||101571767266|100
06.10.2018 09:00:00||FIBABANKA|10.40.24.60|||101571767266|60
06.10.2018 09:00:00||FIBABANKA|10.40.25.72|||101571767266|70
06.10.2018 09:00:00||FIBABANKA|10.40.25.72|||101571767266|40
06.10.2018 09:00:00||FIBABANKA|10.40.25.72|||101571767266|30
06.10.2018 09:00:00||FIBABANKA|10.40.24.72|||101571767266|140
06.10.2018 09:00:00||FIBABANKA|10.40.24.72|||101571767266|73
06.10.2018 09:00:00||FIBABANKA|10.40.24.72|||101571767266|30
06.10.2018 09:00:00||FIBABANKA|10.40.24.72|||101571767266|40
06.10.2018 09:00:00||FIBABANKA|10.40.25.74|||101571767266|40
06.10.2018 09:00:00||FIBABANKA|10.40.25.74|||101571767266|30
06.10.2018 09:00:00||FIBABANKA|10.40.25.74|||101571767266|40
06.10.2018 09:00:00||FIBABANKA|10.40.25.74|||101571767266|40
06.10.2018 09:00:00||FIBABANKA|10.40.25.74|||101571767266|40
06.10.2018 09:00:00||FIBABANKA|10.40.25.75|||101571767266|2
06.10.2018 09:00:00||FIBABANKA|10.40.25.75|||101571767266|135
06.10.2018 09:00:00||FIBABANKA|10.40.25.75|||101571767266|157
06.10.2018 09:00:00||FIBABANKA|10.40.25.75|||101571767266|165
06.10.2018 09:00:00||FIBABANKA|10.40.25.75|||101571767266|190
06.10.2018 09:00:00||FIBABANKA|10.40.24.75|||101571767266|148
06.10.2018 09:00:00||FIBABANKA|10.40.24.75|||101571767266|142
06.10.2018 09:00:00||FIBABANKA|10.40.24.76|||101571767266|38
06.10.2018 09:00:00||FIBABANKA|10.40.24.76|||101571767266|68
06.10.2018 09:00:00||FIBABANKA|10.40.24.76|||101571767266|10
06.10.2018 09:00:00||FIBABANKA|10.40.24.53|||101571767266|30
06.10.2018 09:00:00||FIBABANKA|10.40.24.53|||101571767266|60
06.10.2018 09:00:00||FIBABANKA|10.40.26.57|||101571767266|90
06.10.2018 09:00:00||FIBABANKA|10.40.26.57|||101571767266|83
06.10.2018 09:00:00||FIBABANKA|10.40.26.57|||101571767266|80
06.10.2018 09:00:00||FIBABANKA|10.40.27.72|||101571767266|50
06.10.2018 09:00:00||FIBABANKA|10.40.27.72|||101571767266|40
06.10.2018 09:00:00||FIBABANKA|10.40.27.72|||101571767266|130
06.10.2018 09:00:00||FIBABANKA|10.40.27.72|||101571767266|60
06.10.2018 09:00:00||FIBABANKA|10.40.27.72|||101571767266|32
06.10.2018 09:00:00||FIBABANKA|10.40.26.72|||101571767266|30
06.10.2018 09:00:00||FIBABANKA|10.40.26.72|||101571767266|150
06.10.2018 09:00:00||FIBABANKA|10.40.26.72|||101571767266|70
06.10.2018 09:00:00||FIBABANKA|10.40.26.72|||101571767266|30
06.10.2018 09:00:00||FIBABANKA|10.40.27.73|||101571767266|30
06.10.2018 09:00:00||FIBABANKA|10.40.27.73|||101571767266|100
06.10.2018 09:00:00||FIBABANKA|10.40.27.73|||101571767266|30
06.10.2018 09:00:00||FIBABANKA|10.40.27.73|||101571767266|20
06.10.2018 09:00:00||FIBABANKA|10.40.27.73|||101571767266|40
06.10.2018 09:00:00||FIBABANKA|10.40.27.73|||101571767266|40
06.10.2018 09:00:00||FIBABANKA|10.40.27.73|||101571767266|42
06.10.2018 09:00:00||FIBABANKA|10.40.27.73|||101571767266|40
06.10.2018 09:00:00||FIBABANKA|10.40.26.73|||101571767266|40
06.10.2018 09:00:00||FIBABANKA|10.40.26.73|||101571767266|70
06.10.2018 09:00:00||FIBABANKA|10.40.26.73|||101571767266|30
06.10.2018 09:00:00||FIBABANKA|10.40.27.74|||101571767266|73
06.10.2018 09:00:00||FIBABANKA|10.40.27.74|||101571767266|142
06.10.2018 09:00:00||FIBABANKA|10.40.27.74|||101571767266|162
06.10.2018 09:00:00||FIBABANKA|10.40.26.74|||101571767266|72
06.10.2018 09:00:00||FIBABANKA|10.40.26.74|||101571767266|172
06.10.2018 09:00:00||FIBABANKA|10.40.26.74|||101571767266|167
06.10.2018 09:00:00||FIBABANKA|10.40.26.74|||101571767266|163
06.10.2018 09:00:00||FIBABANKA|10.40.27.75|||101571767266|10
06.10.2018 09:00:00||FIBABANKA|10.40.27.75|||101571767266|10
06.10.2018 09:00:00||FIBABANKA|10.40.26.79|||101571767266|10
06.10.2018 09:00:00||FIBABANKA|10.40.27.79|||101571767266|10
06.10.2018 09:00:00||FIBABANKA|10.40.26.79|||101571767266|10
06.10.2018 09:00:00||FIBABANKA|10.40.27.77|||101571767266|163
06.10.2018 09:00:00||FIBABANKA|10.40.26.77|||101571767266|183
06.10.2018 09:00:00||FIBABANKA|10.40.27.77|||101571767266|162
06.10.2018 09:00:00||FIBABANKA|10.40.24.75|||101571767266|168
06.10.2018 09:00:00||FIBABANKA|10.40.24.53|||101571767266|170
06.10.2018 09:00:00||FIBABANKA|10.40.24.53|||101571767266|180
06.10.2018 09:00:00||FIBABANKA|10.40.25.52|||101571767266|10
06.10.2018 09:00:00||FIBABANKA|10.40.25.52|||101571767266|63
06.10.2018 09:00:00||FIBABANKA|10.40.25.53|||101571767266|168
06.10.2018 09:00:00||FIBABANKA|10.40.25.53|||101571767266|155
06.10.2018 09:00:00||FIBABANKA|10.40.27.51|||101571767266|30
06.10.2018 09:00:00||FIBABANKA|10.40.27.51|||101571767266|20
06.10.2018 09:00:00||FIBABANKA|10.40.27.51|||101571767266|100
06.10.2018 09:00:00||FIBABANKA|10.40.27.51|||101571767266|130
06.10.2018 09:00:00||FIBABANKA|10.40.27.51|||101571767266|70
06.10.2018 09:00:00||FIBABANKA|10.40.27.51|||101571767266|37
06.10.2018 09:00:00||FIBABANKA|10.40.27.51|||101571767266|40
06.10.2018 09:00:00||FIBABANKA|10.40.26.51|||101571767266|10
06.10.2018 09:00:00||FIBABANKA|10.40.26.51|||101571767266|110
06.10.2018 09:00:00||FIBABANKA|10.40.26.51|||101571767266|133
06.10.2018 09:00:00||FIBABANKA|10.40.26.51|||101571767266|30
06.10.2018 09:00:00||FIBABANKA|10.40.26.51|||101571767266|30
06.10.2018 09:00:00||FIBABANKA|10.40.24.74|||101571767266|30
06.10.2018 09:00:00||FIBABANKA|10.40.24.74|||101571767266|30
06.10.2018 09:00:00||FIBABANKA|10.40.25.76|||101571767266|60
06.10.2018 09:00:00||FIBABANKA|10.40.25.76|||101571767266|40
06.10.2018 09:00:00||FIBABANKA|10.40.25.76|||101571767266|10
06.10.2018 09:00:00||HAVAŞ|10.40.24.46|||110000479675|10
06.10.2018 09:00:00||HAVAŞ|10.40.24.48|||110000479675|755
06.10.2018 09:00:00||HAVAŞ|10.40.24.48|||110000479675|752
06.10.2018 09:00:00||HAVAŞ|10.40.25.48|||110000479675|735
06.10.2018 09:00:00||HAVAŞ|10.40.24.45|||110000479675|125
06.10.2018 09:00:00||HAVAŞ|10.40.25.45|||110000479675|65
06.10.2018 09:00:00||HAVAŞ|10.40.25.47|||110000479675|70
06.10.2018 09:00:00||HAVAŞ|10.40.24.46|||110000479675|80
06.10.2018 09:00:00||HAVAŞ|10.40.24.47|||110000479675|30
06.10.2018 09:00:00||HAVAŞ|10.40.24.47|||110000479675|90
06.10.2018 09:00:00||HAVAŞ|10.40.24.47|||110000479675|90
06.10.2018 09:00:00||HAVAŞ|10.40.25.46|||110000479675|10
06.10.2018 09:00:00||HAVAŞ|10.40.25.46|||110000479675|60
06.10.2018 09:00:00||HAVAŞ|10.40.24.48|||110000479675|752
06.10.2018 09:00:00||HAVAŞ|10.40.24.46|||110000479675|60
06.10.2018 09:00:00||HAVAŞ|10.40.24.46|||110000479675|70
06.10.2018 09:00:00||HAVAŞ|10.40.24.47|||110000479675|135
06.10.2018 09:00:00||HAVAŞ|10.40.25.48|||110000479675|747
06.10.2018 09:00:00||HAVAŞ|10.40.25.48|||110000479675|773
06.10.2018 09:00:00||HAVAŞ|10.40.25.45|||110000479675|97
06.10.2018 09:00:00||HAVAŞ|10.40.24.45|||110000479675|53
06.10.2018 09:00:00||HAVAŞ|10.40.24.45|||110000479675|168
06.10.2018 09:00:00||HAVAŞ|10.40.24.45|||110000479675|93
06.10.2018 09:00:00||HAVAŞ|10.40.25.47|||110000479675|70
06.10.2018 09:00:00||HAVAŞ|10.40.25.47|||110000479675|223
06.10.2018 09:00:00||HAVAŞ|10.40.25.47|||110000479675|58
06.10.2018 09:00:00||HAVAŞ|10.40.25.47|||110000479675|88
06.10.2018 09:00:00||HAVAŞ|10.40.25.47|||110000479675|90
06.10.2018 09:00:00||HAVAŞ|10.40.25.47|||110000479675|90
06.10.2018 09:00:00||HAVAŞ|10.40.25.47|||110000479675|10
06.10.2018 09:00:00||HAVAŞ|10.40.25.47|||110000479675|178
06.10.2018 09:00:00||HAVAŞ|10.40.25.47|||110000479675|90
06.10.2018 09:00:00||HAVAŞ|10.40.25.47|||110000479675|90
06.10.2018 09:00:00||HAVAŞ|10.40.25.47|||110000479675|90
06.10.2018 09:00:00||HAVAŞ|10.40.25.45|||110000479675|127
06.10.2018 09:00:00||HAVAŞ|10.40.25.45|||110000479675|83
06.10.2018 09:00:00||HAVAŞ|10.40.25.46|||110000479675|10
06.10.2018 09:00:00||HAVAŞ|10.40.25.46|||110000479675|10
06.10.2018 09:00:00||HAVAŞ|10.40.25.46|||110000479675|20
06.10.2018 09:00:00||HAVAŞ|10.40.25.46|||110000479675|20
06.10.2018 09:00:00||HAVAŞ|10.40.25.46|||110000479675|50
06.10.2018 09:00:00||HAVAŞ|10.40.25.46|||110000479675|100
06.10.2018 09:00:00||HAVAŞ|10.40.25.46|||110000479675|58
06.10.2018 09:00:00||HAVAŞ|10.40.25.46|||110000479675|70
06.10.2018 09:00:00||HAVAŞ|10.40.25.46|||110000479675|70
06.10.2018 09:00:00||HAVAŞ|10.40.24.46|||110000479675|20
06.10.2018 09:00:00||HAVAŞ|10.40.24.46|||110000479675|20
06.10.2018 09:00:00||HAVAŞ|10.40.24.46|||110000479675|7
06.10.2018 09:00:00||HAVAŞ|10.40.24.46|||110000479675|10
06.10.2018 09:00:00||HAVAŞ|10.40.24.46|||110000479675|10
06.10.2018 09:00:00||HAVAŞ|10.40.24.46|||110000479675|10
06.10.2018 09:00:00||HAVAŞ|10.40.24.46|||110000479675|60
06.10.2018 09:00:00||HAVAŞ|10.40.24.46|||110000479675|110
06.10.2018 09:00:00||HAVAŞ|10.40.24.47|||110000479675|30
06.10.2018 09:00:00||HAVAŞ|10.40.24.47|||110000479675|215
06.10.2018 09:00:00||HAVAŞ|10.40.24.47|||110000479675|60
06.10.2018 09:00:00||HAVAŞ|10.40.24.47|||110000479675|58
06.10.2018 09:00:00||HAVAŞ|10.40.24.47|||110000479675|157
06.10.2018 09:00:00||HAVAŞ|10.40.24.47|||110000479675|100
06.10.2018 09:00:00||HAVAŞ|10.40.24.47|||110000479675|100
06.10.2018 09:00:00||MARS CINEMA|10.40.24.203|||110000472614|107
06.10.2018 09:00:00||MARS CINEMA|10.40.24.204|||110000472614|40
06.10.2018 09:00:00||MARS CINEMA|10.40.24.203|||110000472614|75
06.10.2018 09:00:00||MARS CINEMA|10.40.24.203|||110000472614|162
06.10.2018 09:00:00||MARS CINEMA|10.40.24.203|||110000472614|80
06.10.2018 09:00:00||MARS CINEMA|10.40.24.204|||110000472614|68
06.10.2018 09:00:00||MARS CINEMA|10.40.24.203|||110000472614|102
06.10.2018 09:00:00||MARS CINEMA|10.40.24.204|||110000472614|20
06.10.2018 09:00:00||MARS CINEMA|10.40.24.204|||110000472614|87
06.10.2018 09:00:00||MARS CINEMA|10.40.25.203|||110000472614|140
06.10.2018 09:00:00||MARS CINEMA|10.40.25.203|||110000472614|87
06.10.2018 09:00:00||MARS CINEMA|10.40.25.203|||110000472614|177
06.10.2018 09:00:00||MARS CINEMA|10.40.25.203|||110000472614|93
06.10.2018 09:00:00||MARS CINEMA|10.40.25.203|||110000472614|82
06.10.2018 09:00:00||MARS CINEMA|10.40.25.203|||110000472614|110
06.10.2018 09:00:00||MARS CINEMA|10.40.25.203|||110000472614|120
06.10.2018 09:00:00||MARS CINEMA|10.40.25.203|||110000472614|145
06.10.2018 09:00:00||MARS CINEMA|10.40.25.203|||110000472614|93
06.10.2018 09:00:00||MARS CINEMA|10.40.25.203|||110000472614|92
06.10.2018 09:00:00||MARS CINEMA|10.40.25.203|||110000472614|62
06.10.2018 09:00:00||MARS CINEMA|10.40.25.203|||110000472614|185
06.10.2018 09:00:00||MARS CINEMA|10.40.25.204|||110000472614|110
06.10.2018 09:00:00||MARS CINEMA|10.40.25.204|||110000472614|70
06.10.2018 09:00:00||MARS CINEMA|10.40.25.204|||110000472614|80
06.10.2018 09:00:00||MARS CINEMA|10.40.25.204|||110000472614|100
06.10.2018 09:00:00||MARS CINEMA|10.40.25.204|||110000472614|20
06.10.2018 09:00:00||MARS CINEMA|10.40.25.204|||110000472614|20
06.10.2018 09:00:00||MARS CINEMA|10.40.25.204|||110000472614|30
06.10.2018 09:00:00||MARS CINEMA|10.40.25.204|||110000472614|40
06.10.2018 09:00:00||MARS CINEMA|10.40.25.204|||110000472614|90
06.10.2018 09:00:00||MARS CINEMA|10.40.25.204|||110000472614|120
06.10.2018 09:00:00||MARS CINEMA|10.40.25.204|||110000472614|80
06.10.2018 09:00:00||MARS CINEMA|10.40.25.204|||110000472614|80
06.10.2018 09:00:00||MARS CINEMA|10.40.25.204|||110000472614|110
06.10.2018 09:00:00||MARS CINEMA|10.40.25.204|||110000472614|100
06.10.2018 09:00:00||MARS CINEMA|10.40.24.203|||110000472614|78
06.10.2018 09:00:00||MARS CINEMA|10.40.24.203|||110000472614|92
06.10.2018 09:00:00||MARS CINEMA|10.40.24.203|||110000472614|142
06.10.2018 09:00:00||MARS CINEMA|10.40.24.203|||110000472614|153
06.10.2018 09:00:00||MARS CINEMA|10.40.24.203|||110000472614|165
06.10.2018 09:00:00||MARS CINEMA|10.40.24.203|||110000472614|100
06.10.2018 09:00:00||MARS CINEMA|10.40.24.203|||110000472614|187
06.10.2018 09:00:00||MARS CINEMA|10.40.24.204|||110000472614|110
06.10.2018 09:00:00||MARS CINEMA|10.40.24.204|||110000472614|92
06.10.2018 09:00:00||MARS CINEMA|10.40.24.204|||110000472614|92
06.10.2018 09:00:00||MARS CINEMA|10.40.24.204|||110000472614|20
06.10.2018 09:00:00||MARS CINEMA|10.40.24.204|||110000472614|10
06.10.2018 09:00:00||MARS CINEMA|10.40.24.204|||110000472614|90
06.10.2018 09:00:00||MARS CINEMA|10.40.24.204|||110000472614|118
06.10.2018 09:00:00||MARS CINEMA|10.40.24.204|||110000472614|90
06.10.2018 09:00:00||MARS CINEMA|10.40.24.204|||110000472614|107
06.10.2018 09:00:00||MARS CINEMA|10.40.24.204|||110000472614|80
06.10.2018 09:00:00||MARS CINEMA|10.40.25.206|||110000472614|40
06.10.2018 09:00:00||MARS CINEMA|10.40.25.206|||110000472614|40
06.10.2018 09:00:00||MARS CINEMA|10.40.25.206|||110000472614|40
06.10.2018 09:00:00||MARS CINEMA|10.40.25.206|||110000472614|20
06.10.2018 09:00:00||MARS CINEMA|10.40.25.206|||110000472614|20
06.10.2018 09:00:00||MARS CINEMA|10.40.25.206|||110000472614|30
06.10.2018 09:00:00||MARS CINEMA|10.40.25.206|||110000472614|60
06.10.2018 09:00:00||MARS CINEMA|10.40.25.206|||110000472614|40
06.10.2018 09:00:00||MARS CINEMA|10.40.25.206|||110000472614|80
06.10.2018 09:00:00||MARS CINEMA|10.40.25.206|||110000472614|80
06.10.2018 09:00:00||MARS CINEMA|10.40.24.206|||110000472614|40
06.10.2018 09:00:00||MARS CINEMA|10.40.24.206|||110000472614|40
06.10.2018 09:00:00||MARS CINEMA|10.40.24.206|||110000472614|42
06.10.2018 09:00:00||MARS CINEMA|10.40.24.206|||110000472614|30
06.10.2018 09:00:00||MARS CINEMA|10.40.24.206|||110000472614|30
06.10.2018 09:00:00||MARS CINEMA|10.40.24.206|||110000472614|30
06.10.2018 09:00:00||MARS CINEMA|10.40.24.206|||110000472614|202
06.10.2018 09:00:00||MARS CINEMA|10.40.24.206|||110000472614|122
06.10.2018 09:00:00||MARS CINEMA|10.40.24.206|||110000472614|20
06.10.2018 09:00:00||MARS CINEMA|10.40.24.206|||110000472614|88
06.10.2018 09:00:00||MARS CINEMA|10.40.24.206|||110000472614|80
06.10.2018 09:00:00||PEGASUS|10.40.26.85|||110000423831|121
06.10.2018 09:00:00||PEGASUS|10.40.27.66|||110000423831|99
06.10.2018 09:00:00||PEGASUS|10.40.26.66|||110000423831|107
06.10.2018 09:00:00||PEGASUS|10.40.26.84|||110000423831|218
06.10.2018 09:00:00||PEGASUS|10.40.27.85|||110000423831|116
06.10.2018 09:00:00||PEGASUS|10.40.27.67|||110000423831|340
06.10.2018 09:00:00||PEGASUS|10.40.27.67|||110000423831|40
06.10.2018 09:00:00||PEGASUS|10.40.26.62|||110000423831|10
06.10.2018 09:00:00||PEGASUS|10.40.26.62|||110000423831|193
06.10.2018 09:00:00||PEGASUS|10.40.26.63|||110000423831|70
06.10.2018 09:00:00||PEGASUS|10.40.26.63|||110000423831|30
06.10.2018 09:00:00||PEGASUS|10.40.26.63|||110000423831|60
06.10.2018 09:00:00||PEGASUS|10.40.26.63|||110000423831|23
06.10.2018 09:00:00||PEGASUS|10.40.26.63|||110000423831|235
06.10.2018 09:00:00||PEGASUS|10.40.26.63|||110000423831|140
06.10.2018 09:00:00||PEGASUS|10.40.26.63|||110000423831|63
06.10.2018 09:00:00||PEGASUS|10.40.26.67|||110000423831|170
06.10.2018 09:00:00||PEGASUS|10.40.27.68|||110000423831|90
06.10.2018 09:00:00||PEGASUS|10.40.27.68|||110000423831|83
06.10.2018 09:00:00||PEGASUS|10.40.27.68|||110000423831|90
06.10.2018 09:00:00||PEGASUS|10.40.27.68|||110000423831|50
06.10.2018 09:00:00||PEGASUS|10.40.26.68|||110000423831|90
06.10.2018 09:00:00||PEGASUS|10.40.26.68|||110000423831|90
06.10.2018 09:00:00||PEGASUS|10.40.26.68|||110000423831|50
06.10.2018 09:00:00||PEGASUS|10.40.27.63|||110000423831|43
06.10.2018 09:00:00||PEGASUS|10.40.27.86|||110000423831|340
06.10.2018 09:00:00||PEGASUS|10.40.27.63|||110000423831|50
06.10.2018 09:00:00||PEGASUS|10.40.27.63|||110000423831|60
06.10.2018 09:00:00||PEGASUS|10.40.27.64|||110000423831|70
06.10.2018 09:00:00||PEGASUS|10.40.27.64|||110000423831|70
06.10.2018 09:00:00||PEGASUS|10.40.27.63|||110000423831|58
06.10.2018 09:00:00||PEGASUS|10.40.27.63|||110000423831|70
06.10.2018 09:00:00||PEGASUS|10.40.27.63|||110000423831|90
06.10.2018 09:00:00||PEGASUS|10.40.26.63|||110000423831|110
06.10.2018 09:00:00||PEGASUS|10.40.27.67|||110000423831|362
06.10.2018 09:00:00||PEGASUS|10.40.27.64|||110000423831|260
06.10.2018 09:00:00||PEGASUS|10.40.27.64|||110000423831|265
06.10.2018 09:00:00||PEGASUS|10.40.27.63|||110000423831|72
06.10.2018 09:00:00||PEGASUS|10.40.27.63|||110000423831|72
06.10.2018 09:00:00||PEGASUS|10.40.27.63|||110000423831|80
06.10.2018 09:00:00||PEGASUS|10.40.26.63|||110000423831|110
06.10.2018 09:00:00||PEGASUS|10.40.26.63|||110000423831|288
06.10.2018 09:00:00||PEGASUS|10.40.27.81|||110000423831|468
06.10.2018 09:00:00||PEGASUS|10.40.27.81|||110000423831|375
06.10.2018 09:00:00||PEGASUS|10.40.26.63|||110000423831|90
06.10.2018 09:00:00||PEGASUS|10.40.26.63|||110000423831|43
06.10.2018 09:00:00||PEGASUS|10.40.26.67|||110000423831|30
06.10.2018 09:00:00||PEGASUS|10.40.26.67|||110000423831|340
06.10.2018 09:00:00||PEGASUS|10.40.26.67|||110000423831|60
06.10.2018 09:00:00||PEGASUS|10.40.26.67|||110000423831|40
06.10.2018 09:00:00||PEGASUS|10.40.26.67|||110000423831|70
06.10.2018 09:00:00||PEGASUS|10.40.26.68|||110000423831|100
06.10.2018 09:00:00||PEGASUS|10.40.27.64|||110000423831|278
06.10.2018 09:00:00||PEGASUS|10.40.27.64|||110000423831|258
06.10.2018 09:00:00||PEGASUS|10.40.27.64|||110000423831|285
06.10.2018 09:00:00||PEGASUS|10.40.27.64|||110000423831|260
06.10.2018 09:00:00||PEGASUS|10.40.27.64|||110000423831|267
06.10.2018 09:00:00||PEGASUS|10.40.27.86|||110000423831|340
06.10.2018 09:00:00||PEGASUS|10.40.27.63|||110000423831|90
06.10.2018 09:00:00||PEGASUS|10.40.26.63|||110000423831|130
06.10.2018 09:00:00||PEGASUS|10.40.26.63|||110000423831|60
06.10.2018 09:00:00||PEGASUS|10.40.26.63|||110000423831|93
06.10.2018 09:00:00||PEGASUS|10.40.26.67|||110000423831|340
06.10.2018 09:00:00||PEGASUS|10.40.27.63|||110000423831|22402
06.10.2018 09:00:00||PEGASUS|10.40.27.63|||110000423831|60
06.10.2018 09:00:00||PEGASUS|10.40.27.81|||110000423831|440
06.10.2018 09:00:00||PEGASUS|10.40.26.62|||110000423831|90
06.10.2018 09:00:00||PEGASUS|10.40.26.63|||110000423831|50
06.10.2018 09:00:00||PEGASUS|10.40.26.63|||110000423831|93
06.10.2018 09:00:00||PEGASUS|10.40.26.63|||110000423831|40
06.10.2018 09:00:00||PEGASUS|10.40.26.63|||110000423831|52
06.10.2018 09:00:00||PEGASUS|10.40.26.67|||110000423831|340
06.10.2018 09:00:00||PEGASUS|10.40.27.64|||110000423831|268
06.10.2018 09:00:00||PEGASUS|10.40.27.64|||110000423831|268
06.10.2018 09:00:00||PEGASUS|10.40.27.64|||110000423831|262
06.10.2018 09:00:00||PEGASUS|10.40.27.64|||110000423831|303
06.10.2018 09:00:00||PEGASUS|10.40.27.64|||110000423831|307
06.10.2018 09:00:00||PEGASUS|10.40.27.86|||110000423831|40
06.10.2018 09:00:00||PEGASUS|10.40.27.63|||110000423831|72
06.10.2018 09:00:00||PEGASUS|10.40.27.63|||110000423831|82
06.10.2018 09:00:00||PEGASUS|10.40.27.63|||110000423831|78
06.10.2018 09:00:00||PEGASUS|10.40.27.63|||110000423831|220
06.10.2018 09:00:00||PEGASUS|10.40.27.63|||110000423831|55
06.10.2018 09:00:00||PEGASUS|10.40.26.64|||110000423831|80
06.10.2018 09:00:00||PEGASUS|10.40.26.64|||110000423831|80
06.10.2018 09:00:00||PEGASUS|10.40.26.82|||110000423831|210
06.10.2018 09:00:00||PEGASUS|10.40.26.82|||110000423831|110
06.10.2018 09:00:00||PEGASUS|10.40.26.82|||110000423831|80
06.10.2018 09:00:00||PEGASUS|10.40.26.82|||110000423831|150
06.10.2018 09:00:00||PEGASUS|10.40.26.82|||110000423831|140
06.10.2018 09:00:00||PEGASUS|10.40.26.82|||110000423831|140
06.10.2018 09:00:00||PEGASUS|10.40.26.82|||110000423831|180
06.10.2018 09:00:00||PEGASUS|10.40.26.82|||110000423831|30
06.10.2018 09:00:00||PEGASUS|10.40.26.82|||110000423831|40
06.10.2018 09:00:00||PEGASUS|10.40.26.82|||110000423831|20
06.10.2018 09:00:00||PEGASUS|10.40.26.82|||110000423831|70
06.10.2018 09:00:00||PEGASUS|10.40.26.82|||110000423831|50
06.10.2018 09:00:00||PEGASUS|10.40.26.82|||110000423831|40
06.10.2018 09:00:00||PEGASUS|10.40.27.83|||110000423831|572
06.10.2018 09:00:00||PEGASUS|10.40.27.83|||110000423831|70
06.10.2018 09:00:00||PEGASUS|10.40.27.83|||110000423831|503
06.10.2018 09:00:00||PEGASUS|10.40.27.83|||110000423831|97
06.10.2018 09:00:00||PEGASUS|10.40.27.83|||110000423831|150
06.10.2018 09:00:00||PEGASUS|10.40.27.83|||110000423831|80
06.10.2018 09:00:00||PEGASUS|10.40.27.83|||110000423831|488
06.10.2018 09:00:00||PEGASUS|10.40.27.83|||110000423831|70
06.10.2018 09:00:00||PEGASUS|10.40.26.83|||110000423831|525
06.10.2018 09:00:00||PEGASUS|10.40.26.83|||110000423831|50
06.10.2018 09:00:00||PEGASUS|10.40.26.83|||110000423831|400
06.10.2018 09:00:00||PEGASUS|10.40.26.83|||110000423831|150
06.10.2018 09:00:00||PEGASUS|10.40.26.83|||110000423831|102
06.10.2018 09:00:00||PEGASUS|10.40.26.83|||110000423831|525
06.10.2018 09:00:00||PEGASUS|10.40.26.83|||110000423831|108
06.10.2018 09:00:00||PEGASUS|10.40.26.83|||110000423831|548
06.10.2018 09:00:00||PEGASUS|10.40.26.86|||110000423831|360
06.10.2018 09:00:00||PEGASUS|10.40.26.86|||110000423831|138
06.10.2018 09:00:00||PEGASUS|10.40.26.86|||110000423831|350
06.10.2018 09:00:00||PEGASUS|10.40.26.86|||110000423831|50
06.10.2018 09:00:00||PEGASUS|10.40.26.86|||110000423831|30
06.10.2018 09:00:00||PEGASUS|10.40.26.86|||110000423831|350
06.10.2018 09:00:00||PEGASUS|10.40.26.86|||110000423831|40
06.10.2018 09:00:00||PEGASUS|10.40.26.86|||110000423831|50
06.10.2018 09:00:00||PEGASUS|10.40.27.87|||110000423831|90
06.10.2018 09:00:00||PEGASUS|10.40.27.87|||110000423831|90
06.10.2018 09:00:00||PEGASUS|10.40.27.87|||110000423831|90
06.10.2018 09:00:00||PEGASUS|10.40.27.87|||110000423831|20
06.10.2018 09:00:00||PEGASUS|10.40.26.87|||110000423831|90
06.10.2018 09:00:00||PEGASUS|10.40.26.87|||110000423831|90
06.10.2018 09:00:00||PEGASUS|10.40.26.87|||110000423831|90
06.10.2018 09:00:00||PEGASUS|10.40.26.87|||110000423831|20
06.10.2018 09:00:00||PEGASUS|10.40.26.81|||110000423831|412
06.10.2018 09:00:00||PEGASUS|10.40.26.81|||110000423831|425
06.10.2018 09:00:00||PEGASUS|10.40.26.81|||110000423831|435
06.10.2018 09:00:00||PEGASUS|10.40.27.82|||110000423831|220
06.10.2018 09:00:00||PEGASUS|10.40.27.82|||110000423831|30
06.10.2018 09:00:00||PEGASUS|10.40.27.82|||110000423831|100
06.10.2018 09:00:00||PEGASUS|10.40.27.82|||110000423831|80
06.10.2018 09:00:00||PEGASUS|10.40.27.82|||110000423831|155
06.10.2018 09:00:00||PEGASUS|10.40.27.82|||110000423831|120
06.10.2018 09:00:00||PEGASUS|10.40.27.82|||110000423831|167
06.10.2018 09:00:00||PEGASUS|10.40.27.82|||110000423831|113
06.10.2018 09:00:00||PEGASUS|10.40.27.82|||110000423831|63
06.10.2018 09:00:00||PEGASUS|10.40.27.82|||110000423831|63
06.10.2018 09:00:00||PEGASUS|10.40.27.82|||110000423831|50
06.10.2018 09:00:00||PEGASUS|10.40.27.82|||110000423831|35
06.10.2018 09:00:00||PEGASUS|10.40.27.82|||110000423831|40
06.10.2018 09:00:00||PEGASUS|10.40.27.67|||110000423831|50
06.10.2018 09:00:00||PEGASUS|10.40.27.67|||110000423831|70
06.10.2018 09:00:00||PEGASUS|10.40.27.67|||110000423831|130
06.10.2018 09:00:00||PEGASUS|10.40.27.67|||110000423831|10
06.10.2018 09:00:00||PEGASUS|10.40.27.67|||110000423831|340
06.10.2018 09:00:00||PEGASUS|10.40.27.82|||110000423831|68
06.10.2018 09:00:00||PEGASUS|10.40.27.86|||110000423831|162
06.10.2018 09:00:00||PEGASUS|10.40.27.86|||110000423831|70
06.10.2018 09:00:00||PEGASUS|10.40.27.86|||110000423831|20
06.10.2018 09:00:00||PEGASUS|10.40.27.86|||110000423831|340
06.10.2018 09:00:00||PWC|10.40.24.66|||110000433262|82
06.10.2018 09:00:00||PWC|10.40.24.66|||110000433262|10
06.10.2018 09:00:00||PWC|10.40.24.66|||110000433262|30
06.10.2018 09:00:00||PWC|10.40.24.66|||110000433262|50
06.10.2018 09:00:00||PWC|10.40.24.66|||110000433262|440
06.10.2018 09:00:00||PWC|10.40.24.68|||110000433262|155
06.10.2018 09:00:00||PWC|10.40.24.66|||110000433262|50
06.10.2018 09:00:00||PWC|10.40.24.66|||110000433262|210
06.10.2018 09:00:00||PWC|10.40.24.66|||110000433262|210
06.10.2018 09:00:00||PWC|10.40.25.67|||110000433262|80
06.10.2018 09:00:00||PWC|10.40.25.67|||110000433262|90
06.10.2018 09:00:00||PWC|10.40.25.67|||110000433262|320
06.10.2018 09:00:00||PWC|10.40.25.67|||110000433262|250
06.10.2018 09:00:00||PWC|10.40.25.67|||110000433262|240
06.10.2018 09:00:00||PWC|10.40.25.67|||110000433262|250
06.10.2018 09:00:00||PWC|10.40.25.67|||110000433262|50
06.10.2018 09:00:00||PWC|10.40.25.67|||110000433262|30
06.10.2018 09:00:00||PWC|10.40.25.67|||110000433262|120
06.10.2018 09:00:00||PWC|10.40.24.67|||110000433262|17
06.10.2018 09:00:00||PWC|10.40.24.67|||110000433262|10
06.10.2018 09:00:00||PWC|10.40.24.67|||110000433262|367
06.10.2018 09:00:00||PWC|10.40.24.67|||110000433262|30
06.10.2018 09:00:00||PWC|10.40.24.67|||110000433262|50
06.10.2018 09:00:00||PWC|10.40.24.67|||110000433262|115
06.10.2018 09:00:00||PWC|10.40.25.68|||110000433262|90
06.10.2018 09:00:00||PWC|10.40.25.68|||110000433262|175
06.10.2018 09:00:00||PWC|10.40.25.68|||110000433262|388
06.10.2018 09:00:00||PWC|10.40.25.68|||110000433262|70
06.10.2018 09:00:00||PWC|10.40.25.68|||110000433262|80
06.10.2018 09:00:00||PWC|10.40.25.68|||110000433262|152
06.10.2018 09:00:00||PWC|10.40.24.66|||110000433262|60
06.10.2018 09:00:00||PWC|10.40.24.66|||110000433262|30
06.10.2018 09:00:00||PWC|10.40.24.66|||110000433262|40
06.10.2018 09:00:00||PWC|10.40.24.68|||110000433262|62
06.10.2018 09:00:00||PWC|10.40.24.68|||110000433262|123
06.10.2018 09:00:00||PWC|10.40.24.68|||110000433262|72
06.10.2018 09:00:00||PWC|10.40.24.68|||110000433262|70
06.10.2018 09:00:00||VSMART BİLGİ TEKNOLOJİLERİ|10.40.24.62|||110000474326|42
06.10.2018 09:00:00||VSMART BİLGİ TEKNOLOJİLERİ|10.40.24.62|||110000474326|70
06.10.2018 09:00:00||VSMART BİLGİ TEKNOLOJİLERİ|10.40.24.62|||110000474326|40
06.10.2018 09:00:00||VSMART BİLGİ TEKNOLOJİLERİ|10.40.25.62|||110000474326|60
06.10.2018 09:00:00||VSMART BİLGİ TEKNOLOJİLERİ|10.40.24.62|||110000474326|47
06.10.2018 09:00:00||VSMART BİLGİ TEKNOLOJİLERİ|10.40.24.62|||110000474326|30
06.10.2018 09:00:00||VSMART BİLGİ TEKNOLOJİLERİ|10.40.24.62|||110000474326|10
06.10.2018 09:00:00||VSMART BİLGİ TEKNOLOJİLERİ|10.40.25.62|||110000474326|40
06.10.2018 09:00:00||VSMART BİLGİ TEKNOLOJİLERİ|10.40.25.62|||110000474326|10
06.10.2018 09:00:00||VSMART BİLGİ TEKNOLOJİLERİ|10.40.25.62|||110000474326|10
06.10.2018 09:00:00||VSMART BİLGİ TEKNOLOJİLERİ|10.40.25.62|||110000474326|80
06.10.2018 09:00:00||VSMART BİLGİ TEKNOLOJİLERİ|10.40.25.62|||110000474326|82
06.10.2018 09:00:00||VSMART BİLGİ TEKNOLOJİLERİ|10.40.25.62|||110000474326|102
06.10.2018 09:00:00||VSMART BİLGİ TEKNOLOJİLERİ|10.40.24.62|||110000474326|10
