9/22/2018 2:00:00 AM||HAVAS|10.40.24.45|||110000479675|407
9/22/2018 2:00:00 AM||HAVAS|10.40.25.46|||110000479675|494
9/22/2018 2:00:00 AM||HAVAS|10.40.24.47|||110000479675|1049
9/22/2018 2:00:00 AM||PWC|10.40.24.67|||110000433262|581
9/22/2018 2:00:00 AM||PWC|10.40.25.68|||110000433262|908
9/22/2018 2:00:00 AM||PWC|10.40.24.68|||110000433262|509
9/22/2018 2:00:00 AM||PWC|10.40.25.69|||110000433262|286
9/22/2018 2:00:00 AM||PWC|10.40.24.69|||110000433262|290
9/22/2018 2:00:00 AM||CALIK HOLDING|10.40.25.94|||110000438408|657
9/22/2018 2:00:00 AM||CALIK HOLDING|10.40.24.94|||110000438408|695
9/22/2018 2:00:00 AM||CALIK HOLDING|10.40.25.97|||110000438408|603
9/22/2018 2:00:00 AM||CALIK HOLDING|10.40.25.100|||110000438408|76
9/22/2018 2:00:00 AM||CALIK HOLDING|10.40.24.100|||110000438408|74
9/22/2018 2:00:00 AM||CALIK HOLDING|10.40.25.101|||110000438408|587
9/22/2018 2:00:00 AM||CALIK HOLDING|10.40.25.102|||110000438408|333
9/22/2018 2:00:00 AM||CALIK HOLDING|10.40.24.102|||110000438408|314
9/22/2018 2:00:00 AM||CALIK HOLDING|10.40.25.103|||110000438408|255
9/22/2018 2:00:00 AM||CALIK HOLDING|10.40.24.103|||110000438408|292
9/22/2018 2:00:00 AM||CALIK HOLDING|10.40.25.104|||110000438408|1146
9/22/2018 2:00:00 AM||CALIK HOLDING|10.40.25.115|||110000438408|533
9/22/2018 2:00:00 AM||CALIK HOLDING|10.40.24.115|||110000438408|560
9/22/2018 2:00:00 AM||CALIK HOLDING|10.40.25.116|||110000438408|467
9/22/2018 2:00:00 AM||CALIK HOLDING|10.40.24.116|||110000438408|453
9/22/2018 2:00:00 AM||CALIK HOLDING|10.40.25.117|||110000438408|316
9/22/2018 2:00:00 AM||CALIK HOLDING|10.40.24.117|||110000438408|282
9/22/2018 2:00:00 AM||CALIK HOLDING|10.40.25.119|||110000438408|71
9/22/2018 2:00:00 AM||CALIK HOLDING|10.40.24.119|||110000438408|221
9/22/2018 2:00:00 AM||CALIK HOLDING|10.40.25.120|||110000438408|570
9/22/2018 2:00:00 AM||CALIK HOLDING|10.40.24.120|||110000438408|576
9/22/2018 2:00:00 AM||CALIK HOLDING|10.40.25.121|||110000438408|319
9/22/2018 2:00:00 AM||CALIK HOLDING|10.40.24.121|||110000438408|312
9/22/2018 2:00:00 AM||CALIK HOLDING|10.40.25.122|||110000438408|246
9/22/2018 2:00:00 AM||CALIK HOLDING|10.40.24.122|||110000438408|301
9/22/2018 2:00:00 AM||AKTIFBANK|10.40.25.128|||110000438458|264
9/22/2018 2:00:00 AM||AKTIFBANK|10.40.24.128|||110000438458|460
9/22/2018 2:00:00 AM||AKTIFBANK|10.40.25.130|||110000438458|750
9/22/2018 2:00:00 AM||AKTIFBANK|10.40.24.130|||110000438458|661
9/22/2018 2:00:00 AM||AKTIFBANK|10.40.25.131|||110000438458|621
9/22/2018 2:00:00 AM||AKTIFBANK|10.40.24.131|||110000438458|614
9/22/2018 2:00:00 AM||AKTIFBANK|10.40.25.132|||110000438458|419
9/22/2018 2:00:00 AM||AKTIFBANK|10.40.24.132|||110000438458|411
9/22/2018 2:00:00 AM||AKTIFBANK|10.40.25.133|||110000438458|372
9/22/2018 2:00:00 AM||AKTIFBANK|10.40.24.133|||110000438458|658
9/22/2018 2:00:00 AM||AKTIFBANK|10.40.25.138|||110000438458|253
9/22/2018 2:00:00 AM||AKTIFBANK|10.40.24.138|||110000438458|565
9/22/2018 2:00:00 AM||AKTIFBANK|10.40.25.139|||110000438458|157
9/22/2018 2:00:00 AM||AKTIFBANK|10.40.24.139|||110000438458|239
9/22/2018 2:00:00 AM||AKTIFBANK|10.40.25.140|||110000438458|264
9/22/2018 2:00:00 AM||AKTIFBANK|10.40.24.140|||110000438458|359
9/22/2018 2:00:00 AM||AKTIFBANK|10.40.25.141|||110000438458|471
9/22/2018 2:00:00 AM||AKTIFBANK|10.40.24.141|||110000438458|637
9/22/2018 2:00:00 AM||AKTIFBANK|10.40.25.142|||110000438458|38
9/22/2018 2:00:00 AM||AKTIFBANK|10.40.24.142|||110000438458|111
9/22/2018 2:00:00 AM||AKTIFBANK|10.40.24.143|||110000438458|772
9/22/2018 2:00:00 AM||AKTIFBANK|10.40.25.144|||110000438458|183
9/22/2018 2:00:00 AM||AKTIFBANK|10.40.24.144|||110000438458|261
9/22/2018 2:00:00 AM||AKTIFBANK|10.40.25.145|||110000438458|292
9/22/2018 2:00:00 AM||AKTIFBANK|10.40.24.145|||110000438458|407
9/22/2018 2:00:00 AM||AKTIFBANK|10.40.25.147|||110000438458|87
9/22/2018 2:00:00 AM||AKTIFBANK|10.40.24.147|||110000438458|86
9/22/2018 2:00:00 AM||AKTIFBANK|10.40.25.148|||110000438458|989
9/22/2018 2:00:00 AM||AKTIFBANK|10.40.25.152|||110000438458|707
9/22/2018 2:00:00 AM||AKTIFBANK|10.40.25.153|||110000438458|216
9/22/2018 2:00:00 AM||AKTIFBANK|10.40.24.153|||110000438458|247
9/22/2018 2:00:00 AM||AKTIFBANK|10.40.25.154|||110000438458|42
9/22/2018 2:00:00 AM||AKTIFBANK|10.40.24.154|||110000438458|136
9/22/2018 2:00:00 AM||AKTIFBANK|10.40.25.155|||110000438458|481
9/22/2018 2:00:00 AM||AKTIFBANK|10.40.24.155|||110000438458|515
9/22/2018 2:00:00 AM||AKTIFBANK|10.40.25.157|||110000438458|336
9/22/2018 2:00:00 AM||AKTIFBANK|10.40.24.157|||110000438458|339
9/22/2018 2:00:00 AM||AKTIFBANK|10.40.25.158|||110000438458|159
9/22/2018 2:00:00 AM||AKTIFBANK|10.40.24.158|||110000438458|630
9/22/2018 2:00:00 AM||AKTIFBANK|10.40.25.159|||110000438458|163
9/22/2018 2:00:00 AM||AKTIFBANK|10.40.24.159|||110000438458|344
9/22/2018 2:00:00 AM||AKTIFBANK|10.40.25.160|||110000438458|195
9/22/2018 2:00:00 AM||AKTIFBANK|10.40.24.160|||110000438458|232
9/22/2018 2:00:00 AM||AKTIFBANK|10.40.25.161|||110000438458|250
9/22/2018 2:00:00 AM||AKTIFBANK|10.40.24.161|||110000438458|398
9/22/2018 2:00:00 AM||AKTIFBANK|10.40.25.162|||110000438458|247
9/22/2018 2:00:00 AM||AKTIFBANK|10.40.24.162|||110000438458|472
9/22/2018 2:00:00 AM||AKTIFBANK|10.40.25.163|||110000438458|46
9/22/2018 2:00:00 AM||AKTIFBANK|10.40.24.163|||110000438458|239
9/22/2018 2:00:00 AM||AKTIFBANK|10.40.25.164|||110000438458|884
9/22/2018 2:00:00 AM||AKTIFBANK|10.40.24.164|||110000438458|836
9/22/2018 2:00:00 AM||AKTIFBANK|10.40.25.165|||110000438458|321
9/22/2018 2:00:00 AM||AKTIFBANK|10.40.24.165|||110000438458|350
9/22/2018 2:00:00 AM||AKTIFBANK|10.40.25.166|||110000438458|136
9/22/2018 2:00:00 AM||AKTIFBANK|10.40.24.166|||110000438458|223
9/22/2018 2:00:00 AM||AKTIFBANK|10.40.25.168|||110000438458|319
9/22/2018 2:00:00 AM||AKTIFBANK|10.40.24.168|||110000438458|368
9/22/2018 2:00:00 AM||AKTIFBANK|10.40.25.169|||110000438458|354
9/22/2018 2:00:00 AM||AKTIFBANK|10.40.24.169|||110000438458|317
9/22/2018 2:00:00 AM||AKTIFBANK|10.40.25.170|||110000438458|552
9/22/2018 2:00:00 AM||AKTIFBANK|10.40.24.170|||110000438458|771
9/22/2018 2:00:00 AM||AKTIFBANK|10.40.25.179|||110000438458|917
9/22/2018 2:00:00 AM||AKTIFBANK|10.40.24.179|||110000438458|990
9/22/2018 2:00:00 AM||AKTIFBANK|10.40.25.186|||110000438458|187
9/22/2018 2:00:00 AM||AKTIFBANK|10.40.24.186|||110000438458|209
9/22/2018 2:00:00 AM||MARS CINEMA|10.40.25.203|||110000472614|281
9/22/2018 2:00:00 AM||MARS CINEMA|10.40.24.203|||110000472614|260
9/22/2018 2:00:00 AM||MARS CINEMA|10.40.25.206|||110000472614|285
9/22/2018 2:00:00 AM||PEGASUS|10.40.26.64|||110000423831|162
9/22/2018 2:00:00 AM||PEGASUS|10.40.27.67|||110000423831|1279
9/22/2018 2:00:00 AM||PEGASUS|10.40.27.68|||110000423831|318
9/22/2018 2:00:00 AM||PEGASUS|10.40.27.87|||110000423831|280
9/22/2018 2:00:00 AM||PEGASUS|10.40.26.87|||110000423831|303
9/22/2018 2:00:00 AM||BOYNER|10.40.27.95|||101367941673|468
9/22/2018 2:00:00 AM||BOYNER|10.40.26.95|||101367941673|433
9/22/2018 2:00:00 AM||BOYNER|10.40.27.96|||101367941673|862
9/22/2018 2:00:00 AM||BOYNER|10.40.26.96|||101367941673|939
9/22/2018 2:00:00 AM||BOYNER|10.40.27.99|||101367941673|283
9/22/2018 2:00:00 AM||BOYNER|10.40.26.99|||101367941673|298
