03.10.2018 05:00:00||AKTİFBANK|10.40.24.128|||110000438458|147
03.10.2018 05:00:00||AKTİFBANK|10.40.24.128|||110000438458|69
03.10.2018 05:00:00||AKTİFBANK|10.40.24.128|||110000438458|98
03.10.2018 05:00:00||AKTİFBANK|10.40.24.128|||110000438458|40
03.10.2018 05:00:00||AKTİFBANK|10.40.24.128|||110000438458|69
03.10.2018 05:00:00||AKTİFBANK|10.40.24.128|||110000438458|40
03.10.2018 05:00:00||AKTİFBANK|10.40.24.129|||110000438458|98
03.10.2018 05:00:00||AKTİFBANK|10.40.24.129|||110000438458|69
03.10.2018 05:00:00||AKTİFBANK|10.40.24.129|||110000438458|98
03.10.2018 05:00:00||AKTİFBANK|10.40.24.129|||110000438458|108
03.10.2018 05:00:00||AKTİFBANK|10.40.24.129|||110000438458|49
03.10.2018 05:00:00||AKTİFBANK|10.40.24.129|||110000438458|69
03.10.2018 05:00:00||AKTİFBANK|10.40.24.129|||110000438458|69
03.10.2018 05:00:00||AKTİFBANK|10.40.24.129|||110000438458|89
03.10.2018 05:00:00||AKTİFBANK|10.40.24.129|||110000438458|79
03.10.2018 05:00:00||AKTİFBANK|10.40.24.129|||110000438458|138
03.10.2018 05:00:00||AKTİFBANK|10.40.24.130|||110000438458|49
03.10.2018 05:00:00||AKTİFBANK|10.40.24.130|||110000438458|40
03.10.2018 05:00:00||AKTİFBANK|10.40.24.130|||110000438458|79
03.10.2018 05:00:00||AKTİFBANK|10.40.24.130|||110000438458|40
03.10.2018 05:00:00||AKTİFBANK|10.40.24.130|||110000438458|59
03.10.2018 05:00:00||AKTİFBANK|10.40.24.130|||110000438458|79
03.10.2018 05:00:00||AKTİFBANK|10.40.24.130|||110000438458|89
03.10.2018 05:00:00||AKTİFBANK|10.40.24.130|||110000438458|40
03.10.2018 05:00:00||AKTİFBANK|10.40.24.130|||110000438458|128
03.10.2018 05:00:00||AKTİFBANK|10.40.24.130|||110000438458|108
03.10.2018 05:00:00||AKTİFBANK|10.40.24.131|||110000438458|10
03.10.2018 05:00:00||AKTİFBANK|10.40.24.131|||110000438458|98
03.10.2018 05:00:00||AKTİFBANK|10.40.24.131|||110000438458|89
03.10.2018 05:00:00||AKTİFBANK|10.40.24.131|||110000438458|108
03.10.2018 05:00:00||AKTİFBANK|10.40.24.131|||110000438458|118
03.10.2018 05:00:00||AKTİFBANK|10.40.24.131|||110000438458|30
03.10.2018 05:00:00||AKTİFBANK|10.40.24.131|||110000438458|157
03.10.2018 05:00:00||AKTİFBANK|10.40.24.131|||110000438458|59
03.10.2018 05:00:00||AKTİFBANK|10.40.24.131|||110000438458|108
03.10.2018 05:00:00||AKTİFBANK|10.40.24.132|||110000438458|40
03.10.2018 05:00:00||AKTİFBANK|10.40.24.132|||110000438458|79
03.10.2018 05:00:00||AKTİFBANK|10.40.24.132|||110000438458|49
03.10.2018 05:00:00||AKTİFBANK|10.40.24.132|||110000438458|176
03.10.2018 05:00:00||AKTİFBANK|10.40.24.132|||110000438458|69
03.10.2018 05:00:00||AKTİFBANK|10.40.24.133|||110000438458|138
03.10.2018 05:00:00||AKTİFBANK|10.40.24.133|||110000438458|89
03.10.2018 05:00:00||AKTİFBANK|10.40.24.133|||110000438458|118
03.10.2018 05:00:00||AKTİFBANK|10.40.24.133|||110000438458|89
03.10.2018 05:00:00||AKTİFBANK|10.40.24.134|||110000438458|61
03.10.2018 05:00:00||AKTİFBANK|10.40.24.134|||110000438458|31
03.10.2018 05:00:00||AKTİFBANK|10.40.24.135|||110000438458|66
03.10.2018 05:00:00||AKTİFBANK|10.40.24.135|||110000438458|31
03.10.2018 05:00:00||AKTİFBANK|10.40.24.137|||110000438458|3
03.10.2018 05:00:00||AKTİFBANK|10.40.24.137|||110000438458|53
03.10.2018 05:00:00||AKTİFBANK|10.40.24.138|||110000438458|108
03.10.2018 05:00:00||AKTİFBANK|10.40.24.138|||110000438458|118
03.10.2018 05:00:00||AKTİFBANK|10.40.24.138|||110000438458|138
03.10.2018 05:00:00||AKTİFBANK|10.40.24.138|||110000438458|108
03.10.2018 05:00:00||AKTİFBANK|10.40.24.138|||110000438458|30
03.10.2018 05:00:00||AKTİFBANK|10.40.24.138|||110000438458|49
03.10.2018 05:00:00||AKTİFBANK|10.40.24.139|||110000438458|40
03.10.2018 05:00:00||AKTİFBANK|10.40.24.139|||110000438458|30
03.10.2018 05:00:00||AKTİFBANK|10.40.24.139|||110000438458|49
03.10.2018 05:00:00||AKTİFBANK|10.40.24.139|||110000438458|89
03.10.2018 05:00:00||AKTİFBANK|10.40.24.139|||110000438458|59
03.10.2018 05:00:00||AKTİFBANK|10.40.24.139|||110000438458|118
03.10.2018 05:00:00||AKTİFBANK|10.40.24.140|||110000438458|20
03.10.2018 05:00:00||AKTİFBANK|10.40.24.140|||110000438458|79
03.10.2018 05:00:00||AKTİFBANK|10.40.24.140|||110000438458|40
03.10.2018 05:00:00||AKTİFBANK|10.40.24.140|||110000438458|30
03.10.2018 05:00:00||AKTİFBANK|10.40.24.140|||110000438458|30
03.10.2018 05:00:00||AKTİFBANK|10.40.24.140|||110000438458|49
03.10.2018 05:00:00||AKTİFBANK|10.40.24.140|||110000438458|40
03.10.2018 05:00:00||AKTİFBANK|10.40.24.140|||110000438458|20
03.10.2018 05:00:00||AKTİFBANK|10.40.24.140|||110000438458|30
03.10.2018 05:00:00||AKTİFBANK|10.40.24.141|||110000438458|196
03.10.2018 05:00:00||AKTİFBANK|10.40.24.141|||110000438458|49
03.10.2018 05:00:00||AKTİFBANK|10.40.24.141|||110000438458|98
03.10.2018 05:00:00||AKTİFBANK|10.40.24.141|||110000438458|98
03.10.2018 05:00:00||AKTİFBANK|10.40.24.141|||110000438458|69
03.10.2018 05:00:00||AKTİFBANK|10.40.24.141|||110000438458|79
03.10.2018 05:00:00||AKTİFBANK|10.40.24.141|||110000438458|69
03.10.2018 05:00:00||AKTİFBANK|10.40.24.142|||110000438458|69
03.10.2018 05:00:00||AKTİFBANK|10.40.24.142|||110000438458|40
03.10.2018 05:00:00||AKTİFBANK|10.40.24.143|||110000438458|69
03.10.2018 05:00:00||AKTİFBANK|10.40.24.143|||110000438458|264
03.10.2018 05:00:00||AKTİFBANK|10.40.24.143|||110000438458|313
03.10.2018 05:00:00||AKTİFBANK|10.40.24.143|||110000438458|196
03.10.2018 05:00:00||AKTİFBANK|10.40.24.144|||110000438458|79
03.10.2018 05:00:00||AKTİFBANK|10.40.24.144|||110000438458|98
03.10.2018 05:00:00||AKTİFBANK|10.40.24.144|||110000438458|89
03.10.2018 05:00:00||AKTİFBANK|10.40.24.145|||110000438458|89
03.10.2018 05:00:00||AKTİFBANK|10.40.24.145|||110000438458|20
03.10.2018 05:00:00||AKTİFBANK|10.40.24.145|||110000438458|69
03.10.2018 05:00:00||AKTİFBANK|10.40.24.145|||110000438458|89
03.10.2018 05:00:00||AKTİFBANK|10.40.24.145|||110000438458|59
03.10.2018 05:00:00||AKTİFBANK|10.40.24.145|||110000438458|69
03.10.2018 05:00:00||AKTİFBANK|10.40.24.147|||110000438458|89
03.10.2018 05:00:00||AKTİFBANK|10.40.24.148|||110000438458|69
03.10.2018 05:00:00||AKTİFBANK|10.40.24.148|||110000438458|167
03.10.2018 05:00:00||AKTİFBANK|10.40.24.148|||110000438458|79
03.10.2018 05:00:00||AKTİFBANK|10.40.24.148|||110000438458|108
03.10.2018 05:00:00||AKTİFBANK|10.40.24.148|||110000438458|98
03.10.2018 05:00:00||AKTİFBANK|10.40.24.148|||110000438458|89
03.10.2018 05:00:00||AKTİFBANK|10.40.24.148|||110000438458|98
03.10.2018 05:00:00||AKTİFBANK|10.40.24.148|||110000438458|98
03.10.2018 05:00:00||AKTİFBANK|10.40.24.148|||110000438458|69
03.10.2018 05:00:00||AKTİFBANK|10.40.24.148|||110000438458|69
03.10.2018 05:00:00||AKTİFBANK|10.40.24.148|||110000438458|20
03.10.2018 05:00:00||AKTİFBANK|10.40.24.148|||110000438458|79
03.10.2018 05:00:00||AKTİFBANK|10.40.24.149|||110000438458|79
03.10.2018 05:00:00||AKTİFBANK|10.40.24.149|||110000438458|118
03.10.2018 05:00:00||AKTİFBANK|10.40.24.149|||110000438458|98
03.10.2018 05:00:00||AKTİFBANK|10.40.24.149|||110000438458|59
03.10.2018 05:00:00||AKTİFBANK|10.40.24.149|||110000438458|49
03.10.2018 05:00:00||AKTİFBANK|10.40.24.149|||110000438458|89
03.10.2018 05:00:00||AKTİFBANK|10.40.24.149|||110000438458|147
03.10.2018 05:00:00||AKTİFBANK|10.40.24.149|||110000438458|89
03.10.2018 05:00:00||AKTİFBANK|10.40.24.149|||110000438458|157
03.10.2018 05:00:00||AKTİFBANK|10.40.24.149|||110000438458|108
03.10.2018 05:00:00||AKTİFBANK|10.40.24.149|||110000438458|89
03.10.2018 05:00:00||AKTİFBANK|10.40.24.149|||110000438458|89
03.10.2018 05:00:00||AKTİFBANK|10.40.24.149|||110000438458|79
03.10.2018 05:00:00||AKTİFBANK|10.40.24.149|||110000438458|79
03.10.2018 05:00:00||AKTİFBANK|10.40.24.150|||110000438458|538
03.10.2018 05:00:00||AKTİFBANK|10.40.24.150|||110000438458|528
03.10.2018 05:00:00||AKTİFBANK|10.40.24.150|||110000438458|548
03.10.2018 05:00:00||AKTİFBANK|10.40.24.151|||110000438458|548
03.10.2018 05:00:00||AKTİFBANK|10.40.24.151|||110000438458|538
03.10.2018 05:00:00||AKTİFBANK|10.40.24.151|||110000438458|499
03.10.2018 05:00:00||AKTİFBANK|10.40.24.152|||110000438458|20
03.10.2018 05:00:00||AKTİFBANK|10.40.24.152|||110000438458|49
03.10.2018 05:00:00||AKTİFBANK|10.40.24.152|||110000438458|108
03.10.2018 05:00:00||AKTİFBANK|10.40.24.152|||110000438458|59
03.10.2018 05:00:00||AKTİFBANK|10.40.24.152|||110000438458|108
03.10.2018 05:00:00||AKTİFBANK|10.40.24.152|||110000438458|98
03.10.2018 05:00:00||AKTİFBANK|10.40.24.152|||110000438458|294
03.10.2018 05:00:00||AKTİFBANK|10.40.24.152|||110000438458|69
03.10.2018 05:00:00||AKTİFBANK|10.40.24.152|||110000438458|98
03.10.2018 05:00:00||AKTİFBANK|10.40.24.152|||110000438458|30
03.10.2018 05:00:00||AKTİFBANK|10.40.24.152|||110000438458|69
03.10.2018 05:00:00||AKTİFBANK|10.40.24.152|||110000438458|30
03.10.2018 05:00:00||AKTİFBANK|10.40.24.153|||110000438458|10
03.10.2018 05:00:00||AKTİFBANK|10.40.24.153|||110000438458|89
03.10.2018 05:00:00||AKTİFBANK|10.40.24.153|||110000438458|69
03.10.2018 05:00:00||AKTİFBANK|10.40.24.153|||110000438458|69
03.10.2018 05:00:00||AKTİFBANK|10.40.24.154|||110000438458|69
03.10.2018 05:00:00||AKTİFBANK|10.40.24.154|||110000438458|20
03.10.2018 05:00:00||AKTİFBANK|10.40.24.154|||110000438458|10
03.10.2018 05:00:00||AKTİFBANK|10.40.24.154|||110000438458|10
03.10.2018 05:00:00||AKTİFBANK|10.40.24.154|||110000438458|10
03.10.2018 05:00:00||AKTİFBANK|10.40.24.154|||110000438458|10
03.10.2018 05:00:00||AKTİFBANK|10.40.24.155|||110000438458|108
03.10.2018 05:00:00||AKTİFBANK|10.40.24.155|||110000438458|128
03.10.2018 05:00:00||AKTİFBANK|10.40.24.155|||110000438458|79
03.10.2018 05:00:00||AKTİFBANK|10.40.24.155|||110000438458|108
03.10.2018 05:00:00||AKTİFBANK|10.40.24.155|||110000438458|98
03.10.2018 05:00:00||AKTİFBANK|10.40.24.157|||110000438458|30
03.10.2018 05:00:00||AKTİFBANK|10.40.24.157|||110000438458|79
03.10.2018 05:00:00||AKTİFBANK|10.40.24.157|||110000438458|69
03.10.2018 05:00:00||AKTİFBANK|10.40.24.157|||110000438458|40
03.10.2018 05:00:00||AKTİFBANK|10.40.24.157|||110000438458|79
03.10.2018 05:00:00||AKTİFBANK|10.40.24.157|||110000438458|59
03.10.2018 05:00:00||AKTİFBANK|10.40.24.158|||110000438458|108
03.10.2018 05:00:00||AKTİFBANK|10.40.24.158|||110000438458|108
03.10.2018 05:00:00||AKTİFBANK|10.40.24.158|||110000438458|128
03.10.2018 05:00:00||AKTİFBANK|10.40.24.158|||110000438458|79
03.10.2018 05:00:00||AKTİFBANK|10.40.24.158|||110000438458|79
03.10.2018 05:00:00||AKTİFBANK|10.40.24.158|||110000438458|108
03.10.2018 05:00:00||AKTİFBANK|10.40.24.159|||110000438458|128
03.10.2018 05:00:00||AKTİFBANK|10.40.24.159|||110000438458|60
03.10.2018 05:00:00||AKTİFBANK|10.40.24.159|||110000438458|181
03.10.2018 05:00:00||AKTİFBANK|10.40.24.160|||110000438458|10
03.10.2018 05:00:00||AKTİFBANK|10.40.24.160|||110000438458|10
03.10.2018 05:00:00||AKTİFBANK|10.40.24.160|||110000438458|90
03.10.2018 05:00:00||AKTİFBANK|10.40.24.160|||110000438458|100
03.10.2018 05:00:00||AKTİFBANK|10.40.24.161|||110000438458|181
03.10.2018 05:00:00||AKTİFBANK|10.40.24.161|||110000438458|80
03.10.2018 05:00:00||AKTİFBANK|10.40.24.161|||110000438458|40
03.10.2018 05:00:00||AKTİFBANK|10.40.24.161|||110000438458|30
03.10.2018 05:00:00||AKTİFBANK|10.40.24.161|||110000438458|30
03.10.2018 05:00:00||AKTİFBANK|10.40.24.161|||110000438458|20
03.10.2018 05:00:00||AKTİFBANK|10.40.24.161|||110000438458|90
03.10.2018 05:00:00||AKTİFBANK|10.40.24.162|||110000438458|60
03.10.2018 05:00:00||AKTİFBANK|10.40.24.162|||110000438458|10
03.10.2018 05:00:00||AKTİFBANK|10.40.24.162|||110000438458|80
03.10.2018 05:00:00||AKTİFBANK|10.40.24.162|||110000438458|50
03.10.2018 05:00:00||AKTİFBANK|10.40.24.162|||110000438458|40
03.10.2018 05:00:00||AKTİFBANK|10.40.24.162|||110000438458|40
03.10.2018 05:00:00||AKTİFBANK|10.40.24.162|||110000438458|70
03.10.2018 05:00:00||AKTİFBANK|10.40.24.162|||110000438458|30
03.10.2018 05:00:00||AKTİFBANK|10.40.24.162|||110000438458|10
03.10.2018 05:00:00||AKTİFBANK|10.40.24.162|||110000438458|50
03.10.2018 05:00:00||AKTİFBANK|10.40.24.162|||110000438458|40
03.10.2018 05:00:00||AKTİFBANK|10.40.24.163|||110000438458|30
03.10.2018 05:00:00||AKTİFBANK|10.40.24.163|||110000438458|70
03.10.2018 05:00:00||AKTİFBANK|10.40.24.164|||110000438458|60
03.10.2018 05:00:00||AKTİFBANK|10.40.24.164|||110000438458|333
03.10.2018 05:00:00||AKTİFBANK|10.40.24.164|||110000438458|70
03.10.2018 05:00:00||AKTİFBANK|10.40.24.164|||110000438458|222
03.10.2018 05:00:00||AKTİFBANK|10.40.24.164|||110000438458|212
03.10.2018 05:00:00||AKTİFBANK|10.40.24.165|||110000438458|80
03.10.2018 05:00:00||AKTİFBANK|10.40.24.165|||110000438458|80
03.10.2018 05:00:00||AKTİFBANK|10.40.24.165|||110000438458|121
03.10.2018 05:00:00||AKTİFBANK|10.40.24.166|||110000438458|80
03.10.2018 05:00:00||AKTİFBANK|10.40.24.166|||110000438458|90
03.10.2018 05:00:00||AKTİFBANK|10.40.24.166|||110000438458|10
03.10.2018 05:00:00||AKTİFBANK|10.40.24.166|||110000438458|10
03.10.2018 05:00:00||AKTİFBANK|10.40.24.166|||110000438458|10
03.10.2018 05:00:00||AKTİFBANK|10.40.24.168|||110000438458|90
03.10.2018 05:00:00||AKTİFBANK|10.40.24.168|||110000438458|40
03.10.2018 05:00:00||AKTİFBANK|10.40.24.168|||110000438458|80
03.10.2018 05:00:00||AKTİFBANK|10.40.24.168|||110000438458|70
03.10.2018 05:00:00||AKTİFBANK|10.40.24.168|||110000438458|70
03.10.2018 05:00:00||AKTİFBANK|10.40.24.168|||110000438458|30
03.10.2018 05:00:00||AKTİFBANK|10.40.24.169|||110000438458|60
03.10.2018 05:00:00||AKTİFBANK|10.40.24.169|||110000438458|90
03.10.2018 05:00:00||AKTİFBANK|10.40.24.169|||110000438458|70
03.10.2018 05:00:00||AKTİFBANK|10.40.24.169|||110000438458|80
03.10.2018 05:00:00||AKTİFBANK|10.40.24.170|||110000438458|60
03.10.2018 05:00:00||AKTİFBANK|10.40.24.170|||110000438458|60
03.10.2018 05:00:00||AKTİFBANK|10.40.24.170|||110000438458|333
03.10.2018 05:00:00||AKTİFBANK|10.40.24.170|||110000438458|80
03.10.2018 05:00:00||AKTİFBANK|10.40.24.170|||110000438458|100
03.10.2018 05:00:00||AKTİFBANK|10.40.24.170|||110000438458|60
03.10.2018 05:00:00||AKTİFBANK|10.40.24.171|||110000438458|2
03.10.2018 05:00:00||AKTİFBANK|10.40.24.171|||110000438458|11
03.10.2018 05:00:00||AKTİFBANK|10.40.24.172|||110000438458|60
03.10.2018 05:00:00||AKTİFBANK|10.40.24.172|||110000438458|35
03.10.2018 05:00:00||AKTİFBANK|10.40.24.173|||110000438458|48
03.10.2018 05:00:00||AKTİFBANK|10.40.24.173|||110000438458|47
03.10.2018 05:00:00||AKTİFBANK|10.40.24.174|||110000438458|57
03.10.2018 05:00:00||AKTİFBANK|10.40.24.174|||110000438458|2
03.10.2018 05:00:00||AKTİFBANK|10.40.24.178|||110000438458|555
03.10.2018 05:00:00||AKTİFBANK|10.40.24.178|||110000438458|535
03.10.2018 05:00:00||AKTİFBANK|10.40.24.178|||110000438458|524
03.10.2018 05:00:00||AKTİFBANK|10.40.24.179|||110000438458|363
03.10.2018 05:00:00||AKTİFBANK|10.40.24.179|||110000438458|373
03.10.2018 05:00:00||AKTİFBANK|10.40.24.179|||110000438458|363
03.10.2018 05:00:00||AKTİFBANK|10.40.24.186|||110000438458|90
03.10.2018 05:00:00||AKTİFBANK|10.40.24.186|||110000438458|20
03.10.2018 05:00:00||AKTİFBANK|10.40.24.186|||110000438458|60
03.10.2018 05:00:00||AKTİFBANK|10.40.24.186|||110000438458|40
03.10.2018 05:00:00||AKTİFBANK|10.40.25.128|||110000438458|71
03.10.2018 05:00:00||AKTİFBANK|10.40.25.128|||110000438458|91
03.10.2018 05:00:00||AKTİFBANK|10.40.25.128|||110000438458|40
03.10.2018 05:00:00||AKTİFBANK|10.40.25.128|||110000438458|71
03.10.2018 05:00:00||AKTİFBANK|10.40.25.129|||110000438458|81
03.10.2018 05:00:00||AKTİFBANK|10.40.25.129|||110000438458|81
03.10.2018 05:00:00||AKTİFBANK|10.40.25.129|||110000438458|132
03.10.2018 05:00:00||AKTİFBANK|10.40.25.129|||110000438458|101
03.10.2018 05:00:00||AKTİFBANK|10.40.25.129|||110000438458|40
03.10.2018 05:00:00||AKTİFBANK|10.40.25.129|||110000438458|91
03.10.2018 05:00:00||AKTİFBANK|10.40.25.129|||110000438458|71
03.10.2018 05:00:00||AKTİFBANK|10.40.25.129|||110000438458|81
03.10.2018 05:00:00||AKTİFBANK|10.40.25.129|||110000438458|136
03.10.2018 05:00:00||AKTİFBANK|10.40.25.129|||110000438458|97
03.10.2018 05:00:00||AKTİFBANK|10.40.25.130|||110000438458|68
03.10.2018 05:00:00||AKTİFBANK|10.40.25.130|||110000438458|49
03.10.2018 05:00:00||AKTİFBANK|10.40.25.130|||110000438458|68
03.10.2018 05:00:00||AKTİFBANK|10.40.25.130|||110000438458|30
03.10.2018 05:00:00||AKTİFBANK|10.40.25.130|||110000438458|59
03.10.2018 05:00:00||AKTİFBANK|10.40.25.130|||110000438458|97
03.10.2018 05:00:00||AKTİFBANK|10.40.25.130|||110000438458|77
03.10.2018 05:00:00||AKTİFBANK|10.40.25.130|||110000438458|59
03.10.2018 05:00:00||AKTİFBANK|10.40.25.130|||110000438458|116
03.10.2018 05:00:00||AKTİFBANK|10.40.25.130|||110000438458|97
03.10.2018 05:00:00||AKTİFBANK|10.40.25.131|||110000438458|87
03.10.2018 05:00:00||AKTİFBANK|10.40.25.131|||110000438458|97
03.10.2018 05:00:00||AKTİFBANK|10.40.25.131|||110000438458|107
03.10.2018 05:00:00||AKTİFBANK|10.40.25.131|||110000438458|77
03.10.2018 05:00:00||AKTİFBANK|10.40.25.131|||110000438458|77
03.10.2018 05:00:00||AKTİFBANK|10.40.25.131|||110000438458|20
03.10.2018 05:00:00||AKTİFBANK|10.40.25.131|||110000438458|116
03.10.2018 05:00:00||AKTİFBANK|10.40.25.131|||110000438458|49
03.10.2018 05:00:00||AKTİFBANK|10.40.25.132|||110000438458|59
03.10.2018 05:00:00||AKTİFBANK|10.40.25.132|||110000438458|68
03.10.2018 05:00:00||AKTİFBANK|10.40.25.132|||110000438458|77
03.10.2018 05:00:00||AKTİFBANK|10.40.25.132|||110000438458|164
03.10.2018 05:00:00||AKTİFBANK|10.40.25.132|||110000438458|59
03.10.2018 05:00:00||AKTİFBANK|10.40.25.133|||110000438458|145
03.10.2018 05:00:00||AKTİFBANK|10.40.25.133|||110000438458|270
03.10.2018 05:00:00||AKTİFBANK|10.40.25.133|||110000438458|107
03.10.2018 05:00:00||AKTİFBANK|10.40.25.133|||110000438458|59
03.10.2018 05:00:00||AKTİFBANK|10.40.25.133|||110000438458|87
03.10.2018 05:00:00||AKTİFBANK|10.40.25.134|||110000438458|62
03.10.2018 05:00:00||AKTİFBANK|10.40.25.134|||110000438458|31
03.10.2018 05:00:00||AKTİFBANK|10.40.25.135|||110000438458|30
03.10.2018 05:00:00||AKTİFBANK|10.40.25.135|||110000438458|62
03.10.2018 05:00:00||AKTİFBANK|10.40.25.137|||110000438458|57
03.10.2018 05:00:00||AKTİFBANK|10.40.25.138|||110000438458|87
03.10.2018 05:00:00||AKTİFBANK|10.40.25.138|||110000438458|68
03.10.2018 05:00:00||AKTİFBANK|10.40.25.138|||110000438458|77
03.10.2018 05:00:00||AKTİFBANK|10.40.25.138|||110000438458|126
03.10.2018 05:00:00||AKTİFBANK|10.40.25.138|||110000438458|39
03.10.2018 05:00:00||AKTİFBANK|10.40.25.138|||110000438458|10
03.10.2018 05:00:00||AKTİFBANK|10.40.25.139|||110000438458|39
03.10.2018 05:00:00||AKTİFBANK|10.40.25.139|||110000438458|10
03.10.2018 05:00:00||AKTİFBANK|10.40.25.139|||110000438458|10
03.10.2018 05:00:00||AKTİFBANK|10.40.25.139|||110000438458|20
03.10.2018 05:00:00||AKTİFBANK|10.40.25.139|||110000438458|68
03.10.2018 05:00:00||AKTİFBANK|10.40.25.139|||110000438458|77
03.10.2018 05:00:00||AKTİFBANK|10.40.25.139|||110000438458|97
03.10.2018 05:00:00||AKTİFBANK|10.40.25.140|||110000438458|77
03.10.2018 05:00:00||AKTİFBANK|10.40.25.140|||110000438458|68
03.10.2018 05:00:00||AKTİFBANK|10.40.25.140|||110000438458|30
03.10.2018 05:00:00||AKTİFBANK|10.40.25.140|||110000438458|30
03.10.2018 05:00:00||AKTİFBANK|10.40.25.140|||110000438458|30
03.10.2018 05:00:00||AKTİFBANK|10.40.25.141|||110000438458|39
03.10.2018 05:00:00||AKTİFBANK|10.40.25.141|||110000438458|97
03.10.2018 05:00:00||AKTİFBANK|10.40.25.141|||110000438458|97
03.10.2018 05:00:00||AKTİFBANK|10.40.25.141|||110000438458|97
03.10.2018 05:00:00||AKTİFBANK|10.40.25.141|||110000438458|87
03.10.2018 05:00:00||AKTİFBANK|10.40.25.141|||110000438458|68
03.10.2018 05:00:00||AKTİFBANK|10.40.25.142|||110000438458|30
03.10.2018 05:00:00||AKTİFBANK|10.40.25.143|||110000438458|59
03.10.2018 05:00:00||AKTİFBANK|10.40.25.143|||110000438458|231
03.10.2018 05:00:00||AKTİFBANK|10.40.25.143|||110000438458|251
03.10.2018 05:00:00||AKTİFBANK|10.40.25.143|||110000438458|299
03.10.2018 05:00:00||AKTİFBANK|10.40.25.144|||110000438458|68
03.10.2018 05:00:00||AKTİFBANK|10.40.25.144|||110000438458|49
03.10.2018 05:00:00||AKTİFBANK|10.40.25.144|||110000438458|59
03.10.2018 05:00:00||AKTİFBANK|10.40.25.145|||110000438458|87
03.10.2018 05:00:00||AKTİFBANK|10.40.25.145|||110000438458|59
03.10.2018 05:00:00||AKTİFBANK|10.40.25.145|||110000438458|59
03.10.2018 05:00:00||AKTİFBANK|10.40.25.145|||110000438458|30
03.10.2018 05:00:00||AKTİFBANK|10.40.25.145|||110000438458|49
03.10.2018 05:00:00||AKTİFBANK|10.40.25.147|||110000438458|87
03.10.2018 05:00:00||AKTİFBANK|10.40.25.148|||110000438458|126
03.10.2018 05:00:00||AKTİFBANK|10.40.25.148|||110000438458|49
03.10.2018 05:00:00||AKTİFBANK|10.40.25.148|||110000438458|97
03.10.2018 05:00:00||AKTİFBANK|10.40.25.148|||110000438458|126
03.10.2018 05:00:00||AKTİFBANK|10.40.25.148|||110000438458|87
03.10.2018 05:00:00||AKTİFBANK|10.40.25.148|||110000438458|77
03.10.2018 05:00:00||AKTİFBANK|10.40.25.148|||110000438458|68
03.10.2018 05:00:00||AKTİFBANK|10.40.25.148|||110000438458|49
03.10.2018 05:00:00||AKTİFBANK|10.40.25.148|||110000438458|77
03.10.2018 05:00:00||AKTİFBANK|10.40.25.148|||110000438458|41
03.10.2018 05:00:00||AKTİFBANK|10.40.25.148|||110000438458|105
03.10.2018 05:00:00||AKTİFBANK|10.40.25.148|||110000438458|62
03.10.2018 05:00:00||AKTİFBANK|10.40.25.149|||110000438458|62
03.10.2018 05:00:00||AKTİFBANK|10.40.25.149|||110000438458|115
03.10.2018 05:00:00||AKTİFBANK|10.40.25.149|||110000438458|94
03.10.2018 05:00:00||AKTİFBANK|10.40.25.149|||110000438458|73
03.10.2018 05:00:00||AKTİFBANK|10.40.25.149|||110000438458|94
03.10.2018 05:00:00||AKTİFBANK|10.40.25.149|||110000438458|41
03.10.2018 05:00:00||AKTİFBANK|10.40.25.149|||110000438458|84
03.10.2018 05:00:00||AKTİFBANK|10.40.25.149|||110000438458|73
03.10.2018 05:00:00||AKTİFBANK|10.40.25.149|||110000438458|136
03.10.2018 05:00:00||AKTİFBANK|10.40.25.149|||110000438458|115
03.10.2018 05:00:00||AKTİFBANK|10.40.25.149|||110000438458|94
03.10.2018 05:00:00||AKTİFBANK|10.40.25.149|||110000438458|94
03.10.2018 05:00:00||AKTİFBANK|10.40.25.149|||110000438458|105
03.10.2018 05:00:00||AKTİFBANK|10.40.25.149|||110000438458|73
03.10.2018 05:00:00||AKTİFBANK|10.40.25.150|||110000438458|611
03.10.2018 05:00:00||AKTİFBANK|10.40.25.150|||110000438458|558
03.10.2018 05:00:00||AKTİFBANK|10.40.25.150|||110000438458|601
03.10.2018 05:00:00||AKTİFBANK|10.40.25.151|||110000438458|579
03.10.2018 05:00:00||AKTİFBANK|10.40.25.151|||110000438458|537
03.10.2018 05:00:00||AKTİFBANK|10.40.25.151|||110000438458|558
03.10.2018 05:00:00||AKTİFBANK|10.40.25.152|||110000438458|126
03.10.2018 05:00:00||AKTİFBANK|10.40.25.152|||110000438458|41
03.10.2018 05:00:00||AKTİFBANK|10.40.25.152|||110000438458|146
03.10.2018 05:00:00||AKTİFBANK|10.40.25.152|||110000438458|73
03.10.2018 05:00:00||AKTİFBANK|10.40.25.152|||110000438458|94
03.10.2018 05:00:00||AKTİFBANK|10.40.25.152|||110000438458|52
03.10.2018 05:00:00||AKTİFBANK|10.40.25.152|||110000438458|94
03.10.2018 05:00:00||AKTİFBANK|10.40.25.152|||110000438458|30
03.10.2018 05:00:00||AKTİFBANK|10.40.25.152|||110000438458|84
03.10.2018 05:00:00||AKTİFBANK|10.40.25.152|||110000438458|30
03.10.2018 05:00:00||AKTİFBANK|10.40.25.153|||110000438458|10
03.10.2018 05:00:00||AKTİFBANK|10.40.25.153|||110000438458|84
03.10.2018 05:00:00||AKTİFBANK|10.40.25.153|||110000438458|62
03.10.2018 05:00:00||AKTİFBANK|10.40.25.153|||110000438458|73
03.10.2018 05:00:00||AKTİFBANK|10.40.25.154|||110000438458|10
03.10.2018 05:00:00||AKTİFBANK|10.40.25.154|||110000438458|10
03.10.2018 05:00:00||AKTİFBANK|10.40.25.154|||110000438458|10
03.10.2018 05:00:00||AKTİFBANK|10.40.25.155|||110000438458|73
03.10.2018 05:00:00||AKTİFBANK|10.40.25.155|||110000438458|94
03.10.2018 05:00:00||AKTİFBANK|10.40.25.155|||110000438458|115
03.10.2018 05:00:00||AKTİFBANK|10.40.25.155|||110000438458|126
03.10.2018 05:00:00||AKTİFBANK|10.40.25.155|||110000438458|115
03.10.2018 05:00:00||AKTİFBANK|10.40.25.157|||110000438458|73
03.10.2018 05:00:00||AKTİFBANK|10.40.25.157|||110000438458|73
03.10.2018 05:00:00||AKTİFBANK|10.40.25.157|||110000438458|73
03.10.2018 05:00:00||AKTİFBANK|10.40.25.157|||110000438458|84
03.10.2018 05:00:00||AKTİFBANK|10.40.25.157|||110000438458|41
03.10.2018 05:00:00||AKTİFBANK|10.40.25.158|||110000438458|126
03.10.2018 05:00:00||AKTİFBANK|10.40.25.158|||110000438458|52
03.10.2018 05:00:00||AKTİFBANK|10.40.25.159|||110000438458|62
03.10.2018 05:00:00||AKTİFBANK|10.40.25.159|||110000438458|10
03.10.2018 05:00:00||AKTİFBANK|10.40.25.159|||110000438458|94
03.10.2018 05:00:00||AKTİFBANK|10.40.25.160|||110000438458|94
03.10.2018 05:00:00||AKTİFBANK|10.40.25.160|||110000438458|115
03.10.2018 05:00:00||AKTİFBANK|10.40.25.161|||110000438458|84
03.10.2018 05:00:00||AKTİFBANK|10.40.25.161|||110000438458|73
03.10.2018 05:00:00||AKTİFBANK|10.40.25.161|||110000438458|41
03.10.2018 05:00:00||AKTİFBANK|10.40.25.161|||110000438458|30
03.10.2018 05:00:00||AKTİFBANK|10.40.25.161|||110000438458|20
03.10.2018 05:00:00||AKTİFBANK|10.40.25.161|||110000438458|52
03.10.2018 05:00:00||AKTİFBANK|10.40.25.162|||110000438458|30
03.10.2018 05:00:00||AKTİFBANK|10.40.25.162|||110000438458|30
03.10.2018 05:00:00||AKTİFBANK|10.40.25.162|||110000438458|62
03.10.2018 05:00:00||AKTİFBANK|10.40.25.162|||110000438458|52
03.10.2018 05:00:00||AKTİFBANK|10.40.25.162|||110000438458|30
03.10.2018 05:00:00||AKTİFBANK|10.40.25.162|||110000438458|41
03.10.2018 05:00:00||AKTİFBANK|10.40.25.163|||110000438458|41
03.10.2018 05:00:00||AKTİFBANK|10.40.25.164|||110000438458|62
03.10.2018 05:00:00||AKTİFBANK|10.40.25.164|||110000438458|294
03.10.2018 05:00:00||AKTİFBANK|10.40.25.164|||110000438458|52
03.10.2018 05:00:00||AKTİFBANK|10.40.25.164|||110000438458|273
03.10.2018 05:00:00||AKTİFBANK|10.40.25.164|||110000438458|284
03.10.2018 05:00:00||AKTİFBANK|10.40.25.165|||110000438458|146
03.10.2018 05:00:00||AKTİFBANK|10.40.25.165|||110000438458|73
03.10.2018 05:00:00||AKTİFBANK|10.40.25.165|||110000438458|73
03.10.2018 05:00:00||AKTİFBANK|10.40.25.165|||110000438458|105
03.10.2018 05:00:00||AKTİFBANK|10.40.25.166|||110000438458|41
03.10.2018 05:00:00||AKTİFBANK|10.40.25.166|||110000438458|94
03.10.2018 05:00:00||AKTİFBANK|10.40.25.168|||110000438458|94
03.10.2018 05:00:00||AKTİFBANK|10.40.25.168|||110000438458|73
03.10.2018 05:00:00||AKTİFBANK|10.40.25.168|||110000438458|52
03.10.2018 05:00:00||AKTİFBANK|10.40.25.168|||110000438458|41
03.10.2018 05:00:00||AKTİFBANK|10.40.25.168|||110000438458|62
03.10.2018 05:00:00||AKTİFBANK|10.40.25.169|||110000438458|94
03.10.2018 05:00:00||AKTİFBANK|10.40.25.169|||110000438458|94
03.10.2018 05:00:00||AKTİFBANK|10.40.25.169|||110000438458|73
03.10.2018 05:00:00||AKTİFBANK|10.40.25.169|||110000438458|105
03.10.2018 05:00:00||AKTİFBANK|10.40.25.170|||110000438458|30
03.10.2018 05:00:00||AKTİFBANK|10.40.25.170|||110000438458|30
03.10.2018 05:00:00||AKTİFBANK|10.40.25.170|||110000438458|242
03.10.2018 05:00:00||AKTİFBANK|10.40.25.170|||110000438458|105
03.10.2018 05:00:00||AKTİFBANK|10.40.25.170|||110000438458|84
03.10.2018 05:00:00||AKTİFBANK|10.40.25.170|||110000438458|115
03.10.2018 05:00:00||AKTİFBANK|10.40.25.171|||110000438458|1
03.10.2018 05:00:00||AKTİFBANK|10.40.25.171|||110000438458|11
03.10.2018 05:00:00||AKTİFBANK|10.40.25.172|||110000438458|27
03.10.2018 05:00:00||AKTİFBANK|10.40.25.172|||110000438458|64
03.10.2018 05:00:00||AKTİFBANK|10.40.25.173|||110000438458|34
03.10.2018 05:00:00||AKTİFBANK|10.40.25.173|||110000438458|64
03.10.2018 05:00:00||AKTİFBANK|10.40.25.174|||110000438458|55
03.10.2018 05:00:00||AKTİFBANK|10.40.25.178|||110000438458|590
03.10.2018 05:00:00||AKTİFBANK|10.40.25.178|||110000438458|590
03.10.2018 05:00:00||AKTİFBANK|10.40.25.178|||110000438458|579
03.10.2018 05:00:00||AKTİFBANK|10.40.25.179|||110000438458|410
03.10.2018 05:00:00||AKTİFBANK|10.40.25.179|||110000438458|347
03.10.2018 05:00:00||AKTİFBANK|10.40.25.179|||110000438458|326
03.10.2018 05:00:00||AKTİFBANK|10.40.25.186|||110000438458|92
03.10.2018 05:00:00||AKTİFBANK|10.40.25.186|||110000438458|20
03.10.2018 05:00:00||AKTİFBANK|10.40.25.186|||110000438458|71
03.10.2018 05:00:00||BOYNER|10.40.26.100|||101367941673|41
03.10.2018 05:00:00||BOYNER|10.40.26.100|||101367941673|17
03.10.2018 05:00:00||BOYNER|10.40.26.101|||101367941673|26
03.10.2018 05:00:00||BOYNER|10.40.26.101|||101367941673|132
03.10.2018 05:00:00||BOYNER|10.40.26.94|||101367941673|87
03.10.2018 05:00:00||BOYNER|10.40.26.94|||101367941673|77
03.10.2018 05:00:00||BOYNER|10.40.26.94|||101367941673|77
03.10.2018 05:00:00||BOYNER|10.40.26.95|||101367941673|87
03.10.2018 05:00:00||BOYNER|10.40.26.95|||101367941673|192
03.10.2018 05:00:00||BOYNER|10.40.26.95|||101367941673|135
03.10.2018 05:00:00||BOYNER|10.40.26.96|||101367941673|30
03.10.2018 05:00:00||BOYNER|10.40.26.96|||101367941673|39
03.10.2018 05:00:00||BOYNER|10.40.26.96|||101367941673|30
03.10.2018 05:00:00||BOYNER|10.40.26.96|||101367941673|39
03.10.2018 05:00:00||BOYNER|10.40.26.96|||101367941673|39
03.10.2018 05:00:00||BOYNER|10.40.26.96|||101367941673|48
03.10.2018 05:00:00||BOYNER|10.40.26.96|||101367941673|173
03.10.2018 05:00:00||BOYNER|10.40.26.96|||101367941673|202
03.10.2018 05:00:00||BOYNER|10.40.26.96|||101367941673|154
03.10.2018 05:00:00||BOYNER|10.40.26.96|||101367941673|173
03.10.2018 05:00:00||BOYNER|10.40.26.97|||101367941673|30
03.10.2018 05:00:00||BOYNER|10.40.26.97|||101367941673|632
03.10.2018 05:00:00||BOYNER|10.40.26.97|||101367941673|622
03.10.2018 05:00:00||BOYNER|10.40.26.97|||101367941673|632
03.10.2018 05:00:00||BOYNER|10.40.26.97|||101367941673|30
03.10.2018 05:00:00||BOYNER|10.40.26.97|||101367941673|39
03.10.2018 05:00:00||BOYNER|10.40.26.97|||101367941673|48
03.10.2018 05:00:00||BOYNER|10.40.26.97|||101367941673|58
03.10.2018 05:00:00||BOYNER|10.40.26.97|||101367941673|30
03.10.2018 05:00:00||BOYNER|10.40.26.97|||101367941673|144
03.10.2018 05:00:00||BOYNER|10.40.26.97|||101367941673|173
03.10.2018 05:00:00||BOYNER|10.40.26.97|||101367941673|164
03.10.2018 05:00:00||BOYNER|10.40.26.97|||101367941673|164
03.10.2018 05:00:00||BOYNER|10.40.26.99|||101367941673|20
03.10.2018 05:00:00||BOYNER|10.40.26.99|||101367941673|106
03.10.2018 05:00:00||BOYNER|10.40.26.99|||101367941673|106
03.10.2018 05:00:00||BOYNER|10.40.26.99|||101367941673|58
03.10.2018 05:00:00||BOYNER|10.40.27.100|||101367941673|16
03.10.2018 05:00:00||BOYNER|10.40.27.100|||101367941673|35
03.10.2018 05:00:00||BOYNER|10.40.27.101|||101367941673|132
03.10.2018 05:00:00||BOYNER|10.40.27.101|||101367941673|28
03.10.2018 05:00:00||BOYNER|10.40.27.94|||101367941673|200
03.10.2018 05:00:00||BOYNER|10.40.27.94|||101367941673|86
03.10.2018 05:00:00||BOYNER|10.40.27.94|||101367941673|86
03.10.2018 05:00:00||BOYNER|10.40.27.94|||101367941673|96
03.10.2018 05:00:00||BOYNER|10.40.27.95|||101367941673|124
03.10.2018 05:00:00||BOYNER|10.40.27.95|||101367941673|124
03.10.2018 05:00:00||BOYNER|10.40.27.95|||101367941673|228
03.10.2018 05:00:00||BOYNER|10.40.27.96|||101367941673|58
03.10.2018 05:00:00||BOYNER|10.40.27.96|||101367941673|48
03.10.2018 05:00:00||BOYNER|10.40.27.96|||101367941673|48
03.10.2018 05:00:00||BOYNER|10.40.27.96|||101367941673|39
03.10.2018 05:00:00||BOYNER|10.40.27.96|||101367941673|39
03.10.2018 05:00:00||BOYNER|10.40.27.96|||101367941673|134
03.10.2018 05:00:00||BOYNER|10.40.27.96|||101367941673|134
03.10.2018 05:00:00||BOYNER|10.40.27.96|||101367941673|162
03.10.2018 05:00:00||BOYNER|10.40.27.96|||101367941673|152
03.10.2018 05:00:00||BOYNER|10.40.27.97|||101367941673|58
03.10.2018 05:00:00||BOYNER|10.40.27.97|||101367941673|627
03.10.2018 05:00:00||BOYNER|10.40.27.97|||101367941673|637
03.10.2018 05:00:00||BOYNER|10.40.27.97|||101367941673|656
03.10.2018 05:00:00||BOYNER|10.40.27.97|||101367941673|48
03.10.2018 05:00:00||BOYNER|10.40.27.97|||101367941673|39
03.10.2018 05:00:00||BOYNER|10.40.27.97|||101367941673|48
03.10.2018 05:00:00||BOYNER|10.40.27.97|||101367941673|30
03.10.2018 05:00:00||BOYNER|10.40.27.97|||101367941673|162
03.10.2018 05:00:00||BOYNER|10.40.27.97|||101367941673|172
03.10.2018 05:00:00||BOYNER|10.40.27.97|||101367941673|191
03.10.2018 05:00:00||BOYNER|10.40.27.97|||101367941673|191
03.10.2018 05:00:00||BOYNER|10.40.27.99|||101367941673|115
03.10.2018 05:00:00||BOYNER|10.40.27.99|||101367941673|96
03.10.2018 05:00:00||BOYNER|10.40.27.99|||101367941673|67
03.10.2018 05:00:00||ÇALIK HOLDİNG|10.40.24.100|||110000438408|30
03.10.2018 05:00:00||ÇALIK HOLDİNG|10.40.24.100|||110000438408|40
03.10.2018 05:00:00||ÇALIK HOLDİNG|10.40.24.101|||110000438408|59
03.10.2018 05:00:00||ÇALIK HOLDİNG|10.40.24.101|||110000438408|108
03.10.2018 05:00:00||ÇALIK HOLDİNG|10.40.24.101|||110000438408|20
03.10.2018 05:00:00||ÇALIK HOLDİNG|10.40.24.101|||110000438408|20
03.10.2018 05:00:00||ÇALIK HOLDİNG|10.40.24.101|||110000438408|40
03.10.2018 05:00:00||ÇALIK HOLDİNG|10.40.24.101|||110000438408|89
03.10.2018 05:00:00||ÇALIK HOLDİNG|10.40.24.101|||110000438408|30
03.10.2018 05:00:00||ÇALIK HOLDİNG|10.40.24.101|||110000438408|10
03.10.2018 05:00:00||ÇALIK HOLDİNG|10.40.24.101|||110000438408|20
03.10.2018 05:00:00||ÇALIK HOLDİNG|10.40.24.101|||110000438408|49
03.10.2018 05:00:00||ÇALIK HOLDİNG|10.40.24.101|||110000438408|30
03.10.2018 05:00:00||ÇALIK HOLDİNG|10.40.24.101|||110000438408|79
03.10.2018 05:00:00||ÇALIK HOLDİNG|10.40.24.101|||110000438408|79
03.10.2018 05:00:00||ÇALIK HOLDİNG|10.40.24.101|||110000438408|98
03.10.2018 05:00:00||ÇALIK HOLDİNG|10.40.24.102|||110000438408|98
03.10.2018 05:00:00||ÇALIK HOLDİNG|10.40.24.102|||110000438408|98
03.10.2018 05:00:00||ÇALIK HOLDİNG|10.40.24.102|||110000438408|138
03.10.2018 05:00:00||ÇALIK HOLDİNG|10.40.24.103|||110000438408|98
03.10.2018 05:00:00||ÇALIK HOLDİNG|10.40.24.103|||110000438408|79
03.10.2018 05:00:00||ÇALIK HOLDİNG|10.40.24.103|||110000438408|79
03.10.2018 05:00:00||ÇALIK HOLDİNG|10.40.24.103|||110000438408|20
03.10.2018 05:00:00||ÇALIK HOLDİNG|10.40.24.103|||110000438408|20
03.10.2018 05:00:00||ÇALIK HOLDİNG|10.40.24.113|||110000438408|206
03.10.2018 05:00:00||ÇALIK HOLDİNG|10.40.24.113|||110000438408|225
03.10.2018 05:00:00||ÇALIK HOLDİNG|10.40.24.113|||110000438408|196
03.10.2018 05:00:00||ÇALIK HOLDİNG|10.40.24.113|||110000438408|147
03.10.2018 05:00:00||ÇALIK HOLDİNG|10.40.24.114|||110000438408|20
03.10.2018 05:00:00||ÇALIK HOLDİNG|10.40.24.114|||110000438408|40
03.10.2018 05:00:00||ÇALIK HOLDİNG|10.40.24.114|||110000438408|177
03.10.2018 05:00:00||ÇALIK HOLDİNG|10.40.24.114|||110000438408|362
03.10.2018 05:00:00||ÇALIK HOLDİNG|10.40.24.115|||110000438408|138
03.10.2018 05:00:00||ÇALIK HOLDİNG|10.40.24.115|||110000438408|79
03.10.2018 05:00:00||ÇALIK HOLDİNG|10.40.24.115|||110000438408|89
03.10.2018 05:00:00||ÇALIK HOLDİNG|10.40.24.115|||110000438408|69
03.10.2018 05:00:00||ÇALIK HOLDİNG|10.40.24.115|||110000438408|89
03.10.2018 05:00:00||ÇALIK HOLDİNG|10.40.24.115|||110000438408|69
03.10.2018 05:00:00||ÇALIK HOLDİNG|10.40.24.116|||110000438408|264
03.10.2018 05:00:00||ÇALIK HOLDİNG|10.40.24.116|||110000438408|108
03.10.2018 05:00:00||ÇALIK HOLDİNG|10.40.24.116|||110000438408|89
03.10.2018 05:00:00||ÇALIK HOLDİNG|10.40.24.117|||110000438408|196
03.10.2018 05:00:00||ÇALIK HOLDİNG|10.40.24.117|||110000438408|30
03.10.2018 05:00:00||ÇALIK HOLDİNG|10.40.24.117|||110000438408|30
03.10.2018 05:00:00||ÇALIK HOLDİNG|10.40.24.118|||110000438408|43
03.10.2018 05:00:00||ÇALIK HOLDİNG|10.40.24.119|||110000438408|147
03.10.2018 05:00:00||ÇALIK HOLDİNG|10.40.24.119|||110000438408|30
03.10.2018 05:00:00||ÇALIK HOLDİNG|10.40.24.119|||110000438408|49
03.10.2018 05:00:00||ÇALIK HOLDİNG|10.40.24.120|||110000438408|20
03.10.2018 05:00:00||ÇALIK HOLDİNG|10.40.24.120|||110000438408|30
03.10.2018 05:00:00||ÇALIK HOLDİNG|10.40.24.120|||110000438408|108
03.10.2018 05:00:00||ÇALIK HOLDİNG|10.40.24.120|||110000438408|10
03.10.2018 05:00:00||ÇALIK HOLDİNG|10.40.24.120|||110000438408|20
03.10.2018 05:00:00||ÇALIK HOLDİNG|10.40.24.120|||110000438408|98
03.10.2018 05:00:00||ÇALIK HOLDİNG|10.40.24.120|||110000438408|40
03.10.2018 05:00:00||ÇALIK HOLDİNG|10.40.24.120|||110000438408|79
03.10.2018 05:00:00||ÇALIK HOLDİNG|10.40.24.120|||110000438408|79
03.10.2018 05:00:00||ÇALIK HOLDİNG|10.40.24.120|||110000438408|69
03.10.2018 05:00:00||ÇALIK HOLDİNG|10.40.24.121|||110000438408|98
03.10.2018 05:00:00||ÇALIK HOLDİNG|10.40.24.121|||110000438408|98
03.10.2018 05:00:00||ÇALIK HOLDİNG|10.40.24.121|||110000438408|147
03.10.2018 05:00:00||ÇALIK HOLDİNG|10.40.24.122|||110000438408|89
03.10.2018 05:00:00||ÇALIK HOLDİNG|10.40.24.122|||110000438408|79
03.10.2018 05:00:00||ÇALIK HOLDİNG|10.40.24.122|||110000438408|89
03.10.2018 05:00:00||ÇALIK HOLDİNG|10.40.24.122|||110000438408|30
03.10.2018 05:00:00||ÇALIK HOLDİNG|10.40.24.122|||110000438408|10
03.10.2018 05:00:00||ÇALIK HOLDİNG|10.40.24.94|||110000438408|198
03.10.2018 05:00:00||ÇALIK HOLDİNG|10.40.24.94|||110000438408|170
03.10.2018 05:00:00||ÇALIK HOLDİNG|10.40.24.94|||110000438408|179
03.10.2018 05:00:00||ÇALIK HOLDİNG|10.40.24.94|||110000438408|189
03.10.2018 05:00:00||ÇALIK HOLDİNG|10.40.24.95|||110000438408|95
03.10.2018 05:00:00||ÇALIK HOLDİNG|10.40.24.95|||110000438408|48
03.10.2018 05:00:00||ÇALIK HOLDİNG|10.40.24.95|||110000438408|20
03.10.2018 05:00:00||ÇALIK HOLDİNG|10.40.24.95|||110000438408|86
03.10.2018 05:00:00||ÇALIK HOLDİNG|10.40.24.95|||110000438408|414
03.10.2018 05:00:00||ÇALIK HOLDİNG|10.40.24.95|||110000438408|376
03.10.2018 05:00:00||ÇALIK HOLDİNG|10.40.24.97|||110000438408|101
03.10.2018 05:00:00||ÇALIK HOLDİNG|10.40.24.97|||110000438408|91
03.10.2018 05:00:00||ÇALIK HOLDİNG|10.40.24.97|||110000438408|81
03.10.2018 05:00:00||ÇALIK HOLDİNG|10.40.24.97|||110000438408|91
03.10.2018 05:00:00||ÇALIK HOLDİNG|10.40.24.97|||110000438408|316
03.10.2018 05:00:00||ÇALIK HOLDİNG|10.40.24.98|||110000438408|91
03.10.2018 05:00:00||ÇALIK HOLDİNG|10.40.24.98|||110000438408|152
03.10.2018 05:00:00||ÇALIK HOLDİNG|10.40.24.98|||110000438408|203
03.10.2018 05:00:00||ÇALIK HOLDİNG|10.40.24.98|||110000438408|203
03.10.2018 05:00:00||ÇALIK HOLDİNG|10.40.24.98|||110000438408|163
03.10.2018 05:00:00||ÇALIK HOLDİNG|10.40.24.98|||110000438408|30
03.10.2018 05:00:00||ÇALIK HOLDİNG|10.40.24.98|||110000438408|163
03.10.2018 05:00:00||ÇALIK HOLDİNG|10.40.24.98|||110000438408|183
03.10.2018 05:00:00||ÇALIK HOLDİNG|10.40.24.98|||110000438408|173
03.10.2018 05:00:00||ÇALIK HOLDİNG|10.40.24.98|||110000438408|183
03.10.2018 05:00:00||ÇALIK HOLDİNG|10.40.24.98|||110000438408|20
03.10.2018 05:00:00||ÇALIK HOLDİNG|10.40.24.98|||110000438408|285
03.10.2018 05:00:00||ÇALIK HOLDİNG|10.40.25.100|||110000438408|40
03.10.2018 05:00:00||ÇALIK HOLDİNG|10.40.25.100|||110000438408|40
03.10.2018 05:00:00||ÇALIK HOLDİNG|10.40.25.101|||110000438408|50
03.10.2018 05:00:00||ÇALIK HOLDİNG|10.40.25.101|||110000438408|111
03.10.2018 05:00:00||ÇALIK HOLDİNG|10.40.25.101|||110000438408|30
03.10.2018 05:00:00||ÇALIK HOLDİNG|10.40.25.101|||110000438408|10
03.10.2018 05:00:00||ÇALIK HOLDİNG|10.40.25.101|||110000438408|81
03.10.2018 05:00:00||ÇALIK HOLDİNG|10.40.25.101|||110000438408|40
03.10.2018 05:00:00||ÇALIK HOLDİNG|10.40.25.101|||110000438408|40
03.10.2018 05:00:00||ÇALIK HOLDİNG|10.40.25.101|||110000438408|91
03.10.2018 05:00:00||ÇALIK HOLDİNG|10.40.25.101|||110000438408|91
03.10.2018 05:00:00||ÇALIK HOLDİNG|10.40.25.101|||110000438408|91
03.10.2018 05:00:00||ÇALIK HOLDİNG|10.40.25.102|||110000438408|101
03.10.2018 05:00:00||ÇALIK HOLDİNG|10.40.25.102|||110000438408|101
03.10.2018 05:00:00||ÇALIK HOLDİNG|10.40.25.102|||110000438408|152
03.10.2018 05:00:00||ÇALIK HOLDİNG|10.40.25.103|||110000438408|91
03.10.2018 05:00:00||ÇALIK HOLDİNG|10.40.25.103|||110000438408|91
03.10.2018 05:00:00||ÇALIK HOLDİNG|10.40.25.103|||110000438408|81
03.10.2018 05:00:00||ÇALIK HOLDİNG|10.40.25.113|||110000438408|224
03.10.2018 05:00:00||ÇALIK HOLDİNG|10.40.25.113|||110000438408|254
03.10.2018 05:00:00||ÇALIK HOLDİNG|10.40.25.113|||110000438408|183
03.10.2018 05:00:00||ÇALIK HOLDİNG|10.40.25.113|||110000438408|203
03.10.2018 05:00:00||ÇALIK HOLDİNG|10.40.25.114|||110000438408|183
03.10.2018 05:00:00||ÇALIK HOLDİNG|10.40.25.114|||110000438408|418
03.10.2018 05:00:00||ÇALIK HOLDİNG|10.40.25.114|||110000438408|40
03.10.2018 05:00:00||ÇALIK HOLDİNG|10.40.25.115|||110000438408|152
03.10.2018 05:00:00||ÇALIK HOLDİNG|10.40.25.115|||110000438408|71
03.10.2018 05:00:00||ÇALIK HOLDİNG|10.40.25.115|||110000438408|81
03.10.2018 05:00:00||ÇALIK HOLDİNG|10.40.25.115|||110000438408|81
03.10.2018 05:00:00||ÇALIK HOLDİNG|10.40.25.115|||110000438408|71
03.10.2018 05:00:00||ÇALIK HOLDİNG|10.40.25.115|||110000438408|71
03.10.2018 05:00:00||ÇALIK HOLDİNG|10.40.25.116|||110000438408|101
03.10.2018 05:00:00||ÇALIK HOLDİNG|10.40.25.116|||110000438408|101
03.10.2018 05:00:00||ÇALIK HOLDİNG|10.40.25.116|||110000438408|295
03.10.2018 05:00:00||ÇALIK HOLDİNG|10.40.25.117|||110000438408|244
03.10.2018 05:00:00||ÇALIK HOLDİNG|10.40.25.117|||110000438408|30
03.10.2018 05:00:00||ÇALIK HOLDİNG|10.40.25.117|||110000438408|30
03.10.2018 05:00:00||ÇALIK HOLDİNG|10.40.25.118|||110000438408|163
03.10.2018 05:00:00||ÇALIK HOLDİNG|10.40.25.119|||110000438408|30
03.10.2018 05:00:00||ÇALIK HOLDİNG|10.40.25.119|||110000438408|30
03.10.2018 05:00:00||ÇALIK HOLDİNG|10.40.25.120|||110000438408|111
03.10.2018 05:00:00||ÇALIK HOLDİNG|10.40.25.120|||110000438408|50
03.10.2018 05:00:00||ÇALIK HOLDİNG|10.40.25.120|||110000438408|60
03.10.2018 05:00:00||ÇALIK HOLDİNG|10.40.25.120|||110000438408|20
03.10.2018 05:00:00||ÇALIK HOLDİNG|10.40.25.120|||110000438408|30
03.10.2018 05:00:00||ÇALIK HOLDİNG|10.40.25.120|||110000438408|40
03.10.2018 05:00:00||ÇALIK HOLDİNG|10.40.25.120|||110000438408|91
03.10.2018 05:00:00||ÇALIK HOLDİNG|10.40.25.120|||110000438408|20
03.10.2018 05:00:00||ÇALIK HOLDİNG|10.40.25.120|||110000438408|91
03.10.2018 05:00:00||ÇALIK HOLDİNG|10.40.25.120|||110000438408|91
03.10.2018 05:00:00||ÇALIK HOLDİNG|10.40.25.121|||110000438408|91
03.10.2018 05:00:00||ÇALIK HOLDİNG|10.40.25.121|||110000438408|101
03.10.2018 05:00:00||ÇALIK HOLDİNG|10.40.25.121|||110000438408|142
03.10.2018 05:00:00||ÇALIK HOLDİNG|10.40.25.122|||110000438408|91
03.10.2018 05:00:00||ÇALIK HOLDİNG|10.40.25.122|||110000438408|81
03.10.2018 05:00:00||ÇALIK HOLDİNG|10.40.25.122|||110000438408|81
03.10.2018 05:00:00||ÇALIK HOLDİNG|10.40.25.94|||110000438408|185
03.10.2018 05:00:00||ÇALIK HOLDİNG|10.40.25.94|||110000438408|185
03.10.2018 05:00:00||ÇALIK HOLDİNG|10.40.25.94|||110000438408|174
03.10.2018 05:00:00||ÇALIK HOLDİNG|10.40.25.94|||110000438408|185
03.10.2018 05:00:00||ÇALIK HOLDİNG|10.40.25.95|||110000438408|102
03.10.2018 05:00:00||ÇALIK HOLDİNG|10.40.25.95|||110000438408|82
03.10.2018 05:00:00||ÇALIK HOLDİNG|10.40.25.95|||110000438408|391
03.10.2018 05:00:00||ÇALIK HOLDİNG|10.40.25.95|||110000438408|391
03.10.2018 05:00:00||ÇALIK HOLDİNG|10.40.25.95|||110000438408|40
03.10.2018 05:00:00||ÇALIK HOLDİNG|10.40.25.96|||110000438408|71
03.10.2018 05:00:00||ÇALIK HOLDİNG|10.40.25.96|||110000438408|92
03.10.2018 05:00:00||ÇALIK HOLDİNG|10.40.25.96|||110000438408|102
03.10.2018 05:00:00||ÇALIK HOLDİNG|10.40.25.96|||110000438408|92
03.10.2018 05:00:00||ÇALIK HOLDİNG|10.40.25.96|||110000438408|133
03.10.2018 05:00:00||ÇALIK HOLDİNG|10.40.25.96|||110000438408|102
03.10.2018 05:00:00||ÇALIK HOLDİNG|10.40.25.96|||110000438408|257
03.10.2018 05:00:00||ÇALIK HOLDİNG|10.40.25.96|||110000438408|267
03.10.2018 05:00:00||ÇALIK HOLDİNG|10.40.25.96|||110000438408|90
03.10.2018 05:00:00||ÇALIK HOLDİNG|10.40.25.96|||110000438408|90
03.10.2018 05:00:00||ÇALIK HOLDİNG|10.40.25.96|||110000438408|100
03.10.2018 05:00:00||ÇALIK HOLDİNG|10.40.25.96|||110000438408|90
03.10.2018 05:00:00||ÇALIK HOLDİNG|10.40.25.96|||110000438408|100
03.10.2018 05:00:00||ÇALIK HOLDİNG|10.40.25.96|||110000438408|90
03.10.2018 05:00:00||ÇALIK HOLDİNG|10.40.25.97|||110000438408|100
03.10.2018 05:00:00||ÇALIK HOLDİNG|10.40.25.97|||110000438408|80
03.10.2018 05:00:00||ÇALIK HOLDİNG|10.40.25.97|||110000438408|90
03.10.2018 05:00:00||ÇALIK HOLDİNG|10.40.25.97|||110000438408|80
03.10.2018 05:00:00||ÇALIK HOLDİNG|10.40.25.97|||110000438408|299
03.10.2018 05:00:00||ÇALIK HOLDİNG|10.40.25.98|||110000438408|50
03.10.2018 05:00:00||ÇALIK HOLDİNG|10.40.25.98|||110000438408|160
03.10.2018 05:00:00||ÇALIK HOLDİNG|10.40.25.98|||110000438408|160
03.10.2018 05:00:00||ÇALIK HOLDİNG|10.40.25.98|||110000438408|160
03.10.2018 05:00:00||ÇALIK HOLDİNG|10.40.25.98|||110000438408|160
03.10.2018 05:00:00||ÇALIK HOLDİNG|10.40.25.98|||110000438408|60
03.10.2018 05:00:00||ÇALIK HOLDİNG|10.40.25.98|||110000438408|210
03.10.2018 05:00:00||ÇALIK HOLDİNG|10.40.25.98|||110000438408|180
03.10.2018 05:00:00||ÇALIK HOLDİNG|10.40.25.98|||110000438408|170
03.10.2018 05:00:00||ÇALIK HOLDİNG|10.40.25.98|||110000438408|210
03.10.2018 05:00:00||ÇALIK HOLDİNG|10.40.25.98|||110000438408|70
03.10.2018 05:00:00||ÇALIK HOLDİNG|10.40.25.98|||110000438408|299
03.10.2018 05:00:00||ÇALIK HOLDİNG|10.40.25.99|||110000438408|71
03.10.2018 05:00:00||ÇALIK HOLDİNG|10.40.25.99|||110000438408|66
03.10.2018 05:00:00||FIBABANKA|10.40.24.51|||101571767266|20
03.10.2018 05:00:00||FIBABANKA|10.40.24.51|||101571767266|67
03.10.2018 05:00:00||FIBABANKA|10.40.24.51|||101571767266|95
03.10.2018 05:00:00||FIBABANKA|10.40.24.51|||101571767266|133
03.10.2018 05:00:00||FIBABANKA|10.40.24.51|||101571767266|30
03.10.2018 05:00:00||FIBABANKA|10.40.24.51|||101571767266|30
03.10.2018 05:00:00||FIBABANKA|10.40.24.52|||101571767266|10
03.10.2018 05:00:00||FIBABANKA|10.40.24.53|||101571767266|30
03.10.2018 05:00:00||FIBABANKA|10.40.24.53|||101571767266|58
03.10.2018 05:00:00||FIBABANKA|10.40.24.53|||101571767266|170
03.10.2018 05:00:00||FIBABANKA|10.40.24.53|||101571767266|198
03.10.2018 05:00:00||FIBABANKA|10.40.24.54|||101571767266|180
03.10.2018 05:00:00||FIBABANKA|10.40.24.54|||101571767266|182
03.10.2018 05:00:00||FIBABANKA|10.40.24.55|||101571767266|82
03.10.2018 05:00:00||FIBABANKA|10.40.24.55|||101571767266|23
03.10.2018 05:00:00||FIBABANKA|10.40.24.56|||101571767266|11
03.10.2018 05:00:00||FIBABANKA|10.40.24.56|||101571767266|174
03.10.2018 05:00:00||FIBABANKA|10.40.24.57|||101571767266|86
03.10.2018 05:00:00||FIBABANKA|10.40.24.57|||101571767266|76
03.10.2018 05:00:00||FIBABANKA|10.40.24.57|||101571767266|76
03.10.2018 05:00:00||FIBABANKA|10.40.24.59|||101571767266|67
03.10.2018 05:00:00||FIBABANKA|10.40.24.59|||101571767266|114
03.10.2018 05:00:00||FIBABANKA|10.40.24.59|||101571767266|67
03.10.2018 05:00:00||FIBABANKA|10.40.24.59|||101571767266|48
03.10.2018 05:00:00||FIBABANKA|10.40.24.59|||101571767266|123
03.10.2018 05:00:00||FIBABANKA|10.40.24.59|||101571767266|67
03.10.2018 05:00:00||FIBABANKA|10.40.24.59|||101571767266|58
03.10.2018 05:00:00||FIBABANKA|10.40.24.59|||101571767266|151
03.10.2018 05:00:00||FIBABANKA|10.40.24.59|||101571767266|58
03.10.2018 05:00:00||FIBABANKA|10.40.24.60|||101571767266|114
03.10.2018 05:00:00||FIBABANKA|10.40.24.60|||101571767266|48
03.10.2018 05:00:00||FIBABANKA|10.40.24.60|||101571767266|39
03.10.2018 05:00:00||FIBABANKA|10.40.24.60|||101571767266|95
03.10.2018 05:00:00||FIBABANKA|10.40.24.60|||101571767266|58
03.10.2018 05:00:00||FIBABANKA|10.40.24.72|||101571767266|133
03.10.2018 05:00:00||FIBABANKA|10.40.24.72|||101571767266|67
03.10.2018 05:00:00||FIBABANKA|10.40.24.72|||101571767266|30
03.10.2018 05:00:00||FIBABANKA|10.40.24.72|||101571767266|39
03.10.2018 05:00:00||FIBABANKA|10.40.24.74|||101571767266|30
03.10.2018 05:00:00||FIBABANKA|10.40.24.74|||101571767266|30
03.10.2018 05:00:00||FIBABANKA|10.40.24.75|||101571767266|179
03.10.2018 05:00:00||FIBABANKA|10.40.24.75|||101571767266|151
03.10.2018 05:00:00||FIBABANKA|10.40.24.75|||101571767266|151
03.10.2018 05:00:00||FIBABANKA|10.40.24.76|||101571767266|39
03.10.2018 05:00:00||FIBABANKA|10.40.24.76|||101571767266|67
03.10.2018 05:00:00||FIBABANKA|10.40.24.76|||101571767266|10
03.10.2018 05:00:00||FIBABANKA|10.40.25.51|||101571767266|20
03.10.2018 05:00:00||FIBABANKA|10.40.25.51|||101571767266|112
03.10.2018 05:00:00||FIBABANKA|10.40.25.51|||101571767266|133
03.10.2018 05:00:00||FIBABANKA|10.40.25.51|||101571767266|40
03.10.2018 05:00:00||FIBABANKA|10.40.25.51|||101571767266|40
03.10.2018 05:00:00||FIBABANKA|10.40.25.51|||101571767266|71
03.10.2018 05:00:00||FIBABANKA|10.40.25.52|||101571767266|10
03.10.2018 05:00:00||FIBABANKA|10.40.25.52|||101571767266|71
03.10.2018 05:00:00||FIBABANKA|10.40.25.53|||101571767266|40
03.10.2018 05:00:00||FIBABANKA|10.40.25.53|||101571767266|51
03.10.2018 05:00:00||FIBABANKA|10.40.25.53|||101571767266|164
03.10.2018 05:00:00||FIBABANKA|10.40.25.53|||101571767266|164
03.10.2018 05:00:00||FIBABANKA|10.40.25.54|||101571767266|95
03.10.2018 05:00:00||FIBABANKA|10.40.25.54|||101571767266|167
03.10.2018 05:00:00||FIBABANKA|10.40.25.55|||101571767266|91
03.10.2018 05:00:00||FIBABANKA|10.40.25.55|||101571767266|23
03.10.2018 05:00:00||FIBABANKA|10.40.25.56|||101571767266|11
03.10.2018 05:00:00||FIBABANKA|10.40.25.56|||101571767266|199
03.10.2018 05:00:00||FIBABANKA|10.40.25.57|||101571767266|92
03.10.2018 05:00:00||FIBABANKA|10.40.25.57|||101571767266|92
03.10.2018 05:00:00||FIBABANKA|10.40.25.57|||101571767266|92
03.10.2018 05:00:00||FIBABANKA|10.40.25.59|||101571767266|71
03.10.2018 05:00:00||FIBABANKA|10.40.25.59|||101571767266|92
03.10.2018 05:00:00||FIBABANKA|10.40.25.59|||101571767266|82
03.10.2018 05:00:00||FIBABANKA|10.40.25.59|||101571767266|40
03.10.2018 05:00:00||FIBABANKA|10.40.25.59|||101571767266|133
03.10.2018 05:00:00||FIBABANKA|10.40.25.59|||101571767266|71
03.10.2018 05:00:00||FIBABANKA|10.40.25.59|||101571767266|61
03.10.2018 05:00:00||FIBABANKA|10.40.25.59|||101571767266|164
03.10.2018 05:00:00||FIBABANKA|10.40.25.59|||101571767266|61
03.10.2018 05:00:00||FIBABANKA|10.40.25.60|||101571767266|112
03.10.2018 05:00:00||FIBABANKA|10.40.25.60|||101571767266|30
03.10.2018 05:00:00||FIBABANKA|10.40.25.60|||101571767266|112
03.10.2018 05:00:00||FIBABANKA|10.40.25.60|||101571767266|40
03.10.2018 05:00:00||FIBABANKA|10.40.25.72|||101571767266|71
03.10.2018 05:00:00||FIBABANKA|10.40.25.72|||101571767266|40
03.10.2018 05:00:00||FIBABANKA|10.40.25.72|||101571767266|30
03.10.2018 05:00:00||FIBABANKA|10.40.25.74|||101571767266|40
03.10.2018 05:00:00||FIBABANKA|10.40.25.74|||101571767266|30
03.10.2018 05:00:00||FIBABANKA|10.40.25.74|||101571767266|40
03.10.2018 05:00:00||FIBABANKA|10.40.25.74|||101571767266|40
03.10.2018 05:00:00||FIBABANKA|10.40.25.74|||101571767266|40
03.10.2018 05:00:00||FIBABANKA|10.40.25.75|||101571767266|10
03.10.2018 05:00:00||FIBABANKA|10.40.25.75|||101571767266|133
03.10.2018 05:00:00||FIBABANKA|10.40.25.75|||101571767266|164
03.10.2018 05:00:00||FIBABANKA|10.40.25.75|||101571767266|185
03.10.2018 05:00:00||FIBABANKA|10.40.25.75|||101571767266|195
03.10.2018 05:00:00||FIBABANKA|10.40.25.76|||101571767266|10
03.10.2018 05:00:00||FIBABANKA|10.40.25.76|||101571767266|61
03.10.2018 05:00:00||FIBABANKA|10.40.25.76|||101571767266|40
03.10.2018 05:00:00||FIBABANKA|10.40.25.76|||101571767266|10
03.10.2018 05:00:00||FIBABANKA|10.40.26.51|||101571767266|10
03.10.2018 05:00:00||FIBABANKA|10.40.26.51|||101571767266|20
03.10.2018 05:00:00||FIBABANKA|10.40.26.51|||101571767266|110
03.10.2018 05:00:00||FIBABANKA|10.40.26.51|||101571767266|140
03.10.2018 05:00:00||FIBABANKA|10.40.26.51|||101571767266|70
03.10.2018 05:00:00||FIBABANKA|10.40.26.51|||101571767266|30
03.10.2018 05:00:00||FIBABANKA|10.40.26.51|||101571767266|30
03.10.2018 05:00:00||FIBABANKA|10.40.26.52|||101571767266|30
03.10.2018 05:00:00||FIBABANKA|10.40.26.52|||101571767266|90
03.10.2018 05:00:00||FIBABANKA|10.40.26.52|||101571767266|30
03.10.2018 05:00:00||FIBABANKA|10.40.26.53|||101571767266|60
03.10.2018 05:00:00||FIBABANKA|10.40.26.53|||101571767266|50
03.10.2018 05:00:00||FIBABANKA|10.40.26.53|||101571767266|160
03.10.2018 05:00:00||FIBABANKA|10.40.26.53|||101571767266|180
03.10.2018 05:00:00||FIBABANKA|10.40.26.54|||101571767266|175
03.10.2018 05:00:00||FIBABANKA|10.40.26.54|||101571767266|140
03.10.2018 05:00:00||FIBABANKA|10.40.26.55|||101571767266|115
03.10.2018 05:00:00||FIBABANKA|10.40.26.57|||101571767266|90
03.10.2018 05:00:00||FIBABANKA|10.40.26.57|||101571767266|90
03.10.2018 05:00:00||FIBABANKA|10.40.26.57|||101571767266|80
03.10.2018 05:00:00||FIBABANKA|10.40.26.72|||101571767266|30
03.10.2018 05:00:00||FIBABANKA|10.40.26.72|||101571767266|144
03.10.2018 05:00:00||FIBABANKA|10.40.26.72|||101571767266|68
03.10.2018 05:00:00||FIBABANKA|10.40.26.72|||101571767266|30
03.10.2018 05:00:00||FIBABANKA|10.40.26.73|||101571767266|39
03.10.2018 05:00:00||FIBABANKA|10.40.26.73|||101571767266|68
03.10.2018 05:00:00||FIBABANKA|10.40.26.73|||101571767266|30
03.10.2018 05:00:00||FIBABANKA|10.40.26.73|||101571767266|39
03.10.2018 05:00:00||FIBABANKA|10.40.26.74|||101571767266|77
03.10.2018 05:00:00||FIBABANKA|10.40.26.74|||101571767266|173
03.10.2018 05:00:00||FIBABANKA|10.40.26.74|||101571767266|182
03.10.2018 05:00:00||FIBABANKA|10.40.26.74|||101571767266|173
03.10.2018 05:00:00||FIBABANKA|10.40.26.77|||101571767266|173
03.10.2018 05:00:00||FIBABANKA|10.40.26.79|||101571767266|10
03.10.2018 05:00:00||FIBABANKA|10.40.26.79|||101571767266|10
03.10.2018 05:00:00||FIBABANKA|10.40.27.51|||101571767266|30
03.10.2018 05:00:00||FIBABANKA|10.40.27.51|||101571767266|20
03.10.2018 05:00:00||FIBABANKA|10.40.27.51|||101571767266|96
03.10.2018 05:00:00||FIBABANKA|10.40.27.51|||101571767266|125
03.10.2018 05:00:00||FIBABANKA|10.40.27.51|||101571767266|68
03.10.2018 05:00:00||FIBABANKA|10.40.27.51|||101571767266|39
03.10.2018 05:00:00||FIBABANKA|10.40.27.51|||101571767266|39
03.10.2018 05:00:00||FIBABANKA|10.40.27.52|||101571767266|48
03.10.2018 05:00:00||FIBABANKA|10.40.27.52|||101571767266|58
03.10.2018 05:00:00||FIBABANKA|10.40.27.52|||101571767266|68
03.10.2018 05:00:00||FIBABANKA|10.40.27.53|||101571767266|68
03.10.2018 05:00:00||FIBABANKA|10.40.27.53|||101571767266|58
03.10.2018 05:00:00||FIBABANKA|10.40.27.53|||101571767266|164
03.10.2018 05:00:00||FIBABANKA|10.40.27.53|||101571767266|173
03.10.2018 05:00:00||FIBABANKA|10.40.27.54|||101571767266|171
03.10.2018 05:00:00||FIBABANKA|10.40.27.54|||101571767266|123
03.10.2018 05:00:00||FIBABANKA|10.40.27.55|||101571767266|109
03.10.2018 05:00:00||FIBABANKA|10.40.27.57|||101571767266|77
03.10.2018 05:00:00||FIBABANKA|10.40.27.57|||101571767266|77
03.10.2018 05:00:00||FIBABANKA|10.40.27.57|||101571767266|77
03.10.2018 05:00:00||FIBABANKA|10.40.27.72|||101571767266|48
03.10.2018 05:00:00||FIBABANKA|10.40.27.72|||101571767266|39
03.10.2018 05:00:00||FIBABANKA|10.40.27.72|||101571767266|135
03.10.2018 05:00:00||FIBABANKA|10.40.27.72|||101571767266|58
03.10.2018 05:00:00||FIBABANKA|10.40.27.72|||101571767266|30
03.10.2018 05:00:00||FIBABANKA|10.40.27.73|||101571767266|30
03.10.2018 05:00:00||FIBABANKA|10.40.27.73|||101571767266|96
03.10.2018 05:00:00||FIBABANKA|10.40.27.73|||101571767266|30
03.10.2018 05:00:00||FIBABANKA|10.40.27.73|||101571767266|20
03.10.2018 05:00:00||FIBABANKA|10.40.27.73|||101571767266|39
03.10.2018 05:00:00||FIBABANKA|10.40.27.73|||101571767266|39
03.10.2018 05:00:00||FIBABANKA|10.40.27.73|||101571767266|39
03.10.2018 05:00:00||FIBABANKA|10.40.27.73|||101571767266|39
03.10.2018 05:00:00||FIBABANKA|10.40.27.74|||101571767266|77
03.10.2018 05:00:00||FIBABANKA|10.40.27.74|||101571767266|144
03.10.2018 05:00:00||FIBABANKA|10.40.27.74|||101571767266|173
03.10.2018 05:00:00||FIBABANKA|10.40.27.74|||101571767266|173
03.10.2018 05:00:00||FIBABANKA|10.40.27.75|||101571767266|10
03.10.2018 05:00:00||FIBABANKA|10.40.27.75|||101571767266|10
03.10.2018 05:00:00||FIBABANKA|10.40.27.77|||101571767266|163
03.10.2018 05:00:00||FIBABANKA|10.40.27.77|||101571767266|153
03.10.2018 05:00:00||FIBABANKA|10.40.27.79|||101571767266|10
03.10.2018 05:00:00||HAVAŞ|10.40.24.45|||110000479675|70
03.10.2018 05:00:00||HAVAŞ|10.40.24.45|||110000479675|161
03.10.2018 05:00:00||HAVAŞ|10.40.24.45|||110000479675|131
03.10.2018 05:00:00||HAVAŞ|10.40.24.45|||110000479675|90
03.10.2018 05:00:00||HAVAŞ|10.40.24.46|||110000479675|20
03.10.2018 05:00:00||HAVAŞ|10.40.24.46|||110000479675|20
03.10.2018 05:00:00||HAVAŞ|10.40.24.46|||110000479675|10
03.10.2018 05:00:00||HAVAŞ|10.40.24.46|||110000479675|10
03.10.2018 05:00:00||HAVAŞ|10.40.24.46|||110000479675|10
03.10.2018 05:00:00||HAVAŞ|10.40.24.46|||110000479675|10
03.10.2018 05:00:00||HAVAŞ|10.40.24.46|||110000479675|10
03.10.2018 05:00:00||HAVAŞ|10.40.24.46|||110000479675|58
03.10.2018 05:00:00||HAVAŞ|10.40.24.46|||110000479675|58
03.10.2018 05:00:00||HAVAŞ|10.40.24.46|||110000479675|105
03.10.2018 05:00:00||HAVAŞ|10.40.24.46|||110000479675|67
03.10.2018 05:00:00||HAVAŞ|10.40.24.46|||110000479675|76
03.10.2018 05:00:00||HAVAŞ|10.40.24.47|||110000479675|30
03.10.2018 05:00:00||HAVAŞ|10.40.24.47|||110000479675|30
03.10.2018 05:00:00||HAVAŞ|10.40.24.47|||110000479675|198
03.10.2018 05:00:00||HAVAŞ|10.40.24.47|||110000479675|86
03.10.2018 05:00:00||HAVAŞ|10.40.24.47|||110000479675|48
03.10.2018 05:00:00||HAVAŞ|10.40.24.47|||110000479675|48
03.10.2018 05:00:00||HAVAŞ|10.40.24.47|||110000479675|105
03.10.2018 05:00:00||HAVAŞ|10.40.24.47|||110000479675|151
03.10.2018 05:00:00||HAVAŞ|10.40.24.47|||110000479675|95
03.10.2018 05:00:00||HAVAŞ|10.40.24.47|||110000479675|95
03.10.2018 05:00:00||HAVAŞ|10.40.24.47|||110000479675|86
03.10.2018 05:00:00||HAVAŞ|10.40.24.48|||110000479675|704
03.10.2018 05:00:00||HAVAŞ|10.40.24.48|||110000479675|676
03.10.2018 05:00:00||HAVAŞ|10.40.24.48|||110000479675|704
03.10.2018 05:00:00||HAVAŞ|10.40.25.45|||110000479675|51
03.10.2018 05:00:00||HAVAŞ|10.40.25.45|||110000479675|102
03.10.2018 05:00:00||HAVAŞ|10.40.25.45|||110000479675|133
03.10.2018 05:00:00||HAVAŞ|10.40.25.45|||110000479675|92
03.10.2018 05:00:00||HAVAŞ|10.40.25.46|||110000479675|10
03.10.2018 05:00:00||HAVAŞ|10.40.25.46|||110000479675|10
03.10.2018 05:00:00||HAVAŞ|10.40.25.46|||110000479675|20
03.10.2018 05:00:00||HAVAŞ|10.40.25.46|||110000479675|20
03.10.2018 05:00:00||HAVAŞ|10.40.25.46|||110000479675|10
03.10.2018 05:00:00||HAVAŞ|10.40.25.46|||110000479675|51
03.10.2018 05:00:00||HAVAŞ|10.40.25.46|||110000479675|61
03.10.2018 05:00:00||HAVAŞ|10.40.25.46|||110000479675|102
03.10.2018 05:00:00||HAVAŞ|10.40.25.46|||110000479675|71
03.10.2018 05:00:00||HAVAŞ|10.40.25.46|||110000479675|82
03.10.2018 05:00:00||HAVAŞ|10.40.25.46|||110000479675|71
03.10.2018 05:00:00||HAVAŞ|10.40.25.47|||110000479675|71
03.10.2018 05:00:00||HAVAŞ|10.40.25.47|||110000479675|71
03.10.2018 05:00:00||HAVAŞ|10.40.25.47|||110000479675|236
03.10.2018 05:00:00||HAVAŞ|10.40.25.47|||110000479675|61
03.10.2018 05:00:00||HAVAŞ|10.40.25.47|||110000479675|92
03.10.2018 05:00:00||HAVAŞ|10.40.25.47|||110000479675|92
03.10.2018 05:00:00||HAVAŞ|10.40.25.47|||110000479675|92
03.10.2018 05:00:00||HAVAŞ|10.40.25.47|||110000479675|10
03.10.2018 05:00:00||HAVAŞ|10.40.25.47|||110000479675|185
03.10.2018 05:00:00||HAVAŞ|10.40.25.47|||110000479675|92
03.10.2018 05:00:00||HAVAŞ|10.40.25.47|||110000479675|92
03.10.2018 05:00:00||HAVAŞ|10.40.25.47|||110000479675|92
03.10.2018 05:00:00||HAVAŞ|10.40.25.48|||110000479675|761
03.10.2018 05:00:00||HAVAŞ|10.40.25.48|||110000479675|772
03.10.2018 05:00:00||HAVAŞ|10.40.25.48|||110000479675|823
03.10.2018 05:00:00||MARS CINEMA|10.40.24.203|||110000472614|60
03.10.2018 05:00:00||MARS CINEMA|10.40.24.203|||110000472614|90
03.10.2018 05:00:00||MARS CINEMA|10.40.24.203|||110000472614|100
03.10.2018 05:00:00||MARS CINEMA|10.40.24.203|||110000472614|100
03.10.2018 05:00:00||MARS CINEMA|10.40.24.203|||110000472614|141
03.10.2018 05:00:00||MARS CINEMA|10.40.24.203|||110000472614|151
03.10.2018 05:00:00||MARS CINEMA|10.40.24.203|||110000472614|171
03.10.2018 05:00:00||MARS CINEMA|10.40.24.203|||110000472614|171
03.10.2018 05:00:00||MARS CINEMA|10.40.24.203|||110000472614|100
03.10.2018 05:00:00||MARS CINEMA|10.40.24.203|||110000472614|100
03.10.2018 05:00:00||MARS CINEMA|10.40.24.203|||110000472614|90
03.10.2018 05:00:00||MARS CINEMA|10.40.24.203|||110000472614|191
03.10.2018 05:00:00||MARS CINEMA|10.40.24.204|||110000472614|110
03.10.2018 05:00:00||MARS CINEMA|10.40.24.204|||110000472614|90
03.10.2018 05:00:00||MARS CINEMA|10.40.24.204|||110000472614|90
03.10.2018 05:00:00||MARS CINEMA|10.40.24.204|||110000472614|20
03.10.2018 05:00:00||MARS CINEMA|10.40.24.204|||110000472614|90
03.10.2018 05:00:00||MARS CINEMA|10.40.24.204|||110000472614|20
03.10.2018 05:00:00||MARS CINEMA|10.40.24.204|||110000472614|10
03.10.2018 05:00:00||MARS CINEMA|10.40.24.204|||110000472614|40
03.10.2018 05:00:00||MARS CINEMA|10.40.24.204|||110000472614|90
03.10.2018 05:00:00||MARS CINEMA|10.40.24.204|||110000472614|121
03.10.2018 05:00:00||MARS CINEMA|10.40.24.204|||110000472614|50
03.10.2018 05:00:00||MARS CINEMA|10.40.24.204|||110000472614|90
03.10.2018 05:00:00||MARS CINEMA|10.40.24.204|||110000472614|110
03.10.2018 05:00:00||MARS CINEMA|10.40.24.204|||110000472614|80
03.10.2018 05:00:00||MARS CINEMA|10.40.24.206|||110000472614|40
03.10.2018 05:00:00||MARS CINEMA|10.40.24.206|||110000472614|40
03.10.2018 05:00:00||MARS CINEMA|10.40.24.206|||110000472614|50
03.10.2018 05:00:00||MARS CINEMA|10.40.24.206|||110000472614|30
03.10.2018 05:00:00||MARS CINEMA|10.40.24.206|||110000472614|30
03.10.2018 05:00:00||MARS CINEMA|10.40.24.206|||110000472614|30
03.10.2018 05:00:00||MARS CINEMA|10.40.24.206|||110000472614|201
03.10.2018 05:00:00||MARS CINEMA|10.40.24.206|||110000472614|131
03.10.2018 05:00:00||MARS CINEMA|10.40.24.206|||110000472614|20
03.10.2018 05:00:00||MARS CINEMA|10.40.24.206|||110000472614|90
03.10.2018 05:00:00||MARS CINEMA|10.40.24.206|||110000472614|80
03.10.2018 05:00:00||MARS CINEMA|10.40.25.203|||110000472614|143
03.10.2018 05:00:00||MARS CINEMA|10.40.25.203|||110000472614|71
03.10.2018 05:00:00||MARS CINEMA|10.40.25.203|||110000472614|174
03.10.2018 05:00:00||MARS CINEMA|10.40.25.203|||110000472614|92
03.10.2018 05:00:00||MARS CINEMA|10.40.25.203|||110000472614|92
03.10.2018 05:00:00||MARS CINEMA|10.40.25.203|||110000472614|112
03.10.2018 05:00:00||MARS CINEMA|10.40.25.203|||110000472614|123
03.10.2018 05:00:00||MARS CINEMA|10.40.25.203|||110000472614|154
03.10.2018 05:00:00||MARS CINEMA|10.40.25.203|||110000472614|92
03.10.2018 05:00:00||MARS CINEMA|10.40.25.203|||110000472614|92
03.10.2018 05:00:00||MARS CINEMA|10.40.25.203|||110000472614|61
03.10.2018 05:00:00||MARS CINEMA|10.40.25.203|||110000472614|195
03.10.2018 05:00:00||MARS CINEMA|10.40.25.204|||110000472614|112
03.10.2018 05:00:00||MARS CINEMA|10.40.25.204|||110000472614|71
03.10.2018 05:00:00||MARS CINEMA|10.40.25.204|||110000472614|82
03.10.2018 05:00:00||MARS CINEMA|10.40.25.204|||110000472614|102
03.10.2018 05:00:00||MARS CINEMA|10.40.25.204|||110000472614|20
03.10.2018 05:00:00||MARS CINEMA|10.40.25.204|||110000472614|20
03.10.2018 05:00:00||MARS CINEMA|10.40.25.204|||110000472614|30
03.10.2018 05:00:00||MARS CINEMA|10.40.25.204|||110000472614|40
03.10.2018 05:00:00||MARS CINEMA|10.40.25.204|||110000472614|92
03.10.2018 05:00:00||MARS CINEMA|10.40.25.204|||110000472614|112
03.10.2018 05:00:00||MARS CINEMA|10.40.25.204|||110000472614|102
03.10.2018 05:00:00||MARS CINEMA|10.40.25.204|||110000472614|123
03.10.2018 05:00:00||MARS CINEMA|10.40.25.204|||110000472614|82
03.10.2018 05:00:00||MARS CINEMA|10.40.25.204|||110000472614|82
03.10.2018 05:00:00||MARS CINEMA|10.40.25.206|||110000472614|40
03.10.2018 05:00:00||MARS CINEMA|10.40.25.206|||110000472614|40
03.10.2018 05:00:00||MARS CINEMA|10.40.25.206|||110000472614|40
03.10.2018 05:00:00||MARS CINEMA|10.40.25.206|||110000472614|20
03.10.2018 05:00:00||MARS CINEMA|10.40.25.206|||110000472614|20
03.10.2018 05:00:00||MARS CINEMA|10.40.25.206|||110000472614|30
03.10.2018 05:00:00||MARS CINEMA|10.40.25.206|||110000472614|61
03.10.2018 05:00:00||MARS CINEMA|10.40.25.206|||110000472614|40
03.10.2018 05:00:00||MARS CINEMA|10.40.25.206|||110000472614|82
03.10.2018 05:00:00||MARS CINEMA|10.40.25.206|||110000472614|82
03.10.2018 05:00:00||PEGASUS|10.40.26.62|||110000423831|90
03.10.2018 05:00:00||PEGASUS|10.40.26.62|||110000423831|10
03.10.2018 05:00:00||PEGASUS|10.40.26.62|||110000423831|190
03.10.2018 05:00:00||PEGASUS|10.40.26.63|||110000423831|110
03.10.2018 05:00:00||PEGASUS|10.40.26.63|||110000423831|289
03.10.2018 05:00:00||PEGASUS|10.40.26.63|||110000423831|110
03.10.2018 05:00:00||PEGASUS|10.40.26.63|||110000423831|90
03.10.2018 05:00:00||PEGASUS|10.40.26.63|||110000423831|70
03.10.2018 05:00:00||PEGASUS|10.40.26.63|||110000423831|130
03.10.2018 05:00:00||PEGASUS|10.40.26.63|||110000423831|60
03.10.2018 05:00:00||PEGASUS|10.40.26.63|||110000423831|100
03.10.2018 05:00:00||PEGASUS|10.40.26.63|||110000423831|30
03.10.2018 05:00:00||PEGASUS|10.40.26.63|||110000423831|60
03.10.2018 05:00:00||PEGASUS|10.40.26.63|||110000423831|20
03.10.2018 05:00:00||PEGASUS|10.40.26.63|||110000423831|220
03.10.2018 05:00:00||PEGASUS|10.40.26.63|||110000423831|140
03.10.2018 05:00:00||PEGASUS|10.40.26.63|||110000423831|50
03.10.2018 05:00:00||PEGASUS|10.40.26.63|||110000423831|150
03.10.2018 05:00:00||PEGASUS|10.40.26.63|||110000423831|40
03.10.2018 05:00:00||PEGASUS|10.40.26.63|||110000423831|60
03.10.2018 05:00:00||PEGASUS|10.40.26.63|||110000423831|60
03.10.2018 05:00:00||PEGASUS|10.40.26.63|||110000423831|40
03.10.2018 05:00:00||PEGASUS|10.40.26.64|||110000423831|80
03.10.2018 05:00:00||PEGASUS|10.40.26.64|||110000423831|80
03.10.2018 05:00:00||PEGASUS|10.40.26.66|||110000423831|58
03.10.2018 05:00:00||PEGASUS|10.40.26.66|||110000423831|49
03.10.2018 05:00:00||PEGASUS|10.40.26.67|||110000423831|30
03.10.2018 05:00:00||PEGASUS|10.40.26.67|||110000423831|339
03.10.2018 05:00:00||PEGASUS|10.40.26.67|||110000423831|339
03.10.2018 05:00:00||PEGASUS|10.40.26.67|||110000423831|60
03.10.2018 05:00:00||PEGASUS|10.40.26.67|||110000423831|40
03.10.2018 05:00:00||PEGASUS|10.40.26.67|||110000423831|170
03.10.2018 05:00:00||PEGASUS|10.40.26.67|||110000423831|70
03.10.2018 05:00:00||PEGASUS|10.40.26.67|||110000423831|339
03.10.2018 05:00:00||PEGASUS|10.40.26.68|||110000423831|100
03.10.2018 05:00:00||PEGASUS|10.40.26.68|||110000423831|90
03.10.2018 05:00:00||PEGASUS|10.40.26.68|||110000423831|90
03.10.2018 05:00:00||PEGASUS|10.40.26.68|||110000423831|50
03.10.2018 05:00:00||PEGASUS|10.40.26.81|||110000423831|412
03.10.2018 05:00:00||PEGASUS|10.40.26.81|||110000423831|431
03.10.2018 05:00:00||PEGASUS|10.40.26.81|||110000423831|440
03.10.2018 05:00:00||PEGASUS|10.40.26.82|||110000423831|202
03.10.2018 05:00:00||PEGASUS|10.40.26.82|||110000423831|106
03.10.2018 05:00:00||PEGASUS|10.40.26.82|||110000423831|77
03.10.2018 05:00:00||PEGASUS|10.40.26.82|||110000423831|144
03.10.2018 05:00:00||PEGASUS|10.40.26.82|||110000423831|135
03.10.2018 05:00:00||PEGASUS|10.40.26.82|||110000423831|135
03.10.2018 05:00:00||PEGASUS|10.40.26.82|||110000423831|173
03.10.2018 05:00:00||PEGASUS|10.40.26.82|||110000423831|30
03.10.2018 05:00:00||PEGASUS|10.40.26.82|||110000423831|39
03.10.2018 05:00:00||PEGASUS|10.40.26.82|||110000423831|20
03.10.2018 05:00:00||PEGASUS|10.40.26.82|||110000423831|68
03.10.2018 05:00:00||PEGASUS|10.40.26.82|||110000423831|48
03.10.2018 05:00:00||PEGASUS|10.40.26.82|||110000423831|39
03.10.2018 05:00:00||PEGASUS|10.40.26.83|||110000423831|517
03.10.2018 05:00:00||PEGASUS|10.40.26.83|||110000423831|48
03.10.2018 05:00:00||PEGASUS|10.40.26.83|||110000423831|383
03.10.2018 05:00:00||PEGASUS|10.40.26.83|||110000423831|144
03.10.2018 05:00:00||PEGASUS|10.40.26.83|||110000423831|96
03.10.2018 05:00:00||PEGASUS|10.40.26.83|||110000423831|517
03.10.2018 05:00:00||PEGASUS|10.40.26.83|||110000423831|106
03.10.2018 05:00:00||PEGASUS|10.40.26.83|||110000423831|527
03.10.2018 05:00:00||PEGASUS|10.40.26.84|||110000423831|39
03.10.2018 05:00:00||PEGASUS|10.40.26.84|||110000423831|176
03.10.2018 05:00:00||PEGASUS|10.40.26.85|||110000423831|23
03.10.2018 05:00:00||PEGASUS|10.40.26.85|||110000423831|94
03.10.2018 05:00:00||PEGASUS|10.40.26.86|||110000423831|345
03.10.2018 05:00:00||PEGASUS|10.40.26.86|||110000423831|125
03.10.2018 05:00:00||PEGASUS|10.40.26.86|||110000423831|335
03.10.2018 05:00:00||PEGASUS|10.40.26.86|||110000423831|48
03.10.2018 05:00:00||PEGASUS|10.40.26.86|||110000423831|30
03.10.2018 05:00:00||PEGASUS|10.40.26.86|||110000423831|335
03.10.2018 05:00:00||PEGASUS|10.40.26.86|||110000423831|39
03.10.2018 05:00:00||PEGASUS|10.40.26.86|||110000423831|48
03.10.2018 05:00:00||PEGASUS|10.40.26.87|||110000423831|87
03.10.2018 05:00:00||PEGASUS|10.40.26.87|||110000423831|87
03.10.2018 05:00:00||PEGASUS|10.40.26.87|||110000423831|87
03.10.2018 05:00:00||PEGASUS|10.40.26.87|||110000423831|20
03.10.2018 05:00:00||PEGASUS|10.40.27.63|||110000423831|87
03.10.2018 05:00:00||PEGASUS|10.40.27.63|||110000423831|58
03.10.2018 05:00:00||PEGASUS|10.40.27.63|||110000423831|68
03.10.2018 05:00:00||PEGASUS|10.40.27.63|||110000423831|48
03.10.2018 05:00:00||PEGASUS|10.40.27.63|||110000423831|58
03.10.2018 05:00:00||PEGASUS|10.40.27.63|||110000423831|58
03.10.2018 05:00:00||PEGASUS|10.40.27.63|||110000423831|77
03.10.2018 05:00:00||PEGASUS|10.40.27.63|||110000423831|77
03.10.2018 05:00:00||PEGASUS|10.40.27.63|||110000423831|77
03.10.2018 05:00:00||PEGASUS|10.40.27.63|||110000423831|202
03.10.2018 05:00:00||PEGASUS|10.40.27.63|||110000423831|58
03.10.2018 05:00:00||PEGASUS|10.40.27.63|||110000423831|58
03.10.2018 05:00:00||PEGASUS|10.40.27.63|||110000423831|68
03.10.2018 05:00:00||PEGASUS|10.40.27.63|||110000423831|87
03.10.2018 05:00:00||PEGASUS|10.40.27.63|||110000423831|68
03.10.2018 05:00:00||PEGASUS|10.40.27.63|||110000423831|58
03.10.2018 05:00:00||PEGASUS|10.40.27.63|||110000423831|77
03.10.2018 05:00:00||PEGASUS|10.40.27.64|||110000423831|68
03.10.2018 05:00:00||PEGASUS|10.40.27.64|||110000423831|68
03.10.2018 05:00:00||PEGASUS|10.40.27.64|||110000423831|259
03.10.2018 05:00:00||PEGASUS|10.40.27.64|||110000423831|278
03.10.2018 05:00:00||PEGASUS|10.40.27.64|||110000423831|249
03.10.2018 05:00:00||PEGASUS|10.40.27.64|||110000423831|326
03.10.2018 05:00:00||PEGASUS|10.40.27.64|||110000423831|287
03.10.2018 05:00:00||PEGASUS|10.40.27.64|||110000423831|307
03.10.2018 05:00:00||PEGASUS|10.40.27.64|||110000423831|259
03.10.2018 05:00:00||PEGASUS|10.40.27.64|||110000423831|278
03.10.2018 05:00:00||PEGASUS|10.40.27.64|||110000423831|249
03.10.2018 05:00:00||PEGASUS|10.40.27.64|||110000423831|259
03.10.2018 05:00:00||PEGASUS|10.40.27.64|||110000423831|240
03.10.2018 05:00:00||PEGASUS|10.40.27.64|||110000423831|240
03.10.2018 05:00:00||PEGASUS|10.40.27.66|||110000423831|41
03.10.2018 05:00:00||PEGASUS|10.40.27.66|||110000423831|55
03.10.2018 05:00:00||PEGASUS|10.40.27.67|||110000423831|48
03.10.2018 05:00:00||PEGASUS|10.40.27.67|||110000423831|345
03.10.2018 05:00:00||PEGASUS|10.40.27.67|||110000423831|68
03.10.2018 05:00:00||PEGASUS|10.40.27.67|||110000423831|125
03.10.2018 05:00:00||PEGASUS|10.40.27.67|||110000423831|10
03.10.2018 05:00:00||PEGASUS|10.40.27.67|||110000423831|326
03.10.2018 05:00:00||PEGASUS|10.40.27.67|||110000423831|39
03.10.2018 05:00:00||PEGASUS|10.40.27.67|||110000423831|326
03.10.2018 05:00:00||PEGASUS|10.40.27.68|||110000423831|87
03.10.2018 05:00:00||PEGASUS|10.40.27.68|||110000423831|77
03.10.2018 05:00:00||PEGASUS|10.40.27.68|||110000423831|87
03.10.2018 05:00:00||PEGASUS|10.40.27.68|||110000423831|58
03.10.2018 05:00:00||PEGASUS|10.40.27.81|||110000423831|479
03.10.2018 05:00:00||PEGASUS|10.40.27.81|||110000423831|431
03.10.2018 05:00:00||PEGASUS|10.40.27.81|||110000423831|393
03.10.2018 05:00:00||PEGASUS|10.40.27.82|||110000423831|211
03.10.2018 05:00:00||PEGASUS|10.40.27.82|||110000423831|30
03.10.2018 05:00:00||PEGASUS|10.40.27.82|||110000423831|96
03.10.2018 05:00:00||PEGASUS|10.40.27.82|||110000423831|77
03.10.2018 05:00:00||PEGASUS|10.40.27.82|||110000423831|144
03.10.2018 05:00:00||PEGASUS|10.40.27.82|||110000423831|116
03.10.2018 05:00:00||PEGASUS|10.40.27.82|||110000423831|163
03.10.2018 05:00:00||PEGASUS|10.40.27.82|||110000423831|116
03.10.2018 05:00:00||PEGASUS|10.40.27.82|||110000423831|58
03.10.2018 05:00:00||PEGASUS|10.40.27.82|||110000423831|68
03.10.2018 05:00:00||PEGASUS|10.40.27.82|||110000423831|48
03.10.2018 05:00:00||PEGASUS|10.40.27.82|||110000423831|30
03.10.2018 05:00:00||PEGASUS|10.40.27.82|||110000423831|58
03.10.2018 05:00:00||PEGASUS|10.40.27.82|||110000423831|39
03.10.2018 05:00:00||PEGASUS|10.40.27.83|||110000423831|564
03.10.2018 05:00:00||PEGASUS|10.40.27.83|||110000423831|68
03.10.2018 05:00:00||PEGASUS|10.40.27.83|||110000423831|488
03.10.2018 05:00:00||PEGASUS|10.40.27.83|||110000423831|96
03.10.2018 05:00:00||PEGASUS|10.40.27.83|||110000423831|144
03.10.2018 05:00:00||PEGASUS|10.40.27.83|||110000423831|77
03.10.2018 05:00:00||PEGASUS|10.40.27.83|||110000423831|479
03.10.2018 05:00:00||PEGASUS|10.40.27.83|||110000423831|68
03.10.2018 05:00:00||PEGASUS|10.40.27.84|||110000423831|169
03.10.2018 05:00:00||PEGASUS|10.40.27.84|||110000423831|39
03.10.2018 05:00:00||PEGASUS|10.40.27.85|||110000423831|91
03.10.2018 05:00:00||PEGASUS|10.40.27.85|||110000423831|22
03.10.2018 05:00:00||PEGASUS|10.40.27.86|||110000423831|326
03.10.2018 05:00:00||PEGASUS|10.40.27.86|||110000423831|326
03.10.2018 05:00:00||PEGASUS|10.40.27.86|||110000423831|153
03.10.2018 05:00:00||PEGASUS|10.40.27.86|||110000423831|68
03.10.2018 05:00:00||PEGASUS|10.40.27.86|||110000423831|39
03.10.2018 05:00:00||PEGASUS|10.40.27.86|||110000423831|20
03.10.2018 05:00:00||PEGASUS|10.40.27.86|||110000423831|335
03.10.2018 05:00:00||PEGASUS|10.40.27.87|||110000423831|87
03.10.2018 05:00:00||PEGASUS|10.40.27.87|||110000423831|87
03.10.2018 05:00:00||PEGASUS|10.40.27.87|||110000423831|87
03.10.2018 05:00:00||PEGASUS|10.40.27.87|||110000423831|20
03.10.2018 05:00:00||PETKIM|10.40.25.87|||110000437354|94
03.10.2018 05:00:00||PETKIM|10.40.25.87|||110000437354|51
03.10.2018 05:00:00||PWC|10.40.24.66|||110000433262|86
03.10.2018 05:00:00||PWC|10.40.24.66|||110000433262|10
03.10.2018 05:00:00||PWC|10.40.24.66|||110000433262|198
03.10.2018 05:00:00||PWC|10.40.24.66|||110000433262|198
03.10.2018 05:00:00||PWC|10.40.24.66|||110000433262|30
03.10.2018 05:00:00||PWC|10.40.24.66|||110000433262|48
03.10.2018 05:00:00||PWC|10.40.24.66|||110000433262|48
03.10.2018 05:00:00||PWC|10.40.24.66|||110000433262|58
03.10.2018 05:00:00||PWC|10.40.24.66|||110000433262|30
03.10.2018 05:00:00||PWC|10.40.24.66|||110000433262|39
03.10.2018 05:00:00||PWC|10.40.24.66|||110000433262|423
03.10.2018 05:00:00||PWC|10.40.24.67|||110000433262|10
03.10.2018 05:00:00||PWC|10.40.24.67|||110000433262|10
03.10.2018 05:00:00||PWC|10.40.24.67|||110000433262|357
03.10.2018 05:00:00||PWC|10.40.24.67|||110000433262|30
03.10.2018 05:00:00||PWC|10.40.24.67|||110000433262|67
03.10.2018 05:00:00||PWC|10.40.24.67|||110000433262|114
03.10.2018 05:00:00||PWC|10.40.24.68|||110000433262|95
03.10.2018 05:00:00||PWC|10.40.24.68|||110000433262|133
03.10.2018 05:00:00||PWC|10.40.24.68|||110000433262|67
03.10.2018 05:00:00||PWC|10.40.24.68|||110000433262|67
03.10.2018 05:00:00||PWC|10.40.24.68|||110000433262|142
03.10.2018 05:00:00||PWC|10.40.25.67|||110000433262|82
03.10.2018 05:00:00||PWC|10.40.25.67|||110000433262|92
03.10.2018 05:00:00||PWC|10.40.25.67|||110000433262|329
03.10.2018 05:00:00||PWC|10.40.25.67|||110000433262|257
03.10.2018 05:00:00||PWC|10.40.25.67|||110000433262|247
03.10.2018 05:00:00||PWC|10.40.25.67|||110000433262|257
03.10.2018 05:00:00||PWC|10.40.25.67|||110000433262|51
03.10.2018 05:00:00||PWC|10.40.25.67|||110000433262|30
03.10.2018 05:00:00||PWC|10.40.25.67|||110000433262|123
03.10.2018 05:00:00||PWC|10.40.25.68|||110000433262|133
03.10.2018 05:00:00||PWC|10.40.25.68|||110000433262|195
03.10.2018 05:00:00||PWC|10.40.25.68|||110000433262|401
03.10.2018 05:00:00||PWC|10.40.25.68|||110000433262|71
03.10.2018 05:00:00||PWC|10.40.25.68|||110000433262|82
03.10.2018 05:00:00||PWC|10.40.25.68|||110000433262|154
