01.10.2018 05:00:00||AKTİFBANK|10.40.24.128|||110000438458|148
01.10.2018 05:00:00||AKTİFBANK|10.40.24.128|||110000438458|69
01.10.2018 05:00:00||AKTİFBANK|10.40.24.128|||110000438458|99
01.10.2018 05:00:00||AKTİFBANK|10.40.24.128|||110000438458|40
01.10.2018 05:00:00||AKTİFBANK|10.40.24.128|||110000438458|69
01.10.2018 05:00:00||AKTİFBANK|10.40.24.128|||110000438458|40
01.10.2018 05:00:00||AKTİFBANK|10.40.24.129|||110000438458|99
01.10.2018 05:00:00||AKTİFBANK|10.40.24.129|||110000438458|69
01.10.2018 05:00:00||AKTİFBANK|10.40.24.129|||110000438458|99
01.10.2018 05:00:00||AKTİFBANK|10.40.24.129|||110000438458|109
01.10.2018 05:00:00||AKTİFBANK|10.40.24.129|||110000438458|50
01.10.2018 05:00:00||AKTİFBANK|10.40.24.129|||110000438458|69
01.10.2018 05:00:00||AKTİFBANK|10.40.24.129|||110000438458|69
01.10.2018 05:00:00||AKTİFBANK|10.40.24.129|||110000438458|89
01.10.2018 05:00:00||AKTİFBANK|10.40.24.129|||110000438458|79
01.10.2018 05:00:00||AKTİFBANK|10.40.24.129|||110000438458|138
01.10.2018 05:00:00||AKTİFBANK|10.40.24.130|||110000438458|50
01.10.2018 05:00:00||AKTİFBANK|10.40.24.130|||110000438458|40
01.10.2018 05:00:00||AKTİFBANK|10.40.24.130|||110000438458|79
01.10.2018 05:00:00||AKTİFBANK|10.40.24.130|||110000438458|40
01.10.2018 05:00:00||AKTİFBANK|10.40.24.130|||110000438458|60
01.10.2018 05:00:00||AKTİFBANK|10.40.24.130|||110000438458|79
01.10.2018 05:00:00||AKTİFBANK|10.40.24.130|||110000438458|89
01.10.2018 05:00:00||AKTİFBANK|10.40.24.130|||110000438458|40
01.10.2018 05:00:00||AKTİFBANK|10.40.24.130|||110000438458|128
01.10.2018 05:00:00||AKTİFBANK|10.40.24.130|||110000438458|109
01.10.2018 05:00:00||AKTİFBANK|10.40.24.131|||110000438458|10
01.10.2018 05:00:00||AKTİFBANK|10.40.24.131|||110000438458|99
01.10.2018 05:00:00||AKTİFBANK|10.40.24.131|||110000438458|90
01.10.2018 05:00:00||AKTİFBANK|10.40.24.131|||110000438458|110
01.10.2018 05:00:00||AKTİFBANK|10.40.24.131|||110000438458|120
01.10.2018 05:00:00||AKTİFBANK|10.40.24.131|||110000438458|30
01.10.2018 05:00:00||AKTİFBANK|10.40.24.131|||110000438458|160
01.10.2018 05:00:00||AKTİFBANK|10.40.24.131|||110000438458|60
01.10.2018 05:00:00||AKTİFBANK|10.40.24.131|||110000438458|110
01.10.2018 05:00:00||AKTİFBANK|10.40.24.132|||110000438458|40
01.10.2018 05:00:00||AKTİFBANK|10.40.24.132|||110000438458|80
01.10.2018 05:00:00||AKTİFBANK|10.40.24.132|||110000438458|50
01.10.2018 05:00:00||AKTİFBANK|10.40.24.132|||110000438458|180
01.10.2018 05:00:00||AKTİFBANK|10.40.24.132|||110000438458|70
01.10.2018 05:00:00||AKTİFBANK|10.40.24.133|||110000438458|140
01.10.2018 05:00:00||AKTİFBANK|10.40.24.133|||110000438458|90
01.10.2018 05:00:00||AKTİFBANK|10.40.24.133|||110000438458|120
01.10.2018 05:00:00||AKTİFBANK|10.40.24.133|||110000438458|90
01.10.2018 05:00:00||AKTİFBANK|10.40.24.134|||110000438458|62
01.10.2018 05:00:00||AKTİFBANK|10.40.24.134|||110000438458|31
01.10.2018 05:00:00||AKTİFBANK|10.40.24.135|||110000438458|67
01.10.2018 05:00:00||AKTİFBANK|10.40.24.135|||110000438458|31
01.10.2018 05:00:00||AKTİFBANK|10.40.24.137|||110000438458|3
01.10.2018 05:00:00||AKTİFBANK|10.40.24.137|||110000438458|54
01.10.2018 05:00:00||AKTİFBANK|10.40.24.138|||110000438458|110
01.10.2018 05:00:00||AKTİFBANK|10.40.24.138|||110000438458|120
01.10.2018 05:00:00||AKTİFBANK|10.40.24.138|||110000438458|140
01.10.2018 05:00:00||AKTİFBANK|10.40.24.138|||110000438458|110
01.10.2018 05:00:00||AKTİFBANK|10.40.24.138|||110000438458|30
01.10.2018 05:00:00||AKTİFBANK|10.40.24.138|||110000438458|50
01.10.2018 05:00:00||AKTİFBANK|10.40.24.139|||110000438458|40
01.10.2018 05:00:00||AKTİFBANK|10.40.24.139|||110000438458|30
01.10.2018 05:00:00||AKTİFBANK|10.40.24.139|||110000438458|50
01.10.2018 05:00:00||AKTİFBANK|10.40.24.139|||110000438458|90
01.10.2018 05:00:00||AKTİFBANK|10.40.24.139|||110000438458|60
01.10.2018 05:00:00||AKTİFBANK|10.40.24.139|||110000438458|120
01.10.2018 05:00:00||AKTİFBANK|10.40.24.140|||110000438458|20
01.10.2018 05:00:00||AKTİFBANK|10.40.24.140|||110000438458|80
01.10.2018 05:00:00||AKTİFBANK|10.40.24.140|||110000438458|40
01.10.2018 05:00:00||AKTİFBANK|10.40.24.140|||110000438458|30
01.10.2018 05:00:00||AKTİFBANK|10.40.24.140|||110000438458|30
01.10.2018 05:00:00||AKTİFBANK|10.40.24.140|||110000438458|50
01.10.2018 05:00:00||AKTİFBANK|10.40.24.140|||110000438458|40
01.10.2018 05:00:00||AKTİFBANK|10.40.24.140|||110000438458|20
01.10.2018 05:00:00||AKTİFBANK|10.40.24.140|||110000438458|30
01.10.2018 05:00:00||AKTİFBANK|10.40.24.141|||110000438458|200
01.10.2018 05:00:00||AKTİFBANK|10.40.24.141|||110000438458|50
01.10.2018 05:00:00||AKTİFBANK|10.40.24.141|||110000438458|100
01.10.2018 05:00:00||AKTİFBANK|10.40.24.141|||110000438458|100
01.10.2018 05:00:00||AKTİFBANK|10.40.24.141|||110000438458|70
01.10.2018 05:00:00||AKTİFBANK|10.40.24.141|||110000438458|80
01.10.2018 05:00:00||AKTİFBANK|10.40.24.141|||110000438458|70
01.10.2018 05:00:00||AKTİFBANK|10.40.24.142|||110000438458|70
01.10.2018 05:00:00||AKTİFBANK|10.40.24.142|||110000438458|40
01.10.2018 05:00:00||AKTİFBANK|10.40.24.143|||110000438458|70
01.10.2018 05:00:00||AKTİFBANK|10.40.24.143|||110000438458|270
01.10.2018 05:00:00||AKTİFBANK|10.40.24.143|||110000438458|320
01.10.2018 05:00:00||AKTİFBANK|10.40.24.143|||110000438458|200
01.10.2018 05:00:00||AKTİFBANK|10.40.24.144|||110000438458|80
01.10.2018 05:00:00||AKTİFBANK|10.40.24.144|||110000438458|100
01.10.2018 05:00:00||AKTİFBANK|10.40.24.144|||110000438458|90
01.10.2018 05:00:00||AKTİFBANK|10.40.24.145|||110000438458|90
01.10.2018 05:00:00||AKTİFBANK|10.40.24.145|||110000438458|20
01.10.2018 05:00:00||AKTİFBANK|10.40.24.145|||110000438458|70
01.10.2018 05:00:00||AKTİFBANK|10.40.24.145|||110000438458|90
01.10.2018 05:00:00||AKTİFBANK|10.40.24.145|||110000438458|60
01.10.2018 05:00:00||AKTİFBANK|10.40.24.145|||110000438458|70
01.10.2018 05:00:00||AKTİFBANK|10.40.24.147|||110000438458|90
01.10.2018 05:00:00||AKTİFBANK|10.40.24.148|||110000438458|70
01.10.2018 05:00:00||AKTİFBANK|10.40.24.148|||110000438458|170
01.10.2018 05:00:00||AKTİFBANK|10.40.24.148|||110000438458|80
01.10.2018 05:00:00||AKTİFBANK|10.40.24.148|||110000438458|110
01.10.2018 05:00:00||AKTİFBANK|10.40.24.148|||110000438458|100
01.10.2018 05:00:00||AKTİFBANK|10.40.24.148|||110000438458|90
01.10.2018 05:00:00||AKTİFBANK|10.40.24.148|||110000438458|100
01.10.2018 05:00:00||AKTİFBANK|10.40.24.148|||110000438458|100
01.10.2018 05:00:00||AKTİFBANK|10.40.24.148|||110000438458|70
01.10.2018 05:00:00||AKTİFBANK|10.40.24.148|||110000438458|70
01.10.2018 05:00:00||AKTİFBANK|10.40.24.148|||110000438458|20
01.10.2018 05:00:00||AKTİFBANK|10.40.24.148|||110000438458|80
01.10.2018 05:00:00||AKTİFBANK|10.40.24.149|||110000438458|80
01.10.2018 05:00:00||AKTİFBANK|10.40.24.149|||110000438458|120
01.10.2018 05:00:00||AKTİFBANK|10.40.24.149|||110000438458|100
01.10.2018 05:00:00||AKTİFBANK|10.40.24.149|||110000438458|60
01.10.2018 05:00:00||AKTİFBANK|10.40.24.149|||110000438458|50
01.10.2018 05:00:00||AKTİFBANK|10.40.24.149|||110000438458|90
01.10.2018 05:00:00||AKTİFBANK|10.40.24.149|||110000438458|150
01.10.2018 05:00:00||AKTİFBANK|10.40.24.149|||110000438458|90
01.10.2018 05:00:00||AKTİFBANK|10.40.24.149|||110000438458|160
01.10.2018 05:00:00||AKTİFBANK|10.40.24.149|||110000438458|110
01.10.2018 05:00:00||AKTİFBANK|10.40.24.149|||110000438458|90
01.10.2018 05:00:00||AKTİFBANK|10.40.24.149|||110000438458|90
01.10.2018 05:00:00||AKTİFBANK|10.40.24.149|||110000438458|80
01.10.2018 05:00:00||AKTİFBANK|10.40.24.149|||110000438458|80
01.10.2018 05:00:00||AKTİFBANK|10.40.24.150|||110000438458|550
01.10.2018 05:00:00||AKTİFBANK|10.40.24.150|||110000438458|540
01.10.2018 05:00:00||AKTİFBANK|10.40.24.150|||110000438458|561
01.10.2018 05:00:00||AKTİFBANK|10.40.24.151|||110000438458|561
01.10.2018 05:00:00||AKTİFBANK|10.40.24.151|||110000438458|550
01.10.2018 05:00:00||AKTİFBANK|10.40.24.151|||110000438458|510
01.10.2018 05:00:00||AKTİFBANK|10.40.24.152|||110000438458|20
01.10.2018 05:00:00||AKTİFBANK|10.40.24.152|||110000438458|50
01.10.2018 05:00:00||AKTİFBANK|10.40.24.152|||110000438458|110
01.10.2018 05:00:00||AKTİFBANK|10.40.24.152|||110000438458|60
01.10.2018 05:00:00||AKTİFBANK|10.40.24.152|||110000438458|110
01.10.2018 05:00:00||AKTİFBANK|10.40.24.152|||110000438458|100
01.10.2018 05:00:00||AKTİFBANK|10.40.24.152|||110000438458|300
01.10.2018 05:00:00||AKTİFBANK|10.40.24.152|||110000438458|70
01.10.2018 05:00:00||AKTİFBANK|10.40.24.152|||110000438458|100
01.10.2018 05:00:00||AKTİFBANK|10.40.24.152|||110000438458|30
01.10.2018 05:00:00||AKTİFBANK|10.40.24.152|||110000438458|70
01.10.2018 05:00:00||AKTİFBANK|10.40.24.152|||110000438458|30
01.10.2018 05:00:00||AKTİFBANK|10.40.24.153|||110000438458|10
01.10.2018 05:00:00||AKTİFBANK|10.40.24.153|||110000438458|90
01.10.2018 05:00:00||AKTİFBANK|10.40.24.153|||110000438458|70
01.10.2018 05:00:00||AKTİFBANK|10.40.24.153|||110000438458|70
01.10.2018 05:00:00||AKTİFBANK|10.40.24.154|||110000438458|70
01.10.2018 05:00:00||AKTİFBANK|10.40.24.154|||110000438458|20
01.10.2018 05:00:00||AKTİFBANK|10.40.24.154|||110000438458|10
01.10.2018 05:00:00||AKTİFBANK|10.40.24.154|||110000438458|10
01.10.2018 05:00:00||AKTİFBANK|10.40.24.154|||110000438458|10
01.10.2018 05:00:00||AKTİFBANK|10.40.24.154|||110000438458|10
01.10.2018 05:00:00||AKTİFBANK|10.40.24.155|||110000438458|110
01.10.2018 05:00:00||AKTİFBANK|10.40.24.155|||110000438458|130
01.10.2018 05:00:00||AKTİFBANK|10.40.24.155|||110000438458|80
01.10.2018 05:00:00||AKTİFBANK|10.40.24.155|||110000438458|110
01.10.2018 05:00:00||AKTİFBANK|10.40.24.155|||110000438458|100
01.10.2018 05:00:00||AKTİFBANK|10.40.24.157|||110000438458|30
01.10.2018 05:00:00||AKTİFBANK|10.40.24.157|||110000438458|80
01.10.2018 05:00:00||AKTİFBANK|10.40.24.157|||110000438458|70
01.10.2018 05:00:00||AKTİFBANK|10.40.24.157|||110000438458|40
01.10.2018 05:00:00||AKTİFBANK|10.40.24.157|||110000438458|80
01.10.2018 05:00:00||AKTİFBANK|10.40.24.157|||110000438458|60
01.10.2018 05:00:00||AKTİFBANK|10.40.24.158|||110000438458|110
01.10.2018 05:00:00||AKTİFBANK|10.40.24.158|||110000438458|110
01.10.2018 05:00:00||AKTİFBANK|10.40.24.158|||110000438458|130
01.10.2018 05:00:00||AKTİFBANK|10.40.24.158|||110000438458|80
01.10.2018 05:00:00||AKTİFBANK|10.40.24.158|||110000438458|80
01.10.2018 05:00:00||AKTİFBANK|10.40.24.158|||110000438458|110
01.10.2018 05:00:00||AKTİFBANK|10.40.24.159|||110000438458|130
01.10.2018 05:00:00||AKTİFBANK|10.40.24.159|||110000438458|60
01.10.2018 05:00:00||AKTİFBANK|10.40.24.159|||110000438458|182
01.10.2018 05:00:00||AKTİFBANK|10.40.24.160|||110000438458|10
01.10.2018 05:00:00||AKTİFBANK|10.40.24.160|||110000438458|10
01.10.2018 05:00:00||AKTİFBANK|10.40.24.160|||110000438458|91
01.10.2018 05:00:00||AKTİFBANK|10.40.24.160|||110000438458|101
01.10.2018 05:00:00||AKTİFBANK|10.40.24.161|||110000438458|182
01.10.2018 05:00:00||AKTİFBANK|10.40.24.161|||110000438458|81
01.10.2018 05:00:00||AKTİFBANK|10.40.24.161|||110000438458|40
01.10.2018 05:00:00||AKTİFBANK|10.40.24.161|||110000438458|30
01.10.2018 05:00:00||AKTİFBANK|10.40.24.161|||110000438458|30
01.10.2018 05:00:00||AKTİFBANK|10.40.24.161|||110000438458|20
01.10.2018 05:00:00||AKTİFBANK|10.40.24.161|||110000438458|91
01.10.2018 05:00:00||AKTİFBANK|10.40.24.162|||110000438458|60
01.10.2018 05:00:00||AKTİFBANK|10.40.24.162|||110000438458|10
01.10.2018 05:00:00||AKTİFBANK|10.40.24.162|||110000438458|81
01.10.2018 05:00:00||AKTİFBANK|10.40.24.162|||110000438458|50
01.10.2018 05:00:00||AKTİFBANK|10.40.24.162|||110000438458|40
01.10.2018 05:00:00||AKTİFBANK|10.40.24.162|||110000438458|40
01.10.2018 05:00:00||AKTİFBANK|10.40.24.162|||110000438458|70
01.10.2018 05:00:00||AKTİFBANK|10.40.24.162|||110000438458|30
01.10.2018 05:00:00||AKTİFBANK|10.40.24.162|||110000438458|10
01.10.2018 05:00:00||AKTİFBANK|10.40.24.162|||110000438458|50
01.10.2018 05:00:00||AKTİFBANK|10.40.24.162|||110000438458|40
01.10.2018 05:00:00||AKTİFBANK|10.40.24.163|||110000438458|30
01.10.2018 05:00:00||AKTİFBANK|10.40.24.163|||110000438458|70
01.10.2018 05:00:00||AKTİFBANK|10.40.24.164|||110000438458|60
01.10.2018 05:00:00||AKTİFBANK|10.40.24.164|||110000438458|334
01.10.2018 05:00:00||AKTİFBANK|10.40.24.164|||110000438458|70
01.10.2018 05:00:00||AKTİFBANK|10.40.24.164|||110000438458|222
01.10.2018 05:00:00||AKTİFBANK|10.40.24.164|||110000438458|212
01.10.2018 05:00:00||AKTİFBANK|10.40.24.165|||110000438458|81
01.10.2018 05:00:00||AKTİFBANK|10.40.24.165|||110000438458|81
01.10.2018 05:00:00||AKTİFBANK|10.40.24.165|||110000438458|121
01.10.2018 05:00:00||AKTİFBANK|10.40.24.166|||110000438458|81
01.10.2018 05:00:00||AKTİFBANK|10.40.24.166|||110000438458|91
01.10.2018 05:00:00||AKTİFBANK|10.40.24.166|||110000438458|10
01.10.2018 05:00:00||AKTİFBANK|10.40.24.166|||110000438458|10
01.10.2018 05:00:00||AKTİFBANK|10.40.24.166|||110000438458|10
01.10.2018 05:00:00||AKTİFBANK|10.40.24.168|||110000438458|91
01.10.2018 05:00:00||AKTİFBANK|10.40.24.168|||110000438458|40
01.10.2018 05:00:00||AKTİFBANK|10.40.24.168|||110000438458|81
01.10.2018 05:00:00||AKTİFBANK|10.40.24.168|||110000438458|70
01.10.2018 05:00:00||AKTİFBANK|10.40.24.168|||110000438458|70
01.10.2018 05:00:00||AKTİFBANK|10.40.24.168|||110000438458|30
01.10.2018 05:00:00||AKTİFBANK|10.40.24.169|||110000438458|60
01.10.2018 05:00:00||AKTİFBANK|10.40.24.169|||110000438458|91
01.10.2018 05:00:00||AKTİFBANK|10.40.24.169|||110000438458|70
01.10.2018 05:00:00||AKTİFBANK|10.40.24.169|||110000438458|81
01.10.2018 05:00:00||AKTİFBANK|10.40.24.170|||110000438458|60
01.10.2018 05:00:00||AKTİFBANK|10.40.24.170|||110000438458|60
01.10.2018 05:00:00||AKTİFBANK|10.40.24.170|||110000438458|334
01.10.2018 05:00:00||AKTİFBANK|10.40.24.170|||110000438458|81
01.10.2018 05:00:00||AKTİFBANK|10.40.24.170|||110000438458|101
01.10.2018 05:00:00||AKTİFBANK|10.40.24.170|||110000438458|60
01.10.2018 05:00:00||AKTİFBANK|10.40.24.171|||110000438458|2
01.10.2018 05:00:00||AKTİFBANK|10.40.24.171|||110000438458|11
01.10.2018 05:00:00||AKTİFBANK|10.40.24.172|||110000438458|60
01.10.2018 05:00:00||AKTİFBANK|10.40.24.172|||110000438458|35
01.10.2018 05:00:00||AKTİFBANK|10.40.24.173|||110000438458|48
01.10.2018 05:00:00||AKTİFBANK|10.40.24.173|||110000438458|47
01.10.2018 05:00:00||AKTİFBANK|10.40.24.174|||110000438458|57
01.10.2018 05:00:00||AKTİFBANK|10.40.24.174|||110000438458|2
01.10.2018 05:00:00||AKTİFBANK|10.40.24.178|||110000438458|557
01.10.2018 05:00:00||AKTİFBANK|10.40.24.178|||110000438458|537
01.10.2018 05:00:00||AKTİFBANK|10.40.24.178|||110000438458|527
01.10.2018 05:00:00||AKTİFBANK|10.40.24.179|||110000438458|364
01.10.2018 05:00:00||AKTİFBANK|10.40.24.179|||110000438458|375
01.10.2018 05:00:00||AKTİFBANK|10.40.24.179|||110000438458|364
01.10.2018 05:00:00||AKTİFBANK|10.40.24.186|||110000438458|91
01.10.2018 05:00:00||AKTİFBANK|10.40.24.186|||110000438458|20
01.10.2018 05:00:00||AKTİFBANK|10.40.24.186|||110000438458|60
01.10.2018 05:00:00||AKTİFBANK|10.40.24.186|||110000438458|40
01.10.2018 05:00:00||AKTİFBANK|10.40.25.128|||110000438458|70
01.10.2018 05:00:00||AKTİFBANK|10.40.25.128|||110000438458|91
01.10.2018 05:00:00||AKTİFBANK|10.40.25.128|||110000438458|40
01.10.2018 05:00:00||AKTİFBANK|10.40.25.128|||110000438458|70
01.10.2018 05:00:00||AKTİFBANK|10.40.25.129|||110000438458|81
01.10.2018 05:00:00||AKTİFBANK|10.40.25.129|||110000438458|81
01.10.2018 05:00:00||AKTİFBANK|10.40.25.129|||110000438458|131
01.10.2018 05:00:00||AKTİFBANK|10.40.25.129|||110000438458|101
01.10.2018 05:00:00||AKTİFBANK|10.40.25.129|||110000438458|40
01.10.2018 05:00:00||AKTİFBANK|10.40.25.129|||110000438458|91
01.10.2018 05:00:00||AKTİFBANK|10.40.25.129|||110000438458|70
01.10.2018 05:00:00||AKTİFBANK|10.40.25.129|||110000438458|81
01.10.2018 05:00:00||AKTİFBANK|10.40.25.129|||110000438458|140
01.10.2018 05:00:00||AKTİFBANK|10.40.25.129|||110000438458|100
01.10.2018 05:00:00||AKTİFBANK|10.40.25.130|||110000438458|70
01.10.2018 05:00:00||AKTİFBANK|10.40.25.130|||110000438458|50
01.10.2018 05:00:00||AKTİFBANK|10.40.25.130|||110000438458|70
01.10.2018 05:00:00||AKTİFBANK|10.40.25.130|||110000438458|30
01.10.2018 05:00:00||AKTİFBANK|10.40.25.130|||110000438458|60
01.10.2018 05:00:00||AKTİFBANK|10.40.25.130|||110000438458|100
01.10.2018 05:00:00||AKTİFBANK|10.40.25.130|||110000438458|80
01.10.2018 05:00:00||AKTİFBANK|10.40.25.130|||110000438458|60
01.10.2018 05:00:00||AKTİFBANK|10.40.25.130|||110000438458|120
01.10.2018 05:00:00||AKTİFBANK|10.40.25.130|||110000438458|100
01.10.2018 05:00:00||AKTİFBANK|10.40.25.131|||110000438458|90
01.10.2018 05:00:00||AKTİFBANK|10.40.25.131|||110000438458|100
01.10.2018 05:00:00||AKTİFBANK|10.40.25.131|||110000438458|110
01.10.2018 05:00:00||AKTİFBANK|10.40.25.131|||110000438458|80
01.10.2018 05:00:00||AKTİFBANK|10.40.25.131|||110000438458|80
01.10.2018 05:00:00||AKTİFBANK|10.40.25.131|||110000438458|20
01.10.2018 05:00:00||AKTİFBANK|10.40.25.131|||110000438458|120
01.10.2018 05:00:00||AKTİFBANK|10.40.25.131|||110000438458|50
01.10.2018 05:00:00||AKTİFBANK|10.40.25.132|||110000438458|60
01.10.2018 05:00:00||AKTİFBANK|10.40.25.132|||110000438458|70
01.10.2018 05:00:00||AKTİFBANK|10.40.25.132|||110000438458|80
01.10.2018 05:00:00||AKTİFBANK|10.40.25.132|||110000438458|170
01.10.2018 05:00:00||AKTİFBANK|10.40.25.132|||110000438458|60
01.10.2018 05:00:00||AKTİFBANK|10.40.25.133|||110000438458|150
01.10.2018 05:00:00||AKTİFBANK|10.40.25.133|||110000438458|280
01.10.2018 05:00:00||AKTİFBANK|10.40.25.133|||110000438458|110
01.10.2018 05:00:00||AKTİFBANK|10.40.25.133|||110000438458|60
01.10.2018 05:00:00||AKTİFBANK|10.40.25.133|||110000438458|90
01.10.2018 05:00:00||AKTİFBANK|10.40.25.134|||110000438458|63
01.10.2018 05:00:00||AKTİFBANK|10.40.25.134|||110000438458|31
01.10.2018 05:00:00||AKTİFBANK|10.40.25.135|||110000438458|30
01.10.2018 05:00:00||AKTİFBANK|10.40.25.135|||110000438458|63
01.10.2018 05:00:00||AKTİFBANK|10.40.25.137|||110000438458|58
01.10.2018 05:00:00||AKTİFBANK|10.40.25.138|||110000438458|90
01.10.2018 05:00:00||AKTİFBANK|10.40.25.138|||110000438458|70
01.10.2018 05:00:00||AKTİFBANK|10.40.25.138|||110000438458|80
01.10.2018 05:00:00||AKTİFBANK|10.40.25.138|||110000438458|130
01.10.2018 05:00:00||AKTİFBANK|10.40.25.138|||110000438458|40
01.10.2018 05:00:00||AKTİFBANK|10.40.25.138|||110000438458|10
01.10.2018 05:00:00||AKTİFBANK|10.40.25.139|||110000438458|40
01.10.2018 05:00:00||AKTİFBANK|10.40.25.139|||110000438458|10
01.10.2018 05:00:00||AKTİFBANK|10.40.25.139|||110000438458|10
01.10.2018 05:00:00||AKTİFBANK|10.40.25.139|||110000438458|20
01.10.2018 05:00:00||AKTİFBANK|10.40.25.139|||110000438458|70
01.10.2018 05:00:00||AKTİFBANK|10.40.25.139|||110000438458|80
01.10.2018 05:00:00||AKTİFBANK|10.40.25.139|||110000438458|100
01.10.2018 05:00:00||AKTİFBANK|10.40.25.140|||110000438458|80
01.10.2018 05:00:00||AKTİFBANK|10.40.25.140|||110000438458|70
01.10.2018 05:00:00||AKTİFBANK|10.40.25.140|||110000438458|30
01.10.2018 05:00:00||AKTİFBANK|10.40.25.140|||110000438458|30
01.10.2018 05:00:00||AKTİFBANK|10.40.25.140|||110000438458|30
01.10.2018 05:00:00||AKTİFBANK|10.40.25.141|||110000438458|40
01.10.2018 05:00:00||AKTİFBANK|10.40.25.141|||110000438458|100
01.10.2018 05:00:00||AKTİFBANK|10.40.25.141|||110000438458|100
01.10.2018 05:00:00||AKTİFBANK|10.40.25.141|||110000438458|100
01.10.2018 05:00:00||AKTİFBANK|10.40.25.141|||110000438458|90
01.10.2018 05:00:00||AKTİFBANK|10.40.25.141|||110000438458|70
01.10.2018 05:00:00||AKTİFBANK|10.40.25.142|||110000438458|30
01.10.2018 05:00:00||AKTİFBANK|10.40.25.143|||110000438458|60
01.10.2018 05:00:00||AKTİFBANK|10.40.25.143|||110000438458|240
01.10.2018 05:00:00||AKTİFBANK|10.40.25.143|||110000438458|260
01.10.2018 05:00:00||AKTİFBANK|10.40.25.143|||110000438458|311
01.10.2018 05:00:00||AKTİFBANK|10.40.25.144|||110000438458|70
01.10.2018 05:00:00||AKTİFBANK|10.40.25.144|||110000438458|50
01.10.2018 05:00:00||AKTİFBANK|10.40.25.144|||110000438458|60
01.10.2018 05:00:00||AKTİFBANK|10.40.25.145|||110000438458|90
01.10.2018 05:00:00||AKTİFBANK|10.40.25.145|||110000438458|60
01.10.2018 05:00:00||AKTİFBANK|10.40.25.145|||110000438458|60
01.10.2018 05:00:00||AKTİFBANK|10.40.25.145|||110000438458|30
01.10.2018 05:00:00||AKTİFBANK|10.40.25.145|||110000438458|50
01.10.2018 05:00:00||AKTİFBANK|10.40.25.147|||110000438458|90
01.10.2018 05:00:00||AKTİFBANK|10.40.25.148|||110000438458|130
01.10.2018 05:00:00||AKTİFBANK|10.40.25.148|||110000438458|50
01.10.2018 05:00:00||AKTİFBANK|10.40.25.148|||110000438458|100
01.10.2018 05:00:00||AKTİFBANK|10.40.25.148|||110000438458|130
01.10.2018 05:00:00||AKTİFBANK|10.40.25.148|||110000438458|90
01.10.2018 05:00:00||AKTİFBANK|10.40.25.148|||110000438458|80
01.10.2018 05:00:00||AKTİFBANK|10.40.25.148|||110000438458|70
01.10.2018 05:00:00||AKTİFBANK|10.40.25.148|||110000438458|50
01.10.2018 05:00:00||AKTİFBANK|10.40.25.148|||110000438458|80
01.10.2018 05:00:00||AKTİFBANK|10.40.25.148|||110000438458|40
01.10.2018 05:00:00||AKTİFBANK|10.40.25.148|||110000438458|100
01.10.2018 05:00:00||AKTİFBANK|10.40.25.148|||110000438458|60
01.10.2018 05:00:00||AKTİFBANK|10.40.25.149|||110000438458|60
01.10.2018 05:00:00||AKTİFBANK|10.40.25.149|||110000438458|110
01.10.2018 05:00:00||AKTİFBANK|10.40.25.149|||110000438458|90
01.10.2018 05:00:00||AKTİFBANK|10.40.25.149|||110000438458|70
01.10.2018 05:00:00||AKTİFBANK|10.40.25.149|||110000438458|90
01.10.2018 05:00:00||AKTİFBANK|10.40.25.149|||110000438458|40
01.10.2018 05:00:00||AKTİFBANK|10.40.25.149|||110000438458|80
01.10.2018 05:00:00||AKTİFBANK|10.40.25.149|||110000438458|70
01.10.2018 05:00:00||AKTİFBANK|10.40.25.149|||110000438458|130
01.10.2018 05:00:00||AKTİFBANK|10.40.25.149|||110000438458|110
01.10.2018 05:00:00||AKTİFBANK|10.40.25.149|||110000438458|90
01.10.2018 05:00:00||AKTİFBANK|10.40.25.149|||110000438458|90
01.10.2018 05:00:00||AKTİFBANK|10.40.25.149|||110000438458|100
01.10.2018 05:00:00||AKTİFBANK|10.40.25.149|||110000438458|70
01.10.2018 05:00:00||AKTİFBANK|10.40.25.150|||110000438458|576
01.10.2018 05:00:00||AKTİFBANK|10.40.25.150|||110000438458|527
01.10.2018 05:00:00||AKTİFBANK|10.40.25.150|||110000438458|566
01.10.2018 05:00:00||AKTİFBANK|10.40.25.151|||110000438458|546
01.10.2018 05:00:00||AKTİFBANK|10.40.25.151|||110000438458|507
01.10.2018 05:00:00||AKTİFBANK|10.40.25.151|||110000438458|527
01.10.2018 05:00:00||AKTİFBANK|10.40.25.152|||110000438458|120
01.10.2018 05:00:00||AKTİFBANK|10.40.25.152|||110000438458|40
01.10.2018 05:00:00||AKTİFBANK|10.40.25.152|||110000438458|140
01.10.2018 05:00:00||AKTİFBANK|10.40.25.152|||110000438458|70
01.10.2018 05:00:00||AKTİFBANK|10.40.25.152|||110000438458|90
01.10.2018 05:00:00||AKTİFBANK|10.40.25.152|||110000438458|50
01.10.2018 05:00:00||AKTİFBANK|10.40.25.152|||110000438458|90
01.10.2018 05:00:00||AKTİFBANK|10.40.25.152|||110000438458|30
01.10.2018 05:00:00||AKTİFBANK|10.40.25.152|||110000438458|80
01.10.2018 05:00:00||AKTİFBANK|10.40.25.152|||110000438458|30
01.10.2018 05:00:00||AKTİFBANK|10.40.25.153|||110000438458|10
01.10.2018 05:00:00||AKTİFBANK|10.40.25.153|||110000438458|80
01.10.2018 05:00:00||AKTİFBANK|10.40.25.153|||110000438458|60
01.10.2018 05:00:00||AKTİFBANK|10.40.25.153|||110000438458|70
01.10.2018 05:00:00||AKTİFBANK|10.40.25.154|||110000438458|10
01.10.2018 05:00:00||AKTİFBANK|10.40.25.154|||110000438458|10
01.10.2018 05:00:00||AKTİFBANK|10.40.25.154|||110000438458|10
01.10.2018 05:00:00||AKTİFBANK|10.40.25.155|||110000438458|70
01.10.2018 05:00:00||AKTİFBANK|10.40.25.155|||110000438458|90
01.10.2018 05:00:00||AKTİFBANK|10.40.25.155|||110000438458|110
01.10.2018 05:00:00||AKTİFBANK|10.40.25.155|||110000438458|120
01.10.2018 05:00:00||AKTİFBANK|10.40.25.155|||110000438458|110
01.10.2018 05:00:00||AKTİFBANK|10.40.25.157|||110000438458|70
01.10.2018 05:00:00||AKTİFBANK|10.40.25.157|||110000438458|70
01.10.2018 05:00:00||AKTİFBANK|10.40.25.157|||110000438458|70
01.10.2018 05:00:00||AKTİFBANK|10.40.25.157|||110000438458|80
01.10.2018 05:00:00||AKTİFBANK|10.40.25.157|||110000438458|40
01.10.2018 05:00:00||AKTİFBANK|10.40.25.158|||110000438458|120
01.10.2018 05:00:00||AKTİFBANK|10.40.25.158|||110000438458|50
01.10.2018 05:00:00||AKTİFBANK|10.40.25.159|||110000438458|60
01.10.2018 05:00:00||AKTİFBANK|10.40.25.159|||110000438458|10
01.10.2018 05:00:00||AKTİFBANK|10.40.25.159|||110000438458|90
01.10.2018 05:00:00||AKTİFBANK|10.40.25.160|||110000438458|90
01.10.2018 05:00:00||AKTİFBANK|10.40.25.160|||110000438458|110
01.10.2018 05:00:00||AKTİFBANK|10.40.25.161|||110000438458|80
01.10.2018 05:00:00||AKTİFBANK|10.40.25.161|||110000438458|70
01.10.2018 05:00:00||AKTİFBANK|10.40.25.161|||110000438458|40
01.10.2018 05:00:00||AKTİFBANK|10.40.25.161|||110000438458|30
01.10.2018 05:00:00||AKTİFBANK|10.40.25.161|||110000438458|20
01.10.2018 05:00:00||AKTİFBANK|10.40.25.161|||110000438458|50
01.10.2018 05:00:00||AKTİFBANK|10.40.25.162|||110000438458|30
01.10.2018 05:00:00||AKTİFBANK|10.40.25.162|||110000438458|30
01.10.2018 05:00:00||AKTİFBANK|10.40.25.162|||110000438458|60
01.10.2018 05:00:00||AKTİFBANK|10.40.25.162|||110000438458|50
01.10.2018 05:00:00||AKTİFBANK|10.40.25.162|||110000438458|30
01.10.2018 05:00:00||AKTİFBANK|10.40.25.162|||110000438458|40
01.10.2018 05:00:00||AKTİFBANK|10.40.25.163|||110000438458|40
01.10.2018 05:00:00||AKTİFBANK|10.40.25.164|||110000438458|60
01.10.2018 05:00:00||AKTİFBANK|10.40.25.164|||110000438458|278
01.10.2018 05:00:00||AKTİFBANK|10.40.25.164|||110000438458|50
01.10.2018 05:00:00||AKTİFBANK|10.40.25.164|||110000438458|259
01.10.2018 05:00:00||AKTİFBANK|10.40.25.164|||110000438458|268
01.10.2018 05:00:00||AKTİFBANK|10.40.25.165|||110000438458|140
01.10.2018 05:00:00||AKTİFBANK|10.40.25.165|||110000438458|70
01.10.2018 05:00:00||AKTİFBANK|10.40.25.165|||110000438458|70
01.10.2018 05:00:00||AKTİFBANK|10.40.25.165|||110000438458|100
01.10.2018 05:00:00||AKTİFBANK|10.40.25.166|||110000438458|40
01.10.2018 05:00:00||AKTİFBANK|10.40.25.166|||110000438458|90
01.10.2018 05:00:00||AKTİFBANK|10.40.25.168|||110000438458|90
01.10.2018 05:00:00||AKTİFBANK|10.40.25.168|||110000438458|70
01.10.2018 05:00:00||AKTİFBANK|10.40.25.168|||110000438458|50
01.10.2018 05:00:00||AKTİFBANK|10.40.25.168|||110000438458|40
01.10.2018 05:00:00||AKTİFBANK|10.40.25.168|||110000438458|60
01.10.2018 05:00:00||AKTİFBANK|10.40.25.169|||110000438458|90
01.10.2018 05:00:00||AKTİFBANK|10.40.25.169|||110000438458|90
01.10.2018 05:00:00||AKTİFBANK|10.40.25.169|||110000438458|70
01.10.2018 05:00:00||AKTİFBANK|10.40.25.169|||110000438458|100
01.10.2018 05:00:00||AKTİFBANK|10.40.25.170|||110000438458|30
01.10.2018 05:00:00||AKTİFBANK|10.40.25.170|||110000438458|30
01.10.2018 05:00:00||AKTİFBANK|10.40.25.170|||110000438458|229
01.10.2018 05:00:00||AKTİFBANK|10.40.25.170|||110000438458|100
01.10.2018 05:00:00||AKTİFBANK|10.40.25.170|||110000438458|80
01.10.2018 05:00:00||AKTİFBANK|10.40.25.170|||110000438458|110
01.10.2018 05:00:00||AKTİFBANK|10.40.25.171|||110000438458|1
01.10.2018 05:00:00||AKTİFBANK|10.40.25.171|||110000438458|11
01.10.2018 05:00:00||AKTİFBANK|10.40.25.172|||110000438458|27
01.10.2018 05:00:00||AKTİFBANK|10.40.25.172|||110000438458|62
01.10.2018 05:00:00||AKTİFBANK|10.40.25.173|||110000438458|33
01.10.2018 05:00:00||AKTİFBANK|10.40.25.173|||110000438458|62
01.10.2018 05:00:00||AKTİFBANK|10.40.25.174|||110000438458|53
01.10.2018 05:00:00||AKTİFBANK|10.40.25.178|||110000438458|556
01.10.2018 05:00:00||AKTİFBANK|10.40.25.178|||110000438458|556
01.10.2018 05:00:00||AKTİFBANK|10.40.25.178|||110000438458|546
01.10.2018 05:00:00||AKTİFBANK|10.40.25.179|||110000438458|388
01.10.2018 05:00:00||AKTİFBANK|10.40.25.179|||110000438458|328
01.10.2018 05:00:00||AKTİFBANK|10.40.25.179|||110000438458|308
01.10.2018 05:00:00||AKTİFBANK|10.40.25.186|||110000438458|91
01.10.2018 05:00:00||AKTİFBANK|10.40.25.186|||110000438458|20
01.10.2018 05:00:00||AKTİFBANK|10.40.25.186|||110000438458|71
01.10.2018 05:00:00||BOYNER|10.40.26.100|||101367941673|42
01.10.2018 05:00:00||BOYNER|10.40.26.100|||101367941673|17
01.10.2018 05:00:00||BOYNER|10.40.26.101|||101367941673|26
01.10.2018 05:00:00||BOYNER|10.40.26.101|||101367941673|139
01.10.2018 05:00:00||BOYNER|10.40.26.94|||101367941673|87
01.10.2018 05:00:00||BOYNER|10.40.26.94|||101367941673|77
01.10.2018 05:00:00||BOYNER|10.40.26.94|||101367941673|77
01.10.2018 05:00:00||BOYNER|10.40.26.95|||101367941673|87
01.10.2018 05:00:00||BOYNER|10.40.26.95|||101367941673|191
01.10.2018 05:00:00||BOYNER|10.40.26.95|||101367941673|134
01.10.2018 05:00:00||BOYNER|10.40.26.96|||101367941673|30
01.10.2018 05:00:00||BOYNER|10.40.26.96|||101367941673|39
01.10.2018 05:00:00||BOYNER|10.40.26.96|||101367941673|30
01.10.2018 05:00:00||BOYNER|10.40.26.96|||101367941673|39
01.10.2018 05:00:00||BOYNER|10.40.26.96|||101367941673|39
01.10.2018 05:00:00||BOYNER|10.40.26.96|||101367941673|48
01.10.2018 05:00:00||BOYNER|10.40.26.96|||101367941673|172
01.10.2018 05:00:00||BOYNER|10.40.26.96|||101367941673|200
01.10.2018 05:00:00||BOYNER|10.40.26.96|||101367941673|153
01.10.2018 05:00:00||BOYNER|10.40.26.96|||101367941673|172
01.10.2018 05:00:00||BOYNER|10.40.26.97|||101367941673|30
01.10.2018 05:00:00||BOYNER|10.40.26.97|||101367941673|628
01.10.2018 05:00:00||BOYNER|10.40.26.97|||101367941673|618
01.10.2018 05:00:00||BOYNER|10.40.26.97|||101367941673|628
01.10.2018 05:00:00||BOYNER|10.40.26.97|||101367941673|30
01.10.2018 05:00:00||BOYNER|10.40.26.97|||101367941673|39
01.10.2018 05:00:00||BOYNER|10.40.26.97|||101367941673|48
01.10.2018 05:00:00||BOYNER|10.40.26.97|||101367941673|58
01.10.2018 05:00:00||BOYNER|10.40.26.97|||101367941673|30
01.10.2018 05:00:00||BOYNER|10.40.26.97|||101367941673|143
01.10.2018 05:00:00||BOYNER|10.40.26.97|||101367941673|172
01.10.2018 05:00:00||BOYNER|10.40.26.97|||101367941673|163
01.10.2018 05:00:00||BOYNER|10.40.26.97|||101367941673|163
01.10.2018 05:00:00||BOYNER|10.40.26.99|||101367941673|20
01.10.2018 05:00:00||BOYNER|10.40.26.99|||101367941673|106
01.10.2018 05:00:00||BOYNER|10.40.26.99|||101367941673|106
01.10.2018 05:00:00||BOYNER|10.40.26.99|||101367941673|58
01.10.2018 05:00:00||BOYNER|10.40.27.100|||101367941673|16
01.10.2018 05:00:00||BOYNER|10.40.27.100|||101367941673|35
01.10.2018 05:00:00||BOYNER|10.40.27.101|||101367941673|132
01.10.2018 05:00:00||BOYNER|10.40.27.101|||101367941673|28
01.10.2018 05:00:00||BOYNER|10.40.27.94|||101367941673|222
01.10.2018 05:00:00||BOYNER|10.40.27.94|||101367941673|94
01.10.2018 05:00:00||BOYNER|10.40.27.94|||101367941673|94
01.10.2018 05:00:00||BOYNER|10.40.27.94|||101367941673|105
01.10.2018 05:00:00||BOYNER|10.40.27.95|||101367941673|137
01.10.2018 05:00:00||BOYNER|10.40.27.95|||101367941673|137
01.10.2018 05:00:00||BOYNER|10.40.27.95|||101367941673|254
01.10.2018 05:00:00||BOYNER|10.40.27.96|||101367941673|62
01.10.2018 05:00:00||BOYNER|10.40.27.96|||101367941673|52
01.10.2018 05:00:00||BOYNER|10.40.27.96|||101367941673|52
01.10.2018 05:00:00||BOYNER|10.40.27.96|||101367941673|41
01.10.2018 05:00:00||BOYNER|10.40.27.96|||101367941673|41
01.10.2018 05:00:00||BOYNER|10.40.27.96|||101367941673|147
01.10.2018 05:00:00||BOYNER|10.40.27.96|||101367941673|147
01.10.2018 05:00:00||BOYNER|10.40.27.96|||101367941673|179
01.10.2018 05:00:00||BOYNER|10.40.27.96|||101367941673|169
01.10.2018 05:00:00||BOYNER|10.40.27.97|||101367941673|62
01.10.2018 05:00:00||BOYNER|10.40.27.97|||101367941673|699
01.10.2018 05:00:00||BOYNER|10.40.27.97|||101367941673|710
01.10.2018 05:00:00||BOYNER|10.40.27.97|||101367941673|731
01.10.2018 05:00:00||BOYNER|10.40.27.97|||101367941673|52
01.10.2018 05:00:00||BOYNER|10.40.27.97|||101367941673|41
01.10.2018 05:00:00||BOYNER|10.40.27.97|||101367941673|52
01.10.2018 05:00:00||BOYNER|10.40.27.97|||101367941673|30
01.10.2018 05:00:00||BOYNER|10.40.27.97|||101367941673|179
01.10.2018 05:00:00||BOYNER|10.40.27.97|||101367941673|190
01.10.2018 05:00:00||BOYNER|10.40.27.97|||101367941673|211
01.10.2018 05:00:00||BOYNER|10.40.27.97|||101367941673|211
01.10.2018 05:00:00||BOYNER|10.40.27.99|||101367941673|126
01.10.2018 05:00:00||BOYNER|10.40.27.99|||101367941673|105
01.10.2018 05:00:00||BOYNER|10.40.27.99|||101367941673|73
01.10.2018 05:00:00||ÇALIK HOLDİNG|10.40.24.100|||110000438408|30
01.10.2018 05:00:00||ÇALIK HOLDİNG|10.40.24.100|||110000438408|40
01.10.2018 05:00:00||ÇALIK HOLDİNG|10.40.24.101|||110000438408|60
01.10.2018 05:00:00||ÇALIK HOLDİNG|10.40.24.101|||110000438408|109
01.10.2018 05:00:00||ÇALIK HOLDİNG|10.40.24.101|||110000438408|20
01.10.2018 05:00:00||ÇALIK HOLDİNG|10.40.24.101|||110000438408|20
01.10.2018 05:00:00||ÇALIK HOLDİNG|10.40.24.101|||110000438408|40
01.10.2018 05:00:00||ÇALIK HOLDİNG|10.40.24.101|||110000438408|89
01.10.2018 05:00:00||ÇALIK HOLDİNG|10.40.24.101|||110000438408|30
01.10.2018 05:00:00||ÇALIK HOLDİNG|10.40.24.101|||110000438408|10
01.10.2018 05:00:00||ÇALIK HOLDİNG|10.40.24.101|||110000438408|20
01.10.2018 05:00:00||ÇALIK HOLDİNG|10.40.24.101|||110000438408|50
01.10.2018 05:00:00||ÇALIK HOLDİNG|10.40.24.101|||110000438408|30
01.10.2018 05:00:00||ÇALIK HOLDİNG|10.40.24.101|||110000438408|79
01.10.2018 05:00:00||ÇALIK HOLDİNG|10.40.24.101|||110000438408|79
01.10.2018 05:00:00||ÇALIK HOLDİNG|10.40.24.101|||110000438408|99
01.10.2018 05:00:00||ÇALIK HOLDİNG|10.40.24.102|||110000438408|99
01.10.2018 05:00:00||ÇALIK HOLDİNG|10.40.24.102|||110000438408|99
01.10.2018 05:00:00||ÇALIK HOLDİNG|10.40.24.102|||110000438408|138
01.10.2018 05:00:00||ÇALIK HOLDİNG|10.40.24.103|||110000438408|99
01.10.2018 05:00:00||ÇALIK HOLDİNG|10.40.24.103|||110000438408|79
01.10.2018 05:00:00||ÇALIK HOLDİNG|10.40.24.103|||110000438408|79
01.10.2018 05:00:00||ÇALIK HOLDİNG|10.40.24.103|||110000438408|20
01.10.2018 05:00:00||ÇALIK HOLDİNG|10.40.24.103|||110000438408|20
01.10.2018 05:00:00||ÇALIK HOLDİNG|10.40.24.113|||110000438408|207
01.10.2018 05:00:00||ÇALIK HOLDİNG|10.40.24.113|||110000438408|227
01.10.2018 05:00:00||ÇALIK HOLDİNG|10.40.24.113|||110000438408|197
01.10.2018 05:00:00||ÇALIK HOLDİNG|10.40.24.113|||110000438408|148
01.10.2018 05:00:00||ÇALIK HOLDİNG|10.40.24.114|||110000438408|20
01.10.2018 05:00:00||ÇALIK HOLDİNG|10.40.24.114|||110000438408|40
01.10.2018 05:00:00||ÇALIK HOLDİNG|10.40.24.114|||110000438408|178
01.10.2018 05:00:00||ÇALIK HOLDİNG|10.40.24.114|||110000438408|364
01.10.2018 05:00:00||ÇALIK HOLDİNG|10.40.24.115|||110000438408|138
01.10.2018 05:00:00||ÇALIK HOLDİNG|10.40.24.115|||110000438408|79
01.10.2018 05:00:00||ÇALIK HOLDİNG|10.40.24.115|||110000438408|89
01.10.2018 05:00:00||ÇALIK HOLDİNG|10.40.24.115|||110000438408|69
01.10.2018 05:00:00||ÇALIK HOLDİNG|10.40.24.115|||110000438408|89
01.10.2018 05:00:00||ÇALIK HOLDİNG|10.40.24.115|||110000438408|69
01.10.2018 05:00:00||ÇALIK HOLDİNG|10.40.24.116|||110000438408|266
01.10.2018 05:00:00||ÇALIK HOLDİNG|10.40.24.116|||110000438408|109
01.10.2018 05:00:00||ÇALIK HOLDİNG|10.40.24.116|||110000438408|89
01.10.2018 05:00:00||ÇALIK HOLDİNG|10.40.24.117|||110000438408|197
01.10.2018 05:00:00||ÇALIK HOLDİNG|10.40.24.117|||110000438408|30
01.10.2018 05:00:00||ÇALIK HOLDİNG|10.40.24.117|||110000438408|30
01.10.2018 05:00:00||ÇALIK HOLDİNG|10.40.24.118|||110000438408|43
01.10.2018 05:00:00||ÇALIK HOLDİNG|10.40.24.119|||110000438408|148
01.10.2018 05:00:00||ÇALIK HOLDİNG|10.40.24.119|||110000438408|30
01.10.2018 05:00:00||ÇALIK HOLDİNG|10.40.24.119|||110000438408|50
01.10.2018 05:00:00||ÇALIK HOLDİNG|10.40.24.120|||110000438408|20
01.10.2018 05:00:00||ÇALIK HOLDİNG|10.40.24.120|||110000438408|30
01.10.2018 05:00:00||ÇALIK HOLDİNG|10.40.24.120|||110000438408|109
01.10.2018 05:00:00||ÇALIK HOLDİNG|10.40.24.120|||110000438408|10
01.10.2018 05:00:00||ÇALIK HOLDİNG|10.40.24.120|||110000438408|20
01.10.2018 05:00:00||ÇALIK HOLDİNG|10.40.24.120|||110000438408|99
01.10.2018 05:00:00||ÇALIK HOLDİNG|10.40.24.120|||110000438408|40
01.10.2018 05:00:00||ÇALIK HOLDİNG|10.40.24.120|||110000438408|79
01.10.2018 05:00:00||ÇALIK HOLDİNG|10.40.24.120|||110000438408|79
01.10.2018 05:00:00||ÇALIK HOLDİNG|10.40.24.120|||110000438408|69
01.10.2018 05:00:00||ÇALIK HOLDİNG|10.40.24.121|||110000438408|99
01.10.2018 05:00:00||ÇALIK HOLDİNG|10.40.24.121|||110000438408|99
01.10.2018 05:00:00||ÇALIK HOLDİNG|10.40.24.121|||110000438408|148
01.10.2018 05:00:00||ÇALIK HOLDİNG|10.40.24.122|||110000438408|89
01.10.2018 05:00:00||ÇALIK HOLDİNG|10.40.24.122|||110000438408|79
01.10.2018 05:00:00||ÇALIK HOLDİNG|10.40.24.122|||110000438408|89
01.10.2018 05:00:00||ÇALIK HOLDİNG|10.40.24.122|||110000438408|30
01.10.2018 05:00:00||ÇALIK HOLDİNG|10.40.24.122|||110000438408|10
01.10.2018 05:00:00||ÇALIK HOLDİNG|10.40.24.94|||110000438408|205
01.10.2018 05:00:00||ÇALIK HOLDİNG|10.40.24.94|||110000438408|176
01.10.2018 05:00:00||ÇALIK HOLDİNG|10.40.24.94|||110000438408|186
01.10.2018 05:00:00||ÇALIK HOLDİNG|10.40.24.94|||110000438408|196
01.10.2018 05:00:00||ÇALIK HOLDİNG|10.40.24.95|||110000438408|98
01.10.2018 05:00:00||ÇALIK HOLDİNG|10.40.24.95|||110000438408|49
01.10.2018 05:00:00||ÇALIK HOLDİNG|10.40.24.95|||110000438408|20
01.10.2018 05:00:00||ÇALIK HOLDİNG|10.40.24.95|||110000438408|89
01.10.2018 05:00:00||ÇALIK HOLDİNG|10.40.24.95|||110000438408|430
01.10.2018 05:00:00||ÇALIK HOLDİNG|10.40.24.95|||110000438408|391
01.10.2018 05:00:00||ÇALIK HOLDİNG|10.40.24.97|||110000438408|101
01.10.2018 05:00:00||ÇALIK HOLDİNG|10.40.24.97|||110000438408|91
01.10.2018 05:00:00||ÇALIK HOLDİNG|10.40.24.97|||110000438408|81
01.10.2018 05:00:00||ÇALIK HOLDİNG|10.40.24.97|||110000438408|91
01.10.2018 05:00:00||ÇALIK HOLDİNG|10.40.24.97|||110000438408|314
01.10.2018 05:00:00||ÇALIK HOLDİNG|10.40.24.98|||110000438408|91
01.10.2018 05:00:00||ÇALIK HOLDİNG|10.40.24.98|||110000438408|152
01.10.2018 05:00:00||ÇALIK HOLDİNG|10.40.24.98|||110000438408|202
01.10.2018 05:00:00||ÇALIK HOLDİNG|10.40.24.98|||110000438408|202
01.10.2018 05:00:00||ÇALIK HOLDİNG|10.40.24.98|||110000438408|162
01.10.2018 05:00:00||ÇALIK HOLDİNG|10.40.24.98|||110000438408|30
01.10.2018 05:00:00||ÇALIK HOLDİNG|10.40.24.98|||110000438408|162
01.10.2018 05:00:00||ÇALIK HOLDİNG|10.40.24.98|||110000438408|182
01.10.2018 05:00:00||ÇALIK HOLDİNG|10.40.24.98|||110000438408|172
01.10.2018 05:00:00||ÇALIK HOLDİNG|10.40.24.98|||110000438408|182
01.10.2018 05:00:00||ÇALIK HOLDİNG|10.40.24.98|||110000438408|20
01.10.2018 05:00:00||ÇALIK HOLDİNG|10.40.24.98|||110000438408|284
01.10.2018 05:00:00||ÇALIK HOLDİNG|10.40.25.100|||110000438408|40
01.10.2018 05:00:00||ÇALIK HOLDİNG|10.40.25.100|||110000438408|40
01.10.2018 05:00:00||ÇALIK HOLDİNG|10.40.25.101|||110000438408|50
01.10.2018 05:00:00||ÇALIK HOLDİNG|10.40.25.101|||110000438408|111
01.10.2018 05:00:00||ÇALIK HOLDİNG|10.40.25.101|||110000438408|30
01.10.2018 05:00:00||ÇALIK HOLDİNG|10.40.25.101|||110000438408|10
01.10.2018 05:00:00||ÇALIK HOLDİNG|10.40.25.101|||110000438408|81
01.10.2018 05:00:00||ÇALIK HOLDİNG|10.40.25.101|||110000438408|40
01.10.2018 05:00:00||ÇALIK HOLDİNG|10.40.25.101|||110000438408|40
01.10.2018 05:00:00||ÇALIK HOLDİNG|10.40.25.101|||110000438408|91
01.10.2018 05:00:00||ÇALIK HOLDİNG|10.40.25.101|||110000438408|91
01.10.2018 05:00:00||ÇALIK HOLDİNG|10.40.25.101|||110000438408|91
01.10.2018 05:00:00||ÇALIK HOLDİNG|10.40.25.102|||110000438408|101
01.10.2018 05:00:00||ÇALIK HOLDİNG|10.40.25.102|||110000438408|101
01.10.2018 05:00:00||ÇALIK HOLDİNG|10.40.25.102|||110000438408|152
01.10.2018 05:00:00||ÇALIK HOLDİNG|10.40.25.103|||110000438408|91
01.10.2018 05:00:00||ÇALIK HOLDİNG|10.40.25.103|||110000438408|91
01.10.2018 05:00:00||ÇALIK HOLDİNG|10.40.25.103|||110000438408|81
01.10.2018 05:00:00||ÇALIK HOLDİNG|10.40.25.113|||110000438408|223
01.10.2018 05:00:00||ÇALIK HOLDİNG|10.40.25.113|||110000438408|253
01.10.2018 05:00:00||ÇALIK HOLDİNG|10.40.25.113|||110000438408|182
01.10.2018 05:00:00||ÇALIK HOLDİNG|10.40.25.113|||110000438408|202
01.10.2018 05:00:00||ÇALIK HOLDİNG|10.40.25.114|||110000438408|182
01.10.2018 05:00:00||ÇALIK HOLDİNG|10.40.25.114|||110000438408|416
01.10.2018 05:00:00||ÇALIK HOLDİNG|10.40.25.114|||110000438408|40
01.10.2018 05:00:00||ÇALIK HOLDİNG|10.40.25.115|||110000438408|152
01.10.2018 05:00:00||ÇALIK HOLDİNG|10.40.25.115|||110000438408|70
01.10.2018 05:00:00||ÇALIK HOLDİNG|10.40.25.115|||110000438408|81
01.10.2018 05:00:00||ÇALIK HOLDİNG|10.40.25.115|||110000438408|81
01.10.2018 05:00:00||ÇALIK HOLDİNG|10.40.25.115|||110000438408|70
01.10.2018 05:00:00||ÇALIK HOLDİNG|10.40.25.115|||110000438408|70
01.10.2018 05:00:00||ÇALIK HOLDİNG|10.40.25.116|||110000438408|101
01.10.2018 05:00:00||ÇALIK HOLDİNG|10.40.25.116|||110000438408|101
01.10.2018 05:00:00||ÇALIK HOLDİNG|10.40.25.116|||110000438408|294
01.10.2018 05:00:00||ÇALIK HOLDİNG|10.40.25.117|||110000438408|243
01.10.2018 05:00:00||ÇALIK HOLDİNG|10.40.25.117|||110000438408|30
01.10.2018 05:00:00||ÇALIK HOLDİNG|10.40.25.117|||110000438408|30
01.10.2018 05:00:00||ÇALIK HOLDİNG|10.40.25.118|||110000438408|162
01.10.2018 05:00:00||ÇALIK HOLDİNG|10.40.25.119|||110000438408|30
01.10.2018 05:00:00||ÇALIK HOLDİNG|10.40.25.119|||110000438408|30
01.10.2018 05:00:00||ÇALIK HOLDİNG|10.40.25.120|||110000438408|111
01.10.2018 05:00:00||ÇALIK HOLDİNG|10.40.25.120|||110000438408|50
01.10.2018 05:00:00||ÇALIK HOLDİNG|10.40.25.120|||110000438408|60
01.10.2018 05:00:00||ÇALIK HOLDİNG|10.40.25.120|||110000438408|20
01.10.2018 05:00:00||ÇALIK HOLDİNG|10.40.25.120|||110000438408|30
01.10.2018 05:00:00||ÇALIK HOLDİNG|10.40.25.120|||110000438408|40
01.10.2018 05:00:00||ÇALIK HOLDİNG|10.40.25.120|||110000438408|91
01.10.2018 05:00:00||ÇALIK HOLDİNG|10.40.25.120|||110000438408|20
01.10.2018 05:00:00||ÇALIK HOLDİNG|10.40.25.120|||110000438408|91
01.10.2018 05:00:00||ÇALIK HOLDİNG|10.40.25.120|||110000438408|91
01.10.2018 05:00:00||ÇALIK HOLDİNG|10.40.25.121|||110000438408|91
01.10.2018 05:00:00||ÇALIK HOLDİNG|10.40.25.121|||110000438408|101
01.10.2018 05:00:00||ÇALIK HOLDİNG|10.40.25.121|||110000438408|141
01.10.2018 05:00:00||ÇALIK HOLDİNG|10.40.25.122|||110000438408|91
01.10.2018 05:00:00||ÇALIK HOLDİNG|10.40.25.122|||110000438408|81
01.10.2018 05:00:00||ÇALIK HOLDİNG|10.40.25.122|||110000438408|81
01.10.2018 05:00:00||ÇALIK HOLDİNG|10.40.25.94|||110000438408|183
01.10.2018 05:00:00||ÇALIK HOLDİNG|10.40.25.94|||110000438408|183
01.10.2018 05:00:00||ÇALIK HOLDİNG|10.40.25.94|||110000438408|173
01.10.2018 05:00:00||ÇALIK HOLDİNG|10.40.25.94|||110000438408|183
01.10.2018 05:00:00||ÇALIK HOLDİNG|10.40.25.95|||110000438408|101
01.10.2018 05:00:00||ÇALIK HOLDİNG|10.40.25.95|||110000438408|81
01.10.2018 05:00:00||ÇALIK HOLDİNG|10.40.25.95|||110000438408|387
01.10.2018 05:00:00||ÇALIK HOLDİNG|10.40.25.95|||110000438408|387
01.10.2018 05:00:00||ÇALIK HOLDİNG|10.40.25.95|||110000438408|40
01.10.2018 05:00:00||ÇALIK HOLDİNG|10.40.25.96|||110000438408|71
01.10.2018 05:00:00||ÇALIK HOLDİNG|10.40.25.96|||110000438408|91
01.10.2018 05:00:00||ÇALIK HOLDİNG|10.40.25.96|||110000438408|101
01.10.2018 05:00:00||ÇALIK HOLDİNG|10.40.25.96|||110000438408|91
01.10.2018 05:00:00||ÇALIK HOLDİNG|10.40.25.96|||110000438408|132
01.10.2018 05:00:00||ÇALIK HOLDİNG|10.40.25.96|||110000438408|101
01.10.2018 05:00:00||ÇALIK HOLDİNG|10.40.25.96|||110000438408|254
01.10.2018 05:00:00||ÇALIK HOLDİNG|10.40.25.96|||110000438408|265
01.10.2018 05:00:00||ÇALIK HOLDİNG|10.40.25.96|||110000438408|94
01.10.2018 05:00:00||ÇALIK HOLDİNG|10.40.25.96|||110000438408|94
01.10.2018 05:00:00||ÇALIK HOLDİNG|10.40.25.96|||110000438408|105
01.10.2018 05:00:00||ÇALIK HOLDİNG|10.40.25.96|||110000438408|94
01.10.2018 05:00:00||ÇALIK HOLDİNG|10.40.25.96|||110000438408|105
01.10.2018 05:00:00||ÇALIK HOLDİNG|10.40.25.96|||110000438408|94
01.10.2018 05:00:00||ÇALIK HOLDİNG|10.40.25.97|||110000438408|105
01.10.2018 05:00:00||ÇALIK HOLDİNG|10.40.25.97|||110000438408|84
01.10.2018 05:00:00||ÇALIK HOLDİNG|10.40.25.97|||110000438408|94
01.10.2018 05:00:00||ÇALIK HOLDİNG|10.40.25.97|||110000438408|84
01.10.2018 05:00:00||ÇALIK HOLDİNG|10.40.25.97|||110000438408|317
01.10.2018 05:00:00||ÇALIK HOLDİNG|10.40.25.98|||110000438408|52
01.10.2018 05:00:00||ÇALIK HOLDİNG|10.40.25.98|||110000438408|168
01.10.2018 05:00:00||ÇALIK HOLDİNG|10.40.25.98|||110000438408|168
01.10.2018 05:00:00||ÇALIK HOLDİNG|10.40.25.98|||110000438408|168
01.10.2018 05:00:00||ÇALIK HOLDİNG|10.40.25.98|||110000438408|168
01.10.2018 05:00:00||ÇALIK HOLDİNG|10.40.25.98|||110000438408|62
01.10.2018 05:00:00||ÇALIK HOLDİNG|10.40.25.98|||110000438408|221
01.10.2018 05:00:00||ÇALIK HOLDİNG|10.40.25.98|||110000438408|189
01.10.2018 05:00:00||ÇALIK HOLDİNG|10.40.25.98|||110000438408|178
01.10.2018 05:00:00||ÇALIK HOLDİNG|10.40.25.98|||110000438408|221
01.10.2018 05:00:00||ÇALIK HOLDİNG|10.40.25.98|||110000438408|73
01.10.2018 05:00:00||ÇALIK HOLDİNG|10.40.25.98|||110000438408|317
01.10.2018 05:00:00||ÇALIK HOLDİNG|10.40.25.99|||110000438408|74
01.10.2018 05:00:00||ÇALIK HOLDİNG|10.40.25.99|||110000438408|69
01.10.2018 05:00:00||FIBABANKA|10.40.24.51|||101571767266|20
01.10.2018 05:00:00||FIBABANKA|10.40.24.51|||101571767266|69
01.10.2018 05:00:00||FIBABANKA|10.40.24.51|||101571767266|98
01.10.2018 05:00:00||FIBABANKA|10.40.24.51|||101571767266|137
01.10.2018 05:00:00||FIBABANKA|10.40.24.51|||101571767266|30
01.10.2018 05:00:00||FIBABANKA|10.40.24.51|||101571767266|30
01.10.2018 05:00:00||FIBABANKA|10.40.24.52|||101571767266|10
01.10.2018 05:00:00||FIBABANKA|10.40.24.53|||101571767266|30
01.10.2018 05:00:00||FIBABANKA|10.40.24.53|||101571767266|59
01.10.2018 05:00:00||FIBABANKA|10.40.24.53|||101571767266|176
01.10.2018 05:00:00||FIBABANKA|10.40.24.53|||101571767266|205
01.10.2018 05:00:00||FIBABANKA|10.40.24.54|||101571767266|187
01.10.2018 05:00:00||FIBABANKA|10.40.24.54|||101571767266|189
01.10.2018 05:00:00||FIBABANKA|10.40.24.55|||101571767266|85
01.10.2018 05:00:00||FIBABANKA|10.40.24.55|||101571767266|23
01.10.2018 05:00:00||FIBABANKA|10.40.24.56|||101571767266|11
01.10.2018 05:00:00||FIBABANKA|10.40.24.56|||101571767266|180
01.10.2018 05:00:00||FIBABANKA|10.40.24.57|||101571767266|89
01.10.2018 05:00:00||FIBABANKA|10.40.24.57|||101571767266|79
01.10.2018 05:00:00||FIBABANKA|10.40.24.57|||101571767266|79
01.10.2018 05:00:00||FIBABANKA|10.40.24.59|||101571767266|69
01.10.2018 05:00:00||FIBABANKA|10.40.24.59|||101571767266|118
01.10.2018 05:00:00||FIBABANKA|10.40.24.59|||101571767266|69
01.10.2018 05:00:00||FIBABANKA|10.40.24.59|||101571767266|49
01.10.2018 05:00:00||FIBABANKA|10.40.24.59|||101571767266|127
01.10.2018 05:00:00||FIBABANKA|10.40.24.59|||101571767266|69
01.10.2018 05:00:00||FIBABANKA|10.40.24.59|||101571767266|59
01.10.2018 05:00:00||FIBABANKA|10.40.24.59|||101571767266|157
01.10.2018 05:00:00||FIBABANKA|10.40.24.59|||101571767266|59
01.10.2018 05:00:00||FIBABANKA|10.40.24.60|||101571767266|118
01.10.2018 05:00:00||FIBABANKA|10.40.24.60|||101571767266|49
01.10.2018 05:00:00||FIBABANKA|10.40.24.60|||101571767266|40
01.10.2018 05:00:00||FIBABANKA|10.40.24.60|||101571767266|98
01.10.2018 05:00:00||FIBABANKA|10.40.24.60|||101571767266|59
01.10.2018 05:00:00||FIBABANKA|10.40.24.72|||101571767266|137
01.10.2018 05:00:00||FIBABANKA|10.40.24.72|||101571767266|69
01.10.2018 05:00:00||FIBABANKA|10.40.24.72|||101571767266|30
01.10.2018 05:00:00||FIBABANKA|10.40.24.72|||101571767266|40
01.10.2018 05:00:00||FIBABANKA|10.40.24.74|||101571767266|30
01.10.2018 05:00:00||FIBABANKA|10.40.24.74|||101571767266|30
01.10.2018 05:00:00||FIBABANKA|10.40.24.75|||101571767266|186
01.10.2018 05:00:00||FIBABANKA|10.40.24.75|||101571767266|157
01.10.2018 05:00:00||FIBABANKA|10.40.24.75|||101571767266|157
01.10.2018 05:00:00||FIBABANKA|10.40.24.76|||101571767266|40
01.10.2018 05:00:00||FIBABANKA|10.40.24.76|||101571767266|69
01.10.2018 05:00:00||FIBABANKA|10.40.24.76|||101571767266|10
01.10.2018 05:00:00||FIBABANKA|10.40.25.51|||101571767266|20
01.10.2018 05:00:00||FIBABANKA|10.40.25.51|||101571767266|111
01.10.2018 05:00:00||FIBABANKA|10.40.25.51|||101571767266|132
01.10.2018 05:00:00||FIBABANKA|10.40.25.51|||101571767266|40
01.10.2018 05:00:00||FIBABANKA|10.40.25.51|||101571767266|40
01.10.2018 05:00:00||FIBABANKA|10.40.25.51|||101571767266|71
01.10.2018 05:00:00||FIBABANKA|10.40.25.52|||101571767266|10
01.10.2018 05:00:00||FIBABANKA|10.40.25.52|||101571767266|71
01.10.2018 05:00:00||FIBABANKA|10.40.25.53|||101571767266|40
01.10.2018 05:00:00||FIBABANKA|10.40.25.53|||101571767266|50
01.10.2018 05:00:00||FIBABANKA|10.40.25.53|||101571767266|163
01.10.2018 05:00:00||FIBABANKA|10.40.25.53|||101571767266|163
01.10.2018 05:00:00||FIBABANKA|10.40.25.54|||101571767266|94
01.10.2018 05:00:00||FIBABANKA|10.40.25.54|||101571767266|166
01.10.2018 05:00:00||FIBABANKA|10.40.25.55|||101571767266|90
01.10.2018 05:00:00||FIBABANKA|10.40.25.55|||101571767266|23
01.10.2018 05:00:00||FIBABANKA|10.40.25.56|||101571767266|11
01.10.2018 05:00:00||FIBABANKA|10.40.25.56|||101571767266|197
01.10.2018 05:00:00||FIBABANKA|10.40.25.57|||101571767266|91
01.10.2018 05:00:00||FIBABANKA|10.40.25.57|||101571767266|91
01.10.2018 05:00:00||FIBABANKA|10.40.25.57|||101571767266|91
01.10.2018 05:00:00||FIBABANKA|10.40.25.59|||101571767266|71
01.10.2018 05:00:00||FIBABANKA|10.40.25.59|||101571767266|91
01.10.2018 05:00:00||FIBABANKA|10.40.25.59|||101571767266|81
01.10.2018 05:00:00||FIBABANKA|10.40.25.59|||101571767266|40
01.10.2018 05:00:00||FIBABANKA|10.40.25.59|||101571767266|132
01.10.2018 05:00:00||FIBABANKA|10.40.25.59|||101571767266|71
01.10.2018 05:00:00||FIBABANKA|10.40.25.59|||101571767266|60
01.10.2018 05:00:00||FIBABANKA|10.40.25.59|||101571767266|163
01.10.2018 05:00:00||FIBABANKA|10.40.25.59|||101571767266|60
01.10.2018 05:00:00||FIBABANKA|10.40.25.60|||101571767266|111
01.10.2018 05:00:00||FIBABANKA|10.40.25.60|||101571767266|30
01.10.2018 05:00:00||FIBABANKA|10.40.25.60|||101571767266|111
01.10.2018 05:00:00||FIBABANKA|10.40.25.60|||101571767266|40
01.10.2018 05:00:00||FIBABANKA|10.40.25.72|||101571767266|71
01.10.2018 05:00:00||FIBABANKA|10.40.25.72|||101571767266|40
01.10.2018 05:00:00||FIBABANKA|10.40.25.72|||101571767266|30
01.10.2018 05:00:00||FIBABANKA|10.40.25.74|||101571767266|40
01.10.2018 05:00:00||FIBABANKA|10.40.25.74|||101571767266|30
01.10.2018 05:00:00||FIBABANKA|10.40.25.74|||101571767266|40
01.10.2018 05:00:00||FIBABANKA|10.40.25.74|||101571767266|40
01.10.2018 05:00:00||FIBABANKA|10.40.25.74|||101571767266|40
01.10.2018 05:00:00||FIBABANKA|10.40.25.75|||101571767266|10
01.10.2018 05:00:00||FIBABANKA|10.40.25.75|||101571767266|132
01.10.2018 05:00:00||FIBABANKA|10.40.25.75|||101571767266|163
01.10.2018 05:00:00||FIBABANKA|10.40.25.75|||101571767266|183
01.10.2018 05:00:00||FIBABANKA|10.40.25.75|||101571767266|193
01.10.2018 05:00:00||FIBABANKA|10.40.25.76|||101571767266|10
01.10.2018 05:00:00||FIBABANKA|10.40.25.76|||101571767266|60
01.10.2018 05:00:00||FIBABANKA|10.40.25.76|||101571767266|40
01.10.2018 05:00:00||FIBABANKA|10.40.25.76|||101571767266|10
01.10.2018 05:00:00||FIBABANKA|10.40.26.51|||101571767266|10
01.10.2018 05:00:00||FIBABANKA|10.40.26.51|||101571767266|20
01.10.2018 05:00:00||FIBABANKA|10.40.26.51|||101571767266|115
01.10.2018 05:00:00||FIBABANKA|10.40.26.51|||101571767266|147
01.10.2018 05:00:00||FIBABANKA|10.40.26.51|||101571767266|73
01.10.2018 05:00:00||FIBABANKA|10.40.26.51|||101571767266|30
01.10.2018 05:00:00||FIBABANKA|10.40.26.51|||101571767266|30
01.10.2018 05:00:00||FIBABANKA|10.40.26.52|||101571767266|30
01.10.2018 05:00:00||FIBABANKA|10.40.26.52|||101571767266|94
01.10.2018 05:00:00||FIBABANKA|10.40.26.52|||101571767266|30
01.10.2018 05:00:00||FIBABANKA|10.40.26.53|||101571767266|62
01.10.2018 05:00:00||FIBABANKA|10.40.26.53|||101571767266|52
01.10.2018 05:00:00||FIBABANKA|10.40.26.53|||101571767266|168
01.10.2018 05:00:00||FIBABANKA|10.40.26.53|||101571767266|189
01.10.2018 05:00:00||FIBABANKA|10.40.26.54|||101571767266|184
01.10.2018 05:00:00||FIBABANKA|10.40.26.54|||101571767266|147
01.10.2018 05:00:00||FIBABANKA|10.40.26.55|||101571767266|121
01.10.2018 05:00:00||FIBABANKA|10.40.26.57|||101571767266|94
01.10.2018 05:00:00||FIBABANKA|10.40.26.57|||101571767266|94
01.10.2018 05:00:00||FIBABANKA|10.40.26.57|||101571767266|84
01.10.2018 05:00:00||FIBABANKA|10.40.26.72|||101571767266|30
01.10.2018 05:00:00||FIBABANKA|10.40.26.72|||101571767266|143
01.10.2018 05:00:00||FIBABANKA|10.40.26.72|||101571767266|67
01.10.2018 05:00:00||FIBABANKA|10.40.26.72|||101571767266|30
01.10.2018 05:00:00||FIBABANKA|10.40.26.73|||101571767266|39
01.10.2018 05:00:00||FIBABANKA|10.40.26.73|||101571767266|67
01.10.2018 05:00:00||FIBABANKA|10.40.26.73|||101571767266|30
01.10.2018 05:00:00||FIBABANKA|10.40.26.73|||101571767266|39
01.10.2018 05:00:00||FIBABANKA|10.40.26.74|||101571767266|77
01.10.2018 05:00:00||FIBABANKA|10.40.26.74|||101571767266|172
01.10.2018 05:00:00||FIBABANKA|10.40.26.74|||101571767266|181
01.10.2018 05:00:00||FIBABANKA|10.40.26.74|||101571767266|172
01.10.2018 05:00:00||FIBABANKA|10.40.26.77|||101571767266|172
01.10.2018 05:00:00||FIBABANKA|10.40.26.79|||101571767266|10
01.10.2018 05:00:00||FIBABANKA|10.40.26.79|||101571767266|10
01.10.2018 05:00:00||FIBABANKA|10.40.27.51|||101571767266|30
01.10.2018 05:00:00||FIBABANKA|10.40.27.51|||101571767266|20
01.10.2018 05:00:00||FIBABANKA|10.40.27.51|||101571767266|96
01.10.2018 05:00:00||FIBABANKA|10.40.27.51|||101571767266|125
01.10.2018 05:00:00||FIBABANKA|10.40.27.51|||101571767266|68
01.10.2018 05:00:00||FIBABANKA|10.40.27.51|||101571767266|39
01.10.2018 05:00:00||FIBABANKA|10.40.27.51|||101571767266|39
01.10.2018 05:00:00||FIBABANKA|10.40.27.52|||101571767266|48
01.10.2018 05:00:00||FIBABANKA|10.40.27.52|||101571767266|58
01.10.2018 05:00:00||FIBABANKA|10.40.27.52|||101571767266|68
01.10.2018 05:00:00||FIBABANKA|10.40.27.53|||101571767266|68
01.10.2018 05:00:00||FIBABANKA|10.40.27.53|||101571767266|58
01.10.2018 05:00:00||FIBABANKA|10.40.27.53|||101571767266|164
01.10.2018 05:00:00||FIBABANKA|10.40.27.53|||101571767266|173
01.10.2018 05:00:00||FIBABANKA|10.40.27.54|||101571767266|171
01.10.2018 05:00:00||FIBABANKA|10.40.27.54|||101571767266|123
01.10.2018 05:00:00||FIBABANKA|10.40.27.55|||101571767266|109
01.10.2018 05:00:00||FIBABANKA|10.40.27.57|||101571767266|77
01.10.2018 05:00:00||FIBABANKA|10.40.27.57|||101571767266|77
01.10.2018 05:00:00||FIBABANKA|10.40.27.57|||101571767266|77
01.10.2018 05:00:00||FIBABANKA|10.40.27.72|||101571767266|48
01.10.2018 05:00:00||FIBABANKA|10.40.27.72|||101571767266|39
01.10.2018 05:00:00||FIBABANKA|10.40.27.72|||101571767266|135
01.10.2018 05:00:00||FIBABANKA|10.40.27.72|||101571767266|58
01.10.2018 05:00:00||FIBABANKA|10.40.27.72|||101571767266|30
01.10.2018 05:00:00||FIBABANKA|10.40.27.73|||101571767266|30
01.10.2018 05:00:00||FIBABANKA|10.40.27.73|||101571767266|95
01.10.2018 05:00:00||FIBABANKA|10.40.27.73|||101571767266|30
01.10.2018 05:00:00||FIBABANKA|10.40.27.73|||101571767266|20
01.10.2018 05:00:00||FIBABANKA|10.40.27.73|||101571767266|39
01.10.2018 05:00:00||FIBABANKA|10.40.27.73|||101571767266|39
01.10.2018 05:00:00||FIBABANKA|10.40.27.73|||101571767266|39
01.10.2018 05:00:00||FIBABANKA|10.40.27.73|||101571767266|39
01.10.2018 05:00:00||FIBABANKA|10.40.27.74|||101571767266|76
01.10.2018 05:00:00||FIBABANKA|10.40.27.74|||101571767266|143
01.10.2018 05:00:00||FIBABANKA|10.40.27.74|||101571767266|171
01.10.2018 05:00:00||FIBABANKA|10.40.27.74|||101571767266|171
01.10.2018 05:00:00||FIBABANKA|10.40.27.75|||101571767266|10
01.10.2018 05:00:00||FIBABANKA|10.40.27.75|||101571767266|10
01.10.2018 05:00:00||FIBABANKA|10.40.27.77|||101571767266|162
01.10.2018 05:00:00||FIBABANKA|10.40.27.77|||101571767266|152
01.10.2018 05:00:00||FIBABANKA|10.40.27.79|||101571767266|10
01.10.2018 05:00:00||HAVAŞ|10.40.24.45|||110000479675|70
01.10.2018 05:00:00||HAVAŞ|10.40.24.45|||110000479675|162
01.10.2018 05:00:00||HAVAŞ|10.40.24.45|||110000479675|131
01.10.2018 05:00:00||HAVAŞ|10.40.24.45|||110000479675|91
01.10.2018 05:00:00||HAVAŞ|10.40.24.46|||110000479675|20
01.10.2018 05:00:00||HAVAŞ|10.40.24.46|||110000479675|20
01.10.2018 05:00:00||HAVAŞ|10.40.24.46|||110000479675|10
01.10.2018 05:00:00||HAVAŞ|10.40.24.46|||110000479675|10
01.10.2018 05:00:00||HAVAŞ|10.40.24.46|||110000479675|10
01.10.2018 05:00:00||HAVAŞ|10.40.24.46|||110000479675|10
01.10.2018 05:00:00||HAVAŞ|10.40.24.46|||110000479675|10
01.10.2018 05:00:00||HAVAŞ|10.40.24.46|||110000479675|59
01.10.2018 05:00:00||HAVAŞ|10.40.24.46|||110000479675|59
01.10.2018 05:00:00||HAVAŞ|10.40.24.46|||110000479675|108
01.10.2018 05:00:00||HAVAŞ|10.40.24.46|||110000479675|69
01.10.2018 05:00:00||HAVAŞ|10.40.24.46|||110000479675|79
01.10.2018 05:00:00||HAVAŞ|10.40.24.47|||110000479675|30
01.10.2018 05:00:00||HAVAŞ|10.40.24.47|||110000479675|30
01.10.2018 05:00:00||HAVAŞ|10.40.24.47|||110000479675|205
01.10.2018 05:00:00||HAVAŞ|10.40.24.47|||110000479675|89
01.10.2018 05:00:00||HAVAŞ|10.40.24.47|||110000479675|49
01.10.2018 05:00:00||HAVAŞ|10.40.24.47|||110000479675|49
01.10.2018 05:00:00||HAVAŞ|10.40.24.47|||110000479675|108
01.10.2018 05:00:00||HAVAŞ|10.40.24.47|||110000479675|157
01.10.2018 05:00:00||HAVAŞ|10.40.24.47|||110000479675|98
01.10.2018 05:00:00||HAVAŞ|10.40.24.47|||110000479675|98
01.10.2018 05:00:00||HAVAŞ|10.40.24.47|||110000479675|89
01.10.2018 05:00:00||HAVAŞ|10.40.24.48|||110000479675|732
01.10.2018 05:00:00||HAVAŞ|10.40.24.48|||110000479675|703
01.10.2018 05:00:00||HAVAŞ|10.40.24.48|||110000479675|732
01.10.2018 05:00:00||HAVAŞ|10.40.25.45|||110000479675|50
01.10.2018 05:00:00||HAVAŞ|10.40.25.45|||110000479675|101
01.10.2018 05:00:00||HAVAŞ|10.40.25.45|||110000479675|132
01.10.2018 05:00:00||HAVAŞ|10.40.25.45|||110000479675|91
01.10.2018 05:00:00||HAVAŞ|10.40.25.46|||110000479675|10
01.10.2018 05:00:00||HAVAŞ|10.40.25.46|||110000479675|10
01.10.2018 05:00:00||HAVAŞ|10.40.25.46|||110000479675|20
01.10.2018 05:00:00||HAVAŞ|10.40.25.46|||110000479675|20
01.10.2018 05:00:00||HAVAŞ|10.40.25.46|||110000479675|10
01.10.2018 05:00:00||HAVAŞ|10.40.25.46|||110000479675|50
01.10.2018 05:00:00||HAVAŞ|10.40.25.46|||110000479675|60
01.10.2018 05:00:00||HAVAŞ|10.40.25.46|||110000479675|101
01.10.2018 05:00:00||HAVAŞ|10.40.25.46|||110000479675|71
01.10.2018 05:00:00||HAVAŞ|10.40.25.46|||110000479675|81
01.10.2018 05:00:00||HAVAŞ|10.40.25.46|||110000479675|71
01.10.2018 05:00:00||HAVAŞ|10.40.25.47|||110000479675|71
01.10.2018 05:00:00||HAVAŞ|10.40.25.47|||110000479675|71
01.10.2018 05:00:00||HAVAŞ|10.40.25.47|||110000479675|234
01.10.2018 05:00:00||HAVAŞ|10.40.25.47|||110000479675|60
01.10.2018 05:00:00||HAVAŞ|10.40.25.47|||110000479675|91
01.10.2018 05:00:00||HAVAŞ|10.40.25.47|||110000479675|91
01.10.2018 05:00:00||HAVAŞ|10.40.25.47|||110000479675|91
01.10.2018 05:00:00||HAVAŞ|10.40.25.47|||110000479675|10
01.10.2018 05:00:00||HAVAŞ|10.40.25.47|||110000479675|183
01.10.2018 05:00:00||HAVAŞ|10.40.25.47|||110000479675|91
01.10.2018 05:00:00||HAVAŞ|10.40.25.47|||110000479675|91
01.10.2018 05:00:00||HAVAŞ|10.40.25.47|||110000479675|91
01.10.2018 05:00:00||HAVAŞ|10.40.25.48|||110000479675|754
01.10.2018 05:00:00||HAVAŞ|10.40.25.48|||110000479675|764
01.10.2018 05:00:00||HAVAŞ|10.40.25.48|||110000479675|815
01.10.2018 05:00:00||MARS CINEMA|10.40.24.203|||110000472614|60
01.10.2018 05:00:00||MARS CINEMA|10.40.24.203|||110000472614|91
01.10.2018 05:00:00||MARS CINEMA|10.40.24.203|||110000472614|101
01.10.2018 05:00:00||MARS CINEMA|10.40.24.203|||110000472614|101
01.10.2018 05:00:00||MARS CINEMA|10.40.24.203|||110000472614|141
01.10.2018 05:00:00||MARS CINEMA|10.40.24.203|||110000472614|151
01.10.2018 05:00:00||MARS CINEMA|10.40.24.203|||110000472614|172
01.10.2018 05:00:00||MARS CINEMA|10.40.24.203|||110000472614|172
01.10.2018 05:00:00||MARS CINEMA|10.40.24.203|||110000472614|101
01.10.2018 05:00:00||MARS CINEMA|10.40.24.203|||110000472614|101
01.10.2018 05:00:00||MARS CINEMA|10.40.24.203|||110000472614|91
01.10.2018 05:00:00||MARS CINEMA|10.40.24.203|||110000472614|192
01.10.2018 05:00:00||MARS CINEMA|10.40.24.204|||110000472614|111
01.10.2018 05:00:00||MARS CINEMA|10.40.24.204|||110000472614|91
01.10.2018 05:00:00||MARS CINEMA|10.40.24.204|||110000472614|91
01.10.2018 05:00:00||MARS CINEMA|10.40.24.204|||110000472614|20
01.10.2018 05:00:00||MARS CINEMA|10.40.24.204|||110000472614|91
01.10.2018 05:00:00||MARS CINEMA|10.40.24.204|||110000472614|20
01.10.2018 05:00:00||MARS CINEMA|10.40.24.204|||110000472614|10
01.10.2018 05:00:00||MARS CINEMA|10.40.24.204|||110000472614|40
01.10.2018 05:00:00||MARS CINEMA|10.40.24.204|||110000472614|91
01.10.2018 05:00:00||MARS CINEMA|10.40.24.204|||110000472614|121
01.10.2018 05:00:00||MARS CINEMA|10.40.24.204|||110000472614|50
01.10.2018 05:00:00||MARS CINEMA|10.40.24.204|||110000472614|91
01.10.2018 05:00:00||MARS CINEMA|10.40.24.204|||110000472614|111
01.10.2018 05:00:00||MARS CINEMA|10.40.24.204|||110000472614|81
01.10.2018 05:00:00||MARS CINEMA|10.40.24.206|||110000472614|40
01.10.2018 05:00:00||MARS CINEMA|10.40.24.206|||110000472614|40
01.10.2018 05:00:00||MARS CINEMA|10.40.24.206|||110000472614|50
01.10.2018 05:00:00||MARS CINEMA|10.40.24.206|||110000472614|30
01.10.2018 05:00:00||MARS CINEMA|10.40.24.206|||110000472614|30
01.10.2018 05:00:00||MARS CINEMA|10.40.24.206|||110000472614|30
01.10.2018 05:00:00||MARS CINEMA|10.40.24.206|||110000472614|202
01.10.2018 05:00:00||MARS CINEMA|10.40.24.206|||110000472614|131
01.10.2018 05:00:00||MARS CINEMA|10.40.24.206|||110000472614|20
01.10.2018 05:00:00||MARS CINEMA|10.40.24.206|||110000472614|91
01.10.2018 05:00:00||MARS CINEMA|10.40.24.206|||110000472614|81
01.10.2018 05:00:00||MARS CINEMA|10.40.25.203|||110000472614|142
01.10.2018 05:00:00||MARS CINEMA|10.40.25.203|||110000472614|71
01.10.2018 05:00:00||MARS CINEMA|10.40.25.203|||110000472614|173
01.10.2018 05:00:00||MARS CINEMA|10.40.25.203|||110000472614|91
01.10.2018 05:00:00||MARS CINEMA|10.40.25.203|||110000472614|91
01.10.2018 05:00:00||MARS CINEMA|10.40.25.203|||110000472614|111
01.10.2018 05:00:00||MARS CINEMA|10.40.25.203|||110000472614|122
01.10.2018 05:00:00||MARS CINEMA|10.40.25.203|||110000472614|152
01.10.2018 05:00:00||MARS CINEMA|10.40.25.203|||110000472614|91
01.10.2018 05:00:00||MARS CINEMA|10.40.25.203|||110000472614|91
01.10.2018 05:00:00||MARS CINEMA|10.40.25.203|||110000472614|60
01.10.2018 05:00:00||MARS CINEMA|10.40.25.203|||110000472614|193
01.10.2018 05:00:00||MARS CINEMA|10.40.25.204|||110000472614|111
01.10.2018 05:00:00||MARS CINEMA|10.40.25.204|||110000472614|71
01.10.2018 05:00:00||MARS CINEMA|10.40.25.204|||110000472614|81
01.10.2018 05:00:00||MARS CINEMA|10.40.25.204|||110000472614|101
01.10.2018 05:00:00||MARS CINEMA|10.40.25.204|||110000472614|20
01.10.2018 05:00:00||MARS CINEMA|10.40.25.204|||110000472614|20
01.10.2018 05:00:00||MARS CINEMA|10.40.25.204|||110000472614|30
01.10.2018 05:00:00||MARS CINEMA|10.40.25.204|||110000472614|40
01.10.2018 05:00:00||MARS CINEMA|10.40.25.204|||110000472614|91
01.10.2018 05:00:00||MARS CINEMA|10.40.25.204|||110000472614|111
01.10.2018 05:00:00||MARS CINEMA|10.40.25.204|||110000472614|101
01.10.2018 05:00:00||MARS CINEMA|10.40.25.204|||110000472614|122
01.10.2018 05:00:00||MARS CINEMA|10.40.25.204|||110000472614|81
01.10.2018 05:00:00||MARS CINEMA|10.40.25.204|||110000472614|81
01.10.2018 05:00:00||MARS CINEMA|10.40.25.206|||110000472614|40
01.10.2018 05:00:00||MARS CINEMA|10.40.25.206|||110000472614|40
01.10.2018 05:00:00||MARS CINEMA|10.40.25.206|||110000472614|40
01.10.2018 05:00:00||MARS CINEMA|10.40.25.206|||110000472614|20
01.10.2018 05:00:00||MARS CINEMA|10.40.25.206|||110000472614|20
01.10.2018 05:00:00||MARS CINEMA|10.40.25.206|||110000472614|30
01.10.2018 05:00:00||MARS CINEMA|10.40.25.206|||110000472614|60
01.10.2018 05:00:00||MARS CINEMA|10.40.25.206|||110000472614|40
01.10.2018 05:00:00||MARS CINEMA|10.40.25.206|||110000472614|81
01.10.2018 05:00:00||MARS CINEMA|10.40.25.206|||110000472614|81
01.10.2018 05:00:00||PEGASUS|10.40.26.62|||110000423831|94
01.10.2018 05:00:00||PEGASUS|10.40.26.62|||110000423831|10
01.10.2018 05:00:00||PEGASUS|10.40.26.62|||110000423831|200
01.10.2018 05:00:00||PEGASUS|10.40.26.63|||110000423831|115
01.10.2018 05:00:00||PEGASUS|10.40.26.63|||110000423831|306
01.10.2018 05:00:00||PEGASUS|10.40.26.63|||110000423831|115
01.10.2018 05:00:00||PEGASUS|10.40.26.63|||110000423831|94
01.10.2018 05:00:00||PEGASUS|10.40.26.63|||110000423831|73
01.10.2018 05:00:00||PEGASUS|10.40.26.63|||110000423831|137
01.10.2018 05:00:00||PEGASUS|10.40.26.63|||110000423831|62
01.10.2018 05:00:00||PEGASUS|10.40.26.63|||110000423831|105
01.10.2018 05:00:00||PEGASUS|10.40.26.63|||110000423831|30
01.10.2018 05:00:00||PEGASUS|10.40.26.63|||110000423831|62
01.10.2018 05:00:00||PEGASUS|10.40.26.63|||110000423831|20
01.10.2018 05:00:00||PEGASUS|10.40.26.63|||110000423831|231
01.10.2018 05:00:00||PEGASUS|10.40.26.63|||110000423831|147
01.10.2018 05:00:00||PEGASUS|10.40.26.63|||110000423831|52
01.10.2018 05:00:00||PEGASUS|10.40.26.63|||110000423831|158
01.10.2018 05:00:00||PEGASUS|10.40.26.63|||110000423831|41
01.10.2018 05:00:00||PEGASUS|10.40.26.63|||110000423831|62
01.10.2018 05:00:00||PEGASUS|10.40.26.63|||110000423831|62
01.10.2018 05:00:00||PEGASUS|10.40.26.63|||110000423831|41
01.10.2018 05:00:00||PEGASUS|10.40.26.64|||110000423831|84
01.10.2018 05:00:00||PEGASUS|10.40.26.64|||110000423831|84
01.10.2018 05:00:00||PEGASUS|10.40.26.66|||110000423831|60
01.10.2018 05:00:00||PEGASUS|10.40.26.66|||110000423831|51
01.10.2018 05:00:00||PEGASUS|10.40.26.67|||110000423831|30
01.10.2018 05:00:00||PEGASUS|10.40.26.67|||110000423831|358
01.10.2018 05:00:00||PEGASUS|10.40.26.67|||110000423831|358
01.10.2018 05:00:00||PEGASUS|10.40.26.67|||110000423831|62
01.10.2018 05:00:00||PEGASUS|10.40.26.67|||110000423831|41
01.10.2018 05:00:00||PEGASUS|10.40.26.67|||110000423831|178
01.10.2018 05:00:00||PEGASUS|10.40.26.67|||110000423831|73
01.10.2018 05:00:00||PEGASUS|10.40.26.67|||110000423831|358
01.10.2018 05:00:00||PEGASUS|10.40.26.68|||110000423831|105
01.10.2018 05:00:00||PEGASUS|10.40.26.68|||110000423831|94
01.10.2018 05:00:00||PEGASUS|10.40.26.68|||110000423831|94
01.10.2018 05:00:00||PEGASUS|10.40.26.68|||110000423831|52
01.10.2018 05:00:00||PEGASUS|10.40.26.81|||110000423831|409
01.10.2018 05:00:00||PEGASUS|10.40.26.81|||110000423831|428
01.10.2018 05:00:00||PEGASUS|10.40.26.81|||110000423831|438
01.10.2018 05:00:00||PEGASUS|10.40.26.82|||110000423831|200
01.10.2018 05:00:00||PEGASUS|10.40.26.82|||110000423831|106
01.10.2018 05:00:00||PEGASUS|10.40.26.82|||110000423831|77
01.10.2018 05:00:00||PEGASUS|10.40.26.82|||110000423831|143
01.10.2018 05:00:00||PEGASUS|10.40.26.82|||110000423831|134
01.10.2018 05:00:00||PEGASUS|10.40.26.82|||110000423831|134
01.10.2018 05:00:00||PEGASUS|10.40.26.82|||110000423831|172
01.10.2018 05:00:00||PEGASUS|10.40.26.82|||110000423831|30
01.10.2018 05:00:00||PEGASUS|10.40.26.82|||110000423831|39
01.10.2018 05:00:00||PEGASUS|10.40.26.82|||110000423831|20
01.10.2018 05:00:00||PEGASUS|10.40.26.82|||110000423831|67
01.10.2018 05:00:00||PEGASUS|10.40.26.82|||110000423831|48
01.10.2018 05:00:00||PEGASUS|10.40.26.82|||110000423831|39
01.10.2018 05:00:00||PEGASUS|10.40.26.83|||110000423831|514
01.10.2018 05:00:00||PEGASUS|10.40.26.83|||110000423831|48
01.10.2018 05:00:00||PEGASUS|10.40.26.83|||110000423831|381
01.10.2018 05:00:00||PEGASUS|10.40.26.83|||110000423831|143
01.10.2018 05:00:00||PEGASUS|10.40.26.83|||110000423831|96
01.10.2018 05:00:00||PEGASUS|10.40.26.83|||110000423831|514
01.10.2018 05:00:00||PEGASUS|10.40.26.83|||110000423831|106
01.10.2018 05:00:00||PEGASUS|10.40.26.83|||110000423831|524
01.10.2018 05:00:00||PEGASUS|10.40.26.84|||110000423831|39
01.10.2018 05:00:00||PEGASUS|10.40.26.84|||110000423831|175
01.10.2018 05:00:00||PEGASUS|10.40.26.85|||110000423831|23
01.10.2018 05:00:00||PEGASUS|10.40.26.85|||110000423831|94
01.10.2018 05:00:00||PEGASUS|10.40.26.86|||110000423831|343
01.10.2018 05:00:00||PEGASUS|10.40.26.86|||110000423831|124
01.10.2018 05:00:00||PEGASUS|10.40.26.86|||110000423831|333
01.10.2018 05:00:00||PEGASUS|10.40.26.86|||110000423831|48
01.10.2018 05:00:00||PEGASUS|10.40.26.86|||110000423831|30
01.10.2018 05:00:00||PEGASUS|10.40.26.86|||110000423831|333
01.10.2018 05:00:00||PEGASUS|10.40.26.86|||110000423831|39
01.10.2018 05:00:00||PEGASUS|10.40.26.86|||110000423831|48
01.10.2018 05:00:00||PEGASUS|10.40.26.87|||110000423831|87
01.10.2018 05:00:00||PEGASUS|10.40.26.87|||110000423831|87
01.10.2018 05:00:00||PEGASUS|10.40.26.87|||110000423831|87
01.10.2018 05:00:00||PEGASUS|10.40.26.87|||110000423831|20
01.10.2018 05:00:00||PEGASUS|10.40.27.63|||110000423831|87
01.10.2018 05:00:00||PEGASUS|10.40.27.63|||110000423831|58
01.10.2018 05:00:00||PEGASUS|10.40.27.63|||110000423831|68
01.10.2018 05:00:00||PEGASUS|10.40.27.63|||110000423831|48
01.10.2018 05:00:00||PEGASUS|10.40.27.63|||110000423831|58
01.10.2018 05:00:00||PEGASUS|10.40.27.63|||110000423831|58
01.10.2018 05:00:00||PEGASUS|10.40.27.63|||110000423831|77
01.10.2018 05:00:00||PEGASUS|10.40.27.63|||110000423831|77
01.10.2018 05:00:00||PEGASUS|10.40.27.63|||110000423831|77
01.10.2018 05:00:00||PEGASUS|10.40.27.63|||110000423831|202
01.10.2018 05:00:00||PEGASUS|10.40.27.63|||110000423831|58
01.10.2018 05:00:00||PEGASUS|10.40.27.63|||110000423831|58
01.10.2018 05:00:00||PEGASUS|10.40.27.63|||110000423831|68
01.10.2018 05:00:00||PEGASUS|10.40.27.63|||110000423831|87
01.10.2018 05:00:00||PEGASUS|10.40.27.63|||110000423831|68
01.10.2018 05:00:00||PEGASUS|10.40.27.63|||110000423831|58
01.10.2018 05:00:00||PEGASUS|10.40.27.63|||110000423831|77
01.10.2018 05:00:00||PEGASUS|10.40.27.64|||110000423831|68
01.10.2018 05:00:00||PEGASUS|10.40.27.64|||110000423831|68
01.10.2018 05:00:00||PEGASUS|10.40.27.64|||110000423831|259
01.10.2018 05:00:00||PEGASUS|10.40.27.64|||110000423831|278
01.10.2018 05:00:00||PEGASUS|10.40.27.64|||110000423831|250
01.10.2018 05:00:00||PEGASUS|10.40.27.64|||110000423831|326
01.10.2018 05:00:00||PEGASUS|10.40.27.64|||110000423831|287
01.10.2018 05:00:00||PEGASUS|10.40.27.64|||110000423831|307
01.10.2018 05:00:00||PEGASUS|10.40.27.64|||110000423831|259
01.10.2018 05:00:00||PEGASUS|10.40.27.64|||110000423831|278
01.10.2018 05:00:00||PEGASUS|10.40.27.64|||110000423831|250
01.10.2018 05:00:00||PEGASUS|10.40.27.64|||110000423831|259
01.10.2018 05:00:00||PEGASUS|10.40.27.64|||110000423831|240
01.10.2018 05:00:00||PEGASUS|10.40.27.64|||110000423831|240
01.10.2018 05:00:00||PEGASUS|10.40.27.66|||110000423831|41
01.10.2018 05:00:00||PEGASUS|10.40.27.66|||110000423831|55
01.10.2018 05:00:00||PEGASUS|10.40.27.67|||110000423831|48
01.10.2018 05:00:00||PEGASUS|10.40.27.67|||110000423831|345
01.10.2018 05:00:00||PEGASUS|10.40.27.67|||110000423831|68
01.10.2018 05:00:00||PEGASUS|10.40.27.67|||110000423831|125
01.10.2018 05:00:00||PEGASUS|10.40.27.67|||110000423831|10
01.10.2018 05:00:00||PEGASUS|10.40.27.67|||110000423831|326
01.10.2018 05:00:00||PEGASUS|10.40.27.67|||110000423831|39
01.10.2018 05:00:00||PEGASUS|10.40.27.67|||110000423831|326
01.10.2018 05:00:00||PEGASUS|10.40.27.68|||110000423831|87
01.10.2018 05:00:00||PEGASUS|10.40.27.68|||110000423831|77
01.10.2018 05:00:00||PEGASUS|10.40.27.68|||110000423831|87
01.10.2018 05:00:00||PEGASUS|10.40.27.68|||110000423831|58
01.10.2018 05:00:00||PEGASUS|10.40.27.81|||110000423831|474
01.10.2018 05:00:00||PEGASUS|10.40.27.81|||110000423831|427
01.10.2018 05:00:00||PEGASUS|10.40.27.81|||110000423831|389
01.10.2018 05:00:00||PEGASUS|10.40.27.82|||110000423831|209
01.10.2018 05:00:00||PEGASUS|10.40.27.82|||110000423831|30
01.10.2018 05:00:00||PEGASUS|10.40.27.82|||110000423831|95
01.10.2018 05:00:00||PEGASUS|10.40.27.82|||110000423831|76
01.10.2018 05:00:00||PEGASUS|10.40.27.82|||110000423831|143
01.10.2018 05:00:00||PEGASUS|10.40.27.82|||110000423831|115
01.10.2018 05:00:00||PEGASUS|10.40.27.82|||110000423831|162
01.10.2018 05:00:00||PEGASUS|10.40.27.82|||110000423831|115
01.10.2018 05:00:00||PEGASUS|10.40.27.82|||110000423831|58
01.10.2018 05:00:00||PEGASUS|10.40.27.82|||110000423831|67
01.10.2018 05:00:00||PEGASUS|10.40.27.82|||110000423831|48
01.10.2018 05:00:00||PEGASUS|10.40.27.82|||110000423831|30
01.10.2018 05:00:00||PEGASUS|10.40.27.82|||110000423831|58
01.10.2018 05:00:00||PEGASUS|10.40.27.82|||110000423831|39
01.10.2018 05:00:00||PEGASUS|10.40.27.83|||110000423831|559
01.10.2018 05:00:00||PEGASUS|10.40.27.83|||110000423831|67
01.10.2018 05:00:00||PEGASUS|10.40.27.83|||110000423831|483
01.10.2018 05:00:00||PEGASUS|10.40.27.83|||110000423831|95
01.10.2018 05:00:00||PEGASUS|10.40.27.83|||110000423831|143
01.10.2018 05:00:00||PEGASUS|10.40.27.83|||110000423831|76
01.10.2018 05:00:00||PEGASUS|10.40.27.83|||110000423831|474
01.10.2018 05:00:00||PEGASUS|10.40.27.83|||110000423831|67
01.10.2018 05:00:00||PEGASUS|10.40.27.84|||110000423831|167
01.10.2018 05:00:00||PEGASUS|10.40.27.84|||110000423831|39
01.10.2018 05:00:00||PEGASUS|10.40.27.85|||110000423831|90
01.10.2018 05:00:00||PEGASUS|10.40.27.85|||110000423831|22
01.10.2018 05:00:00||PEGASUS|10.40.27.86|||110000423831|323
01.10.2018 05:00:00||PEGASUS|10.40.27.86|||110000423831|323
01.10.2018 05:00:00||PEGASUS|10.40.27.86|||110000423831|152
01.10.2018 05:00:00||PEGASUS|10.40.27.86|||110000423831|67
01.10.2018 05:00:00||PEGASUS|10.40.27.86|||110000423831|39
01.10.2018 05:00:00||PEGASUS|10.40.27.86|||110000423831|20
01.10.2018 05:00:00||PEGASUS|10.40.27.86|||110000423831|332
01.10.2018 05:00:00||PEGASUS|10.40.27.87|||110000423831|86
01.10.2018 05:00:00||PEGASUS|10.40.27.87|||110000423831|86
01.10.2018 05:00:00||PEGASUS|10.40.27.87|||110000423831|86
01.10.2018 05:00:00||PEGASUS|10.40.27.87|||110000423831|20
01.10.2018 05:00:00||PETKIM|10.40.25.87|||110000437354|93
01.10.2018 05:00:00||PETKIM|10.40.25.87|||110000437354|50
01.10.2018 05:00:00||PWC|10.40.24.66|||110000433262|89
01.10.2018 05:00:00||PWC|10.40.24.66|||110000433262|10
01.10.2018 05:00:00||PWC|10.40.24.66|||110000433262|205
01.10.2018 05:00:00||PWC|10.40.24.66|||110000433262|205
01.10.2018 05:00:00||PWC|10.40.24.66|||110000433262|30
01.10.2018 05:00:00||PWC|10.40.24.66|||110000433262|49
01.10.2018 05:00:00||PWC|10.40.24.66|||110000433262|49
01.10.2018 05:00:00||PWC|10.40.24.66|||110000433262|59
01.10.2018 05:00:00||PWC|10.40.24.66|||110000433262|30
01.10.2018 05:00:00||PWC|10.40.24.66|||110000433262|40
01.10.2018 05:00:00||PWC|10.40.24.66|||110000433262|439
01.10.2018 05:00:00||PWC|10.40.24.67|||110000433262|10
01.10.2018 05:00:00||PWC|10.40.24.67|||110000433262|10
01.10.2018 05:00:00||PWC|10.40.24.67|||110000433262|371
01.10.2018 05:00:00||PWC|10.40.24.67|||110000433262|30
01.10.2018 05:00:00||PWC|10.40.24.67|||110000433262|69
01.10.2018 05:00:00||PWC|10.40.24.67|||110000433262|118
01.10.2018 05:00:00||PWC|10.40.24.68|||110000433262|98
01.10.2018 05:00:00||PWC|10.40.24.68|||110000433262|137
01.10.2018 05:00:00||PWC|10.40.24.68|||110000433262|69
01.10.2018 05:00:00||PWC|10.40.24.68|||110000433262|69
01.10.2018 05:00:00||PWC|10.40.24.68|||110000433262|147
01.10.2018 05:00:00||PWC|10.40.25.67|||110000433262|81
01.10.2018 05:00:00||PWC|10.40.25.67|||110000433262|91
01.10.2018 05:00:00||PWC|10.40.25.67|||110000433262|326
01.10.2018 05:00:00||PWC|10.40.25.67|||110000433262|254
01.10.2018 05:00:00||PWC|10.40.25.67|||110000433262|244
01.10.2018 05:00:00||PWC|10.40.25.67|||110000433262|254
01.10.2018 05:00:00||PWC|10.40.25.67|||110000433262|50
01.10.2018 05:00:00||PWC|10.40.25.67|||110000433262|30
01.10.2018 05:00:00||PWC|10.40.25.67|||110000433262|122
01.10.2018 05:00:00||PWC|10.40.25.68|||110000433262|132
01.10.2018 05:00:00||PWC|10.40.25.68|||110000433262|193
01.10.2018 05:00:00||PWC|10.40.25.68|||110000433262|397
01.10.2018 05:00:00||PWC|10.40.25.68|||110000433262|71
01.10.2018 05:00:00||PWC|10.40.25.68|||110000433262|81
01.10.2018 05:00:00||PWC|10.40.25.68|||110000433262|152
