30.10.2018 23:00:00||AKTİFBANK|10.40.24.172|||110000438458|96
30.10.2018 23:00:00||AKTİFBANK|10.40.25.134|||110000438458|93
30.10.2018 23:00:00||AKTİFBANK|10.40.24.134|||110000438458|94
30.10.2018 23:00:00||AKTİFBANK|10.40.24.135|||110000438458|97
30.10.2018 23:00:00||AKTİFBANK|10.40.25.137|||110000438458|57
30.10.2018 23:00:00||AKTİFBANK|10.40.25.171|||110000438458|12
30.10.2018 23:00:00||AKTİFBANK|10.40.25.172|||110000438458|88
30.10.2018 23:00:00||AKTİFBANK|10.40.25.174|||110000438458|53
30.10.2018 23:00:00||AKTİFBANK|10.40.25.135|||110000438458|93
30.10.2018 23:00:00||AKTİFBANK|10.40.24.137|||110000438458|57
30.10.2018 23:00:00||AKTİFBANK|10.40.24.171|||110000438458|11
30.10.2018 23:00:00||AKTİFBANK|10.40.25.173|||110000438458|94
30.10.2018 23:00:00||AKTİFBANK|10.40.24.173|||110000438458|93
30.10.2018 23:00:00||AKTİFBANK|10.40.24.174|||110000438458|60
30.10.2018 23:00:00||AKTİFBANK|10.40.24.133|||110000438458|84
30.10.2018 23:00:00||AKTİFBANK|10.40.24.138|||110000438458|104
30.10.2018 23:00:00||AKTİFBANK|10.40.24.139|||110000438458|30
30.10.2018 23:00:00||AKTİFBANK|10.40.24.149|||110000438458|110
30.10.2018 23:00:00||AKTİFBANK|10.40.24.150|||110000438458|540
30.10.2018 23:00:00||AKTİFBANK|10.40.24.145|||110000438458|60
30.10.2018 23:00:00||AKTİFBANK|10.40.24.164|||110000438458|230
30.10.2018 23:00:00||AKTİFBANK|10.40.25.133|||110000438458|70
30.10.2018 23:00:00||AKTİFBANK|10.40.24.145|||110000438458|90
30.10.2018 23:00:00||AKTİFBANK|10.40.24.158|||110000438458|80
30.10.2018 23:00:00||AKTİFBANK|10.40.24.164|||110000438458|70
30.10.2018 23:00:00||AKTİFBANK|10.40.25.138|||110000438458|82
30.10.2018 23:00:00||AKTİFBANK|10.40.25.139|||110000438458|10
30.10.2018 23:00:00||AKTİFBANK|10.40.25.140|||110000438458|30
30.10.2018 23:00:00||AKTİFBANK|10.40.25.151|||110000438458|514
30.10.2018 23:00:00||AKTİFBANK|10.40.25.141|||110000438458|100
30.10.2018 23:00:00||AKTİFBANK|10.40.25.141|||110000438458|100
30.10.2018 23:00:00||AKTİFBANK|10.40.25.142|||110000438458|76
30.10.2018 23:00:00||AKTİFBANK|10.40.25.133|||110000438458|110
30.10.2018 23:00:00||AKTİFBANK|10.40.25.149|||110000438458|102
30.10.2018 23:00:00||AKTİFBANK|10.40.25.149|||110000438458|94
30.10.2018 23:00:00||AKTİFBANK|10.40.25.149|||110000438458|90
30.10.2018 23:00:00||AKTİFBANK|10.40.25.140|||110000438458|30
30.10.2018 23:00:00||AKTİFBANK|10.40.25.150|||110000438458|536
30.10.2018 23:00:00||AKTİFBANK|10.40.25.139|||110000438458|170
30.10.2018 23:00:00||AKTİFBANK|10.40.25.139|||110000438458|40
30.10.2018 23:00:00||AKTİFBANK|10.40.25.140|||110000438458|80
30.10.2018 23:00:00||AKTİFBANK|10.40.25.140|||110000438458|70
30.10.2018 23:00:00||AKTİFBANK|10.40.25.140|||110000438458|30
30.10.2018 23:00:00||AKTİFBANK|10.40.25.151|||110000438458|518
30.10.2018 23:00:00||AKTİFBANK|10.40.25.151|||110000438458|504
30.10.2018 23:00:00||AKTİFBANK|10.40.25.141|||110000438458|40
30.10.2018 23:00:00||AKTİFBANK|10.40.25.141|||110000438458|100
30.10.2018 23:00:00||AKTİFBANK|10.40.25.141|||110000438458|80
30.10.2018 23:00:00||AKTİFBANK|10.40.25.142|||110000438458|40
30.10.2018 23:00:00||AKTİFBANK|10.40.25.149|||110000438458|70
30.10.2018 23:00:00||AKTİFBANK|10.40.25.149|||110000438458|110
30.10.2018 23:00:00||AKTİFBANK|10.40.25.149|||110000438458|90
30.10.2018 23:00:00||AKTİFBANK|10.40.25.149|||110000438458|92
30.10.2018 23:00:00||AKTİFBANK|10.40.25.149|||110000438458|104
30.10.2018 23:00:00||AKTİFBANK|10.40.24.139|||110000438458|64
30.10.2018 23:00:00||AKTİFBANK|10.40.25.153|||110000438458|10
30.10.2018 23:00:00||AKTİFBANK|10.40.25.150|||110000438458|558
30.10.2018 23:00:00||AKTİFBANK|10.40.25.153|||110000438458|70
30.10.2018 23:00:00||AKTİFBANK|10.40.25.163|||110000438458|50
30.10.2018 23:00:00||AKTİFBANK|10.40.24.141|||110000438458|78
30.10.2018 23:00:00||AKTİFBANK|10.40.24.151|||110000438458|500
30.10.2018 23:00:00||AKTİFBANK|10.40.25.153|||110000438458|80
30.10.2018 23:00:00||AKTİFBANK|10.40.24.149|||110000438458|86
30.10.2018 23:00:00||AKTİFBANK|10.40.24.141|||110000438458|50
30.10.2018 23:00:00||AKTİFBANK|10.40.25.133|||110000438458|280
30.10.2018 23:00:00||AKTİFBANK|10.40.25.133|||110000438458|90
30.10.2018 23:00:00||AKTİFBANK|10.40.24.149|||110000438458|90
30.10.2018 23:00:00||AKTİFBANK|10.40.24.162|||110000438458|212
30.10.2018 23:00:00||AKTİFBANK|10.40.24.162|||110000438458|30
30.10.2018 23:00:00||AKTİFBANK|10.40.24.162|||110000438458|40
30.10.2018 23:00:00||AKTİFBANK|10.40.25.133|||110000438458|150
30.10.2018 23:00:00||AKTİFBANK|10.40.25.138|||110000438458|130
30.10.2018 23:00:00||AKTİFBANK|10.40.25.149|||110000438458|58
30.10.2018 23:00:00||AKTİFBANK|10.40.25.149|||110000438458|70
30.10.2018 23:00:00||AKTİFBANK|10.40.25.149|||110000438458|32
30.10.2018 23:00:00||AKTİFBANK|10.40.25.149|||110000438458|72
30.10.2018 23:00:00||AKTİFBANK|10.40.25.149|||110000438458|70
30.10.2018 23:00:00||AKTİFBANK|10.40.25.141|||110000438458|100
30.10.2018 23:00:00||AKTİFBANK|10.40.25.149|||110000438458|132
30.10.2018 23:00:00||AKTİFBANK|10.40.25.138|||110000438458|76
30.10.2018 23:00:00||AKTİFBANK|10.40.25.138|||110000438458|72
30.10.2018 23:00:00||AKTİFBANK|10.40.25.139|||110000438458|100
30.10.2018 23:00:00||AKTİFBANK|10.40.24.145|||110000438458|70
30.10.2018 23:00:00||AKTİFBANK|10.40.24.149|||110000438458|160
30.10.2018 23:00:00||AKTİFBANK|10.40.25.138|||110000438458|30
30.10.2018 23:00:00||AKTİFBANK|10.40.25.138|||110000438458|10
30.10.2018 23:00:00||AKTİFBANK|10.40.25.153|||110000438458|60
30.10.2018 23:00:00||AKTİFBANK|10.40.24.150|||110000438458|544
30.10.2018 23:00:00||AKTİFBANK|10.40.25.128|||110000438458|70
30.10.2018 23:00:00||AKTİFBANK|10.40.25.128|||110000438458|90
30.10.2018 23:00:00||AKTİFBANK|10.40.25.128|||110000438458|90
30.10.2018 23:00:00||AKTİFBANK|10.40.25.128|||110000438458|40
30.10.2018 23:00:00||AKTİFBANK|10.40.25.128|||110000438458|66
30.10.2018 23:00:00||AKTİFBANK|10.40.25.129|||110000438458|80
30.10.2018 23:00:00||AKTİFBANK|10.40.25.129|||110000438458|78
30.10.2018 23:00:00||AKTİFBANK|10.40.25.129|||110000438458|130
30.10.2018 23:00:00||AKTİFBANK|10.40.25.129|||110000438458|100
30.10.2018 23:00:00||AKTİFBANK|10.40.25.129|||110000438458|98
30.10.2018 23:00:00||AKTİFBANK|10.40.25.130|||110000438458|70
30.10.2018 23:00:00||AKTİFBANK|10.40.25.130|||110000438458|50
30.10.2018 23:00:00||AKTİFBANK|10.40.25.130|||110000438458|80
30.10.2018 23:00:00||AKTİFBANK|10.40.25.130|||110000438458|40
30.10.2018 23:00:00||AKTİFBANK|10.40.25.130|||110000438458|60
30.10.2018 23:00:00||AKTİFBANK|10.40.25.130|||110000438458|100
30.10.2018 23:00:00||AKTİFBANK|10.40.25.130|||110000438458|90
30.10.2018 23:00:00||AKTİFBANK|10.40.25.131|||110000438458|20
30.10.2018 23:00:00||AKTİFBANK|10.40.25.131|||110000438458|74
30.10.2018 23:00:00||AKTİFBANK|10.40.25.131|||110000438458|100
30.10.2018 23:00:00||AKTİFBANK|10.40.25.131|||110000438458|104
30.10.2018 23:00:00||AKTİFBANK|10.40.25.131|||110000438458|82
30.10.2018 23:00:00||AKTİFBANK|10.40.25.131|||110000438458|80
30.10.2018 23:00:00||AKTİFBANK|10.40.25.131|||110000438458|22
30.10.2018 23:00:00||AKTİFBANK|10.40.25.131|||110000438458|118
30.10.2018 23:00:00||AKTİFBANK|10.40.25.132|||110000438458|64
30.10.2018 23:00:00||AKTİFBANK|10.40.25.132|||110000438458|64
30.10.2018 23:00:00||AKTİFBANK|10.40.25.132|||110000438458|16
30.10.2018 23:00:00||AKTİFBANK|10.40.25.132|||110000438458|96
30.10.2018 23:00:00||AKTİFBANK|10.40.25.132|||110000438458|12
30.10.2018 23:00:00||AKTİFBANK|10.40.25.143|||110000438458|320
30.10.2018 23:00:00||AKTİFBANK|10.40.25.144|||110000438458|80
30.10.2018 23:00:00||AKTİFBANK|10.40.25.144|||110000438458|50
30.10.2018 23:00:00||AKTİFBANK|10.40.25.144|||110000438458|20
30.10.2018 23:00:00||AKTİFBANK|10.40.25.154|||110000438458|10
30.10.2018 23:00:00||AKTİFBANK|10.40.25.154|||110000438458|10
30.10.2018 23:00:00||AKTİFBANK|10.40.25.154|||110000438458|10
30.10.2018 23:00:00||AKTİFBANK|10.40.25.157|||110000438458|70
30.10.2018 23:00:00||AKTİFBANK|10.40.25.157|||110000438458|70
30.10.2018 23:00:00||AKTİFBANK|10.40.25.157|||110000438458|70
30.10.2018 23:00:00||AKTİFBANK|10.40.25.157|||110000438458|80
30.10.2018 23:00:00||AKTİFBANK|10.40.25.157|||110000438458|40
30.10.2018 23:00:00||AKTİFBANK|10.40.25.159|||110000438458|60
30.10.2018 23:00:00||AKTİFBANK|10.40.25.159|||110000438458|10
30.10.2018 23:00:00||AKTİFBANK|10.40.25.159|||110000438458|90
30.10.2018 23:00:00||AKTİFBANK|10.40.25.158|||110000438458|22
30.10.2018 23:00:00||AKTİFBANK|10.40.25.158|||110000438458|44
30.10.2018 23:00:00||AKTİFBANK|10.40.25.158|||110000438458|50
30.10.2018 23:00:00||AKTİFBANK|10.40.25.160|||110000438458|90
30.10.2018 23:00:00||AKTİFBANK|10.40.25.161|||110000438458|80
30.10.2018 23:00:00||AKTİFBANK|10.40.25.161|||110000438458|70
30.10.2018 23:00:00||AKTİFBANK|10.40.25.161|||110000438458|56
30.10.2018 23:00:00||AKTİFBANK|10.40.25.145|||110000438458|90
30.10.2018 23:00:00||AKTİFBANK|10.40.25.145|||110000438458|60
30.10.2018 23:00:00||AKTİFBANK|10.40.25.145|||110000438458|60
30.10.2018 23:00:00||AKTİFBANK|10.40.25.145|||110000438458|30
30.10.2018 23:00:00||AKTİFBANK|10.40.25.145|||110000438458|50
30.10.2018 23:00:00||AKTİFBANK|10.40.25.147|||110000438458|90
30.10.2018 23:00:00||AKTİFBANK|10.40.25.162|||110000438458|30
30.10.2018 23:00:00||AKTİFBANK|10.40.25.162|||110000438458|30
30.10.2018 23:00:00||AKTİFBANK|10.40.25.162|||110000438458|60
30.10.2018 23:00:00||AKTİFBANK|10.40.25.164|||110000438458|60
30.10.2018 23:00:00||AKTİFBANK|10.40.25.164|||110000438458|280
30.10.2018 23:00:00||AKTİFBANK|10.40.25.164|||110000438458|50
30.10.2018 23:00:00||AKTİFBANK|10.40.25.164|||110000438458|260
30.10.2018 23:00:00||AKTİFBANK|10.40.25.164|||110000438458|270
30.10.2018 23:00:00||AKTİFBANK|10.40.25.165|||110000438458|110
30.10.2018 23:00:00||AKTİFBANK|10.40.25.165|||110000438458|72
30.10.2018 23:00:00||AKTİFBANK|10.40.25.165|||110000438458|80
30.10.2018 23:00:00||AKTİFBANK|10.40.25.165|||110000438458|100
30.10.2018 23:00:00||AKTİFBANK|10.40.25.166|||110000438458|90
30.10.2018 23:00:00||AKTİFBANK|10.40.25.166|||110000438458|10
30.10.2018 23:00:00||AKTİFBANK|10.40.25.166|||110000438458|10
30.10.2018 23:00:00||AKTİFBANK|10.40.25.166|||110000438458|40
30.10.2018 23:00:00||AKTİFBANK|10.40.25.148|||110000438458|130
30.10.2018 23:00:00||AKTİFBANK|10.40.25.148|||110000438458|50
30.10.2018 23:00:00||AKTİFBANK|10.40.25.148|||110000438458|100
30.10.2018 23:00:00||AKTİFBANK|10.40.25.148|||110000438458|130
30.10.2018 23:00:00||AKTİFBANK|10.40.25.148|||110000438458|90
30.10.2018 23:00:00||AKTİFBANK|10.40.25.148|||110000438458|80
30.10.2018 23:00:00||AKTİFBANK|10.40.25.148|||110000438458|70
30.10.2018 23:00:00||AKTİFBANK|10.40.25.148|||110000438458|50
30.10.2018 23:00:00||AKTİFBANK|10.40.25.148|||110000438458|80
30.10.2018 23:00:00||AKTİFBANK|10.40.25.148|||110000438458|40
30.10.2018 23:00:00||AKTİFBANK|10.40.25.148|||110000438458|100
30.10.2018 23:00:00||AKTİFBANK|10.40.25.148|||110000438458|60
30.10.2018 23:00:00||AKTİFBANK|10.40.25.155|||110000438458|70
30.10.2018 23:00:00||AKTİFBANK|10.40.25.155|||110000438458|90
30.10.2018 23:00:00||AKTİFBANK|10.40.25.155|||110000438458|110
30.10.2018 23:00:00||AKTİFBANK|10.40.25.155|||110000438458|120
30.10.2018 23:00:00||AKTİFBANK|10.40.25.155|||110000438458|110
30.10.2018 23:00:00||AKTİFBANK|10.40.25.156|||110000438458|20
30.10.2018 23:00:00||AKTİFBANK|10.40.25.156|||110000438458|20
30.10.2018 23:00:00||AKTİFBANK|10.40.25.139|||110000438458|70
30.10.2018 23:00:00||AKTİFBANK|10.40.25.139|||110000438458|80
30.10.2018 23:00:00||AKTİFBANK|10.40.25.150|||110000438458|508
30.10.2018 23:00:00||AKTİFBANK|10.40.25.129|||110000438458|86
30.10.2018 23:00:00||AKTİFBANK|10.40.25.129|||110000438458|140
30.10.2018 23:00:00||AKTİFBANK|10.40.25.130|||110000438458|70
30.10.2018 23:00:00||AKTİFBANK|10.40.25.130|||110000438458|130
30.10.2018 23:00:00||AKTİFBANK|10.40.25.130|||110000438458|100
30.10.2018 23:00:00||AKTİFBANK|10.40.25.131|||110000438458|42
30.10.2018 23:00:00||AKTİFBANK|10.40.25.143|||110000438458|60
30.10.2018 23:00:00||AKTİFBANK|10.40.25.143|||110000438458|242
30.10.2018 23:00:00||AKTİFBANK|10.40.25.143|||110000438458|266
30.10.2018 23:00:00||AKTİFBANK|10.40.25.158|||110000438458|100
30.10.2018 23:00:00||AKTİFBANK|10.40.25.160|||110000438458|110
30.10.2018 23:00:00||AKTİFBANK|10.40.25.162|||110000438458|30
30.10.2018 23:00:00||AKTİFBANK|10.40.25.162|||110000438458|40
30.10.2018 23:00:00||AKTİFBANK|10.40.24.140|||110000438458|162
30.10.2018 23:00:00||AKTİFBANK|10.40.24.140|||110000438458|80
30.10.2018 23:00:00||AKTİFBANK|10.40.24.140|||110000438458|40
30.10.2018 23:00:00||AKTİFBANK|10.40.24.140|||110000438458|30
30.10.2018 23:00:00||AKTİFBANK|10.40.24.140|||110000438458|30
30.10.2018 23:00:00||AKTİFBANK|10.40.24.140|||110000438458|30
30.10.2018 23:00:00||AKTİFBANK|10.40.24.149|||110000438458|80
30.10.2018 23:00:00||AKTİFBANK|10.40.24.149|||110000438458|120
30.10.2018 23:00:00||AKTİFBANK|10.40.24.149|||110000438458|90
30.10.2018 23:00:00||AKTİFBANK|10.40.24.149|||110000438458|54
30.10.2018 23:00:00||AKTİFBANK|10.40.24.149|||110000438458|58
30.10.2018 23:00:00||AKTİFBANK|10.40.24.149|||110000438458|140
30.10.2018 23:00:00||AKTİFBANK|10.40.24.149|||110000438458|90
30.10.2018 23:00:00||AKTİFBANK|10.40.24.149|||110000438458|90
30.10.2018 23:00:00||AKTİFBANK|10.40.24.149|||110000438458|96
30.10.2018 23:00:00||AKTİFBANK|10.40.24.149|||110000438458|80
30.10.2018 23:00:00||AKTİFBANK|10.40.24.133|||110000438458|272
30.10.2018 23:00:00||AKTİFBANK|10.40.24.133|||110000438458|144
30.10.2018 23:00:00||AKTİFBANK|10.40.24.133|||110000438458|120
30.10.2018 23:00:00||AKTİFBANK|10.40.24.133|||110000438458|84
30.10.2018 23:00:00||AKTİFBANK|10.40.24.138|||110000438458|112
30.10.2018 23:00:00||AKTİFBANK|10.40.24.138|||110000438458|140
30.10.2018 23:00:00||AKTİFBANK|10.40.24.138|||110000438458|114
30.10.2018 23:00:00||AKTİFBANK|10.40.24.138|||110000438458|30
30.10.2018 23:00:00||AKTİFBANK|10.40.24.138|||110000438458|50
30.10.2018 23:00:00||AKTİFBANK|10.40.24.139|||110000438458|160
30.10.2018 23:00:00||AKTİFBANK|10.40.24.139|||110000438458|90
30.10.2018 23:00:00||AKTİFBANK|10.40.24.139|||110000438458|124
30.10.2018 23:00:00||AKTİFBANK|10.40.24.141|||110000438458|204
30.10.2018 23:00:00||AKTİFBANK|10.40.24.141|||110000438458|100
30.10.2018 23:00:00||AKTİFBANK|10.40.24.141|||110000438458|100
30.10.2018 23:00:00||AKTİFBANK|10.40.24.141|||110000438458|54
30.10.2018 23:00:00||AKTİFBANK|10.40.24.141|||110000438458|80
30.10.2018 23:00:00||AKTİFBANK|10.40.25.152|||110000438458|110
30.10.2018 23:00:00||AKTİFBANK|10.40.25.152|||110000438458|50
30.10.2018 23:00:00||AKTİFBANK|10.40.25.152|||110000438458|140
30.10.2018 23:00:00||AKTİFBANK|10.40.25.152|||110000438458|70
30.10.2018 23:00:00||AKTİFBANK|10.40.25.152|||110000438458|90
30.10.2018 23:00:00||AKTİFBANK|10.40.25.152|||110000438458|160
30.10.2018 23:00:00||AKTİFBANK|10.40.25.152|||110000438458|50
30.10.2018 23:00:00||AKTİFBANK|10.40.25.152|||110000438458|90
30.10.2018 23:00:00||AKTİFBANK|10.40.25.152|||110000438458|30
30.10.2018 23:00:00||AKTİFBANK|10.40.25.152|||110000438458|80
30.10.2018 23:00:00||AKTİFBANK|10.40.25.152|||110000438458|30
30.10.2018 23:00:00||AKTİFBANK|10.40.24.150|||110000438458|568
30.10.2018 23:00:00||AKTİFBANK|10.40.24.151|||110000438458|530
30.10.2018 23:00:00||AKTİFBANK|10.40.24.151|||110000438458|530
30.10.2018 23:00:00||AKTİFBANK|10.40.24.128|||110000438458|60
30.10.2018 23:00:00||AKTİFBANK|10.40.24.128|||110000438458|70
30.10.2018 23:00:00||AKTİFBANK|10.40.24.128|||110000438458|100
30.10.2018 23:00:00||AKTİFBANK|10.40.24.128|||110000438458|40
30.10.2018 23:00:00||AKTİFBANK|10.40.24.128|||110000438458|70
30.10.2018 23:00:00||AKTİFBANK|10.40.24.128|||110000438458|50
30.10.2018 23:00:00||AKTİFBANK|10.40.24.129|||110000438458|100
30.10.2018 23:00:00||AKTİFBANK|10.40.24.129|||110000438458|70
30.10.2018 23:00:00||AKTİFBANK|10.40.24.129|||110000438458|110
30.10.2018 23:00:00||AKTİFBANK|10.40.24.129|||110000438458|120
30.10.2018 23:00:00||AKTİFBANK|10.40.24.129|||110000438458|40
30.10.2018 23:00:00||AKTİFBANK|10.40.24.129|||110000438458|70
30.10.2018 23:00:00||AKTİFBANK|10.40.24.129|||110000438458|70
30.10.2018 23:00:00||AKTİFBANK|10.40.24.129|||110000438458|90
30.10.2018 23:00:00||AKTİFBANK|10.40.24.129|||110000438458|80
30.10.2018 23:00:00||AKTİFBANK|10.40.24.129|||110000438458|140
30.10.2018 23:00:00||AKTİFBANK|10.40.24.130|||110000438458|40
30.10.2018 23:00:00||AKTİFBANK|10.40.24.130|||110000438458|40
30.10.2018 23:00:00||AKTİFBANK|10.40.24.130|||110000438458|66
30.10.2018 23:00:00||AKTİFBANK|10.40.24.130|||110000438458|44
30.10.2018 23:00:00||AKTİFBANK|10.40.24.130|||110000438458|60
30.10.2018 23:00:00||AKTİFBANK|10.40.24.130|||110000438458|74
30.10.2018 23:00:00||AKTİFBANK|10.40.24.130|||110000438458|86
30.10.2018 23:00:00||AKTİFBANK|10.40.24.130|||110000438458|40
30.10.2018 23:00:00||AKTİFBANK|10.40.24.130|||110000438458|130
30.10.2018 23:00:00||AKTİFBANK|10.40.24.130|||110000438458|110
30.10.2018 23:00:00||AKTİFBANK|10.40.24.131|||110000438458|84
30.10.2018 23:00:00||AKTİFBANK|10.40.24.131|||110000438458|90
30.10.2018 23:00:00||AKTİFBANK|10.40.24.131|||110000438458|110
30.10.2018 23:00:00||AKTİFBANK|10.40.24.131|||110000438458|114
30.10.2018 23:00:00||AKTİFBANK|10.40.24.131|||110000438458|24
30.10.2018 23:00:00||AKTİFBANK|10.40.24.131|||110000438458|160
30.10.2018 23:00:00||AKTİFBANK|10.40.24.131|||110000438458|60
30.10.2018 23:00:00||AKTİFBANK|10.40.24.131|||110000438458|110
30.10.2018 23:00:00||AKTİFBANK|10.40.24.132|||110000438458|32
30.10.2018 23:00:00||AKTİFBANK|10.40.24.132|||110000438458|82
30.10.2018 23:00:00||AKTİFBANK|10.40.24.132|||110000438458|50
30.10.2018 23:00:00||AKTİFBANK|10.40.24.132|||110000438458|192
30.10.2018 23:00:00||AKTİFBANK|10.40.24.132|||110000438458|64
30.10.2018 23:00:00||AKTİFBANK|10.40.24.143|||110000438458|68
30.10.2018 23:00:00||AKTİFBANK|10.40.24.143|||110000438458|268
30.10.2018 23:00:00||AKTİFBANK|10.40.24.143|||110000438458|282
30.10.2018 23:00:00||AKTİFBANK|10.40.24.143|||110000438458|220
30.10.2018 23:00:00||AKTİFBANK|10.40.24.144|||110000438458|70
30.10.2018 23:00:00||AKTİFBANK|10.40.24.144|||110000438458|106
30.10.2018 23:00:00||AKTİFBANK|10.40.24.144|||110000438458|130
30.10.2018 23:00:00||AKTİFBANK|10.40.24.148|||110000438458|70
30.10.2018 23:00:00||AKTİFBANK|10.40.24.148|||110000438458|170
30.10.2018 23:00:00||AKTİFBANK|10.40.24.148|||110000438458|90
30.10.2018 23:00:00||AKTİFBANK|10.40.24.148|||110000438458|110
30.10.2018 23:00:00||AKTİFBANK|10.40.24.148|||110000438458|80
30.10.2018 23:00:00||AKTİFBANK|10.40.24.148|||110000438458|90
30.10.2018 23:00:00||AKTİFBANK|10.40.24.148|||110000438458|90
30.10.2018 23:00:00||AKTİFBANK|10.40.24.148|||110000438458|100
30.10.2018 23:00:00||AKTİFBANK|10.40.24.148|||110000438458|90
30.10.2018 23:00:00||AKTİFBANK|10.40.24.148|||110000438458|60
30.10.2018 23:00:00||AKTİFBANK|10.40.24.148|||110000438458|30
30.10.2018 23:00:00||AKTİFBANK|10.40.24.148|||110000438458|80
30.10.2018 23:00:00||AKTİFBANK|10.40.24.153|||110000438458|10
30.10.2018 23:00:00||AKTİFBANK|10.40.24.153|||110000438458|90
30.10.2018 23:00:00||AKTİFBANK|10.40.24.153|||110000438458|70
30.10.2018 23:00:00||AKTİFBANK|10.40.24.153|||110000438458|80
30.10.2018 23:00:00||AKTİFBANK|10.40.24.157|||110000438458|30
30.10.2018 23:00:00||AKTİFBANK|10.40.24.157|||110000438458|70
30.10.2018 23:00:00||AKTİFBANK|10.40.24.157|||110000438458|70
30.10.2018 23:00:00||AKTİFBANK|10.40.24.157|||110000438458|40
30.10.2018 23:00:00||AKTİFBANK|10.40.24.157|||110000438458|80
30.10.2018 23:00:00||AKTİFBANK|10.40.24.157|||110000438458|40
30.10.2018 23:00:00||AKTİFBANK|10.40.24.158|||110000438458|80
30.10.2018 23:00:00||AKTİFBANK|10.40.24.158|||110000438458|110
30.10.2018 23:00:00||AKTİFBANK|10.40.24.159|||110000438458|132
30.10.2018 23:00:00||AKTİFBANK|10.40.24.159|||110000438458|50
30.10.2018 23:00:00||AKTİFBANK|10.40.24.159|||110000438458|182
30.10.2018 23:00:00||AKTİFBANK|10.40.24.160|||110000438458|50
30.10.2018 23:00:00||AKTİFBANK|10.40.24.160|||110000438458|90
30.10.2018 23:00:00||AKTİFBANK|10.40.24.160|||110000438458|102
30.10.2018 23:00:00||AKTİFBANK|10.40.24.161|||110000438458|204
30.10.2018 23:00:00||AKTİFBANK|10.40.24.161|||110000438458|80
30.10.2018 23:00:00||AKTİFBANK|10.40.24.161|||110000438458|40
30.10.2018 23:00:00||AKTİFBANK|10.40.24.161|||110000438458|30
30.10.2018 23:00:00||AKTİFBANK|10.40.24.161|||110000438458|30
30.10.2018 23:00:00||AKTİFBANK|10.40.24.161|||110000438458|20
30.10.2018 23:00:00||AKTİFBANK|10.40.24.161|||110000438458|90
30.10.2018 23:00:00||AKTİFBANK|10.40.24.145|||110000438458|30
30.10.2018 23:00:00||AKTİFBANK|10.40.24.145|||110000438458|70
30.10.2018 23:00:00||AKTİFBANK|10.40.24.145|||110000438458|50
30.10.2018 23:00:00||AKTİFBANK|10.40.24.147|||110000438458|90
30.10.2018 23:00:00||AKTİFBANK|10.40.24.162|||110000438458|40
30.10.2018 23:00:00||AKTİFBANK|10.40.24.162|||110000438458|40
30.10.2018 23:00:00||AKTİFBANK|10.40.24.162|||110000438458|104
30.10.2018 23:00:00||AKTİFBANK|10.40.24.162|||110000438458|10
30.10.2018 23:00:00||AKTİFBANK|10.40.24.162|||110000438458|50
30.10.2018 23:00:00||AKTİFBANK|10.40.24.163|||110000438458|30
30.10.2018 23:00:00||AKTİFBANK|10.40.24.163|||110000438458|70
30.10.2018 23:00:00||AKTİFBANK|10.40.24.164|||110000438458|58
30.10.2018 23:00:00||AKTİFBANK|10.40.24.164|||110000438458|330
30.10.2018 23:00:00||AKTİFBANK|10.40.24.164|||110000438458|212
30.10.2018 23:00:00||AKTİFBANK|10.40.24.165|||110000438458|78
30.10.2018 23:00:00||AKTİFBANK|10.40.24.165|||110000438458|80
30.10.2018 23:00:00||AKTİFBANK|10.40.24.165|||110000438458|50
30.10.2018 23:00:00||AKTİFBANK|10.40.24.165|||110000438458|122
30.10.2018 23:00:00||AKTİFBANK|10.40.24.166|||110000438458|80
30.10.2018 23:00:00||AKTİFBANK|10.40.24.166|||110000438458|90
30.10.2018 23:00:00||AKTİFBANK|10.40.24.166|||110000438458|10
30.10.2018 23:00:00||AKTİFBANK|10.40.25.168|||110000438458|90
30.10.2018 23:00:00||AKTİFBANK|10.40.25.168|||110000438458|70
30.10.2018 23:00:00||AKTİFBANK|10.40.25.168|||110000438458|50
30.10.2018 23:00:00||AKTİFBANK|10.40.25.168|||110000438458|40
30.10.2018 23:00:00||AKTİFBANK|10.40.25.168|||110000438458|60
30.10.2018 23:00:00||AKTİFBANK|10.40.24.168|||110000438458|90
30.10.2018 23:00:00||AKTİFBANK|10.40.24.168|||110000438458|80
30.10.2018 23:00:00||AKTİFBANK|10.40.24.168|||110000438458|70
30.10.2018 23:00:00||AKTİFBANK|10.40.24.168|||110000438458|70
30.10.2018 23:00:00||AKTİFBANK|10.40.24.168|||110000438458|30
30.10.2018 23:00:00||AKTİFBANK|10.40.24.154|||110000438458|70
30.10.2018 23:00:00||AKTİFBANK|10.40.24.154|||110000438458|20
30.10.2018 23:00:00||AKTİFBANK|10.40.24.154|||110000438458|10
30.10.2018 23:00:00||AKTİFBANK|10.40.24.154|||110000438458|10
30.10.2018 23:00:00||AKTİFBANK|10.40.24.154|||110000438458|10
30.10.2018 23:00:00||AKTİFBANK|10.40.24.154|||110000438458|10
30.10.2018 23:00:00||AKTİFBANK|10.40.24.155|||110000438458|58
30.10.2018 23:00:00||AKTİFBANK|10.40.24.155|||110000438458|104
30.10.2018 23:00:00||AKTİFBANK|10.40.24.155|||110000438458|132
30.10.2018 23:00:00||AKTİFBANK|10.40.24.155|||110000438458|80
30.10.2018 23:00:00||AKTİFBANK|10.40.24.155|||110000438458|112
30.10.2018 23:00:00||AKTİFBANK|10.40.24.155|||110000438458|100
30.10.2018 23:00:00||AKTİFBANK|10.40.25.169|||110000438458|90
30.10.2018 23:00:00||AKTİFBANK|10.40.25.169|||110000438458|98
30.10.2018 23:00:00||AKTİFBANK|10.40.25.169|||110000438458|70
30.10.2018 23:00:00||AKTİFBANK|10.40.25.169|||110000438458|80
30.10.2018 23:00:00||AKTİFBANK|10.40.24.169|||110000438458|84
30.10.2018 23:00:00||AKTİFBANK|10.40.24.169|||110000438458|84
30.10.2018 23:00:00||AKTİFBANK|10.40.24.169|||110000438458|68
30.10.2018 23:00:00||AKTİFBANK|10.40.24.169|||110000438458|82
30.10.2018 23:00:00||AKTİFBANK|10.40.25.170|||110000438458|30
30.10.2018 23:00:00||AKTİFBANK|10.40.25.170|||110000438458|30
30.10.2018 23:00:00||AKTİFBANK|10.40.25.170|||110000438458|200
30.10.2018 23:00:00||AKTİFBANK|10.40.25.170|||110000438458|100
30.10.2018 23:00:00||AKTİFBANK|10.40.25.170|||110000438458|80
30.10.2018 23:00:00||AKTİFBANK|10.40.25.170|||110000438458|120
30.10.2018 23:00:00||AKTİFBANK|10.40.24.170|||110000438458|60
30.10.2018 23:00:00||AKTİFBANK|10.40.24.170|||110000438458|60
30.10.2018 23:00:00||AKTİFBANK|10.40.24.170|||110000438458|348
30.10.2018 23:00:00||AKTİFBANK|10.40.24.170|||110000438458|80
30.10.2018 23:00:00||AKTİFBANK|10.40.24.170|||110000438458|100
30.10.2018 23:00:00||AKTİFBANK|10.40.24.170|||110000438458|72
30.10.2018 23:00:00||AKTİFBANK|10.40.25.178|||110000438458|590
30.10.2018 23:00:00||AKTİFBANK|10.40.25.178|||110000438458|560
30.10.2018 23:00:00||AKTİFBANK|10.40.25.178|||110000438458|550
30.10.2018 23:00:00||AKTİFBANK|10.40.24.178|||110000438458|566
30.10.2018 23:00:00||AKTİFBANK|10.40.24.178|||110000438458|548
30.10.2018 23:00:00||AKTİFBANK|10.40.24.178|||110000438458|538
30.10.2018 23:00:00||AKTİFBANK|10.40.25.179|||110000438458|392
30.10.2018 23:00:00||AKTİFBANK|10.40.25.179|||110000438458|364
30.10.2018 23:00:00||AKTİFBANK|10.40.25.179|||110000438458|358
30.10.2018 23:00:00||AKTİFBANK|10.40.24.179|||110000438458|320
30.10.2018 23:00:00||AKTİFBANK|10.40.24.179|||110000438458|330
30.10.2018 23:00:00||AKTİFBANK|10.40.24.179|||110000438458|320
30.10.2018 23:00:00||AKTİFBANK|10.40.24.142|||110000438458|40
30.10.2018 23:00:00||AKTİFBANK|10.40.24.156|||110000438458|50
30.10.2018 23:00:00||AKTİFBANK|10.40.24.156|||110000438458|50
30.10.2018 23:00:00||AKTİFBANK|10.40.25.186|||110000438458|90
30.10.2018 23:00:00||AKTİFBANK|10.40.25.186|||110000438458|20
30.10.2018 23:00:00||AKTİFBANK|10.40.25.186|||110000438458|70
30.10.2018 23:00:00||AKTİFBANK|10.40.24.186|||110000438458|94
30.10.2018 23:00:00||AKTİFBANK|10.40.24.186|||110000438458|30
30.10.2018 23:00:00||AKTİFBANK|10.40.24.186|||110000438458|60
30.10.2018 23:00:00||AKTİFBANK|10.40.24.186|||110000438458|40
30.10.2018 23:00:00||AKTİFBANK|10.40.24.152|||110000438458|10
30.10.2018 23:00:00||AKTİFBANK|10.40.24.152|||110000438458|50
30.10.2018 23:00:00||AKTİFBANK|10.40.24.152|||110000438458|94
30.10.2018 23:00:00||AKTİFBANK|10.40.24.152|||110000438458|100
30.10.2018 23:00:00||AKTİFBANK|10.40.24.152|||110000438458|100
30.10.2018 23:00:00||AKTİFBANK|10.40.24.152|||110000438458|102
30.10.2018 23:00:00||AKTİFBANK|10.40.24.152|||110000438458|262
30.10.2018 23:00:00||AKTİFBANK|10.40.24.152|||110000438458|72
30.10.2018 23:00:00||AKTİFBANK|10.40.24.152|||110000438458|90
30.10.2018 23:00:00||AKTİFBANK|10.40.24.152|||110000438458|30
30.10.2018 23:00:00||AKTİFBANK|10.40.24.152|||110000438458|72
30.10.2018 23:00:00||AKTİFBANK|10.40.24.152|||110000438458|30
30.10.2018 23:00:00||BARİKAT İNTERNET GÜVENLİĞİ|10.40.25.201|||110000479736|118
30.10.2018 23:00:00||BARİKAT İNTERNET GÜVENLİĞİ|10.40.25.201|||110000479736|102
30.10.2018 23:00:00||BARİKAT İNTERNET GÜVENLİĞİ|10.40.24.201|||110000479736|140
30.10.2018 23:00:00||BARİKAT İNTERNET GÜVENLİĞİ|10.40.24.201|||110000479736|100
30.10.2018 23:00:00||BOYNER|10.40.26.100|||101367941673|56
30.10.2018 23:00:00||BOYNER|10.40.26.101|||101367941673|166
30.10.2018 23:00:00||BOYNER|10.40.27.100|||101367941673|51
30.10.2018 23:00:00||BOYNER|10.40.27.101|||101367941673|165
30.10.2018 23:00:00||BOYNER|10.40.27.94|||101367941673|210
30.10.2018 23:00:00||BOYNER|10.40.27.94|||101367941673|90
30.10.2018 23:00:00||BOYNER|10.40.27.94|||101367941673|90
30.10.2018 23:00:00||BOYNER|10.40.27.94|||101367941673|100
30.10.2018 23:00:00||BOYNER|10.40.26.94|||101367941673|90
30.10.2018 23:00:00||BOYNER|10.40.26.94|||101367941673|80
30.10.2018 23:00:00||BOYNER|10.40.26.94|||101367941673|80
30.10.2018 23:00:00||BOYNER|10.40.27.95|||101367941673|126
30.10.2018 23:00:00||BOYNER|10.40.27.95|||101367941673|130
30.10.2018 23:00:00||BOYNER|10.40.27.95|||101367941673|240
30.10.2018 23:00:00||BOYNER|10.40.26.95|||101367941673|128
30.10.2018 23:00:00||BOYNER|10.40.26.95|||101367941673|200
30.10.2018 23:00:00||BOYNER|10.40.26.95|||101367941673|142
30.10.2018 23:00:00||BOYNER|10.40.27.96|||101367941673|60
30.10.2018 23:00:00||BOYNER|10.40.27.96|||101367941673|50
30.10.2018 23:00:00||BOYNER|10.40.27.96|||101367941673|50
30.10.2018 23:00:00||BOYNER|10.40.27.96|||101367941673|40
30.10.2018 23:00:00||BOYNER|10.40.27.96|||101367941673|40
30.10.2018 23:00:00||BOYNER|10.40.27.96|||101367941673|160
30.10.2018 23:00:00||BOYNER|10.40.27.96|||101367941673|152
30.10.2018 23:00:00||BOYNER|10.40.27.96|||101367941673|182
30.10.2018 23:00:00||BOYNER|10.40.27.96|||101367941673|166
30.10.2018 23:00:00||BOYNER|10.40.26.96|||101367941673|30
30.10.2018 23:00:00||BOYNER|10.40.26.96|||101367941673|40
30.10.2018 23:00:00||BOYNER|10.40.26.96|||101367941673|30
30.10.2018 23:00:00||BOYNER|10.40.26.96|||101367941673|40
30.10.2018 23:00:00||BOYNER|10.40.26.96|||101367941673|40
30.10.2018 23:00:00||BOYNER|10.40.26.96|||101367941673|50
30.10.2018 23:00:00||BOYNER|10.40.26.96|||101367941673|194
30.10.2018 23:00:00||BOYNER|10.40.26.96|||101367941673|210
30.10.2018 23:00:00||BOYNER|10.40.26.96|||101367941673|170
30.10.2018 23:00:00||BOYNER|10.40.26.96|||101367941673|178
30.10.2018 23:00:00||BOYNER|10.40.27.97|||101367941673|60
30.10.2018 23:00:00||BOYNER|10.40.27.97|||101367941673|658
30.10.2018 23:00:00||BOYNER|10.40.27.97|||101367941673|658
30.10.2018 23:00:00||BOYNER|10.40.27.97|||101367941673|684
30.10.2018 23:00:00||BOYNER|10.40.27.97|||101367941673|40
30.10.2018 23:00:00||BOYNER|10.40.27.97|||101367941673|30
30.10.2018 23:00:00||BOYNER|10.40.27.97|||101367941673|50
30.10.2018 23:00:00||BOYNER|10.40.27.97|||101367941673|30
30.10.2018 23:00:00||BOYNER|10.40.27.97|||101367941673|178
30.10.2018 23:00:00||BOYNER|10.40.27.97|||101367941673|176
30.10.2018 23:00:00||BOYNER|10.40.27.97|||101367941673|190
30.10.2018 23:00:00||BOYNER|10.40.27.97|||101367941673|196
30.10.2018 23:00:00||BOYNER|10.40.26.97|||101367941673|30
30.10.2018 23:00:00||BOYNER|10.40.26.97|||101367941673|656
30.10.2018 23:00:00||BOYNER|10.40.26.97|||101367941673|650
30.10.2018 23:00:00||BOYNER|10.40.26.97|||101367941673|658
30.10.2018 23:00:00||BOYNER|10.40.26.97|||101367941673|30
30.10.2018 23:00:00||BOYNER|10.40.26.97|||101367941673|40
30.10.2018 23:00:00||BOYNER|10.40.26.97|||101367941673|50
30.10.2018 23:00:00||BOYNER|10.40.26.97|||101367941673|60
30.10.2018 23:00:00||BOYNER|10.40.26.97|||101367941673|30
30.10.2018 23:00:00||BOYNER|10.40.26.97|||101367941673|160
30.10.2018 23:00:00||BOYNER|10.40.26.97|||101367941673|174
30.10.2018 23:00:00||BOYNER|10.40.26.97|||101367941673|170
30.10.2018 23:00:00||BOYNER|10.40.26.97|||101367941673|158
30.10.2018 23:00:00||BOYNER|10.40.27.99|||101367941673|132
30.10.2018 23:00:00||BOYNER|10.40.27.99|||101367941673|102
30.10.2018 23:00:00||BOYNER|10.40.27.99|||101367941673|82
30.10.2018 23:00:00||BOYNER|10.40.26.99|||101367941673|14
30.10.2018 23:00:00||BOYNER|10.40.26.99|||101367941673|112
30.10.2018 23:00:00||BOYNER|10.40.26.99|||101367941673|104
30.10.2018 23:00:00||BOYNER|10.40.26.99|||101367941673|80
30.10.2018 23:00:00||ÇALIK HOLDİNG|10.40.24.118|||110000438407|39
30.10.2018 23:00:00||ÇALIK HOLDİNG|10.40.25.99|||110000438407|137
30.10.2018 23:00:00||ÇALIK HOLDİNG|10.40.25.118|||110000438407|273
30.10.2018 23:00:00||ÇALIK HOLDİNG|10.40.25.120|||110000438407|90
30.10.2018 23:00:00||ÇALIK HOLDİNG|10.40.24.95|||110000438407|50
30.10.2018 23:00:00||ÇALIK HOLDİNG|10.40.25.97|||110000438407|80
30.10.2018 23:00:00||ÇALIK HOLDİNG|10.40.25.103|||110000438407|90
30.10.2018 23:00:00||ÇALIK HOLDİNG|10.40.25.120|||110000438407|40
30.10.2018 23:00:00||ÇALIK HOLDİNG|10.40.25.96|||110000438407|70
30.10.2018 23:00:00||ÇALIK HOLDİNG|10.40.25.96|||110000438407|90
30.10.2018 23:00:00||ÇALIK HOLDİNG|10.40.25.96|||110000438407|120
30.10.2018 23:00:00||ÇALIK HOLDİNG|10.40.25.96|||110000438407|90
30.10.2018 23:00:00||ÇALIK HOLDİNG|10.40.25.115|||110000438407|176
30.10.2018 23:00:00||ÇALIK HOLDİNG|10.40.25.115|||110000438407|78
30.10.2018 23:00:00||ÇALIK HOLDİNG|10.40.25.95|||110000438407|90
30.10.2018 23:00:00||ÇALIK HOLDİNG|10.40.25.96|||110000438407|90
30.10.2018 23:00:00||ÇALIK HOLDİNG|10.40.25.96|||110000438407|100
30.10.2018 23:00:00||ÇALIK HOLDİNG|10.40.25.120|||110000438407|20
30.10.2018 23:00:00||ÇALIK HOLDİNG|10.40.25.95|||110000438407|52
30.10.2018 23:00:00||ÇALIK HOLDİNG|10.40.24.94|||110000438407|182
30.10.2018 23:00:00||ÇALIK HOLDİNG|10.40.25.97|||110000438407|100
30.10.2018 23:00:00||ÇALIK HOLDİNG|10.40.25.120|||110000438407|60
30.10.2018 23:00:00||ÇALIK HOLDİNG|10.40.25.115|||110000438407|90
30.10.2018 23:00:00||ÇALIK HOLDİNG|10.40.25.115|||110000438407|76
30.10.2018 23:00:00||ÇALIK HOLDİNG|10.40.25.115|||110000438407|70
30.10.2018 23:00:00||ÇALIK HOLDİNG|10.40.25.101|||110000438407|50
30.10.2018 23:00:00||ÇALIK HOLDİNG|10.40.25.101|||110000438407|110
30.10.2018 23:00:00||ÇALIK HOLDİNG|10.40.25.101|||110000438407|30
30.10.2018 23:00:00||ÇALIK HOLDİNG|10.40.25.101|||110000438407|10
30.10.2018 23:00:00||ÇALIK HOLDİNG|10.40.25.101|||110000438407|90
30.10.2018 23:00:00||ÇALIK HOLDİNG|10.40.25.101|||110000438407|30
30.10.2018 23:00:00||ÇALIK HOLDİNG|10.40.25.101|||110000438407|40
30.10.2018 23:00:00||ÇALIK HOLDİNG|10.40.25.101|||110000438407|40
30.10.2018 23:00:00||ÇALIK HOLDİNG|10.40.25.101|||110000438407|90
30.10.2018 23:00:00||ÇALIK HOLDİNG|10.40.25.101|||110000438407|90
30.10.2018 23:00:00||ÇALIK HOLDİNG|10.40.25.101|||110000438407|90
30.10.2018 23:00:00||ÇALIK HOLDİNG|10.40.25.94|||110000438407|180
30.10.2018 23:00:00||ÇALIK HOLDİNG|10.40.25.94|||110000438407|180
30.10.2018 23:00:00||ÇALIK HOLDİNG|10.40.25.94|||110000438407|170
30.10.2018 23:00:00||ÇALIK HOLDİNG|10.40.25.94|||110000438407|180
30.10.2018 23:00:00||ÇALIK HOLDİNG|10.40.24.94|||110000438407|186
30.10.2018 23:00:00||ÇALIK HOLDİNG|10.40.24.94|||110000438407|186
30.10.2018 23:00:00||ÇALIK HOLDİNG|10.40.24.94|||110000438407|194
30.10.2018 23:00:00||ÇALIK HOLDİNG|10.40.25.95|||110000438407|20
30.10.2018 23:00:00||ÇALIK HOLDİNG|10.40.25.95|||110000438407|350
30.10.2018 23:00:00||ÇALIK HOLDİNG|10.40.25.95|||110000438407|362
30.10.2018 23:00:00||ÇALIK HOLDİNG|10.40.25.95|||110000438407|40
30.10.2018 23:00:00||ÇALIK HOLDİNG|10.40.24.95|||110000438407|98
30.10.2018 23:00:00||ÇALIK HOLDİNG|10.40.24.95|||110000438407|92
30.10.2018 23:00:00||ÇALIK HOLDİNG|10.40.24.95|||110000438407|384
30.10.2018 23:00:00||ÇALIK HOLDİNG|10.40.24.95|||110000438407|392
30.10.2018 23:00:00||ÇALIK HOLDİNG|10.40.25.96|||110000438407|90
30.10.2018 23:00:00||ÇALIK HOLDİNG|10.40.25.96|||110000438407|96
30.10.2018 23:00:00||ÇALIK HOLDİNG|10.40.25.96|||110000438407|100
30.10.2018 23:00:00||ÇALIK HOLDİNG|10.40.25.96|||110000438407|258
30.10.2018 23:00:00||ÇALIK HOLDİNG|10.40.25.96|||110000438407|264
30.10.2018 23:00:00||ÇALIK HOLDİNG|10.40.25.96|||110000438407|100
30.10.2018 23:00:00||ÇALIK HOLDİNG|10.40.25.96|||110000438407|90
30.10.2018 23:00:00||ÇALIK HOLDİNG|10.40.25.96|||110000438407|92
30.10.2018 23:00:00||ÇALIK HOLDİNG|10.40.25.97|||110000438407|90
30.10.2018 23:00:00||ÇALIK HOLDİNG|10.40.25.97|||110000438407|80
30.10.2018 23:00:00||ÇALIK HOLDİNG|10.40.25.97|||110000438407|298
30.10.2018 23:00:00||ÇALIK HOLDİNG|10.40.25.98|||110000438407|50
30.10.2018 23:00:00||ÇALIK HOLDİNG|10.40.25.98|||110000438407|164
30.10.2018 23:00:00||ÇALIK HOLDİNG|10.40.25.98|||110000438407|160
30.10.2018 23:00:00||ÇALIK HOLDİNG|10.40.25.98|||110000438407|168
30.10.2018 23:00:00||ÇALIK HOLDİNG|10.40.25.98|||110000438407|170
30.10.2018 23:00:00||ÇALIK HOLDİNG|10.40.25.98|||110000438407|60
30.10.2018 23:00:00||ÇALIK HOLDİNG|10.40.25.98|||110000438407|210
30.10.2018 23:00:00||ÇALIK HOLDİNG|10.40.25.98|||110000438407|180
30.10.2018 23:00:00||ÇALIK HOLDİNG|10.40.25.98|||110000438407|170
30.10.2018 23:00:00||ÇALIK HOLDİNG|10.40.25.98|||110000438407|212
30.10.2018 23:00:00||ÇALIK HOLDİNG|10.40.25.98|||110000438407|70
30.10.2018 23:00:00||ÇALIK HOLDİNG|10.40.25.98|||110000438407|338
30.10.2018 23:00:00||ÇALIK HOLDİNG|10.40.24.98|||110000438407|90
30.10.2018 23:00:00||ÇALIK HOLDİNG|10.40.24.98|||110000438407|156
30.10.2018 23:00:00||ÇALIK HOLDİNG|10.40.24.98|||110000438407|202
30.10.2018 23:00:00||ÇALIK HOLDİNG|10.40.24.98|||110000438407|202
30.10.2018 23:00:00||ÇALIK HOLDİNG|10.40.24.98|||110000438407|162
30.10.2018 23:00:00||ÇALIK HOLDİNG|10.40.24.98|||110000438407|30
30.10.2018 23:00:00||ÇALIK HOLDİNG|10.40.24.98|||110000438407|162
30.10.2018 23:00:00||ÇALIK HOLDİNG|10.40.24.98|||110000438407|180
30.10.2018 23:00:00||ÇALIK HOLDİNG|10.40.24.98|||110000438407|170
30.10.2018 23:00:00||ÇALIK HOLDİNG|10.40.24.98|||110000438407|170
30.10.2018 23:00:00||ÇALIK HOLDİNG|10.40.24.98|||110000438407|20
30.10.2018 23:00:00||ÇALIK HOLDİNG|10.40.24.98|||110000438407|306
30.10.2018 23:00:00||ÇALIK HOLDİNG|10.40.25.100|||110000438407|32
30.10.2018 23:00:00||ÇALIK HOLDİNG|10.40.25.100|||110000438407|40
30.10.2018 23:00:00||ÇALIK HOLDİNG|10.40.24.101|||110000438407|60
30.10.2018 23:00:00||ÇALIK HOLDİNG|10.40.24.101|||110000438407|110
30.10.2018 23:00:00||ÇALIK HOLDİNG|10.40.24.101|||110000438407|20
30.10.2018 23:00:00||ÇALIK HOLDİNG|10.40.24.101|||110000438407|20
30.10.2018 23:00:00||ÇALIK HOLDİNG|10.40.24.101|||110000438407|40
30.10.2018 23:00:00||ÇALIK HOLDİNG|10.40.24.101|||110000438407|76
30.10.2018 23:00:00||ÇALIK HOLDİNG|10.40.24.101|||110000438407|30
30.10.2018 23:00:00||ÇALIK HOLDİNG|10.40.24.101|||110000438407|10
30.10.2018 23:00:00||ÇALIK HOLDİNG|10.40.24.101|||110000438407|20
30.10.2018 23:00:00||ÇALIK HOLDİNG|10.40.24.101|||110000438407|50
30.10.2018 23:00:00||ÇALIK HOLDİNG|10.40.24.101|||110000438407|30
30.10.2018 23:00:00||ÇALIK HOLDİNG|10.40.24.101|||110000438407|80
30.10.2018 23:00:00||ÇALIK HOLDİNG|10.40.24.101|||110000438407|80
30.10.2018 23:00:00||ÇALIK HOLDİNG|10.40.24.101|||110000438407|90
30.10.2018 23:00:00||ÇALIK HOLDİNG|10.40.25.102|||110000438407|100
30.10.2018 23:00:00||ÇALIK HOLDİNG|10.40.25.102|||110000438407|90
30.10.2018 23:00:00||ÇALIK HOLDİNG|10.40.25.102|||110000438407|150
30.10.2018 23:00:00||ÇALIK HOLDİNG|10.40.24.102|||110000438407|100
30.10.2018 23:00:00||ÇALIK HOLDİNG|10.40.24.102|||110000438407|90
30.10.2018 23:00:00||ÇALIK HOLDİNG|10.40.24.102|||110000438407|140
30.10.2018 23:00:00||ÇALIK HOLDİNG|10.40.25.103|||110000438407|90
30.10.2018 23:00:00||ÇALIK HOLDİNG|10.40.25.103|||110000438407|80
30.10.2018 23:00:00||ÇALIK HOLDİNG|10.40.25.103|||110000438407|10
30.10.2018 23:00:00||ÇALIK HOLDİNG|10.40.25.115|||110000438407|92
30.10.2018 23:00:00||ÇALIK HOLDİNG|10.40.24.103|||110000438407|100
30.10.2018 23:00:00||ÇALIK HOLDİNG|10.40.24.103|||110000438407|80
30.10.2018 23:00:00||ÇALIK HOLDİNG|10.40.24.103|||110000438407|80
30.10.2018 23:00:00||ÇALIK HOLDİNG|10.40.24.103|||110000438407|20
30.10.2018 23:00:00||ÇALIK HOLDİNG|10.40.24.103|||110000438407|10
30.10.2018 23:00:00||ÇALIK HOLDİNG|10.40.25.113|||110000438407|218
30.10.2018 23:00:00||ÇALIK HOLDİNG|10.40.25.113|||110000438407|234
30.10.2018 23:00:00||ÇALIK HOLDİNG|10.40.25.113|||110000438407|190
30.10.2018 23:00:00||ÇALIK HOLDİNG|10.40.25.113|||110000438407|192
30.10.2018 23:00:00||ÇALIK HOLDİNG|10.40.24.113|||110000438407|222
30.10.2018 23:00:00||ÇALIK HOLDİNG|10.40.24.113|||110000438407|224
30.10.2018 23:00:00||ÇALIK HOLDİNG|10.40.24.113|||110000438407|188
30.10.2018 23:00:00||ÇALIK HOLDİNG|10.40.24.113|||110000438407|150
30.10.2018 23:00:00||ÇALIK HOLDİNG|10.40.25.114|||110000438407|172
30.10.2018 23:00:00||ÇALIK HOLDİNG|10.40.25.114|||110000438407|418
30.10.2018 23:00:00||ÇALIK HOLDİNG|10.40.25.114|||110000438407|40
30.10.2018 23:00:00||ÇALIK HOLDİNG|10.40.24.114|||110000438407|20
30.10.2018 23:00:00||ÇALIK HOLDİNG|10.40.24.114|||110000438407|40
30.10.2018 23:00:00||ÇALIK HOLDİNG|10.40.24.114|||110000438407|190
30.10.2018 23:00:00||ÇALIK HOLDİNG|10.40.24.114|||110000438407|376
30.10.2018 23:00:00||ÇALIK HOLDİNG|10.40.24.115|||110000438407|170
30.10.2018 23:00:00||ÇALIK HOLDİNG|10.40.24.115|||110000438407|80
30.10.2018 23:00:00||ÇALIK HOLDİNG|10.40.24.115|||110000438407|90
30.10.2018 23:00:00||ÇALIK HOLDİNG|10.40.24.115|||110000438407|80
30.10.2018 23:00:00||ÇALIK HOLDİNG|10.40.24.115|||110000438407|90
30.10.2018 23:00:00||ÇALIK HOLDİNG|10.40.24.115|||110000438407|70
30.10.2018 23:00:00||ÇALIK HOLDİNG|10.40.25.116|||110000438407|102
30.10.2018 23:00:00||ÇALIK HOLDİNG|10.40.25.116|||110000438407|102
30.10.2018 23:00:00||ÇALIK HOLDİNG|10.40.25.116|||110000438407|298
30.10.2018 23:00:00||ÇALIK HOLDİNG|10.40.24.116|||110000438407|280
30.10.2018 23:00:00||ÇALIK HOLDİNG|10.40.24.116|||110000438407|100
30.10.2018 23:00:00||ÇALIK HOLDİNG|10.40.24.116|||110000438407|100
30.10.2018 23:00:00||ÇALIK HOLDİNG|10.40.25.117|||110000438407|250
30.10.2018 23:00:00||ÇALIK HOLDİNG|10.40.25.117|||110000438407|30
30.10.2018 23:00:00||ÇALIK HOLDİNG|10.40.25.117|||110000438407|26
30.10.2018 23:00:00||ÇALIK HOLDİNG|10.40.25.119|||110000438407|30
30.10.2018 23:00:00||ÇALIK HOLDİNG|10.40.25.119|||110000438407|30
30.10.2018 23:00:00||ÇALIK HOLDİNG|10.40.24.119|||110000438407|150
30.10.2018 23:00:00||ÇALIK HOLDİNG|10.40.24.119|||110000438407|30
30.10.2018 23:00:00||ÇALIK HOLDİNG|10.40.24.119|||110000438407|50
30.10.2018 23:00:00||ÇALIK HOLDİNG|10.40.25.120|||110000438407|108
30.10.2018 23:00:00||ÇALIK HOLDİNG|10.40.25.120|||110000438407|50
30.10.2018 23:00:00||ÇALIK HOLDİNG|10.40.25.120|||110000438407|20
30.10.2018 23:00:00||ÇALIK HOLDİNG|10.40.25.120|||110000438407|20
30.10.2018 23:00:00||ÇALIK HOLDİNG|10.40.25.120|||110000438407|30
30.10.2018 23:00:00||ÇALIK HOLDİNG|10.40.25.120|||110000438407|90
30.10.2018 23:00:00||ÇALIK HOLDİNG|10.40.25.120|||110000438407|90
30.10.2018 23:00:00||ÇALIK HOLDİNG|10.40.24.120|||110000438407|20
30.10.2018 23:00:00||ÇALIK HOLDİNG|10.40.24.120|||110000438407|30
30.10.2018 23:00:00||ÇALIK HOLDİNG|10.40.24.120|||110000438407|110
30.10.2018 23:00:00||ÇALIK HOLDİNG|10.40.24.120|||110000438407|100
30.10.2018 23:00:00||ÇALIK HOLDİNG|10.40.24.120|||110000438407|40
30.10.2018 23:00:00||ÇALIK HOLDİNG|10.40.24.120|||110000438407|80
30.10.2018 23:00:00||ÇALIK HOLDİNG|10.40.24.120|||110000438407|80
30.10.2018 23:00:00||ÇALIK HOLDİNG|10.40.24.120|||110000438407|70
30.10.2018 23:00:00||ÇALIK HOLDİNG|10.40.25.121|||110000438407|90
30.10.2018 23:00:00||ÇALIK HOLDİNG|10.40.25.121|||110000438407|100
30.10.2018 23:00:00||ÇALIK HOLDİNG|10.40.25.121|||110000438407|150
30.10.2018 23:00:00||ÇALIK HOLDİNG|10.40.24.121|||110000438407|100
30.10.2018 23:00:00||ÇALIK HOLDİNG|10.40.24.121|||110000438407|100
30.10.2018 23:00:00||ÇALIK HOLDİNG|10.40.24.121|||110000438407|140
30.10.2018 23:00:00||ÇALIK HOLDİNG|10.40.25.122|||110000438407|90
30.10.2018 23:00:00||ÇALIK HOLDİNG|10.40.25.122|||110000438407|82
30.10.2018 23:00:00||ÇALIK HOLDİNG|10.40.25.122|||110000438407|80
30.10.2018 23:00:00||ÇALIK HOLDİNG|10.40.25.122|||110000438407|30
30.10.2018 23:00:00||ÇALIK HOLDİNG|10.40.25.122|||110000438407|10
30.10.2018 23:00:00||ÇALIK HOLDİNG|10.40.24.122|||110000438407|90
30.10.2018 23:00:00||ÇALIK HOLDİNG|10.40.24.122|||110000438407|80
30.10.2018 23:00:00||ÇALIK HOLDİNG|10.40.24.122|||110000438407|90
30.10.2018 23:00:00||ÇALIK HOLDİNG|10.40.24.117|||110000438407|204
30.10.2018 23:00:00||ÇALIK HOLDİNG|10.40.24.117|||110000438407|30
30.10.2018 23:00:00||ÇALIK HOLDİNG|10.40.24.117|||110000438407|30
30.10.2018 23:00:00||ÇALIK HOLDİNG|10.40.24.97|||110000438407|104
30.10.2018 23:00:00||ÇALIK HOLDİNG|10.40.24.97|||110000438407|90
30.10.2018 23:00:00||ÇALIK HOLDİNG|10.40.24.97|||110000438407|80
30.10.2018 23:00:00||ÇALIK HOLDİNG|10.40.24.97|||110000438407|90
30.10.2018 23:00:00||ÇALIK HOLDİNG|10.40.24.97|||110000438407|310
30.10.2018 23:00:00||ÇALIK HOLDİNG|10.40.24.100|||110000438407|30
30.10.2018 23:00:00||ÇALIK HOLDİNG|10.40.24.100|||110000438407|40
30.10.2018 23:00:00||FIBABANKA|10.40.27.54|||101571767266|311
30.10.2018 23:00:00||FIBABANKA|10.40.26.54|||101571767266|317
30.10.2018 23:00:00||FIBABANKA|10.40.27.55|||101571767266|107
30.10.2018 23:00:00||FIBABANKA|10.40.26.55|||101571767266|104
30.10.2018 23:00:00||FIBABANKA|10.40.24.55|||101571767266|112
30.10.2018 23:00:00||FIBABANKA|10.40.25.56|||101571767266|197
30.10.2018 23:00:00||FIBABANKA|10.40.25.54|||101571767266|330
30.10.2018 23:00:00||FIBABANKA|10.40.24.54|||101571767266|315
30.10.2018 23:00:00||FIBABANKA|10.40.25.55|||101571767266|111
30.10.2018 23:00:00||FIBABANKA|10.40.24.56|||101571767266|196
30.10.2018 23:00:00||FIBABANKA|10.40.26.53|||101571767266|40
30.10.2018 23:00:00||FIBABANKA|10.40.26.53|||101571767266|166
30.10.2018 23:00:00||FIBABANKA|10.40.25.57|||101571767266|90
30.10.2018 23:00:00||FIBABANKA|10.40.27.60|||101571767266|50
30.10.2018 23:00:00||FIBABANKA|10.40.25.76|||101571767266|10
30.10.2018 23:00:00||FIBABANKA|10.40.27.53|||101571767266|170
30.10.2018 23:00:00||FIBABANKA|10.40.27.53|||101571767266|182
30.10.2018 23:00:00||FIBABANKA|10.40.26.53|||101571767266|160
30.10.2018 23:00:00||FIBABANKA|10.40.27.57|||101571767266|90
30.10.2018 23:00:00||FIBABANKA|10.40.27.57|||101571767266|80
30.10.2018 23:00:00||FIBABANKA|10.40.27.57|||101571767266|80
30.10.2018 23:00:00||FIBABANKA|10.40.26.60|||101571767266|10
30.10.2018 23:00:00||FIBABANKA|10.40.25.57|||101571767266|90
30.10.2018 23:00:00||FIBABANKA|10.40.25.57|||101571767266|90
30.10.2018 23:00:00||FIBABANKA|10.40.25.57|||101571767266|90
30.10.2018 23:00:00||FIBABANKA|10.40.25.57|||101571767266|90
30.10.2018 23:00:00||FIBABANKA|10.40.25.57|||101571767266|76
30.10.2018 23:00:00||FIBABANKA|10.40.25.57|||101571767266|100
30.10.2018 23:00:00||FIBABANKA|10.40.25.57|||101571767266|80
30.10.2018 23:00:00||FIBABANKA|10.40.24.57|||101571767266|100
30.10.2018 23:00:00||FIBABANKA|10.40.24.57|||101571767266|70
30.10.2018 23:00:00||FIBABANKA|10.40.24.57|||101571767266|60
30.10.2018 23:00:00||FIBABANKA|10.40.26.51|||101571767266|20
30.10.2018 23:00:00||FIBABANKA|10.40.27.52|||101571767266|50
30.10.2018 23:00:00||FIBABANKA|10.40.27.52|||101571767266|60
30.10.2018 23:00:00||FIBABANKA|10.40.27.52|||101571767266|70
30.10.2018 23:00:00||FIBABANKA|10.40.27.73|||101571767266|10
30.10.2018 23:00:00||FIBABANKA|10.40.27.74|||101571767266|168
30.10.2018 23:00:00||FIBABANKA|10.40.27.60|||101571767266|92
30.10.2018 23:00:00||FIBABANKA|10.40.26.60|||101571767266|110
30.10.2018 23:00:00||FIBABANKA|10.40.26.60|||101571767266|148
30.10.2018 23:00:00||FIBABANKA|10.40.26.60|||101571767266|24
30.10.2018 23:00:00||FIBABANKA|10.40.25.53|||101571767266|32
30.10.2018 23:00:00||FIBABANKA|10.40.25.53|||101571767266|46
30.10.2018 23:00:00||FIBABANKA|10.40.27.60|||101571767266|50
30.10.2018 23:00:00||FIBABANKA|10.40.27.60|||101571767266|216
30.10.2018 23:00:00||FIBABANKA|10.40.27.60|||101571767266|234
30.10.2018 23:00:00||FIBABANKA|10.40.27.60|||101571767266|52
30.10.2018 23:00:00||FIBABANKA|10.40.27.60|||101571767266|162
30.10.2018 23:00:00||FIBABANKA|10.40.27.60|||101571767266|10
30.10.2018 23:00:00||FIBABANKA|10.40.27.53|||101571767266|58
30.10.2018 23:00:00||FIBABANKA|10.40.26.53|||101571767266|70
30.10.2018 23:00:00||FIBABANKA|10.40.26.53|||101571767266|60
30.10.2018 23:00:00||FIBABANKA|10.40.27.57|||101571767266|80
30.10.2018 23:00:00||FIBABANKA|10.40.25.51|||101571767266|20
30.10.2018 23:00:00||FIBABANKA|10.40.25.51|||101571767266|110
30.10.2018 23:00:00||FIBABANKA|10.40.24.51|||101571767266|20
30.10.2018 23:00:00||FIBABANKA|10.40.24.51|||101571767266|70
30.10.2018 23:00:00||FIBABANKA|10.40.24.51|||101571767266|102
30.10.2018 23:00:00||FIBABANKA|10.40.24.51|||101571767266|140
30.10.2018 23:00:00||FIBABANKA|10.40.24.51|||101571767266|30
30.10.2018 23:00:00||FIBABANKA|10.40.24.57|||101571767266|70
30.10.2018 23:00:00||FIBABANKA|10.40.24.57|||101571767266|90
30.10.2018 23:00:00||FIBABANKA|10.40.24.57|||101571767266|80
30.10.2018 23:00:00||FIBABANKA|10.40.24.57|||101571767266|80
30.10.2018 23:00:00||FIBABANKA|10.40.24.57|||101571767266|70
30.10.2018 23:00:00||FIBABANKA|10.40.24.52|||101571767266|34
30.10.2018 23:00:00||FIBABANKA|10.40.24.52|||101571767266|40
30.10.2018 23:00:00||FIBABANKA|10.40.24.52|||101571767266|12
30.10.2018 23:00:00||FIBABANKA|10.40.26.73|||101571767266|40
30.10.2018 23:00:00||FIBABANKA|10.40.27.53|||101571767266|70
30.10.2018 23:00:00||FIBABANKA|10.40.26.51|||101571767266|72
30.10.2018 23:00:00||FIBABANKA|10.40.27.60|||101571767266|100
30.10.2018 23:00:00||FIBABANKA|10.40.27.60|||101571767266|110
30.10.2018 23:00:00||FIBABANKA|10.40.26.52|||101571767266|30
30.10.2018 23:00:00||FIBABANKA|10.40.26.52|||101571767266|90
30.10.2018 23:00:00||FIBABANKA|10.40.26.52|||101571767266|30
30.10.2018 23:00:00||FIBABANKA|10.40.26.60|||101571767266|10
30.10.2018 23:00:00||FIBABANKA|10.40.26.60|||101571767266|112
30.10.2018 23:00:00||FIBABANKA|10.40.26.60|||101571767266|120
30.10.2018 23:00:00||FIBABANKA|10.40.26.60|||101571767266|228
30.10.2018 23:00:00||FIBABANKA|10.40.25.51|||101571767266|140
30.10.2018 23:00:00||FIBABANKA|10.40.25.51|||101571767266|40
30.10.2018 23:00:00||FIBABANKA|10.40.25.51|||101571767266|40
30.10.2018 23:00:00||FIBABANKA|10.40.25.51|||101571767266|70
30.10.2018 23:00:00||FIBABANKA|10.40.24.51|||101571767266|30
30.10.2018 23:00:00||FIBABANKA|10.40.25.59|||101571767266|70
30.10.2018 23:00:00||FIBABANKA|10.40.25.59|||101571767266|90
30.10.2018 23:00:00||FIBABANKA|10.40.25.59|||101571767266|90
30.10.2018 23:00:00||FIBABANKA|10.40.25.59|||101571767266|40
30.10.2018 23:00:00||FIBABANKA|10.40.25.59|||101571767266|120
30.10.2018 23:00:00||FIBABANKA|10.40.25.59|||101571767266|60
30.10.2018 23:00:00||FIBABANKA|10.40.25.59|||101571767266|50
30.10.2018 23:00:00||FIBABANKA|10.40.25.59|||101571767266|140
30.10.2018 23:00:00||FIBABANKA|10.40.25.59|||101571767266|50
30.10.2018 23:00:00||FIBABANKA|10.40.24.59|||101571767266|70
30.10.2018 23:00:00||FIBABANKA|10.40.24.59|||101571767266|130
30.10.2018 23:00:00||FIBABANKA|10.40.24.59|||101571767266|54
30.10.2018 23:00:00||FIBABANKA|10.40.24.59|||101571767266|50
30.10.2018 23:00:00||FIBABANKA|10.40.24.59|||101571767266|132
30.10.2018 23:00:00||FIBABANKA|10.40.24.59|||101571767266|74
30.10.2018 23:00:00||FIBABANKA|10.40.24.59|||101571767266|60
30.10.2018 23:00:00||FIBABANKA|10.40.24.59|||101571767266|140
30.10.2018 23:00:00||FIBABANKA|10.40.24.59|||101571767266|62
30.10.2018 23:00:00||FIBABANKA|10.40.25.60|||101571767266|106
30.10.2018 23:00:00||FIBABANKA|10.40.25.60|||101571767266|32
30.10.2018 23:00:00||FIBABANKA|10.40.25.60|||101571767266|110
30.10.2018 23:00:00||FIBABANKA|10.40.25.60|||101571767266|40
30.10.2018 23:00:00||FIBABANKA|10.40.24.60|||101571767266|110
30.10.2018 23:00:00||FIBABANKA|10.40.24.60|||101571767266|54
30.10.2018 23:00:00||FIBABANKA|10.40.24.60|||101571767266|40
30.10.2018 23:00:00||FIBABANKA|10.40.24.60|||101571767266|100
30.10.2018 23:00:00||FIBABANKA|10.40.24.60|||101571767266|50
30.10.2018 23:00:00||FIBABANKA|10.40.25.72|||101571767266|70
30.10.2018 23:00:00||FIBABANKA|10.40.25.72|||101571767266|40
30.10.2018 23:00:00||FIBABANKA|10.40.25.72|||101571767266|30
30.10.2018 23:00:00||FIBABANKA|10.40.24.72|||101571767266|140
30.10.2018 23:00:00||FIBABANKA|10.40.24.72|||101571767266|80
30.10.2018 23:00:00||FIBABANKA|10.40.24.72|||101571767266|30
30.10.2018 23:00:00||FIBABANKA|10.40.24.72|||101571767266|40
30.10.2018 23:00:00||FIBABANKA|10.40.25.74|||101571767266|30
30.10.2018 23:00:00||FIBABANKA|10.40.25.75|||101571767266|40
30.10.2018 23:00:00||FIBABANKA|10.40.25.75|||101571767266|82
30.10.2018 23:00:00||FIBABANKA|10.40.25.75|||101571767266|138
30.10.2018 23:00:00||FIBABANKA|10.40.25.75|||101571767266|164
30.10.2018 23:00:00||FIBABANKA|10.40.25.75|||101571767266|184
30.10.2018 23:00:00||FIBABANKA|10.40.25.75|||101571767266|208
30.10.2018 23:00:00||FIBABANKA|10.40.24.75|||101571767266|50
30.10.2018 23:00:00||FIBABANKA|10.40.24.75|||101571767266|56
30.10.2018 23:00:00||FIBABANKA|10.40.24.75|||101571767266|106
30.10.2018 23:00:00||FIBABANKA|10.40.24.75|||101571767266|170
30.10.2018 23:00:00||FIBABANKA|10.40.24.75|||101571767266|154
30.10.2018 23:00:00||FIBABANKA|10.40.24.76|||101571767266|38
30.10.2018 23:00:00||FIBABANKA|10.40.24.76|||101571767266|70
30.10.2018 23:00:00||FIBABANKA|10.40.24.76|||101571767266|20
30.10.2018 23:00:00||FIBABANKA|10.40.24.76|||101571767266|40
30.10.2018 23:00:00||FIBABANKA|10.40.24.76|||101571767266|10
30.10.2018 23:00:00||FIBABANKA|10.40.25.77|||101571767266|64
30.10.2018 23:00:00||FIBABANKA|10.40.25.77|||101571767266|40
30.10.2018 23:00:00||FIBABANKA|10.40.24.77|||101571767266|46
30.10.2018 23:00:00||FIBABANKA|10.40.24.77|||101571767266|34
30.10.2018 23:00:00||FIBABANKA|10.40.24.53|||101571767266|30
30.10.2018 23:00:00||FIBABANKA|10.40.24.53|||101571767266|60
30.10.2018 23:00:00||FIBABANKA|10.40.26.57|||101571767266|90
30.10.2018 23:00:00||FIBABANKA|10.40.26.57|||101571767266|88
30.10.2018 23:00:00||FIBABANKA|10.40.26.57|||101571767266|80
30.10.2018 23:00:00||FIBABANKA|10.40.26.57|||101571767266|68
30.10.2018 23:00:00||FIBABANKA|10.40.26.57|||101571767266|68
30.10.2018 23:00:00||FIBABANKA|10.40.27.72|||101571767266|40
30.10.2018 23:00:00||FIBABANKA|10.40.27.72|||101571767266|50
30.10.2018 23:00:00||FIBABANKA|10.40.27.72|||101571767266|40
30.10.2018 23:00:00||FIBABANKA|10.40.27.72|||101571767266|140
30.10.2018 23:00:00||FIBABANKA|10.40.27.72|||101571767266|60
30.10.2018 23:00:00||FIBABANKA|10.40.26.72|||101571767266|30
30.10.2018 23:00:00||FIBABANKA|10.40.26.72|||101571767266|140
30.10.2018 23:00:00||FIBABANKA|10.40.26.72|||101571767266|70
30.10.2018 23:00:00||FIBABANKA|10.40.26.72|||101571767266|30
30.10.2018 23:00:00||FIBABANKA|10.40.27.73|||101571767266|30
30.10.2018 23:00:00||FIBABANKA|10.40.27.73|||101571767266|100
30.10.2018 23:00:00||FIBABANKA|10.40.27.73|||101571767266|40
30.10.2018 23:00:00||FIBABANKA|10.40.27.73|||101571767266|42
30.10.2018 23:00:00||FIBABANKA|10.40.27.73|||101571767266|356
30.10.2018 23:00:00||FIBABANKA|10.40.26.73|||101571767266|40
30.10.2018 23:00:00||FIBABANKA|10.40.26.73|||101571767266|70
30.10.2018 23:00:00||FIBABANKA|10.40.26.73|||101571767266|30
30.10.2018 23:00:00||FIBABANKA|10.40.26.73|||101571767266|10
30.10.2018 23:00:00||FIBABANKA|10.40.27.74|||101571767266|68
30.10.2018 23:00:00||FIBABANKA|10.40.27.74|||101571767266|160
30.10.2018 23:00:00||FIBABANKA|10.40.27.74|||101571767266|180
30.10.2018 23:00:00||FIBABANKA|10.40.26.74|||101571767266|70
30.10.2018 23:00:00||FIBABANKA|10.40.26.74|||101571767266|192
30.10.2018 23:00:00||FIBABANKA|10.40.26.74|||101571767266|182
30.10.2018 23:00:00||FIBABANKA|10.40.26.74|||101571767266|184
30.10.2018 23:00:00||FIBABANKA|10.40.27.75|||101571767266|10
30.10.2018 23:00:00||FIBABANKA|10.40.27.75|||101571767266|10
30.10.2018 23:00:00||FIBABANKA|10.40.27.75|||101571767266|60
30.10.2018 23:00:00||FIBABANKA|10.40.26.75|||101571767266|10
30.10.2018 23:00:00||FIBABANKA|10.40.27.76|||101571767266|90
30.10.2018 23:00:00||FIBABANKA|10.40.26.76|||101571767266|100
30.10.2018 23:00:00||FIBABANKA|10.40.26.79|||101571767266|10
30.10.2018 23:00:00||FIBABANKA|10.40.27.79|||101571767266|10
30.10.2018 23:00:00||FIBABANKA|10.40.27.79|||101571767266|10
30.10.2018 23:00:00||FIBABANKA|10.40.26.79|||101571767266|10
30.10.2018 23:00:00||FIBABANKA|10.40.27.77|||101571767266|52
30.10.2018 23:00:00||FIBABANKA|10.40.27.77|||101571767266|36
30.10.2018 23:00:00||FIBABANKA|10.40.27.77|||101571767266|166
30.10.2018 23:00:00||FIBABANKA|10.40.26.77|||101571767266|42
30.10.2018 23:00:00||FIBABANKA|10.40.26.77|||101571767266|50
30.10.2018 23:00:00||FIBABANKA|10.40.26.77|||101571767266|182
30.10.2018 23:00:00||FIBABANKA|10.40.26.77|||101571767266|202
30.10.2018 23:00:00||FIBABANKA|10.40.26.77|||101571767266|66
30.10.2018 23:00:00||FIBABANKA|10.40.26.77|||101571767266|78
30.10.2018 23:00:00||FIBABANKA|10.40.26.77|||101571767266|178
30.10.2018 23:00:00||FIBABANKA|10.40.26.77|||101571767266|186
30.10.2018 23:00:00||FIBABANKA|10.40.27.77|||101571767266|54
30.10.2018 23:00:00||FIBABANKA|10.40.27.77|||101571767266|30
30.10.2018 23:00:00||FIBABANKA|10.40.27.77|||101571767266|162
30.10.2018 23:00:00||FIBABANKA|10.40.27.57|||101571767266|80
30.10.2018 23:00:00||FIBABANKA|10.40.26.60|||101571767266|220
30.10.2018 23:00:00||FIBABANKA|10.40.25.74|||101571767266|230
30.10.2018 23:00:00||FIBABANKA|10.40.24.75|||101571767266|178
30.10.2018 23:00:00||FIBABANKA|10.40.24.75|||101571767266|140
30.10.2018 23:00:00||FIBABANKA|10.40.24.53|||101571767266|176
30.10.2018 23:00:00||FIBABANKA|10.40.24.53|||101571767266|188
30.10.2018 23:00:00||FIBABANKA|10.40.25.52|||101571767266|10
30.10.2018 23:00:00||FIBABANKA|10.40.25.52|||101571767266|50
30.10.2018 23:00:00||FIBABANKA|10.40.25.52|||101571767266|76
30.10.2018 23:00:00||FIBABANKA|10.40.25.53|||101571767266|160
30.10.2018 23:00:00||FIBABANKA|10.40.25.53|||101571767266|158
30.10.2018 23:00:00||FIBABANKA|10.40.27.51|||101571767266|30
30.10.2018 23:00:00||FIBABANKA|10.40.27.51|||101571767266|20
30.10.2018 23:00:00||FIBABANKA|10.40.27.51|||101571767266|100
30.10.2018 23:00:00||FIBABANKA|10.40.27.51|||101571767266|140
30.10.2018 23:00:00||FIBABANKA|10.40.27.51|||101571767266|70
30.10.2018 23:00:00||FIBABANKA|10.40.27.51|||101571767266|40
30.10.2018 23:00:00||FIBABANKA|10.40.27.51|||101571767266|40
30.10.2018 23:00:00||FIBABANKA|10.40.26.51|||101571767266|10
30.10.2018 23:00:00||FIBABANKA|10.40.26.51|||101571767266|110
30.10.2018 23:00:00||FIBABANKA|10.40.26.51|||101571767266|130
30.10.2018 23:00:00||FIBABANKA|10.40.26.51|||101571767266|30
30.10.2018 23:00:00||FIBABANKA|10.40.26.51|||101571767266|30
30.10.2018 23:00:00||FIBABANKA|10.40.24.74|||101571767266|32
30.10.2018 23:00:00||FIBABANKA|10.40.25.76|||101571767266|60
30.10.2018 23:00:00||FIBABANKA|10.40.25.76|||101571767266|40
30.10.2018 23:00:00||FIBABANKA|10.40.25.76|||101571767266|10
30.10.2018 23:00:00||FIBABANKA|10.40.25.52|||101571767266|40
30.10.2018 23:00:00||FIBABANKA|10.40.25.52|||101571767266|30
30.10.2018 23:00:00||HAVAŞ|10.40.24.46|||110000479675|10
30.10.2018 23:00:00||HAVAŞ|10.40.24.48|||110000479675|744
30.10.2018 23:00:00||HAVAŞ|10.40.24.48|||110000479675|766
30.10.2018 23:00:00||HAVAŞ|10.40.25.48|||110000479675|778
30.10.2018 23:00:00||HAVAŞ|10.40.24.45|||110000479675|70
30.10.2018 23:00:00||HAVAŞ|10.40.25.45|||110000479675|67
30.10.2018 23:00:00||HAVAŞ|10.40.25.47|||110000479675|70
30.10.2018 23:00:00||HAVAŞ|10.40.24.46|||110000479675|80
30.10.2018 23:00:00||HAVAŞ|10.40.24.47|||110000479675|30
30.10.2018 23:00:00||HAVAŞ|10.40.24.47|||110000479675|90
30.10.2018 23:00:00||HAVAŞ|10.40.24.47|||110000479675|92
30.10.2018 23:00:00||HAVAŞ|10.40.25.46|||110000479675|10
30.10.2018 23:00:00||HAVAŞ|10.40.25.46|||110000479675|60
30.10.2018 23:00:00||HAVAŞ|10.40.24.48|||110000479675|758
30.10.2018 23:00:00||HAVAŞ|10.40.24.46|||110000479675|60
30.10.2018 23:00:00||HAVAŞ|10.40.24.46|||110000479675|70
30.10.2018 23:00:00||HAVAŞ|10.40.24.47|||110000479675|15
30.10.2018 23:00:00||HAVAŞ|10.40.25.48|||110000479675|742
30.10.2018 23:00:00||HAVAŞ|10.40.25.48|||110000479675|782
30.10.2018 23:00:00||HAVAŞ|10.40.25.45|||110000479675|98
30.10.2018 23:00:00||HAVAŞ|10.40.24.45|||110000479675|50
30.10.2018 23:00:00||HAVAŞ|10.40.24.45|||110000479675|170
30.10.2018 23:00:00||HAVAŞ|10.40.24.45|||110000479675|100
30.10.2018 23:00:00||HAVAŞ|10.40.25.47|||110000479675|70
30.10.2018 23:00:00||HAVAŞ|10.40.25.47|||110000479675|222
30.10.2018 23:00:00||HAVAŞ|10.40.25.47|||110000479675|58
30.10.2018 23:00:00||HAVAŞ|10.40.25.47|||110000479675|90
30.10.2018 23:00:00||HAVAŞ|10.40.25.47|||110000479675|92
30.10.2018 23:00:00||HAVAŞ|10.40.25.47|||110000479675|90
30.10.2018 23:00:00||HAVAŞ|10.40.25.47|||110000479675|110
30.10.2018 23:00:00||HAVAŞ|10.40.25.47|||110000479675|180
30.10.2018 23:00:00||HAVAŞ|10.40.25.47|||110000479675|90
30.10.2018 23:00:00||HAVAŞ|10.40.25.47|||110000479675|92
30.10.2018 23:00:00||HAVAŞ|10.40.25.47|||110000479675|92
30.10.2018 23:00:00||HAVAŞ|10.40.25.45|||110000479675|103
30.10.2018 23:00:00||HAVAŞ|10.40.25.45|||110000479675|83
30.10.2018 23:00:00||HAVAŞ|10.40.25.46|||110000479675|10
30.10.2018 23:00:00||HAVAŞ|10.40.25.46|||110000479675|10
30.10.2018 23:00:00||HAVAŞ|10.40.25.46|||110000479675|20
30.10.2018 23:00:00||HAVAŞ|10.40.25.46|||110000479675|20
30.10.2018 23:00:00||HAVAŞ|10.40.25.46|||110000479675|50
30.10.2018 23:00:00||HAVAŞ|10.40.25.46|||110000479675|100
30.10.2018 23:00:00||HAVAŞ|10.40.25.46|||110000479675|67
30.10.2018 23:00:00||HAVAŞ|10.40.25.46|||110000479675|70
30.10.2018 23:00:00||HAVAŞ|10.40.25.46|||110000479675|70
30.10.2018 23:00:00||HAVAŞ|10.40.24.46|||110000479675|20
30.10.2018 23:00:00||HAVAŞ|10.40.24.46|||110000479675|20
30.10.2018 23:00:00||HAVAŞ|10.40.24.46|||110000479675|2
30.10.2018 23:00:00||HAVAŞ|10.40.24.46|||110000479675|10
30.10.2018 23:00:00||HAVAŞ|10.40.24.46|||110000479675|10
30.10.2018 23:00:00||HAVAŞ|10.40.24.46|||110000479675|10
30.10.2018 23:00:00||HAVAŞ|10.40.24.46|||110000479675|60
30.10.2018 23:00:00||HAVAŞ|10.40.24.46|||110000479675|110
30.10.2018 23:00:00||HAVAŞ|10.40.24.47|||110000479675|30
30.10.2018 23:00:00||HAVAŞ|10.40.24.47|||110000479675|222
30.10.2018 23:00:00||HAVAŞ|10.40.24.47|||110000479675|60
30.10.2018 23:00:00||HAVAŞ|10.40.24.47|||110000479675|58
30.10.2018 23:00:00||HAVAŞ|10.40.24.47|||110000479675|160
30.10.2018 23:00:00||HAVAŞ|10.40.24.47|||110000479675|100
30.10.2018 23:00:00||HAVAŞ|10.40.24.47|||110000479675|100
30.10.2018 23:00:00||MARS CINEMA|10.40.24.203|||110000472614|100
30.10.2018 23:00:00||MARS CINEMA|10.40.24.204|||110000472614|40
30.10.2018 23:00:00||MARS CINEMA|10.40.24.203|||110000472614|92
30.10.2018 23:00:00||MARS CINEMA|10.40.24.203|||110000472614|164
30.10.2018 23:00:00||MARS CINEMA|10.40.24.203|||110000472614|82
30.10.2018 23:00:00||MARS CINEMA|10.40.24.204|||110000472614|64
30.10.2018 23:00:00||MARS CINEMA|10.40.24.203|||110000472614|104
30.10.2018 23:00:00||MARS CINEMA|10.40.24.204|||110000472614|20
30.10.2018 23:00:00||MARS CINEMA|10.40.24.204|||110000472614|90
30.10.2018 23:00:00||MARS CINEMA|10.40.25.203|||110000472614|160
30.10.2018 23:00:00||MARS CINEMA|10.40.25.203|||110000472614|86
30.10.2018 23:00:00||MARS CINEMA|10.40.25.203|||110000472614|184
30.10.2018 23:00:00||MARS CINEMA|10.40.25.203|||110000472614|96
30.10.2018 23:00:00||MARS CINEMA|10.40.25.203|||110000472614|80
30.10.2018 23:00:00||MARS CINEMA|10.40.25.203|||110000472614|110
30.10.2018 23:00:00||MARS CINEMA|10.40.25.203|||110000472614|88
30.10.2018 23:00:00||MARS CINEMA|10.40.25.203|||110000472614|152
30.10.2018 23:00:00||MARS CINEMA|10.40.25.203|||110000472614|90
30.10.2018 23:00:00||MARS CINEMA|10.40.25.203|||110000472614|110
30.10.2018 23:00:00||MARS CINEMA|10.40.25.203|||110000472614|90
30.10.2018 23:00:00||MARS CINEMA|10.40.25.203|||110000472614|66
30.10.2018 23:00:00||MARS CINEMA|10.40.25.203|||110000472614|192
30.10.2018 23:00:00||MARS CINEMA|10.40.25.204|||110000472614|110
30.10.2018 23:00:00||MARS CINEMA|10.40.25.204|||110000472614|70
30.10.2018 23:00:00||MARS CINEMA|10.40.25.204|||110000472614|80
30.10.2018 23:00:00||MARS CINEMA|10.40.25.204|||110000472614|100
30.10.2018 23:00:00||MARS CINEMA|10.40.25.204|||110000472614|20
30.10.2018 23:00:00||MARS CINEMA|10.40.25.204|||110000472614|20
30.10.2018 23:00:00||MARS CINEMA|10.40.25.204|||110000472614|30
30.10.2018 23:00:00||MARS CINEMA|10.40.25.204|||110000472614|40
30.10.2018 23:00:00||MARS CINEMA|10.40.25.204|||110000472614|90
30.10.2018 23:00:00||MARS CINEMA|10.40.25.204|||110000472614|120
30.10.2018 23:00:00||MARS CINEMA|10.40.25.204|||110000472614|80
30.10.2018 23:00:00||MARS CINEMA|10.40.25.204|||110000472614|80
30.10.2018 23:00:00||MARS CINEMA|10.40.25.204|||110000472614|110
30.10.2018 23:00:00||MARS CINEMA|10.40.25.204|||110000472614|100
30.10.2018 23:00:00||MARS CINEMA|10.40.24.203|||110000472614|80
30.10.2018 23:00:00||MARS CINEMA|10.40.24.203|||110000472614|92
30.10.2018 23:00:00||MARS CINEMA|10.40.24.203|||110000472614|146
30.10.2018 23:00:00||MARS CINEMA|10.40.24.203|||110000472614|76
30.10.2018 23:00:00||MARS CINEMA|10.40.24.203|||110000472614|140
30.10.2018 23:00:00||MARS CINEMA|10.40.24.203|||110000472614|152
30.10.2018 23:00:00||MARS CINEMA|10.40.24.203|||110000472614|100
30.10.2018 23:00:00||MARS CINEMA|10.40.24.203|||110000472614|184
30.10.2018 23:00:00||MARS CINEMA|10.40.24.204|||110000472614|112
30.10.2018 23:00:00||MARS CINEMA|10.40.24.204|||110000472614|92
30.10.2018 23:00:00||MARS CINEMA|10.40.24.204|||110000472614|90
30.10.2018 23:00:00||MARS CINEMA|10.40.24.204|||110000472614|20
30.10.2018 23:00:00||MARS CINEMA|10.40.24.204|||110000472614|10
30.10.2018 23:00:00||MARS CINEMA|10.40.24.204|||110000472614|90
30.10.2018 23:00:00||MARS CINEMA|10.40.24.204|||110000472614|118
30.10.2018 23:00:00||MARS CINEMA|10.40.24.204|||110000472614|90
30.10.2018 23:00:00||MARS CINEMA|10.40.24.204|||110000472614|108
30.10.2018 23:00:00||MARS CINEMA|10.40.24.204|||110000472614|80
30.10.2018 23:00:00||MARS CINEMA|10.40.25.206|||110000472614|120
30.10.2018 23:00:00||MARS CINEMA|10.40.25.206|||110000472614|40
30.10.2018 23:00:00||MARS CINEMA|10.40.25.206|||110000472614|40
30.10.2018 23:00:00||MARS CINEMA|10.40.25.206|||110000472614|40
30.10.2018 23:00:00||MARS CINEMA|10.40.25.206|||110000472614|20
30.10.2018 23:00:00||MARS CINEMA|10.40.25.206|||110000472614|20
30.10.2018 23:00:00||MARS CINEMA|10.40.25.206|||110000472614|30
30.10.2018 23:00:00||MARS CINEMA|10.40.25.206|||110000472614|60
30.10.2018 23:00:00||MARS CINEMA|10.40.25.206|||110000472614|40
30.10.2018 23:00:00||MARS CINEMA|10.40.25.206|||110000472614|86
30.10.2018 23:00:00||MARS CINEMA|10.40.25.206|||110000472614|90
30.10.2018 23:00:00||MARS CINEMA|10.40.24.206|||110000472614|150
30.10.2018 23:00:00||MARS CINEMA|10.40.24.206|||110000472614|40
30.10.2018 23:00:00||MARS CINEMA|10.40.24.206|||110000472614|40
30.10.2018 23:00:00||MARS CINEMA|10.40.24.206|||110000472614|40
30.10.2018 23:00:00||MARS CINEMA|10.40.24.206|||110000472614|30
30.10.2018 23:00:00||MARS CINEMA|10.40.24.206|||110000472614|30
30.10.2018 23:00:00||MARS CINEMA|10.40.24.206|||110000472614|196
30.10.2018 23:00:00||MARS CINEMA|10.40.24.206|||110000472614|160
30.10.2018 23:00:00||MARS CINEMA|10.40.24.206|||110000472614|20
30.10.2018 23:00:00||MARS CINEMA|10.40.24.206|||110000472614|80
30.10.2018 23:00:00||MARS CINEMA|10.40.24.206|||110000472614|78
30.10.2018 23:00:00||PEGASUS|10.40.27.84|||110000423831|216
30.10.2018 23:00:00||PEGASUS|10.40.26.85|||110000423831|121
30.10.2018 23:00:00||PEGASUS|10.40.27.66|||110000423831|112
30.10.2018 23:00:00||PEGASUS|10.40.26.66|||110000423831|93
30.10.2018 23:00:00||PEGASUS|10.40.26.84|||110000423831|222
30.10.2018 23:00:00||PEGASUS|10.40.27.85|||110000423831|117
30.10.2018 23:00:00||PEGASUS|10.40.27.67|||110000423831|338
30.10.2018 23:00:00||PEGASUS|10.40.27.67|||110000423831|40
30.10.2018 23:00:00||PEGASUS|10.40.26.62|||110000423831|10
30.10.2018 23:00:00||PEGASUS|10.40.26.62|||110000423831|190
30.10.2018 23:00:00||PEGASUS|10.40.26.63|||110000423831|70
30.10.2018 23:00:00||PEGASUS|10.40.26.63|||110000423831|30
30.10.2018 23:00:00||PEGASUS|10.40.26.63|||110000423831|60
30.10.2018 23:00:00||PEGASUS|10.40.26.63|||110000423831|30
30.10.2018 23:00:00||PEGASUS|10.40.26.63|||110000423831|230
30.10.2018 23:00:00||PEGASUS|10.40.26.63|||110000423831|140
30.10.2018 23:00:00||PEGASUS|10.40.26.63|||110000423831|110
30.10.2018 23:00:00||PEGASUS|10.40.26.63|||110000423831|60
30.10.2018 23:00:00||PEGASUS|10.40.26.67|||110000423831|170
30.10.2018 23:00:00||PEGASUS|10.40.27.68|||110000423831|90
30.10.2018 23:00:00||PEGASUS|10.40.27.68|||110000423831|88
30.10.2018 23:00:00||PEGASUS|10.40.27.68|||110000423831|90
30.10.2018 23:00:00||PEGASUS|10.40.27.68|||110000423831|50
30.10.2018 23:00:00||PEGASUS|10.40.26.68|||110000423831|90
30.10.2018 23:00:00||PEGASUS|10.40.26.68|||110000423831|90
30.10.2018 23:00:00||PEGASUS|10.40.26.68|||110000423831|50
30.10.2018 23:00:00||PEGASUS|10.40.27.63|||110000423831|52
30.10.2018 23:00:00||PEGASUS|10.40.27.86|||110000423831|340
30.10.2018 23:00:00||PEGASUS|10.40.27.63|||110000423831|50
30.10.2018 23:00:00||PEGASUS|10.40.27.63|||110000423831|60
30.10.2018 23:00:00||PEGASUS|10.40.27.64|||110000423831|80
30.10.2018 23:00:00||PEGASUS|10.40.27.64|||110000423831|70
30.10.2018 23:00:00||PEGASUS|10.40.27.63|||110000423831|60
30.10.2018 23:00:00||PEGASUS|10.40.27.63|||110000423831|72
30.10.2018 23:00:00||PEGASUS|10.40.27.63|||110000423831|90
30.10.2018 23:00:00||PEGASUS|10.40.26.63|||110000423831|110
30.10.2018 23:00:00||PEGASUS|10.40.27.67|||110000423831|360
30.10.2018 23:00:00||PEGASUS|10.40.27.64|||110000423831|274
30.10.2018 23:00:00||PEGASUS|10.40.27.64|||110000423831|262
30.10.2018 23:00:00||PEGASUS|10.40.27.63|||110000423831|86
30.10.2018 23:00:00||PEGASUS|10.40.27.63|||110000423831|60
30.10.2018 23:00:00||PEGASUS|10.40.27.63|||110000423831|80
30.10.2018 23:00:00||PEGASUS|10.40.26.63|||110000423831|110
30.10.2018 23:00:00||PEGASUS|10.40.26.63|||110000423831|110
30.10.2018 23:00:00||PEGASUS|10.40.27.81|||110000423831|460
30.10.2018 23:00:00||PEGASUS|10.40.27.81|||110000423831|430
30.10.2018 23:00:00||PEGASUS|10.40.26.63|||110000423831|90
30.10.2018 23:00:00||PEGASUS|10.40.26.63|||110000423831|60
30.10.2018 23:00:00||PEGASUS|10.40.26.67|||110000423831|30
30.10.2018 23:00:00||PEGASUS|10.40.26.67|||110000423831|340
30.10.2018 23:00:00||PEGASUS|10.40.26.67|||110000423831|64
30.10.2018 23:00:00||PEGASUS|10.40.26.67|||110000423831|40
30.10.2018 23:00:00||PEGASUS|10.40.26.67|||110000423831|70
30.10.2018 23:00:00||PEGASUS|10.40.26.68|||110000423831|100
30.10.2018 23:00:00||PEGASUS|10.40.27.64|||110000423831|296
30.10.2018 23:00:00||PEGASUS|10.40.27.64|||110000423831|268
30.10.2018 23:00:00||PEGASUS|10.40.27.64|||110000423831|308
30.10.2018 23:00:00||PEGASUS|10.40.27.64|||110000423831|268
30.10.2018 23:00:00||PEGASUS|10.40.27.64|||110000423831|272
30.10.2018 23:00:00||PEGASUS|10.40.27.86|||110000423831|340
30.10.2018 23:00:00||PEGASUS|10.40.27.63|||110000423831|90
30.10.2018 23:00:00||PEGASUS|10.40.26.63|||110000423831|130
30.10.2018 23:00:00||PEGASUS|10.40.26.63|||110000423831|60
30.10.2018 23:00:00||PEGASUS|10.40.26.63|||110000423831|80
30.10.2018 23:00:00||PEGASUS|10.40.26.67|||110000423831|340
30.10.2018 23:00:00||PEGASUS|10.40.27.63|||110000423831|50
30.10.2018 23:00:00||PEGASUS|10.40.27.63|||110000423831|58
30.10.2018 23:00:00||PEGASUS|10.40.27.81|||110000423831|450
30.10.2018 23:00:00||PEGASUS|10.40.26.62|||110000423831|90
30.10.2018 23:00:00||PEGASUS|10.40.26.63|||110000423831|50
30.10.2018 23:00:00||PEGASUS|10.40.26.63|||110000423831|100
30.10.2018 23:00:00||PEGASUS|10.40.26.63|||110000423831|40
30.10.2018 23:00:00||PEGASUS|10.40.26.63|||110000423831|70
30.10.2018 23:00:00||PEGASUS|10.40.26.67|||110000423831|340
30.10.2018 23:00:00||PEGASUS|10.40.27.64|||110000423831|280
30.10.2018 23:00:00||PEGASUS|10.40.27.64|||110000423831|270
30.10.2018 23:00:00||PEGASUS|10.40.27.64|||110000423831|262
30.10.2018 23:00:00||PEGASUS|10.40.27.64|||110000423831|298
30.10.2018 23:00:00||PEGASUS|10.40.27.64|||110000423831|334
30.10.2018 23:00:00||PEGASUS|10.40.27.86|||110000423831|40
30.10.2018 23:00:00||PEGASUS|10.40.27.63|||110000423831|64
30.10.2018 23:00:00||PEGASUS|10.40.27.63|||110000423831|80
30.10.2018 23:00:00||PEGASUS|10.40.27.63|||110000423831|72
30.10.2018 23:00:00||PEGASUS|10.40.27.63|||110000423831|92
30.10.2018 23:00:00||PEGASUS|10.40.27.63|||110000423831|158
30.10.2018 23:00:00||PEGASUS|10.40.27.63|||110000423831|226
30.10.2018 23:00:00||PEGASUS|10.40.27.63|||110000423831|58
30.10.2018 23:00:00||PEGASUS|10.40.26.64|||110000423831|80
30.10.2018 23:00:00||PEGASUS|10.40.26.64|||110000423831|80
30.10.2018 23:00:00||PEGASUS|10.40.26.82|||110000423831|210
30.10.2018 23:00:00||PEGASUS|10.40.26.82|||110000423831|110
30.10.2018 23:00:00||PEGASUS|10.40.26.82|||110000423831|110
30.10.2018 23:00:00||PEGASUS|10.40.26.82|||110000423831|162
30.10.2018 23:00:00||PEGASUS|10.40.26.82|||110000423831|160
30.10.2018 23:00:00||PEGASUS|10.40.26.82|||110000423831|154
30.10.2018 23:00:00||PEGASUS|10.40.26.82|||110000423831|190
30.10.2018 23:00:00||PEGASUS|10.40.26.82|||110000423831|36
30.10.2018 23:00:00||PEGASUS|10.40.26.82|||110000423831|52
30.10.2018 23:00:00||PEGASUS|10.40.26.82|||110000423831|20
30.10.2018 23:00:00||PEGASUS|10.40.26.82|||110000423831|70
30.10.2018 23:00:00||PEGASUS|10.40.26.82|||110000423831|50
30.10.2018 23:00:00||PEGASUS|10.40.26.82|||110000423831|40
30.10.2018 23:00:00||PEGASUS|10.40.27.83|||110000423831|576
30.10.2018 23:00:00||PEGASUS|10.40.27.83|||110000423831|70
30.10.2018 23:00:00||PEGASUS|10.40.27.83|||110000423831|570
30.10.2018 23:00:00||PEGASUS|10.40.27.83|||110000423831|558
30.10.2018 23:00:00||PEGASUS|10.40.27.83|||110000423831|72
30.10.2018 23:00:00||PEGASUS|10.40.26.83|||110000423831|510
30.10.2018 23:00:00||PEGASUS|10.40.26.83|||110000423831|50
30.10.2018 23:00:00||PEGASUS|10.40.26.83|||110000423831|402
30.10.2018 23:00:00||PEGASUS|10.40.26.83|||110000423831|508
30.10.2018 23:00:00||PEGASUS|10.40.26.83|||110000423831|512
30.10.2018 23:00:00||PEGASUS|10.40.26.86|||110000423831|360
30.10.2018 23:00:00||PEGASUS|10.40.26.86|||110000423831|138
30.10.2018 23:00:00||PEGASUS|10.40.26.86|||110000423831|350
30.10.2018 23:00:00||PEGASUS|10.40.26.86|||110000423831|50
30.10.2018 23:00:00||PEGASUS|10.40.26.86|||110000423831|30
30.10.2018 23:00:00||PEGASUS|10.40.26.86|||110000423831|350
30.10.2018 23:00:00||PEGASUS|10.40.26.86|||110000423831|40
30.10.2018 23:00:00||PEGASUS|10.40.27.87|||110000423831|90
30.10.2018 23:00:00||PEGASUS|10.40.27.87|||110000423831|90
30.10.2018 23:00:00||PEGASUS|10.40.27.87|||110000423831|90
30.10.2018 23:00:00||PEGASUS|10.40.27.87|||110000423831|20
30.10.2018 23:00:00||PEGASUS|10.40.26.87|||110000423831|90
30.10.2018 23:00:00||PEGASUS|10.40.26.87|||110000423831|90
30.10.2018 23:00:00||PEGASUS|10.40.26.87|||110000423831|90
30.10.2018 23:00:00||PEGASUS|10.40.26.87|||110000423831|60
30.10.2018 23:00:00||PEGASUS|10.40.26.87|||110000423831|20
30.10.2018 23:00:00||PEGASUS|10.40.26.81|||110000423831|400
30.10.2018 23:00:00||PEGASUS|10.40.26.81|||110000423831|420
30.10.2018 23:00:00||PEGASUS|10.40.26.81|||110000423831|410
30.10.2018 23:00:00||PEGASUS|10.40.27.82|||110000423831|220
30.10.2018 23:00:00||PEGASUS|10.40.27.82|||110000423831|30
30.10.2018 23:00:00||PEGASUS|10.40.27.82|||110000423831|110
30.10.2018 23:00:00||PEGASUS|10.40.27.82|||110000423831|80
30.10.2018 23:00:00||PEGASUS|10.40.27.82|||110000423831|158
30.10.2018 23:00:00||PEGASUS|10.40.27.82|||110000423831|132
30.10.2018 23:00:00||PEGASUS|10.40.27.82|||110000423831|172
30.10.2018 23:00:00||PEGASUS|10.40.27.82|||110000423831|118
30.10.2018 23:00:00||PEGASUS|10.40.27.82|||110000423831|60
30.10.2018 23:00:00||PEGASUS|10.40.27.82|||110000423831|80
30.10.2018 23:00:00||PEGASUS|10.40.27.82|||110000423831|50
30.10.2018 23:00:00||PEGASUS|10.40.27.82|||110000423831|38
30.10.2018 23:00:00||PEGASUS|10.40.27.82|||110000423831|40
30.10.2018 23:00:00||PEGASUS|10.40.27.67|||110000423831|50
30.10.2018 23:00:00||PEGASUS|10.40.27.67|||110000423831|70
30.10.2018 23:00:00||PEGASUS|10.40.27.67|||110000423831|130
30.10.2018 23:00:00||PEGASUS|10.40.27.67|||110000423831|10
30.10.2018 23:00:00||PEGASUS|10.40.27.67|||110000423831|340
30.10.2018 23:00:00||PEGASUS|10.40.27.82|||110000423831|68
30.10.2018 23:00:00||PEGASUS|10.40.27.86|||110000423831|170
30.10.2018 23:00:00||PEGASUS|10.40.27.86|||110000423831|70
30.10.2018 23:00:00||PEGASUS|10.40.27.86|||110000423831|20
30.10.2018 23:00:00||PEGASUS|10.40.27.86|||110000423831|350
30.10.2018 23:00:00||PETKIM|10.40.25.87|||110000437354|142
30.10.2018 23:00:00||PWC|10.40.24.66|||110000433262|90
30.10.2018 23:00:00||PWC|10.40.24.66|||110000433262|10
30.10.2018 23:00:00||PWC|10.40.24.66|||110000433262|30
30.10.2018 23:00:00||PWC|10.40.24.66|||110000433262|50
30.10.2018 23:00:00||PWC|10.40.24.66|||110000433262|440
30.10.2018 23:00:00||PWC|10.40.24.68|||110000433262|180
30.10.2018 23:00:00||PWC|10.40.24.66|||110000433262|50
30.10.2018 23:00:00||PWC|10.40.24.66|||110000433262|210
30.10.2018 23:00:00||PWC|10.40.24.66|||110000433262|210
30.10.2018 23:00:00||PWC|10.40.25.67|||110000433262|80
30.10.2018 23:00:00||PWC|10.40.25.67|||110000433262|90
30.10.2018 23:00:00||PWC|10.40.25.67|||110000433262|320
30.10.2018 23:00:00||PWC|10.40.25.67|||110000433262|250
30.10.2018 23:00:00||PWC|10.40.25.67|||110000433262|240
30.10.2018 23:00:00||PWC|10.40.25.67|||110000433262|250
30.10.2018 23:00:00||PWC|10.40.25.67|||110000433262|50
30.10.2018 23:00:00||PWC|10.40.25.67|||110000433262|30
30.10.2018 23:00:00||PWC|10.40.25.67|||110000433262|120
30.10.2018 23:00:00||PWC|10.40.24.67|||110000433262|10
30.10.2018 23:00:00||PWC|10.40.24.67|||110000433262|10
30.10.2018 23:00:00||PWC|10.40.24.67|||110000433262|370
30.10.2018 23:00:00||PWC|10.40.24.67|||110000433262|30
30.10.2018 23:00:00||PWC|10.40.24.67|||110000433262|70
30.10.2018 23:00:00||PWC|10.40.24.67|||110000433262|120
30.10.2018 23:00:00||PWC|10.40.25.68|||110000433262|132
30.10.2018 23:00:00||PWC|10.40.25.68|||110000433262|194
30.10.2018 23:00:00||PWC|10.40.25.68|||110000433262|74
30.10.2018 23:00:00||PWC|10.40.25.68|||110000433262|80
30.10.2018 23:00:00||PWC|10.40.25.68|||110000433262|174
30.10.2018 23:00:00||PWC|10.40.24.66|||110000433262|60
30.10.2018 23:00:00||PWC|10.40.24.66|||110000433262|30
30.10.2018 23:00:00||PWC|10.40.24.66|||110000433262|30
30.10.2018 23:00:00||PWC|10.40.24.68|||110000433262|106
30.10.2018 23:00:00||PWC|10.40.24.68|||110000433262|152
30.10.2018 23:00:00||PWC|10.40.24.68|||110000433262|402
30.10.2018 23:00:00||PWC|10.40.24.68|||110000433262|78
30.10.2018 23:00:00||PWC|10.40.24.68|||110000433262|70
30.10.2018 23:00:00||VSMART BİLGİ TEKNOLOJİLERİ|10.40.24.62|||110000474326|42
30.10.2018 23:00:00||VSMART BİLGİ TEKNOLOJİLERİ|10.40.24.62|||110000474326|66
30.10.2018 23:00:00||VSMART BİLGİ TEKNOLOJİLERİ|10.40.24.62|||110000474326|40
30.10.2018 23:00:00||VSMART BİLGİ TEKNOLOJİLERİ|10.40.25.62|||110000474326|70
30.10.2018 23:00:00||VSMART BİLGİ TEKNOLOJİLERİ|10.40.24.62|||110000474326|46
30.10.2018 23:00:00||VSMART BİLGİ TEKNOLOJİLERİ|10.40.24.62|||110000474326|32
30.10.2018 23:00:00||VSMART BİLGİ TEKNOLOJİLERİ|10.40.24.62|||110000474326|10
30.10.2018 23:00:00||VSMART BİLGİ TEKNOLOJİLERİ|10.40.25.62|||110000474326|40
30.10.2018 23:00:00||VSMART BİLGİ TEKNOLOJİLERİ|10.40.25.62|||110000474326|10
30.10.2018 23:00:00||VSMART BİLGİ TEKNOLOJİLERİ|10.40.25.62|||110000474326|10
30.10.2018 23:00:00||VSMART BİLGİ TEKNOLOJİLERİ|10.40.25.62|||110000474326|82
30.10.2018 23:00:00||VSMART BİLGİ TEKNOLOJİLERİ|10.40.25.62|||110000474326|90
30.10.2018 23:00:00||VSMART BİLGİ TEKNOLOJİLERİ|10.40.25.62|||110000474326|110
30.10.2018 23:00:00||VSMART BİLGİ TEKNOLOJİLERİ|10.40.24.62|||110000474326|10
