9/13/2018 8:00:00 PM||HAVAS|10.40.25.45|||110000479675|325
9/13/2018 8:00:00 PM||HAVAS|10.40.24.45|||110000479675|397
9/13/2018 8:00:00 PM||HAVAS|10.40.25.46|||110000479675|469
9/13/2018 8:00:00 PM||PWC|10.40.24.67|||110000433262|592
9/13/2018 8:00:00 PM||PWC|10.40.25.68|||110000433262|714
9/13/2018 8:00:00 PM||PWC|10.40.25.69|||110000433262|287
9/13/2018 8:00:00 PM||PWC|10.40.24.69|||110000433262|290
9/13/2018 8:00:00 PM||CALIK HOLDING|10.40.25.94|||110000438408|623
9/13/2018 8:00:00 PM||CALIK HOLDING|10.40.24.94|||110000438408|687
9/13/2018 8:00:00 PM||CALIK HOLDING|10.40.25.97|||110000438408|595
9/13/2018 8:00:00 PM||CALIK HOLDING|10.40.25.100|||110000438408|77
9/13/2018 8:00:00 PM||CALIK HOLDING|10.40.24.100|||110000438408|75
9/13/2018 8:00:00 PM||CALIK HOLDING|10.40.25.101|||110000438408|617
9/13/2018 8:00:00 PM||CALIK HOLDING|10.40.24.101|||110000438408|745
9/13/2018 8:00:00 PM||CALIK HOLDING|10.40.25.102|||110000438408|334
9/13/2018 8:00:00 PM||CALIK HOLDING|10.40.24.102|||110000438408|315
9/13/2018 8:00:00 PM||CALIK HOLDING|10.40.25.103|||110000438408|256
9/13/2018 8:00:00 PM||CALIK HOLDING|10.40.24.103|||110000438408|292
9/13/2018 8:00:00 PM||CALIK HOLDING|10.40.25.104|||110000438408|1120
9/13/2018 8:00:00 PM||CALIK HOLDING|10.40.24.113|||110000438408|708
9/13/2018 8:00:00 PM||CALIK HOLDING|10.40.24.114|||110000438408|576
9/13/2018 8:00:00 PM||CALIK HOLDING|10.40.25.115|||110000438408|546
9/13/2018 8:00:00 PM||CALIK HOLDING|10.40.24.115|||110000438408|554
9/13/2018 8:00:00 PM||CALIK HOLDING|10.40.25.116|||110000438408|475
9/13/2018 8:00:00 PM||CALIK HOLDING|10.40.24.116|||110000438408|445
9/13/2018 8:00:00 PM||CALIK HOLDING|10.40.25.117|||110000438408|305
9/13/2018 8:00:00 PM||CALIK HOLDING|10.40.24.117|||110000438408|260
9/13/2018 8:00:00 PM||CALIK HOLDING|10.40.25.119|||110000438408|68
9/13/2018 8:00:00 PM||CALIK HOLDING|10.40.24.119|||110000438408|223
9/13/2018 8:00:00 PM||CALIK HOLDING|10.40.25.120|||110000438408|580
9/13/2018 8:00:00 PM||CALIK HOLDING|10.40.24.120|||110000438408|579
9/13/2018 8:00:00 PM||CALIK HOLDING|10.40.25.121|||110000438408|320
9/13/2018 8:00:00 PM||CALIK HOLDING|10.40.24.121|||110000438408|313
9/13/2018 8:00:00 PM||CALIK HOLDING|10.40.25.122|||110000438408|256
9/13/2018 8:00:00 PM||CALIK HOLDING|10.40.24.122|||110000438408|301
9/13/2018 8:00:00 PM||AKTIFBANK|10.40.25.128|||110000438458|254
9/13/2018 8:00:00 PM||AKTIFBANK|10.40.24.128|||110000438458|478
9/13/2018 8:00:00 PM||AKTIFBANK|10.40.25.129|||110000438458|669
9/13/2018 8:00:00 PM||AKTIFBANK|10.40.25.130|||110000438458|725
9/13/2018 8:00:00 PM||AKTIFBANK|10.40.24.130|||110000438458|693
9/13/2018 8:00:00 PM||AKTIFBANK|10.40.25.131|||110000438458|622
9/13/2018 8:00:00 PM||AKTIFBANK|10.40.24.131|||110000438458|618
9/13/2018 8:00:00 PM||AKTIFBANK|10.40.25.132|||110000438458|438
9/13/2018 8:00:00 PM||AKTIFBANK|10.40.24.132|||110000438458|431
9/13/2018 8:00:00 PM||AKTIFBANK|10.40.25.133|||110000438458|395
9/13/2018 8:00:00 PM||AKTIFBANK|10.40.24.133|||110000438458|700
9/13/2018 8:00:00 PM||AKTIFBANK|10.40.25.138|||110000438458|245
9/13/2018 8:00:00 PM||AKTIFBANK|10.40.24.138|||110000438458|557
9/13/2018 8:00:00 PM||AKTIFBANK|10.40.25.139|||110000438458|162
9/13/2018 8:00:00 PM||AKTIFBANK|10.40.24.139|||110000438458|243
9/13/2018 8:00:00 PM||AKTIFBANK|10.40.25.140|||110000438458|254
9/13/2018 8:00:00 PM||AKTIFBANK|10.40.24.140|||110000438458|361
9/13/2018 8:00:00 PM||AKTIFBANK|10.40.25.141|||110000438458|495
9/13/2018 8:00:00 PM||AKTIFBANK|10.40.24.141|||110000438458|662
9/13/2018 8:00:00 PM||AKTIFBANK|10.40.25.142|||110000438458|37
9/13/2018 8:00:00 PM||AKTIFBANK|10.40.25.143|||110000438458|824
9/13/2018 8:00:00 PM||AKTIFBANK|10.40.25.144|||110000438458|181
9/13/2018 8:00:00 PM||AKTIFBANK|10.40.24.144|||110000438458|259
9/13/2018 8:00:00 PM||AKTIFBANK|10.40.25.145|||110000438458|283
9/13/2018 8:00:00 PM||AKTIFBANK|10.40.24.145|||110000438458|407
9/13/2018 8:00:00 PM||AKTIFBANK|10.40.25.147|||110000438458|85
9/13/2018 8:00:00 PM||AKTIFBANK|10.40.24.147|||110000438458|90
9/13/2018 8:00:00 PM||AKTIFBANK|10.40.25.148|||110000438458|983
9/13/2018 8:00:00 PM||AKTIFBANK|10.40.25.152|||110000438458|778
9/13/2018 8:00:00 PM||AKTIFBANK|10.40.25.153|||110000438458|212
9/13/2018 8:00:00 PM||AKTIFBANK|10.40.24.153|||110000438458|261
9/13/2018 8:00:00 PM||AKTIFBANK|10.40.25.154|||110000438458|41
9/13/2018 8:00:00 PM||AKTIFBANK|10.40.24.154|||110000438458|136
9/13/2018 8:00:00 PM||AKTIFBANK|10.40.25.155|||110000438458|467
9/13/2018 8:00:00 PM||AKTIFBANK|10.40.24.155|||110000438458|504
9/13/2018 8:00:00 PM||AKTIFBANK|10.40.25.157|||110000438458|336
9/13/2018 8:00:00 PM||AKTIFBANK|10.40.24.157|||110000438458|354
9/13/2018 8:00:00 PM||AKTIFBANK|10.40.25.158|||110000438458|160
9/13/2018 8:00:00 PM||AKTIFBANK|10.40.24.158|||110000438458|611
9/13/2018 8:00:00 PM||AKTIFBANK|10.40.25.159|||110000438458|163
9/13/2018 8:00:00 PM||AKTIFBANK|10.40.24.159|||110000438458|345
9/13/2018 8:00:00 PM||AKTIFBANK|10.40.25.160|||110000438458|188
9/13/2018 8:00:00 PM||AKTIFBANK|10.40.24.160|||110000438458|233
9/13/2018 8:00:00 PM||AKTIFBANK|10.40.25.161|||110000438458|241
9/13/2018 8:00:00 PM||AKTIFBANK|10.40.24.161|||110000438458|406
9/13/2018 8:00:00 PM||AKTIFBANK|10.40.25.162|||110000438458|197
9/13/2018 8:00:00 PM||AKTIFBANK|10.40.24.162|||110000438458|513
9/13/2018 8:00:00 PM||AKTIFBANK|10.40.25.163|||110000438458|44
9/13/2018 8:00:00 PM||AKTIFBANK|10.40.25.164|||110000438458|892
9/13/2018 8:00:00 PM||AKTIFBANK|10.40.24.164|||110000438458|871
9/13/2018 8:00:00 PM||AKTIFBANK|10.40.25.165|||110000438458|314
9/13/2018 8:00:00 PM||AKTIFBANK|10.40.24.165|||110000438458|368
9/13/2018 8:00:00 PM||AKTIFBANK|10.40.25.166|||110000438458|129
9/13/2018 8:00:00 PM||AKTIFBANK|10.40.24.166|||110000438458|231
9/13/2018 8:00:00 PM||AKTIFBANK|10.40.25.168|||110000438458|319
9/13/2018 8:00:00 PM||AKTIFBANK|10.40.24.168|||110000438458|381
9/13/2018 8:00:00 PM||AKTIFBANK|10.40.25.169|||110000438458|321
9/13/2018 8:00:00 PM||AKTIFBANK|10.40.24.169|||110000438458|300
9/13/2018 8:00:00 PM||AKTIFBANK|10.40.25.170|||110000438458|533
9/13/2018 8:00:00 PM||AKTIFBANK|10.40.24.170|||110000438458|815
9/13/2018 8:00:00 PM||AKTIFBANK|10.40.25.179|||110000438458|918
9/13/2018 8:00:00 PM||AKTIFBANK|10.40.24.179|||110000438458|988
9/13/2018 8:00:00 PM||AKTIFBANK|10.40.25.186|||110000438458|188
9/13/2018 8:00:00 PM||AKTIFBANK|10.40.24.186|||110000438458|217
9/13/2018 8:00:00 PM||MARS CINEMA|10.40.25.206|||110000472614|296
9/13/2018 8:00:00 PM||PEGASUS|10.40.26.63|||110000423831|1736
9/13/2018 8:00:00 PM||PEGASUS|10.40.26.64|||110000423831|157
9/13/2018 8:00:00 PM||PEGASUS|10.40.27.67|||110000423831|1280
9/13/2018 8:00:00 PM||PEGASUS|10.40.27.68|||110000423831|306
9/13/2018 8:00:00 PM||PEGASUS|10.40.27.87|||110000423831|280
9/13/2018 8:00:00 PM||PEGASUS|10.40.26.87|||110000423831|303
9/13/2018 8:00:00 PM||BOYNER|10.40.26.95|||101367941673|411
