29.10.2018 23:00:00||AKTİFBANK|10.40.24.172|||110000438458|96
29.10.2018 23:00:00||AKTİFBANK|10.40.25.134|||110000438458|93
29.10.2018 23:00:00||AKTİFBANK|10.40.24.134|||110000438458|94
29.10.2018 23:00:00||AKTİFBANK|10.40.24.135|||110000438458|96
29.10.2018 23:00:00||AKTİFBANK|10.40.25.137|||110000438458|57
29.10.2018 23:00:00||AKTİFBANK|10.40.25.171|||110000438458|12
29.10.2018 23:00:00||AKTİFBANK|10.40.25.172|||110000438458|88
29.10.2018 23:00:00||AKTİFBANK|10.40.25.174|||110000438458|53
29.10.2018 23:00:00||AKTİFBANK|10.40.25.135|||110000438458|93
29.10.2018 23:00:00||AKTİFBANK|10.40.24.137|||110000438458|57
29.10.2018 23:00:00||AKTİFBANK|10.40.24.171|||110000438458|11
29.10.2018 23:00:00||AKTİFBANK|10.40.25.173|||110000438458|93
29.10.2018 23:00:00||AKTİFBANK|10.40.24.173|||110000438458|92
29.10.2018 23:00:00||AKTİFBANK|10.40.24.174|||110000438458|60
29.10.2018 23:00:00||AKTİFBANK|10.40.24.133|||110000438458|82
29.10.2018 23:00:00||AKTİFBANK|10.40.24.138|||110000438458|98
29.10.2018 23:00:00||AKTİFBANK|10.40.24.139|||110000438458|30
29.10.2018 23:00:00||AKTİFBANK|10.40.24.149|||110000438458|110
29.10.2018 23:00:00||AKTİFBANK|10.40.24.150|||110000438458|535
29.10.2018 23:00:00||AKTİFBANK|10.40.24.145|||110000438458|60
29.10.2018 23:00:00||AKTİFBANK|10.40.24.164|||110000438458|230
29.10.2018 23:00:00||AKTİFBANK|10.40.25.133|||110000438458|70
29.10.2018 23:00:00||AKTİFBANK|10.40.24.145|||110000438458|90
29.10.2018 23:00:00||AKTİFBANK|10.40.24.158|||110000438458|80
29.10.2018 23:00:00||AKTİFBANK|10.40.24.164|||110000438458|70
29.10.2018 23:00:00||AKTİFBANK|10.40.25.138|||110000438458|80
29.10.2018 23:00:00||AKTİFBANK|10.40.25.139|||110000438458|10
29.10.2018 23:00:00||AKTİFBANK|10.40.25.140|||110000438458|32
29.10.2018 23:00:00||AKTİFBANK|10.40.25.151|||110000438458|510
29.10.2018 23:00:00||AKTİFBANK|10.40.25.141|||110000438458|100
29.10.2018 23:00:00||AKTİFBANK|10.40.25.141|||110000438458|100
29.10.2018 23:00:00||AKTİFBANK|10.40.25.142|||110000438458|75
29.10.2018 23:00:00||AKTİFBANK|10.40.25.133|||110000438458|110
29.10.2018 23:00:00||AKTİFBANK|10.40.25.149|||110000438458|102
29.10.2018 23:00:00||AKTİFBANK|10.40.25.149|||110000438458|90
29.10.2018 23:00:00||AKTİFBANK|10.40.25.149|||110000438458|88
29.10.2018 23:00:00||AKTİFBANK|10.40.25.140|||110000438458|30
29.10.2018 23:00:00||AKTİFBANK|10.40.25.150|||110000438458|537
29.10.2018 23:00:00||AKTİFBANK|10.40.25.139|||110000438458|170
29.10.2018 23:00:00||AKTİFBANK|10.40.25.139|||110000438458|40
29.10.2018 23:00:00||AKTİFBANK|10.40.25.140|||110000438458|80
29.10.2018 23:00:00||AKTİFBANK|10.40.25.140|||110000438458|70
29.10.2018 23:00:00||AKTİFBANK|10.40.25.140|||110000438458|30
29.10.2018 23:00:00||AKTİFBANK|10.40.25.151|||110000438458|515
29.10.2018 23:00:00||AKTİFBANK|10.40.25.151|||110000438458|498
29.10.2018 23:00:00||AKTİFBANK|10.40.25.141|||110000438458|40
29.10.2018 23:00:00||AKTİFBANK|10.40.25.141|||110000438458|100
29.10.2018 23:00:00||AKTİFBANK|10.40.25.141|||110000438458|80
29.10.2018 23:00:00||AKTİFBANK|10.40.25.142|||110000438458|40
29.10.2018 23:00:00||AKTİFBANK|10.40.25.149|||110000438458|70
29.10.2018 23:00:00||AKTİFBANK|10.40.25.149|||110000438458|110
29.10.2018 23:00:00||AKTİFBANK|10.40.25.149|||110000438458|90
29.10.2018 23:00:00||AKTİFBANK|10.40.25.149|||110000438458|98
29.10.2018 23:00:00||AKTİFBANK|10.40.25.149|||110000438458|100
29.10.2018 23:00:00||AKTİFBANK|10.40.24.139|||110000438458|63
29.10.2018 23:00:00||AKTİFBANK|10.40.25.153|||110000438458|10
29.10.2018 23:00:00||AKTİFBANK|10.40.25.150|||110000438458|555
29.10.2018 23:00:00||AKTİFBANK|10.40.25.153|||110000438458|70
29.10.2018 23:00:00||AKTİFBANK|10.40.25.163|||110000438458|50
29.10.2018 23:00:00||AKTİFBANK|10.40.24.141|||110000438458|63
29.10.2018 23:00:00||AKTİFBANK|10.40.24.151|||110000438458|500
29.10.2018 23:00:00||AKTİFBANK|10.40.25.153|||110000438458|80
29.10.2018 23:00:00||AKTİFBANK|10.40.24.149|||110000438458|82
29.10.2018 23:00:00||AKTİFBANK|10.40.24.141|||110000438458|50
29.10.2018 23:00:00||AKTİFBANK|10.40.25.133|||110000438458|280
29.10.2018 23:00:00||AKTİFBANK|10.40.25.133|||110000438458|90
29.10.2018 23:00:00||AKTİFBANK|10.40.24.149|||110000438458|90
29.10.2018 23:00:00||AKTİFBANK|10.40.24.162|||110000438458|210
29.10.2018 23:00:00||AKTİFBANK|10.40.24.162|||110000438458|30
29.10.2018 23:00:00||AKTİFBANK|10.40.24.162|||110000438458|40
29.10.2018 23:00:00||AKTİFBANK|10.40.25.133|||110000438458|150
29.10.2018 23:00:00||AKTİFBANK|10.40.25.138|||110000438458|130
29.10.2018 23:00:00||AKTİFBANK|10.40.25.149|||110000438458|70
29.10.2018 23:00:00||AKTİFBANK|10.40.25.149|||110000438458|70
29.10.2018 23:00:00||AKTİFBANK|10.40.25.149|||110000438458|30
29.10.2018 23:00:00||AKTİFBANK|10.40.25.149|||110000438458|65
29.10.2018 23:00:00||AKTİFBANK|10.40.25.149|||110000438458|72
29.10.2018 23:00:00||AKTİFBANK|10.40.25.141|||110000438458|100
29.10.2018 23:00:00||AKTİFBANK|10.40.25.149|||110000438458|130
29.10.2018 23:00:00||AKTİFBANK|10.40.25.138|||110000438458|78
29.10.2018 23:00:00||AKTİFBANK|10.40.25.138|||110000438458|75
29.10.2018 23:00:00||AKTİFBANK|10.40.25.139|||110000438458|100
29.10.2018 23:00:00||AKTİFBANK|10.40.24.145|||110000438458|70
29.10.2018 23:00:00||AKTİFBANK|10.40.24.149|||110000438458|160
29.10.2018 23:00:00||AKTİFBANK|10.40.25.138|||110000438458|30
29.10.2018 23:00:00||AKTİFBANK|10.40.25.138|||110000438458|10
29.10.2018 23:00:00||AKTİFBANK|10.40.25.153|||110000438458|60
29.10.2018 23:00:00||AKTİFBANK|10.40.24.150|||110000438458|538
29.10.2018 23:00:00||AKTİFBANK|10.40.25.128|||110000438458|70
29.10.2018 23:00:00||AKTİFBANK|10.40.25.128|||110000438458|90
29.10.2018 23:00:00||AKTİFBANK|10.40.25.128|||110000438458|90
29.10.2018 23:00:00||AKTİFBANK|10.40.25.128|||110000438458|40
29.10.2018 23:00:00||AKTİFBANK|10.40.25.128|||110000438458|50
29.10.2018 23:00:00||AKTİFBANK|10.40.25.129|||110000438458|83
29.10.2018 23:00:00||AKTİFBANK|10.40.25.129|||110000438458|70
29.10.2018 23:00:00||AKTİFBANK|10.40.25.129|||110000438458|130
29.10.2018 23:00:00||AKTİFBANK|10.40.25.129|||110000438458|100
29.10.2018 23:00:00||AKTİFBANK|10.40.25.129|||110000438458|90
29.10.2018 23:00:00||AKTİFBANK|10.40.25.130|||110000438458|70
29.10.2018 23:00:00||AKTİFBANK|10.40.25.130|||110000438458|50
29.10.2018 23:00:00||AKTİFBANK|10.40.25.130|||110000438458|80
29.10.2018 23:00:00||AKTİFBANK|10.40.25.130|||110000438458|40
29.10.2018 23:00:00||AKTİFBANK|10.40.25.130|||110000438458|60
29.10.2018 23:00:00||AKTİFBANK|10.40.25.130|||110000438458|100
29.10.2018 23:00:00||AKTİFBANK|10.40.25.130|||110000438458|90
29.10.2018 23:00:00||AKTİFBANK|10.40.25.131|||110000438458|20
29.10.2018 23:00:00||AKTİFBANK|10.40.25.131|||110000438458|70
29.10.2018 23:00:00||AKTİFBANK|10.40.25.131|||110000438458|100
29.10.2018 23:00:00||AKTİFBANK|10.40.25.131|||110000438458|102
29.10.2018 23:00:00||AKTİFBANK|10.40.25.131|||110000438458|83
29.10.2018 23:00:00||AKTİFBANK|10.40.25.131|||110000438458|82
29.10.2018 23:00:00||AKTİFBANK|10.40.25.131|||110000438458|22
29.10.2018 23:00:00||AKTİFBANK|10.40.25.131|||110000438458|120
29.10.2018 23:00:00||AKTİFBANK|10.40.25.132|||110000438458|62
29.10.2018 23:00:00||AKTİFBANK|10.40.25.132|||110000438458|62
29.10.2018 23:00:00||AKTİFBANK|10.40.25.132|||110000438458|28
29.10.2018 23:00:00||AKTİFBANK|10.40.25.132|||110000438458|80
29.10.2018 23:00:00||AKTİFBANK|10.40.25.132|||110000438458|20
29.10.2018 23:00:00||AKTİFBANK|10.40.25.143|||110000438458|320
29.10.2018 23:00:00||AKTİFBANK|10.40.25.144|||110000438458|80
29.10.2018 23:00:00||AKTİFBANK|10.40.25.144|||110000438458|50
29.10.2018 23:00:00||AKTİFBANK|10.40.25.144|||110000438458|20
29.10.2018 23:00:00||AKTİFBANK|10.40.25.154|||110000438458|10
29.10.2018 23:00:00||AKTİFBANK|10.40.25.154|||110000438458|10
29.10.2018 23:00:00||AKTİFBANK|10.40.25.154|||110000438458|10
29.10.2018 23:00:00||AKTİFBANK|10.40.25.157|||110000438458|70
29.10.2018 23:00:00||AKTİFBANK|10.40.25.157|||110000438458|70
29.10.2018 23:00:00||AKTİFBANK|10.40.25.157|||110000438458|70
29.10.2018 23:00:00||AKTİFBANK|10.40.25.157|||110000438458|80
29.10.2018 23:00:00||AKTİFBANK|10.40.25.157|||110000438458|40
29.10.2018 23:00:00||AKTİFBANK|10.40.25.159|||110000438458|60
29.10.2018 23:00:00||AKTİFBANK|10.40.25.159|||110000438458|10
29.10.2018 23:00:00||AKTİFBANK|10.40.25.159|||110000438458|90
29.10.2018 23:00:00||AKTİFBANK|10.40.25.158|||110000438458|73
29.10.2018 23:00:00||AKTİFBANK|10.40.25.158|||110000438458|55
29.10.2018 23:00:00||AKTİFBANK|10.40.25.158|||110000438458|43
29.10.2018 23:00:00||AKTİFBANK|10.40.25.158|||110000438458|50
29.10.2018 23:00:00||AKTİFBANK|10.40.25.160|||110000438458|90
29.10.2018 23:00:00||AKTİFBANK|10.40.25.161|||110000438458|80
29.10.2018 23:00:00||AKTİFBANK|10.40.25.161|||110000438458|70
29.10.2018 23:00:00||AKTİFBANK|10.40.25.161|||110000438458|52
29.10.2018 23:00:00||AKTİFBANK|10.40.25.145|||110000438458|90
29.10.2018 23:00:00||AKTİFBANK|10.40.25.145|||110000438458|60
29.10.2018 23:00:00||AKTİFBANK|10.40.25.145|||110000438458|60
29.10.2018 23:00:00||AKTİFBANK|10.40.25.145|||110000438458|30
29.10.2018 23:00:00||AKTİFBANK|10.40.25.145|||110000438458|50
29.10.2018 23:00:00||AKTİFBANK|10.40.25.147|||110000438458|90
29.10.2018 23:00:00||AKTİFBANK|10.40.25.162|||110000438458|30
29.10.2018 23:00:00||AKTİFBANK|10.40.25.162|||110000438458|30
29.10.2018 23:00:00||AKTİFBANK|10.40.25.162|||110000438458|60
29.10.2018 23:00:00||AKTİFBANK|10.40.25.164|||110000438458|60
29.10.2018 23:00:00||AKTİFBANK|10.40.25.164|||110000438458|280
29.10.2018 23:00:00||AKTİFBANK|10.40.25.164|||110000438458|50
29.10.2018 23:00:00||AKTİFBANK|10.40.25.164|||110000438458|260
29.10.2018 23:00:00||AKTİFBANK|10.40.25.164|||110000438458|270
29.10.2018 23:00:00||AKTİFBANK|10.40.25.165|||110000438458|110
29.10.2018 23:00:00||AKTİFBANK|10.40.25.165|||110000438458|70
29.10.2018 23:00:00||AKTİFBANK|10.40.25.165|||110000438458|80
29.10.2018 23:00:00||AKTİFBANK|10.40.25.165|||110000438458|102
29.10.2018 23:00:00||AKTİFBANK|10.40.25.166|||110000438458|90
29.10.2018 23:00:00||AKTİFBANK|10.40.25.166|||110000438458|10
29.10.2018 23:00:00||AKTİFBANK|10.40.25.166|||110000438458|10
29.10.2018 23:00:00||AKTİFBANK|10.40.25.166|||110000438458|40
29.10.2018 23:00:00||AKTİFBANK|10.40.25.148|||110000438458|130
29.10.2018 23:00:00||AKTİFBANK|10.40.25.148|||110000438458|50
29.10.2018 23:00:00||AKTİFBANK|10.40.25.148|||110000438458|100
29.10.2018 23:00:00||AKTİFBANK|10.40.25.148|||110000438458|130
29.10.2018 23:00:00||AKTİFBANK|10.40.25.148|||110000438458|90
29.10.2018 23:00:00||AKTİFBANK|10.40.25.148|||110000438458|80
29.10.2018 23:00:00||AKTİFBANK|10.40.25.148|||110000438458|70
29.10.2018 23:00:00||AKTİFBANK|10.40.25.148|||110000438458|50
29.10.2018 23:00:00||AKTİFBANK|10.40.25.148|||110000438458|80
29.10.2018 23:00:00||AKTİFBANK|10.40.25.148|||110000438458|40
29.10.2018 23:00:00||AKTİFBANK|10.40.25.148|||110000438458|100
29.10.2018 23:00:00||AKTİFBANK|10.40.25.148|||110000438458|60
29.10.2018 23:00:00||AKTİFBANK|10.40.25.155|||110000438458|70
29.10.2018 23:00:00||AKTİFBANK|10.40.25.155|||110000438458|90
29.10.2018 23:00:00||AKTİFBANK|10.40.25.155|||110000438458|110
29.10.2018 23:00:00||AKTİFBANK|10.40.25.155|||110000438458|120
29.10.2018 23:00:00||AKTİFBANK|10.40.25.155|||110000438458|110
29.10.2018 23:00:00||AKTİFBANK|10.40.25.156|||110000438458|20
29.10.2018 23:00:00||AKTİFBANK|10.40.25.156|||110000438458|27
29.10.2018 23:00:00||AKTİFBANK|10.40.25.139|||110000438458|70
29.10.2018 23:00:00||AKTİFBANK|10.40.25.139|||110000438458|80
29.10.2018 23:00:00||AKTİFBANK|10.40.25.150|||110000438458|525
29.10.2018 23:00:00||AKTİFBANK|10.40.25.129|||110000438458|85
29.10.2018 23:00:00||AKTİFBANK|10.40.25.129|||110000438458|142
29.10.2018 23:00:00||AKTİFBANK|10.40.25.130|||110000438458|70
29.10.2018 23:00:00||AKTİFBANK|10.40.25.130|||110000438458|130
29.10.2018 23:00:00||AKTİFBANK|10.40.25.130|||110000438458|100
29.10.2018 23:00:00||AKTİFBANK|10.40.25.131|||110000438458|50
29.10.2018 23:00:00||AKTİFBANK|10.40.25.143|||110000438458|60
29.10.2018 23:00:00||AKTİFBANK|10.40.25.143|||110000438458|242
29.10.2018 23:00:00||AKTİFBANK|10.40.25.143|||110000438458|267
29.10.2018 23:00:00||AKTİFBANK|10.40.25.158|||110000438458|107
29.10.2018 23:00:00||AKTİFBANK|10.40.25.160|||110000438458|110
29.10.2018 23:00:00||AKTİFBANK|10.40.25.162|||110000438458|30
29.10.2018 23:00:00||AKTİFBANK|10.40.25.162|||110000438458|40
29.10.2018 23:00:00||AKTİFBANK|10.40.24.140|||110000438458|160
29.10.2018 23:00:00||AKTİFBANK|10.40.24.140|||110000438458|80
29.10.2018 23:00:00||AKTİFBANK|10.40.24.140|||110000438458|40
29.10.2018 23:00:00||AKTİFBANK|10.40.24.140|||110000438458|30
29.10.2018 23:00:00||AKTİFBANK|10.40.24.140|||110000438458|30
29.10.2018 23:00:00||AKTİFBANK|10.40.24.140|||110000438458|28
29.10.2018 23:00:00||AKTİFBANK|10.40.24.149|||110000438458|80
29.10.2018 23:00:00||AKTİFBANK|10.40.24.149|||110000438458|122
29.10.2018 23:00:00||AKTİFBANK|10.40.24.149|||110000438458|92
29.10.2018 23:00:00||AKTİFBANK|10.40.24.149|||110000438458|62
29.10.2018 23:00:00||AKTİFBANK|10.40.24.149|||110000438458|52
29.10.2018 23:00:00||AKTİFBANK|10.40.24.149|||110000438458|142
29.10.2018 23:00:00||AKTİFBANK|10.40.24.149|||110000438458|90
29.10.2018 23:00:00||AKTİFBANK|10.40.24.149|||110000438458|90
29.10.2018 23:00:00||AKTİFBANK|10.40.24.149|||110000438458|105
29.10.2018 23:00:00||AKTİFBANK|10.40.24.149|||110000438458|80
29.10.2018 23:00:00||AKTİFBANK|10.40.24.133|||110000438458|270
29.10.2018 23:00:00||AKTİFBANK|10.40.24.133|||110000438458|143
29.10.2018 23:00:00||AKTİFBANK|10.40.24.133|||110000438458|120
29.10.2018 23:00:00||AKTİFBANK|10.40.24.133|||110000438458|88
29.10.2018 23:00:00||AKTİFBANK|10.40.24.138|||110000438458|110
29.10.2018 23:00:00||AKTİFBANK|10.40.24.138|||110000438458|140
29.10.2018 23:00:00||AKTİFBANK|10.40.24.138|||110000438458|115
29.10.2018 23:00:00||AKTİFBANK|10.40.24.138|||110000438458|32
29.10.2018 23:00:00||AKTİFBANK|10.40.24.138|||110000438458|50
29.10.2018 23:00:00||AKTİFBANK|10.40.24.139|||110000438458|160
29.10.2018 23:00:00||AKTİFBANK|10.40.24.139|||110000438458|90
29.10.2018 23:00:00||AKTİFBANK|10.40.24.139|||110000438458|122
29.10.2018 23:00:00||AKTİFBANK|10.40.24.141|||110000438458|203
29.10.2018 23:00:00||AKTİFBANK|10.40.24.141|||110000438458|102
29.10.2018 23:00:00||AKTİFBANK|10.40.24.141|||110000438458|100
29.10.2018 23:00:00||AKTİFBANK|10.40.24.141|||110000438458|62
29.10.2018 23:00:00||AKTİFBANK|10.40.24.141|||110000438458|80
29.10.2018 23:00:00||AKTİFBANK|10.40.25.152|||110000438458|110
29.10.2018 23:00:00||AKTİFBANK|10.40.25.152|||110000438458|50
29.10.2018 23:00:00||AKTİFBANK|10.40.25.152|||110000438458|140
29.10.2018 23:00:00||AKTİFBANK|10.40.25.152|||110000438458|70
29.10.2018 23:00:00||AKTİFBANK|10.40.25.152|||110000438458|90
29.10.2018 23:00:00||AKTİFBANK|10.40.25.152|||110000438458|160
29.10.2018 23:00:00||AKTİFBANK|10.40.25.152|||110000438458|50
29.10.2018 23:00:00||AKTİFBANK|10.40.25.152|||110000438458|90
29.10.2018 23:00:00||AKTİFBANK|10.40.25.152|||110000438458|30
29.10.2018 23:00:00||AKTİFBANK|10.40.25.152|||110000438458|80
29.10.2018 23:00:00||AKTİFBANK|10.40.25.152|||110000438458|30
29.10.2018 23:00:00||AKTİFBANK|10.40.24.150|||110000438458|555
29.10.2018 23:00:00||AKTİFBANK|10.40.24.151|||110000438458|530
29.10.2018 23:00:00||AKTİFBANK|10.40.24.151|||110000438458|530
29.10.2018 23:00:00||AKTİFBANK|10.40.24.128|||110000438458|60
29.10.2018 23:00:00||AKTİFBANK|10.40.24.128|||110000438458|70
29.10.2018 23:00:00||AKTİFBANK|10.40.24.128|||110000438458|100
29.10.2018 23:00:00||AKTİFBANK|10.40.24.128|||110000438458|40
29.10.2018 23:00:00||AKTİFBANK|10.40.24.128|||110000438458|70
29.10.2018 23:00:00||AKTİFBANK|10.40.24.128|||110000438458|70
29.10.2018 23:00:00||AKTİFBANK|10.40.24.129|||110000438458|100
29.10.2018 23:00:00||AKTİFBANK|10.40.24.129|||110000438458|70
29.10.2018 23:00:00||AKTİFBANK|10.40.24.129|||110000438458|110
29.10.2018 23:00:00||AKTİFBANK|10.40.24.129|||110000438458|120
29.10.2018 23:00:00||AKTİFBANK|10.40.24.129|||110000438458|40
29.10.2018 23:00:00||AKTİFBANK|10.40.24.129|||110000438458|70
29.10.2018 23:00:00||AKTİFBANK|10.40.24.129|||110000438458|70
29.10.2018 23:00:00||AKTİFBANK|10.40.24.129|||110000438458|90
29.10.2018 23:00:00||AKTİFBANK|10.40.24.129|||110000438458|80
29.10.2018 23:00:00||AKTİFBANK|10.40.24.129|||110000438458|140
29.10.2018 23:00:00||AKTİFBANK|10.40.24.130|||110000438458|40
29.10.2018 23:00:00||AKTİFBANK|10.40.24.130|||110000438458|40
29.10.2018 23:00:00||AKTİFBANK|10.40.24.130|||110000438458|65
29.10.2018 23:00:00||AKTİFBANK|10.40.24.130|||110000438458|43
29.10.2018 23:00:00||AKTİFBANK|10.40.24.130|||110000438458|60
29.10.2018 23:00:00||AKTİFBANK|10.40.24.130|||110000438458|80
29.10.2018 23:00:00||AKTİFBANK|10.40.24.130|||110000438458|82
29.10.2018 23:00:00||AKTİFBANK|10.40.24.130|||110000438458|40
29.10.2018 23:00:00||AKTİFBANK|10.40.24.130|||110000438458|130
29.10.2018 23:00:00||AKTİFBANK|10.40.24.130|||110000438458|110
29.10.2018 23:00:00||AKTİFBANK|10.40.24.131|||110000438458|85
29.10.2018 23:00:00||AKTİFBANK|10.40.24.131|||110000438458|90
29.10.2018 23:00:00||AKTİFBANK|10.40.24.131|||110000438458|112
29.10.2018 23:00:00||AKTİFBANK|10.40.24.131|||110000438458|110
29.10.2018 23:00:00||AKTİFBANK|10.40.24.131|||110000438458|22
29.10.2018 23:00:00||AKTİFBANK|10.40.24.131|||110000438458|160
29.10.2018 23:00:00||AKTİFBANK|10.40.24.131|||110000438458|60
29.10.2018 23:00:00||AKTİFBANK|10.40.24.131|||110000438458|110
29.10.2018 23:00:00||AKTİFBANK|10.40.24.132|||110000438458|30
29.10.2018 23:00:00||AKTİFBANK|10.40.24.132|||110000438458|80
29.10.2018 23:00:00||AKTİFBANK|10.40.24.132|||110000438458|50
29.10.2018 23:00:00||AKTİFBANK|10.40.24.132|||110000438458|187
29.10.2018 23:00:00||AKTİFBANK|10.40.24.132|||110000438458|67
29.10.2018 23:00:00||AKTİFBANK|10.40.24.143|||110000438458|70
29.10.2018 23:00:00||AKTİFBANK|10.40.24.143|||110000438458|270
29.10.2018 23:00:00||AKTİFBANK|10.40.24.143|||110000438458|283
29.10.2018 23:00:00||AKTİFBANK|10.40.24.143|||110000438458|220
29.10.2018 23:00:00||AKTİFBANK|10.40.24.144|||110000438458|70
29.10.2018 23:00:00||AKTİFBANK|10.40.24.144|||110000438458|108
29.10.2018 23:00:00||AKTİFBANK|10.40.24.144|||110000438458|132
29.10.2018 23:00:00||AKTİFBANK|10.40.24.148|||110000438458|70
29.10.2018 23:00:00||AKTİFBANK|10.40.24.148|||110000438458|170
29.10.2018 23:00:00||AKTİFBANK|10.40.24.148|||110000438458|90
29.10.2018 23:00:00||AKTİFBANK|10.40.24.148|||110000438458|110
29.10.2018 23:00:00||AKTİFBANK|10.40.24.148|||110000438458|80
29.10.2018 23:00:00||AKTİFBANK|10.40.24.148|||110000438458|90
29.10.2018 23:00:00||AKTİFBANK|10.40.24.148|||110000438458|90
29.10.2018 23:00:00||AKTİFBANK|10.40.24.148|||110000438458|100
29.10.2018 23:00:00||AKTİFBANK|10.40.24.148|||110000438458|90
29.10.2018 23:00:00||AKTİFBANK|10.40.24.148|||110000438458|60
29.10.2018 23:00:00||AKTİFBANK|10.40.24.148|||110000438458|30
29.10.2018 23:00:00||AKTİFBANK|10.40.24.148|||110000438458|80
29.10.2018 23:00:00||AKTİFBANK|10.40.24.153|||110000438458|10
29.10.2018 23:00:00||AKTİFBANK|10.40.24.153|||110000438458|90
29.10.2018 23:00:00||AKTİFBANK|10.40.24.153|||110000438458|70
29.10.2018 23:00:00||AKTİFBANK|10.40.24.153|||110000438458|80
29.10.2018 23:00:00||AKTİFBANK|10.40.24.157|||110000438458|30
29.10.2018 23:00:00||AKTİFBANK|10.40.24.157|||110000438458|70
29.10.2018 23:00:00||AKTİFBANK|10.40.24.157|||110000438458|70
29.10.2018 23:00:00||AKTİFBANK|10.40.24.157|||110000438458|40
29.10.2018 23:00:00||AKTİFBANK|10.40.24.157|||110000438458|80
29.10.2018 23:00:00||AKTİFBANK|10.40.24.157|||110000438458|40
29.10.2018 23:00:00||AKTİFBANK|10.40.24.158|||110000438458|80
29.10.2018 23:00:00||AKTİFBANK|10.40.24.158|||110000438458|110
29.10.2018 23:00:00||AKTİFBANK|10.40.24.159|||110000438458|135
29.10.2018 23:00:00||AKTİFBANK|10.40.24.159|||110000438458|53
29.10.2018 23:00:00||AKTİFBANK|10.40.24.159|||110000438458|182
29.10.2018 23:00:00||AKTİFBANK|10.40.24.160|||110000438458|50
29.10.2018 23:00:00||AKTİFBANK|10.40.24.160|||110000438458|92
29.10.2018 23:00:00||AKTİFBANK|10.40.24.160|||110000438458|100
29.10.2018 23:00:00||AKTİFBANK|10.40.24.161|||110000438458|200
29.10.2018 23:00:00||AKTİFBANK|10.40.24.161|||110000438458|80
29.10.2018 23:00:00||AKTİFBANK|10.40.24.161|||110000438458|40
29.10.2018 23:00:00||AKTİFBANK|10.40.24.161|||110000438458|30
29.10.2018 23:00:00||AKTİFBANK|10.40.24.161|||110000438458|30
29.10.2018 23:00:00||AKTİFBANK|10.40.24.161|||110000438458|20
29.10.2018 23:00:00||AKTİFBANK|10.40.24.161|||110000438458|90
29.10.2018 23:00:00||AKTİFBANK|10.40.24.145|||110000438458|30
29.10.2018 23:00:00||AKTİFBANK|10.40.24.145|||110000438458|70
29.10.2018 23:00:00||AKTİFBANK|10.40.24.145|||110000438458|50
29.10.2018 23:00:00||AKTİFBANK|10.40.24.147|||110000438458|90
29.10.2018 23:00:00||AKTİFBANK|10.40.24.162|||110000438458|40
29.10.2018 23:00:00||AKTİFBANK|10.40.24.162|||110000438458|40
29.10.2018 23:00:00||AKTİFBANK|10.40.24.162|||110000438458|102
29.10.2018 23:00:00||AKTİFBANK|10.40.24.162|||110000438458|10
29.10.2018 23:00:00||AKTİFBANK|10.40.24.162|||110000438458|50
29.10.2018 23:00:00||AKTİFBANK|10.40.24.163|||110000438458|30
29.10.2018 23:00:00||AKTİFBANK|10.40.24.163|||110000438458|70
29.10.2018 23:00:00||AKTİFBANK|10.40.24.164|||110000438458|58
29.10.2018 23:00:00||AKTİFBANK|10.40.24.164|||110000438458|332
29.10.2018 23:00:00||AKTİFBANK|10.40.24.164|||110000438458|210
29.10.2018 23:00:00||AKTİFBANK|10.40.24.165|||110000438458|77
29.10.2018 23:00:00||AKTİFBANK|10.40.24.165|||110000438458|80
29.10.2018 23:00:00||AKTİFBANK|10.40.24.165|||110000438458|50
29.10.2018 23:00:00||AKTİFBANK|10.40.24.165|||110000438458|120
29.10.2018 23:00:00||AKTİFBANK|10.40.24.166|||110000438458|80
29.10.2018 23:00:00||AKTİFBANK|10.40.24.166|||110000438458|90
29.10.2018 23:00:00||AKTİFBANK|10.40.24.166|||110000438458|10
29.10.2018 23:00:00||AKTİFBANK|10.40.25.168|||110000438458|90
29.10.2018 23:00:00||AKTİFBANK|10.40.25.168|||110000438458|70
29.10.2018 23:00:00||AKTİFBANK|10.40.25.168|||110000438458|50
29.10.2018 23:00:00||AKTİFBANK|10.40.25.168|||110000438458|40
29.10.2018 23:00:00||AKTİFBANK|10.40.25.168|||110000438458|60
29.10.2018 23:00:00||AKTİFBANK|10.40.24.168|||110000438458|90
29.10.2018 23:00:00||AKTİFBANK|10.40.24.168|||110000438458|80
29.10.2018 23:00:00||AKTİFBANK|10.40.24.168|||110000438458|70
29.10.2018 23:00:00||AKTİFBANK|10.40.24.168|||110000438458|70
29.10.2018 23:00:00||AKTİFBANK|10.40.24.168|||110000438458|30
29.10.2018 23:00:00||AKTİFBANK|10.40.24.154|||110000438458|70
29.10.2018 23:00:00||AKTİFBANK|10.40.24.154|||110000438458|20
29.10.2018 23:00:00||AKTİFBANK|10.40.24.154|||110000438458|10
29.10.2018 23:00:00||AKTİFBANK|10.40.24.154|||110000438458|10
29.10.2018 23:00:00||AKTİFBANK|10.40.24.154|||110000438458|10
29.10.2018 23:00:00||AKTİFBANK|10.40.24.154|||110000438458|10
29.10.2018 23:00:00||AKTİFBANK|10.40.24.155|||110000438458|58
29.10.2018 23:00:00||AKTİFBANK|10.40.24.155|||110000438458|100
29.10.2018 23:00:00||AKTİFBANK|10.40.24.155|||110000438458|130
29.10.2018 23:00:00||AKTİFBANK|10.40.24.155|||110000438458|80
29.10.2018 23:00:00||AKTİFBANK|10.40.24.155|||110000438458|113
29.10.2018 23:00:00||AKTİFBANK|10.40.24.155|||110000438458|100
29.10.2018 23:00:00||AKTİFBANK|10.40.25.169|||110000438458|83
29.10.2018 23:00:00||AKTİFBANK|10.40.25.169|||110000438458|105
29.10.2018 23:00:00||AKTİFBANK|10.40.25.169|||110000438458|72
29.10.2018 23:00:00||AKTİFBANK|10.40.25.169|||110000438458|78
29.10.2018 23:00:00||AKTİFBANK|10.40.24.169|||110000438458|73
29.10.2018 23:00:00||AKTİFBANK|10.40.24.169|||110000438458|80
29.10.2018 23:00:00||AKTİFBANK|10.40.24.169|||110000438458|75
29.10.2018 23:00:00||AKTİFBANK|10.40.24.169|||110000438458|80
29.10.2018 23:00:00||AKTİFBANK|10.40.25.170|||110000438458|30
29.10.2018 23:00:00||AKTİFBANK|10.40.25.170|||110000438458|30
29.10.2018 23:00:00||AKTİFBANK|10.40.25.170|||110000438458|200
29.10.2018 23:00:00||AKTİFBANK|10.40.25.170|||110000438458|100
29.10.2018 23:00:00||AKTİFBANK|10.40.25.170|||110000438458|80
29.10.2018 23:00:00||AKTİFBANK|10.40.25.170|||110000438458|120
29.10.2018 23:00:00||AKTİFBANK|10.40.24.170|||110000438458|60
29.10.2018 23:00:00||AKTİFBANK|10.40.24.170|||110000438458|60
29.10.2018 23:00:00||AKTİFBANK|10.40.24.170|||110000438458|348
29.10.2018 23:00:00||AKTİFBANK|10.40.24.170|||110000438458|82
29.10.2018 23:00:00||AKTİFBANK|10.40.24.170|||110000438458|100
29.10.2018 23:00:00||AKTİFBANK|10.40.24.170|||110000438458|73
29.10.2018 23:00:00||AKTİFBANK|10.40.25.178|||110000438458|590
29.10.2018 23:00:00||AKTİFBANK|10.40.25.178|||110000438458|560
29.10.2018 23:00:00||AKTİFBANK|10.40.25.178|||110000438458|550
29.10.2018 23:00:00||AKTİFBANK|10.40.24.178|||110000438458|552
29.10.2018 23:00:00||AKTİFBANK|10.40.24.178|||110000438458|540
29.10.2018 23:00:00||AKTİFBANK|10.40.24.178|||110000438458|533
29.10.2018 23:00:00||AKTİFBANK|10.40.25.179|||110000438458|400
29.10.2018 23:00:00||AKTİFBANK|10.40.25.179|||110000438458|362
29.10.2018 23:00:00||AKTİFBANK|10.40.25.179|||110000438458|362
29.10.2018 23:00:00||AKTİFBANK|10.40.24.179|||110000438458|320
29.10.2018 23:00:00||AKTİFBANK|10.40.24.179|||110000438458|330
29.10.2018 23:00:00||AKTİFBANK|10.40.24.179|||110000438458|320
29.10.2018 23:00:00||AKTİFBANK|10.40.24.142|||110000438458|40
29.10.2018 23:00:00||AKTİFBANK|10.40.24.156|||110000438458|50
29.10.2018 23:00:00||AKTİFBANK|10.40.24.156|||110000438458|50
29.10.2018 23:00:00||AKTİFBANK|10.40.25.186|||110000438458|90
29.10.2018 23:00:00||AKTİFBANK|10.40.25.186|||110000438458|20
29.10.2018 23:00:00||AKTİFBANK|10.40.25.186|||110000438458|70
29.10.2018 23:00:00||AKTİFBANK|10.40.24.186|||110000438458|90
29.10.2018 23:00:00||AKTİFBANK|10.40.24.186|||110000438458|30
29.10.2018 23:00:00||AKTİFBANK|10.40.24.186|||110000438458|60
29.10.2018 23:00:00||AKTİFBANK|10.40.24.186|||110000438458|40
29.10.2018 23:00:00||AKTİFBANK|10.40.24.152|||110000438458|10
29.10.2018 23:00:00||AKTİFBANK|10.40.24.152|||110000438458|50
29.10.2018 23:00:00||AKTİFBANK|10.40.24.152|||110000438458|85
29.10.2018 23:00:00||AKTİFBANK|10.40.24.152|||110000438458|90
29.10.2018 23:00:00||AKTİFBANK|10.40.24.152|||110000438458|102
29.10.2018 23:00:00||AKTİFBANK|10.40.24.152|||110000438458|100
29.10.2018 23:00:00||AKTİFBANK|10.40.24.152|||110000438458|265
29.10.2018 23:00:00||AKTİFBANK|10.40.24.152|||110000438458|78
29.10.2018 23:00:00||AKTİFBANK|10.40.24.152|||110000438458|90
29.10.2018 23:00:00||AKTİFBANK|10.40.24.152|||110000438458|30
29.10.2018 23:00:00||AKTİFBANK|10.40.24.152|||110000438458|72
29.10.2018 23:00:00||AKTİFBANK|10.40.24.152|||110000438458|30
29.10.2018 23:00:00||BARİKAT İNTERNET GÜVENLİĞİ|10.40.25.201|||110000479736|113
29.10.2018 23:00:00||BARİKAT İNTERNET GÜVENLİĞİ|10.40.25.201|||110000479736|100
29.10.2018 23:00:00||BARİKAT İNTERNET GÜVENLİĞİ|10.40.24.201|||110000479736|140
29.10.2018 23:00:00||BARİKAT İNTERNET GÜVENLİĞİ|10.40.24.201|||110000479736|100
29.10.2018 23:00:00||BOYNER|10.40.26.100|||101367941673|59
29.10.2018 23:00:00||BOYNER|10.40.26.101|||101367941673|166
29.10.2018 23:00:00||BOYNER|10.40.27.100|||101367941673|52
29.10.2018 23:00:00||BOYNER|10.40.27.101|||101367941673|165
29.10.2018 23:00:00||BOYNER|10.40.27.94|||101367941673|210
29.10.2018 23:00:00||BOYNER|10.40.27.94|||101367941673|90
29.10.2018 23:00:00||BOYNER|10.40.27.94|||101367941673|90
29.10.2018 23:00:00||BOYNER|10.40.27.94|||101367941673|100
29.10.2018 23:00:00||BOYNER|10.40.26.94|||101367941673|90
29.10.2018 23:00:00||BOYNER|10.40.26.94|||101367941673|80
29.10.2018 23:00:00||BOYNER|10.40.26.94|||101367941673|80
29.10.2018 23:00:00||BOYNER|10.40.27.95|||101367941673|138
29.10.2018 23:00:00||BOYNER|10.40.27.95|||101367941673|130
29.10.2018 23:00:00||BOYNER|10.40.27.95|||101367941673|240
29.10.2018 23:00:00||BOYNER|10.40.26.95|||101367941673|130
29.10.2018 23:00:00||BOYNER|10.40.26.95|||101367941673|200
29.10.2018 23:00:00||BOYNER|10.40.26.95|||101367941673|137
29.10.2018 23:00:00||BOYNER|10.40.27.96|||101367941673|60
29.10.2018 23:00:00||BOYNER|10.40.27.96|||101367941673|52
29.10.2018 23:00:00||BOYNER|10.40.27.96|||101367941673|50
29.10.2018 23:00:00||BOYNER|10.40.27.96|||101367941673|40
29.10.2018 23:00:00||BOYNER|10.40.27.96|||101367941673|40
29.10.2018 23:00:00||BOYNER|10.40.27.96|||101367941673|145
29.10.2018 23:00:00||BOYNER|10.40.27.96|||101367941673|150
29.10.2018 23:00:00||BOYNER|10.40.27.96|||101367941673|177
29.10.2018 23:00:00||BOYNER|10.40.27.96|||101367941673|168
29.10.2018 23:00:00||BOYNER|10.40.26.96|||101367941673|30
29.10.2018 23:00:00||BOYNER|10.40.26.96|||101367941673|42
29.10.2018 23:00:00||BOYNER|10.40.26.96|||101367941673|30
29.10.2018 23:00:00||BOYNER|10.40.26.96|||101367941673|40
29.10.2018 23:00:00||BOYNER|10.40.26.96|||101367941673|40
29.10.2018 23:00:00||BOYNER|10.40.26.96|||101367941673|50
29.10.2018 23:00:00||BOYNER|10.40.26.96|||101367941673|190
29.10.2018 23:00:00||BOYNER|10.40.26.96|||101367941673|200
29.10.2018 23:00:00||BOYNER|10.40.26.96|||101367941673|163
29.10.2018 23:00:00||BOYNER|10.40.26.96|||101367941673|185
29.10.2018 23:00:00||BOYNER|10.40.27.97|||101367941673|60
29.10.2018 23:00:00||BOYNER|10.40.27.97|||101367941673|648
29.10.2018 23:00:00||BOYNER|10.40.27.97|||101367941673|650
29.10.2018 23:00:00||BOYNER|10.40.27.97|||101367941673|685
29.10.2018 23:00:00||BOYNER|10.40.27.97|||101367941673|40
29.10.2018 23:00:00||BOYNER|10.40.27.97|||101367941673|30
29.10.2018 23:00:00||BOYNER|10.40.27.97|||101367941673|52
29.10.2018 23:00:00||BOYNER|10.40.27.97|||101367941673|30
29.10.2018 23:00:00||BOYNER|10.40.27.97|||101367941673|170
29.10.2018 23:00:00||BOYNER|10.40.27.97|||101367941673|177
29.10.2018 23:00:00||BOYNER|10.40.27.97|||101367941673|182
29.10.2018 23:00:00||BOYNER|10.40.27.97|||101367941673|190
29.10.2018 23:00:00||BOYNER|10.40.26.97|||101367941673|30
29.10.2018 23:00:00||BOYNER|10.40.26.97|||101367941673|645
29.10.2018 23:00:00||BOYNER|10.40.26.97|||101367941673|645
29.10.2018 23:00:00||BOYNER|10.40.26.97|||101367941673|647
29.10.2018 23:00:00||BOYNER|10.40.26.97|||101367941673|33
29.10.2018 23:00:00||BOYNER|10.40.26.97|||101367941673|40
29.10.2018 23:00:00||BOYNER|10.40.26.97|||101367941673|50
29.10.2018 23:00:00||BOYNER|10.40.26.97|||101367941673|60
29.10.2018 23:00:00||BOYNER|10.40.26.97|||101367941673|30
29.10.2018 23:00:00||BOYNER|10.40.26.97|||101367941673|158
29.10.2018 23:00:00||BOYNER|10.40.26.97|||101367941673|175
29.10.2018 23:00:00||BOYNER|10.40.26.97|||101367941673|167
29.10.2018 23:00:00||BOYNER|10.40.26.97|||101367941673|152
29.10.2018 23:00:00||BOYNER|10.40.27.99|||101367941673|130
29.10.2018 23:00:00||BOYNER|10.40.27.99|||101367941673|87
29.10.2018 23:00:00||BOYNER|10.40.27.99|||101367941673|82
29.10.2018 23:00:00||BOYNER|10.40.26.99|||101367941673|13
29.10.2018 23:00:00||BOYNER|10.40.26.99|||101367941673|108
29.10.2018 23:00:00||BOYNER|10.40.26.99|||101367941673|97
29.10.2018 23:00:00||BOYNER|10.40.26.99|||101367941673|80
29.10.2018 23:00:00||ÇALIK HOLDİNG|10.40.24.118|||110000438407|43
29.10.2018 23:00:00||ÇALIK HOLDİNG|10.40.25.99|||110000438407|137
29.10.2018 23:00:00||ÇALIK HOLDİNG|10.40.25.118|||110000438407|160
29.10.2018 23:00:00||ÇALIK HOLDİNG|10.40.25.120|||110000438407|90
29.10.2018 23:00:00||ÇALIK HOLDİNG|10.40.24.95|||110000438407|48
29.10.2018 23:00:00||ÇALIK HOLDİNG|10.40.25.97|||110000438407|80
29.10.2018 23:00:00||ÇALIK HOLDİNG|10.40.25.103|||110000438407|90
29.10.2018 23:00:00||ÇALIK HOLDİNG|10.40.25.120|||110000438407|40
29.10.2018 23:00:00||ÇALIK HOLDİNG|10.40.25.96|||110000438407|70
29.10.2018 23:00:00||ÇALIK HOLDİNG|10.40.25.96|||110000438407|90
29.10.2018 23:00:00||ÇALIK HOLDİNG|10.40.25.96|||110000438407|120
29.10.2018 23:00:00||ÇALIK HOLDİNG|10.40.25.96|||110000438407|90
29.10.2018 23:00:00||ÇALIK HOLDİNG|10.40.25.115|||110000438407|170
29.10.2018 23:00:00||ÇALIK HOLDİNG|10.40.25.115|||110000438407|77
29.10.2018 23:00:00||ÇALIK HOLDİNG|10.40.25.95|||110000438407|95
29.10.2018 23:00:00||ÇALIK HOLDİNG|10.40.25.96|||110000438407|90
29.10.2018 23:00:00||ÇALIK HOLDİNG|10.40.25.96|||110000438407|100
29.10.2018 23:00:00||ÇALIK HOLDİNG|10.40.25.120|||110000438407|20
29.10.2018 23:00:00||ÇALIK HOLDİNG|10.40.25.95|||110000438407|53
29.10.2018 23:00:00||ÇALIK HOLDİNG|10.40.24.94|||110000438407|180
29.10.2018 23:00:00||ÇALIK HOLDİNG|10.40.25.97|||110000438407|102
29.10.2018 23:00:00||ÇALIK HOLDİNG|10.40.25.120|||110000438407|60
29.10.2018 23:00:00||ÇALIK HOLDİNG|10.40.25.115|||110000438407|87
29.10.2018 23:00:00||ÇALIK HOLDİNG|10.40.25.115|||110000438407|73
29.10.2018 23:00:00||ÇALIK HOLDİNG|10.40.25.115|||110000438407|70
29.10.2018 23:00:00||ÇALIK HOLDİNG|10.40.25.101|||110000438407|50
29.10.2018 23:00:00||ÇALIK HOLDİNG|10.40.25.101|||110000438407|110
29.10.2018 23:00:00||ÇALIK HOLDİNG|10.40.25.101|||110000438407|30
29.10.2018 23:00:00||ÇALIK HOLDİNG|10.40.25.101|||110000438407|10
29.10.2018 23:00:00||ÇALIK HOLDİNG|10.40.25.101|||110000438407|90
29.10.2018 23:00:00||ÇALIK HOLDİNG|10.40.25.101|||110000438407|30
29.10.2018 23:00:00||ÇALIK HOLDİNG|10.40.25.101|||110000438407|40
29.10.2018 23:00:00||ÇALIK HOLDİNG|10.40.25.101|||110000438407|40
29.10.2018 23:00:00||ÇALIK HOLDİNG|10.40.25.101|||110000438407|90
29.10.2018 23:00:00||ÇALIK HOLDİNG|10.40.25.101|||110000438407|90
29.10.2018 23:00:00||ÇALIK HOLDİNG|10.40.25.101|||110000438407|90
29.10.2018 23:00:00||ÇALIK HOLDİNG|10.40.25.94|||110000438407|180
29.10.2018 23:00:00||ÇALIK HOLDİNG|10.40.25.94|||110000438407|180
29.10.2018 23:00:00||ÇALIK HOLDİNG|10.40.25.94|||110000438407|170
29.10.2018 23:00:00||ÇALIK HOLDİNG|10.40.25.94|||110000438407|180
29.10.2018 23:00:00||ÇALIK HOLDİNG|10.40.24.94|||110000438407|192
29.10.2018 23:00:00||ÇALIK HOLDİNG|10.40.24.94|||110000438407|187
29.10.2018 23:00:00||ÇALIK HOLDİNG|10.40.24.94|||110000438407|193
29.10.2018 23:00:00||ÇALIK HOLDİNG|10.40.25.95|||110000438407|20
29.10.2018 23:00:00||ÇALIK HOLDİNG|10.40.25.95|||110000438407|342
29.10.2018 23:00:00||ÇALIK HOLDİNG|10.40.25.95|||110000438407|352
29.10.2018 23:00:00||ÇALIK HOLDİNG|10.40.25.95|||110000438407|40
29.10.2018 23:00:00||ÇALIK HOLDİNG|10.40.24.95|||110000438407|102
29.10.2018 23:00:00||ÇALIK HOLDİNG|10.40.24.95|||110000438407|90
29.10.2018 23:00:00||ÇALIK HOLDİNG|10.40.24.95|||110000438407|377
29.10.2018 23:00:00||ÇALIK HOLDİNG|10.40.24.95|||110000438407|390
29.10.2018 23:00:00||ÇALIK HOLDİNG|10.40.25.96|||110000438407|90
29.10.2018 23:00:00||ÇALIK HOLDİNG|10.40.25.96|||110000438407|100
29.10.2018 23:00:00||ÇALIK HOLDİNG|10.40.25.96|||110000438407|100
29.10.2018 23:00:00||ÇALIK HOLDİNG|10.40.25.96|||110000438407|258
29.10.2018 23:00:00||ÇALIK HOLDİNG|10.40.25.96|||110000438407|263
29.10.2018 23:00:00||ÇALIK HOLDİNG|10.40.25.96|||110000438407|100
29.10.2018 23:00:00||ÇALIK HOLDİNG|10.40.25.96|||110000438407|90
29.10.2018 23:00:00||ÇALIK HOLDİNG|10.40.25.96|||110000438407|93
29.10.2018 23:00:00||ÇALIK HOLDİNG|10.40.25.97|||110000438407|90
29.10.2018 23:00:00||ÇALIK HOLDİNG|10.40.25.97|||110000438407|80
29.10.2018 23:00:00||ÇALIK HOLDİNG|10.40.25.97|||110000438407|297
29.10.2018 23:00:00||ÇALIK HOLDİNG|10.40.25.98|||110000438407|50
29.10.2018 23:00:00||ÇALIK HOLDİNG|10.40.25.98|||110000438407|163
29.10.2018 23:00:00||ÇALIK HOLDİNG|10.40.25.98|||110000438407|160
29.10.2018 23:00:00||ÇALIK HOLDİNG|10.40.25.98|||110000438407|168
29.10.2018 23:00:00||ÇALIK HOLDİNG|10.40.25.98|||110000438407|168
29.10.2018 23:00:00||ÇALIK HOLDİNG|10.40.25.98|||110000438407|60
29.10.2018 23:00:00||ÇALIK HOLDİNG|10.40.25.98|||110000438407|210
29.10.2018 23:00:00||ÇALIK HOLDİNG|10.40.25.98|||110000438407|180
29.10.2018 23:00:00||ÇALIK HOLDİNG|10.40.25.98|||110000438407|170
29.10.2018 23:00:00||ÇALIK HOLDİNG|10.40.25.98|||110000438407|210
29.10.2018 23:00:00||ÇALIK HOLDİNG|10.40.25.98|||110000438407|70
29.10.2018 23:00:00||ÇALIK HOLDİNG|10.40.25.98|||110000438407|338
29.10.2018 23:00:00||ÇALIK HOLDİNG|10.40.24.98|||110000438407|90
29.10.2018 23:00:00||ÇALIK HOLDİNG|10.40.24.98|||110000438407|153
29.10.2018 23:00:00||ÇALIK HOLDİNG|10.40.24.98|||110000438407|200
29.10.2018 23:00:00||ÇALIK HOLDİNG|10.40.24.98|||110000438407|200
29.10.2018 23:00:00||ÇALIK HOLDİNG|10.40.24.98|||110000438407|160
29.10.2018 23:00:00||ÇALIK HOLDİNG|10.40.24.98|||110000438407|32
29.10.2018 23:00:00||ÇALIK HOLDİNG|10.40.24.98|||110000438407|160
29.10.2018 23:00:00||ÇALIK HOLDİNG|10.40.24.98|||110000438407|188
29.10.2018 23:00:00||ÇALIK HOLDİNG|10.40.24.98|||110000438407|170
29.10.2018 23:00:00||ÇALIK HOLDİNG|10.40.24.98|||110000438407|175
29.10.2018 23:00:00||ÇALIK HOLDİNG|10.40.24.98|||110000438407|20
29.10.2018 23:00:00||ÇALIK HOLDİNG|10.40.24.98|||110000438407|308
29.10.2018 23:00:00||ÇALIK HOLDİNG|10.40.25.100|||110000438407|33
29.10.2018 23:00:00||ÇALIK HOLDİNG|10.40.25.100|||110000438407|40
29.10.2018 23:00:00||ÇALIK HOLDİNG|10.40.24.101|||110000438407|60
29.10.2018 23:00:00||ÇALIK HOLDİNG|10.40.24.101|||110000438407|110
29.10.2018 23:00:00||ÇALIK HOLDİNG|10.40.24.101|||110000438407|20
29.10.2018 23:00:00||ÇALIK HOLDİNG|10.40.24.101|||110000438407|20
29.10.2018 23:00:00||ÇALIK HOLDİNG|10.40.24.101|||110000438407|43
29.10.2018 23:00:00||ÇALIK HOLDİNG|10.40.24.101|||110000438407|85
29.10.2018 23:00:00||ÇALIK HOLDİNG|10.40.24.101|||110000438407|30
29.10.2018 23:00:00||ÇALIK HOLDİNG|10.40.24.101|||110000438407|10
29.10.2018 23:00:00||ÇALIK HOLDİNG|10.40.24.101|||110000438407|20
29.10.2018 23:00:00||ÇALIK HOLDİNG|10.40.24.101|||110000438407|50
29.10.2018 23:00:00||ÇALIK HOLDİNG|10.40.24.101|||110000438407|30
29.10.2018 23:00:00||ÇALIK HOLDİNG|10.40.24.101|||110000438407|80
29.10.2018 23:00:00||ÇALIK HOLDİNG|10.40.24.101|||110000438407|80
29.10.2018 23:00:00||ÇALIK HOLDİNG|10.40.24.101|||110000438407|90
29.10.2018 23:00:00||ÇALIK HOLDİNG|10.40.24.101|||110000438407|2
29.10.2018 23:00:00||ÇALIK HOLDİNG|10.40.25.102|||110000438407|100
29.10.2018 23:00:00||ÇALIK HOLDİNG|10.40.25.102|||110000438407|90
29.10.2018 23:00:00||ÇALIK HOLDİNG|10.40.25.102|||110000438407|150
29.10.2018 23:00:00||ÇALIK HOLDİNG|10.40.24.102|||110000438407|100
29.10.2018 23:00:00||ÇALIK HOLDİNG|10.40.24.102|||110000438407|90
29.10.2018 23:00:00||ÇALIK HOLDİNG|10.40.24.102|||110000438407|140
29.10.2018 23:00:00||ÇALIK HOLDİNG|10.40.25.103|||110000438407|90
29.10.2018 23:00:00||ÇALIK HOLDİNG|10.40.25.103|||110000438407|80
29.10.2018 23:00:00||ÇALIK HOLDİNG|10.40.25.103|||110000438407|10
29.10.2018 23:00:00||ÇALIK HOLDİNG|10.40.25.115|||110000438407|90
29.10.2018 23:00:00||ÇALIK HOLDİNG|10.40.24.103|||110000438407|97
29.10.2018 23:00:00||ÇALIK HOLDİNG|10.40.24.103|||110000438407|80
29.10.2018 23:00:00||ÇALIK HOLDİNG|10.40.24.103|||110000438407|80
29.10.2018 23:00:00||ÇALIK HOLDİNG|10.40.24.103|||110000438407|20
29.10.2018 23:00:00||ÇALIK HOLDİNG|10.40.24.103|||110000438407|10
29.10.2018 23:00:00||ÇALIK HOLDİNG|10.40.25.113|||110000438407|218
29.10.2018 23:00:00||ÇALIK HOLDİNG|10.40.25.113|||110000438407|232
29.10.2018 23:00:00||ÇALIK HOLDİNG|10.40.25.113|||110000438407|183
29.10.2018 23:00:00||ÇALIK HOLDİNG|10.40.25.113|||110000438407|190
29.10.2018 23:00:00||ÇALIK HOLDİNG|10.40.24.113|||110000438407|220
29.10.2018 23:00:00||ÇALIK HOLDİNG|10.40.24.113|||110000438407|217
29.10.2018 23:00:00||ÇALIK HOLDİNG|10.40.24.113|||110000438407|180
29.10.2018 23:00:00||ÇALIK HOLDİNG|10.40.24.113|||110000438407|142
29.10.2018 23:00:00||ÇALIK HOLDİNG|10.40.25.114|||110000438407|173
29.10.2018 23:00:00||ÇALIK HOLDİNG|10.40.25.114|||110000438407|422
29.10.2018 23:00:00||ÇALIK HOLDİNG|10.40.25.114|||110000438407|40
29.10.2018 23:00:00||ÇALIK HOLDİNG|10.40.24.114|||110000438407|20
29.10.2018 23:00:00||ÇALIK HOLDİNG|10.40.24.114|||110000438407|40
29.10.2018 23:00:00||ÇALIK HOLDİNG|10.40.24.114|||110000438407|177
29.10.2018 23:00:00||ÇALIK HOLDİNG|10.40.24.114|||110000438407|377
29.10.2018 23:00:00||ÇALIK HOLDİNG|10.40.24.115|||110000438407|170
29.10.2018 23:00:00||ÇALIK HOLDİNG|10.40.24.115|||110000438407|80
29.10.2018 23:00:00||ÇALIK HOLDİNG|10.40.24.115|||110000438407|90
29.10.2018 23:00:00||ÇALIK HOLDİNG|10.40.24.115|||110000438407|80
29.10.2018 23:00:00||ÇALIK HOLDİNG|10.40.24.115|||110000438407|90
29.10.2018 23:00:00||ÇALIK HOLDİNG|10.40.24.115|||110000438407|70
29.10.2018 23:00:00||ÇALIK HOLDİNG|10.40.25.116|||110000438407|105
29.10.2018 23:00:00||ÇALIK HOLDİNG|10.40.25.116|||110000438407|100
29.10.2018 23:00:00||ÇALIK HOLDİNG|10.40.25.116|||110000438407|297
29.10.2018 23:00:00||ÇALIK HOLDİNG|10.40.24.116|||110000438407|280
29.10.2018 23:00:00||ÇALIK HOLDİNG|10.40.24.116|||110000438407|100
29.10.2018 23:00:00||ÇALIK HOLDİNG|10.40.24.116|||110000438407|100
29.10.2018 23:00:00||ÇALIK HOLDİNG|10.40.25.117|||110000438407|250
29.10.2018 23:00:00||ÇALIK HOLDİNG|10.40.25.117|||110000438407|30
29.10.2018 23:00:00||ÇALIK HOLDİNG|10.40.25.117|||110000438407|27
29.10.2018 23:00:00||ÇALIK HOLDİNG|10.40.25.119|||110000438407|30
29.10.2018 23:00:00||ÇALIK HOLDİNG|10.40.25.119|||110000438407|30
29.10.2018 23:00:00||ÇALIK HOLDİNG|10.40.24.119|||110000438407|150
29.10.2018 23:00:00||ÇALIK HOLDİNG|10.40.24.119|||110000438407|30
29.10.2018 23:00:00||ÇALIK HOLDİNG|10.40.24.119|||110000438407|50
29.10.2018 23:00:00||ÇALIK HOLDİNG|10.40.25.120|||110000438407|107
29.10.2018 23:00:00||ÇALIK HOLDİNG|10.40.25.120|||110000438407|50
29.10.2018 23:00:00||ÇALIK HOLDİNG|10.40.25.120|||110000438407|20
29.10.2018 23:00:00||ÇALIK HOLDİNG|10.40.25.120|||110000438407|20
29.10.2018 23:00:00||ÇALIK HOLDİNG|10.40.25.120|||110000438407|30
29.10.2018 23:00:00||ÇALIK HOLDİNG|10.40.25.120|||110000438407|90
29.10.2018 23:00:00||ÇALIK HOLDİNG|10.40.25.120|||110000438407|90
29.10.2018 23:00:00||ÇALIK HOLDİNG|10.40.24.120|||110000438407|20
29.10.2018 23:00:00||ÇALIK HOLDİNG|10.40.24.120|||110000438407|33
29.10.2018 23:00:00||ÇALIK HOLDİNG|10.40.24.120|||110000438407|110
29.10.2018 23:00:00||ÇALIK HOLDİNG|10.40.24.120|||110000438407|100
29.10.2018 23:00:00||ÇALIK HOLDİNG|10.40.24.120|||110000438407|40
29.10.2018 23:00:00||ÇALIK HOLDİNG|10.40.24.120|||110000438407|80
29.10.2018 23:00:00||ÇALIK HOLDİNG|10.40.24.120|||110000438407|80
29.10.2018 23:00:00||ÇALIK HOLDİNG|10.40.24.120|||110000438407|70
29.10.2018 23:00:00||ÇALIK HOLDİNG|10.40.25.121|||110000438407|90
29.10.2018 23:00:00||ÇALIK HOLDİNG|10.40.25.121|||110000438407|102
29.10.2018 23:00:00||ÇALIK HOLDİNG|10.40.25.121|||110000438407|150
29.10.2018 23:00:00||ÇALIK HOLDİNG|10.40.24.121|||110000438407|100
29.10.2018 23:00:00||ÇALIK HOLDİNG|10.40.24.121|||110000438407|100
29.10.2018 23:00:00||ÇALIK HOLDİNG|10.40.24.121|||110000438407|140
29.10.2018 23:00:00||ÇALIK HOLDİNG|10.40.25.122|||110000438407|90
29.10.2018 23:00:00||ÇALIK HOLDİNG|10.40.25.122|||110000438407|80
29.10.2018 23:00:00||ÇALIK HOLDİNG|10.40.25.122|||110000438407|80
29.10.2018 23:00:00||ÇALIK HOLDİNG|10.40.25.122|||110000438407|30
29.10.2018 23:00:00||ÇALIK HOLDİNG|10.40.25.122|||110000438407|10
29.10.2018 23:00:00||ÇALIK HOLDİNG|10.40.24.122|||110000438407|90
29.10.2018 23:00:00||ÇALIK HOLDİNG|10.40.24.122|||110000438407|80
29.10.2018 23:00:00||ÇALIK HOLDİNG|10.40.24.122|||110000438407|87
29.10.2018 23:00:00||ÇALIK HOLDİNG|10.40.24.117|||110000438407|200
29.10.2018 23:00:00||ÇALIK HOLDİNG|10.40.24.117|||110000438407|30
29.10.2018 23:00:00||ÇALIK HOLDİNG|10.40.24.117|||110000438407|30
29.10.2018 23:00:00||ÇALIK HOLDİNG|10.40.24.97|||110000438407|102
29.10.2018 23:00:00||ÇALIK HOLDİNG|10.40.24.97|||110000438407|90
29.10.2018 23:00:00||ÇALIK HOLDİNG|10.40.24.97|||110000438407|80
29.10.2018 23:00:00||ÇALIK HOLDİNG|10.40.24.97|||110000438407|90
29.10.2018 23:00:00||ÇALIK HOLDİNG|10.40.24.97|||110000438407|308
29.10.2018 23:00:00||ÇALIK HOLDİNG|10.40.24.100|||110000438407|30
29.10.2018 23:00:00||ÇALIK HOLDİNG|10.40.24.100|||110000438407|40
29.10.2018 23:00:00||FIBABANKA|10.40.27.54|||101571767266|309
29.10.2018 23:00:00||FIBABANKA|10.40.26.54|||101571767266|317
29.10.2018 23:00:00||FIBABANKA|10.40.27.55|||101571767266|104
29.10.2018 23:00:00||FIBABANKA|10.40.26.55|||101571767266|103
29.10.2018 23:00:00||FIBABANKA|10.40.24.55|||101571767266|112
29.10.2018 23:00:00||FIBABANKA|10.40.25.56|||101571767266|197
29.10.2018 23:00:00||FIBABANKA|10.40.25.54|||101571767266|330
29.10.2018 23:00:00||FIBABANKA|10.40.24.54|||101571767266|317
29.10.2018 23:00:00||FIBABANKA|10.40.25.55|||101571767266|111
29.10.2018 23:00:00||FIBABANKA|10.40.24.56|||101571767266|196
29.10.2018 23:00:00||FIBABANKA|10.40.26.53|||101571767266|40
29.10.2018 23:00:00||FIBABANKA|10.40.26.53|||101571767266|155
29.10.2018 23:00:00||FIBABANKA|10.40.25.57|||101571767266|90
29.10.2018 23:00:00||FIBABANKA|10.40.27.60|||101571767266|50
29.10.2018 23:00:00||FIBABANKA|10.40.25.76|||101571767266|10
29.10.2018 23:00:00||FIBABANKA|10.40.27.53|||101571767266|157
29.10.2018 23:00:00||FIBABANKA|10.40.27.53|||101571767266|165
29.10.2018 23:00:00||FIBABANKA|10.40.26.53|||101571767266|153
29.10.2018 23:00:00||FIBABANKA|10.40.27.57|||101571767266|88
29.10.2018 23:00:00||FIBABANKA|10.40.27.57|||101571767266|80
29.10.2018 23:00:00||FIBABANKA|10.40.27.57|||101571767266|80
29.10.2018 23:00:00||FIBABANKA|10.40.26.60|||101571767266|10
29.10.2018 23:00:00||FIBABANKA|10.40.25.57|||101571767266|90
29.10.2018 23:00:00||FIBABANKA|10.40.25.57|||101571767266|90
29.10.2018 23:00:00||FIBABANKA|10.40.25.57|||101571767266|90
29.10.2018 23:00:00||FIBABANKA|10.40.25.57|||101571767266|90
29.10.2018 23:00:00||FIBABANKA|10.40.25.57|||101571767266|62
29.10.2018 23:00:00||FIBABANKA|10.40.25.57|||101571767266|102
29.10.2018 23:00:00||FIBABANKA|10.40.25.57|||101571767266|80
29.10.2018 23:00:00||FIBABANKA|10.40.24.57|||101571767266|97
29.10.2018 23:00:00||FIBABANKA|10.40.24.57|||101571767266|70
29.10.2018 23:00:00||FIBABANKA|10.40.24.57|||101571767266|73
29.10.2018 23:00:00||FIBABANKA|10.40.26.51|||101571767266|20
29.10.2018 23:00:00||FIBABANKA|10.40.27.52|||101571767266|50
29.10.2018 23:00:00||FIBABANKA|10.40.27.52|||101571767266|60
29.10.2018 23:00:00||FIBABANKA|10.40.27.52|||101571767266|70
29.10.2018 23:00:00||FIBABANKA|10.40.27.73|||101571767266|10
29.10.2018 23:00:00||FIBABANKA|10.40.27.74|||101571767266|168
29.10.2018 23:00:00||FIBABANKA|10.40.27.60|||101571767266|90
29.10.2018 23:00:00||FIBABANKA|10.40.26.60|||101571767266|110
29.10.2018 23:00:00||FIBABANKA|10.40.26.60|||101571767266|142
29.10.2018 23:00:00||FIBABANKA|10.40.26.60|||101571767266|28
29.10.2018 23:00:00||FIBABANKA|10.40.25.53|||101571767266|30
29.10.2018 23:00:00||FIBABANKA|10.40.25.53|||101571767266|50
29.10.2018 23:00:00||FIBABANKA|10.40.27.60|||101571767266|50
29.10.2018 23:00:00||FIBABANKA|10.40.27.60|||101571767266|217
29.10.2018 23:00:00||FIBABANKA|10.40.27.60|||101571767266|238
29.10.2018 23:00:00||FIBABANKA|10.40.27.60|||101571767266|48
29.10.2018 23:00:00||FIBABANKA|10.40.27.60|||101571767266|160
29.10.2018 23:00:00||FIBABANKA|10.40.27.60|||101571767266|10
29.10.2018 23:00:00||FIBABANKA|10.40.27.53|||101571767266|60
29.10.2018 23:00:00||FIBABANKA|10.40.26.53|||101571767266|70
29.10.2018 23:00:00||FIBABANKA|10.40.26.53|||101571767266|62
29.10.2018 23:00:00||FIBABANKA|10.40.27.57|||101571767266|80
29.10.2018 23:00:00||FIBABANKA|10.40.25.51|||101571767266|20
29.10.2018 23:00:00||FIBABANKA|10.40.25.51|||101571767266|110
29.10.2018 23:00:00||FIBABANKA|10.40.24.51|||101571767266|20
29.10.2018 23:00:00||FIBABANKA|10.40.24.51|||101571767266|70
29.10.2018 23:00:00||FIBABANKA|10.40.24.51|||101571767266|100
29.10.2018 23:00:00||FIBABANKA|10.40.24.51|||101571767266|140
29.10.2018 23:00:00||FIBABANKA|10.40.24.51|||101571767266|30
29.10.2018 23:00:00||FIBABANKA|10.40.24.57|||101571767266|70
29.10.2018 23:00:00||FIBABANKA|10.40.24.57|||101571767266|90
29.10.2018 23:00:00||FIBABANKA|10.40.24.57|||101571767266|80
29.10.2018 23:00:00||FIBABANKA|10.40.24.57|||101571767266|80
29.10.2018 23:00:00||FIBABANKA|10.40.24.57|||101571767266|70
29.10.2018 23:00:00||FIBABANKA|10.40.24.52|||101571767266|30
29.10.2018 23:00:00||FIBABANKA|10.40.24.52|||101571767266|40
29.10.2018 23:00:00||FIBABANKA|10.40.24.52|||101571767266|20
29.10.2018 23:00:00||FIBABANKA|10.40.26.73|||101571767266|40
29.10.2018 23:00:00||FIBABANKA|10.40.27.53|||101571767266|70
29.10.2018 23:00:00||FIBABANKA|10.40.26.51|||101571767266|70
29.10.2018 23:00:00||FIBABANKA|10.40.26.52|||101571767266|30
29.10.2018 23:00:00||FIBABANKA|10.40.26.52|||101571767266|90
29.10.2018 23:00:00||FIBABANKA|10.40.26.52|||101571767266|30
29.10.2018 23:00:00||FIBABANKA|10.40.26.60|||101571767266|10
29.10.2018 23:00:00||FIBABANKA|10.40.26.60|||101571767266|10
29.10.2018 23:00:00||FIBABANKA|10.40.26.60|||101571767266|10
29.10.2018 23:00:00||FIBABANKA|10.40.26.60|||101571767266|232
29.10.2018 23:00:00||FIBABANKA|10.40.25.51|||101571767266|140
29.10.2018 23:00:00||FIBABANKA|10.40.25.51|||101571767266|40
29.10.2018 23:00:00||FIBABANKA|10.40.25.51|||101571767266|40
29.10.2018 23:00:00||FIBABANKA|10.40.25.51|||101571767266|70
29.10.2018 23:00:00||FIBABANKA|10.40.24.51|||101571767266|30
29.10.2018 23:00:00||FIBABANKA|10.40.25.59|||101571767266|70
29.10.2018 23:00:00||FIBABANKA|10.40.25.59|||101571767266|90
29.10.2018 23:00:00||FIBABANKA|10.40.25.59|||101571767266|90
29.10.2018 23:00:00||FIBABANKA|10.40.25.59|||101571767266|40
29.10.2018 23:00:00||FIBABANKA|10.40.25.59|||101571767266|120
29.10.2018 23:00:00||FIBABANKA|10.40.25.59|||101571767266|60
29.10.2018 23:00:00||FIBABANKA|10.40.25.59|||101571767266|50
29.10.2018 23:00:00||FIBABANKA|10.40.25.59|||101571767266|140
29.10.2018 23:00:00||FIBABANKA|10.40.25.59|||101571767266|50
29.10.2018 23:00:00||FIBABANKA|10.40.24.59|||101571767266|70
29.10.2018 23:00:00||FIBABANKA|10.40.24.59|||101571767266|128
29.10.2018 23:00:00||FIBABANKA|10.40.24.59|||101571767266|58
29.10.2018 23:00:00||FIBABANKA|10.40.24.59|||101571767266|50
29.10.2018 23:00:00||FIBABANKA|10.40.24.59|||101571767266|133
29.10.2018 23:00:00||FIBABANKA|10.40.24.59|||101571767266|72
29.10.2018 23:00:00||FIBABANKA|10.40.24.59|||101571767266|60
29.10.2018 23:00:00||FIBABANKA|10.40.24.59|||101571767266|140
29.10.2018 23:00:00||FIBABANKA|10.40.24.59|||101571767266|60
29.10.2018 23:00:00||FIBABANKA|10.40.25.60|||101571767266|103
29.10.2018 23:00:00||FIBABANKA|10.40.25.60|||101571767266|32
29.10.2018 23:00:00||FIBABANKA|10.40.25.60|||101571767266|110
29.10.2018 23:00:00||FIBABANKA|10.40.25.60|||101571767266|40
29.10.2018 23:00:00||FIBABANKA|10.40.24.60|||101571767266|110
29.10.2018 23:00:00||FIBABANKA|10.40.24.60|||101571767266|57
29.10.2018 23:00:00||FIBABANKA|10.40.24.60|||101571767266|40
29.10.2018 23:00:00||FIBABANKA|10.40.24.60|||101571767266|100
29.10.2018 23:00:00||FIBABANKA|10.40.24.60|||101571767266|50
29.10.2018 23:00:00||FIBABANKA|10.40.25.72|||101571767266|70
29.10.2018 23:00:00||FIBABANKA|10.40.25.72|||101571767266|40
29.10.2018 23:00:00||FIBABANKA|10.40.25.72|||101571767266|30
29.10.2018 23:00:00||FIBABANKA|10.40.24.72|||101571767266|140
29.10.2018 23:00:00||FIBABANKA|10.40.24.72|||101571767266|78
29.10.2018 23:00:00||FIBABANKA|10.40.24.72|||101571767266|30
29.10.2018 23:00:00||FIBABANKA|10.40.24.72|||101571767266|40
29.10.2018 23:00:00||FIBABANKA|10.40.25.74|||101571767266|30
29.10.2018 23:00:00||FIBABANKA|10.40.25.75|||101571767266|38
29.10.2018 23:00:00||FIBABANKA|10.40.25.75|||101571767266|77
29.10.2018 23:00:00||FIBABANKA|10.40.25.75|||101571767266|135
29.10.2018 23:00:00||FIBABANKA|10.40.25.75|||101571767266|172
29.10.2018 23:00:00||FIBABANKA|10.40.25.75|||101571767266|185
29.10.2018 23:00:00||FIBABANKA|10.40.25.75|||101571767266|195
29.10.2018 23:00:00||FIBABANKA|10.40.24.75|||101571767266|55
29.10.2018 23:00:00||FIBABANKA|10.40.24.75|||101571767266|55
29.10.2018 23:00:00||FIBABANKA|10.40.24.75|||101571767266|108
29.10.2018 23:00:00||FIBABANKA|10.40.24.75|||101571767266|163
29.10.2018 23:00:00||FIBABANKA|10.40.24.75|||101571767266|145
29.10.2018 23:00:00||FIBABANKA|10.40.24.76|||101571767266|33
29.10.2018 23:00:00||FIBABANKA|10.40.24.76|||101571767266|70
29.10.2018 23:00:00||FIBABANKA|10.40.24.76|||101571767266|20
29.10.2018 23:00:00||FIBABANKA|10.40.24.76|||101571767266|40
29.10.2018 23:00:00||FIBABANKA|10.40.24.76|||101571767266|10
29.10.2018 23:00:00||FIBABANKA|10.40.25.77|||101571767266|52
29.10.2018 23:00:00||FIBABANKA|10.40.25.77|||101571767266|40
29.10.2018 23:00:00||FIBABANKA|10.40.24.77|||101571767266|40
29.10.2018 23:00:00||FIBABANKA|10.40.24.77|||101571767266|33
29.10.2018 23:00:00||FIBABANKA|10.40.24.53|||101571767266|30
29.10.2018 23:00:00||FIBABANKA|10.40.24.53|||101571767266|60
29.10.2018 23:00:00||FIBABANKA|10.40.26.57|||101571767266|92
29.10.2018 23:00:00||FIBABANKA|10.40.26.57|||101571767266|85
29.10.2018 23:00:00||FIBABANKA|10.40.26.57|||101571767266|80
29.10.2018 23:00:00||FIBABANKA|10.40.26.57|||101571767266|70
29.10.2018 23:00:00||FIBABANKA|10.40.26.57|||101571767266|70
29.10.2018 23:00:00||FIBABANKA|10.40.27.72|||101571767266|40
29.10.2018 23:00:00||FIBABANKA|10.40.27.72|||101571767266|50
29.10.2018 23:00:00||FIBABANKA|10.40.27.72|||101571767266|40
29.10.2018 23:00:00||FIBABANKA|10.40.27.72|||101571767266|140
29.10.2018 23:00:00||FIBABANKA|10.40.27.72|||101571767266|62
29.10.2018 23:00:00||FIBABANKA|10.40.26.72|||101571767266|30
29.10.2018 23:00:00||FIBABANKA|10.40.26.72|||101571767266|140
29.10.2018 23:00:00||FIBABANKA|10.40.26.72|||101571767266|70
29.10.2018 23:00:00||FIBABANKA|10.40.26.72|||101571767266|30
29.10.2018 23:00:00||FIBABANKA|10.40.27.73|||101571767266|30
29.10.2018 23:00:00||FIBABANKA|10.40.27.73|||101571767266|100
29.10.2018 23:00:00||FIBABANKA|10.40.27.73|||101571767266|40
29.10.2018 23:00:00||FIBABANKA|10.40.27.73|||101571767266|43
29.10.2018 23:00:00||FIBABANKA|10.40.27.73|||101571767266|353
29.10.2018 23:00:00||FIBABANKA|10.40.26.73|||101571767266|40
29.10.2018 23:00:00||FIBABANKA|10.40.26.73|||101571767266|70
29.10.2018 23:00:00||FIBABANKA|10.40.26.73|||101571767266|32
29.10.2018 23:00:00||FIBABANKA|10.40.26.73|||101571767266|10
29.10.2018 23:00:00||FIBABANKA|10.40.27.74|||101571767266|72
29.10.2018 23:00:00||FIBABANKA|10.40.27.74|||101571767266|160
29.10.2018 23:00:00||FIBABANKA|10.40.27.74|||101571767266|173
29.10.2018 23:00:00||FIBABANKA|10.40.26.74|||101571767266|70
29.10.2018 23:00:00||FIBABANKA|10.40.26.74|||101571767266|188
29.10.2018 23:00:00||FIBABANKA|10.40.26.74|||101571767266|183
29.10.2018 23:00:00||FIBABANKA|10.40.26.74|||101571767266|183
29.10.2018 23:00:00||FIBABANKA|10.40.27.75|||101571767266|10
29.10.2018 23:00:00||FIBABANKA|10.40.27.75|||101571767266|10
29.10.2018 23:00:00||FIBABANKA|10.40.27.75|||101571767266|60
29.10.2018 23:00:00||FIBABANKA|10.40.26.75|||101571767266|10
29.10.2018 23:00:00||FIBABANKA|10.40.27.76|||101571767266|90
29.10.2018 23:00:00||FIBABANKA|10.40.26.76|||101571767266|100
29.10.2018 23:00:00||FIBABANKA|10.40.26.79|||101571767266|10
29.10.2018 23:00:00||FIBABANKA|10.40.27.79|||101571767266|10
29.10.2018 23:00:00||FIBABANKA|10.40.27.79|||101571767266|10
29.10.2018 23:00:00||FIBABANKA|10.40.26.79|||101571767266|10
29.10.2018 23:00:00||FIBABANKA|10.40.27.77|||101571767266|55
29.10.2018 23:00:00||FIBABANKA|10.40.27.77|||101571767266|37
29.10.2018 23:00:00||FIBABANKA|10.40.27.77|||101571767266|153
29.10.2018 23:00:00||FIBABANKA|10.40.26.77|||101571767266|43
29.10.2018 23:00:00||FIBABANKA|10.40.26.77|||101571767266|50
29.10.2018 23:00:00||FIBABANKA|10.40.26.77|||101571767266|173
29.10.2018 23:00:00||FIBABANKA|10.40.26.77|||101571767266|195
29.10.2018 23:00:00||FIBABANKA|10.40.26.77|||101571767266|67
29.10.2018 23:00:00||FIBABANKA|10.40.26.77|||101571767266|83
29.10.2018 23:00:00||FIBABANKA|10.40.26.77|||101571767266|172
29.10.2018 23:00:00||FIBABANKA|10.40.26.77|||101571767266|177
29.10.2018 23:00:00||FIBABANKA|10.40.27.77|||101571767266|52
29.10.2018 23:00:00||FIBABANKA|10.40.27.77|||101571767266|33
29.10.2018 23:00:00||FIBABANKA|10.40.27.77|||101571767266|153
29.10.2018 23:00:00||FIBABANKA|10.40.27.57|||101571767266|80
29.10.2018 23:00:00||FIBABANKA|10.40.26.60|||101571767266|220
29.10.2018 23:00:00||FIBABANKA|10.40.25.74|||101571767266|230
29.10.2018 23:00:00||FIBABANKA|10.40.24.75|||101571767266|187
29.10.2018 23:00:00||FIBABANKA|10.40.24.75|||101571767266|143
29.10.2018 23:00:00||FIBABANKA|10.40.24.53|||101571767266|167
29.10.2018 23:00:00||FIBABANKA|10.40.24.53|||101571767266|173
29.10.2018 23:00:00||FIBABANKA|10.40.25.52|||101571767266|10
29.10.2018 23:00:00||FIBABANKA|10.40.25.52|||101571767266|50
29.10.2018 23:00:00||FIBABANKA|10.40.25.52|||101571767266|98
29.10.2018 23:00:00||FIBABANKA|10.40.25.53|||101571767266|163
29.10.2018 23:00:00||FIBABANKA|10.40.25.53|||101571767266|140
29.10.2018 23:00:00||FIBABANKA|10.40.27.51|||101571767266|30
29.10.2018 23:00:00||FIBABANKA|10.40.27.51|||101571767266|20
29.10.2018 23:00:00||FIBABANKA|10.40.27.51|||101571767266|102
29.10.2018 23:00:00||FIBABANKA|10.40.27.51|||101571767266|140
29.10.2018 23:00:00||FIBABANKA|10.40.27.51|||101571767266|70
29.10.2018 23:00:00||FIBABANKA|10.40.27.51|||101571767266|40
29.10.2018 23:00:00||FIBABANKA|10.40.27.51|||101571767266|40
29.10.2018 23:00:00||FIBABANKA|10.40.26.51|||101571767266|10
29.10.2018 23:00:00||FIBABANKA|10.40.26.51|||101571767266|110
29.10.2018 23:00:00||FIBABANKA|10.40.26.51|||101571767266|130
29.10.2018 23:00:00||FIBABANKA|10.40.26.51|||101571767266|30
29.10.2018 23:00:00||FIBABANKA|10.40.26.51|||101571767266|30
29.10.2018 23:00:00||FIBABANKA|10.40.24.74|||101571767266|33
29.10.2018 23:00:00||FIBABANKA|10.40.25.76|||101571767266|60
29.10.2018 23:00:00||FIBABANKA|10.40.25.76|||101571767266|40
29.10.2018 23:00:00||FIBABANKA|10.40.25.76|||101571767266|10
29.10.2018 23:00:00||FIBABANKA|10.40.25.52|||101571767266|40
29.10.2018 23:00:00||FIBABANKA|10.40.25.52|||101571767266|30
29.10.2018 23:00:00||HAVAŞ|10.40.24.46|||110000479675|10
29.10.2018 23:00:00||HAVAŞ|10.40.24.48|||110000479675|753
29.10.2018 23:00:00||HAVAŞ|10.40.24.48|||110000479675|768
29.10.2018 23:00:00||HAVAŞ|10.40.25.48|||110000479675|747
29.10.2018 23:00:00||HAVAŞ|10.40.24.45|||110000479675|70
29.10.2018 23:00:00||HAVAŞ|10.40.25.45|||110000479675|63
29.10.2018 23:00:00||HAVAŞ|10.40.25.47|||110000479675|70
29.10.2018 23:00:00||HAVAŞ|10.40.24.46|||110000479675|80
29.10.2018 23:00:00||HAVAŞ|10.40.24.47|||110000479675|30
29.10.2018 23:00:00||HAVAŞ|10.40.24.47|||110000479675|92
29.10.2018 23:00:00||HAVAŞ|10.40.24.47|||110000479675|92
29.10.2018 23:00:00||HAVAŞ|10.40.25.46|||110000479675|10
29.10.2018 23:00:00||HAVAŞ|10.40.25.46|||110000479675|60
29.10.2018 23:00:00||HAVAŞ|10.40.24.48|||110000479675|750
29.10.2018 23:00:00||HAVAŞ|10.40.24.46|||110000479675|60
29.10.2018 23:00:00||HAVAŞ|10.40.24.46|||110000479675|72
29.10.2018 23:00:00||HAVAŞ|10.40.24.47|||110000479675|15
29.10.2018 23:00:00||HAVAŞ|10.40.25.48|||110000479675|742
29.10.2018 23:00:00||HAVAŞ|10.40.25.48|||110000479675|792
29.10.2018 23:00:00||HAVAŞ|10.40.25.45|||110000479675|97
29.10.2018 23:00:00||HAVAŞ|10.40.24.45|||110000479675|50
29.10.2018 23:00:00||HAVAŞ|10.40.24.45|||110000479675|170
29.10.2018 23:00:00||HAVAŞ|10.40.24.45|||110000479675|100
29.10.2018 23:00:00||HAVAŞ|10.40.25.47|||110000479675|70
29.10.2018 23:00:00||HAVAŞ|10.40.25.47|||110000479675|228
29.10.2018 23:00:00||HAVAŞ|10.40.25.47|||110000479675|57
29.10.2018 23:00:00||HAVAŞ|10.40.25.47|||110000479675|88
29.10.2018 23:00:00||HAVAŞ|10.40.25.47|||110000479675|90
29.10.2018 23:00:00||HAVAŞ|10.40.25.47|||110000479675|92
29.10.2018 23:00:00||HAVAŞ|10.40.25.47|||110000479675|110
29.10.2018 23:00:00||HAVAŞ|10.40.25.47|||110000479675|180
29.10.2018 23:00:00||HAVAŞ|10.40.25.47|||110000479675|93
29.10.2018 23:00:00||HAVAŞ|10.40.25.47|||110000479675|90
29.10.2018 23:00:00||HAVAŞ|10.40.25.47|||110000479675|92
29.10.2018 23:00:00||HAVAŞ|10.40.25.45|||110000479675|97
29.10.2018 23:00:00||HAVAŞ|10.40.25.45|||110000479675|90
29.10.2018 23:00:00||HAVAŞ|10.40.25.46|||110000479675|10
29.10.2018 23:00:00||HAVAŞ|10.40.25.46|||110000479675|10
29.10.2018 23:00:00||HAVAŞ|10.40.25.46|||110000479675|20
29.10.2018 23:00:00||HAVAŞ|10.40.25.46|||110000479675|20
29.10.2018 23:00:00||HAVAŞ|10.40.25.46|||110000479675|50
29.10.2018 23:00:00||HAVAŞ|10.40.25.46|||110000479675|100
29.10.2018 23:00:00||HAVAŞ|10.40.25.46|||110000479675|67
29.10.2018 23:00:00||HAVAŞ|10.40.25.46|||110000479675|73
29.10.2018 23:00:00||HAVAŞ|10.40.25.46|||110000479675|70
29.10.2018 23:00:00||HAVAŞ|10.40.24.46|||110000479675|20
29.10.2018 23:00:00||HAVAŞ|10.40.24.46|||110000479675|20
29.10.2018 23:00:00||HAVAŞ|10.40.24.46|||110000479675|10
29.10.2018 23:00:00||HAVAŞ|10.40.24.46|||110000479675|10
29.10.2018 23:00:00||HAVAŞ|10.40.24.46|||110000479675|10
29.10.2018 23:00:00||HAVAŞ|10.40.24.46|||110000479675|60
29.10.2018 23:00:00||HAVAŞ|10.40.24.46|||110000479675|110
29.10.2018 23:00:00||HAVAŞ|10.40.24.47|||110000479675|30
29.10.2018 23:00:00||HAVAŞ|10.40.24.47|||110000479675|222
29.10.2018 23:00:00||HAVAŞ|10.40.24.47|||110000479675|62
29.10.2018 23:00:00||HAVAŞ|10.40.24.47|||110000479675|55
29.10.2018 23:00:00||HAVAŞ|10.40.24.47|||110000479675|157
29.10.2018 23:00:00||HAVAŞ|10.40.24.47|||110000479675|100
29.10.2018 23:00:00||HAVAŞ|10.40.24.47|||110000479675|102
29.10.2018 23:00:00||MARS CINEMA|10.40.24.203|||110000472614|100
29.10.2018 23:00:00||MARS CINEMA|10.40.24.204|||110000472614|40
29.10.2018 23:00:00||MARS CINEMA|10.40.24.203|||110000472614|70
29.10.2018 23:00:00||MARS CINEMA|10.40.24.203|||110000472614|162
29.10.2018 23:00:00||MARS CINEMA|10.40.24.203|||110000472614|85
29.10.2018 23:00:00||MARS CINEMA|10.40.24.204|||110000472614|62
29.10.2018 23:00:00||MARS CINEMA|10.40.24.203|||110000472614|102
29.10.2018 23:00:00||MARS CINEMA|10.40.24.204|||110000472614|20
29.10.2018 23:00:00||MARS CINEMA|10.40.24.204|||110000472614|92
29.10.2018 23:00:00||MARS CINEMA|10.40.25.203|||110000472614|157
29.10.2018 23:00:00||MARS CINEMA|10.40.25.203|||110000472614|82
29.10.2018 23:00:00||MARS CINEMA|10.40.25.203|||110000472614|185
29.10.2018 23:00:00||MARS CINEMA|10.40.25.203|||110000472614|98
29.10.2018 23:00:00||MARS CINEMA|10.40.25.203|||110000472614|82
29.10.2018 23:00:00||MARS CINEMA|10.40.25.203|||110000472614|112
29.10.2018 23:00:00||MARS CINEMA|10.40.25.203|||110000472614|83
29.10.2018 23:00:00||MARS CINEMA|10.40.25.203|||110000472614|153
29.10.2018 23:00:00||MARS CINEMA|10.40.25.203|||110000472614|93
29.10.2018 23:00:00||MARS CINEMA|10.40.25.203|||110000472614|112
29.10.2018 23:00:00||MARS CINEMA|10.40.25.203|||110000472614|90
29.10.2018 23:00:00||MARS CINEMA|10.40.25.203|||110000472614|62
29.10.2018 23:00:00||MARS CINEMA|10.40.25.203|||110000472614|190
29.10.2018 23:00:00||MARS CINEMA|10.40.25.204|||110000472614|110
29.10.2018 23:00:00||MARS CINEMA|10.40.25.204|||110000472614|70
29.10.2018 23:00:00||MARS CINEMA|10.40.25.204|||110000472614|80
29.10.2018 23:00:00||MARS CINEMA|10.40.25.204|||110000472614|100
29.10.2018 23:00:00||MARS CINEMA|10.40.25.204|||110000472614|20
29.10.2018 23:00:00||MARS CINEMA|10.40.25.204|||110000472614|20
29.10.2018 23:00:00||MARS CINEMA|10.40.25.204|||110000472614|30
29.10.2018 23:00:00||MARS CINEMA|10.40.25.204|||110000472614|40
29.10.2018 23:00:00||MARS CINEMA|10.40.25.204|||110000472614|90
29.10.2018 23:00:00||MARS CINEMA|10.40.25.204|||110000472614|120
29.10.2018 23:00:00||MARS CINEMA|10.40.25.204|||110000472614|80
29.10.2018 23:00:00||MARS CINEMA|10.40.25.204|||110000472614|80
29.10.2018 23:00:00||MARS CINEMA|10.40.25.204|||110000472614|110
29.10.2018 23:00:00||MARS CINEMA|10.40.25.204|||110000472614|100
29.10.2018 23:00:00||MARS CINEMA|10.40.24.203|||110000472614|80
29.10.2018 23:00:00||MARS CINEMA|10.40.24.203|||110000472614|92
29.10.2018 23:00:00||MARS CINEMA|10.40.24.203|||110000472614|152
29.10.2018 23:00:00||MARS CINEMA|10.40.24.203|||110000472614|70
29.10.2018 23:00:00||MARS CINEMA|10.40.24.203|||110000472614|140
29.10.2018 23:00:00||MARS CINEMA|10.40.24.203|||110000472614|153
29.10.2018 23:00:00||MARS CINEMA|10.40.24.203|||110000472614|103
29.10.2018 23:00:00||MARS CINEMA|10.40.24.203|||110000472614|182
29.10.2018 23:00:00||MARS CINEMA|10.40.24.204|||110000472614|110
29.10.2018 23:00:00||MARS CINEMA|10.40.24.204|||110000472614|97
29.10.2018 23:00:00||MARS CINEMA|10.40.24.204|||110000472614|95
29.10.2018 23:00:00||MARS CINEMA|10.40.24.204|||110000472614|20
29.10.2018 23:00:00||MARS CINEMA|10.40.24.204|||110000472614|12
29.10.2018 23:00:00||MARS CINEMA|10.40.24.204|||110000472614|90
29.10.2018 23:00:00||MARS CINEMA|10.40.24.204|||110000472614|118
29.10.2018 23:00:00||MARS CINEMA|10.40.24.204|||110000472614|90
29.10.2018 23:00:00||MARS CINEMA|10.40.24.204|||110000472614|110
29.10.2018 23:00:00||MARS CINEMA|10.40.24.204|||110000472614|80
29.10.2018 23:00:00||MARS CINEMA|10.40.25.206|||110000472614|120
29.10.2018 23:00:00||MARS CINEMA|10.40.25.206|||110000472614|40
29.10.2018 23:00:00||MARS CINEMA|10.40.25.206|||110000472614|40
29.10.2018 23:00:00||MARS CINEMA|10.40.25.206|||110000472614|40
29.10.2018 23:00:00||MARS CINEMA|10.40.25.206|||110000472614|20
29.10.2018 23:00:00||MARS CINEMA|10.40.25.206|||110000472614|20
29.10.2018 23:00:00||MARS CINEMA|10.40.25.206|||110000472614|30
29.10.2018 23:00:00||MARS CINEMA|10.40.25.206|||110000472614|60
29.10.2018 23:00:00||MARS CINEMA|10.40.25.206|||110000472614|40
29.10.2018 23:00:00||MARS CINEMA|10.40.25.206|||110000472614|88
29.10.2018 23:00:00||MARS CINEMA|10.40.25.206|||110000472614|90
29.10.2018 23:00:00||MARS CINEMA|10.40.24.206|||110000472614|155
29.10.2018 23:00:00||MARS CINEMA|10.40.24.206|||110000472614|40
29.10.2018 23:00:00||MARS CINEMA|10.40.24.206|||110000472614|40
29.10.2018 23:00:00||MARS CINEMA|10.40.24.206|||110000472614|47
29.10.2018 23:00:00||MARS CINEMA|10.40.24.206|||110000472614|30
29.10.2018 23:00:00||MARS CINEMA|10.40.24.206|||110000472614|30
29.10.2018 23:00:00||MARS CINEMA|10.40.24.206|||110000472614|195
29.10.2018 23:00:00||MARS CINEMA|10.40.24.206|||110000472614|160
29.10.2018 23:00:00||MARS CINEMA|10.40.24.206|||110000472614|20
29.10.2018 23:00:00||MARS CINEMA|10.40.24.206|||110000472614|80
29.10.2018 23:00:00||MARS CINEMA|10.40.24.206|||110000472614|78
29.10.2018 23:00:00||PEGASUS|10.40.27.84|||110000423831|216
29.10.2018 23:00:00||PEGASUS|10.40.26.85|||110000423831|121
29.10.2018 23:00:00||PEGASUS|10.40.27.66|||110000423831|113
29.10.2018 23:00:00||PEGASUS|10.40.26.66|||110000423831|93
29.10.2018 23:00:00||PEGASUS|10.40.26.84|||110000423831|224
29.10.2018 23:00:00||PEGASUS|10.40.27.85|||110000423831|117
29.10.2018 23:00:00||PEGASUS|10.40.27.67|||110000423831|340
29.10.2018 23:00:00||PEGASUS|10.40.27.67|||110000423831|40
29.10.2018 23:00:00||PEGASUS|10.40.26.62|||110000423831|10
29.10.2018 23:00:00||PEGASUS|10.40.26.62|||110000423831|190
29.10.2018 23:00:00||PEGASUS|10.40.26.63|||110000423831|70
29.10.2018 23:00:00||PEGASUS|10.40.26.63|||110000423831|30
29.10.2018 23:00:00||PEGASUS|10.40.26.63|||110000423831|60
29.10.2018 23:00:00||PEGASUS|10.40.26.63|||110000423831|30
29.10.2018 23:00:00||PEGASUS|10.40.26.63|||110000423831|230
29.10.2018 23:00:00||PEGASUS|10.40.26.63|||110000423831|140
29.10.2018 23:00:00||PEGASUS|10.40.26.63|||110000423831|110
29.10.2018 23:00:00||PEGASUS|10.40.26.63|||110000423831|60
29.10.2018 23:00:00||PEGASUS|10.40.26.67|||110000423831|170
29.10.2018 23:00:00||PEGASUS|10.40.27.68|||110000423831|90
29.10.2018 23:00:00||PEGASUS|10.40.27.68|||110000423831|87
29.10.2018 23:00:00||PEGASUS|10.40.27.68|||110000423831|90
29.10.2018 23:00:00||PEGASUS|10.40.27.68|||110000423831|50
29.10.2018 23:00:00||PEGASUS|10.40.26.68|||110000423831|90
29.10.2018 23:00:00||PEGASUS|10.40.26.68|||110000423831|90
29.10.2018 23:00:00||PEGASUS|10.40.26.68|||110000423831|50
29.10.2018 23:00:00||PEGASUS|10.40.27.63|||110000423831|50
29.10.2018 23:00:00||PEGASUS|10.40.27.86|||110000423831|340
29.10.2018 23:00:00||PEGASUS|10.40.27.63|||110000423831|50
29.10.2018 23:00:00||PEGASUS|10.40.27.63|||110000423831|60
29.10.2018 23:00:00||PEGASUS|10.40.27.64|||110000423831|80
29.10.2018 23:00:00||PEGASUS|10.40.27.64|||110000423831|70
29.10.2018 23:00:00||PEGASUS|10.40.27.63|||110000423831|60
29.10.2018 23:00:00||PEGASUS|10.40.27.63|||110000423831|70
29.10.2018 23:00:00||PEGASUS|10.40.27.63|||110000423831|90
29.10.2018 23:00:00||PEGASUS|10.40.26.63|||110000423831|110
29.10.2018 23:00:00||PEGASUS|10.40.27.67|||110000423831|360
29.10.2018 23:00:00||PEGASUS|10.40.27.64|||110000423831|282
29.10.2018 23:00:00||PEGASUS|10.40.27.64|||110000423831|262
29.10.2018 23:00:00||PEGASUS|10.40.27.63|||110000423831|90
29.10.2018 23:00:00||PEGASUS|10.40.27.63|||110000423831|62
29.10.2018 23:00:00||PEGASUS|10.40.27.63|||110000423831|80
29.10.2018 23:00:00||PEGASUS|10.40.26.63|||110000423831|110
29.10.2018 23:00:00||PEGASUS|10.40.26.63|||110000423831|110
29.10.2018 23:00:00||PEGASUS|10.40.27.81|||110000423831|460
29.10.2018 23:00:00||PEGASUS|10.40.27.81|||110000423831|430
29.10.2018 23:00:00||PEGASUS|10.40.26.63|||110000423831|90
29.10.2018 23:00:00||PEGASUS|10.40.26.63|||110000423831|60
29.10.2018 23:00:00||PEGASUS|10.40.26.67|||110000423831|30
29.10.2018 23:00:00||PEGASUS|10.40.26.67|||110000423831|340
29.10.2018 23:00:00||PEGASUS|10.40.26.67|||110000423831|60
29.10.2018 23:00:00||PEGASUS|10.40.26.67|||110000423831|40
29.10.2018 23:00:00||PEGASUS|10.40.26.67|||110000423831|70
29.10.2018 23:00:00||PEGASUS|10.40.26.68|||110000423831|100
29.10.2018 23:00:00||PEGASUS|10.40.27.64|||110000423831|302
29.10.2018 23:00:00||PEGASUS|10.40.27.64|||110000423831|268
29.10.2018 23:00:00||PEGASUS|10.40.27.64|||110000423831|298
29.10.2018 23:00:00||PEGASUS|10.40.27.64|||110000423831|270
29.10.2018 23:00:00||PEGASUS|10.40.27.64|||110000423831|267
29.10.2018 23:00:00||PEGASUS|10.40.27.86|||110000423831|340
29.10.2018 23:00:00||PEGASUS|10.40.27.63|||110000423831|90
29.10.2018 23:00:00||PEGASUS|10.40.26.63|||110000423831|130
29.10.2018 23:00:00||PEGASUS|10.40.26.63|||110000423831|60
29.10.2018 23:00:00||PEGASUS|10.40.26.63|||110000423831|80
29.10.2018 23:00:00||PEGASUS|10.40.26.67|||110000423831|340
29.10.2018 23:00:00||PEGASUS|10.40.27.63|||110000423831|50
29.10.2018 23:00:00||PEGASUS|10.40.27.63|||110000423831|60
29.10.2018 23:00:00||PEGASUS|10.40.27.81|||110000423831|450
29.10.2018 23:00:00||PEGASUS|10.40.26.62|||110000423831|90
29.10.2018 23:00:00||PEGASUS|10.40.26.63|||110000423831|50
29.10.2018 23:00:00||PEGASUS|10.40.26.63|||110000423831|100
29.10.2018 23:00:00||PEGASUS|10.40.26.63|||110000423831|40
29.10.2018 23:00:00||PEGASUS|10.40.26.63|||110000423831|70
29.10.2018 23:00:00||PEGASUS|10.40.26.67|||110000423831|340
29.10.2018 23:00:00||PEGASUS|10.40.27.64|||110000423831|287
29.10.2018 23:00:00||PEGASUS|10.40.27.64|||110000423831|273
29.10.2018 23:00:00||PEGASUS|10.40.27.64|||110000423831|265
29.10.2018 23:00:00||PEGASUS|10.40.27.64|||110000423831|302
29.10.2018 23:00:00||PEGASUS|10.40.27.64|||110000423831|368
29.10.2018 23:00:00||PEGASUS|10.40.27.86|||110000423831|40
29.10.2018 23:00:00||PEGASUS|10.40.27.63|||110000423831|72
29.10.2018 23:00:00||PEGASUS|10.40.27.63|||110000423831|80
29.10.2018 23:00:00||PEGASUS|10.40.27.63|||110000423831|70
29.10.2018 23:00:00||PEGASUS|10.40.27.63|||110000423831|90
29.10.2018 23:00:00||PEGASUS|10.40.27.63|||110000423831|155
29.10.2018 23:00:00||PEGASUS|10.40.27.63|||110000423831|232
29.10.2018 23:00:00||PEGASUS|10.40.27.63|||110000423831|53
29.10.2018 23:00:00||PEGASUS|10.40.26.64|||110000423831|80
29.10.2018 23:00:00||PEGASUS|10.40.26.64|||110000423831|80
29.10.2018 23:00:00||PEGASUS|10.40.26.82|||110000423831|210
29.10.2018 23:00:00||PEGASUS|10.40.26.82|||110000423831|108
29.10.2018 23:00:00||PEGASUS|10.40.26.82|||110000423831|115
29.10.2018 23:00:00||PEGASUS|10.40.26.82|||110000423831|157
29.10.2018 23:00:00||PEGASUS|10.40.26.82|||110000423831|143
29.10.2018 23:00:00||PEGASUS|10.40.26.82|||110000423831|140
29.10.2018 23:00:00||PEGASUS|10.40.26.82|||110000423831|188
29.10.2018 23:00:00||PEGASUS|10.40.26.82|||110000423831|35
29.10.2018 23:00:00||PEGASUS|10.40.26.82|||110000423831|50
29.10.2018 23:00:00||PEGASUS|10.40.26.82|||110000423831|20
29.10.2018 23:00:00||PEGASUS|10.40.26.82|||110000423831|62
29.10.2018 23:00:00||PEGASUS|10.40.26.82|||110000423831|50
29.10.2018 23:00:00||PEGASUS|10.40.26.82|||110000423831|38
29.10.2018 23:00:00||PEGASUS|10.40.27.83|||110000423831|570
29.10.2018 23:00:00||PEGASUS|10.40.27.83|||110000423831|70
29.10.2018 23:00:00||PEGASUS|10.40.27.83|||110000423831|562
29.10.2018 23:00:00||PEGASUS|10.40.27.83|||110000423831|553
29.10.2018 23:00:00||PEGASUS|10.40.27.83|||110000423831|82
29.10.2018 23:00:00||PEGASUS|10.40.26.83|||110000423831|503
29.10.2018 23:00:00||PEGASUS|10.40.26.83|||110000423831|50
29.10.2018 23:00:00||PEGASUS|10.40.26.83|||110000423831|403
29.10.2018 23:00:00||PEGASUS|10.40.26.83|||110000423831|497
29.10.2018 23:00:00||PEGASUS|10.40.26.83|||110000423831|502
29.10.2018 23:00:00||PEGASUS|10.40.26.86|||110000423831|360
29.10.2018 23:00:00||PEGASUS|10.40.26.86|||110000423831|135
29.10.2018 23:00:00||PEGASUS|10.40.26.86|||110000423831|350
29.10.2018 23:00:00||PEGASUS|10.40.26.86|||110000423831|50
29.10.2018 23:00:00||PEGASUS|10.40.26.86|||110000423831|30
29.10.2018 23:00:00||PEGASUS|10.40.26.86|||110000423831|350
29.10.2018 23:00:00||PEGASUS|10.40.26.86|||110000423831|40
29.10.2018 23:00:00||PEGASUS|10.40.27.87|||110000423831|90
29.10.2018 23:00:00||PEGASUS|10.40.27.87|||110000423831|90
29.10.2018 23:00:00||PEGASUS|10.40.27.87|||110000423831|90
29.10.2018 23:00:00||PEGASUS|10.40.27.87|||110000423831|20
29.10.2018 23:00:00||PEGASUS|10.40.26.87|||110000423831|90
29.10.2018 23:00:00||PEGASUS|10.40.26.87|||110000423831|90
29.10.2018 23:00:00||PEGASUS|10.40.26.87|||110000423831|90
29.10.2018 23:00:00||PEGASUS|10.40.26.87|||110000423831|60
29.10.2018 23:00:00||PEGASUS|10.40.26.87|||110000423831|20
29.10.2018 23:00:00||PEGASUS|10.40.26.81|||110000423831|410
29.10.2018 23:00:00||PEGASUS|10.40.26.81|||110000423831|423
29.10.2018 23:00:00||PEGASUS|10.40.26.81|||110000423831|423
29.10.2018 23:00:00||PEGASUS|10.40.27.82|||110000423831|220
29.10.2018 23:00:00||PEGASUS|10.40.27.82|||110000423831|30
29.10.2018 23:00:00||PEGASUS|10.40.27.82|||110000423831|107
29.10.2018 23:00:00||PEGASUS|10.40.27.82|||110000423831|80
29.10.2018 23:00:00||PEGASUS|10.40.27.82|||110000423831|158
29.10.2018 23:00:00||PEGASUS|10.40.27.82|||110000423831|122
29.10.2018 23:00:00||PEGASUS|10.40.27.82|||110000423831|183
29.10.2018 23:00:00||PEGASUS|10.40.27.82|||110000423831|118
29.10.2018 23:00:00||PEGASUS|10.40.27.82|||110000423831|62
29.10.2018 23:00:00||PEGASUS|10.40.27.82|||110000423831|80
29.10.2018 23:00:00||PEGASUS|10.40.27.82|||110000423831|50
29.10.2018 23:00:00||PEGASUS|10.40.27.82|||110000423831|32
29.10.2018 23:00:00||PEGASUS|10.40.27.82|||110000423831|40
29.10.2018 23:00:00||PEGASUS|10.40.27.67|||110000423831|50
29.10.2018 23:00:00||PEGASUS|10.40.27.67|||110000423831|70
29.10.2018 23:00:00||PEGASUS|10.40.27.67|||110000423831|130
29.10.2018 23:00:00||PEGASUS|10.40.27.67|||110000423831|10
29.10.2018 23:00:00||PEGASUS|10.40.27.67|||110000423831|340
29.10.2018 23:00:00||PEGASUS|10.40.27.82|||110000423831|65
29.10.2018 23:00:00||PEGASUS|10.40.27.86|||110000423831|170
29.10.2018 23:00:00||PEGASUS|10.40.27.86|||110000423831|70
29.10.2018 23:00:00||PEGASUS|10.40.27.86|||110000423831|20
29.10.2018 23:00:00||PEGASUS|10.40.27.86|||110000423831|350
29.10.2018 23:00:00||PETKIM|10.40.25.87|||110000437354|142
29.10.2018 23:00:00||PWC|10.40.24.66|||110000433262|90
29.10.2018 23:00:00||PWC|10.40.24.66|||110000433262|10
29.10.2018 23:00:00||PWC|10.40.24.66|||110000433262|30
29.10.2018 23:00:00||PWC|10.40.24.66|||110000433262|50
29.10.2018 23:00:00||PWC|10.40.24.66|||110000433262|440
29.10.2018 23:00:00||PWC|10.40.24.68|||110000433262|162
29.10.2018 23:00:00||PWC|10.40.24.66|||110000433262|50
29.10.2018 23:00:00||PWC|10.40.24.66|||110000433262|210
29.10.2018 23:00:00||PWC|10.40.24.66|||110000433262|210
29.10.2018 23:00:00||PWC|10.40.25.67|||110000433262|80
29.10.2018 23:00:00||PWC|10.40.25.67|||110000433262|90
29.10.2018 23:00:00||PWC|10.40.25.67|||110000433262|320
29.10.2018 23:00:00||PWC|10.40.25.67|||110000433262|250
29.10.2018 23:00:00||PWC|10.40.25.67|||110000433262|240
29.10.2018 23:00:00||PWC|10.40.25.67|||110000433262|250
29.10.2018 23:00:00||PWC|10.40.25.67|||110000433262|50
29.10.2018 23:00:00||PWC|10.40.25.67|||110000433262|30
29.10.2018 23:00:00||PWC|10.40.25.67|||110000433262|120
29.10.2018 23:00:00||PWC|10.40.24.67|||110000433262|10
29.10.2018 23:00:00||PWC|10.40.24.67|||110000433262|10
29.10.2018 23:00:00||PWC|10.40.24.67|||110000433262|370
29.10.2018 23:00:00||PWC|10.40.24.67|||110000433262|30
29.10.2018 23:00:00||PWC|10.40.24.67|||110000433262|70
29.10.2018 23:00:00||PWC|10.40.24.67|||110000433262|120
29.10.2018 23:00:00||PWC|10.40.25.68|||110000433262|152
29.10.2018 23:00:00||PWC|10.40.25.68|||110000433262|197
29.10.2018 23:00:00||PWC|10.40.25.68|||110000433262|68
29.10.2018 23:00:00||PWC|10.40.25.68|||110000433262|77
29.10.2018 23:00:00||PWC|10.40.25.68|||110000433262|147
29.10.2018 23:00:00||PWC|10.40.24.66|||110000433262|60
29.10.2018 23:00:00||PWC|10.40.24.66|||110000433262|30
29.10.2018 23:00:00||PWC|10.40.24.66|||110000433262|30
29.10.2018 23:00:00||PWC|10.40.24.68|||110000433262|110
29.10.2018 23:00:00||PWC|10.40.24.68|||110000433262|148
29.10.2018 23:00:00||PWC|10.40.24.68|||110000433262|400
29.10.2018 23:00:00||PWC|10.40.24.68|||110000433262|70
29.10.2018 23:00:00||PWC|10.40.24.68|||110000433262|65
29.10.2018 23:00:00||VSMART BİLGİ TEKNOLOJİLERİ|10.40.24.62|||110000474326|42
29.10.2018 23:00:00||VSMART BİLGİ TEKNOLOJİLERİ|10.40.24.62|||110000474326|70
29.10.2018 23:00:00||VSMART BİLGİ TEKNOLOJİLERİ|10.40.24.62|||110000474326|37
29.10.2018 23:00:00||VSMART BİLGİ TEKNOLOJİLERİ|10.40.25.62|||110000474326|70
29.10.2018 23:00:00||VSMART BİLGİ TEKNOLOJİLERİ|10.40.24.62|||110000474326|42
29.10.2018 23:00:00||VSMART BİLGİ TEKNOLOJİLERİ|10.40.24.62|||110000474326|33
29.10.2018 23:00:00||VSMART BİLGİ TEKNOLOJİLERİ|10.40.24.62|||110000474326|10
29.10.2018 23:00:00||VSMART BİLGİ TEKNOLOJİLERİ|10.40.25.62|||110000474326|42
29.10.2018 23:00:00||VSMART BİLGİ TEKNOLOJİLERİ|10.40.25.62|||110000474326|10
29.10.2018 23:00:00||VSMART BİLGİ TEKNOLOJİLERİ|10.40.25.62|||110000474326|10
29.10.2018 23:00:00||VSMART BİLGİ TEKNOLOJİLERİ|10.40.25.62|||110000474326|80
29.10.2018 23:00:00||VSMART BİLGİ TEKNOLOJİLERİ|10.40.25.62|||110000474326|90
29.10.2018 23:00:00||VSMART BİLGİ TEKNOLOJİLERİ|10.40.25.62|||110000474326|103
29.10.2018 23:00:00||VSMART BİLGİ TEKNOLOJİLERİ|10.40.24.62|||110000474326|10
