9/25/2018 3:00:00 AM||HAVAS|10.40.24.45|||110000479675|386
9/25/2018 3:00:00 AM||HAVAS|10.40.25.46|||110000479675|489
9/25/2018 3:00:00 AM||HAVAS|10.40.24.47|||110000479675|1026
9/25/2018 3:00:00 AM||PWC|10.40.24.67|||110000433262|586
9/25/2018 3:00:00 AM||PWC|10.40.25.68|||110000433262|885
9/25/2018 3:00:00 AM||PWC|10.40.24.68|||110000433262|484
9/25/2018 3:00:00 AM||PWC|10.40.25.69|||110000433262|286
9/25/2018 3:00:00 AM||PWC|10.40.24.69|||110000433262|290
9/25/2018 3:00:00 AM||CALIK HOLDING|10.40.25.94|||110000438408|642
9/25/2018 3:00:00 AM||CALIK HOLDING|10.40.24.94|||110000438408|659
9/25/2018 3:00:00 AM||CALIK HOLDING|10.40.25.97|||110000438408|628
9/25/2018 3:00:00 AM||CALIK HOLDING|10.40.25.100|||110000438408|77
9/25/2018 3:00:00 AM||CALIK HOLDING|10.40.24.100|||110000438408|74
9/25/2018 3:00:00 AM||CALIK HOLDING|10.40.25.101|||110000438408|588
9/25/2018 3:00:00 AM||CALIK HOLDING|10.40.25.102|||110000438408|332
9/25/2018 3:00:00 AM||CALIK HOLDING|10.40.24.102|||110000438408|313
9/25/2018 3:00:00 AM||CALIK HOLDING|10.40.25.103|||110000438408|266
9/25/2018 3:00:00 AM||CALIK HOLDING|10.40.24.103|||110000438408|290
9/25/2018 3:00:00 AM||CALIK HOLDING|10.40.25.104|||110000438408|1152
9/25/2018 3:00:00 AM||CALIK HOLDING|10.40.25.115|||110000438408|533
9/25/2018 3:00:00 AM||CALIK HOLDING|10.40.24.115|||110000438408|544
9/25/2018 3:00:00 AM||CALIK HOLDING|10.40.25.116|||110000438408|457
9/25/2018 3:00:00 AM||CALIK HOLDING|10.40.24.116|||110000438408|446
9/25/2018 3:00:00 AM||CALIK HOLDING|10.40.25.117|||110000438408|323
9/25/2018 3:00:00 AM||CALIK HOLDING|10.40.24.117|||110000438408|280
9/25/2018 3:00:00 AM||CALIK HOLDING|10.40.25.119|||110000438408|70
9/25/2018 3:00:00 AM||CALIK HOLDING|10.40.24.119|||110000438408|222
9/25/2018 3:00:00 AM||CALIK HOLDING|10.40.25.120|||110000438408|570
9/25/2018 3:00:00 AM||CALIK HOLDING|10.40.24.120|||110000438408|576
9/25/2018 3:00:00 AM||CALIK HOLDING|10.40.25.121|||110000438408|318
9/25/2018 3:00:00 AM||CALIK HOLDING|10.40.24.121|||110000438408|311
9/25/2018 3:00:00 AM||CALIK HOLDING|10.40.25.122|||110000438408|245
9/25/2018 3:00:00 AM||CALIK HOLDING|10.40.24.122|||110000438408|301
9/25/2018 3:00:00 AM||AKTIFBANK|10.40.25.128|||110000438458|281
9/25/2018 3:00:00 AM||AKTIFBANK|10.40.24.128|||110000438458|443
9/25/2018 3:00:00 AM||AKTIFBANK|10.40.25.130|||110000438458|743
9/25/2018 3:00:00 AM||AKTIFBANK|10.40.24.130|||110000438458|663
9/25/2018 3:00:00 AM||AKTIFBANK|10.40.25.131|||110000438458|622
9/25/2018 3:00:00 AM||AKTIFBANK|10.40.24.131|||110000438458|612
9/25/2018 3:00:00 AM||AKTIFBANK|10.40.25.132|||110000438458|421
9/25/2018 3:00:00 AM||AKTIFBANK|10.40.24.132|||110000438458|413
9/25/2018 3:00:00 AM||AKTIFBANK|10.40.25.133|||110000438458|369
9/25/2018 3:00:00 AM||AKTIFBANK|10.40.24.133|||110000438458|655
9/25/2018 3:00:00 AM||AKTIFBANK|10.40.25.138|||110000438458|251
9/25/2018 3:00:00 AM||AKTIFBANK|10.40.24.138|||110000438458|565
9/25/2018 3:00:00 AM||AKTIFBANK|10.40.25.139|||110000438458|158
9/25/2018 3:00:00 AM||AKTIFBANK|10.40.24.139|||110000438458|238
9/25/2018 3:00:00 AM||AKTIFBANK|10.40.25.140|||110000438458|264
9/25/2018 3:00:00 AM||AKTIFBANK|10.40.24.140|||110000438458|358
9/25/2018 3:00:00 AM||AKTIFBANK|10.40.25.141|||110000438458|477
9/25/2018 3:00:00 AM||AKTIFBANK|10.40.24.141|||110000438458|633
9/25/2018 3:00:00 AM||AKTIFBANK|10.40.25.142|||110000438458|38
9/25/2018 3:00:00 AM||AKTIFBANK|10.40.24.142|||110000438458|108
9/25/2018 3:00:00 AM||AKTIFBANK|10.40.24.143|||110000438458|775
9/25/2018 3:00:00 AM||AKTIFBANK|10.40.25.144|||110000438458|183
9/25/2018 3:00:00 AM||AKTIFBANK|10.40.24.144|||110000438458|262
9/25/2018 3:00:00 AM||AKTIFBANK|10.40.25.145|||110000438458|292
9/25/2018 3:00:00 AM||AKTIFBANK|10.40.24.145|||110000438458|407
9/25/2018 3:00:00 AM||AKTIFBANK|10.40.25.147|||110000438458|87
9/25/2018 3:00:00 AM||AKTIFBANK|10.40.24.147|||110000438458|89
9/25/2018 3:00:00 AM||AKTIFBANK|10.40.25.148|||110000438458|984
9/25/2018 3:00:00 AM||AKTIFBANK|10.40.25.152|||110000438458|717
9/25/2018 3:00:00 AM||AKTIFBANK|10.40.25.153|||110000438458|223
9/25/2018 3:00:00 AM||AKTIFBANK|10.40.24.153|||110000438458|246
9/25/2018 3:00:00 AM||AKTIFBANK|10.40.25.154|||110000438458|42
9/25/2018 3:00:00 AM||AKTIFBANK|10.40.24.154|||110000438458|136
9/25/2018 3:00:00 AM||AKTIFBANK|10.40.25.155|||110000438458|477
9/25/2018 3:00:00 AM||AKTIFBANK|10.40.24.155|||110000438458|511
9/25/2018 3:00:00 AM||AKTIFBANK|10.40.25.157|||110000438458|334
9/25/2018 3:00:00 AM||AKTIFBANK|10.40.24.157|||110000438458|341
9/25/2018 3:00:00 AM||AKTIFBANK|10.40.25.158|||110000438458|159
9/25/2018 3:00:00 AM||AKTIFBANK|10.40.24.158|||110000438458|632
9/25/2018 3:00:00 AM||AKTIFBANK|10.40.25.159|||110000438458|163
9/25/2018 3:00:00 AM||AKTIFBANK|10.40.24.159|||110000438458|343
9/25/2018 3:00:00 AM||AKTIFBANK|10.40.25.160|||110000438458|196
9/25/2018 3:00:00 AM||AKTIFBANK|10.40.24.160|||110000438458|232
9/25/2018 3:00:00 AM||AKTIFBANK|10.40.25.161|||110000438458|250
9/25/2018 3:00:00 AM||AKTIFBANK|10.40.24.161|||110000438458|412
9/25/2018 3:00:00 AM||AKTIFBANK|10.40.25.162|||110000438458|248
9/25/2018 3:00:00 AM||AKTIFBANK|10.40.24.162|||110000438458|472
9/25/2018 3:00:00 AM||AKTIFBANK|10.40.25.163|||110000438458|47
9/25/2018 3:00:00 AM||AKTIFBANK|10.40.24.163|||110000438458|237
9/25/2018 3:00:00 AM||AKTIFBANK|10.40.25.164|||110000438458|881
9/25/2018 3:00:00 AM||AKTIFBANK|10.40.24.164|||110000438458|867
9/25/2018 3:00:00 AM||AKTIFBANK|10.40.25.165|||110000438458|321
9/25/2018 3:00:00 AM||AKTIFBANK|10.40.24.165|||110000438458|363
9/25/2018 3:00:00 AM||AKTIFBANK|10.40.25.166|||110000438458|136
9/25/2018 3:00:00 AM||AKTIFBANK|10.40.24.166|||110000438458|223
9/25/2018 3:00:00 AM||AKTIFBANK|10.40.25.168|||110000438458|318
9/25/2018 3:00:00 AM||AKTIFBANK|10.40.24.168|||110000438458|366
9/25/2018 3:00:00 AM||AKTIFBANK|10.40.25.169|||110000438458|349
9/25/2018 3:00:00 AM||AKTIFBANK|10.40.24.169|||110000438458|313
9/25/2018 3:00:00 AM||AKTIFBANK|10.40.25.170|||110000438458|387
9/25/2018 3:00:00 AM||AKTIFBANK|10.40.24.170|||110000438458|867
9/25/2018 3:00:00 AM||AKTIFBANK|10.40.25.179|||110000438458|917
9/25/2018 3:00:00 AM||AKTIFBANK|10.40.24.179|||110000438458|989
9/25/2018 3:00:00 AM||AKTIFBANK|10.40.25.186|||110000438458|187
9/25/2018 3:00:00 AM||AKTIFBANK|10.40.24.186|||110000438458|210
9/25/2018 3:00:00 AM||MARS CINEMA|10.40.25.203|||110000472614|1341
9/25/2018 3:00:00 AM||MARS CINEMA|10.40.24.203|||110000472614|1337
9/25/2018 3:00:00 AM||MARS CINEMA|10.40.25.206|||110000472614|444
9/25/2018 3:00:00 AM||PEGASUS|10.40.26.62|||110000423831|309
9/25/2018 3:00:00 AM||PEGASUS|10.40.26.63|||110000423831|1738
9/25/2018 3:00:00 AM||PEGASUS|10.40.26.64|||110000423831|163
9/25/2018 3:00:00 AM||PEGASUS|10.40.27.67|||110000423831|1287
9/25/2018 3:00:00 AM||PEGASUS|10.40.27.68|||110000423831|308
9/25/2018 3:00:00 AM||PEGASUS|10.40.27.87|||110000423831|281
9/25/2018 3:00:00 AM||PEGASUS|10.40.26.87|||110000423831|304
9/25/2018 3:00:00 AM||BOYNER|10.40.27.95|||101367941673|470
9/25/2018 3:00:00 AM||BOYNER|10.40.26.95|||101367941673|435
9/25/2018 3:00:00 AM||BOYNER|10.40.27.96|||101367941673|854
9/25/2018 3:00:00 AM||BOYNER|10.40.26.96|||101367941673|932
9/25/2018 3:00:00 AM||BOYNER|10.40.27.99|||101367941673|279
9/25/2018 3:00:00 AM||BOYNER|10.40.26.99|||101367941673|294
