9/14/2018 1:00:00 PM||HAVAS|10.40.25.45|||110000479675|341
9/14/2018 1:00:00 PM||HAVAS|10.40.24.45|||110000479675|401
9/14/2018 1:00:00 PM||HAVAS|10.40.25.46|||110000479675|508
9/14/2018 1:00:00 PM||PWC|10.40.24.67|||110000433262|588
9/14/2018 1:00:00 PM||PWC|10.40.25.68|||110000433262|378
9/14/2018 1:00:00 PM||PWC|10.40.25.69|||110000433262|286
9/14/2018 1:00:00 PM||PWC|10.40.24.69|||110000433262|289
9/14/2018 1:00:00 PM||CALIK HOLDING|10.40.25.94|||110000438408|680
9/14/2018 1:00:00 PM||CALIK HOLDING|10.40.24.94|||110000438408|720
9/14/2018 1:00:00 PM||CALIK HOLDING|10.40.25.97|||110000438408|680
9/14/2018 1:00:00 PM||CALIK HOLDING|10.40.25.100|||110000438408|76
9/14/2018 1:00:00 PM||CALIK HOLDING|10.40.24.100|||110000438408|74
9/14/2018 1:00:00 PM||CALIK HOLDING|10.40.25.101|||110000438408|615
9/14/2018 1:00:00 PM||CALIK HOLDING|10.40.24.101|||110000438408|747
9/14/2018 1:00:00 PM||CALIK HOLDING|10.40.25.102|||110000438408|331
9/14/2018 1:00:00 PM||CALIK HOLDING|10.40.24.102|||110000438408|312
9/14/2018 1:00:00 PM||CALIK HOLDING|10.40.25.103|||110000438408|265
9/14/2018 1:00:00 PM||CALIK HOLDING|10.40.24.103|||110000438408|300
9/14/2018 1:00:00 PM||CALIK HOLDING|10.40.25.104|||110000438408|1151
9/14/2018 1:00:00 PM||CALIK HOLDING|10.40.24.113|||110000438408|740
9/14/2018 1:00:00 PM||CALIK HOLDING|10.40.25.115|||110000438408|517
9/14/2018 1:00:00 PM||CALIK HOLDING|10.40.24.115|||110000438408|528
9/14/2018 1:00:00 PM||CALIK HOLDING|10.40.25.116|||110000438408|478
9/14/2018 1:00:00 PM||CALIK HOLDING|10.40.24.116|||110000438408|464
9/14/2018 1:00:00 PM||CALIK HOLDING|10.40.25.117|||110000438408|287
9/14/2018 1:00:00 PM||CALIK HOLDING|10.40.24.117|||110000438408|249
9/14/2018 1:00:00 PM||CALIK HOLDING|10.40.25.119|||110000438408|70
9/14/2018 1:00:00 PM||CALIK HOLDING|10.40.24.119|||110000438408|221
9/14/2018 1:00:00 PM||CALIK HOLDING|10.40.25.120|||110000438408|570
9/14/2018 1:00:00 PM||CALIK HOLDING|10.40.24.120|||110000438408|576
9/14/2018 1:00:00 PM||CALIK HOLDING|10.40.25.121|||110000438408|320
9/14/2018 1:00:00 PM||CALIK HOLDING|10.40.24.121|||110000438408|322
9/14/2018 1:00:00 PM||CALIK HOLDING|10.40.25.122|||110000438408|254
9/14/2018 1:00:00 PM||CALIK HOLDING|10.40.24.122|||110000438408|299
9/14/2018 1:00:00 PM||AKTIFBANK|10.40.25.128|||110000438458|275
9/14/2018 1:00:00 PM||AKTIFBANK|10.40.24.128|||110000438458|465
9/14/2018 1:00:00 PM||AKTIFBANK|10.40.25.129|||110000438458|800
9/14/2018 1:00:00 PM||AKTIFBANK|10.40.25.130|||110000438458|752
9/14/2018 1:00:00 PM||AKTIFBANK|10.40.24.130|||110000438458|694
9/14/2018 1:00:00 PM||AKTIFBANK|10.40.25.131|||110000438458|633
9/14/2018 1:00:00 PM||AKTIFBANK|10.40.24.131|||110000438458|654
9/14/2018 1:00:00 PM||AKTIFBANK|10.40.25.132|||110000438458|444
9/14/2018 1:00:00 PM||AKTIFBANK|10.40.24.132|||110000438458|442
9/14/2018 1:00:00 PM||AKTIFBANK|10.40.25.133|||110000438458|400
9/14/2018 1:00:00 PM||AKTIFBANK|10.40.24.133|||110000438458|700
9/14/2018 1:00:00 PM||AKTIFBANK|10.40.25.138|||110000438458|254
9/14/2018 1:00:00 PM||AKTIFBANK|10.40.24.138|||110000438458|535
9/14/2018 1:00:00 PM||AKTIFBANK|10.40.25.139|||110000438458|162
9/14/2018 1:00:00 PM||AKTIFBANK|10.40.24.139|||110000438458|242
9/14/2018 1:00:00 PM||AKTIFBANK|10.40.25.140|||110000438458|262
9/14/2018 1:00:00 PM||AKTIFBANK|10.40.24.140|||110000438458|359
9/14/2018 1:00:00 PM||AKTIFBANK|10.40.25.141|||110000438458|499
9/14/2018 1:00:00 PM||AKTIFBANK|10.40.24.141|||110000438458|658
9/14/2018 1:00:00 PM||AKTIFBANK|10.40.25.142|||110000438458|38
9/14/2018 1:00:00 PM||AKTIFBANK|10.40.25.143|||110000438458|851
9/14/2018 1:00:00 PM||AKTIFBANK|10.40.25.144|||110000438458|180
9/14/2018 1:00:00 PM||AKTIFBANK|10.40.24.144|||110000438458|268
9/14/2018 1:00:00 PM||AKTIFBANK|10.40.25.145|||110000438458|291
9/14/2018 1:00:00 PM||AKTIFBANK|10.40.24.145|||110000438458|405
9/14/2018 1:00:00 PM||AKTIFBANK|10.40.25.147|||110000438458|87
9/14/2018 1:00:00 PM||AKTIFBANK|10.40.24.147|||110000438458|87
9/14/2018 1:00:00 PM||AKTIFBANK|10.40.25.148|||110000438458|1045
9/14/2018 1:00:00 PM||AKTIFBANK|10.40.25.152|||110000438458|755
9/14/2018 1:00:00 PM||AKTIFBANK|10.40.25.153|||110000438458|212
9/14/2018 1:00:00 PM||AKTIFBANK|10.40.24.153|||110000438458|255
9/14/2018 1:00:00 PM||AKTIFBANK|10.40.25.154|||110000438458|42
9/14/2018 1:00:00 PM||AKTIFBANK|10.40.24.154|||110000438458|136
9/14/2018 1:00:00 PM||AKTIFBANK|10.40.25.155|||110000438458|481
9/14/2018 1:00:00 PM||AKTIFBANK|10.40.24.155|||110000438458|520
9/14/2018 1:00:00 PM||AKTIFBANK|10.40.25.157|||110000438458|336
9/14/2018 1:00:00 PM||AKTIFBANK|10.40.24.157|||110000438458|351
9/14/2018 1:00:00 PM||AKTIFBANK|10.40.25.158|||110000438458|159
9/14/2018 1:00:00 PM||AKTIFBANK|10.40.24.158|||110000438458|632
9/14/2018 1:00:00 PM||AKTIFBANK|10.40.25.159|||110000438458|162
9/14/2018 1:00:00 PM||AKTIFBANK|10.40.24.159|||110000438458|357
9/14/2018 1:00:00 PM||AKTIFBANK|10.40.25.160|||110000438458|194
9/14/2018 1:00:00 PM||AKTIFBANK|10.40.24.160|||110000438458|240
9/14/2018 1:00:00 PM||AKTIFBANK|10.40.25.161|||110000438458|249
9/14/2018 1:00:00 PM||AKTIFBANK|10.40.24.161|||110000438458|403
9/14/2018 1:00:00 PM||AKTIFBANK|10.40.25.162|||110000438458|203
9/14/2018 1:00:00 PM||AKTIFBANK|10.40.24.162|||110000438458|543
9/14/2018 1:00:00 PM||AKTIFBANK|10.40.25.163|||110000438458|46
9/14/2018 1:00:00 PM||AKTIFBANK|10.40.25.164|||110000438458|887
9/14/2018 1:00:00 PM||AKTIFBANK|10.40.24.164|||110000438458|869
9/14/2018 1:00:00 PM||AKTIFBANK|10.40.25.165|||110000438458|327
9/14/2018 1:00:00 PM||AKTIFBANK|10.40.24.165|||110000438458|369
9/14/2018 1:00:00 PM||AKTIFBANK|10.40.25.166|||110000438458|128
9/14/2018 1:00:00 PM||AKTIFBANK|10.40.24.166|||110000438458|230
9/14/2018 1:00:00 PM||AKTIFBANK|10.40.25.168|||110000438458|318
9/14/2018 1:00:00 PM||AKTIFBANK|10.40.24.168|||110000438458|380
9/14/2018 1:00:00 PM||AKTIFBANK|10.40.25.169|||110000438458|335
9/14/2018 1:00:00 PM||AKTIFBANK|10.40.24.169|||110000438458|311
9/14/2018 1:00:00 PM||AKTIFBANK|10.40.25.170|||110000438458|397
9/14/2018 1:00:00 PM||AKTIFBANK|10.40.24.170|||110000438458|886
9/14/2018 1:00:00 PM||AKTIFBANK|10.40.25.179|||110000438458|951
9/14/2018 1:00:00 PM||AKTIFBANK|10.40.24.179|||110000438458|1026
9/14/2018 1:00:00 PM||AKTIFBANK|10.40.25.186|||110000438458|187
9/14/2018 1:00:00 PM||AKTIFBANK|10.40.24.186|||110000438458|216
9/14/2018 1:00:00 PM||MARS CINEMA|10.40.25.206|||110000472614|304
9/14/2018 1:00:00 PM||PEGASUS|10.40.26.62|||110000423831|308
9/14/2018 1:00:00 PM||PEGASUS|10.40.26.64|||110000423831|159
9/14/2018 1:00:00 PM||PEGASUS|10.40.27.67|||110000423831|1276
9/14/2018 1:00:00 PM||PEGASUS|10.40.27.68|||110000423831|311
9/14/2018 1:00:00 PM||PEGASUS|10.40.27.87|||110000423831|279
9/14/2018 1:00:00 PM||PEGASUS|10.40.26.87|||110000423831|302
9/14/2018 1:00:00 PM||BOYNER|10.40.26.95|||101367941673|412
